[Date: 2019-11-04 08:42:37]	[Userid:dev/gbarinque]	[TransactionID:1572828157]	[Database Connection : connected to import]
[Date: 2019-11-04 08:42:38]	[Userid:dev/gbarinque]	[TransactionID:1572828158]	[DATABASE: IMPORT]	[Action:UploadFile('GST_Template-1.xlsx')]	[Remarks: File uploaded successfully
[Date: 2019-11-04 08:42:38]	[Userid:dev/gbarinque]	[TransactionID:1572828158]	[Database Connection : connected to import]
[Date: 2019-11-04 08:42:38]	[Userid:dev/gbarinque]	[TransactionID:1572828158]	bernard -- 0
[Date: 2019-11-04 08:42:38]	[Userid:dev/gbarinque]	[TransactionID:1572828158]	bernard -- 2
[Date: 2019-11-04 08:42:38]	[Userid:dev/gbarinque]	[TransactionID:1572828158]	[ReadAndExecute : GSTFileUpload]
[Date: 2019-11-04 08:42:38]	[Userid:dev/gbarinque]	[TransactionID:1572828158]	[ReadAndExecute : Reading row 2 to 12]
[Date: 2019-11-04 08:43:45]	[Userid:dev/gbarinque]	[TransactionID:1572828225]	[Database Connection : connected to import]
[Date: 2019-11-04 08:43:45]	[Userid:dev/gbarinque]	[TransactionID:1572828225]	[DATABASE: IMPORT]	[Action:UploadFile('GST_Template-1.xlsx')]	[Remarks: File uploaded successfully
[Date: 2019-11-04 08:43:45]	[Userid:dev/gbarinque]	[TransactionID:1572828225]	[Database Connection : connected to import]
[Date: 2019-11-04 08:43:45]	[Userid:dev/gbarinque]	[TransactionID:1572828225]	bernard -- 0
[Date: 2019-11-04 08:43:45]	[Userid:dev/gbarinque]	[TransactionID:1572828225]	bernard -- 2
[Date: 2019-11-04 08:43:45]	[Userid:dev/gbarinque]	[TransactionID:1572828225]	[ReadAndExecute : GSTFileUpload]
[Date: 2019-11-04 08:43:45]	[Userid:dev/gbarinque]	[TransactionID:1572828225]	[ReadAndExecute : Reading row 2 to 12]
