[Date: 2016-02-17 07:13:40]	[UserID:]	[IP:10.10.11.1]	[Browser:Chrome - 48.0.2564.109]	[Action:Making connection to server]	[Remarks:Successful connection to server: S3]
[Date: 2016-02-17 07:13:41]	[UserID:]	[IP:10.10.11.1]	[Browser:Chrome - 48.0.2564.109]	[Action:GetProgramList ]	[Remarks:"no data"]
[Date: 2016-02-17 07:13:46]	[UserID:06/371]	[IP:10.10.11.1]	[Browser:Chrome - 48.0.2564.109]	[Action:Making connection to server]	[Remarks:Successful connection to server: S3]
[Date: 2016-02-17 07:13:46]	[UserID:06/371]	[IP:10.10.11.1]	[Browser:Chrome - 48.0.2564.109]	[Action:User 06/371]	[Remarks:Success]
[Date: 2016-02-17 07:13:46]	[UserID:06/371]	[IP:10.10.11.1]	[Browser:Chrome - 48.0.2564.109]	[Action:Filtering User : MasterData Username : 06/371]	[Remarks:Successful filter row count: 0]
[Date: 2016-02-17 07:13:46]	[UserID:06/371]	[IP:10.10.11.1]	[Browser:Chrome - 48.0.2564.109]	[Action:Filtering User : MasterData Username : 06/371]	[Remarks:Successful filter row count: 0]
[Date: 2016-02-17 07:13:46]	[UserID:06/371]	[IP:10.10.11.1]	[Browser:Chrome - 48.0.2564.109]	[Action:Filtering User : MasterData Username : 06/371]	[Remarks:Success]
[Date: 2016-02-17 07:13:46]	[UserID:06/371]	[IP:10.10.11.1]	[Browser:Chrome - 48.0.2564.109]	[Action:Closing mssql connection]	[Remarks:Success]
[Date: 2016-02-17 07:13:46]	[UserID:06/371]	[IP:10.10.11.1]	[Browser:Chrome - 48.0.2564.109]	[Action:Making connection to server]	[Remarks:Successful connection to server: S3]
[Date: 2016-02-17 07:13:46]	[UserID:06/371]	[IP:10.10.11.1]	[Browser:Chrome - 48.0.2564.109]	[Action:GetProgramList 06/371]	[Remarks:[{"ID":"1","ProgramIndex":"GST","ProgramName":"GST"}]]
[Date: 2016-02-17 07:13:46]	[UserID:06/371]	[IP:10.10.11.1]	[Browser:Chrome - 48.0.2564.109]	[Action:Making connection to server]	[Remarks:Successful connection to server: S3]
[Date: 2016-02-17 07:13:47]	[UserID:06/371]	[IP:10.10.11.1]	[Browser:Chrome - 48.0.2564.109]	[Action:GetProgramList 06/371]	[Remarks:[{"ID":"1","ProgramIndex":"GST","ProgramName":"GST"}]]
[Date: 2016-02-17 07:13:47]	[UserID:06/371]	[IP:10.10.11.1]	[Browser:Chrome - 48.0.2564.109]	[Action:Making connection to server]	[Remarks:Successful connection to server: S3]
[Date: 2016-02-17 07:13:47]	[UserID:06/371]	[IP:10.10.11.1]	[Browser:Chrome - 48.0.2564.109]	[Action:Filtering User : MasterData Username : 06/371]	[Remarks:Successful filter row count: 1]
[Date: 2016-02-17 07:13:47]	[UserID:06/371]	[IP:10.10.11.1]	[Browser:Chrome - 48.0.2564.109]	[Action:Making connection to server]	[Remarks:Successful connection to server: S3]
[Date: 2016-02-17 07:13:47]	[UserID:06/371]	[IP:10.10.11.1]	[Browser:Chrome - 48.0.2564.109]	[Action:GetGSTModules 06/371,1]	[Remarks:Successful filter row count: 5]
[Date: 2016-02-17 07:13:47]	[UserID:06/371]	[IP:10.10.11.1]	[Browser:Chrome - 48.0.2564.109]	[Action:Closing mssql connection]	[Remarks:Success]
[Date: 2016-02-17 07:16:25]	[UserID:06/371]	[IP:10.10.11.1]	[Browser:Chrome - 48.0.2564.109]	[Action:Making connection to server]	[Remarks:Successful connection to server: S3]
[Date: 2016-02-17 07:16:25]	[UserID:06/371]	[IP:10.10.11.1]	[Browser:Chrome - 48.0.2564.109]	[Action:GetGSTModules 06/371,1]	[Remarks:Successful filter row count: 5]
[Date: 2016-02-17 07:16:25]	[UserID:06/371]	[IP:10.10.11.1]	[Browser:Chrome - 48.0.2564.109]	[Action:Closing mssql connection]	[Remarks:Success]
[Date: 2016-02-17 07:18:05]	[UserID:06/371]	[IP:10.10.11.1]	[Browser:Chrome - 48.0.2564.109]	[Action:Making connection to server]	[Remarks:Successful connection to server: S3]
[Date: 2016-02-17 07:18:05]	[UserID:06/371]	[IP:10.10.11.1]	[Browser:Chrome - 48.0.2564.109]	[Action:GetGSTModules 06/371,1]	[Remarks:Successful filter row count: 5]
[Date: 2016-02-17 07:18:05]	[UserID:06/371]	[IP:10.10.11.1]	[Browser:Chrome - 48.0.2564.109]	[Action:Closing mssql connection]	[Remarks:Success]
[Date: 2016-02-17 07:18:17]	[UserID:06/371]	[IP:10.10.11.1]	[Browser:Chrome - 48.0.2564.109]	[Action:Making connection to server]	[Remarks:Successful connection to server: S3]
[Date: 2016-02-17 07:18:17]	[UserID:06/371]	[IP:10.10.11.1]	[Browser:Chrome - 48.0.2564.109]	[Action:GetGSTModules 06/371,1]	[Remarks:Successful filter row count: 5]
[Date: 2016-02-17 07:18:17]	[UserID:06/371]	[IP:10.10.11.1]	[Browser:Chrome - 48.0.2564.109]	[Action:Closing mssql connection]	[Remarks:Success]
[Date: 2016-02-17 07:31:59]	[UserID:]	[IP:10.10.11.1]	[Browser:Chrome - 48.0.2564.109]	[Action:Making connection to server]	[Remarks:Successful connection to server: S3]
[Date: 2016-02-17 07:31:59]	[UserID:]	[IP:10.10.11.1]	[Browser:Chrome - 48.0.2564.109]	[Action:GetProgramList ]	[Remarks:"no data"]
[Date: 2016-02-17 07:34:21]	[UserID:06/343]	[IP:10.10.11.1]	[Browser:Chrome - 48.0.2564.109]	[Action:Making connection to server]	[Remarks:Successful connection to server: S3]
[Date: 2016-02-17 07:34:21]	[UserID:06/343]	[IP:10.10.11.1]	[Browser:Chrome - 48.0.2564.109]	[Action:User 06/343]	[Remarks:Success]
[Date: 2016-02-17 07:34:21]	[UserID:06/343]	[IP:10.10.11.1]	[Browser:Chrome - 48.0.2564.109]	[Action:Filtering User : MasterData Username : 06/343]	[Remarks:Successful filter row count: 0]
[Date: 2016-02-17 07:34:21]	[UserID:06/343]	[IP:10.10.11.1]	[Browser:Chrome - 48.0.2564.109]	[Action:Filtering User : MasterData Username : 06/343]	[Remarks:Successful filter row count: 0]
[Date: 2016-02-17 07:34:21]	[UserID:06/343]	[IP:10.10.11.1]	[Browser:Chrome - 48.0.2564.109]	[Action:Filtering User : MasterData Username : 06/343]	[Remarks:Success]
[Date: 2016-02-17 07:34:21]	[UserID:06/343]	[IP:10.10.11.1]	[Browser:Chrome - 48.0.2564.109]	[Action:Closing mssql connection]	[Remarks:Success]
[Date: 2016-02-17 07:34:21]	[UserID:06/343]	[IP:10.10.11.1]	[Browser:Chrome - 48.0.2564.109]	[Action:Making connection to server]	[Remarks:Successful connection to server: S3]
[Date: 2016-02-17 07:34:21]	[UserID:06/343]	[IP:10.10.11.1]	[Browser:Chrome - 48.0.2564.109]	[Action:GetProgramList 06/343]	[Remarks:[{"ID":"1","ProgramIndex":"GST","ProgramName":"GST"}]]
[Date: 2016-02-17 07:34:21]	[UserID:06/343]	[IP:10.10.11.1]	[Browser:Chrome - 48.0.2564.109]	[Action:Making connection to server]	[Remarks:Successful connection to server: S3]
[Date: 2016-02-17 07:34:21]	[UserID:06/343]	[IP:10.10.11.1]	[Browser:Chrome - 48.0.2564.109]	[Action:GetProgramList 06/343]	[Remarks:[{"ID":"1","ProgramIndex":"GST","ProgramName":"GST"}]]
[Date: 2016-02-17 07:34:21]	[UserID:06/343]	[IP:10.10.11.1]	[Browser:Chrome - 48.0.2564.109]	[Action:Making connection to server]	[Remarks:Successful connection to server: S3]
[Date: 2016-02-17 07:34:21]	[UserID:06/343]	[IP:10.10.11.1]	[Browser:Chrome - 48.0.2564.109]	[Action:Filtering User : MasterData Username : 06/343]	[Remarks:Successful filter row count: 1]
[Date: 2016-02-17 07:34:22]	[UserID:06/343]	[IP:10.10.11.1]	[Browser:Chrome - 48.0.2564.109]	[Action:Making connection to server]	[Remarks:Successful connection to server: S3]
[Date: 2016-02-17 07:34:22]	[UserID:06/343]	[IP:10.10.11.1]	[Browser:Chrome - 48.0.2564.109]	[Action:GetGSTModules 06/343,1]	[Remarks:Successful filter row count: 5]
[Date: 2016-02-17 07:34:22]	[UserID:06/343]	[IP:10.10.11.1]	[Browser:Chrome - 48.0.2564.109]	[Action:Closing mssql connection]	[Remarks:Success]
[Date: 2016-02-17 07:36:00]	[UserID:06/343]	[IP:10.10.11.1]	[Browser:Chrome - 48.0.2564.109]	[Action:Making connection to server]	[Remarks:Successful connection to server: S3]
[Date: 2016-02-17 07:36:00]	[UserID:06/343]	[IP:10.10.11.1]	[Browser:Chrome - 48.0.2564.109]	[Action:GetGSTModules 06/343,1]	[Remarks:Successful filter row count: 5]
[Date: 2016-02-17 07:36:00]	[UserID:06/343]	[IP:10.10.11.1]	[Browser:Chrome - 48.0.2564.109]	[Action:Closing mssql connection]	[Remarks:Success]
[Date: 2016-02-17 07:54:27]	[UserID:06/343]	[IP:10.10.11.1]	[Browser:Chrome - 48.0.2564.109]	[Action:Making connection to server]	[Remarks:Successful connection to server: S3]
[Date: 2016-02-17 07:54:27]	[UserID:06/343]	[IP:10.10.11.1]	[Browser:Chrome - 48.0.2564.109]	[Action:GetGSTModules 06/343,1]	[Remarks:Successful filter row count: 5]
[Date: 2016-02-17 07:54:27]	[UserID:06/343]	[IP:10.10.11.1]	[Browser:Chrome - 48.0.2564.109]	[Action:Closing mssql connection]	[Remarks:Success]
[Date: 2016-02-17 07:59:09]	[UserID:06/343]	[IP:10.10.11.1]	[Browser:Chrome - 48.0.2564.109]	[Action:Making connection to server]	[Remarks:Successful connection to server: S3]
[Date: 2016-02-17 07:59:09]	[UserID:06/343]	[IP:10.10.11.1]	[Browser:Chrome - 48.0.2564.109]	[Action:GetGSTModules 06/343,1]	[Remarks:Successful filter row count: 5]
[Date: 2016-02-17 07:59:09]	[UserID:06/343]	[IP:10.10.11.1]	[Browser:Chrome - 48.0.2564.109]	[Action:Closing mssql connection]	[Remarks:Success]
[Date: 2016-02-17 08:31:53]	[UserID:]	[IP:10.10.11.1]	[Browser:Chrome - 48.0.2564.109]	[Action:Making connection to server]	[Remarks:Successful connection to server: S3]
[Date: 2016-02-17 08:31:53]	[UserID:]	[IP:10.10.11.1]	[Browser:Chrome - 48.0.2564.109]	[Action:GetProgramList ]	[Remarks:"no data"]
[Date: 2016-02-17 08:31:55]	[UserID:10/660]	[IP:10.10.11.1]	[Browser:Chrome - 48.0.2564.109]	[Action:Making connection to server]	[Remarks:Successful connection to server: S3]
[Date: 2016-02-17 08:31:55]	[UserID:10/660]	[IP:10.10.11.1]	[Browser:Chrome - 48.0.2564.109]	[Action:User 10/660]	[Remarks:Success]
[Date: 2016-02-17 08:31:55]	[UserID:10/660]	[IP:10.10.11.1]	[Browser:Chrome - 48.0.2564.109]	[Action:Filtering User : MasterData Username : 10/660]	[Remarks:Successful filter row count: 0]
[Date: 2016-02-17 08:31:55]	[UserID:10/660]	[IP:10.10.11.1]	[Browser:Chrome - 48.0.2564.109]	[Action:Filtering User : MasterData Username : 10/660]	[Remarks:Successful filter row count: 0]
[Date: 2016-02-17 08:31:55]	[UserID:10/660]	[IP:10.10.11.1]	[Browser:Chrome - 48.0.2564.109]	[Action:Filtering User : MasterData Username : 10/660]	[Remarks:Success]
[Date: 2016-02-17 08:31:55]	[UserID:10/660]	[IP:10.10.11.1]	[Browser:Chrome - 48.0.2564.109]	[Action:Closing mssql connection]	[Remarks:Success]
[Date: 2016-02-17 08:31:55]	[UserID:10/660]	[IP:10.10.11.1]	[Browser:Chrome - 48.0.2564.109]	[Action:Making connection to server]	[Remarks:Successful connection to server: S3]
[Date: 2016-02-17 08:31:55]	[UserID:10/660]	[IP:10.10.11.1]	[Browser:Chrome - 48.0.2564.109]	[Action:GetProgramList 10/660]	[Remarks:[{"ID":"1","ProgramIndex":"GST","ProgramName":"GST"}]]
[Date: 2016-02-17 08:31:55]	[UserID:10/660]	[IP:10.10.11.1]	[Browser:Chrome - 48.0.2564.109]	[Action:Making connection to server]	[Remarks:Successful connection to server: S3]
[Date: 2016-02-17 08:31:55]	[UserID:10/660]	[IP:10.10.11.1]	[Browser:Chrome - 48.0.2564.109]	[Action:GetProgramList 10/660]	[Remarks:[{"ID":"1","ProgramIndex":"GST","ProgramName":"GST"}]]
[Date: 2016-02-17 08:31:55]	[UserID:10/660]	[IP:10.10.11.1]	[Browser:Chrome - 48.0.2564.109]	[Action:Making connection to server]	[Remarks:Successful connection to server: S3]
[Date: 2016-02-17 08:31:55]	[UserID:10/660]	[IP:10.10.11.1]	[Browser:Chrome - 48.0.2564.109]	[Action:Filtering User : MasterData Username : 10/660]	[Remarks:Successful filter row count: 1]
[Date: 2016-02-17 08:31:56]	[UserID:10/660]	[IP:10.10.11.1]	[Browser:Chrome - 48.0.2564.109]	[Action:Making connection to server]	[Remarks:Successful connection to server: S3]
[Date: 2016-02-17 08:31:56]	[UserID:10/660]	[IP:10.10.11.1]	[Browser:Chrome - 48.0.2564.109]	[Action:GetGSTModules 10/660,1]	[Remarks:Successful filter row count: 3]
[Date: 2016-02-17 08:31:56]	[UserID:10/660]	[IP:10.10.11.1]	[Browser:Chrome - 48.0.2564.109]	[Action:Closing mssql connection]	[Remarks:Success]
[Date: 2016-02-17 08:32:29]	[UserID:]	[IP:10.10.11.1]	[Browser:Chrome - 48.0.2564.109]	[Action:Making connection to server]	[Remarks:Successful connection to server: S3]
[Date: 2016-02-17 08:32:29]	[UserID:]	[IP:10.10.11.1]	[Browser:Chrome - 48.0.2564.109]	[Action:GetProgramList ]	[Remarks:"no data"]
[Date: 2016-02-17 08:37:30]	[UserID:]	[IP:10.10.11.1]	[Browser:Chrome - 48.0.2564.109]	[Action:Making connection to server]	[Remarks:Successful connection to server: S3]
[Date: 2016-02-17 08:37:30]	[UserID:]	[IP:10.10.11.1]	[Browser:Chrome - 48.0.2564.109]	[Action:GetProgramList ]	[Remarks:"no data"]
[Date: 2016-02-17 08:37:33]	[UserID:08/504]	[IP:10.10.11.1]	[Browser:Chrome - 48.0.2564.109]	[Action:Making connection to server]	[Remarks:Successful connection to server: S3]
[Date: 2016-02-17 08:37:33]	[UserID:08/504]	[IP:10.10.11.1]	[Browser:Chrome - 48.0.2564.109]	[Action:User 08/504]	[Remarks:Success]
[Date: 2016-02-17 08:37:33]	[UserID:08/504]	[IP:10.10.11.1]	[Browser:Chrome - 48.0.2564.109]	[Action:Filtering User : MasterData Username : 08/504]	[Remarks:Successful filter row count: 0]
[Date: 2016-02-17 08:37:33]	[UserID:08/504]	[IP:10.10.11.1]	[Browser:Chrome - 48.0.2564.109]	[Action:Filtering User : MasterData Username : 08/504]	[Remarks:Successful filter row count: 0]
[Date: 2016-02-17 08:37:33]	[UserID:08/504]	[IP:10.10.11.1]	[Browser:Chrome - 48.0.2564.109]	[Action:Filtering User : MasterData Username : 08/504]	[Remarks:Success]
[Date: 2016-02-17 08:37:33]	[UserID:08/504]	[IP:10.10.11.1]	[Browser:Chrome - 48.0.2564.109]	[Action:Closing mssql connection]	[Remarks:Success]
[Date: 2016-02-17 08:37:34]	[UserID:08/504]	[IP:10.10.11.1]	[Browser:Chrome - 48.0.2564.109]	[Action:Making connection to server]	[Remarks:Successful connection to server: S3]
[Date: 2016-02-17 08:37:34]	[UserID:08/504]	[IP:10.10.11.1]	[Browser:Chrome - 48.0.2564.109]	[Action:GetProgramList 08/504]	[Remarks:[{"ID":"1","ProgramIndex":"GST","ProgramName":"GST"}]]
[Date: 2016-02-17 08:37:34]	[UserID:08/504]	[IP:10.10.11.1]	[Browser:Chrome - 48.0.2564.109]	[Action:Making connection to server]	[Remarks:Successful connection to server: S3]
[Date: 2016-02-17 08:37:34]	[UserID:08/504]	[IP:10.10.11.1]	[Browser:Chrome - 48.0.2564.109]	[Action:GetProgramList 08/504]	[Remarks:[{"ID":"1","ProgramIndex":"GST","ProgramName":"GST"}]]
[Date: 2016-02-17 08:37:34]	[UserID:08/504]	[IP:10.10.11.1]	[Browser:Chrome - 48.0.2564.109]	[Action:Making connection to server]	[Remarks:Successful connection to server: S3]
[Date: 2016-02-17 08:37:34]	[UserID:08/504]	[IP:10.10.11.1]	[Browser:Chrome - 48.0.2564.109]	[Action:Filtering User : MasterData Username : 08/504]	[Remarks:Successful filter row count: 1]
[Date: 2016-02-17 08:37:34]	[UserID:08/504]	[IP:10.10.11.1]	[Browser:Chrome - 48.0.2564.109]	[Action:Making connection to server]	[Remarks:Successful connection to server: S3]
[Date: 2016-02-17 08:37:34]	[UserID:08/504]	[IP:10.10.11.1]	[Browser:Chrome - 48.0.2564.109]	[Action:GetGSTModules 08/504,1]	[Remarks:Successful filter row count: 3]
[Date: 2016-02-17 08:37:34]	[UserID:08/504]	[IP:10.10.11.1]	[Browser:Chrome - 48.0.2564.109]	[Action:Closing mssql connection]	[Remarks:Success]
[Date: 2016-02-17 08:39:22]	[UserID:06/371]	[IP:10.10.11.1]	[Browser:Chrome - 48.0.2564.109]	[Action:Making connection to server]	[Remarks:Successful connection to server: S3]
[Date: 2016-02-17 08:39:22]	[UserID:06/371]	[IP:10.10.11.1]	[Browser:Chrome - 48.0.2564.109]	[Action:GetProgramList 06/371]	[Remarks:[{"ID":"1","ProgramIndex":"GST","ProgramName":"GST"}]]
[Date: 2016-02-17 08:39:22]	[UserID:06/371]	[IP:10.10.11.1]	[Browser:Chrome - 48.0.2564.109]	[Action:Making connection to server]	[Remarks:Successful connection to server: S3]
[Date: 2016-02-17 08:39:22]	[UserID:06/371]	[IP:10.10.11.1]	[Browser:Chrome - 48.0.2564.109]	[Action:GetProgramList 06/371]	[Remarks:[{"ID":"1","ProgramIndex":"GST","ProgramName":"GST"}]]
[Date: 2016-02-17 08:39:22]	[UserID:06/371]	[IP:10.10.11.1]	[Browser:Chrome - 48.0.2564.109]	[Action:Making connection to server]	[Remarks:Successful connection to server: S3]
[Date: 2016-02-17 08:39:22]	[UserID:06/371]	[IP:10.10.11.1]	[Browser:Chrome - 48.0.2564.109]	[Action:Filtering User : MasterData Username : 06/371]	[Remarks:Successful filter row count: 1]
[Date: 2016-02-17 08:39:23]	[UserID:06/371]	[IP:10.10.11.1]	[Browser:Chrome - 48.0.2564.109]	[Action:Making connection to server]	[Remarks:Successful connection to server: S3]
[Date: 2016-02-17 08:39:23]	[UserID:06/371]	[IP:10.10.11.1]	[Browser:Chrome - 48.0.2564.109]	[Action:GetGSTModules 06/371,1]	[Remarks:Successful filter row count: 5]
[Date: 2016-02-17 08:39:23]	[UserID:06/371]	[IP:10.10.11.1]	[Browser:Chrome - 48.0.2564.109]	[Action:Closing mssql connection]	[Remarks:Success]
[Date: 2016-02-17 08:39:38]	[UserID:06/371]	[IP:10.10.11.1]	[Browser:Chrome - 48.0.2564.109]	[Action:Making connection to server]	[Remarks:Successful connection to server: S3]
[Date: 2016-02-17 08:39:38]	[UserID:06/371]	[IP:10.10.11.1]	[Browser:Chrome - 48.0.2564.109]	[Action:GetGSTModules 06/371,1]	[Remarks:Successful filter row count: 5]
[Date: 2016-02-17 08:39:38]	[UserID:06/371]	[IP:10.10.11.1]	[Browser:Chrome - 48.0.2564.109]	[Action:Closing mssql connection]	[Remarks:Success]
[Date: 2016-02-17 08:39:56]	[UserID:08/504]	[IP:10.10.11.1]	[Browser:Chrome - 48.0.2564.109]	[Action:Making connection to server]	[Remarks:Successful connection to server: S3]
[Date: 2016-02-17 08:39:56]	[UserID:08/504]	[IP:10.10.11.1]	[Browser:Chrome - 48.0.2564.109]	[Action:GetGSTModules 08/504,1]	[Remarks:Successful filter row count: 3]
[Date: 2016-02-17 08:39:56]	[UserID:08/504]	[IP:10.10.11.1]	[Browser:Chrome - 48.0.2564.109]	[Action:Closing mssql connection]	[Remarks:Success]
[Date: 2016-02-17 08:42:14]	[UserID:08/504]	[IP:10.10.11.1]	[Browser:Chrome - 48.0.2564.109]	[Action:Making connection to server]	[Remarks:Successful connection to server: S3]
[Date: 2016-02-17 08:42:14]	[UserID:08/504]	[IP:10.10.11.1]	[Browser:Chrome - 48.0.2564.109]	[Action:GetGSTModules 08/504,1]	[Remarks:Successful filter row count: 3]
[Date: 2016-02-17 08:42:14]	[UserID:08/504]	[IP:10.10.11.1]	[Browser:Chrome - 48.0.2564.109]	[Action:Closing mssql connection]	[Remarks:Success]
[Date: 2016-02-17 08:42:45]	[UserID:06/371]	[IP:10.10.11.1]	[Browser:Chrome - 48.0.2564.109]	[Action:Making connection to server]	[Remarks:Successful connection to server: S3]
[Date: 2016-02-17 08:42:45]	[UserID:06/371]	[IP:10.10.11.1]	[Browser:Chrome - 48.0.2564.109]	[Action:GetProgramList 06/371]	[Remarks:[{"ID":"1","ProgramIndex":"GST","ProgramName":"GST"}]]
[Date: 2016-02-17 08:42:45]	[UserID:06/371]	[IP:10.10.11.1]	[Browser:Chrome - 48.0.2564.109]	[Action:Making connection to server]	[Remarks:Successful connection to server: S3]
[Date: 2016-02-17 08:42:45]	[UserID:06/371]	[IP:10.10.11.1]	[Browser:Chrome - 48.0.2564.109]	[Action:GetProgramList 06/371]	[Remarks:[{"ID":"1","ProgramIndex":"GST","ProgramName":"GST"}]]
[Date: 2016-02-17 08:42:45]	[UserID:06/371]	[IP:10.10.11.1]	[Browser:Chrome - 48.0.2564.109]	[Action:Making connection to server]	[Remarks:Successful connection to server: S3]
[Date: 2016-02-17 08:42:45]	[UserID:06/371]	[IP:10.10.11.1]	[Browser:Chrome - 48.0.2564.109]	[Action:Filtering User : MasterData Username : 06/371]	[Remarks:Successful filter row count: 1]
[Date: 2016-02-17 08:42:45]	[UserID:06/371]	[IP:10.10.11.1]	[Browser:Chrome - 48.0.2564.109]	[Action:Making connection to server]	[Remarks:Successful connection to server: S3]
[Date: 2016-02-17 08:42:45]	[UserID:06/371]	[IP:10.10.11.1]	[Browser:Chrome - 48.0.2564.109]	[Action:GetGSTModules 06/371,1]	[Remarks:Successful filter row count: 5]
[Date: 2016-02-17 08:42:45]	[UserID:06/371]	[IP:10.10.11.1]	[Browser:Chrome - 48.0.2564.109]	[Action:Closing mssql connection]	[Remarks:Success]
[Date: 2016-02-17 08:43:18]	[UserID:06/371]	[IP:10.10.11.1]	[Browser:Chrome - 48.0.2564.109]	[Action:Making connection to server]	[Remarks:Successful connection to server: S3]
[Date: 2016-02-17 08:43:18]	[UserID:06/371]	[IP:10.10.11.1]	[Browser:Chrome - 48.0.2564.109]	[Action:GetGSTModules 06/371,1]	[Remarks:Successful filter row count: 5]
[Date: 2016-02-17 08:43:18]	[UserID:06/371]	[IP:10.10.11.1]	[Browser:Chrome - 48.0.2564.109]	[Action:Closing mssql connection]	[Remarks:Success]
[Date: 2016-02-17 08:43:26]	[UserID:08/504]	[IP:10.10.11.1]	[Browser:Chrome - 48.0.2564.109]	[Action:Making connection to server]	[Remarks:Successful connection to server: S3]
[Date: 2016-02-17 08:43:26]	[UserID:08/504]	[IP:10.10.11.1]	[Browser:Chrome - 48.0.2564.109]	[Action:GetGSTModules 08/504,1]	[Remarks:Successful filter row count: 3]
[Date: 2016-02-17 08:43:26]	[UserID:08/504]	[IP:10.10.11.1]	[Browser:Chrome - 48.0.2564.109]	[Action:Closing mssql connection]	[Remarks:Success]
[Date: 2016-02-17 08:43:50]	[UserID:08/504]	[IP:10.10.11.1]	[Browser:Chrome - 48.0.2564.109]	[Action:Making connection to server]	[Remarks:Successful connection to server: S3]
[Date: 2016-02-17 08:43:50]	[UserID:08/504]	[IP:10.10.11.1]	[Browser:Chrome - 48.0.2564.109]	[Action:GetGSTModules 08/504,1]	[Remarks:Successful filter row count: 3]
[Date: 2016-02-17 08:43:50]	[UserID:08/504]	[IP:10.10.11.1]	[Browser:Chrome - 48.0.2564.109]	[Action:Closing mssql connection]	[Remarks:Success]
[Date: 2016-02-17 10:32:49]	[UserID:]	[IP:10.10.11.1]	[Browser:Chrome - 48.0.2564.109]	[Action:Making connection to server]	[Remarks:Successful connection to server: S3]
[Date: 2016-02-17 10:32:49]	[UserID:]	[IP:10.10.11.1]	[Browser:Chrome - 48.0.2564.109]	[Action:GetProgramList ]	[Remarks:"no data"]
[Date: 2016-02-17 10:32:52]	[UserID:15/1125]	[IP:10.10.11.1]	[Browser:Chrome - 48.0.2564.109]	[Action:Making connection to server]	[Remarks:Successful connection to server: S3]
[Date: 2016-02-17 10:32:53]	[UserID:15/1125]	[IP:10.10.11.1]	[Browser:Chrome - 48.0.2564.109]	[Action:User 15/1125]	[Remarks:Success]
[Date: 2016-02-17 10:32:53]	[UserID:15/1125]	[IP:10.10.11.1]	[Browser:Chrome - 48.0.2564.109]	[Action:Filtering User : MasterData Username : 15/1125]	[Remarks:Successful filter row count: 0]
[Date: 2016-02-17 10:32:53]	[UserID:15/1125]	[IP:10.10.11.1]	[Browser:Chrome - 48.0.2564.109]	[Action:Filtering User : MasterData Username : 15/1125]	[Remarks:Successful filter row count: 0]
[Date: 2016-02-17 10:32:53]	[UserID:15/1125]	[IP:10.10.11.1]	[Browser:Chrome - 48.0.2564.109]	[Action:Filtering User : MasterData Username : 15/1125]	[Remarks:Success]
[Date: 2016-02-17 10:32:53]	[UserID:15/1125]	[IP:10.10.11.1]	[Browser:Chrome - 48.0.2564.109]	[Action:Closing mssql connection]	[Remarks:Success]
[Date: 2016-02-17 10:32:53]	[UserID:15/1125]	[IP:10.10.11.1]	[Browser:Chrome - 48.0.2564.109]	[Action:Making connection to server]	[Remarks:Successful connection to server: S3]
[Date: 2016-02-17 10:32:53]	[UserID:15/1125]	[IP:10.10.11.1]	[Browser:Chrome - 48.0.2564.109]	[Action:GetProgramList 15/1125]	[Remarks:[{"ID":"1","ProgramIndex":"GST","ProgramName":"GST"}]]
[Date: 2016-02-17 10:32:53]	[UserID:15/1125]	[IP:10.10.11.1]	[Browser:Chrome - 48.0.2564.109]	[Action:Making connection to server]	[Remarks:Successful connection to server: S3]
[Date: 2016-02-17 10:32:53]	[UserID:15/1125]	[IP:10.10.11.1]	[Browser:Chrome - 48.0.2564.109]	[Action:GetProgramList 15/1125]	[Remarks:[{"ID":"1","ProgramIndex":"GST","ProgramName":"GST"}]]
[Date: 2016-02-17 10:32:53]	[UserID:15/1125]	[IP:10.10.11.1]	[Browser:Chrome - 48.0.2564.109]	[Action:Making connection to server]	[Remarks:Successful connection to server: S3]
[Date: 2016-02-17 10:32:53]	[UserID:15/1125]	[IP:10.10.11.1]	[Browser:Chrome - 48.0.2564.109]	[Action:Filtering User : MasterData Username : 15/1125]	[Remarks:Successful filter row count: 1]
[Date: 2016-02-17 10:32:54]	[UserID:15/1125]	[IP:10.10.11.1]	[Browser:Chrome - 48.0.2564.109]	[Action:Making connection to server]	[Remarks:Successful connection to server: S3]
[Date: 2016-02-17 10:32:54]	[UserID:15/1125]	[IP:10.10.11.1]	[Browser:Chrome - 48.0.2564.109]	[Action:GetGSTModules 15/1125,1]	[Remarks:Successful filter row count: 6]
[Date: 2016-02-17 10:32:54]	[UserID:15/1125]	[IP:10.10.11.1]	[Browser:Chrome - 48.0.2564.109]	[Action:Closing mssql connection]	[Remarks:Success]
[Date: 2016-02-17 10:35:08]	[UserID:15/1125]	[IP:10.10.11.1]	[Browser:Chrome - 48.0.2564.109]	[Action:Making connection to server]	[Remarks:Successful connection to server: S3]
[Date: 2016-02-17 10:35:08]	[UserID:15/1125]	[IP:10.10.11.1]	[Browser:Chrome - 48.0.2564.109]	[Action:GetProgramList 15/1125]	[Remarks:[{"ID":"1","ProgramIndex":"GST","ProgramName":"GST"}]]
[Date: 2016-02-17 10:35:08]	[UserID:15/1125]	[IP:10.10.11.1]	[Browser:Chrome - 48.0.2564.109]	[Action:Making connection to server]	[Remarks:Successful connection to server: S3]
[Date: 2016-02-17 10:35:08]	[UserID:15/1125]	[IP:10.10.11.1]	[Browser:Chrome - 48.0.2564.109]	[Action:GetProgramList 15/1125]	[Remarks:[{"ID":"1","ProgramIndex":"GST","ProgramName":"GST"}]]
[Date: 2016-02-17 10:35:08]	[UserID:15/1125]	[IP:10.10.11.1]	[Browser:Chrome - 48.0.2564.109]	[Action:Making connection to server]	[Remarks:Successful connection to server: S3]
[Date: 2016-02-17 10:35:08]	[UserID:15/1125]	[IP:10.10.11.1]	[Browser:Chrome - 48.0.2564.109]	[Action:Filtering User : MasterData Username : 15/1125]	[Remarks:Successful filter row count: 1]
[Date: 2016-02-17 10:35:08]	[UserID:15/1125]	[IP:10.10.11.1]	[Browser:Chrome - 48.0.2564.109]	[Action:Making connection to server]	[Remarks:Successful connection to server: S3]
[Date: 2016-02-17 10:35:08]	[UserID:15/1125]	[IP:10.10.11.1]	[Browser:Chrome - 48.0.2564.109]	[Action:GetGSTModules 15/1125,1]	[Remarks:Successful filter row count: 6]
[Date: 2016-02-17 10:35:08]	[UserID:15/1125]	[IP:10.10.11.1]	[Browser:Chrome - 48.0.2564.109]	[Action:Closing mssql connection]	[Remarks:Success]
[Date: 2016-02-17 11:03:34]	[UserID:15/1125]	[IP:10.10.11.1]	[Browser:Chrome - 48.0.2564.109]	[Action:Making connection to server]	[Remarks:Successful connection to server: S3]
[Date: 2016-02-17 11:03:34]	[UserID:15/1125]	[IP:10.10.11.1]	[Browser:Chrome - 48.0.2564.109]	[Action:GetProgramList 15/1125]	[Remarks:[{"ID":"1","ProgramIndex":"GST","ProgramName":"GST"}]]
[Date: 2016-02-17 11:03:34]	[UserID:15/1125]	[IP:10.10.11.1]	[Browser:Chrome - 48.0.2564.109]	[Action:Making connection to server]	[Remarks:Successful connection to server: S3]
[Date: 2016-02-17 11:03:34]	[UserID:15/1125]	[IP:10.10.11.1]	[Browser:Chrome - 48.0.2564.109]	[Action:GetProgramList 15/1125]	[Remarks:[{"ID":"1","ProgramIndex":"GST","ProgramName":"GST"}]]
[Date: 2016-02-17 11:03:34]	[UserID:15/1125]	[IP:10.10.11.1]	[Browser:Chrome - 48.0.2564.109]	[Action:Making connection to server]	[Remarks:Successful connection to server: S3]
[Date: 2016-02-17 11:03:34]	[UserID:15/1125]	[IP:10.10.11.1]	[Browser:Chrome - 48.0.2564.109]	[Action:Filtering User : MasterData Username : 15/1125]	[Remarks:Successful filter row count: 1]
[Date: 2016-02-17 11:03:34]	[UserID:15/1125]	[IP:10.10.11.1]	[Browser:Chrome - 48.0.2564.109]	[Action:Making connection to server]	[Remarks:Successful connection to server: S3]
[Date: 2016-02-17 11:03:35]	[UserID:15/1125]	[IP:10.10.11.1]	[Browser:Chrome - 48.0.2564.109]	[Action:GetGSTModules 15/1125,1]	[Remarks:Successful filter row count: 6]
[Date: 2016-02-17 11:03:35]	[UserID:15/1125]	[IP:10.10.11.1]	[Browser:Chrome - 48.0.2564.109]	[Action:Closing mssql connection]	[Remarks:Success]
[Date: 2016-02-17 11:10:48]	[UserID:15/1125]	[IP:10.10.11.1]	[Browser:Chrome - 48.0.2564.109]	[Action:Making connection to server]	[Remarks:Successful connection to server: S3]
[Date: 2016-02-17 11:10:48]	[UserID:15/1125]	[IP:10.10.11.1]	[Browser:Chrome - 48.0.2564.109]	[Action:GetProgramList 15/1125]	[Remarks:[{"ID":"1","ProgramIndex":"GST","ProgramName":"GST"}]]
[Date: 2016-02-17 11:10:48]	[UserID:15/1125]	[IP:10.10.11.1]	[Browser:Chrome - 48.0.2564.109]	[Action:Making connection to server]	[Remarks:Successful connection to server: S3]
[Date: 2016-02-17 11:10:48]	[UserID:15/1125]	[IP:10.10.11.1]	[Browser:Chrome - 48.0.2564.109]	[Action:GetProgramList 15/1125]	[Remarks:[{"ID":"1","ProgramIndex":"GST","ProgramName":"GST"}]]
[Date: 2016-02-17 11:10:48]	[UserID:15/1125]	[IP:10.10.11.1]	[Browser:Chrome - 48.0.2564.109]	[Action:Making connection to server]	[Remarks:Successful connection to server: S3]
[Date: 2016-02-17 11:10:48]	[UserID:15/1125]	[IP:10.10.11.1]	[Browser:Chrome - 48.0.2564.109]	[Action:Filtering User : MasterData Username : 15/1125]	[Remarks:Successful filter row count: 1]
[Date: 2016-02-17 11:10:49]	[UserID:15/1125]	[IP:10.10.11.1]	[Browser:Chrome - 48.0.2564.109]	[Action:Making connection to server]	[Remarks:Successful connection to server: S3]
[Date: 2016-02-17 11:10:49]	[UserID:15/1125]	[IP:10.10.11.1]	[Browser:Chrome - 48.0.2564.109]	[Action:GetGSTModules 15/1125,1]	[Remarks:Successful filter row count: 6]
[Date: 2016-02-17 11:10:49]	[UserID:15/1125]	[IP:10.10.11.1]	[Browser:Chrome - 48.0.2564.109]	[Action:Closing mssql connection]	[Remarks:Success]
[Date: 2016-02-17 11:20:45]	[UserID:15/1125]	[IP:10.10.11.1]	[Browser:Chrome - 48.0.2564.109]	[Action:Making connection to server]	[Remarks:Successful connection to server: S3]
[Date: 2016-02-17 11:20:45]	[UserID:15/1125]	[IP:10.10.11.1]	[Browser:Chrome - 48.0.2564.109]	[Action:GetGSTModules 15/1125,1]	[Remarks:Successful filter row count: 6]
[Date: 2016-02-17 11:20:45]	[UserID:15/1125]	[IP:10.10.11.1]	[Browser:Chrome - 48.0.2564.109]	[Action:Closing mssql connection]	[Remarks:Success]
[Date: 2016-02-17 11:20:47]	[UserID:15/1125]	[IP:10.10.11.1]	[Browser:Chrome - 48.0.2564.109]	[Action:Making connection to server]	[Remarks:Successful connection to server: S3]
[Date: 2016-02-17 11:20:47]	[UserID:15/1125]	[IP:10.10.11.1]	[Browser:Chrome - 48.0.2564.109]	[Action:GetGSTModules 15/1125,1]	[Remarks:Successful filter row count: 6]
[Date: 2016-02-17 11:20:47]	[UserID:15/1125]	[IP:10.10.11.1]	[Browser:Chrome - 48.0.2564.109]	[Action:Closing mssql connection]	[Remarks:Success]
[Date: 2016-02-17 11:20:49]	[UserID:15/1125]	[IP:10.10.11.1]	[Browser:Chrome - 48.0.2564.109]	[Action:Making connection to server]	[Remarks:Successful connection to server: S3]
[Date: 2016-02-17 11:20:49]	[UserID:15/1125]	[IP:10.10.11.1]	[Browser:Chrome - 48.0.2564.109]	[Action:GetGSTModules 15/1125,1]	[Remarks:Successful filter row count: 6]
[Date: 2016-02-17 11:20:49]	[UserID:15/1125]	[IP:10.10.11.1]	[Browser:Chrome - 48.0.2564.109]	[Action:Closing mssql connection]	[Remarks:Success]
[Date: 2016-02-17 12:51:48]	[UserID:15/1125]	[IP:10.10.11.1]	[Browser:Chrome - 48.0.2564.109]	[Action:Making connection to server]	[Remarks:Successful connection to server: S3]
[Date: 2016-02-17 12:51:48]	[UserID:15/1125]	[IP:10.10.11.1]	[Browser:Chrome - 48.0.2564.109]	[Action:GetGSTModules 15/1125,1]	[Remarks:Successful filter row count: 6]
[Date: 2016-02-17 12:51:48]	[UserID:15/1125]	[IP:10.10.11.1]	[Browser:Chrome - 48.0.2564.109]	[Action:Closing mssql connection]	[Remarks:Success]
[Date: 2016-02-17 13:03:28]	[UserID:]	[IP:10.10.11.1]	[Browser:Chrome - 48.0.2564.109]	[Action:Making connection to server]	[Remarks:Successful connection to server: S3]
[Date: 2016-02-17 13:03:28]	[UserID:]	[IP:10.10.11.1]	[Browser:Chrome - 48.0.2564.109]	[Action:GetProgramList ]	[Remarks:"no data"]
[Date: 2016-02-17 13:03:30]	[UserID:15/1125]	[IP:10.10.11.1]	[Browser:Chrome - 48.0.2564.109]	[Action:Making connection to server]	[Remarks:Successful connection to server: S3]
[Date: 2016-02-17 13:03:30]	[UserID:15/1125]	[IP:10.10.11.1]	[Browser:Chrome - 48.0.2564.109]	[Action:User 15/1125]	[Remarks:Success]
[Date: 2016-02-17 13:03:30]	[UserID:15/1125]	[IP:10.10.11.1]	[Browser:Chrome - 48.0.2564.109]	[Action:Filtering User : MasterData Username : 15/1125]	[Remarks:Successful filter row count: 0]
[Date: 2016-02-17 13:03:30]	[UserID:15/1125]	[IP:10.10.11.1]	[Browser:Chrome - 48.0.2564.109]	[Action:Filtering User : MasterData Username : 15/1125]	[Remarks:Successful filter row count: 0]
[Date: 2016-02-17 13:03:30]	[UserID:15/1125]	[IP:10.10.11.1]	[Browser:Chrome - 48.0.2564.109]	[Action:Filtering User : MasterData Username : 15/1125]	[Remarks:Success]
[Date: 2016-02-17 13:03:30]	[UserID:15/1125]	[IP:10.10.11.1]	[Browser:Chrome - 48.0.2564.109]	[Action:Closing mssql connection]	[Remarks:Success]
[Date: 2016-02-17 13:03:30]	[UserID:15/1125]	[IP:10.10.11.1]	[Browser:Chrome - 48.0.2564.109]	[Action:Making connection to server]	[Remarks:Successful connection to server: S3]
[Date: 2016-02-17 13:03:30]	[UserID:15/1125]	[IP:10.10.11.1]	[Browser:Chrome - 48.0.2564.109]	[Action:GetProgramList 15/1125]	[Remarks:[{"ID":"1","ProgramIndex":"GST","ProgramName":"GST"}]]
[Date: 2016-02-17 13:03:30]	[UserID:15/1125]	[IP:10.10.11.1]	[Browser:Chrome - 48.0.2564.109]	[Action:Making connection to server]	[Remarks:Successful connection to server: S3]
[Date: 2016-02-17 13:03:30]	[UserID:15/1125]	[IP:10.10.11.1]	[Browser:Chrome - 48.0.2564.109]	[Action:GetProgramList 15/1125]	[Remarks:[{"ID":"1","ProgramIndex":"GST","ProgramName":"GST"}]]
[Date: 2016-02-17 13:03:30]	[UserID:15/1125]	[IP:10.10.11.1]	[Browser:Chrome - 48.0.2564.109]	[Action:Making connection to server]	[Remarks:Successful connection to server: S3]
[Date: 2016-02-17 13:03:30]	[UserID:15/1125]	[IP:10.10.11.1]	[Browser:Chrome - 48.0.2564.109]	[Action:Filtering User : MasterData Username : 15/1125]	[Remarks:Successful filter row count: 1]
[Date: 2016-02-17 13:03:31]	[UserID:15/1125]	[IP:10.10.11.1]	[Browser:Chrome - 48.0.2564.109]	[Action:Making connection to server]	[Remarks:Successful connection to server: S3]
[Date: 2016-02-17 13:03:31]	[UserID:15/1125]	[IP:10.10.11.1]	[Browser:Chrome - 48.0.2564.109]	[Action:GetGSTModules 15/1125,1]	[Remarks:Successful filter row count: 6]
[Date: 2016-02-17 13:03:31]	[UserID:15/1125]	[IP:10.10.11.1]	[Browser:Chrome - 48.0.2564.109]	[Action:Closing mssql connection]	[Remarks:Success]
[Date: 2016-02-17 13:13:09]	[UserID:15/1125]	[IP:10.10.11.1]	[Browser:Chrome - 48.0.2564.109]	[Action:Making connection to server]	[Remarks:Successful connection to server: S3]
[Date: 2016-02-17 13:13:09]	[UserID:15/1125]	[IP:10.10.11.1]	[Browser:Chrome - 48.0.2564.109]	[Action:GetGSTModules 15/1125,1]	[Remarks:Successful filter row count: 6]
[Date: 2016-02-17 13:13:09]	[UserID:15/1125]	[IP:10.10.11.1]	[Browser:Chrome - 48.0.2564.109]	[Action:Closing mssql connection]	[Remarks:Success]
[Date: 2016-02-17 13:17:59]	[UserID:15/1125]	[IP:10.10.11.1]	[Browser:Chrome - 48.0.2564.109]	[Action:Making connection to server]	[Remarks:Successful connection to server: S3]
[Date: 2016-02-17 13:17:59]	[UserID:15/1125]	[IP:10.10.11.1]	[Browser:Chrome - 48.0.2564.109]	[Action:GetGSTModules 15/1125,1]	[Remarks:Successful filter row count: 6]
[Date: 2016-02-17 13:17:59]	[UserID:15/1125]	[IP:10.10.11.1]	[Browser:Chrome - 48.0.2564.109]	[Action:Closing mssql connection]	[Remarks:Success]
[Date: 2016-02-17 17:57:37]	[UserID:]	[IP:10.10.11.1]	[Browser:Chrome - 48.0.2564.109]	[Action:Making connection to server]	[Remarks:Successful connection to server: S3]
[Date: 2016-02-17 17:57:37]	[UserID:]	[IP:10.10.11.1]	[Browser:Chrome - 48.0.2564.109]	[Action:GetProgramList ]	[Remarks:"no data"]
[Date: 2016-02-17 17:57:40]	[UserID:10/660]	[IP:10.10.11.1]	[Browser:Chrome - 48.0.2564.109]	[Action:Making connection to server]	[Remarks:Successful connection to server: S3]
[Date: 2016-02-17 17:57:40]	[UserID:10/660]	[IP:10.10.11.1]	[Browser:Chrome - 48.0.2564.109]	[Action:User 10/660]	[Remarks:Success]
[Date: 2016-02-17 17:57:40]	[UserID:10/660]	[IP:10.10.11.1]	[Browser:Chrome - 48.0.2564.109]	[Action:Filtering User : MasterData Username : 10/660]	[Remarks:Successful filter row count: 0]
[Date: 2016-02-17 17:57:40]	[UserID:10/660]	[IP:10.10.11.1]	[Browser:Chrome - 48.0.2564.109]	[Action:Filtering User : MasterData Username : 10/660]	[Remarks:Successful filter row count: 0]
[Date: 2016-02-17 17:57:40]	[UserID:10/660]	[IP:10.10.11.1]	[Browser:Chrome - 48.0.2564.109]	[Action:Filtering User : MasterData Username : 10/660]	[Remarks:Success]
[Date: 2016-02-17 17:57:40]	[UserID:10/660]	[IP:10.10.11.1]	[Browser:Chrome - 48.0.2564.109]	[Action:Closing mssql connection]	[Remarks:Success]
[Date: 2016-02-17 17:57:40]	[UserID:10/660]	[IP:10.10.11.1]	[Browser:Chrome - 48.0.2564.109]	[Action:Making connection to server]	[Remarks:Successful connection to server: S3]
[Date: 2016-02-17 17:57:40]	[UserID:10/660]	[IP:10.10.11.1]	[Browser:Chrome - 48.0.2564.109]	[Action:GetProgramList 10/660]	[Remarks:[{"ID":"1","ProgramIndex":"GST","ProgramName":"GST"}]]
[Date: 2016-02-17 17:57:40]	[UserID:10/660]	[IP:10.10.11.1]	[Browser:Chrome - 48.0.2564.109]	[Action:Making connection to server]	[Remarks:Successful connection to server: S3]
[Date: 2016-02-17 17:57:40]	[UserID:10/660]	[IP:10.10.11.1]	[Browser:Chrome - 48.0.2564.109]	[Action:GetProgramList 10/660]	[Remarks:[{"ID":"1","ProgramIndex":"GST","ProgramName":"GST"}]]
[Date: 2016-02-17 17:57:40]	[UserID:10/660]	[IP:10.10.11.1]	[Browser:Chrome - 48.0.2564.109]	[Action:Making connection to server]	[Remarks:Successful connection to server: S3]
[Date: 2016-02-17 17:57:40]	[UserID:10/660]	[IP:10.10.11.1]	[Browser:Chrome - 48.0.2564.109]	[Action:Filtering User : MasterData Username : 10/660]	[Remarks:Successful filter row count: 1]
[Date: 2016-02-17 17:57:41]	[UserID:10/660]	[IP:10.10.11.1]	[Browser:Chrome - 48.0.2564.109]	[Action:Making connection to server]	[Remarks:Successful connection to server: S3]
[Date: 2016-02-17 17:57:41]	[UserID:10/660]	[IP:10.10.11.1]	[Browser:Chrome - 48.0.2564.109]	[Action:GetGSTModules 10/660,1]	[Remarks:Successful filter row count: 3]
[Date: 2016-02-17 17:57:41]	[UserID:10/660]	[IP:10.10.11.1]	[Browser:Chrome - 48.0.2564.109]	[Action:Closing mssql connection]	[Remarks:Success]
[Date: 2016-02-17 18:16:27]	[UserID:10/660]	[IP:10.10.11.1]	[Browser:Chrome - 48.0.2564.109]	[Action:Making connection to server]	[Remarks:Successful connection to server: S3]
[Date: 2016-02-17 18:16:28]	[UserID:10/660]	[IP:10.10.11.1]	[Browser:Chrome - 48.0.2564.109]	[Action:GetGSTModules 10/660,1]	[Remarks:Successful filter row count: 3]
[Date: 2016-02-17 18:16:28]	[UserID:10/660]	[IP:10.10.11.1]	[Browser:Chrome - 48.0.2564.109]	[Action:Closing mssql connection]	[Remarks:Success]
[Date: 2016-02-17 18:16:28]	[UserID:]	[IP:10.10.11.1]	[Browser:Chrome - 48.0.2564.109]	[Action:Making connection to server]	[Remarks:Successful connection to server: S3]
[Date: 2016-02-17 18:16:28]	[UserID:]	[IP:10.10.11.1]	[Browser:Chrome - 48.0.2564.109]	[Action:GetProgramList ]	[Remarks:"no data"]
[Date: 2016-02-17 18:16:35]	[UserID:11/715]	[IP:10.10.11.1]	[Browser:Chrome - 48.0.2564.109]	[Action:Making connection to server]	[Remarks:Successful connection to server: S3]
[Date: 2016-02-17 18:16:35]	[UserID:11/715]	[IP:10.10.11.1]	[Browser:Chrome - 48.0.2564.109]	[Action:User 11/715]	[Remarks:Success]
[Date: 2016-02-17 18:16:35]	[UserID:11/715]	[IP:10.10.11.1]	[Browser:Chrome - 48.0.2564.109]	[Action:Filtering User : MasterData Username : 11/715]	[Remarks:Successful filter row count: 0]
[Date: 2016-02-17 18:16:35]	[UserID:11/715]	[IP:10.10.11.1]	[Browser:Chrome - 48.0.2564.109]	[Action:Filtering User : MasterData Username : 11/715]	[Remarks:Successful filter row count: 0]
[Date: 2016-02-17 18:16:35]	[UserID:11/715]	[IP:10.10.11.1]	[Browser:Chrome - 48.0.2564.109]	[Action:Filtering User : MasterData Username : 11/715]	[Remarks:Success]
[Date: 2016-02-17 18:16:35]	[UserID:11/715]	[IP:10.10.11.1]	[Browser:Chrome - 48.0.2564.109]	[Action:Closing mssql connection]	[Remarks:Success]
[Date: 2016-02-17 18:16:35]	[UserID:11/715]	[IP:10.10.11.1]	[Browser:Chrome - 48.0.2564.109]	[Action:Making connection to server]	[Remarks:Successful connection to server: S3]
[Date: 2016-02-17 18:16:35]	[UserID:11/715]	[IP:10.10.11.1]	[Browser:Chrome - 48.0.2564.109]	[Action:GetProgramList 11/715]	[Remarks:[{"ID":"1","ProgramIndex":"GST","ProgramName":"GST"}]]
[Date: 2016-02-17 18:16:35]	[UserID:11/715]	[IP:10.10.11.1]	[Browser:Chrome - 48.0.2564.109]	[Action:Making connection to server]	[Remarks:Successful connection to server: S3]
[Date: 2016-02-17 18:16:35]	[UserID:11/715]	[IP:10.10.11.1]	[Browser:Chrome - 48.0.2564.109]	[Action:GetProgramList 11/715]	[Remarks:[{"ID":"1","ProgramIndex":"GST","ProgramName":"GST"}]]
[Date: 2016-02-17 18:16:35]	[UserID:11/715]	[IP:10.10.11.1]	[Browser:Chrome - 48.0.2564.109]	[Action:Making connection to server]	[Remarks:Successful connection to server: S3]
[Date: 2016-02-17 18:16:35]	[UserID:11/715]	[IP:10.10.11.1]	[Browser:Chrome - 48.0.2564.109]	[Action:Filtering User : MasterData Username : 11/715]	[Remarks:Successful filter row count: 1]
[Date: 2016-02-17 18:16:36]	[UserID:11/715]	[IP:10.10.11.1]	[Browser:Chrome - 48.0.2564.109]	[Action:Making connection to server]	[Remarks:Successful connection to server: S3]
[Date: 2016-02-17 18:16:36]	[UserID:11/715]	[IP:10.10.11.1]	[Browser:Chrome - 48.0.2564.109]	[Action:GetGSTModules 11/715,1]	[Remarks:Successful filter row count: 3]
[Date: 2016-02-17 18:16:36]	[UserID:11/715]	[IP:10.10.11.1]	[Browser:Chrome - 48.0.2564.109]	[Action:Closing mssql connection]	[Remarks:Success]
[Date: 2016-02-17 18:17:57]	[UserID:10/660]	[IP:10.10.11.1]	[Browser:Chrome - 48.0.2564.109]	[Action:Making connection to server]	[Remarks:Successful connection to server: S3]
[Date: 2016-02-17 18:17:57]	[UserID:10/660]	[IP:10.10.11.1]	[Browser:Chrome - 48.0.2564.109]	[Action:GetGSTModules 10/660,1]	[Remarks:Successful filter row count: 3]
[Date: 2016-02-17 18:17:57]	[UserID:10/660]	[IP:10.10.11.1]	[Browser:Chrome - 48.0.2564.109]	[Action:Closing mssql connection]	[Remarks:Success]
[Date: 2016-02-17 18:17:58]	[UserID:11/715]	[IP:10.10.11.1]	[Browser:Chrome - 48.0.2564.109]	[Action:Making connection to server]	[Remarks:Successful connection to server: S3]
[Date: 2016-02-17 18:17:58]	[UserID:11/715]	[IP:10.10.11.1]	[Browser:Chrome - 48.0.2564.109]	[Action:GetProgramList 11/715]	[Remarks:[{"ID":"1","ProgramIndex":"GST","ProgramName":"GST"}]]
[Date: 2016-02-17 18:17:58]	[UserID:11/715]	[IP:10.10.11.1]	[Browser:Chrome - 48.0.2564.109]	[Action:Making connection to server]	[Remarks:Successful connection to server: S3]
[Date: 2016-02-17 18:17:59]	[UserID:11/715]	[IP:10.10.11.1]	[Browser:Chrome - 48.0.2564.109]	[Action:GetProgramList 11/715]	[Remarks:[{"ID":"1","ProgramIndex":"GST","ProgramName":"GST"}]]
[Date: 2016-02-17 18:17:59]	[UserID:11/715]	[IP:10.10.11.1]	[Browser:Chrome - 48.0.2564.109]	[Action:Making connection to server]	[Remarks:Successful connection to server: S3]
[Date: 2016-02-17 18:17:59]	[UserID:11/715]	[IP:10.10.11.1]	[Browser:Chrome - 48.0.2564.109]	[Action:Filtering User : MasterData Username : 11/715]	[Remarks:Successful filter row count: 1]
[Date: 2016-02-17 18:17:59]	[UserID:11/715]	[IP:10.10.11.1]	[Browser:Chrome - 48.0.2564.109]	[Action:Making connection to server]	[Remarks:Successful connection to server: S3]
[Date: 2016-02-17 18:17:59]	[UserID:11/715]	[IP:10.10.11.1]	[Browser:Chrome - 48.0.2564.109]	[Action:GetGSTModules 11/715,1]	[Remarks:Successful filter row count: 3]
[Date: 2016-02-17 18:17:59]	[UserID:11/715]	[IP:10.10.11.1]	[Browser:Chrome - 48.0.2564.109]	[Action:Closing mssql connection]	[Remarks:Success]
[Date: 2016-02-17 18:18:56]	[UserID:]	[IP:10.10.11.1]	[Browser:Chrome - 48.0.2564.109]	[Action:Making connection to server]	[Remarks:Successful connection to server: S3]
[Date: 2016-02-17 18:18:56]	[UserID:]	[IP:10.10.11.1]	[Browser:Chrome - 48.0.2564.109]	[Action:GetProgramList ]	[Remarks:"no data"]
[Date: 2016-02-17 18:35:24]	[UserID:]	[IP:10.10.11.1]	[Browser:Chrome - 48.0.2564.109]	[Action:Making connection to server]	[Remarks:Successful connection to server: S3]
[Date: 2016-02-17 18:35:24]	[UserID:]	[IP:10.10.11.1]	[Browser:Chrome - 48.0.2564.109]	[Action:GetProgramList ]	[Remarks:"no data"]
[Date: 2016-02-17 18:35:39]	[UserID:08/504]	[IP:10.10.11.1]	[Browser:Chrome - 48.0.2564.109]	[Action:Making connection to server]	[Remarks:Successful connection to server: S3]
[Date: 2016-02-17 18:35:39]	[UserID:08/504]	[IP:10.10.11.1]	[Browser:Chrome - 48.0.2564.109]	[Action:User 08/504]	[Remarks:Success]
[Date: 2016-02-17 18:35:39]	[UserID:08/504]	[IP:10.10.11.1]	[Browser:Chrome - 48.0.2564.109]	[Action:Filtering User : MasterData Username : 08/504]	[Remarks:Successful filter row count: 0]
[Date: 2016-02-17 18:35:40]	[UserID:08/504]	[IP:10.10.11.1]	[Browser:Chrome - 48.0.2564.109]	[Action:Filtering User : MasterData Username : 08/504]	[Remarks:Successful filter row count: 0]
[Date: 2016-02-17 18:35:40]	[UserID:08/504]	[IP:10.10.11.1]	[Browser:Chrome - 48.0.2564.109]	[Action:Filtering User : MasterData Username : 08/504]	[Remarks:Success]
[Date: 2016-02-17 18:35:40]	[UserID:08/504]	[IP:10.10.11.1]	[Browser:Chrome - 48.0.2564.109]	[Action:Closing mssql connection]	[Remarks:Success]
[Date: 2016-02-17 18:35:40]	[UserID:08/504]	[IP:10.10.11.1]	[Browser:Chrome - 48.0.2564.109]	[Action:Making connection to server]	[Remarks:Successful connection to server: S3]
[Date: 2016-02-17 18:35:40]	[UserID:08/504]	[IP:10.10.11.1]	[Browser:Chrome - 48.0.2564.109]	[Action:GetProgramList 08/504]	[Remarks:[{"ID":"1","ProgramIndex":"GST","ProgramName":"GST"}]]
[Date: 2016-02-17 18:35:40]	[UserID:08/504]	[IP:10.10.11.1]	[Browser:Chrome - 48.0.2564.109]	[Action:Making connection to server]	[Remarks:Successful connection to server: S3]
[Date: 2016-02-17 18:35:40]	[UserID:08/504]	[IP:10.10.11.1]	[Browser:Chrome - 48.0.2564.109]	[Action:GetProgramList 08/504]	[Remarks:[{"ID":"1","ProgramIndex":"GST","ProgramName":"GST"}]]
[Date: 2016-02-17 18:35:40]	[UserID:08/504]	[IP:10.10.11.1]	[Browser:Chrome - 48.0.2564.109]	[Action:Making connection to server]	[Remarks:Successful connection to server: S3]
[Date: 2016-02-17 18:35:40]	[UserID:08/504]	[IP:10.10.11.1]	[Browser:Chrome - 48.0.2564.109]	[Action:Filtering User : MasterData Username : 08/504]	[Remarks:Successful filter row count: 1]
[Date: 2016-02-17 18:35:40]	[UserID:08/504]	[IP:10.10.11.1]	[Browser:Chrome - 48.0.2564.109]	[Action:Making connection to server]	[Remarks:Successful connection to server: S3]
[Date: 2016-02-17 18:35:40]	[UserID:08/504]	[IP:10.10.11.1]	[Browser:Chrome - 48.0.2564.109]	[Action:GetGSTModules 08/504,1]	[Remarks:Successful filter row count: 3]
[Date: 2016-02-17 18:35:40]	[UserID:08/504]	[IP:10.10.11.1]	[Browser:Chrome - 48.0.2564.109]	[Action:Closing mssql connection]	[Remarks:Success]
[Date: 2016-02-17 18:39:17]	[UserID:08/504]	[IP:10.10.11.1]	[Browser:Chrome - 48.0.2564.109]	[Action:Making connection to server]	[Remarks:Successful connection to server: S3]
[Date: 2016-02-17 18:39:17]	[UserID:08/504]	[IP:10.10.11.1]	[Browser:Chrome - 48.0.2564.109]	[Action:GetGSTModules 08/504,1]	[Remarks:Successful filter row count: 3]
[Date: 2016-02-17 18:39:17]	[UserID:08/504]	[IP:10.10.11.1]	[Browser:Chrome - 48.0.2564.109]	[Action:Closing mssql connection]	[Remarks:Success]
[Date: 2016-02-17 18:43:26]	[UserID:08/504]	[IP:10.10.11.1]	[Browser:Chrome - 48.0.2564.109]	[Action:Making connection to server]	[Remarks:Successful connection to server: S3]
[Date: 2016-02-17 18:43:26]	[UserID:08/504]	[IP:10.10.11.1]	[Browser:Chrome - 48.0.2564.109]	[Action:GetGSTModules 08/504,1]	[Remarks:Successful filter row count: 3]
[Date: 2016-02-17 18:43:26]	[UserID:08/504]	[IP:10.10.11.1]	[Browser:Chrome - 48.0.2564.109]	[Action:Closing mssql connection]	[Remarks:Success]
[Date: 2016-02-17 18:50:53]	[UserID:08/504]	[IP:10.10.11.1]	[Browser:Chrome - 48.0.2564.109]	[Action:Making connection to server]	[Remarks:Successful connection to server: S3]
[Date: 2016-02-17 18:50:53]	[UserID:08/504]	[IP:10.10.11.1]	[Browser:Chrome - 48.0.2564.109]	[Action:GetGSTModules 08/504,1]	[Remarks:Successful filter row count: 3]
[Date: 2016-02-17 18:50:53]	[UserID:08/504]	[IP:10.10.11.1]	[Browser:Chrome - 48.0.2564.109]	[Action:Closing mssql connection]	[Remarks:Success]
[Date: 2016-02-17 18:51:55]	[UserID:]	[IP:10.10.11.1]	[Browser:Chrome - 48.0.2564.109]	[Action:Making connection to server]	[Remarks:Successful connection to server: S3]
[Date: 2016-02-17 18:51:55]	[UserID:]	[IP:10.10.11.1]	[Browser:Chrome - 48.0.2564.109]	[Action:GetProgramList ]	[Remarks:"no data"]
[Date: 2016-02-17 19:02:24]	[UserID:]	[IP:10.10.11.1]	[Browser:Chrome - 48.0.2564.109]	[Action:Making connection to server]	[Remarks:Successful connection to server: S3]
[Date: 2016-02-17 19:02:24]	[UserID:]	[IP:10.10.11.1]	[Browser:Chrome - 48.0.2564.109]	[Action:GetProgramList ]	[Remarks:"no data"]
[Date: 2016-02-17 19:02:26]	[UserID:08/504]	[IP:10.10.11.1]	[Browser:Chrome - 48.0.2564.109]	[Action:Making connection to server]	[Remarks:Successful connection to server: S3]
[Date: 2016-02-17 19:02:26]	[UserID:08/504]	[IP:10.10.11.1]	[Browser:Chrome - 48.0.2564.109]	[Action:User 08/504]	[Remarks:Success]
[Date: 2016-02-17 19:02:26]	[UserID:08/504]	[IP:10.10.11.1]	[Browser:Chrome - 48.0.2564.109]	[Action:Filtering User : MasterData Username : 08/504]	[Remarks:Successful filter row count: 0]
[Date: 2016-02-17 19:02:26]	[UserID:08/504]	[IP:10.10.11.1]	[Browser:Chrome - 48.0.2564.109]	[Action:Filtering User : MasterData Username : 08/504]	[Remarks:Successful filter row count: 0]
[Date: 2016-02-17 19:02:26]	[UserID:08/504]	[IP:10.10.11.1]	[Browser:Chrome - 48.0.2564.109]	[Action:Filtering User : MasterData Username : 08/504]	[Remarks:Success]
[Date: 2016-02-17 19:02:26]	[UserID:08/504]	[IP:10.10.11.1]	[Browser:Chrome - 48.0.2564.109]	[Action:Closing mssql connection]	[Remarks:Success]
[Date: 2016-02-17 19:02:26]	[UserID:08/504]	[IP:10.10.11.1]	[Browser:Chrome - 48.0.2564.109]	[Action:Making connection to server]	[Remarks:Successful connection to server: S3]
[Date: 2016-02-17 19:02:27]	[UserID:08/504]	[IP:10.10.11.1]	[Browser:Chrome - 48.0.2564.109]	[Action:GetProgramList 08/504]	[Remarks:[{"ID":"1","ProgramIndex":"GST","ProgramName":"GST"}]]
[Date: 2016-02-17 19:02:27]	[UserID:08/504]	[IP:10.10.11.1]	[Browser:Chrome - 48.0.2564.109]	[Action:Making connection to server]	[Remarks:Successful connection to server: S3]
[Date: 2016-02-17 19:02:27]	[UserID:08/504]	[IP:10.10.11.1]	[Browser:Chrome - 48.0.2564.109]	[Action:GetProgramList 08/504]	[Remarks:[{"ID":"1","ProgramIndex":"GST","ProgramName":"GST"}]]
[Date: 2016-02-17 19:02:27]	[UserID:08/504]	[IP:10.10.11.1]	[Browser:Chrome - 48.0.2564.109]	[Action:Making connection to server]	[Remarks:Successful connection to server: S3]
[Date: 2016-02-17 19:02:27]	[UserID:08/504]	[IP:10.10.11.1]	[Browser:Chrome - 48.0.2564.109]	[Action:Filtering User : MasterData Username : 08/504]	[Remarks:Successful filter row count: 1]
[Date: 2016-02-17 19:02:27]	[UserID:08/504]	[IP:10.10.11.1]	[Browser:Chrome - 48.0.2564.109]	[Action:Making connection to server]	[Remarks:Successful connection to server: S3]
[Date: 2016-02-17 19:02:27]	[UserID:08/504]	[IP:10.10.11.1]	[Browser:Chrome - 48.0.2564.109]	[Action:GetGSTModules 08/504,1]	[Remarks:Successful filter row count: 3]
[Date: 2016-02-17 19:02:27]	[UserID:08/504]	[IP:10.10.11.1]	[Browser:Chrome - 48.0.2564.109]	[Action:Closing mssql connection]	[Remarks:Success]
[Date: 2016-02-17 19:03:41]	[UserID:08/504]	[IP:10.10.11.1]	[Browser:Chrome - 48.0.2564.109]	[Action:Making connection to server]	[Remarks:Successful connection to server: S3]
[Date: 2016-02-17 19:03:41]	[UserID:08/504]	[IP:10.10.11.1]	[Browser:Chrome - 48.0.2564.109]	[Action:GetGSTModules 08/504,1]	[Remarks:Successful filter row count: 3]
[Date: 2016-02-17 19:03:41]	[UserID:08/504]	[IP:10.10.11.1]	[Browser:Chrome - 48.0.2564.109]	[Action:Closing mssql connection]	[Remarks:Success]
