[Date: 2020-06-23 07:43:54]	[UserID:]	[IP:10.128.130.5]	[Browser:Chrome - 83.0.4103.106]	[Action:Making connection to server]	[Remarks:Successful connection to server: S3]
[Date: 2020-06-23 07:43:54]	[UserID:]	[IP:10.128.130.5]	[Browser:Chrome - 83.0.4103.106]	[Action:GetProgramList ]	[Remarks:"no data"]
[Date: 2020-06-23 08:41:04]	[UserID:]	[IP:10.128.12.115]	[Browser:Chrome - 83.0.4103.106]	[Action:Making connection to server]	[Remarks:Successful connection to server: S3]
[Date: 2020-06-23 08:41:04]	[UserID:]	[IP:10.128.12.115]	[Browser:Chrome - 83.0.4103.106]	[Action:GetProgramList ]	[Remarks:"no data"]
[Date: 2020-06-23 08:41:09]	[UserID:17/1248]	[IP:10.128.12.115]	[Browser:Chrome - 83.0.4103.106]	[Action:Making connection to server]	[Remarks:Successful connection to server: S3]
[Date: 2020-06-23 08:41:09]	[UserID:17/1248]	[IP:10.128.12.115]	[Browser:Chrome - 83.0.4103.106]	[Action:User 17/1248]	[Remarks:Success]
[Date: 2020-06-23 08:41:09]	[UserID:17/1248]	[IP:10.128.12.115]	[Browser:Chrome - 83.0.4103.106]	[Action:Filtering User : MasterData Username : 17/1248]	[Remarks:Successful filter row count: 0]
[Date: 2020-06-23 08:41:09]	[UserID:17/1248]	[IP:10.128.12.115]	[Browser:Chrome - 83.0.4103.106]	[Action:Filtering User : MasterData Username : 17/1248]	[Remarks:Successful filter row count: 0]
[Date: 2020-06-23 08:41:09]	[UserID:17/1248]	[IP:10.128.12.115]	[Browser:Chrome - 83.0.4103.106]	[Action:Filtering User : MasterData Username : 17/1248]	[Remarks:Success]
[Date: 2020-06-23 08:41:09]	[UserID:17/1248]	[IP:10.128.12.115]	[Browser:Chrome - 83.0.4103.106]	[Action:Closing mssql connection]	[Remarks:Success]
[Date: 2020-06-23 08:41:11]	[UserID:17/1248]	[IP:10.128.12.115]	[Browser:Chrome - 83.0.4103.106]	[Action:Making connection to server]	[Remarks:Successful connection to server: S3]
[Date: 2020-06-23 08:41:11]	[UserID:17/1248]	[IP:10.128.12.115]	[Browser:Chrome - 83.0.4103.106]	[Action:GetProgramList 17/1248]	[Remarks:[{"ID":"1","ProgramIndex":"GST","ProgramName":"GST"}]]
[Date: 2020-06-23 08:41:11]	[UserID:17/1248]	[IP:10.128.12.115]	[Browser:Chrome - 83.0.4103.106]	[Action:Making connection to server]	[Remarks:Successful connection to server: S3]
[Date: 2020-06-23 08:41:11]	[UserID:17/1248]	[IP:10.128.12.115]	[Browser:Chrome - 83.0.4103.106]	[Action:GetProgramList 17/1248]	[Remarks:[{"ID":"1","ProgramIndex":"GST","ProgramName":"GST"}]]
[Date: 2020-06-23 08:41:11]	[UserID:17/1248]	[IP:10.128.12.115]	[Browser:Chrome - 83.0.4103.106]	[Action:Making connection to server]	[Remarks:Successful connection to server: S3]
[Date: 2020-06-23 08:41:11]	[UserID:17/1248]	[IP:10.128.12.115]	[Browser:Chrome - 83.0.4103.106]	[Action:Filtering User : MasterData Username : 17/1248]	[Remarks:Successful filter row count: 1]
[Date: 2020-06-23 08:41:12]	[UserID:17/1248]	[IP:10.128.12.115]	[Browser:Chrome - 83.0.4103.106]	[Action:Making connection to server]	[Remarks:Successful connection to server: S3]
[Date: 2020-06-23 08:41:12]	[UserID:17/1248]	[IP:10.128.12.115]	[Browser:Chrome - 83.0.4103.106]	[Action:GetGSTModules 17/1248,1]	[Remarks:Successful filter row count: 6]
[Date: 2020-06-23 08:41:12]	[UserID:17/1248]	[IP:10.128.12.115]	[Browser:Chrome - 83.0.4103.106]	[Action:Closing mssql connection]	[Remarks:Success]
[Date: 2020-06-23 08:43:58]	[UserID:17/1248]	[IP:10.128.12.115]	[Browser:Chrome - 83.0.4103.106]	[Action:Making connection to server]	[Remarks:Successful connection to server: S3]
[Date: 2020-06-23 08:43:58]	[UserID:17/1248]	[IP:10.128.12.115]	[Browser:Chrome - 83.0.4103.106]	[Action:GetGSTModules 17/1248,1]	[Remarks:Successful filter row count: 6]
[Date: 2020-06-23 08:43:58]	[UserID:17/1248]	[IP:10.128.12.115]	[Browser:Chrome - 83.0.4103.106]	[Action:Closing mssql connection]	[Remarks:Success]
[Date: 2020-06-23 08:45:01]	[UserID:]	[IP:10.128.12.115]	[Browser:Chrome - 83.0.4103.106]	[Action:Making connection to server]	[Remarks:Successful connection to server: S3]
[Date: 2020-06-23 08:45:01]	[UserID:]	[IP:10.128.12.115]	[Browser:Chrome - 83.0.4103.106]	[Action:GetProgramList ]	[Remarks:"no data"]
[Date: 2020-06-23 08:57:44]	[UserID:]	[IP:10.128.12.114]	[Browser:Chrome - 83.0.4103.106]	[Action:Making connection to server]	[Remarks:Successful connection to server: S3]
[Date: 2020-06-23 08:57:44]	[UserID:]	[IP:10.128.12.114]	[Browser:Chrome - 83.0.4103.106]	[Action:GetProgramList ]	[Remarks:"no data"]
[Date: 2020-06-23 08:57:49]	[UserID:14/1082]	[IP:10.128.12.114]	[Browser:Chrome - 83.0.4103.106]	[Action:Making connection to server]	[Remarks:Successful connection to server: S3]
[Date: 2020-06-23 08:57:49]	[UserID:14/1082]	[IP:10.128.12.114]	[Browser:Chrome - 83.0.4103.106]	[Action:User 14/1082]	[Remarks:Success]
[Date: 2020-06-23 08:57:49]	[UserID:14/1082]	[IP:10.128.12.114]	[Browser:Chrome - 83.0.4103.106]	[Action:Filtering User : MasterData Username : 14/1082]	[Remarks:Successful filter row count: 0]
[Date: 2020-06-23 08:57:49]	[UserID:14/1082]	[IP:10.128.12.114]	[Browser:Chrome - 83.0.4103.106]	[Action:Filtering User : MasterData Username : 14/1082]	[Remarks:Successful filter row count: 0]
[Date: 2020-06-23 08:57:49]	[UserID:14/1082]	[IP:10.128.12.114]	[Browser:Chrome - 83.0.4103.106]	[Action:Filtering User : MasterData Username : 14/1082]	[Remarks:Success]
[Date: 2020-06-23 08:57:49]	[UserID:14/1082]	[IP:10.128.12.114]	[Browser:Chrome - 83.0.4103.106]	[Action:Closing mssql connection]	[Remarks:Success]
[Date: 2020-06-23 08:57:49]	[UserID:14/1082]	[IP:10.128.12.114]	[Browser:Chrome - 83.0.4103.106]	[Action:Making connection to server]	[Remarks:Successful connection to server: S3]
[Date: 2020-06-23 08:57:49]	[UserID:14/1082]	[IP:10.128.12.114]	[Browser:Chrome - 83.0.4103.106]	[Action:GetProgramList 14/1082]	[Remarks:[{"ID":"1","ProgramIndex":"GST","ProgramName":"GST"}]]
[Date: 2020-06-23 08:57:49]	[UserID:14/1082]	[IP:10.128.12.114]	[Browser:Chrome - 83.0.4103.106]	[Action:Making connection to server]	[Remarks:Successful connection to server: S3]
[Date: 2020-06-23 08:57:49]	[UserID:14/1082]	[IP:10.128.12.114]	[Browser:Chrome - 83.0.4103.106]	[Action:GetProgramList 14/1082]	[Remarks:[{"ID":"1","ProgramIndex":"GST","ProgramName":"GST"}]]
[Date: 2020-06-23 08:57:49]	[UserID:14/1082]	[IP:10.128.12.114]	[Browser:Chrome - 83.0.4103.106]	[Action:Making connection to server]	[Remarks:Successful connection to server: S3]
[Date: 2020-06-23 08:57:49]	[UserID:14/1082]	[IP:10.128.12.114]	[Browser:Chrome - 83.0.4103.106]	[Action:Filtering User : MasterData Username : 14/1082]	[Remarks:Successful filter row count: 1]
[Date: 2020-06-23 08:57:50]	[UserID:14/1082]	[IP:10.128.12.114]	[Browser:Chrome - 83.0.4103.106]	[Action:Making connection to server]	[Remarks:Successful connection to server: S3]
[Date: 2020-06-23 08:57:50]	[UserID:14/1082]	[IP:10.128.12.114]	[Browser:Chrome - 83.0.4103.106]	[Action:GetGSTModules 14/1082,1]	[Remarks:Successful filter row count: 8]
[Date: 2020-06-23 08:57:50]	[UserID:14/1082]	[IP:10.128.12.114]	[Browser:Chrome - 83.0.4103.106]	[Action:Closing mssql connection]	[Remarks:Success]
[Date: 2020-06-23 09:46:31]	[UserID:]	[IP:10.128.12.115]	[Browser:Chrome - 83.0.4103.106]	[Action:Making connection to server]	[Remarks:Successful connection to server: S3]
[Date: 2020-06-23 09:46:31]	[UserID:]	[IP:10.128.12.115]	[Browser:Chrome - 83.0.4103.106]	[Action:GetProgramList ]	[Remarks:"no data"]
[Date: 2020-06-23 09:46:35]	[UserID:17/1248]	[IP:10.128.12.115]	[Browser:Chrome - 83.0.4103.106]	[Action:Making connection to server]	[Remarks:Successful connection to server: S3]
[Date: 2020-06-23 09:46:35]	[UserID:17/1248]	[IP:10.128.12.115]	[Browser:Chrome - 83.0.4103.106]	[Action:User 17/1248]	[Remarks:Success]
[Date: 2020-06-23 09:46:35]	[UserID:17/1248]	[IP:10.128.12.115]	[Browser:Chrome - 83.0.4103.106]	[Action:Filtering User : MasterData Username : 17/1248]	[Remarks:Successful filter row count: 0]
[Date: 2020-06-23 09:46:35]	[UserID:17/1248]	[IP:10.128.12.115]	[Browser:Chrome - 83.0.4103.106]	[Action:Filtering User : MasterData Username : 17/1248]	[Remarks:Successful filter row count: 0]
[Date: 2020-06-23 09:46:35]	[UserID:17/1248]	[IP:10.128.12.115]	[Browser:Chrome - 83.0.4103.106]	[Action:Filtering User : MasterData Username : 17/1248]	[Remarks:Success]
[Date: 2020-06-23 09:46:35]	[UserID:17/1248]	[IP:10.128.12.115]	[Browser:Chrome - 83.0.4103.106]	[Action:Closing mssql connection]	[Remarks:Success]
[Date: 2020-06-23 09:46:37]	[UserID:17/1248]	[IP:10.128.12.115]	[Browser:Chrome - 83.0.4103.106]	[Action:Making connection to server]	[Remarks:Successful connection to server: S3]
[Date: 2020-06-23 09:46:37]	[UserID:17/1248]	[IP:10.128.12.115]	[Browser:Chrome - 83.0.4103.106]	[Action:GetProgramList 17/1248]	[Remarks:[{"ID":"1","ProgramIndex":"GST","ProgramName":"GST"}]]
[Date: 2020-06-23 09:46:37]	[UserID:17/1248]	[IP:10.128.12.115]	[Browser:Chrome - 83.0.4103.106]	[Action:Making connection to server]	[Remarks:Successful connection to server: S3]
[Date: 2020-06-23 09:46:37]	[UserID:17/1248]	[IP:10.128.12.115]	[Browser:Chrome - 83.0.4103.106]	[Action:GetProgramList 17/1248]	[Remarks:[{"ID":"1","ProgramIndex":"GST","ProgramName":"GST"}]]
[Date: 2020-06-23 09:46:37]	[UserID:17/1248]	[IP:10.128.12.115]	[Browser:Chrome - 83.0.4103.106]	[Action:Making connection to server]	[Remarks:Successful connection to server: S3]
[Date: 2020-06-23 09:46:37]	[UserID:17/1248]	[IP:10.128.12.115]	[Browser:Chrome - 83.0.4103.106]	[Action:Filtering User : MasterData Username : 17/1248]	[Remarks:Successful filter row count: 1]
[Date: 2020-06-23 09:46:37]	[UserID:17/1248]	[IP:10.128.12.115]	[Browser:Chrome - 83.0.4103.106]	[Action:Making connection to server]	[Remarks:Successful connection to server: S3]
[Date: 2020-06-23 09:46:37]	[UserID:17/1248]	[IP:10.128.12.115]	[Browser:Chrome - 83.0.4103.106]	[Action:GetGSTModules 17/1248,1]	[Remarks:Successful filter row count: 6]
[Date: 2020-06-23 09:46:37]	[UserID:17/1248]	[IP:10.128.12.115]	[Browser:Chrome - 83.0.4103.106]	[Action:Closing mssql connection]	[Remarks:Success]
[Date: 2020-06-23 09:47:06]	[UserID:17/1248]	[IP:10.128.12.115]	[Browser:Chrome - 83.0.4103.106]	[Action:Making connection to server]	[Remarks:Successful connection to server: S3]
[Date: 2020-06-23 09:47:06]	[UserID:17/1248]	[IP:10.128.12.115]	[Browser:Chrome - 83.0.4103.106]	[Action:GetProgramList 17/1248]	[Remarks:[{"ID":"1","ProgramIndex":"GST","ProgramName":"GST"}]]
[Date: 2020-06-23 09:47:06]	[UserID:17/1248]	[IP:10.128.12.115]	[Browser:Chrome - 83.0.4103.106]	[Action:Making connection to server]	[Remarks:Successful connection to server: S3]
[Date: 2020-06-23 09:47:06]	[UserID:17/1248]	[IP:10.128.12.115]	[Browser:Chrome - 83.0.4103.106]	[Action:GetProgramList 17/1248]	[Remarks:[{"ID":"1","ProgramIndex":"GST","ProgramName":"GST"}]]
[Date: 2020-06-23 09:47:06]	[UserID:17/1248]	[IP:10.128.12.115]	[Browser:Chrome - 83.0.4103.106]	[Action:Making connection to server]	[Remarks:Successful connection to server: S3]
[Date: 2020-06-23 09:47:06]	[UserID:17/1248]	[IP:10.128.12.115]	[Browser:Chrome - 83.0.4103.106]	[Action:Filtering User : MasterData Username : 17/1248]	[Remarks:Successful filter row count: 1]
[Date: 2020-06-23 09:47:06]	[UserID:17/1248]	[IP:10.128.12.115]	[Browser:Chrome - 83.0.4103.106]	[Action:Making connection to server]	[Remarks:Successful connection to server: S3]
[Date: 2020-06-23 09:47:06]	[UserID:17/1248]	[IP:10.128.12.115]	[Browser:Chrome - 83.0.4103.106]	[Action:GetGSTModules 17/1248,1]	[Remarks:Successful filter row count: 6]
[Date: 2020-06-23 09:47:06]	[UserID:17/1248]	[IP:10.128.12.115]	[Browser:Chrome - 83.0.4103.106]	[Action:Closing mssql connection]	[Remarks:Success]
[Date: 2020-06-23 09:53:52]	[UserID:]	[IP:10.128.12.115]	[Browser:Chrome - 83.0.4103.106]	[Action:Making connection to server]	[Remarks:Successful connection to server: S3]
[Date: 2020-06-23 09:53:52]	[UserID:]	[IP:10.128.12.115]	[Browser:Chrome - 83.0.4103.106]	[Action:GetProgramList ]	[Remarks:"no data"]
[Date: 2020-06-23 11:19:21]	[UserID:]	[IP:10.128.8.120]	[Browser:Chrome - 85.0.4173.2]	[Action:Making connection to server]	[Remarks:Successful connection to server: S3]
[Date: 2020-06-23 11:19:21]	[UserID:]	[IP:10.128.8.120]	[Browser:Chrome - 85.0.4173.2]	[Action:GetProgramList ]	[Remarks:"no data"]
[Date: 2020-06-23 11:19:24]	[UserID:dev/nsosa]	[IP:10.128.8.120]	[Browser:Chrome - 85.0.4173.2]	[Action:Making connection to server]	[Remarks:Successful connection to server: S3]
[Date: 2020-06-23 11:19:24]	[UserID:dev/nsosa]	[IP:10.128.8.120]	[Browser:Chrome - 85.0.4173.2]	[Action:User dev/nsosa]	[Remarks:Success]
[Date: 2020-06-23 11:19:24]	[UserID:dev/nsosa]	[IP:10.128.8.120]	[Browser:Chrome - 85.0.4173.2]	[Action:Filtering User : MasterData Username : dev/nsosa]	[Remarks:Successful filter row count: 0]
[Date: 2020-06-23 11:19:24]	[UserID:dev/nsosa]	[IP:10.128.8.120]	[Browser:Chrome - 85.0.4173.2]	[Action:Filtering User : MasterData Username : dev/nsosa]	[Remarks:Successful filter row count: 0]
[Date: 2020-06-23 11:19:24]	[UserID:dev/nsosa]	[IP:10.128.8.120]	[Browser:Chrome - 85.0.4173.2]	[Action:Filtering User : MasterData Username : dev/nsosa]	[Remarks:Success]
[Date: 2020-06-23 11:19:24]	[UserID:dev/nsosa]	[IP:10.128.8.120]	[Browser:Chrome - 85.0.4173.2]	[Action:Closing mssql connection]	[Remarks:Success]
[Date: 2020-06-23 11:19:24]	[UserID:dev/nsosa]	[IP:10.128.8.120]	[Browser:Chrome - 85.0.4173.2]	[Action:Making connection to server]	[Remarks:Successful connection to server: S3]
[Date: 2020-06-23 11:19:24]	[UserID:dev/nsosa]	[IP:10.128.8.120]	[Browser:Chrome - 85.0.4173.2]	[Action:GetProgramList dev/nsosa]	[Remarks:[{"ID":"1","ProgramIndex":"GST","ProgramName":"GST"},{"ID":"3","ProgramIndex":"PRD","ProgramName":"PRD"}]]
[Date: 2020-06-23 11:19:24]	[UserID:dev/nsosa]	[IP:10.128.8.120]	[Browser:Chrome - 85.0.4173.2]	[Action:Making connection to server]	[Remarks:Successful connection to server: S3]
[Date: 2020-06-23 11:19:24]	[UserID:dev/nsosa]	[IP:10.128.8.120]	[Browser:Chrome - 85.0.4173.2]	[Action:GetProgramList dev/nsosa]	[Remarks:[{"ID":"1","ProgramIndex":"GST","ProgramName":"GST"},{"ID":"3","ProgramIndex":"PRD","ProgramName":"PRD"}]]
[Date: 2020-06-23 11:19:24]	[UserID:dev/nsosa]	[IP:10.128.8.120]	[Browser:Chrome - 85.0.4173.2]	[Action:Making connection to server]	[Remarks:Successful connection to server: S3]
[Date: 2020-06-23 11:19:24]	[UserID:dev/nsosa]	[IP:10.128.8.120]	[Browser:Chrome - 85.0.4173.2]	[Action:Filtering User : MasterData Username : dev/nsosa]	[Remarks:Successful filter row count: 1]
[Date: 2020-06-23 11:19:26]	[UserID:dev/nsosa]	[IP:10.128.8.120]	[Browser:Chrome - 85.0.4173.2]	[Action:Making connection to server]	[Remarks:Successful connection to server: S3]
[Date: 2020-06-23 11:19:26]	[UserID:dev/nsosa]	[IP:10.128.8.120]	[Browser:Chrome - 85.0.4173.2]	[Action:GetGSTModules dev/nsosa,1]	[Remarks:Successful filter row count: 10]
[Date: 2020-06-23 11:19:26]	[UserID:dev/nsosa]	[IP:10.128.8.120]	[Browser:Chrome - 85.0.4173.2]	[Action:Closing mssql connection]	[Remarks:Success]
[Date: 2020-06-23 11:21:05]	[UserID:dev/nsosa]	[IP:10.128.8.120]	[Browser:Chrome - 85.0.4173.2]	[Action:Making connection to server]	[Remarks:Successful connection to server: S3]
[Date: 2020-06-23 11:21:05]	[UserID:dev/nsosa]	[IP:10.128.8.120]	[Browser:Chrome - 85.0.4173.2]	[Action:GetProgramList dev/nsosa]	[Remarks:[{"ID":"1","ProgramIndex":"GST","ProgramName":"GST"},{"ID":"3","ProgramIndex":"PRD","ProgramName":"PRD"}]]
[Date: 2020-06-23 11:21:05]	[UserID:dev/nsosa]	[IP:10.128.8.120]	[Browser:Chrome - 85.0.4173.2]	[Action:Making connection to server]	[Remarks:Successful connection to server: S3]
[Date: 2020-06-23 11:21:05]	[UserID:dev/nsosa]	[IP:10.128.8.120]	[Browser:Chrome - 85.0.4173.2]	[Action:GetProgramList dev/nsosa]	[Remarks:[{"ID":"1","ProgramIndex":"GST","ProgramName":"GST"},{"ID":"3","ProgramIndex":"PRD","ProgramName":"PRD"}]]
[Date: 2020-06-23 11:21:05]	[UserID:dev/nsosa]	[IP:10.128.8.120]	[Browser:Chrome - 85.0.4173.2]	[Action:Making connection to server]	[Remarks:Successful connection to server: S3]
[Date: 2020-06-23 11:21:05]	[UserID:dev/nsosa]	[IP:10.128.8.120]	[Browser:Chrome - 85.0.4173.2]	[Action:Filtering User : MasterData Username : dev/nsosa]	[Remarks:Successful filter row count: 1]
[Date: 2020-06-23 11:21:07]	[UserID:dev/nsosa]	[IP:10.128.8.120]	[Browser:Chrome - 85.0.4173.2]	[Action:Making connection to server]	[Remarks:Successful connection to server: S3]
[Date: 2020-06-23 11:21:07]	[UserID:dev/nsosa]	[IP:10.128.8.120]	[Browser:Chrome - 85.0.4173.2]	[Action:GetGSTModules dev/nsosa,1]	[Remarks:Successful filter row count: 10]
[Date: 2020-06-23 11:21:07]	[UserID:dev/nsosa]	[IP:10.128.8.120]	[Browser:Chrome - 85.0.4173.2]	[Action:Closing mssql connection]	[Remarks:Success]
[Date: 2020-06-23 11:23:23]	[UserID:dev/nsosa]	[IP:10.128.8.120]	[Browser:Chrome - 85.0.4173.2]	[Action:Making connection to server]	[Remarks:Successful connection to server: S3]
[Date: 2020-06-23 11:23:23]	[UserID:dev/nsosa]	[IP:10.128.8.120]	[Browser:Chrome - 85.0.4173.2]	[Action:GetProgramList dev/nsosa]	[Remarks:[{"ID":"1","ProgramIndex":"GST","ProgramName":"GST"},{"ID":"3","ProgramIndex":"PRD","ProgramName":"PRD"}]]
[Date: 2020-06-23 11:23:23]	[UserID:dev/nsosa]	[IP:10.128.8.120]	[Browser:Chrome - 85.0.4173.2]	[Action:Making connection to server]	[Remarks:Successful connection to server: S3]
[Date: 2020-06-23 11:23:23]	[UserID:dev/nsosa]	[IP:10.128.8.120]	[Browser:Chrome - 85.0.4173.2]	[Action:GetProgramList dev/nsosa]	[Remarks:[{"ID":"1","ProgramIndex":"GST","ProgramName":"GST"},{"ID":"3","ProgramIndex":"PRD","ProgramName":"PRD"}]]
[Date: 2020-06-23 11:23:23]	[UserID:dev/nsosa]	[IP:10.128.8.120]	[Browser:Chrome - 85.0.4173.2]	[Action:Making connection to server]	[Remarks:Successful connection to server: S3]
[Date: 2020-06-23 11:23:23]	[UserID:dev/nsosa]	[IP:10.128.8.120]	[Browser:Chrome - 85.0.4173.2]	[Action:Filtering User : MasterData Username : dev/nsosa]	[Remarks:Successful filter row count: 1]
[Date: 2020-06-23 11:23:25]	[UserID:dev/nsosa]	[IP:10.128.8.120]	[Browser:Chrome - 85.0.4173.2]	[Action:Making connection to server]	[Remarks:Successful connection to server: S3]
[Date: 2020-06-23 11:23:25]	[UserID:dev/nsosa]	[IP:10.128.8.120]	[Browser:Chrome - 85.0.4173.2]	[Action:GetGSTModules dev/nsosa,1]	[Remarks:Successful filter row count: 10]
[Date: 2020-06-23 11:23:25]	[UserID:dev/nsosa]	[IP:10.128.8.120]	[Browser:Chrome - 85.0.4173.2]	[Action:Closing mssql connection]	[Remarks:Success]
[Date: 2020-06-23 13:12:48]	[UserID:]	[IP:10.128.130.5]	[Browser:Chrome - 83.0.4103.106]	[Action:Making connection to server]	[Remarks:Successful connection to server: S3]
[Date: 2020-06-23 13:12:48]	[UserID:]	[IP:10.128.130.5]	[Browser:Chrome - 83.0.4103.106]	[Action:GetProgramList ]	[Remarks:"no data"]
[Date: 2020-06-23 13:12:55]	[UserID:06/343]	[IP:10.128.130.5]	[Browser:Chrome - 83.0.4103.106]	[Action:Making connection to server]	[Remarks:Successful connection to server: S3]
[Date: 2020-06-23 13:12:55]	[UserID:06/343]	[IP:10.128.130.5]	[Browser:Chrome - 83.0.4103.106]	[Action:User 06/343]	[Remarks:Success]
[Date: 2020-06-23 13:12:56]	[UserID:06/343]	[IP:10.128.130.5]	[Browser:Chrome - 83.0.4103.106]	[Action:Filtering User : MasterData Username : 06/343]	[Remarks:Successful filter row count: 0]
[Date: 2020-06-23 13:12:56]	[UserID:06/343]	[IP:10.128.130.5]	[Browser:Chrome - 83.0.4103.106]	[Action:Filtering User : MasterData Username : 06/343]	[Remarks:Successful filter row count: 0]
[Date: 2020-06-23 13:12:56]	[UserID:06/343]	[IP:10.128.130.5]	[Browser:Chrome - 83.0.4103.106]	[Action:Filtering User : MasterData Username : 06/343]	[Remarks:Success]
[Date: 2020-06-23 13:12:56]	[UserID:06/343]	[IP:10.128.130.5]	[Browser:Chrome - 83.0.4103.106]	[Action:Closing mssql connection]	[Remarks:Success]
[Date: 2020-06-23 13:12:56]	[UserID:06/343]	[IP:10.128.130.5]	[Browser:Chrome - 83.0.4103.106]	[Action:Making connection to server]	[Remarks:Successful connection to server: S3]
[Date: 2020-06-23 13:12:56]	[UserID:06/343]	[IP:10.128.130.5]	[Browser:Chrome - 83.0.4103.106]	[Action:GetProgramList 06/343]	[Remarks:[{"ID":"1","ProgramIndex":"GST","ProgramName":"GST"}]]
[Date: 2020-06-23 13:12:56]	[UserID:06/343]	[IP:10.128.130.5]	[Browser:Chrome - 83.0.4103.106]	[Action:Making connection to server]	[Remarks:Successful connection to server: S3]
[Date: 2020-06-23 13:12:56]	[UserID:06/343]	[IP:10.128.130.5]	[Browser:Chrome - 83.0.4103.106]	[Action:GetProgramList 06/343]	[Remarks:[{"ID":"1","ProgramIndex":"GST","ProgramName":"GST"}]]
[Date: 2020-06-23 13:12:56]	[UserID:06/343]	[IP:10.128.130.5]	[Browser:Chrome - 83.0.4103.106]	[Action:Making connection to server]	[Remarks:Successful connection to server: S3]
[Date: 2020-06-23 13:12:56]	[UserID:06/343]	[IP:10.128.130.5]	[Browser:Chrome - 83.0.4103.106]	[Action:Filtering User : MasterData Username : 06/343]	[Remarks:Successful filter row count: 1]
[Date: 2020-06-23 13:12:57]	[UserID:06/343]	[IP:10.128.130.5]	[Browser:Chrome - 83.0.4103.106]	[Action:Making connection to server]	[Remarks:Successful connection to server: S3]
[Date: 2020-06-23 13:12:57]	[UserID:06/343]	[IP:10.128.130.5]	[Browser:Chrome - 83.0.4103.106]	[Action:GetGSTModules 06/343,1]	[Remarks:Successful filter row count: 7]
[Date: 2020-06-23 13:12:57]	[UserID:06/343]	[IP:10.128.130.5]	[Browser:Chrome - 83.0.4103.106]	[Action:Closing mssql connection]	[Remarks:Success]
[Date: 2020-06-23 13:13:05]	[UserID:06/343]	[IP:10.128.130.5]	[Browser:Chrome - 83.0.4103.106]	[Action:Making connection to server]	[Remarks:Successful connection to server: S3]
[Date: 2020-06-23 13:13:05]	[UserID:06/343]	[IP:10.128.130.5]	[Browser:Chrome - 83.0.4103.106]	[Action:GetGSTModules 06/343,1]	[Remarks:Successful filter row count: 7]
[Date: 2020-06-23 13:13:05]	[UserID:06/343]	[IP:10.128.130.5]	[Browser:Chrome - 83.0.4103.106]	[Action:Closing mssql connection]	[Remarks:Success]
[Date: 2020-06-23 13:15:03]	[UserID:06/343]	[IP:10.128.130.5]	[Browser:Chrome - 83.0.4103.106]	[Action:Making connection to server]	[Remarks:Successful connection to server: S3]
[Date: 2020-06-23 13:15:03]	[UserID:06/343]	[IP:10.128.130.5]	[Browser:Chrome - 83.0.4103.106]	[Action:GetGSTModules 06/343,1]	[Remarks:Successful filter row count: 7]
[Date: 2020-06-23 13:15:03]	[UserID:06/343]	[IP:10.128.130.5]	[Browser:Chrome - 83.0.4103.106]	[Action:Closing mssql connection]	[Remarks:Success]
[Date: 2020-06-23 14:25:09]	[UserID:]	[IP:10.128.12.115]	[Browser:Chrome - 83.0.4103.106]	[Action:Making connection to server]	[Remarks:Successful connection to server: S3]
[Date: 2020-06-23 14:25:09]	[UserID:]	[IP:10.128.12.115]	[Browser:Chrome - 83.0.4103.106]	[Action:GetProgramList ]	[Remarks:"no data"]
[Date: 2020-06-23 14:26:26]	[UserID:17/1248]	[IP:10.128.12.115]	[Browser:Chrome - 83.0.4103.106]	[Action:Making connection to server]	[Remarks:Successful connection to server: S3]
[Date: 2020-06-23 14:26:26]	[UserID:17/1248]	[IP:10.128.12.115]	[Browser:Chrome - 83.0.4103.106]	[Action:User 17/1248]	[Remarks:Success]
[Date: 2020-06-23 14:26:27]	[UserID:17/1248]	[IP:10.128.12.115]	[Browser:Chrome - 83.0.4103.106]	[Action:Filtering User : MasterData Username : 17/1248]	[Remarks:Successful filter row count: 0]
[Date: 2020-06-23 14:26:27]	[UserID:17/1248]	[IP:10.128.12.115]	[Browser:Chrome - 83.0.4103.106]	[Action:Filtering User : MasterData Username : 17/1248]	[Remarks:Successful filter row count: 0]
[Date: 2020-06-23 14:26:27]	[UserID:17/1248]	[IP:10.128.12.115]	[Browser:Chrome - 83.0.4103.106]	[Action:Filtering User : MasterData Username : 17/1248]	[Remarks:Success]
[Date: 2020-06-23 14:26:27]	[UserID:17/1248]	[IP:10.128.12.115]	[Browser:Chrome - 83.0.4103.106]	[Action:Closing mssql connection]	[Remarks:Success]
[Date: 2020-06-23 14:26:28]	[UserID:17/1248]	[IP:10.128.12.115]	[Browser:Chrome - 83.0.4103.106]	[Action:Making connection to server]	[Remarks:Successful connection to server: S3]
[Date: 2020-06-23 14:26:28]	[UserID:17/1248]	[IP:10.128.12.115]	[Browser:Chrome - 83.0.4103.106]	[Action:GetProgramList 17/1248]	[Remarks:[{"ID":"1","ProgramIndex":"GST","ProgramName":"GST"}]]
[Date: 2020-06-23 14:26:28]	[UserID:17/1248]	[IP:10.128.12.115]	[Browser:Chrome - 83.0.4103.106]	[Action:Making connection to server]	[Remarks:Successful connection to server: S3]
[Date: 2020-06-23 14:26:29]	[UserID:17/1248]	[IP:10.128.12.115]	[Browser:Chrome - 83.0.4103.106]	[Action:GetProgramList 17/1248]	[Remarks:[{"ID":"1","ProgramIndex":"GST","ProgramName":"GST"}]]
[Date: 2020-06-23 14:26:29]	[UserID:17/1248]	[IP:10.128.12.115]	[Browser:Chrome - 83.0.4103.106]	[Action:Making connection to server]	[Remarks:Successful connection to server: S3]
[Date: 2020-06-23 14:26:29]	[UserID:17/1248]	[IP:10.128.12.115]	[Browser:Chrome - 83.0.4103.106]	[Action:Filtering User : MasterData Username : 17/1248]	[Remarks:Successful filter row count: 1]
[Date: 2020-06-23 14:26:29]	[UserID:17/1248]	[IP:10.128.12.115]	[Browser:Chrome - 83.0.4103.106]	[Action:Making connection to server]	[Remarks:Successful connection to server: S3]
[Date: 2020-06-23 14:26:29]	[UserID:17/1248]	[IP:10.128.12.115]	[Browser:Chrome - 83.0.4103.106]	[Action:GetGSTModules 17/1248,1]	[Remarks:Successful filter row count: 6]
[Date: 2020-06-23 14:26:29]	[UserID:17/1248]	[IP:10.128.12.115]	[Browser:Chrome - 83.0.4103.106]	[Action:Closing mssql connection]	[Remarks:Success]
[Date: 2020-06-23 14:52:31]	[UserID:]	[IP:10.128.12.115]	[Browser:Chrome - 83.0.4103.106]	[Action:Making connection to server]	[Remarks:Successful connection to server: S3]
[Date: 2020-06-23 14:52:31]	[UserID:]	[IP:10.128.12.115]	[Browser:Chrome - 83.0.4103.106]	[Action:GetProgramList ]	[Remarks:"no data"]
[Date: 2020-06-23 14:56:40]	[UserID:]	[IP:10.128.130.5]	[Browser:Chrome - 83.0.4103.106]	[Action:Making connection to server]	[Remarks:Successful connection to server: S3]
[Date: 2020-06-23 14:56:40]	[UserID:]	[IP:10.128.130.5]	[Browser:Chrome - 83.0.4103.106]	[Action:GetProgramList ]	[Remarks:"no data"]
[Date: 2020-06-23 14:56:45]	[UserID:dev/cibandiola]	[IP:10.128.130.5]	[Browser:Chrome - 83.0.4103.106]	[Action:Making connection to server]	[Remarks:Successful connection to server: S3]
[Date: 2020-06-23 14:56:45]	[UserID:dev/cibandiola]	[IP:10.128.130.5]	[Browser:Chrome - 83.0.4103.106]	[Action:User dev/cibandiola]	[Remarks:Success]
[Date: 2020-06-23 14:56:45]	[UserID:dev/cibandiola]	[IP:10.128.130.5]	[Browser:Chrome - 83.0.4103.106]	[Action:Filtering User : MasterData Username : dev/cibandiola]	[Remarks:Successful filter row count: 0]
[Date: 2020-06-23 14:56:45]	[UserID:dev/cibandiola]	[IP:10.128.130.5]	[Browser:Chrome - 83.0.4103.106]	[Action:Filtering User : MasterData Username : dev/cibandiola]	[Remarks:Successful filter row count: 0]
[Date: 2020-06-23 14:56:45]	[UserID:dev/cibandiola]	[IP:10.128.130.5]	[Browser:Chrome - 83.0.4103.106]	[Action:Filtering User : MasterData Username : dev/cibandiola]	[Remarks:Success]
[Date: 2020-06-23 14:56:45]	[UserID:dev/cibandiola]	[IP:10.128.130.5]	[Browser:Chrome - 83.0.4103.106]	[Action:Closing mssql connection]	[Remarks:Success]
[Date: 2020-06-23 14:56:45]	[UserID:]	[IP:10.128.130.5]	[Browser:Chrome - 83.0.4103.106]	[Action:Making connection to server]	[Remarks:Successful connection to server: S3]
[Date: 2020-06-23 14:56:45]	[UserID:]	[IP:10.128.130.5]	[Browser:Chrome - 83.0.4103.106]	[Action:GetProgramList ]	[Remarks:"no data"]
[Date: 2020-06-23 14:56:54]	[UserID:dev/cibandiola]	[IP:10.128.130.5]	[Browser:Chrome - 83.0.4103.106]	[Action:Making connection to server]	[Remarks:Successful connection to server: S3]
[Date: 2020-06-23 14:56:54]	[UserID:dev/cibandiola]	[IP:10.128.130.5]	[Browser:Chrome - 83.0.4103.106]	[Action:User dev/cibandiola]	[Remarks:Success]
[Date: 2020-06-23 14:56:54]	[UserID:dev/cibandiola]	[IP:10.128.130.5]	[Browser:Chrome - 83.0.4103.106]	[Action:Filtering User : MasterData Username : dev/cibandiola]	[Remarks:Successful filter row count: 0]
[Date: 2020-06-23 14:56:54]	[UserID:dev/cibandiola]	[IP:10.128.130.5]	[Browser:Chrome - 83.0.4103.106]	[Action:Filtering User : MasterData Username : dev/cibandiola]	[Remarks:Successful filter row count: 0]
[Date: 2020-06-23 14:56:54]	[UserID:dev/cibandiola]	[IP:10.128.130.5]	[Browser:Chrome - 83.0.4103.106]	[Action:Filtering User : MasterData Username : dev/cibandiola]	[Remarks:Success]
[Date: 2020-06-23 14:56:54]	[UserID:dev/cibandiola]	[IP:10.128.130.5]	[Browser:Chrome - 83.0.4103.106]	[Action:Closing mssql connection]	[Remarks:Success]
[Date: 2020-06-23 14:56:54]	[UserID:]	[IP:10.128.130.5]	[Browser:Chrome - 83.0.4103.106]	[Action:Making connection to server]	[Remarks:Successful connection to server: S3]
[Date: 2020-06-23 14:56:55]	[UserID:]	[IP:10.128.130.5]	[Browser:Chrome - 83.0.4103.106]	[Action:GetProgramList ]	[Remarks:"no data"]
[Date: 2020-06-23 14:57:00]	[UserID:dev/cibandiola]	[IP:10.128.130.5]	[Browser:Chrome - 83.0.4103.106]	[Action:Making connection to server]	[Remarks:Successful connection to server: S3]
[Date: 2020-06-23 14:57:00]	[UserID:dev/cibandiola]	[IP:10.128.130.5]	[Browser:Chrome - 83.0.4103.106]	[Action:User dev/cibandiola]	[Remarks:Success]
[Date: 2020-06-23 14:57:00]	[UserID:dev/cibandiola]	[IP:10.128.130.5]	[Browser:Chrome - 83.0.4103.106]	[Action:Filtering User : MasterData Username : dev/cibandiola]	[Remarks:Successful filter row count: 0]
[Date: 2020-06-23 14:57:00]	[UserID:dev/cibandiola]	[IP:10.128.130.5]	[Browser:Chrome - 83.0.4103.106]	[Action:Filtering User : MasterData Username : dev/cibandiola]	[Remarks:Successful filter row count: 0]
[Date: 2020-06-23 14:57:00]	[UserID:dev/cibandiola]	[IP:10.128.130.5]	[Browser:Chrome - 83.0.4103.106]	[Action:Filtering User : MasterData Username : dev/cibandiola]	[Remarks:Success]
[Date: 2020-06-23 14:57:00]	[UserID:dev/cibandiola]	[IP:10.128.130.5]	[Browser:Chrome - 83.0.4103.106]	[Action:Closing mssql connection]	[Remarks:Success]
[Date: 2020-06-23 14:57:00]	[UserID:]	[IP:10.128.130.5]	[Browser:Chrome - 83.0.4103.106]	[Action:Making connection to server]	[Remarks:Successful connection to server: S3]
[Date: 2020-06-23 14:57:01]	[UserID:]	[IP:10.128.130.5]	[Browser:Chrome - 83.0.4103.106]	[Action:GetProgramList ]	[Remarks:"no data"]
[Date: 2020-06-23 14:57:06]	[UserID:dev/cibandiola]	[IP:10.128.130.5]	[Browser:Chrome - 83.0.4103.106]	[Action:Making connection to server]	[Remarks:Successful connection to server: S3]
[Date: 2020-06-23 14:57:06]	[UserID:dev/cibandiola]	[IP:10.128.130.5]	[Browser:Chrome - 83.0.4103.106]	[Action:LogMeIn dev/cibandiola,0918998]	[Remarks:Failed]
[Date: 2020-06-23 14:57:06]	[UserID:dev/cibandiola]	[IP:10.128.130.5]	[Browser:Chrome - 83.0.4103.106]	[Action:Closing mssql connection]	[Remarks:Success]
[Date: 2020-06-23 14:57:12]	[UserID:dev/cibandiola]	[IP:10.128.130.5]	[Browser:Chrome - 83.0.4103.106]	[Action:Making connection to server]	[Remarks:Successful connection to server: S3]
[Date: 2020-06-23 14:57:12]	[UserID:dev/cibandiola]	[IP:10.128.130.5]	[Browser:Chrome - 83.0.4103.106]	[Action:User dev/cibandiola]	[Remarks:Success]
[Date: 2020-06-23 14:57:12]	[UserID:dev/cibandiola]	[IP:10.128.130.5]	[Browser:Chrome - 83.0.4103.106]	[Action:Filtering User : MasterData Username : dev/cibandiola]	[Remarks:Successful filter row count: 0]
[Date: 2020-06-23 14:57:12]	[UserID:dev/cibandiola]	[IP:10.128.130.5]	[Browser:Chrome - 83.0.4103.106]	[Action:Filtering User : MasterData Username : dev/cibandiola]	[Remarks:Successful filter row count: 0]
[Date: 2020-06-23 14:57:12]	[UserID:dev/cibandiola]	[IP:10.128.130.5]	[Browser:Chrome - 83.0.4103.106]	[Action:Filtering User : MasterData Username : dev/cibandiola]	[Remarks:Success]
[Date: 2020-06-23 14:57:12]	[UserID:dev/cibandiola]	[IP:10.128.130.5]	[Browser:Chrome - 83.0.4103.106]	[Action:Closing mssql connection]	[Remarks:Success]
[Date: 2020-06-23 14:57:12]	[UserID:]	[IP:10.128.130.5]	[Browser:Chrome - 83.0.4103.106]	[Action:Making connection to server]	[Remarks:Successful connection to server: S3]
[Date: 2020-06-23 14:57:12]	[UserID:]	[IP:10.128.130.5]	[Browser:Chrome - 83.0.4103.106]	[Action:GetProgramList ]	[Remarks:"no data"]
[Date: 2020-06-23 14:57:22]	[UserID:dev/cibandiola]	[IP:10.128.130.5]	[Browser:Chrome - 83.0.4103.106]	[Action:Making connection to server]	[Remarks:Successful connection to server: S3]
[Date: 2020-06-23 14:57:22]	[UserID:dev/cibandiola]	[IP:10.128.130.5]	[Browser:Chrome - 83.0.4103.106]	[Action:User dev/cibandiola]	[Remarks:Success]
[Date: 2020-06-23 14:57:23]	[UserID:dev/cibandiola]	[IP:10.128.130.5]	[Browser:Chrome - 83.0.4103.106]	[Action:Filtering User : MasterData Username : dev/cibandiola]	[Remarks:Successful filter row count: 0]
[Date: 2020-06-23 14:57:23]	[UserID:dev/cibandiola]	[IP:10.128.130.5]	[Browser:Chrome - 83.0.4103.106]	[Action:Filtering User : MasterData Username : dev/cibandiola]	[Remarks:Successful filter row count: 0]
[Date: 2020-06-23 14:57:23]	[UserID:dev/cibandiola]	[IP:10.128.130.5]	[Browser:Chrome - 83.0.4103.106]	[Action:Filtering User : MasterData Username : dev/cibandiola]	[Remarks:Success]
[Date: 2020-06-23 14:57:23]	[UserID:dev/cibandiola]	[IP:10.128.130.5]	[Browser:Chrome - 83.0.4103.106]	[Action:Closing mssql connection]	[Remarks:Success]
[Date: 2020-06-23 14:57:23]	[UserID:]	[IP:10.128.130.5]	[Browser:Chrome - 83.0.4103.106]	[Action:Making connection to server]	[Remarks:Successful connection to server: S3]
[Date: 2020-06-23 14:57:23]	[UserID:]	[IP:10.128.130.5]	[Browser:Chrome - 83.0.4103.106]	[Action:GetProgramList ]	[Remarks:"no data"]
[Date: 2020-06-23 14:57:30]	[UserID:dev/cibandiola]	[IP:10.128.130.5]	[Browser:Chrome - 83.0.4103.106]	[Action:Making connection to server]	[Remarks:Successful connection to server: S3]
[Date: 2020-06-23 14:57:30]	[UserID:dev/cibandiola]	[IP:10.128.130.5]	[Browser:Chrome - 83.0.4103.106]	[Action:User dev/cibandiola]	[Remarks:Success]
[Date: 2020-06-23 14:57:30]	[UserID:dev/cibandiola]	[IP:10.128.130.5]	[Browser:Chrome - 83.0.4103.106]	[Action:Filtering User : MasterData Username : dev/cibandiola]	[Remarks:Successful filter row count: 0]
[Date: 2020-06-23 14:57:30]	[UserID:dev/cibandiola]	[IP:10.128.130.5]	[Browser:Chrome - 83.0.4103.106]	[Action:Filtering User : MasterData Username : dev/cibandiola]	[Remarks:Successful filter row count: 0]
[Date: 2020-06-23 14:57:30]	[UserID:dev/cibandiola]	[IP:10.128.130.5]	[Browser:Chrome - 83.0.4103.106]	[Action:Filtering User : MasterData Username : dev/cibandiola]	[Remarks:Success]
[Date: 2020-06-23 14:57:30]	[UserID:dev/cibandiola]	[IP:10.128.130.5]	[Browser:Chrome - 83.0.4103.106]	[Action:Closing mssql connection]	[Remarks:Success]
[Date: 2020-06-23 14:57:30]	[UserID:]	[IP:10.128.130.5]	[Browser:Chrome - 83.0.4103.106]	[Action:Making connection to server]	[Remarks:Successful connection to server: S3]
[Date: 2020-06-23 14:57:30]	[UserID:]	[IP:10.128.130.5]	[Browser:Chrome - 83.0.4103.106]	[Action:GetProgramList ]	[Remarks:"no data"]
[Date: 2020-06-23 14:58:25]	[UserID:]	[IP:10.128.130.5]	[Browser:Chrome - 83.0.4103.106]	[Action:Making connection to server]	[Remarks:Successful connection to server: S3]
[Date: 2020-06-23 14:58:25]	[UserID:]	[IP:10.128.130.5]	[Browser:Chrome - 83.0.4103.106]	[Action:GetProgramList ]	[Remarks:"no data"]
[Date: 2020-06-23 14:58:40]	[UserID:dev/cibandiola]	[IP:10.128.130.5]	[Browser:Chrome - 83.0.4103.106]	[Action:Making connection to server]	[Remarks:Successful connection to server: S3]
[Date: 2020-06-23 14:58:40]	[UserID:dev/cibandiola]	[IP:10.128.130.5]	[Browser:Chrome - 83.0.4103.106]	[Action:User dev/cibandiola]	[Remarks:Success]
[Date: 2020-06-23 14:58:40]	[UserID:dev/cibandiola]	[IP:10.128.130.5]	[Browser:Chrome - 83.0.4103.106]	[Action:Filtering User : MasterData Username : dev/cibandiola]	[Remarks:Successful filter row count: 0]
[Date: 2020-06-23 14:58:40]	[UserID:dev/cibandiola]	[IP:10.128.130.5]	[Browser:Chrome - 83.0.4103.106]	[Action:Filtering User : MasterData Username : dev/cibandiola]	[Remarks:Successful filter row count: 0]
[Date: 2020-06-23 14:58:40]	[UserID:dev/cibandiola]	[IP:10.128.130.5]	[Browser:Chrome - 83.0.4103.106]	[Action:Filtering User : MasterData Username : dev/cibandiola]	[Remarks:Success]
[Date: 2020-06-23 14:58:40]	[UserID:dev/cibandiola]	[IP:10.128.130.5]	[Browser:Chrome - 83.0.4103.106]	[Action:Closing mssql connection]	[Remarks:Success]
[Date: 2020-06-23 14:58:40]	[UserID:dev/cibandiola]	[IP:10.128.130.5]	[Browser:Chrome - 83.0.4103.106]	[Action:Making connection to server]	[Remarks:Successful connection to server: S3]
[Date: 2020-06-23 14:58:40]	[UserID:dev/cibandiola]	[IP:10.128.130.5]	[Browser:Chrome - 83.0.4103.106]	[Action:GetProgramList dev/cibandiola]	[Remarks:[{"ID":"1","ProgramIndex":"GST","ProgramName":"GST"},{"ID":"3","ProgramIndex":"PRD","ProgramName":"PRD"}]]
[Date: 2020-06-23 14:58:40]	[UserID:dev/cibandiola]	[IP:10.128.130.5]	[Browser:Chrome - 83.0.4103.106]	[Action:Making connection to server]	[Remarks:Successful connection to server: S3]
[Date: 2020-06-23 14:58:40]	[UserID:dev/cibandiola]	[IP:10.128.130.5]	[Browser:Chrome - 83.0.4103.106]	[Action:GetProgramList dev/cibandiola]	[Remarks:[{"ID":"1","ProgramIndex":"GST","ProgramName":"GST"},{"ID":"3","ProgramIndex":"PRD","ProgramName":"PRD"}]]
[Date: 2020-06-23 14:58:40]	[UserID:dev/cibandiola]	[IP:10.128.130.5]	[Browser:Chrome - 83.0.4103.106]	[Action:Making connection to server]	[Remarks:Successful connection to server: S3]
[Date: 2020-06-23 14:58:40]	[UserID:dev/cibandiola]	[IP:10.128.130.5]	[Browser:Chrome - 83.0.4103.106]	[Action:Filtering User : MasterData Username : dev/cibandiola]	[Remarks:Successful filter row count: 1]
[Date: 2020-06-23 14:58:44]	[UserID:dev/cibandiola]	[IP:10.128.130.5]	[Browser:Chrome - 83.0.4103.106]	[Action:Making connection to server]	[Remarks:Successful connection to server: S3]
[Date: 2020-06-23 14:58:44]	[UserID:dev/cibandiola]	[IP:10.128.130.5]	[Browser:Chrome - 83.0.4103.106]	[Action:GetGSTModules dev/cibandiola,1]	[Remarks:Successful filter row count: 12]
[Date: 2020-06-23 14:58:44]	[UserID:dev/cibandiola]	[IP:10.128.130.5]	[Browser:Chrome - 83.0.4103.106]	[Action:Closing mssql connection]	[Remarks:Success]
[Date: 2020-06-23 15:01:02]	[UserID:dev/cibandiola]	[IP:10.128.130.5]	[Browser:Chrome - 83.0.4103.106]	[Action:Making connection to server]	[Remarks:Successful connection to server: S3]
[Date: 2020-06-23 15:01:02]	[UserID:dev/cibandiola]	[IP:10.128.130.5]	[Browser:Chrome - 83.0.4103.106]	[Action:GetProgramList dev/cibandiola]	[Remarks:[{"ID":"1","ProgramIndex":"GST","ProgramName":"GST"},{"ID":"3","ProgramIndex":"PRD","ProgramName":"PRD"}]]
[Date: 2020-06-23 15:01:02]	[UserID:dev/cibandiola]	[IP:10.128.130.5]	[Browser:Chrome - 83.0.4103.106]	[Action:Making connection to server]	[Remarks:Successful connection to server: S3]
[Date: 2020-06-23 15:01:02]	[UserID:dev/cibandiola]	[IP:10.128.130.5]	[Browser:Chrome - 83.0.4103.106]	[Action:GetProgramList dev/cibandiola]	[Remarks:[{"ID":"1","ProgramIndex":"GST","ProgramName":"GST"},{"ID":"3","ProgramIndex":"PRD","ProgramName":"PRD"}]]
[Date: 2020-06-23 15:01:02]	[UserID:dev/cibandiola]	[IP:10.128.130.5]	[Browser:Chrome - 83.0.4103.106]	[Action:Making connection to server]	[Remarks:Successful connection to server: S3]
[Date: 2020-06-23 15:01:02]	[UserID:dev/cibandiola]	[IP:10.128.130.5]	[Browser:Chrome - 83.0.4103.106]	[Action:Filtering User : MasterData Username : dev/cibandiola]	[Remarks:Successful filter row count: 1]
[Date: 2020-06-23 15:01:18]	[UserID:dev/cibandiola]	[IP:10.128.130.5]	[Browser:Chrome - 83.0.4103.106]	[Action:Making connection to server]	[Remarks:Successful connection to server: S3]
[Date: 2020-06-23 15:01:18]	[UserID:dev/cibandiola]	[IP:10.128.130.5]	[Browser:Chrome - 83.0.4103.106]	[Action:GetGSTModules dev/cibandiola,1]	[Remarks:Successful filter row count: 12]
[Date: 2020-06-23 15:01:18]	[UserID:dev/cibandiola]	[IP:10.128.130.5]	[Browser:Chrome - 83.0.4103.106]	[Action:Closing mssql connection]	[Remarks:Success]
[Date: 2020-06-23 16:03:50]	[UserID:]	[IP:10.128.12.114]	[Browser:Chrome - 83.0.4103.106]	[Action:Making connection to server]	[Remarks:Successful connection to server: S3]
[Date: 2020-06-23 16:03:50]	[UserID:]	[IP:10.128.12.114]	[Browser:Chrome - 83.0.4103.106]	[Action:GetProgramList ]	[Remarks:"no data"]
[Date: 2020-06-23 16:03:58]	[UserID:]	[IP:10.128.12.115]	[Browser:Chrome - 83.0.4103.106]	[Action:Making connection to server]	[Remarks:Successful connection to server: S3]
[Date: 2020-06-23 16:03:58]	[UserID:]	[IP:10.128.12.115]	[Browser:Chrome - 83.0.4103.106]	[Action:GetProgramList ]	[Remarks:"no data"]
[Date: 2020-06-23 16:04:03]	[UserID:17/1248]	[IP:10.128.12.115]	[Browser:Chrome - 83.0.4103.106]	[Action:Making connection to server]	[Remarks:Successful connection to server: S3]
[Date: 2020-06-23 16:04:03]	[UserID:17/1248]	[IP:10.128.12.115]	[Browser:Chrome - 83.0.4103.106]	[Action:User 17/1248]	[Remarks:Success]
[Date: 2020-06-23 16:04:03]	[UserID:17/1248]	[IP:10.128.12.115]	[Browser:Chrome - 83.0.4103.106]	[Action:Filtering User : MasterData Username : 17/1248]	[Remarks:Successful filter row count: 0]
[Date: 2020-06-23 16:04:03]	[UserID:17/1248]	[IP:10.128.12.115]	[Browser:Chrome - 83.0.4103.106]	[Action:Filtering User : MasterData Username : 17/1248]	[Remarks:Successful filter row count: 0]
[Date: 2020-06-23 16:04:03]	[UserID:17/1248]	[IP:10.128.12.115]	[Browser:Chrome - 83.0.4103.106]	[Action:Filtering User : MasterData Username : 17/1248]	[Remarks:Success]
[Date: 2020-06-23 16:04:03]	[UserID:17/1248]	[IP:10.128.12.115]	[Browser:Chrome - 83.0.4103.106]	[Action:Closing mssql connection]	[Remarks:Success]
[Date: 2020-06-23 16:04:05]	[UserID:17/1248]	[IP:10.128.12.115]	[Browser:Chrome - 83.0.4103.106]	[Action:Making connection to server]	[Remarks:Successful connection to server: S3]
[Date: 2020-06-23 16:04:05]	[UserID:17/1248]	[IP:10.128.12.115]	[Browser:Chrome - 83.0.4103.106]	[Action:GetProgramList 17/1248]	[Remarks:[{"ID":"1","ProgramIndex":"GST","ProgramName":"GST"}]]
[Date: 2020-06-23 16:04:05]	[UserID:17/1248]	[IP:10.128.12.115]	[Browser:Chrome - 83.0.4103.106]	[Action:Making connection to server]	[Remarks:Successful connection to server: S3]
[Date: 2020-06-23 16:04:05]	[UserID:17/1248]	[IP:10.128.12.115]	[Browser:Chrome - 83.0.4103.106]	[Action:GetProgramList 17/1248]	[Remarks:[{"ID":"1","ProgramIndex":"GST","ProgramName":"GST"}]]
[Date: 2020-06-23 16:04:05]	[UserID:17/1248]	[IP:10.128.12.115]	[Browser:Chrome - 83.0.4103.106]	[Action:Making connection to server]	[Remarks:Successful connection to server: S3]
[Date: 2020-06-23 16:04:05]	[UserID:17/1248]	[IP:10.128.12.115]	[Browser:Chrome - 83.0.4103.106]	[Action:Filtering User : MasterData Username : 17/1248]	[Remarks:Successful filter row count: 1]
[Date: 2020-06-23 16:04:05]	[UserID:17/1248]	[IP:10.128.12.115]	[Browser:Chrome - 83.0.4103.106]	[Action:Making connection to server]	[Remarks:Successful connection to server: S3]
[Date: 2020-06-23 16:04:05]	[UserID:17/1248]	[IP:10.128.12.115]	[Browser:Chrome - 83.0.4103.106]	[Action:GetGSTModules 17/1248,1]	[Remarks:Successful filter row count: 6]
[Date: 2020-06-23 16:04:05]	[UserID:17/1248]	[IP:10.128.12.115]	[Browser:Chrome - 83.0.4103.106]	[Action:Closing mssql connection]	[Remarks:Success]
[Date: 2020-06-23 16:05:35]	[UserID:]	[IP:10.128.12.115]	[Browser:Chrome - 83.0.4103.106]	[Action:Making connection to server]	[Remarks:Successful connection to server: S3]
[Date: 2020-06-23 16:05:35]	[UserID:]	[IP:10.128.12.115]	[Browser:Chrome - 83.0.4103.106]	[Action:GetProgramList ]	[Remarks:"no data"]
[Date: 2020-06-23 20:34:59]	[UserID:]	[IP:10.128.130.5]	[Browser:Chrome - 83.0.4103.106]	[Action:Making connection to server]	[Remarks:Successful connection to server: S3]
[Date: 2020-06-23 20:34:59]	[UserID:]	[IP:10.128.130.5]	[Browser:Chrome - 83.0.4103.106]	[Action:GetProgramList ]	[Remarks:"no data"]
[Date: 2020-06-23 20:35:27]	[UserID:dev/cibandiola]	[IP:10.128.130.5]	[Browser:Chrome - 83.0.4103.106]	[Action:Making connection to server]	[Remarks:Successful connection to server: S3]
[Date: 2020-06-23 20:35:27]	[UserID:dev/cibandiola]	[IP:10.128.130.5]	[Browser:Chrome - 83.0.4103.106]	[Action:User dev/cibandiola]	[Remarks:Success]
[Date: 2020-06-23 20:35:27]	[UserID:dev/cibandiola]	[IP:10.128.130.5]	[Browser:Chrome - 83.0.4103.106]	[Action:Filtering User : MasterData Username : dev/cibandiola]	[Remarks:Successful filter row count: 0]
[Date: 2020-06-23 20:35:27]	[UserID:dev/cibandiola]	[IP:10.128.130.5]	[Browser:Chrome - 83.0.4103.106]	[Action:Filtering User : MasterData Username : dev/cibandiola]	[Remarks:Successful filter row count: 0]
[Date: 2020-06-23 20:35:27]	[UserID:dev/cibandiola]	[IP:10.128.130.5]	[Browser:Chrome - 83.0.4103.106]	[Action:Filtering User : MasterData Username : dev/cibandiola]	[Remarks:Success]
[Date: 2020-06-23 20:35:27]	[UserID:dev/cibandiola]	[IP:10.128.130.5]	[Browser:Chrome - 83.0.4103.106]	[Action:Closing mssql connection]	[Remarks:Success]
[Date: 2020-06-23 20:35:27]	[UserID:]	[IP:10.128.130.5]	[Browser:Chrome - 83.0.4103.106]	[Action:Making connection to server]	[Remarks:Successful connection to server: S3]
[Date: 2020-06-23 20:35:27]	[UserID:]	[IP:10.128.130.5]	[Browser:Chrome - 83.0.4103.106]	[Action:GetProgramList ]	[Remarks:"no data"]
[Date: 2020-06-23 20:35:43]	[UserID:dev/cibandiola]	[IP:10.128.130.5]	[Browser:Chrome - 83.0.4103.106]	[Action:Making connection to server]	[Remarks:Successful connection to server: S3]
[Date: 2020-06-23 20:35:43]	[UserID:dev/cibandiola]	[IP:10.128.130.5]	[Browser:Chrome - 83.0.4103.106]	[Action:User dev/cibandiola]	[Remarks:Success]
[Date: 2020-06-23 20:35:43]	[UserID:dev/cibandiola]	[IP:10.128.130.5]	[Browser:Chrome - 83.0.4103.106]	[Action:Filtering User : MasterData Username : dev/cibandiola]	[Remarks:Successful filter row count: 0]
[Date: 2020-06-23 20:35:43]	[UserID:dev/cibandiola]	[IP:10.128.130.5]	[Browser:Chrome - 83.0.4103.106]	[Action:Filtering User : MasterData Username : dev/cibandiola]	[Remarks:Successful filter row count: 0]
[Date: 2020-06-23 20:35:43]	[UserID:dev/cibandiola]	[IP:10.128.130.5]	[Browser:Chrome - 83.0.4103.106]	[Action:Filtering User : MasterData Username : dev/cibandiola]	[Remarks:Success]
[Date: 2020-06-23 20:35:43]	[UserID:dev/cibandiola]	[IP:10.128.130.5]	[Browser:Chrome - 83.0.4103.106]	[Action:Closing mssql connection]	[Remarks:Success]
[Date: 2020-06-23 20:35:43]	[UserID:]	[IP:10.128.130.5]	[Browser:Chrome - 83.0.4103.106]	[Action:Making connection to server]	[Remarks:Successful connection to server: S3]
[Date: 2020-06-23 20:35:43]	[UserID:]	[IP:10.128.130.5]	[Browser:Chrome - 83.0.4103.106]	[Action:GetProgramList ]	[Remarks:"no data"]
[Date: 2020-06-23 20:35:52]	[UserID:dev/cibandiola]	[IP:10.128.130.5]	[Browser:Chrome - 83.0.4103.106]	[Action:Making connection to server]	[Remarks:Successful connection to server: S3]
[Date: 2020-06-23 20:35:52]	[UserID:dev/cibandiola]	[IP:10.128.130.5]	[Browser:Chrome - 83.0.4103.106]	[Action:User dev/cibandiola]	[Remarks:Success]
[Date: 2020-06-23 20:35:52]	[UserID:dev/cibandiola]	[IP:10.128.130.5]	[Browser:Chrome - 83.0.4103.106]	[Action:Filtering User : MasterData Username : dev/cibandiola]	[Remarks:Successful filter row count: 0]
[Date: 2020-06-23 20:35:52]	[UserID:dev/cibandiola]	[IP:10.128.130.5]	[Browser:Chrome - 83.0.4103.106]	[Action:Filtering User : MasterData Username : dev/cibandiola]	[Remarks:Successful filter row count: 0]
[Date: 2020-06-23 20:35:52]	[UserID:dev/cibandiola]	[IP:10.128.130.5]	[Browser:Chrome - 83.0.4103.106]	[Action:Filtering User : MasterData Username : dev/cibandiola]	[Remarks:Success]
[Date: 2020-06-23 20:35:52]	[UserID:dev/cibandiola]	[IP:10.128.130.5]	[Browser:Chrome - 83.0.4103.106]	[Action:Closing mssql connection]	[Remarks:Success]
[Date: 2020-06-23 20:35:52]	[UserID:]	[IP:10.128.130.5]	[Browser:Chrome - 83.0.4103.106]	[Action:Making connection to server]	[Remarks:Successful connection to server: S3]
[Date: 2020-06-23 20:35:52]	[UserID:]	[IP:10.128.130.5]	[Browser:Chrome - 83.0.4103.106]	[Action:GetProgramList ]	[Remarks:"no data"]
[Date: 2020-06-23 20:35:57]	[UserID:dev/cibandiola]	[IP:10.128.130.5]	[Browser:Chrome - 83.0.4103.106]	[Action:Making connection to server]	[Remarks:Successful connection to server: S3]
[Date: 2020-06-23 20:35:57]	[UserID:dev/cibandiola]	[IP:10.128.130.5]	[Browser:Chrome - 83.0.4103.106]	[Action:User dev/cibandiola]	[Remarks:Success]
[Date: 2020-06-23 20:35:57]	[UserID:dev/cibandiola]	[IP:10.128.130.5]	[Browser:Chrome - 83.0.4103.106]	[Action:Filtering User : MasterData Username : dev/cibandiola]	[Remarks:Successful filter row count: 0]
[Date: 2020-06-23 20:35:57]	[UserID:dev/cibandiola]	[IP:10.128.130.5]	[Browser:Chrome - 83.0.4103.106]	[Action:Filtering User : MasterData Username : dev/cibandiola]	[Remarks:Successful filter row count: 0]
[Date: 2020-06-23 20:35:57]	[UserID:dev/cibandiola]	[IP:10.128.130.5]	[Browser:Chrome - 83.0.4103.106]	[Action:Filtering User : MasterData Username : dev/cibandiola]	[Remarks:Success]
[Date: 2020-06-23 20:35:57]	[UserID:dev/cibandiola]	[IP:10.128.130.5]	[Browser:Chrome - 83.0.4103.106]	[Action:Closing mssql connection]	[Remarks:Success]
[Date: 2020-06-23 20:35:57]	[UserID:]	[IP:10.128.130.5]	[Browser:Chrome - 83.0.4103.106]	[Action:Making connection to server]	[Remarks:Successful connection to server: S3]
[Date: 2020-06-23 20:35:57]	[UserID:]	[IP:10.128.130.5]	[Browser:Chrome - 83.0.4103.106]	[Action:GetProgramList ]	[Remarks:"no data"]
[Date: 2020-06-23 20:36:17]	[UserID:]	[IP:10.128.130.5]	[Browser:Chrome - 83.0.4103.106]	[Action:Making connection to server]	[Remarks:Successful connection to server: S3]
[Date: 2020-06-23 20:36:17]	[UserID:]	[IP:10.128.130.5]	[Browser:Chrome - 83.0.4103.106]	[Action:GetProgramList ]	[Remarks:"no data"]
[Date: 2020-06-23 20:36:27]	[UserID:dev/cibandiola]	[IP:10.128.130.5]	[Browser:Chrome - 83.0.4103.106]	[Action:Making connection to server]	[Remarks:Successful connection to server: S3]
[Date: 2020-06-23 20:36:27]	[UserID:dev/cibandiola]	[IP:10.128.130.5]	[Browser:Chrome - 83.0.4103.106]	[Action:User dev/cibandiola]	[Remarks:Success]
[Date: 2020-06-23 20:36:27]	[UserID:dev/cibandiola]	[IP:10.128.130.5]	[Browser:Chrome - 83.0.4103.106]	[Action:Filtering User : MasterData Username : dev/cibandiola]	[Remarks:Successful filter row count: 0]
[Date: 2020-06-23 20:36:27]	[UserID:dev/cibandiola]	[IP:10.128.130.5]	[Browser:Chrome - 83.0.4103.106]	[Action:Filtering User : MasterData Username : dev/cibandiola]	[Remarks:Successful filter row count: 0]
[Date: 2020-06-23 20:36:27]	[UserID:dev/cibandiola]	[IP:10.128.130.5]	[Browser:Chrome - 83.0.4103.106]	[Action:Filtering User : MasterData Username : dev/cibandiola]	[Remarks:Success]
[Date: 2020-06-23 20:36:27]	[UserID:dev/cibandiola]	[IP:10.128.130.5]	[Browser:Chrome - 83.0.4103.106]	[Action:Closing mssql connection]	[Remarks:Success]
[Date: 2020-06-23 20:36:28]	[UserID:]	[IP:10.128.130.5]	[Browser:Chrome - 83.0.4103.106]	[Action:Making connection to server]	[Remarks:Successful connection to server: S3]
[Date: 2020-06-23 20:36:28]	[UserID:]	[IP:10.128.130.5]	[Browser:Chrome - 83.0.4103.106]	[Action:GetProgramList ]	[Remarks:"no data"]
[Date: 2020-06-23 20:36:35]	[UserID:dev/cibandiola]	[IP:10.128.130.5]	[Browser:Chrome - 83.0.4103.106]	[Action:Making connection to server]	[Remarks:Successful connection to server: S3]
[Date: 2020-06-23 20:36:35]	[UserID:dev/cibandiola]	[IP:10.128.130.5]	[Browser:Chrome - 83.0.4103.106]	[Action:User dev/cibandiola]	[Remarks:Success]
[Date: 2020-06-23 20:36:35]	[UserID:dev/cibandiola]	[IP:10.128.130.5]	[Browser:Chrome - 83.0.4103.106]	[Action:Filtering User : MasterData Username : dev/cibandiola]	[Remarks:Successful filter row count: 0]
[Date: 2020-06-23 20:36:35]	[UserID:dev/cibandiola]	[IP:10.128.130.5]	[Browser:Chrome - 83.0.4103.106]	[Action:Filtering User : MasterData Username : dev/cibandiola]	[Remarks:Successful filter row count: 0]
[Date: 2020-06-23 20:36:35]	[UserID:dev/cibandiola]	[IP:10.128.130.5]	[Browser:Chrome - 83.0.4103.106]	[Action:Filtering User : MasterData Username : dev/cibandiola]	[Remarks:Success]
[Date: 2020-06-23 20:36:35]	[UserID:dev/cibandiola]	[IP:10.128.130.5]	[Browser:Chrome - 83.0.4103.106]	[Action:Closing mssql connection]	[Remarks:Success]
[Date: 2020-06-23 20:36:35]	[UserID:]	[IP:10.128.130.5]	[Browser:Chrome - 83.0.4103.106]	[Action:Making connection to server]	[Remarks:Successful connection to server: S3]
[Date: 2020-06-23 20:36:35]	[UserID:]	[IP:10.128.130.5]	[Browser:Chrome - 83.0.4103.106]	[Action:GetProgramList ]	[Remarks:"no data"]
[Date: 2020-06-23 20:36:49]	[UserID:dev/cibandiola]	[IP:10.128.130.5]	[Browser:Chrome - 83.0.4103.106]	[Action:Making connection to server]	[Remarks:Successful connection to server: S3]
[Date: 2020-06-23 20:36:49]	[UserID:dev/cibandiola]	[IP:10.128.130.5]	[Browser:Chrome - 83.0.4103.106]	[Action:User dev/cibandiola]	[Remarks:Success]
[Date: 2020-06-23 20:36:49]	[UserID:dev/cibandiola]	[IP:10.128.130.5]	[Browser:Chrome - 83.0.4103.106]	[Action:Filtering User : MasterData Username : dev/cibandiola]	[Remarks:Successful filter row count: 0]
[Date: 2020-06-23 20:36:49]	[UserID:dev/cibandiola]	[IP:10.128.130.5]	[Browser:Chrome - 83.0.4103.106]	[Action:Filtering User : MasterData Username : dev/cibandiola]	[Remarks:Successful filter row count: 0]
[Date: 2020-06-23 20:36:49]	[UserID:dev/cibandiola]	[IP:10.128.130.5]	[Browser:Chrome - 83.0.4103.106]	[Action:Filtering User : MasterData Username : dev/cibandiola]	[Remarks:Success]
[Date: 2020-06-23 20:36:49]	[UserID:dev/cibandiola]	[IP:10.128.130.5]	[Browser:Chrome - 83.0.4103.106]	[Action:Closing mssql connection]	[Remarks:Success]
[Date: 2020-06-23 20:36:49]	[UserID:]	[IP:10.128.130.5]	[Browser:Chrome - 83.0.4103.106]	[Action:Making connection to server]	[Remarks:Successful connection to server: S3]
[Date: 2020-06-23 20:36:50]	[UserID:]	[IP:10.128.130.5]	[Browser:Chrome - 83.0.4103.106]	[Action:GetProgramList ]	[Remarks:"no data"]
[Date: 2020-06-23 20:37:01]	[UserID:]	[IP:10.128.130.5]	[Browser:Chrome - 83.0.4103.106]	[Action:Making connection to server]	[Remarks:Successful connection to server: S3]
[Date: 2020-06-23 20:37:01]	[UserID:]	[IP:10.128.130.5]	[Browser:Chrome - 83.0.4103.106]	[Action:GetProgramList ]	[Remarks:"no data"]
[Date: 2020-06-23 20:37:05]	[UserID:dev/cibandiola]	[IP:10.128.130.5]	[Browser:Chrome - 83.0.4103.106]	[Action:Making connection to server]	[Remarks:Successful connection to server: S3]
[Date: 2020-06-23 20:37:05]	[UserID:dev/cibandiola]	[IP:10.128.130.5]	[Browser:Chrome - 83.0.4103.106]	[Action:User dev/cibandiola]	[Remarks:Success]
[Date: 2020-06-23 20:37:05]	[UserID:dev/cibandiola]	[IP:10.128.130.5]	[Browser:Chrome - 83.0.4103.106]	[Action:Filtering User : MasterData Username : dev/cibandiola]	[Remarks:Successful filter row count: 0]
[Date: 2020-06-23 20:37:05]	[UserID:dev/cibandiola]	[IP:10.128.130.5]	[Browser:Chrome - 83.0.4103.106]	[Action:Filtering User : MasterData Username : dev/cibandiola]	[Remarks:Successful filter row count: 0]
[Date: 2020-06-23 20:37:05]	[UserID:dev/cibandiola]	[IP:10.128.130.5]	[Browser:Chrome - 83.0.4103.106]	[Action:Filtering User : MasterData Username : dev/cibandiola]	[Remarks:Success]
[Date: 2020-06-23 20:37:05]	[UserID:dev/cibandiola]	[IP:10.128.130.5]	[Browser:Chrome - 83.0.4103.106]	[Action:Closing mssql connection]	[Remarks:Success]
[Date: 2020-06-23 20:37:05]	[UserID:]	[IP:10.128.130.5]	[Browser:Chrome - 83.0.4103.106]	[Action:Making connection to server]	[Remarks:Successful connection to server: S3]
[Date: 2020-06-23 20:37:05]	[UserID:]	[IP:10.128.130.5]	[Browser:Chrome - 83.0.4103.106]	[Action:GetProgramList ]	[Remarks:"no data"]
[Date: 2020-06-23 23:15:28]	[UserID:]	[IP:10.128.130.5]	[Browser:Firefox - 77.0]	[Action:Making connection to server]	[Remarks:Successful connection to server: S3]
[Date: 2020-06-23 23:15:28]	[UserID:]	[IP:10.128.130.5]	[Browser:Firefox - 77.0]	[Action:GetProgramList ]	[Remarks:"no data"]
