[Date: 2017-11-10 09:14:53]	[UserID:]	[IP:10.128.12.210]	[Browser:Chrome - 61.0.3163.100]	[Action:Making connection to server]	[Remarks:Successful connection to server: S3]
[Date: 2017-11-10 09:14:53]	[UserID:]	[IP:10.128.12.210]	[Browser:Chrome - 61.0.3163.100]	[Action:GetProgramList ]	[Remarks:"no data"]
[Date: 2017-11-10 09:15:00]	[UserID:10/660]	[IP:10.128.12.210]	[Browser:Chrome - 61.0.3163.100]	[Action:Making connection to server]	[Remarks:Successful connection to server: S3]
[Date: 2017-11-10 09:15:00]	[UserID:10/660]	[IP:10.128.12.210]	[Browser:Chrome - 61.0.3163.100]	[Action:User 10/660]	[Remarks:Success]
[Date: 2017-11-10 09:15:00]	[UserID:10/660]	[IP:10.128.12.210]	[Browser:Chrome - 61.0.3163.100]	[Action:Filtering User : MasterData Username : 10/660]	[Remarks:Successful filter row count: 0]
[Date: 2017-11-10 09:15:00]	[UserID:10/660]	[IP:10.128.12.210]	[Browser:Chrome - 61.0.3163.100]	[Action:Filtering User : MasterData Username : 10/660]	[Remarks:Successful filter row count: 0]
[Date: 2017-11-10 09:15:00]	[UserID:10/660]	[IP:10.128.12.210]	[Browser:Chrome - 61.0.3163.100]	[Action:Filtering User : MasterData Username : 10/660]	[Remarks:Success]
[Date: 2017-11-10 09:15:00]	[UserID:10/660]	[IP:10.128.12.210]	[Browser:Chrome - 61.0.3163.100]	[Action:Closing mssql connection]	[Remarks:Success]
[Date: 2017-11-10 09:15:00]	[UserID:10/660]	[IP:10.128.12.210]	[Browser:Chrome - 61.0.3163.100]	[Action:Making connection to server]	[Remarks:Successful connection to server: S3]
[Date: 2017-11-10 09:15:00]	[UserID:10/660]	[IP:10.128.12.210]	[Browser:Chrome - 61.0.3163.100]	[Action:GetProgramList 10/660]	[Remarks:[{"ID":"1","ProgramIndex":"GST","ProgramName":"GST"}]]
[Date: 2017-11-10 09:15:00]	[UserID:10/660]	[IP:10.128.12.210]	[Browser:Chrome - 61.0.3163.100]	[Action:Making connection to server]	[Remarks:Successful connection to server: S3]
[Date: 2017-11-10 09:15:00]	[UserID:10/660]	[IP:10.128.12.210]	[Browser:Chrome - 61.0.3163.100]	[Action:GetProgramList 10/660]	[Remarks:[{"ID":"1","ProgramIndex":"GST","ProgramName":"GST"}]]
[Date: 2017-11-10 09:15:00]	[UserID:10/660]	[IP:10.128.12.210]	[Browser:Chrome - 61.0.3163.100]	[Action:Making connection to server]	[Remarks:Successful connection to server: S3]
[Date: 2017-11-10 09:15:00]	[UserID:10/660]	[IP:10.128.12.210]	[Browser:Chrome - 61.0.3163.100]	[Action:Filtering User : MasterData Username : 10/660]	[Remarks:Successful filter row count: 1]
[Date: 2017-11-10 09:15:01]	[UserID:10/660]	[IP:10.128.12.210]	[Browser:Chrome - 61.0.3163.100]	[Action:Making connection to server]	[Remarks:Successful connection to server: S3]
[Date: 2017-11-10 09:15:01]	[UserID:10/660]	[IP:10.128.12.210]	[Browser:Chrome - 61.0.3163.100]	[Action:GetGSTModules 10/660,1]	[Remarks:Successful filter row count: 5]
[Date: 2017-11-10 09:15:01]	[UserID:10/660]	[IP:10.128.12.210]	[Browser:Chrome - 61.0.3163.100]	[Action:Closing mssql connection]	[Remarks:Success]
[Date: 2017-11-10 09:24:22]	[UserID:10/660]	[IP:10.128.12.210]	[Browser:Chrome - 61.0.3163.100]	[Action:Making connection to server]	[Remarks:Successful connection to server: S3]
[Date: 2017-11-10 09:24:22]	[UserID:10/660]	[IP:10.128.12.210]	[Browser:Chrome - 61.0.3163.100]	[Action:GetGSTModules 10/660,1]	[Remarks:Successful filter row count: 5]
[Date: 2017-11-10 09:24:22]	[UserID:10/660]	[IP:10.128.12.210]	[Browser:Chrome - 61.0.3163.100]	[Action:Closing mssql connection]	[Remarks:Success]
[Date: 2017-11-10 09:28:40]	[UserID:10/660]	[IP:10.128.12.210]	[Browser:Chrome - 61.0.3163.100]	[Action:Making connection to server]	[Remarks:Successful connection to server: S3]
[Date: 2017-11-10 09:28:40]	[UserID:10/660]	[IP:10.128.12.210]	[Browser:Chrome - 61.0.3163.100]	[Action:GetGSTModules 10/660,1]	[Remarks:Successful filter row count: 5]
[Date: 2017-11-10 09:28:40]	[UserID:10/660]	[IP:10.128.12.210]	[Browser:Chrome - 61.0.3163.100]	[Action:Closing mssql connection]	[Remarks:Success]
[Date: 2017-11-10 09:29:00]	[UserID:]	[IP:10.128.12.210]	[Browser:Chrome - 61.0.3163.100]	[Action:Making connection to server]	[Remarks:Successful connection to server: S3]
[Date: 2017-11-10 09:29:00]	[UserID:]	[IP:10.128.12.210]	[Browser:Chrome - 61.0.3163.100]	[Action:GetProgramList ]	[Remarks:"no data"]
[Date: 2017-11-10 10:47:12]	[UserID:]	[IP:10.128.12.210]	[Browser:Chrome - 61.0.3163.100]	[Action:Making connection to server]	[Remarks:Successful connection to server: S3]
[Date: 2017-11-10 10:47:12]	[UserID:]	[IP:10.128.12.210]	[Browser:Chrome - 61.0.3163.100]	[Action:GetProgramList ]	[Remarks:"no data"]
[Date: 2017-11-10 10:47:20]	[UserID:10/660]	[IP:10.128.12.210]	[Browser:Chrome - 61.0.3163.100]	[Action:Making connection to server]	[Remarks:Successful connection to server: S3]
[Date: 2017-11-10 10:47:20]	[UserID:10/660]	[IP:10.128.12.210]	[Browser:Chrome - 61.0.3163.100]	[Action:User 10/660]	[Remarks:Success]
[Date: 2017-11-10 10:47:20]	[UserID:10/660]	[IP:10.128.12.210]	[Browser:Chrome - 61.0.3163.100]	[Action:Filtering User : MasterData Username : 10/660]	[Remarks:Successful filter row count: 0]
[Date: 2017-11-10 10:47:20]	[UserID:10/660]	[IP:10.128.12.210]	[Browser:Chrome - 61.0.3163.100]	[Action:Filtering User : MasterData Username : 10/660]	[Remarks:Successful filter row count: 0]
[Date: 2017-11-10 10:47:20]	[UserID:10/660]	[IP:10.128.12.210]	[Browser:Chrome - 61.0.3163.100]	[Action:Filtering User : MasterData Username : 10/660]	[Remarks:Success]
[Date: 2017-11-10 10:47:20]	[UserID:10/660]	[IP:10.128.12.210]	[Browser:Chrome - 61.0.3163.100]	[Action:Closing mssql connection]	[Remarks:Success]
[Date: 2017-11-10 10:47:20]	[UserID:10/660]	[IP:10.128.12.210]	[Browser:Chrome - 61.0.3163.100]	[Action:Making connection to server]	[Remarks:Successful connection to server: S3]
[Date: 2017-11-10 10:47:20]	[UserID:10/660]	[IP:10.128.12.210]	[Browser:Chrome - 61.0.3163.100]	[Action:GetProgramList 10/660]	[Remarks:[{"ID":"1","ProgramIndex":"GST","ProgramName":"GST"}]]
[Date: 2017-11-10 10:47:20]	[UserID:10/660]	[IP:10.128.12.210]	[Browser:Chrome - 61.0.3163.100]	[Action:Making connection to server]	[Remarks:Successful connection to server: S3]
[Date: 2017-11-10 10:47:20]	[UserID:10/660]	[IP:10.128.12.210]	[Browser:Chrome - 61.0.3163.100]	[Action:GetProgramList 10/660]	[Remarks:[{"ID":"1","ProgramIndex":"GST","ProgramName":"GST"}]]
[Date: 2017-11-10 10:47:20]	[UserID:10/660]	[IP:10.128.12.210]	[Browser:Chrome - 61.0.3163.100]	[Action:Making connection to server]	[Remarks:Successful connection to server: S3]
[Date: 2017-11-10 10:47:20]	[UserID:10/660]	[IP:10.128.12.210]	[Browser:Chrome - 61.0.3163.100]	[Action:Filtering User : MasterData Username : 10/660]	[Remarks:Successful filter row count: 1]
[Date: 2017-11-10 10:47:21]	[UserID:10/660]	[IP:10.128.12.210]	[Browser:Chrome - 61.0.3163.100]	[Action:Making connection to server]	[Remarks:Successful connection to server: S3]
[Date: 2017-11-10 10:47:21]	[UserID:10/660]	[IP:10.128.12.210]	[Browser:Chrome - 61.0.3163.100]	[Action:GetGSTModules 10/660,1]	[Remarks:Successful filter row count: 5]
[Date: 2017-11-10 10:47:21]	[UserID:10/660]	[IP:10.128.12.210]	[Browser:Chrome - 61.0.3163.100]	[Action:Closing mssql connection]	[Remarks:Success]
[Date: 2017-11-10 10:48:01]	[UserID:10/660]	[IP:10.128.12.210]	[Browser:Chrome - 61.0.3163.100]	[Action:Making connection to server]	[Remarks:Successful connection to server: S3]
[Date: 2017-11-10 10:48:01]	[UserID:10/660]	[IP:10.128.12.210]	[Browser:Chrome - 61.0.3163.100]	[Action:GetGSTModules 10/660,1]	[Remarks:Successful filter row count: 5]
[Date: 2017-11-10 10:48:01]	[UserID:10/660]	[IP:10.128.12.210]	[Browser:Chrome - 61.0.3163.100]	[Action:Closing mssql connection]	[Remarks:Success]
[Date: 2017-11-10 10:48:32]	[UserID:]	[IP:10.128.12.210]	[Browser:Chrome - 61.0.3163.100]	[Action:Making connection to server]	[Remarks:Successful connection to server: S3]
[Date: 2017-11-10 10:48:32]	[UserID:]	[IP:10.128.12.210]	[Browser:Chrome - 61.0.3163.100]	[Action:GetProgramList ]	[Remarks:"no data"]
[Date: 2017-11-10 10:51:21]	[UserID:]	[IP:10.128.12.210]	[Browser:Chrome - 61.0.3163.100]	[Action:Making connection to server]	[Remarks:Successful connection to server: S3]
[Date: 2017-11-10 10:51:21]	[UserID:]	[IP:10.128.12.210]	[Browser:Chrome - 61.0.3163.100]	[Action:GetProgramList ]	[Remarks:"no data"]
[Date: 2017-11-10 10:51:29]	[UserID:10/660]	[IP:10.128.12.210]	[Browser:Chrome - 61.0.3163.100]	[Action:Making connection to server]	[Remarks:Successful connection to server: S3]
[Date: 2017-11-10 10:51:29]	[UserID:10/660]	[IP:10.128.12.210]	[Browser:Chrome - 61.0.3163.100]	[Action:User 10/660]	[Remarks:Success]
[Date: 2017-11-10 10:51:29]	[UserID:10/660]	[IP:10.128.12.210]	[Browser:Chrome - 61.0.3163.100]	[Action:Filtering User : MasterData Username : 10/660]	[Remarks:Successful filter row count: 0]
[Date: 2017-11-10 10:51:29]	[UserID:10/660]	[IP:10.128.12.210]	[Browser:Chrome - 61.0.3163.100]	[Action:Filtering User : MasterData Username : 10/660]	[Remarks:Successful filter row count: 0]
[Date: 2017-11-10 10:51:29]	[UserID:10/660]	[IP:10.128.12.210]	[Browser:Chrome - 61.0.3163.100]	[Action:Filtering User : MasterData Username : 10/660]	[Remarks:Success]
[Date: 2017-11-10 10:51:29]	[UserID:10/660]	[IP:10.128.12.210]	[Browser:Chrome - 61.0.3163.100]	[Action:Closing mssql connection]	[Remarks:Success]
[Date: 2017-11-10 10:51:29]	[UserID:10/660]	[IP:10.128.12.210]	[Browser:Chrome - 61.0.3163.100]	[Action:Making connection to server]	[Remarks:Successful connection to server: S3]
[Date: 2017-11-10 10:51:29]	[UserID:10/660]	[IP:10.128.12.210]	[Browser:Chrome - 61.0.3163.100]	[Action:GetProgramList 10/660]	[Remarks:[{"ID":"1","ProgramIndex":"GST","ProgramName":"GST"}]]
[Date: 2017-11-10 10:51:29]	[UserID:10/660]	[IP:10.128.12.210]	[Browser:Chrome - 61.0.3163.100]	[Action:Making connection to server]	[Remarks:Successful connection to server: S3]
[Date: 2017-11-10 10:51:29]	[UserID:10/660]	[IP:10.128.12.210]	[Browser:Chrome - 61.0.3163.100]	[Action:GetProgramList 10/660]	[Remarks:[{"ID":"1","ProgramIndex":"GST","ProgramName":"GST"}]]
[Date: 2017-11-10 10:51:29]	[UserID:10/660]	[IP:10.128.12.210]	[Browser:Chrome - 61.0.3163.100]	[Action:Making connection to server]	[Remarks:Successful connection to server: S3]
[Date: 2017-11-10 10:51:29]	[UserID:10/660]	[IP:10.128.12.210]	[Browser:Chrome - 61.0.3163.100]	[Action:Filtering User : MasterData Username : 10/660]	[Remarks:Successful filter row count: 1]
[Date: 2017-11-10 10:51:29]	[UserID:10/660]	[IP:10.128.12.210]	[Browser:Chrome - 61.0.3163.100]	[Action:Making connection to server]	[Remarks:Successful connection to server: S3]
[Date: 2017-11-10 10:51:29]	[UserID:10/660]	[IP:10.128.12.210]	[Browser:Chrome - 61.0.3163.100]	[Action:GetGSTModules 10/660,1]	[Remarks:Successful filter row count: 5]
[Date: 2017-11-10 10:51:29]	[UserID:10/660]	[IP:10.128.12.210]	[Browser:Chrome - 61.0.3163.100]	[Action:Closing mssql connection]	[Remarks:Success]
[Date: 2017-11-10 10:52:10]	[UserID:]	[IP:10.128.12.210]	[Browser:Chrome - 61.0.3163.100]	[Action:Making connection to server]	[Remarks:Successful connection to server: S3]
[Date: 2017-11-10 10:52:10]	[UserID:]	[IP:10.128.12.210]	[Browser:Chrome - 61.0.3163.100]	[Action:GetProgramList ]	[Remarks:"no data"]
