[Date: 2016-03-01 07:39:39]	[UserID:]	[IP:10.10.11.1]	[Browser:Chrome - 48.0.2564.116]	[Action:Making connection to server]	[Remarks:Successful connection to server: S3]
[Date: 2016-03-01 07:39:40]	[UserID:]	[IP:10.10.11.1]	[Browser:Chrome - 48.0.2564.116]	[Action:GetProgramList ]	[Remarks:"no data"]
[Date: 2016-03-01 08:13:27]	[UserID:06/343]	[IP:10.10.11.1]	[Browser:Chrome - 48.0.2564.116]	[Action:Making connection to server]	[Remarks:Successful connection to server: S3]
[Date: 2016-03-01 08:13:27]	[UserID:06/343]	[IP:10.10.11.1]	[Browser:Chrome - 48.0.2564.116]	[Action:User 06/343]	[Remarks:Success]
[Date: 2016-03-01 08:13:27]	[UserID:06/343]	[IP:10.10.11.1]	[Browser:Chrome - 48.0.2564.116]	[Action:Filtering User : MasterData Username : 06/343]	[Remarks:Successful filter row count: 0]
[Date: 2016-03-01 08:13:27]	[UserID:06/343]	[IP:10.10.11.1]	[Browser:Chrome - 48.0.2564.116]	[Action:Filtering User : MasterData Username : 06/343]	[Remarks:Successful filter row count: 0]
[Date: 2016-03-01 08:13:27]	[UserID:06/343]	[IP:10.10.11.1]	[Browser:Chrome - 48.0.2564.116]	[Action:Filtering User : MasterData Username : 06/343]	[Remarks:Success]
[Date: 2016-03-01 08:13:27]	[UserID:06/343]	[IP:10.10.11.1]	[Browser:Chrome - 48.0.2564.116]	[Action:Closing mssql connection]	[Remarks:Success]
[Date: 2016-03-01 08:13:27]	[UserID:06/343]	[IP:10.10.11.1]	[Browser:Chrome - 48.0.2564.116]	[Action:Making connection to server]	[Remarks:Successful connection to server: S3]
[Date: 2016-03-01 08:13:27]	[UserID:06/343]	[IP:10.10.11.1]	[Browser:Chrome - 48.0.2564.116]	[Action:GetProgramList 06/343]	[Remarks:[{"ID":"1","ProgramIndex":"GST","ProgramName":"GST"}]]
[Date: 2016-03-01 08:13:27]	[UserID:06/343]	[IP:10.10.11.1]	[Browser:Chrome - 48.0.2564.116]	[Action:Making connection to server]	[Remarks:Successful connection to server: S3]
[Date: 2016-03-01 08:13:27]	[UserID:06/343]	[IP:10.10.11.1]	[Browser:Chrome - 48.0.2564.116]	[Action:GetProgramList 06/343]	[Remarks:[{"ID":"1","ProgramIndex":"GST","ProgramName":"GST"}]]
[Date: 2016-03-01 08:13:27]	[UserID:06/343]	[IP:10.10.11.1]	[Browser:Chrome - 48.0.2564.116]	[Action:Making connection to server]	[Remarks:Successful connection to server: S3]
[Date: 2016-03-01 08:13:27]	[UserID:06/343]	[IP:10.10.11.1]	[Browser:Chrome - 48.0.2564.116]	[Action:Filtering User : MasterData Username : 06/343]	[Remarks:Successful filter row count: 1]
[Date: 2016-03-01 08:13:28]	[UserID:06/343]	[IP:10.10.11.1]	[Browser:Chrome - 48.0.2564.116]	[Action:Making connection to server]	[Remarks:Successful connection to server: S3]
[Date: 2016-03-01 08:13:34]	[UserID:06/343]	[IP:10.10.11.1]	[Browser:Chrome - 48.0.2564.116]	[Action:GetGSTModules 06/343,1]	[Remarks:Successful filter row count: 5]
[Date: 2016-03-01 08:13:34]	[UserID:06/343]	[IP:10.10.11.1]	[Browser:Chrome - 48.0.2564.116]	[Action:Closing mssql connection]	[Remarks:Success]
[Date: 2016-03-01 08:16:02]	[UserID:06/343]	[IP:10.10.11.1]	[Browser:Chrome - 48.0.2564.116]	[Action:Making connection to server]	[Remarks:Successful connection to server: S3]
[Date: 2016-03-01 08:16:02]	[UserID:06/343]	[IP:10.10.11.1]	[Browser:Chrome - 48.0.2564.116]	[Action:GetGSTModules 06/343,1]	[Remarks:Successful filter row count: 5]
[Date: 2016-03-01 08:16:02]	[UserID:06/343]	[IP:10.10.11.1]	[Browser:Chrome - 48.0.2564.116]	[Action:Closing mssql connection]	[Remarks:Success]
[Date: 2016-03-01 08:39:16]	[UserID:]	[IP:10.10.11.1]	[Browser:Chrome - 48.0.2564.116]	[Action:Making connection to server]	[Remarks:Successful connection to server: S3]
[Date: 2016-03-01 08:39:16]	[UserID:]	[IP:10.10.11.1]	[Browser:Chrome - 48.0.2564.116]	[Action:GetProgramList ]	[Remarks:"no data"]
[Date: 2016-03-01 08:39:18]	[UserID:08/504]	[IP:10.10.11.1]	[Browser:Chrome - 48.0.2564.116]	[Action:Making connection to server]	[Remarks:Successful connection to server: S3]
[Date: 2016-03-01 08:39:18]	[UserID:08/504]	[IP:10.10.11.1]	[Browser:Chrome - 48.0.2564.116]	[Action:User 08/504]	[Remarks:Success]
[Date: 2016-03-01 08:39:18]	[UserID:08/504]	[IP:10.10.11.1]	[Browser:Chrome - 48.0.2564.116]	[Action:Filtering User : MasterData Username : 08/504]	[Remarks:Successful filter row count: 0]
[Date: 2016-03-01 08:39:18]	[UserID:08/504]	[IP:10.10.11.1]	[Browser:Chrome - 48.0.2564.116]	[Action:Filtering User : MasterData Username : 08/504]	[Remarks:Successful filter row count: 0]
[Date: 2016-03-01 08:39:18]	[UserID:08/504]	[IP:10.10.11.1]	[Browser:Chrome - 48.0.2564.116]	[Action:Filtering User : MasterData Username : 08/504]	[Remarks:Success]
[Date: 2016-03-01 08:39:18]	[UserID:08/504]	[IP:10.10.11.1]	[Browser:Chrome - 48.0.2564.116]	[Action:Closing mssql connection]	[Remarks:Success]
[Date: 2016-03-01 08:39:19]	[UserID:08/504]	[IP:10.10.11.1]	[Browser:Chrome - 48.0.2564.116]	[Action:Making connection to server]	[Remarks:Successful connection to server: S3]
[Date: 2016-03-01 08:39:19]	[UserID:08/504]	[IP:10.10.11.1]	[Browser:Chrome - 48.0.2564.116]	[Action:GetProgramList 08/504]	[Remarks:[{"ID":"1","ProgramIndex":"GST","ProgramName":"GST"}]]
[Date: 2016-03-01 08:39:19]	[UserID:08/504]	[IP:10.10.11.1]	[Browser:Chrome - 48.0.2564.116]	[Action:Making connection to server]	[Remarks:Successful connection to server: S3]
[Date: 2016-03-01 08:39:19]	[UserID:08/504]	[IP:10.10.11.1]	[Browser:Chrome - 48.0.2564.116]	[Action:GetProgramList 08/504]	[Remarks:[{"ID":"1","ProgramIndex":"GST","ProgramName":"GST"}]]
[Date: 2016-03-01 08:39:19]	[UserID:08/504]	[IP:10.10.11.1]	[Browser:Chrome - 48.0.2564.116]	[Action:Making connection to server]	[Remarks:Successful connection to server: S3]
[Date: 2016-03-01 08:39:19]	[UserID:08/504]	[IP:10.10.11.1]	[Browser:Chrome - 48.0.2564.116]	[Action:Filtering User : MasterData Username : 08/504]	[Remarks:Successful filter row count: 1]
[Date: 2016-03-01 08:39:19]	[UserID:08/504]	[IP:10.10.11.1]	[Browser:Chrome - 48.0.2564.116]	[Action:Making connection to server]	[Remarks:Successful connection to server: S3]
[Date: 2016-03-01 08:39:19]	[UserID:08/504]	[IP:10.10.11.1]	[Browser:Chrome - 48.0.2564.116]	[Action:GetGSTModules 08/504,1]	[Remarks:Successful filter row count: 3]
[Date: 2016-03-01 08:39:19]	[UserID:08/504]	[IP:10.10.11.1]	[Browser:Chrome - 48.0.2564.116]	[Action:Closing mssql connection]	[Remarks:Success]
[Date: 2016-03-01 08:41:05]	[UserID:]	[IP:10.10.11.1]	[Browser:Chrome - 48.0.2564.116]	[Action:Making connection to server]	[Remarks:Successful connection to server: S3]
[Date: 2016-03-01 08:41:05]	[UserID:]	[IP:10.10.11.1]	[Browser:Chrome - 48.0.2564.116]	[Action:GetProgramList ]	[Remarks:"no data"]
[Date: 2016-03-01 08:41:08]	[UserID:10/660]	[IP:10.10.11.1]	[Browser:Chrome - 48.0.2564.116]	[Action:Making connection to server]	[Remarks:Successful connection to server: S3]
[Date: 2016-03-01 08:41:08]	[UserID:10/660]	[IP:10.10.11.1]	[Browser:Chrome - 48.0.2564.116]	[Action:User 10/660]	[Remarks:Success]
[Date: 2016-03-01 08:41:08]	[UserID:10/660]	[IP:10.10.11.1]	[Browser:Chrome - 48.0.2564.116]	[Action:Filtering User : MasterData Username : 10/660]	[Remarks:Successful filter row count: 0]
[Date: 2016-03-01 08:41:08]	[UserID:10/660]	[IP:10.10.11.1]	[Browser:Chrome - 48.0.2564.116]	[Action:Filtering User : MasterData Username : 10/660]	[Remarks:Successful filter row count: 0]
[Date: 2016-03-01 08:41:08]	[UserID:10/660]	[IP:10.10.11.1]	[Browser:Chrome - 48.0.2564.116]	[Action:Filtering User : MasterData Username : 10/660]	[Remarks:Success]
[Date: 2016-03-01 08:41:08]	[UserID:10/660]	[IP:10.10.11.1]	[Browser:Chrome - 48.0.2564.116]	[Action:Closing mssql connection]	[Remarks:Success]
[Date: 2016-03-01 08:41:08]	[UserID:10/660]	[IP:10.10.11.1]	[Browser:Chrome - 48.0.2564.116]	[Action:Making connection to server]	[Remarks:Successful connection to server: S3]
[Date: 2016-03-01 08:41:08]	[UserID:10/660]	[IP:10.10.11.1]	[Browser:Chrome - 48.0.2564.116]	[Action:GetProgramList 10/660]	[Remarks:[{"ID":"1","ProgramIndex":"GST","ProgramName":"GST"}]]
[Date: 2016-03-01 08:41:08]	[UserID:10/660]	[IP:10.10.11.1]	[Browser:Chrome - 48.0.2564.116]	[Action:Making connection to server]	[Remarks:Successful connection to server: S3]
[Date: 2016-03-01 08:41:08]	[UserID:10/660]	[IP:10.10.11.1]	[Browser:Chrome - 48.0.2564.116]	[Action:GetProgramList 10/660]	[Remarks:[{"ID":"1","ProgramIndex":"GST","ProgramName":"GST"}]]
[Date: 2016-03-01 08:41:08]	[UserID:10/660]	[IP:10.10.11.1]	[Browser:Chrome - 48.0.2564.116]	[Action:Making connection to server]	[Remarks:Successful connection to server: S3]
[Date: 2016-03-01 08:41:08]	[UserID:10/660]	[IP:10.10.11.1]	[Browser:Chrome - 48.0.2564.116]	[Action:Filtering User : MasterData Username : 10/660]	[Remarks:Successful filter row count: 1]
[Date: 2016-03-01 08:41:08]	[UserID:10/660]	[IP:10.10.11.1]	[Browser:Chrome - 48.0.2564.116]	[Action:Making connection to server]	[Remarks:Successful connection to server: S3]
[Date: 2016-03-01 08:41:08]	[UserID:10/660]	[IP:10.10.11.1]	[Browser:Chrome - 48.0.2564.116]	[Action:GetGSTModules 10/660,1]	[Remarks:Successful filter row count: 3]
[Date: 2016-03-01 08:41:08]	[UserID:10/660]	[IP:10.10.11.1]	[Browser:Chrome - 48.0.2564.116]	[Action:Closing mssql connection]	[Remarks:Success]
[Date: 2016-03-01 08:43:20]	[UserID:10/660]	[IP:10.10.11.1]	[Browser:Chrome - 48.0.2564.116]	[Action:Making connection to server]	[Remarks:Successful connection to server: S3]
[Date: 2016-03-01 08:43:20]	[UserID:10/660]	[IP:10.10.11.1]	[Browser:Chrome - 48.0.2564.116]	[Action:GetGSTModules 10/660,1]	[Remarks:Successful filter row count: 3]
[Date: 2016-03-01 08:43:20]	[UserID:10/660]	[IP:10.10.11.1]	[Browser:Chrome - 48.0.2564.116]	[Action:Closing mssql connection]	[Remarks:Success]
[Date: 2016-03-01 08:44:22]	[UserID:08/504]	[IP:10.10.11.1]	[Browser:Chrome - 48.0.2564.116]	[Action:Making connection to server]	[Remarks:Successful connection to server: S3]
[Date: 2016-03-01 08:44:22]	[UserID:08/504]	[IP:10.10.11.1]	[Browser:Chrome - 48.0.2564.116]	[Action:GetGSTModules 08/504,1]	[Remarks:Successful filter row count: 3]
[Date: 2016-03-01 08:44:22]	[UserID:08/504]	[IP:10.10.11.1]	[Browser:Chrome - 48.0.2564.116]	[Action:Closing mssql connection]	[Remarks:Success]
[Date: 2016-03-01 08:48:44]	[UserID:10/660]	[IP:10.10.11.1]	[Browser:Chrome - 48.0.2564.116]	[Action:Making connection to server]	[Remarks:Successful connection to server: S3]
[Date: 2016-03-01 08:48:44]	[UserID:10/660]	[IP:10.10.11.1]	[Browser:Chrome - 48.0.2564.116]	[Action:GetGSTModules 10/660,1]	[Remarks:Successful filter row count: 3]
[Date: 2016-03-01 08:48:44]	[UserID:10/660]	[IP:10.10.11.1]	[Browser:Chrome - 48.0.2564.116]	[Action:Closing mssql connection]	[Remarks:Success]
[Date: 2016-03-01 08:49:11]	[UserID:]	[IP:10.10.11.1]	[Browser:Chrome - 48.0.2564.116]	[Action:Making connection to server]	[Remarks:Successful connection to server: S3]
[Date: 2016-03-01 08:49:11]	[UserID:]	[IP:10.10.11.1]	[Browser:Chrome - 48.0.2564.116]	[Action:GetProgramList ]	[Remarks:"no data"]
[Date: 2016-03-01 08:51:47]	[UserID:08/504]	[IP:10.10.11.1]	[Browser:Chrome - 48.0.2564.116]	[Action:Making connection to server]	[Remarks:Successful connection to server: S3]
[Date: 2016-03-01 08:51:47]	[UserID:08/504]	[IP:10.10.11.1]	[Browser:Chrome - 48.0.2564.116]	[Action:GetGSTModules 08/504,1]	[Remarks:Successful filter row count: 3]
[Date: 2016-03-01 08:51:47]	[UserID:08/504]	[IP:10.10.11.1]	[Browser:Chrome - 48.0.2564.116]	[Action:Closing mssql connection]	[Remarks:Success]
[Date: 2016-03-01 08:55:30]	[UserID:]	[IP:10.10.11.1]	[Browser:Chrome - 48.0.2564.116]	[Action:Making connection to server]	[Remarks:Successful connection to server: S3]
[Date: 2016-03-01 08:55:30]	[UserID:]	[IP:10.10.11.1]	[Browser:Chrome - 48.0.2564.116]	[Action:GetProgramList ]	[Remarks:"no data"]
[Date: 2016-03-01 08:55:32]	[UserID:10/660]	[IP:10.10.11.1]	[Browser:Chrome - 48.0.2564.116]	[Action:Making connection to server]	[Remarks:Successful connection to server: S3]
[Date: 2016-03-01 08:55:32]	[UserID:10/660]	[IP:10.10.11.1]	[Browser:Chrome - 48.0.2564.116]	[Action:User 10/660]	[Remarks:Success]
[Date: 2016-03-01 08:55:32]	[UserID:10/660]	[IP:10.10.11.1]	[Browser:Chrome - 48.0.2564.116]	[Action:Filtering User : MasterData Username : 10/660]	[Remarks:Successful filter row count: 0]
[Date: 2016-03-01 08:55:32]	[UserID:10/660]	[IP:10.10.11.1]	[Browser:Chrome - 48.0.2564.116]	[Action:Filtering User : MasterData Username : 10/660]	[Remarks:Successful filter row count: 0]
[Date: 2016-03-01 08:55:32]	[UserID:10/660]	[IP:10.10.11.1]	[Browser:Chrome - 48.0.2564.116]	[Action:Filtering User : MasterData Username : 10/660]	[Remarks:Success]
[Date: 2016-03-01 08:55:32]	[UserID:10/660]	[IP:10.10.11.1]	[Browser:Chrome - 48.0.2564.116]	[Action:Closing mssql connection]	[Remarks:Success]
[Date: 2016-03-01 08:55:32]	[UserID:10/660]	[IP:10.10.11.1]	[Browser:Chrome - 48.0.2564.116]	[Action:Making connection to server]	[Remarks:Successful connection to server: S3]
[Date: 2016-03-01 08:55:32]	[UserID:10/660]	[IP:10.10.11.1]	[Browser:Chrome - 48.0.2564.116]	[Action:GetProgramList 10/660]	[Remarks:[{"ID":"1","ProgramIndex":"GST","ProgramName":"GST"}]]
[Date: 2016-03-01 08:55:32]	[UserID:10/660]	[IP:10.10.11.1]	[Browser:Chrome - 48.0.2564.116]	[Action:Making connection to server]	[Remarks:Successful connection to server: S3]
[Date: 2016-03-01 08:55:32]	[UserID:10/660]	[IP:10.10.11.1]	[Browser:Chrome - 48.0.2564.116]	[Action:GetProgramList 10/660]	[Remarks:[{"ID":"1","ProgramIndex":"GST","ProgramName":"GST"}]]
[Date: 2016-03-01 08:55:32]	[UserID:10/660]	[IP:10.10.11.1]	[Browser:Chrome - 48.0.2564.116]	[Action:Making connection to server]	[Remarks:Successful connection to server: S3]
[Date: 2016-03-01 08:55:32]	[UserID:10/660]	[IP:10.10.11.1]	[Browser:Chrome - 48.0.2564.116]	[Action:Filtering User : MasterData Username : 10/660]	[Remarks:Successful filter row count: 1]
[Date: 2016-03-01 08:55:33]	[UserID:10/660]	[IP:10.10.11.1]	[Browser:Chrome - 48.0.2564.116]	[Action:Making connection to server]	[Remarks:Successful connection to server: S3]
[Date: 2016-03-01 08:55:33]	[UserID:10/660]	[IP:10.10.11.1]	[Browser:Chrome - 48.0.2564.116]	[Action:GetGSTModules 10/660,1]	[Remarks:Successful filter row count: 3]
[Date: 2016-03-01 08:55:33]	[UserID:10/660]	[IP:10.10.11.1]	[Browser:Chrome - 48.0.2564.116]	[Action:Closing mssql connection]	[Remarks:Success]
[Date: 2016-03-01 08:59:27]	[UserID:]	[IP:10.10.11.1]	[Browser:Chrome - 48.0.2564.116]	[Action:Making connection to server]	[Remarks:Successful connection to server: S3]
[Date: 2016-03-01 08:59:27]	[UserID:]	[IP:10.10.11.1]	[Browser:Chrome - 48.0.2564.116]	[Action:GetProgramList ]	[Remarks:"no data"]
[Date: 2016-03-01 09:00:14]	[UserID:]	[IP:10.10.11.1]	[Browser:Chrome - 48.0.2564.116]	[Action:Making connection to server]	[Remarks:Successful connection to server: S3]
[Date: 2016-03-01 09:00:14]	[UserID:]	[IP:10.10.11.1]	[Browser:Chrome - 48.0.2564.116]	[Action:GetProgramList ]	[Remarks:"no data"]
[Date: 2016-03-01 09:00:21]	[UserID:06/371]	[IP:10.10.11.1]	[Browser:Chrome - 48.0.2564.116]	[Action:Making connection to server]	[Remarks:Successful connection to server: S3]
[Date: 2016-03-01 09:00:21]	[UserID:06/371]	[IP:10.10.11.1]	[Browser:Chrome - 48.0.2564.116]	[Action:User 06/371]	[Remarks:Success]
[Date: 2016-03-01 09:00:21]	[UserID:06/371]	[IP:10.10.11.1]	[Browser:Chrome - 48.0.2564.116]	[Action:Filtering User : MasterData Username : 06/371]	[Remarks:Successful filter row count: 0]
[Date: 2016-03-01 09:00:21]	[UserID:06/371]	[IP:10.10.11.1]	[Browser:Chrome - 48.0.2564.116]	[Action:Filtering User : MasterData Username : 06/371]	[Remarks:Successful filter row count: 0]
[Date: 2016-03-01 09:00:21]	[UserID:06/371]	[IP:10.10.11.1]	[Browser:Chrome - 48.0.2564.116]	[Action:Filtering User : MasterData Username : 06/371]	[Remarks:Success]
[Date: 2016-03-01 09:00:21]	[UserID:06/371]	[IP:10.10.11.1]	[Browser:Chrome - 48.0.2564.116]	[Action:Closing mssql connection]	[Remarks:Success]
[Date: 2016-03-01 09:00:21]	[UserID:06/371]	[IP:10.10.11.1]	[Browser:Chrome - 48.0.2564.116]	[Action:Making connection to server]	[Remarks:Successful connection to server: S3]
[Date: 2016-03-01 09:00:21]	[UserID:06/371]	[IP:10.10.11.1]	[Browser:Chrome - 48.0.2564.116]	[Action:GetProgramList 06/371]	[Remarks:[{"ID":"1","ProgramIndex":"GST","ProgramName":"GST"}]]
[Date: 2016-03-01 09:00:21]	[UserID:06/371]	[IP:10.10.11.1]	[Browser:Chrome - 48.0.2564.116]	[Action:Making connection to server]	[Remarks:Successful connection to server: S3]
[Date: 2016-03-01 09:00:21]	[UserID:06/371]	[IP:10.10.11.1]	[Browser:Chrome - 48.0.2564.116]	[Action:GetProgramList 06/371]	[Remarks:[{"ID":"1","ProgramIndex":"GST","ProgramName":"GST"}]]
[Date: 2016-03-01 09:00:21]	[UserID:06/371]	[IP:10.10.11.1]	[Browser:Chrome - 48.0.2564.116]	[Action:Making connection to server]	[Remarks:Successful connection to server: S3]
[Date: 2016-03-01 09:00:21]	[UserID:06/371]	[IP:10.10.11.1]	[Browser:Chrome - 48.0.2564.116]	[Action:Filtering User : MasterData Username : 06/371]	[Remarks:Successful filter row count: 1]
[Date: 2016-03-01 09:00:22]	[UserID:06/371]	[IP:10.10.11.1]	[Browser:Chrome - 48.0.2564.116]	[Action:Making connection to server]	[Remarks:Successful connection to server: S3]
[Date: 2016-03-01 09:00:22]	[UserID:06/371]	[IP:10.10.11.1]	[Browser:Chrome - 48.0.2564.116]	[Action:GetGSTModules 06/371,1]	[Remarks:Successful filter row count: 5]
[Date: 2016-03-01 09:00:22]	[UserID:06/371]	[IP:10.10.11.1]	[Browser:Chrome - 48.0.2564.116]	[Action:Closing mssql connection]	[Remarks:Success]
[Date: 2016-03-01 09:04:16]	[UserID:06/371]	[IP:10.10.11.1]	[Browser:Chrome - 48.0.2564.116]	[Action:Making connection to server]	[Remarks:Successful connection to server: S3]
[Date: 2016-03-01 09:04:16]	[UserID:06/371]	[IP:10.10.11.1]	[Browser:Chrome - 48.0.2564.116]	[Action:GetGSTModules 06/371,1]	[Remarks:Successful filter row count: 5]
[Date: 2016-03-01 09:04:16]	[UserID:06/371]	[IP:10.10.11.1]	[Browser:Chrome - 48.0.2564.116]	[Action:Closing mssql connection]	[Remarks:Success]
[Date: 2016-03-01 09:04:32]	[UserID:06/371]	[IP:10.10.11.1]	[Browser:Chrome - 48.0.2564.116]	[Action:Making connection to server]	[Remarks:Successful connection to server: S3]
[Date: 2016-03-01 09:04:32]	[UserID:06/371]	[IP:10.10.11.1]	[Browser:Chrome - 48.0.2564.116]	[Action:GetGSTModules 06/371,1]	[Remarks:Successful filter row count: 5]
[Date: 2016-03-01 09:04:32]	[UserID:06/371]	[IP:10.10.11.1]	[Browser:Chrome - 48.0.2564.116]	[Action:Closing mssql connection]	[Remarks:Success]
[Date: 2016-03-01 09:05:21]	[UserID:08/504]	[IP:10.10.11.1]	[Browser:Chrome - 48.0.2564.116]	[Action:Making connection to server]	[Remarks:Successful connection to server: S3]
[Date: 2016-03-01 09:05:21]	[UserID:08/504]	[IP:10.10.11.1]	[Browser:Chrome - 48.0.2564.116]	[Action:GetGSTModules 08/504,1]	[Remarks:Successful filter row count: 3]
[Date: 2016-03-01 09:05:21]	[UserID:08/504]	[IP:10.10.11.1]	[Browser:Chrome - 48.0.2564.116]	[Action:Closing mssql connection]	[Remarks:Success]
[Date: 2016-03-01 09:13:52]	[UserID:06/371]	[IP:10.10.11.1]	[Browser:Chrome - 48.0.2564.116]	[Action:Making connection to server]	[Remarks:Successful connection to server: S3]
[Date: 2016-03-01 09:13:52]	[UserID:06/371]	[IP:10.10.11.1]	[Browser:Chrome - 48.0.2564.116]	[Action:GetGSTModules 06/371,1]	[Remarks:Successful filter row count: 5]
[Date: 2016-03-01 09:13:52]	[UserID:06/371]	[IP:10.10.11.1]	[Browser:Chrome - 48.0.2564.116]	[Action:Closing mssql connection]	[Remarks:Success]
[Date: 2016-03-01 09:20:44]	[UserID:06/371]	[IP:10.10.11.1]	[Browser:Chrome - 48.0.2564.116]	[Action:Making connection to server]	[Remarks:Successful connection to server: S3]
[Date: 2016-03-01 09:20:45]	[UserID:06/371]	[IP:10.10.11.1]	[Browser:Chrome - 48.0.2564.116]	[Action:GetGSTModules 06/371,1]	[Remarks:Successful filter row count: 5]
[Date: 2016-03-01 09:20:45]	[UserID:06/371]	[IP:10.10.11.1]	[Browser:Chrome - 48.0.2564.116]	[Action:Closing mssql connection]	[Remarks:Success]
[Date: 2016-03-01 09:24:14]	[UserID:06/371]	[IP:10.10.11.1]	[Browser:Chrome - 48.0.2564.116]	[Action:Making connection to server]	[Remarks:Successful connection to server: S3]
[Date: 2016-03-01 09:24:15]	[UserID:06/371]	[IP:10.10.11.1]	[Browser:Chrome - 48.0.2564.116]	[Action:GetGSTModules 06/371,1]	[Remarks:Successful filter row count: 5]
[Date: 2016-03-01 09:24:15]	[UserID:06/371]	[IP:10.10.11.1]	[Browser:Chrome - 48.0.2564.116]	[Action:Closing mssql connection]	[Remarks:Success]
[Date: 2016-03-01 09:24:28]	[UserID:06/371]	[IP:10.10.11.1]	[Browser:Chrome - 48.0.2564.116]	[Action:Making connection to server]	[Remarks:Successful connection to server: S3]
[Date: 2016-03-01 09:24:28]	[UserID:06/371]	[IP:10.10.11.1]	[Browser:Chrome - 48.0.2564.116]	[Action:GetGSTModules 06/371,1]	[Remarks:Successful filter row count: 5]
[Date: 2016-03-01 09:24:28]	[UserID:06/371]	[IP:10.10.11.1]	[Browser:Chrome - 48.0.2564.116]	[Action:Closing mssql connection]	[Remarks:Success]
[Date: 2016-03-01 09:26:37]	[UserID:06/371]	[IP:10.10.11.1]	[Browser:Chrome - 48.0.2564.116]	[Action:Making connection to server]	[Remarks:Successful connection to server: S3]
[Date: 2016-03-01 09:26:37]	[UserID:06/371]	[IP:10.10.11.1]	[Browser:Chrome - 48.0.2564.116]	[Action:GetGSTModules 06/371,1]	[Remarks:Successful filter row count: 5]
[Date: 2016-03-01 09:26:37]	[UserID:06/371]	[IP:10.10.11.1]	[Browser:Chrome - 48.0.2564.116]	[Action:Closing mssql connection]	[Remarks:Success]
[Date: 2016-03-01 09:26:51]	[UserID:06/371]	[IP:10.10.11.1]	[Browser:Chrome - 48.0.2564.116]	[Action:Making connection to server]	[Remarks:Successful connection to server: S3]
[Date: 2016-03-01 09:26:51]	[UserID:06/371]	[IP:10.10.11.1]	[Browser:Chrome - 48.0.2564.116]	[Action:GetGSTModules 06/371,1]	[Remarks:Successful filter row count: 5]
[Date: 2016-03-01 09:26:51]	[UserID:06/371]	[IP:10.10.11.1]	[Browser:Chrome - 48.0.2564.116]	[Action:Closing mssql connection]	[Remarks:Success]
[Date: 2016-03-01 09:27:40]	[UserID:06/371]	[IP:10.10.11.1]	[Browser:Chrome - 48.0.2564.116]	[Action:Making connection to server]	[Remarks:Successful connection to server: S3]
[Date: 2016-03-01 09:27:40]	[UserID:06/371]	[IP:10.10.11.1]	[Browser:Chrome - 48.0.2564.116]	[Action:GetGSTModules 06/371,1]	[Remarks:Successful filter row count: 5]
[Date: 2016-03-01 09:27:40]	[UserID:06/371]	[IP:10.10.11.1]	[Browser:Chrome - 48.0.2564.116]	[Action:Closing mssql connection]	[Remarks:Success]
[Date: 2016-03-01 09:31:07]	[UserID:06/371]	[IP:10.10.11.1]	[Browser:Chrome - 48.0.2564.116]	[Action:Making connection to server]	[Remarks:Successful connection to server: S3]
[Date: 2016-03-01 09:31:07]	[UserID:06/371]	[IP:10.10.11.1]	[Browser:Chrome - 48.0.2564.116]	[Action:GetGSTModules 06/371,1]	[Remarks:Successful filter row count: 5]
[Date: 2016-03-01 09:31:07]	[UserID:06/371]	[IP:10.10.11.1]	[Browser:Chrome - 48.0.2564.116]	[Action:Closing mssql connection]	[Remarks:Success]
[Date: 2016-03-01 09:33:24]	[UserID:06/371]	[IP:10.10.11.1]	[Browser:Chrome - 48.0.2564.116]	[Action:Making connection to server]	[Remarks:Successful connection to server: S3]
[Date: 2016-03-01 09:33:24]	[UserID:06/371]	[IP:10.10.11.1]	[Browser:Chrome - 48.0.2564.116]	[Action:GetGSTModules 06/371,1]	[Remarks:Successful filter row count: 5]
[Date: 2016-03-01 09:33:24]	[UserID:06/371]	[IP:10.10.11.1]	[Browser:Chrome - 48.0.2564.116]	[Action:Closing mssql connection]	[Remarks:Success]
[Date: 2016-03-01 09:36:10]	[UserID:06/371]	[IP:10.10.11.1]	[Browser:Chrome - 48.0.2564.116]	[Action:Making connection to server]	[Remarks:Successful connection to server: S3]
[Date: 2016-03-01 09:36:10]	[UserID:06/371]	[IP:10.10.11.1]	[Browser:Chrome - 48.0.2564.116]	[Action:GetGSTModules 06/371,1]	[Remarks:Successful filter row count: 5]
[Date: 2016-03-01 09:36:10]	[UserID:06/371]	[IP:10.10.11.1]	[Browser:Chrome - 48.0.2564.116]	[Action:Closing mssql connection]	[Remarks:Success]
[Date: 2016-03-01 09:44:52]	[UserID:]	[IP:10.10.11.1]	[Browser:Firefox - 6.0]	[Action:Making connection to server]	[Remarks:Successful connection to server: S3]
[Date: 2016-03-01 09:44:52]	[UserID:]	[IP:10.10.11.1]	[Browser:Firefox - 6.0]	[Action:GetProgramList ]	[Remarks:"no data"]
[Date: 2016-03-01 09:49:13]	[UserID:08/504]	[IP:10.10.11.1]	[Browser:Chrome - 48.0.2564.116]	[Action:Making connection to server]	[Remarks:Successful connection to server: S3]
[Date: 2016-03-01 09:49:14]	[UserID:08/504]	[IP:10.10.11.1]	[Browser:Chrome - 48.0.2564.116]	[Action:GetGSTModules 08/504,1]	[Remarks:Successful filter row count: 3]
[Date: 2016-03-01 09:49:14]	[UserID:08/504]	[IP:10.10.11.1]	[Browser:Chrome - 48.0.2564.116]	[Action:Closing mssql connection]	[Remarks:Success]
[Date: 2016-03-01 09:49:39]	[UserID:]	[IP:10.10.11.1]	[Browser:Chrome - 48.0.2564.116]	[Action:Making connection to server]	[Remarks:Successful connection to server: S3]
[Date: 2016-03-01 09:49:39]	[UserID:]	[IP:10.10.11.1]	[Browser:Chrome - 48.0.2564.116]	[Action:GetProgramList ]	[Remarks:"no data"]
[Date: 2016-03-01 09:49:42]	[UserID:15/1125]	[IP:10.10.11.1]	[Browser:Chrome - 48.0.2564.116]	[Action:Making connection to server]	[Remarks:Successful connection to server: S3]
[Date: 2016-03-01 09:49:42]	[UserID:15/1125]	[IP:10.10.11.1]	[Browser:Chrome - 48.0.2564.116]	[Action:User 15/1125]	[Remarks:Success]
[Date: 2016-03-01 09:49:42]	[UserID:15/1125]	[IP:10.10.11.1]	[Browser:Chrome - 48.0.2564.116]	[Action:Filtering User : MasterData Username : 15/1125]	[Remarks:Successful filter row count: 0]
[Date: 2016-03-01 09:49:42]	[UserID:15/1125]	[IP:10.10.11.1]	[Browser:Chrome - 48.0.2564.116]	[Action:Filtering User : MasterData Username : 15/1125]	[Remarks:Successful filter row count: 0]
[Date: 2016-03-01 09:49:42]	[UserID:15/1125]	[IP:10.10.11.1]	[Browser:Chrome - 48.0.2564.116]	[Action:Filtering User : MasterData Username : 15/1125]	[Remarks:Success]
[Date: 2016-03-01 09:49:42]	[UserID:15/1125]	[IP:10.10.11.1]	[Browser:Chrome - 48.0.2564.116]	[Action:Closing mssql connection]	[Remarks:Success]
[Date: 2016-03-01 09:49:42]	[UserID:15/1125]	[IP:10.10.11.1]	[Browser:Chrome - 48.0.2564.116]	[Action:Making connection to server]	[Remarks:Successful connection to server: S3]
[Date: 2016-03-01 09:49:42]	[UserID:15/1125]	[IP:10.10.11.1]	[Browser:Chrome - 48.0.2564.116]	[Action:GetProgramList 15/1125]	[Remarks:[{"ID":"1","ProgramIndex":"GST","ProgramName":"GST"}]]
[Date: 2016-03-01 09:49:42]	[UserID:15/1125]	[IP:10.10.11.1]	[Browser:Chrome - 48.0.2564.116]	[Action:Making connection to server]	[Remarks:Successful connection to server: S3]
[Date: 2016-03-01 09:49:42]	[UserID:15/1125]	[IP:10.10.11.1]	[Browser:Chrome - 48.0.2564.116]	[Action:GetProgramList 15/1125]	[Remarks:[{"ID":"1","ProgramIndex":"GST","ProgramName":"GST"}]]
[Date: 2016-03-01 09:49:42]	[UserID:15/1125]	[IP:10.10.11.1]	[Browser:Chrome - 48.0.2564.116]	[Action:Making connection to server]	[Remarks:Successful connection to server: S3]
[Date: 2016-03-01 09:49:42]	[UserID:15/1125]	[IP:10.10.11.1]	[Browser:Chrome - 48.0.2564.116]	[Action:Filtering User : MasterData Username : 15/1125]	[Remarks:Successful filter row count: 1]
[Date: 2016-03-01 09:49:44]	[UserID:15/1125]	[IP:10.10.11.1]	[Browser:Chrome - 48.0.2564.116]	[Action:Making connection to server]	[Remarks:Successful connection to server: S3]
[Date: 2016-03-01 09:49:44]	[UserID:15/1125]	[IP:10.10.11.1]	[Browser:Chrome - 48.0.2564.116]	[Action:GetGSTModules 15/1125,1]	[Remarks:Successful filter row count: 6]
[Date: 2016-03-01 09:49:44]	[UserID:15/1125]	[IP:10.10.11.1]	[Browser:Chrome - 48.0.2564.116]	[Action:Closing mssql connection]	[Remarks:Success]
[Date: 2016-03-01 09:49:50]	[UserID:15/1125]	[IP:10.10.11.1]	[Browser:Chrome - 48.0.2564.116]	[Action:Making connection to server]	[Remarks:Successful connection to server: S3]
[Date: 2016-03-01 09:49:50]	[UserID:15/1125]	[IP:10.10.11.1]	[Browser:Chrome - 48.0.2564.116]	[Action:GetProgramList 15/1125]	[Remarks:[{"ID":"1","ProgramIndex":"GST","ProgramName":"GST"}]]
[Date: 2016-03-01 09:49:50]	[UserID:15/1125]	[IP:10.10.11.1]	[Browser:Chrome - 48.0.2564.116]	[Action:Making connection to server]	[Remarks:Successful connection to server: S3]
[Date: 2016-03-01 09:49:50]	[UserID:15/1125]	[IP:10.10.11.1]	[Browser:Chrome - 48.0.2564.116]	[Action:GetProgramList 15/1125]	[Remarks:[{"ID":"1","ProgramIndex":"GST","ProgramName":"GST"}]]
[Date: 2016-03-01 09:49:50]	[UserID:15/1125]	[IP:10.10.11.1]	[Browser:Chrome - 48.0.2564.116]	[Action:Making connection to server]	[Remarks:Successful connection to server: S3]
[Date: 2016-03-01 09:49:50]	[UserID:15/1125]	[IP:10.10.11.1]	[Browser:Chrome - 48.0.2564.116]	[Action:Filtering User : MasterData Username : 15/1125]	[Remarks:Successful filter row count: 1]
[Date: 2016-03-01 09:49:51]	[UserID:15/1125]	[IP:10.10.11.1]	[Browser:Chrome - 48.0.2564.116]	[Action:Making connection to server]	[Remarks:Successful connection to server: S3]
[Date: 2016-03-01 09:49:51]	[UserID:15/1125]	[IP:10.10.11.1]	[Browser:Chrome - 48.0.2564.116]	[Action:GetGSTModules 15/1125,1]	[Remarks:Successful filter row count: 6]
[Date: 2016-03-01 09:49:51]	[UserID:15/1125]	[IP:10.10.11.1]	[Browser:Chrome - 48.0.2564.116]	[Action:Closing mssql connection]	[Remarks:Success]
[Date: 2016-03-01 09:51:40]	[UserID:08/504]	[IP:10.10.11.1]	[Browser:Chrome - 48.0.2564.116]	[Action:Making connection to server]	[Remarks:Successful connection to server: S3]
[Date: 2016-03-01 09:51:40]	[UserID:08/504]	[IP:10.10.11.1]	[Browser:Chrome - 48.0.2564.116]	[Action:GetGSTModules 08/504,1]	[Remarks:Successful filter row count: 3]
[Date: 2016-03-01 09:51:40]	[UserID:08/504]	[IP:10.10.11.1]	[Browser:Chrome - 48.0.2564.116]	[Action:Closing mssql connection]	[Remarks:Success]
[Date: 2016-03-01 09:59:09]	[UserID:]	[IP:10.10.11.1]	[Browser:Chrome - 48.0.2564.116]	[Action:Making connection to server]	[Remarks:Successful connection to server: S3]
[Date: 2016-03-01 09:59:10]	[UserID:]	[IP:10.10.11.1]	[Browser:Chrome - 48.0.2564.116]	[Action:GetProgramList ]	[Remarks:"no data"]
[Date: 2016-03-01 10:00:50]	[UserID:06/371]	[IP:10.10.11.1]	[Browser:Chrome - 48.0.2564.116]	[Action:Making connection to server]	[Remarks:Successful connection to server: S3]
[Date: 2016-03-01 10:00:50]	[UserID:06/371]	[IP:10.10.11.1]	[Browser:Chrome - 48.0.2564.116]	[Action:GetGSTModules 06/371,1]	[Remarks:Successful filter row count: 5]
[Date: 2016-03-01 10:00:50]	[UserID:06/371]	[IP:10.10.11.1]	[Browser:Chrome - 48.0.2564.116]	[Action:Closing mssql connection]	[Remarks:Success]
[Date: 2016-03-01 12:35:29]	[UserID:]	[IP:10.10.11.1]	[Browser:Chrome - 48.0.2564.116]	[Action:Making connection to server]	[Remarks:Successful connection to server: S3]
[Date: 2016-03-01 12:35:29]	[UserID:]	[IP:10.10.11.1]	[Browser:Chrome - 48.0.2564.116]	[Action:GetProgramList ]	[Remarks:"no data"]
[Date: 2016-03-01 12:35:31]	[UserID:08/504]	[IP:10.10.11.1]	[Browser:Chrome - 48.0.2564.116]	[Action:Making connection to server]	[Remarks:Successful connection to server: S3]
[Date: 2016-03-01 12:35:31]	[UserID:08/504]	[IP:10.10.11.1]	[Browser:Chrome - 48.0.2564.116]	[Action:User 08/504]	[Remarks:Success]
[Date: 2016-03-01 12:35:31]	[UserID:08/504]	[IP:10.10.11.1]	[Browser:Chrome - 48.0.2564.116]	[Action:Filtering User : MasterData Username : 08/504]	[Remarks:Successful filter row count: 0]
[Date: 2016-03-01 12:35:31]	[UserID:08/504]	[IP:10.10.11.1]	[Browser:Chrome - 48.0.2564.116]	[Action:Filtering User : MasterData Username : 08/504]	[Remarks:Successful filter row count: 0]
[Date: 2016-03-01 12:35:31]	[UserID:08/504]	[IP:10.10.11.1]	[Browser:Chrome - 48.0.2564.116]	[Action:Filtering User : MasterData Username : 08/504]	[Remarks:Success]
[Date: 2016-03-01 12:35:31]	[UserID:08/504]	[IP:10.10.11.1]	[Browser:Chrome - 48.0.2564.116]	[Action:Closing mssql connection]	[Remarks:Success]
[Date: 2016-03-01 12:35:32]	[UserID:08/504]	[IP:10.10.11.1]	[Browser:Chrome - 48.0.2564.116]	[Action:Making connection to server]	[Remarks:Successful connection to server: S3]
[Date: 2016-03-01 12:35:32]	[UserID:08/504]	[IP:10.10.11.1]	[Browser:Chrome - 48.0.2564.116]	[Action:GetProgramList 08/504]	[Remarks:[{"ID":"1","ProgramIndex":"GST","ProgramName":"GST"}]]
[Date: 2016-03-01 12:35:32]	[UserID:08/504]	[IP:10.10.11.1]	[Browser:Chrome - 48.0.2564.116]	[Action:Making connection to server]	[Remarks:Successful connection to server: S3]
[Date: 2016-03-01 12:35:32]	[UserID:08/504]	[IP:10.10.11.1]	[Browser:Chrome - 48.0.2564.116]	[Action:GetProgramList 08/504]	[Remarks:[{"ID":"1","ProgramIndex":"GST","ProgramName":"GST"}]]
[Date: 2016-03-01 12:35:32]	[UserID:08/504]	[IP:10.10.11.1]	[Browser:Chrome - 48.0.2564.116]	[Action:Making connection to server]	[Remarks:Successful connection to server: S3]
[Date: 2016-03-01 12:35:32]	[UserID:08/504]	[IP:10.10.11.1]	[Browser:Chrome - 48.0.2564.116]	[Action:Filtering User : MasterData Username : 08/504]	[Remarks:Successful filter row count: 1]
[Date: 2016-03-01 12:35:34]	[UserID:08/504]	[IP:10.10.11.1]	[Browser:Chrome - 48.0.2564.116]	[Action:Making connection to server]	[Remarks:Successful connection to server: S3]
[Date: 2016-03-01 12:35:34]	[UserID:08/504]	[IP:10.10.11.1]	[Browser:Chrome - 48.0.2564.116]	[Action:GetGSTModules 08/504,1]	[Remarks:Successful filter row count: 3]
[Date: 2016-03-01 12:35:34]	[UserID:08/504]	[IP:10.10.11.1]	[Browser:Chrome - 48.0.2564.116]	[Action:Closing mssql connection]	[Remarks:Success]
[Date: 2016-03-01 15:40:45]	[UserID:15/1125]	[IP:10.10.11.1]	[Browser:Chrome - 48.0.2564.116]	[Action:Making connection to server]	[Remarks:Successful connection to server: S3]
[Date: 2016-03-01 15:40:47]	[UserID:15/1125]	[IP:10.10.11.1]	[Browser:Chrome - 48.0.2564.116]	[Action:GetProgramList 15/1125]	[Remarks:[{"ID":"1","ProgramIndex":"GST","ProgramName":"GST"}]]
[Date: 2016-03-01 15:40:47]	[UserID:15/1125]	[IP:10.10.11.1]	[Browser:Chrome - 48.0.2564.116]	[Action:Making connection to server]	[Remarks:Successful connection to server: S3]
[Date: 2016-03-01 15:40:47]	[UserID:15/1125]	[IP:10.10.11.1]	[Browser:Chrome - 48.0.2564.116]	[Action:GetProgramList 15/1125]	[Remarks:[{"ID":"1","ProgramIndex":"GST","ProgramName":"GST"}]]
[Date: 2016-03-01 15:40:47]	[UserID:15/1125]	[IP:10.10.11.1]	[Browser:Chrome - 48.0.2564.116]	[Action:Making connection to server]	[Remarks:Successful connection to server: S3]
[Date: 2016-03-01 15:40:49]	[UserID:15/1125]	[IP:10.10.11.1]	[Browser:Chrome - 48.0.2564.116]	[Action:Filtering User : MasterData Username : 15/1125]	[Remarks:Successful filter row count: 1]
[Date: 2016-03-01 15:40:50]	[UserID:15/1125]	[IP:10.10.11.1]	[Browser:Chrome - 48.0.2564.116]	[Action:Making connection to server]	[Remarks:Successful connection to server: S3]
[Date: 2016-03-01 15:40:50]	[UserID:15/1125]	[IP:10.10.11.1]	[Browser:Chrome - 48.0.2564.116]	[Action:GetGSTModules 15/1125,1]	[Remarks:Successful filter row count: 6]
[Date: 2016-03-01 15:40:50]	[UserID:15/1125]	[IP:10.10.11.1]	[Browser:Chrome - 48.0.2564.116]	[Action:Closing mssql connection]	[Remarks:Success]
[Date: 2016-03-01 15:40:52]	[UserID:15/1125]	[IP:10.10.11.1]	[Browser:Chrome - 48.0.2564.116]	[Action:Making connection to server]	[Remarks:Successful connection to server: S3]
[Date: 2016-03-01 15:40:52]	[UserID:15/1125]	[IP:10.10.11.1]	[Browser:Chrome - 48.0.2564.116]	[Action:GetProgramList 15/1125]	[Remarks:[{"ID":"1","ProgramIndex":"GST","ProgramName":"GST"}]]
[Date: 2016-03-01 15:40:52]	[UserID:15/1125]	[IP:10.10.11.1]	[Browser:Chrome - 48.0.2564.116]	[Action:Making connection to server]	[Remarks:Successful connection to server: S3]
[Date: 2016-03-01 15:40:52]	[UserID:15/1125]	[IP:10.10.11.1]	[Browser:Chrome - 48.0.2564.116]	[Action:GetProgramList 15/1125]	[Remarks:[{"ID":"1","ProgramIndex":"GST","ProgramName":"GST"}]]
[Date: 2016-03-01 15:40:52]	[UserID:15/1125]	[IP:10.10.11.1]	[Browser:Chrome - 48.0.2564.116]	[Action:Making connection to server]	[Remarks:Successful connection to server: S3]
[Date: 2016-03-01 15:40:52]	[UserID:15/1125]	[IP:10.10.11.1]	[Browser:Chrome - 48.0.2564.116]	[Action:Filtering User : MasterData Username : 15/1125]	[Remarks:Successful filter row count: 1]
[Date: 2016-03-01 15:40:53]	[UserID:15/1125]	[IP:10.10.11.1]	[Browser:Chrome - 48.0.2564.116]	[Action:Making connection to server]	[Remarks:Successful connection to server: S3]
[Date: 2016-03-01 15:40:53]	[UserID:15/1125]	[IP:10.10.11.1]	[Browser:Chrome - 48.0.2564.116]	[Action:GetGSTModules 15/1125,1]	[Remarks:Successful filter row count: 6]
[Date: 2016-03-01 15:40:53]	[UserID:15/1125]	[IP:10.10.11.1]	[Browser:Chrome - 48.0.2564.116]	[Action:Closing mssql connection]	[Remarks:Success]
[Date: 2016-03-01 15:40:59]	[UserID:15/1125]	[IP:10.10.11.1]	[Browser:Chrome - 48.0.2564.116]	[Action:Making connection to server]	[Remarks:Successful connection to server: S3]
[Date: 2016-03-01 15:40:59]	[UserID:15/1125]	[IP:10.10.11.1]	[Browser:Chrome - 48.0.2564.116]	[Action:GetProgramList 15/1125]	[Remarks:[{"ID":"1","ProgramIndex":"GST","ProgramName":"GST"}]]
[Date: 2016-03-01 15:40:59]	[UserID:15/1125]	[IP:10.10.11.1]	[Browser:Chrome - 48.0.2564.116]	[Action:Making connection to server]	[Remarks:Successful connection to server: S3]
[Date: 2016-03-01 15:40:59]	[UserID:15/1125]	[IP:10.10.11.1]	[Browser:Chrome - 48.0.2564.116]	[Action:GetProgramList 15/1125]	[Remarks:[{"ID":"1","ProgramIndex":"GST","ProgramName":"GST"}]]
[Date: 2016-03-01 15:40:59]	[UserID:15/1125]	[IP:10.10.11.1]	[Browser:Chrome - 48.0.2564.116]	[Action:Making connection to server]	[Remarks:Successful connection to server: S3]
[Date: 2016-03-01 15:40:59]	[UserID:15/1125]	[IP:10.10.11.1]	[Browser:Chrome - 48.0.2564.116]	[Action:Filtering User : MasterData Username : 15/1125]	[Remarks:Successful filter row count: 1]
[Date: 2016-03-01 15:41:00]	[UserID:15/1125]	[IP:10.10.11.1]	[Browser:Chrome - 48.0.2564.116]	[Action:Making connection to server]	[Remarks:Successful connection to server: S3]
[Date: 2016-03-01 15:41:00]	[UserID:15/1125]	[IP:10.10.11.1]	[Browser:Chrome - 48.0.2564.116]	[Action:GetGSTModules 15/1125,1]	[Remarks:Successful filter row count: 6]
[Date: 2016-03-01 15:41:00]	[UserID:15/1125]	[IP:10.10.11.1]	[Browser:Chrome - 48.0.2564.116]	[Action:Closing mssql connection]	[Remarks:Success]
[Date: 2016-03-01 15:41:15]	[UserID:15/1125]	[IP:10.10.11.1]	[Browser:Chrome - 48.0.2564.116]	[Action:Making connection to server]	[Remarks:Successful connection to server: S3]
[Date: 2016-03-01 15:41:15]	[UserID:15/1125]	[IP:10.10.11.1]	[Browser:Chrome - 48.0.2564.116]	[Action:GetGSTModules 15/1125,1]	[Remarks:Successful filter row count: 6]
[Date: 2016-03-01 15:41:15]	[UserID:15/1125]	[IP:10.10.11.1]	[Browser:Chrome - 48.0.2564.116]	[Action:Closing mssql connection]	[Remarks:Success]
[Date: 2016-03-01 15:43:00]	[UserID:]	[IP:10.10.11.1]	[Browser:Chrome - 48.0.2564.116]	[Action:Making connection to server]	[Remarks:Successful connection to server: S3]
[Date: 2016-03-01 15:43:00]	[UserID:]	[IP:10.10.11.1]	[Browser:Chrome - 48.0.2564.116]	[Action:GetProgramList ]	[Remarks:"no data"]
[Date: 2016-03-01 15:43:01]	[UserID:06/371]	[IP:10.10.11.1]	[Browser:Chrome - 48.0.2564.116]	[Action:Making connection to server]	[Remarks:Successful connection to server: S3]
[Date: 2016-03-01 15:43:01]	[UserID:06/371]	[IP:10.10.11.1]	[Browser:Chrome - 48.0.2564.116]	[Action:User 06/371]	[Remarks:Success]
[Date: 2016-03-01 15:43:01]	[UserID:06/371]	[IP:10.10.11.1]	[Browser:Chrome - 48.0.2564.116]	[Action:Filtering User : MasterData Username : 06/371]	[Remarks:Successful filter row count: 0]
[Date: 2016-03-01 15:43:01]	[UserID:06/371]	[IP:10.10.11.1]	[Browser:Chrome - 48.0.2564.116]	[Action:Filtering User : MasterData Username : 06/371]	[Remarks:Successful filter row count: 0]
[Date: 2016-03-01 15:43:01]	[UserID:06/371]	[IP:10.10.11.1]	[Browser:Chrome - 48.0.2564.116]	[Action:Filtering User : MasterData Username : 06/371]	[Remarks:Success]
[Date: 2016-03-01 15:43:01]	[UserID:06/371]	[IP:10.10.11.1]	[Browser:Chrome - 48.0.2564.116]	[Action:Closing mssql connection]	[Remarks:Success]
[Date: 2016-03-01 15:43:02]	[UserID:06/371]	[IP:10.10.11.1]	[Browser:Chrome - 48.0.2564.116]	[Action:Making connection to server]	[Remarks:Successful connection to server: S3]
[Date: 2016-03-01 15:43:02]	[UserID:06/371]	[IP:10.10.11.1]	[Browser:Chrome - 48.0.2564.116]	[Action:GetProgramList 06/371]	[Remarks:[{"ID":"1","ProgramIndex":"GST","ProgramName":"GST"}]]
[Date: 2016-03-01 15:43:02]	[UserID:06/371]	[IP:10.10.11.1]	[Browser:Chrome - 48.0.2564.116]	[Action:Making connection to server]	[Remarks:Successful connection to server: S3]
[Date: 2016-03-01 15:43:02]	[UserID:06/371]	[IP:10.10.11.1]	[Browser:Chrome - 48.0.2564.116]	[Action:GetProgramList 06/371]	[Remarks:[{"ID":"1","ProgramIndex":"GST","ProgramName":"GST"}]]
[Date: 2016-03-01 15:43:02]	[UserID:06/371]	[IP:10.10.11.1]	[Browser:Chrome - 48.0.2564.116]	[Action:Making connection to server]	[Remarks:Successful connection to server: S3]
[Date: 2016-03-01 15:43:02]	[UserID:06/371]	[IP:10.10.11.1]	[Browser:Chrome - 48.0.2564.116]	[Action:Filtering User : MasterData Username : 06/371]	[Remarks:Successful filter row count: 1]
[Date: 2016-03-01 15:43:02]	[UserID:06/371]	[IP:10.10.11.1]	[Browser:Chrome - 48.0.2564.116]	[Action:Making connection to server]	[Remarks:Successful connection to server: S3]
[Date: 2016-03-01 15:43:02]	[UserID:06/371]	[IP:10.10.11.1]	[Browser:Chrome - 48.0.2564.116]	[Action:GetGSTModules 06/371,1]	[Remarks:Successful filter row count: 5]
[Date: 2016-03-01 15:43:02]	[UserID:06/371]	[IP:10.10.11.1]	[Browser:Chrome - 48.0.2564.116]	[Action:Closing mssql connection]	[Remarks:Success]
[Date: 2016-03-01 16:15:17]	[UserID:06/371]	[IP:10.10.11.1]	[Browser:Chrome - 48.0.2564.116]	[Action:Making connection to server]	[Remarks:Successful connection to server: S3]
[Date: 2016-03-01 16:15:17]	[UserID:06/371]	[IP:10.10.11.1]	[Browser:Chrome - 48.0.2564.116]	[Action:GetGSTModules 06/371,1]	[Remarks:Successful filter row count: 5]
[Date: 2016-03-01 16:15:17]	[UserID:06/371]	[IP:10.10.11.1]	[Browser:Chrome - 48.0.2564.116]	[Action:Closing mssql connection]	[Remarks:Success]
[Date: 2016-03-01 16:18:08]	[UserID:08/504]	[IP:10.10.11.1]	[Browser:Chrome - 48.0.2564.116]	[Action:Making connection to server]	[Remarks:Successful connection to server: S3]
[Date: 2016-03-01 16:18:08]	[UserID:08/504]	[IP:10.10.11.1]	[Browser:Chrome - 48.0.2564.116]	[Action:GetProgramList 08/504]	[Remarks:[{"ID":"1","ProgramIndex":"GST","ProgramName":"GST"}]]
[Date: 2016-03-01 16:18:08]	[UserID:08/504]	[IP:10.10.11.1]	[Browser:Chrome - 48.0.2564.116]	[Action:Making connection to server]	[Remarks:Successful connection to server: S3]
[Date: 2016-03-01 16:18:08]	[UserID:08/504]	[IP:10.10.11.1]	[Browser:Chrome - 48.0.2564.116]	[Action:GetProgramList 08/504]	[Remarks:[{"ID":"1","ProgramIndex":"GST","ProgramName":"GST"}]]
[Date: 2016-03-01 16:18:08]	[UserID:08/504]	[IP:10.10.11.1]	[Browser:Chrome - 48.0.2564.116]	[Action:Making connection to server]	[Remarks:Successful connection to server: S3]
[Date: 2016-03-01 16:18:08]	[UserID:08/504]	[IP:10.10.11.1]	[Browser:Chrome - 48.0.2564.116]	[Action:Filtering User : MasterData Username : 08/504]	[Remarks:Successful filter row count: 1]
[Date: 2016-03-01 16:18:08]	[UserID:08/504]	[IP:10.10.11.1]	[Browser:Chrome - 48.0.2564.116]	[Action:Making connection to server]	[Remarks:Successful connection to server: S3]
[Date: 2016-03-01 16:18:08]	[UserID:08/504]	[IP:10.10.11.1]	[Browser:Chrome - 48.0.2564.116]	[Action:GetGSTModules 08/504,1]	[Remarks:Successful filter row count: 3]
[Date: 2016-03-01 16:18:08]	[UserID:08/504]	[IP:10.10.11.1]	[Browser:Chrome - 48.0.2564.116]	[Action:Closing mssql connection]	[Remarks:Success]
[Date: 2016-03-01 16:24:53]	[UserID:15/1125]	[IP:10.10.11.1]	[Browser:Chrome - 48.0.2564.116]	[Action:Making connection to server]	[Remarks:Successful connection to server: S3]
[Date: 2016-03-01 16:24:53]	[UserID:15/1125]	[IP:10.10.11.1]	[Browser:Chrome - 48.0.2564.116]	[Action:GetGSTModules 15/1125,1]	[Remarks:Successful filter row count: 6]
[Date: 2016-03-01 16:24:53]	[UserID:15/1125]	[IP:10.10.11.1]	[Browser:Chrome - 48.0.2564.116]	[Action:Closing mssql connection]	[Remarks:Success]
[Date: 2016-03-01 16:27:50]	[UserID:15/1125]	[IP:10.10.11.1]	[Browser:Chrome - 48.0.2564.116]	[Action:Making connection to server]	[Remarks:Successful connection to server: S3]
[Date: 2016-03-01 16:27:50]	[UserID:15/1125]	[IP:10.10.11.1]	[Browser:Chrome - 48.0.2564.116]	[Action:GetProgramList 15/1125]	[Remarks:[{"ID":"1","ProgramIndex":"GST","ProgramName":"GST"}]]
[Date: 2016-03-01 16:27:50]	[UserID:15/1125]	[IP:10.10.11.1]	[Browser:Chrome - 48.0.2564.116]	[Action:Making connection to server]	[Remarks:Successful connection to server: S3]
[Date: 2016-03-01 16:27:50]	[UserID:15/1125]	[IP:10.10.11.1]	[Browser:Chrome - 48.0.2564.116]	[Action:GetProgramList 15/1125]	[Remarks:[{"ID":"1","ProgramIndex":"GST","ProgramName":"GST"}]]
[Date: 2016-03-01 16:27:50]	[UserID:15/1125]	[IP:10.10.11.1]	[Browser:Chrome - 48.0.2564.116]	[Action:Making connection to server]	[Remarks:Successful connection to server: S3]
[Date: 2016-03-01 16:27:50]	[UserID:15/1125]	[IP:10.10.11.1]	[Browser:Chrome - 48.0.2564.116]	[Action:Filtering User : MasterData Username : 15/1125]	[Remarks:Successful filter row count: 1]
[Date: 2016-03-01 16:27:51]	[UserID:15/1125]	[IP:10.10.11.1]	[Browser:Chrome - 48.0.2564.116]	[Action:Making connection to server]	[Remarks:Successful connection to server: S3]
[Date: 2016-03-01 16:27:51]	[UserID:15/1125]	[IP:10.10.11.1]	[Browser:Chrome - 48.0.2564.116]	[Action:GetGSTModules 15/1125,1]	[Remarks:Successful filter row count: 6]
[Date: 2016-03-01 16:27:51]	[UserID:15/1125]	[IP:10.10.11.1]	[Browser:Chrome - 48.0.2564.116]	[Action:Closing mssql connection]	[Remarks:Success]
[Date: 2016-03-01 16:28:39]	[UserID:15/1125]	[IP:10.10.11.1]	[Browser:Chrome - 48.0.2564.116]	[Action:Making connection to server]	[Remarks:Successful connection to server: S3]
[Date: 2016-03-01 16:28:39]	[UserID:15/1125]	[IP:10.10.11.1]	[Browser:Chrome - 48.0.2564.116]	[Action:GetGSTModules 15/1125,1]	[Remarks:Successful filter row count: 6]
[Date: 2016-03-01 16:28:39]	[UserID:15/1125]	[IP:10.10.11.1]	[Browser:Chrome - 48.0.2564.116]	[Action:Closing mssql connection]	[Remarks:Success]
[Date: 2016-03-01 16:28:45]	[UserID:15/1125]	[IP:10.10.11.1]	[Browser:Chrome - 48.0.2564.116]	[Action:Making connection to server]	[Remarks:Successful connection to server: S3]
[Date: 2016-03-01 16:28:45]	[UserID:15/1125]	[IP:10.10.11.1]	[Browser:Chrome - 48.0.2564.116]	[Action:GetGSTModules 15/1125,1]	[Remarks:Successful filter row count: 6]
[Date: 2016-03-01 16:28:45]	[UserID:15/1125]	[IP:10.10.11.1]	[Browser:Chrome - 48.0.2564.116]	[Action:Closing mssql connection]	[Remarks:Success]
[Date: 2016-03-01 16:33:07]	[UserID:15/1125]	[IP:10.10.11.1]	[Browser:Chrome - 48.0.2564.116]	[Action:Making connection to server]	[Remarks:Successful connection to server: S3]
[Date: 2016-03-01 16:33:07]	[UserID:15/1125]	[IP:10.10.11.1]	[Browser:Chrome - 48.0.2564.116]	[Action:GetGSTModules 15/1125,1]	[Remarks:Successful filter row count: 6]
[Date: 2016-03-01 16:33:07]	[UserID:15/1125]	[IP:10.10.11.1]	[Browser:Chrome - 48.0.2564.116]	[Action:Closing mssql connection]	[Remarks:Success]
[Date: 2016-03-01 16:36:16]	[UserID:15/1125]	[IP:10.10.11.1]	[Browser:Chrome - 48.0.2564.116]	[Action:Making connection to server]	[Remarks:Successful connection to server: S3]
[Date: 2016-03-01 16:36:16]	[UserID:15/1125]	[IP:10.10.11.1]	[Browser:Chrome - 48.0.2564.116]	[Action:GetGSTModules 15/1125,1]	[Remarks:Successful filter row count: 6]
[Date: 2016-03-01 16:36:16]	[UserID:15/1125]	[IP:10.10.11.1]	[Browser:Chrome - 48.0.2564.116]	[Action:Closing mssql connection]	[Remarks:Success]
[Date: 2016-03-01 16:36:42]	[UserID:15/1125]	[IP:10.10.11.1]	[Browser:Chrome - 48.0.2564.116]	[Action:Making connection to server]	[Remarks:Successful connection to server: S3]
[Date: 2016-03-01 16:36:42]	[UserID:15/1125]	[IP:10.10.11.1]	[Browser:Chrome - 48.0.2564.116]	[Action:GetGSTModules 15/1125,1]	[Remarks:Successful filter row count: 6]
[Date: 2016-03-01 16:36:42]	[UserID:15/1125]	[IP:10.10.11.1]	[Browser:Chrome - 48.0.2564.116]	[Action:Closing mssql connection]	[Remarks:Success]
[Date: 2016-03-01 16:37:43]	[UserID:15/1125]	[IP:10.10.11.1]	[Browser:Chrome - 48.0.2564.116]	[Action:Making connection to server]	[Remarks:Successful connection to server: S3]
[Date: 2016-03-01 16:37:43]	[UserID:15/1125]	[IP:10.10.11.1]	[Browser:Chrome - 48.0.2564.116]	[Action:GetProgramList 15/1125]	[Remarks:[{"ID":"1","ProgramIndex":"GST","ProgramName":"GST"}]]
[Date: 2016-03-01 16:37:43]	[UserID:15/1125]	[IP:10.10.11.1]	[Browser:Chrome - 48.0.2564.116]	[Action:Making connection to server]	[Remarks:Successful connection to server: S3]
[Date: 2016-03-01 16:37:43]	[UserID:15/1125]	[IP:10.10.11.1]	[Browser:Chrome - 48.0.2564.116]	[Action:GetProgramList 15/1125]	[Remarks:[{"ID":"1","ProgramIndex":"GST","ProgramName":"GST"}]]
[Date: 2016-03-01 16:37:44]	[UserID:15/1125]	[IP:10.10.11.1]	[Browser:Chrome - 48.0.2564.116]	[Action:Making connection to server]	[Remarks:Successful connection to server: S3]
[Date: 2016-03-01 16:37:44]	[UserID:15/1125]	[IP:10.10.11.1]	[Browser:Chrome - 48.0.2564.116]	[Action:Filtering User : MasterData Username : 15/1125]	[Remarks:Successful filter row count: 1]
[Date: 2016-03-01 16:37:46]	[UserID:15/1125]	[IP:10.10.11.1]	[Browser:Chrome - 48.0.2564.116]	[Action:Making connection to server]	[Remarks:Successful connection to server: S3]
[Date: 2016-03-01 16:37:46]	[UserID:15/1125]	[IP:10.10.11.1]	[Browser:Chrome - 48.0.2564.116]	[Action:GetGSTModules 15/1125,1]	[Remarks:Successful filter row count: 6]
[Date: 2016-03-01 16:37:46]	[UserID:15/1125]	[IP:10.10.11.1]	[Browser:Chrome - 48.0.2564.116]	[Action:Closing mssql connection]	[Remarks:Success]
[Date: 2016-03-01 17:52:17]	[UserID:]	[IP:10.10.11.1]	[Browser:Chrome - 48.0.2564.116]	[Action:Making connection to server]	[Remarks:Successful connection to server: S3]
[Date: 2016-03-01 17:52:18]	[UserID:]	[IP:10.10.11.1]	[Browser:Chrome - 48.0.2564.116]	[Action:GetProgramList ]	[Remarks:"no data"]
