[Date: 2019-11-14 08:16:46]	[UserID:]	[IP:10.130.25.202]	[Browser:Chrome - 78.0.3904.97]	[Action:Making connection to server]	[Remarks:Successful connection to server: S3]
[Date: 2019-11-14 08:16:46]	[UserID:]	[IP:10.130.25.202]	[Browser:Chrome - 78.0.3904.97]	[Action:GetProgramList ]	[Remarks:"no data"]
[Date: 2019-11-14 08:25:29]	[UserID:]	[IP:10.128.12.120]	[Browser:Chrome - 78.0.3904.97]	[Action:Making connection to server]	[Remarks:Successful connection to server: S3]
[Date: 2019-11-14 08:25:29]	[UserID:]	[IP:10.128.12.120]	[Browser:Chrome - 78.0.3904.97]	[Action:GetProgramList ]	[Remarks:"no data"]
[Date: 2019-11-14 08:25:39]	[UserID:14/1082]	[IP:10.128.12.120]	[Browser:Chrome - 78.0.3904.97]	[Action:Making connection to server]	[Remarks:Successful connection to server: S3]
[Date: 2019-11-14 08:25:39]	[UserID:14/1082]	[IP:10.128.12.120]	[Browser:Chrome - 78.0.3904.97]	[Action:User 14/1082]	[Remarks:Success]
[Date: 2019-11-14 08:25:39]	[UserID:14/1082]	[IP:10.128.12.120]	[Browser:Chrome - 78.0.3904.97]	[Action:Filtering User : MasterData Username : 14/1082]	[Remarks:Successful filter row count: 0]
[Date: 2019-11-14 08:25:39]	[UserID:14/1082]	[IP:10.128.12.120]	[Browser:Chrome - 78.0.3904.97]	[Action:Filtering User : MasterData Username : 14/1082]	[Remarks:Successful filter row count: 0]
[Date: 2019-11-14 08:25:39]	[UserID:14/1082]	[IP:10.128.12.120]	[Browser:Chrome - 78.0.3904.97]	[Action:Filtering User : MasterData Username : 14/1082]	[Remarks:Success]
[Date: 2019-11-14 08:25:39]	[UserID:14/1082]	[IP:10.128.12.120]	[Browser:Chrome - 78.0.3904.97]	[Action:Closing mssql connection]	[Remarks:Success]
[Date: 2019-11-14 08:25:39]	[UserID:14/1082]	[IP:10.128.12.120]	[Browser:Chrome - 78.0.3904.97]	[Action:Making connection to server]	[Remarks:Successful connection to server: S3]
[Date: 2019-11-14 08:25:39]	[UserID:14/1082]	[IP:10.128.12.120]	[Browser:Chrome - 78.0.3904.97]	[Action:GetProgramList 14/1082]	[Remarks:[{"ID":"1","ProgramIndex":"GST","ProgramName":"GST"}]]
[Date: 2019-11-14 08:25:39]	[UserID:14/1082]	[IP:10.128.12.120]	[Browser:Chrome - 78.0.3904.97]	[Action:Making connection to server]	[Remarks:Successful connection to server: S3]
[Date: 2019-11-14 08:25:39]	[UserID:14/1082]	[IP:10.128.12.120]	[Browser:Chrome - 78.0.3904.97]	[Action:GetProgramList 14/1082]	[Remarks:[{"ID":"1","ProgramIndex":"GST","ProgramName":"GST"}]]
[Date: 2019-11-14 08:25:39]	[UserID:14/1082]	[IP:10.128.12.120]	[Browser:Chrome - 78.0.3904.97]	[Action:Making connection to server]	[Remarks:Successful connection to server: S3]
[Date: 2019-11-14 08:25:39]	[UserID:14/1082]	[IP:10.128.12.120]	[Browser:Chrome - 78.0.3904.97]	[Action:Filtering User : MasterData Username : 14/1082]	[Remarks:Successful filter row count: 1]
[Date: 2019-11-14 08:25:40]	[UserID:14/1082]	[IP:10.128.12.120]	[Browser:Chrome - 78.0.3904.97]	[Action:Making connection to server]	[Remarks:Successful connection to server: S3]
[Date: 2019-11-14 08:25:40]	[UserID:14/1082]	[IP:10.128.12.120]	[Browser:Chrome - 78.0.3904.97]	[Action:GetGSTModules 14/1082,1]	[Remarks:Successful filter row count: 8]
[Date: 2019-11-14 08:25:40]	[UserID:14/1082]	[IP:10.128.12.120]	[Browser:Chrome - 78.0.3904.97]	[Action:Closing mssql connection]	[Remarks:Success]
[Date: 2019-11-14 09:28:06]	[UserID:]	[IP:10.128.12.114]	[Browser:Chrome - 78.0.3904.97]	[Action:Making connection to server]	[Remarks:Successful connection to server: S3]
[Date: 2019-11-14 09:28:07]	[UserID:]	[IP:10.128.12.114]	[Browser:Chrome - 78.0.3904.97]	[Action:GetProgramList ]	[Remarks:"no data"]
[Date: 2019-11-14 09:28:14]	[UserID:14/1082]	[IP:10.128.12.114]	[Browser:Chrome - 78.0.3904.97]	[Action:Making connection to server]	[Remarks:Successful connection to server: S3]
[Date: 2019-11-14 09:28:14]	[UserID:14/1082]	[IP:10.128.12.114]	[Browser:Chrome - 78.0.3904.97]	[Action:User 14/1082]	[Remarks:Success]
[Date: 2019-11-14 09:28:14]	[UserID:14/1082]	[IP:10.128.12.114]	[Browser:Chrome - 78.0.3904.97]	[Action:Filtering User : MasterData Username : 14/1082]	[Remarks:Successful filter row count: 0]
[Date: 2019-11-14 09:28:14]	[UserID:14/1082]	[IP:10.128.12.114]	[Browser:Chrome - 78.0.3904.97]	[Action:Filtering User : MasterData Username : 14/1082]	[Remarks:Successful filter row count: 0]
[Date: 2019-11-14 09:28:14]	[UserID:14/1082]	[IP:10.128.12.114]	[Browser:Chrome - 78.0.3904.97]	[Action:Filtering User : MasterData Username : 14/1082]	[Remarks:Success]
[Date: 2019-11-14 09:28:14]	[UserID:14/1082]	[IP:10.128.12.114]	[Browser:Chrome - 78.0.3904.97]	[Action:Closing mssql connection]	[Remarks:Success]
[Date: 2019-11-14 09:28:14]	[UserID:14/1082]	[IP:10.128.12.114]	[Browser:Chrome - 78.0.3904.97]	[Action:Making connection to server]	[Remarks:Successful connection to server: S3]
[Date: 2019-11-14 09:28:14]	[UserID:14/1082]	[IP:10.128.12.114]	[Browser:Chrome - 78.0.3904.97]	[Action:GetProgramList 14/1082]	[Remarks:[{"ID":"1","ProgramIndex":"GST","ProgramName":"GST"}]]
[Date: 2019-11-14 09:28:14]	[UserID:14/1082]	[IP:10.128.12.114]	[Browser:Chrome - 78.0.3904.97]	[Action:Making connection to server]	[Remarks:Successful connection to server: S3]
[Date: 2019-11-14 09:28:14]	[UserID:14/1082]	[IP:10.128.12.114]	[Browser:Chrome - 78.0.3904.97]	[Action:GetProgramList 14/1082]	[Remarks:[{"ID":"1","ProgramIndex":"GST","ProgramName":"GST"}]]
[Date: 2019-11-14 09:28:14]	[UserID:14/1082]	[IP:10.128.12.114]	[Browser:Chrome - 78.0.3904.97]	[Action:Making connection to server]	[Remarks:Successful connection to server: S3]
[Date: 2019-11-14 09:28:14]	[UserID:14/1082]	[IP:10.128.12.114]	[Browser:Chrome - 78.0.3904.97]	[Action:Filtering User : MasterData Username : 14/1082]	[Remarks:Successful filter row count: 1]
[Date: 2019-11-14 09:28:14]	[UserID:14/1082]	[IP:10.128.12.114]	[Browser:Chrome - 78.0.3904.97]	[Action:Making connection to server]	[Remarks:Successful connection to server: S3]
[Date: 2019-11-14 09:28:14]	[UserID:14/1082]	[IP:10.128.12.114]	[Browser:Chrome - 78.0.3904.97]	[Action:GetGSTModules 14/1082,1]	[Remarks:Successful filter row count: 8]
[Date: 2019-11-14 09:28:14]	[UserID:14/1082]	[IP:10.128.12.114]	[Browser:Chrome - 78.0.3904.97]	[Action:Closing mssql connection]	[Remarks:Success]
[Date: 2019-11-14 09:36:01]	[UserID:14/1082]	[IP:10.128.12.114]	[Browser:Chrome - 78.0.3904.97]	[Action:Making connection to server]	[Remarks:Successful connection to server: S3]
[Date: 2019-11-14 09:36:01]	[UserID:14/1082]	[IP:10.128.12.114]	[Browser:Chrome - 78.0.3904.97]	[Action:GetGSTModules 14/1082,1]	[Remarks:Successful filter row count: 8]
[Date: 2019-11-14 09:36:01]	[UserID:14/1082]	[IP:10.128.12.114]	[Browser:Chrome - 78.0.3904.97]	[Action:Closing mssql connection]	[Remarks:Success]
[Date: 2019-11-14 11:25:45]	[UserID:]	[IP:10.128.12.114]	[Browser:Chrome - 78.0.3904.97]	[Action:Making connection to server]	[Remarks:Successful connection to server: S3]
[Date: 2019-11-14 11:25:45]	[UserID:]	[IP:10.128.12.114]	[Browser:Chrome - 78.0.3904.97]	[Action:GetProgramList ]	[Remarks:"no data"]
[Date: 2019-11-14 11:25:48]	[UserID:]	[IP:10.128.12.114]	[Browser:Chrome - 78.0.3904.97]	[Action:Making connection to server]	[Remarks:Successful connection to server: S3]
[Date: 2019-11-14 11:25:48]	[UserID:]	[IP:10.128.12.114]	[Browser:Chrome - 78.0.3904.97]	[Action:GetProgramList ]	[Remarks:"no data"]
[Date: 2019-11-14 11:25:53]	[UserID:14/1082]	[IP:10.128.12.114]	[Browser:Chrome - 78.0.3904.97]	[Action:Making connection to server]	[Remarks:Successful connection to server: S3]
[Date: 2019-11-14 11:25:53]	[UserID:14/1082]	[IP:10.128.12.114]	[Browser:Chrome - 78.0.3904.97]	[Action:User 14/1082]	[Remarks:Success]
[Date: 2019-11-14 11:25:53]	[UserID:14/1082]	[IP:10.128.12.114]	[Browser:Chrome - 78.0.3904.97]	[Action:Filtering User : MasterData Username : 14/1082]	[Remarks:Successful filter row count: 0]
[Date: 2019-11-14 11:25:53]	[UserID:14/1082]	[IP:10.128.12.114]	[Browser:Chrome - 78.0.3904.97]	[Action:Filtering User : MasterData Username : 14/1082]	[Remarks:Successful filter row count: 0]
[Date: 2019-11-14 11:25:53]	[UserID:14/1082]	[IP:10.128.12.114]	[Browser:Chrome - 78.0.3904.97]	[Action:Filtering User : MasterData Username : 14/1082]	[Remarks:Success]
[Date: 2019-11-14 11:25:53]	[UserID:14/1082]	[IP:10.128.12.114]	[Browser:Chrome - 78.0.3904.97]	[Action:Closing mssql connection]	[Remarks:Success]
[Date: 2019-11-14 11:25:54]	[UserID:14/1082]	[IP:10.128.12.114]	[Browser:Chrome - 78.0.3904.97]	[Action:Making connection to server]	[Remarks:Successful connection to server: S3]
[Date: 2019-11-14 11:25:54]	[UserID:14/1082]	[IP:10.128.12.114]	[Browser:Chrome - 78.0.3904.97]	[Action:GetProgramList 14/1082]	[Remarks:[{"ID":"1","ProgramIndex":"GST","ProgramName":"GST"}]]
[Date: 2019-11-14 11:25:54]	[UserID:14/1082]	[IP:10.128.12.114]	[Browser:Chrome - 78.0.3904.97]	[Action:Making connection to server]	[Remarks:Successful connection to server: S3]
[Date: 2019-11-14 11:25:54]	[UserID:14/1082]	[IP:10.128.12.114]	[Browser:Chrome - 78.0.3904.97]	[Action:GetProgramList 14/1082]	[Remarks:[{"ID":"1","ProgramIndex":"GST","ProgramName":"GST"}]]
[Date: 2019-11-14 11:25:54]	[UserID:14/1082]	[IP:10.128.12.114]	[Browser:Chrome - 78.0.3904.97]	[Action:Making connection to server]	[Remarks:Successful connection to server: S3]
[Date: 2019-11-14 11:25:54]	[UserID:14/1082]	[IP:10.128.12.114]	[Browser:Chrome - 78.0.3904.97]	[Action:Filtering User : MasterData Username : 14/1082]	[Remarks:Successful filter row count: 1]
[Date: 2019-11-14 11:25:54]	[UserID:14/1082]	[IP:10.128.12.114]	[Browser:Chrome - 78.0.3904.97]	[Action:Making connection to server]	[Remarks:Successful connection to server: S3]
[Date: 2019-11-14 11:25:54]	[UserID:14/1082]	[IP:10.128.12.114]	[Browser:Chrome - 78.0.3904.97]	[Action:GetGSTModules 14/1082,1]	[Remarks:Successful filter row count: 8]
[Date: 2019-11-14 11:25:54]	[UserID:14/1082]	[IP:10.128.12.114]	[Browser:Chrome - 78.0.3904.97]	[Action:Closing mssql connection]	[Remarks:Success]
[Date: 2019-11-14 11:46:53]	[UserID:14/1082]	[IP:10.128.12.114]	[Browser:Chrome - 78.0.3904.97]	[Action:Making connection to server]	[Remarks:Successful connection to server: S3]
[Date: 2019-11-14 11:46:53]	[UserID:14/1082]	[IP:10.128.12.114]	[Browser:Chrome - 78.0.3904.97]	[Action:GetGSTModules 14/1082,1]	[Remarks:Successful filter row count: 8]
[Date: 2019-11-14 11:46:53]	[UserID:14/1082]	[IP:10.128.12.114]	[Browser:Chrome - 78.0.3904.97]	[Action:Closing mssql connection]	[Remarks:Success]
[Date: 2019-11-14 11:49:11]	[UserID:14/1082]	[IP:10.128.12.114]	[Browser:Chrome - 78.0.3904.97]	[Action:Making connection to server]	[Remarks:Successful connection to server: S3]
[Date: 2019-11-14 11:49:11]	[UserID:14/1082]	[IP:10.128.12.114]	[Browser:Chrome - 78.0.3904.97]	[Action:GetGSTModules 14/1082,1]	[Remarks:Successful filter row count: 8]
[Date: 2019-11-14 11:49:11]	[UserID:14/1082]	[IP:10.128.12.114]	[Browser:Chrome - 78.0.3904.97]	[Action:Closing mssql connection]	[Remarks:Success]
[Date: 2019-11-14 16:13:41]	[UserID:]	[IP:10.128.12.114]	[Browser:Chrome - 78.0.3904.97]	[Action:Making connection to server]	[Remarks:Successful connection to server: S3]
[Date: 2019-11-14 16:13:41]	[UserID:]	[IP:10.128.12.114]	[Browser:Chrome - 78.0.3904.97]	[Action:GetProgramList ]	[Remarks:"no data"]
[Date: 2019-11-14 23:26:16]	[UserID:]	[IP:10.130.25.202]	[Browser:Firefox - 60.0]	[Action:Making connection to server]	[Remarks:Successful connection to server: S3]
[Date: 2019-11-14 23:26:16]	[UserID:]	[IP:10.130.25.202]	[Browser:Firefox - 60.0]	[Action:GetProgramList ]	[Remarks:"no data"]
[Date: 2019-11-14 23:27:38]	[UserID:]	[IP:10.130.25.202]	[Browser:Firefox - 60.0]	[Action:Making connection to server]	[Remarks:Successful connection to server: S3]
[Date: 2019-11-14 23:27:38]	[UserID:]	[IP:10.130.25.202]	[Browser:Firefox - 60.0]	[Action:GetProgramList ]	[Remarks:"no data"]
