[Date: 2017-11-18 07:42:53]	[UserID:]	[IP:10.128.12.210]	[Browser:Chrome - 62.0.3202.94]	[Action:Making connection to server]	[Remarks:Successful connection to server: S3]
[Date: 2017-11-18 07:42:53]	[UserID:]	[IP:10.128.12.210]	[Browser:Chrome - 62.0.3202.94]	[Action:GetProgramList ]	[Remarks:"no data"]
[Date: 2017-11-18 07:43:00]	[UserID:10/660]	[IP:10.128.12.210]	[Browser:Chrome - 62.0.3202.94]	[Action:Making connection to server]	[Remarks:Successful connection to server: S3]
[Date: 2017-11-18 07:43:00]	[UserID:10/660]	[IP:10.128.12.210]	[Browser:Chrome - 62.0.3202.94]	[Action:User 10/660]	[Remarks:Success]
[Date: 2017-11-18 07:43:00]	[UserID:10/660]	[IP:10.128.12.210]	[Browser:Chrome - 62.0.3202.94]	[Action:Filtering User : MasterData Username : 10/660]	[Remarks:Successful filter row count: 0]
[Date: 2017-11-18 07:43:00]	[UserID:10/660]	[IP:10.128.12.210]	[Browser:Chrome - 62.0.3202.94]	[Action:Filtering User : MasterData Username : 10/660]	[Remarks:Successful filter row count: 0]
[Date: 2017-11-18 07:43:00]	[UserID:10/660]	[IP:10.128.12.210]	[Browser:Chrome - 62.0.3202.94]	[Action:Filtering User : MasterData Username : 10/660]	[Remarks:Success]
[Date: 2017-11-18 07:43:00]	[UserID:10/660]	[IP:10.128.12.210]	[Browser:Chrome - 62.0.3202.94]	[Action:Closing mssql connection]	[Remarks:Success]
[Date: 2017-11-18 07:43:00]	[UserID:10/660]	[IP:10.128.12.210]	[Browser:Chrome - 62.0.3202.94]	[Action:Making connection to server]	[Remarks:Successful connection to server: S3]
[Date: 2017-11-18 07:43:00]	[UserID:10/660]	[IP:10.128.12.210]	[Browser:Chrome - 62.0.3202.94]	[Action:GetProgramList 10/660]	[Remarks:[{"ID":"1","ProgramIndex":"GST","ProgramName":"GST"}]]
[Date: 2017-11-18 07:43:00]	[UserID:10/660]	[IP:10.128.12.210]	[Browser:Chrome - 62.0.3202.94]	[Action:Making connection to server]	[Remarks:Successful connection to server: S3]
[Date: 2017-11-18 07:43:00]	[UserID:10/660]	[IP:10.128.12.210]	[Browser:Chrome - 62.0.3202.94]	[Action:GetProgramList 10/660]	[Remarks:[{"ID":"1","ProgramIndex":"GST","ProgramName":"GST"}]]
[Date: 2017-11-18 07:43:00]	[UserID:10/660]	[IP:10.128.12.210]	[Browser:Chrome - 62.0.3202.94]	[Action:Making connection to server]	[Remarks:Successful connection to server: S3]
[Date: 2017-11-18 07:43:00]	[UserID:10/660]	[IP:10.128.12.210]	[Browser:Chrome - 62.0.3202.94]	[Action:Filtering User : MasterData Username : 10/660]	[Remarks:Successful filter row count: 1]
[Date: 2017-11-18 07:43:00]	[UserID:10/660]	[IP:10.128.12.210]	[Browser:Chrome - 62.0.3202.94]	[Action:Making connection to server]	[Remarks:Successful connection to server: S3]
[Date: 2017-11-18 07:43:00]	[UserID:10/660]	[IP:10.128.12.210]	[Browser:Chrome - 62.0.3202.94]	[Action:GetGSTModules 10/660,1]	[Remarks:Successful filter row count: 5]
[Date: 2017-11-18 07:43:00]	[UserID:10/660]	[IP:10.128.12.210]	[Browser:Chrome - 62.0.3202.94]	[Action:Closing mssql connection]	[Remarks:Success]
[Date: 2017-11-18 07:45:35]	[UserID:10/660]	[IP:10.128.12.210]	[Browser:Chrome - 62.0.3202.94]	[Action:Making connection to server]	[Remarks:Successful connection to server: S3]
[Date: 2017-11-18 07:45:35]	[UserID:10/660]	[IP:10.128.12.210]	[Browser:Chrome - 62.0.3202.94]	[Action:GetGSTModules 10/660,1]	[Remarks:Successful filter row count: 5]
[Date: 2017-11-18 07:45:35]	[UserID:10/660]	[IP:10.128.12.210]	[Browser:Chrome - 62.0.3202.94]	[Action:Closing mssql connection]	[Remarks:Success]
[Date: 2017-11-18 07:45:52]	[UserID:]	[IP:10.128.12.210]	[Browser:Chrome - 62.0.3202.94]	[Action:Making connection to server]	[Remarks:Successful connection to server: S3]
[Date: 2017-11-18 07:45:52]	[UserID:]	[IP:10.128.12.210]	[Browser:Chrome - 62.0.3202.94]	[Action:GetProgramList ]	[Remarks:"no data"]
