[Date: 2020-07-21 07:58:55]	[UserID:]	[IP:10.128.130.5]	[Browser:Firefox - 78.0]	[Action:Making connection to server]	[Remarks:Successful connection to server: S3]
[Date: 2020-07-21 07:58:55]	[UserID:]	[IP:10.128.130.5]	[Browser:Firefox - 78.0]	[Action:GetProgramList ]	[Remarks:"no data"]
[Date: 2020-07-21 09:58:33]	[UserID:]	[IP:10.128.12.114]	[Browser:Chrome - 84.0.4147.89]	[Action:Making connection to server]	[Remarks:Successful connection to server: S3]
[Date: 2020-07-21 09:58:33]	[UserID:]	[IP:10.128.12.114]	[Browser:Chrome - 84.0.4147.89]	[Action:GetProgramList ]	[Remarks:"no data"]
[Date: 2020-07-21 09:59:27]	[UserID:14/1082]	[IP:10.128.12.114]	[Browser:Chrome - 84.0.4147.89]	[Action:Making connection to server]	[Remarks:Successful connection to server: S3]
[Date: 2020-07-21 09:59:27]	[UserID:14/1082]	[IP:10.128.12.114]	[Browser:Chrome - 84.0.4147.89]	[Action:User 14/1082]	[Remarks:Success]
[Date: 2020-07-21 09:59:27]	[UserID:14/1082]	[IP:10.128.12.114]	[Browser:Chrome - 84.0.4147.89]	[Action:Filtering User : MasterData Username : 14/1082]	[Remarks:Successful filter row count: 0]
[Date: 2020-07-21 09:59:27]	[UserID:14/1082]	[IP:10.128.12.114]	[Browser:Chrome - 84.0.4147.89]	[Action:Filtering User : MasterData Username : 14/1082]	[Remarks:Successful filter row count: 0]
[Date: 2020-07-21 09:59:27]	[UserID:14/1082]	[IP:10.128.12.114]	[Browser:Chrome - 84.0.4147.89]	[Action:Filtering User : MasterData Username : 14/1082]	[Remarks:Success]
[Date: 2020-07-21 09:59:27]	[UserID:14/1082]	[IP:10.128.12.114]	[Browser:Chrome - 84.0.4147.89]	[Action:Closing mssql connection]	[Remarks:Success]
[Date: 2020-07-21 09:59:27]	[UserID:14/1082]	[IP:10.128.12.114]	[Browser:Chrome - 84.0.4147.89]	[Action:Making connection to server]	[Remarks:Successful connection to server: S3]
[Date: 2020-07-21 09:59:27]	[UserID:14/1082]	[IP:10.128.12.114]	[Browser:Chrome - 84.0.4147.89]	[Action:GetProgramList 14/1082]	[Remarks:[{"ID":"1","ProgramIndex":"GST","ProgramName":"GST"}]]
[Date: 2020-07-21 09:59:27]	[UserID:14/1082]	[IP:10.128.12.114]	[Browser:Chrome - 84.0.4147.89]	[Action:Making connection to server]	[Remarks:Successful connection to server: S3]
[Date: 2020-07-21 09:59:27]	[UserID:14/1082]	[IP:10.128.12.114]	[Browser:Chrome - 84.0.4147.89]	[Action:GetProgramList 14/1082]	[Remarks:[{"ID":"1","ProgramIndex":"GST","ProgramName":"GST"}]]
[Date: 2020-07-21 09:59:27]	[UserID:14/1082]	[IP:10.128.12.114]	[Browser:Chrome - 84.0.4147.89]	[Action:Making connection to server]	[Remarks:Successful connection to server: S3]
[Date: 2020-07-21 09:59:27]	[UserID:14/1082]	[IP:10.128.12.114]	[Browser:Chrome - 84.0.4147.89]	[Action:Filtering User : MasterData Username : 14/1082]	[Remarks:Successful filter row count: 1]
[Date: 2020-07-21 09:59:28]	[UserID:14/1082]	[IP:10.128.12.114]	[Browser:Chrome - 84.0.4147.89]	[Action:Making connection to server]	[Remarks:Successful connection to server: S3]
[Date: 2020-07-21 09:59:28]	[UserID:14/1082]	[IP:10.128.12.114]	[Browser:Chrome - 84.0.4147.89]	[Action:GetGSTModules 14/1082,1]	[Remarks:Successful filter row count: 8]
[Date: 2020-07-21 09:59:28]	[UserID:14/1082]	[IP:10.128.12.114]	[Browser:Chrome - 84.0.4147.89]	[Action:Closing mssql connection]	[Remarks:Success]
[Date: 2020-07-21 14:18:04]	[UserID:]	[IP:10.128.130.5]	[Browser:Chrome - 84.0.4147.89]	[Action:Making connection to server]	[Remarks:Successful connection to server: S3]
[Date: 2020-07-21 14:18:04]	[UserID:]	[IP:10.128.130.5]	[Browser:Chrome - 84.0.4147.89]	[Action:GetProgramList ]	[Remarks:"no data"]
[Date: 2020-07-21 14:18:12]	[UserID:06/343]	[IP:10.128.130.5]	[Browser:Chrome - 84.0.4147.89]	[Action:Making connection to server]	[Remarks:Successful connection to server: S3]
[Date: 2020-07-21 14:18:12]	[UserID:06/343]	[IP:10.128.130.5]	[Browser:Chrome - 84.0.4147.89]	[Action:LogMeIn 06/343,VOSS800]	[Remarks:Failed]
[Date: 2020-07-21 14:18:12]	[UserID:06/343]	[IP:10.128.130.5]	[Browser:Chrome - 84.0.4147.89]	[Action:Closing mssql connection]	[Remarks:Success]
[Date: 2020-07-21 14:18:47]	[UserID:06/343]	[IP:10.128.130.5]	[Browser:Chrome - 84.0.4147.89]	[Action:Making connection to server]	[Remarks:Successful connection to server: S3]
[Date: 2020-07-21 14:18:47]	[UserID:06/343]	[IP:10.128.130.5]	[Browser:Chrome - 84.0.4147.89]	[Action:User 06/343]	[Remarks:Success]
[Date: 2020-07-21 14:18:47]	[UserID:06/343]	[IP:10.128.130.5]	[Browser:Chrome - 84.0.4147.89]	[Action:Filtering User : MasterData Username : 06/343]	[Remarks:Successful filter row count: 0]
[Date: 2020-07-21 14:18:47]	[UserID:06/343]	[IP:10.128.130.5]	[Browser:Chrome - 84.0.4147.89]	[Action:Filtering User : MasterData Username : 06/343]	[Remarks:Successful filter row count: 0]
[Date: 2020-07-21 14:18:47]	[UserID:06/343]	[IP:10.128.130.5]	[Browser:Chrome - 84.0.4147.89]	[Action:Filtering User : MasterData Username : 06/343]	[Remarks:Success]
[Date: 2020-07-21 14:18:47]	[UserID:06/343]	[IP:10.128.130.5]	[Browser:Chrome - 84.0.4147.89]	[Action:Closing mssql connection]	[Remarks:Success]
[Date: 2020-07-21 14:18:47]	[UserID:]	[IP:10.128.130.5]	[Browser:Chrome - 84.0.4147.89]	[Action:Making connection to server]	[Remarks:Successful connection to server: S3]
[Date: 2020-07-21 14:18:47]	[UserID:]	[IP:10.128.130.5]	[Browser:Chrome - 84.0.4147.89]	[Action:GetProgramList ]	[Remarks:"no data"]
[Date: 2020-07-21 14:19:00]	[UserID:]	[IP:10.128.130.5]	[Browser:Chrome - 84.0.4147.89]	[Action:Making connection to server]	[Remarks:Successful connection to server: S3]
[Date: 2020-07-21 14:19:00]	[UserID:]	[IP:10.128.130.5]	[Browser:Chrome - 84.0.4147.89]	[Action:GetProgramList ]	[Remarks:"no data"]
[Date: 2020-07-21 14:19:09]	[UserID:06/343]	[IP:10.128.130.5]	[Browser:Chrome - 84.0.4147.89]	[Action:Making connection to server]	[Remarks:Successful connection to server: S3]
[Date: 2020-07-21 14:19:09]	[UserID:06/343]	[IP:10.128.130.5]	[Browser:Chrome - 84.0.4147.89]	[Action:User 06/343]	[Remarks:Success]
[Date: 2020-07-21 14:19:09]	[UserID:06/343]	[IP:10.128.130.5]	[Browser:Chrome - 84.0.4147.89]	[Action:Filtering User : MasterData Username : 06/343]	[Remarks:Successful filter row count: 0]
[Date: 2020-07-21 14:19:09]	[UserID:06/343]	[IP:10.128.130.5]	[Browser:Chrome - 84.0.4147.89]	[Action:Filtering User : MasterData Username : 06/343]	[Remarks:Successful filter row count: 0]
[Date: 2020-07-21 14:19:09]	[UserID:06/343]	[IP:10.128.130.5]	[Browser:Chrome - 84.0.4147.89]	[Action:Filtering User : MasterData Username : 06/343]	[Remarks:Success]
[Date: 2020-07-21 14:19:09]	[UserID:06/343]	[IP:10.128.130.5]	[Browser:Chrome - 84.0.4147.89]	[Action:Closing mssql connection]	[Remarks:Success]
[Date: 2020-07-21 14:19:09]	[UserID:06/343]	[IP:10.128.130.5]	[Browser:Chrome - 84.0.4147.89]	[Action:Making connection to server]	[Remarks:Successful connection to server: S3]
[Date: 2020-07-21 14:19:10]	[UserID:06/343]	[IP:10.128.130.5]	[Browser:Chrome - 84.0.4147.89]	[Action:GetProgramList 06/343]	[Remarks:[{"ID":"1","ProgramIndex":"GST","ProgramName":"GST"}]]
[Date: 2020-07-21 14:19:10]	[UserID:06/343]	[IP:10.128.130.5]	[Browser:Chrome - 84.0.4147.89]	[Action:Making connection to server]	[Remarks:Successful connection to server: S3]
[Date: 2020-07-21 14:19:10]	[UserID:06/343]	[IP:10.128.130.5]	[Browser:Chrome - 84.0.4147.89]	[Action:GetProgramList 06/343]	[Remarks:[{"ID":"1","ProgramIndex":"GST","ProgramName":"GST"}]]
[Date: 2020-07-21 14:19:10]	[UserID:06/343]	[IP:10.128.130.5]	[Browser:Chrome - 84.0.4147.89]	[Action:Making connection to server]	[Remarks:Successful connection to server: S3]
[Date: 2020-07-21 14:19:10]	[UserID:06/343]	[IP:10.128.130.5]	[Browser:Chrome - 84.0.4147.89]	[Action:Filtering User : MasterData Username : 06/343]	[Remarks:Successful filter row count: 1]
[Date: 2020-07-21 14:19:10]	[UserID:06/343]	[IP:10.128.130.5]	[Browser:Chrome - 84.0.4147.89]	[Action:Making connection to server]	[Remarks:Successful connection to server: S3]
[Date: 2020-07-21 14:19:11]	[UserID:06/343]	[IP:10.128.130.5]	[Browser:Chrome - 84.0.4147.89]	[Action:GetGSTModules 06/343,1]	[Remarks:Successful filter row count: 7]
[Date: 2020-07-21 14:19:11]	[UserID:06/343]	[IP:10.128.130.5]	[Browser:Chrome - 84.0.4147.89]	[Action:Closing mssql connection]	[Remarks:Success]
[Date: 2020-07-21 14:21:36]	[UserID:06/343]	[IP:10.128.130.5]	[Browser:Chrome - 84.0.4147.89]	[Action:Making connection to server]	[Remarks:Successful connection to server: S3]
[Date: 2020-07-21 14:21:36]	[UserID:06/343]	[IP:10.128.130.5]	[Browser:Chrome - 84.0.4147.89]	[Action:GetGSTModules 06/343,1]	[Remarks:Successful filter row count: 7]
[Date: 2020-07-21 14:21:36]	[UserID:06/343]	[IP:10.128.130.5]	[Browser:Chrome - 84.0.4147.89]	[Action:Closing mssql connection]	[Remarks:Success]
[Date: 2020-07-21 14:47:15]	[UserID:]	[IP:10.128.12.114]	[Browser:Chrome - 84.0.4147.89]	[Action:Making connection to server]	[Remarks:Successful connection to server: S3]
[Date: 2020-07-21 14:47:15]	[UserID:]	[IP:10.128.12.114]	[Browser:Chrome - 84.0.4147.89]	[Action:GetProgramList ]	[Remarks:"no data"]
[Date: 2020-07-21 14:47:24]	[UserID:14/1082]	[IP:10.128.12.114]	[Browser:Chrome - 84.0.4147.89]	[Action:Making connection to server]	[Remarks:Successful connection to server: S3]
[Date: 2020-07-21 14:47:24]	[UserID:14/1082]	[IP:10.128.12.114]	[Browser:Chrome - 84.0.4147.89]	[Action:User 14/1082]	[Remarks:Success]
[Date: 2020-07-21 14:47:24]	[UserID:14/1082]	[IP:10.128.12.114]	[Browser:Chrome - 84.0.4147.89]	[Action:Filtering User : MasterData Username : 14/1082]	[Remarks:Successful filter row count: 0]
[Date: 2020-07-21 14:47:24]	[UserID:14/1082]	[IP:10.128.12.114]	[Browser:Chrome - 84.0.4147.89]	[Action:Filtering User : MasterData Username : 14/1082]	[Remarks:Successful filter row count: 0]
[Date: 2020-07-21 14:47:24]	[UserID:14/1082]	[IP:10.128.12.114]	[Browser:Chrome - 84.0.4147.89]	[Action:Filtering User : MasterData Username : 14/1082]	[Remarks:Success]
[Date: 2020-07-21 14:47:24]	[UserID:14/1082]	[IP:10.128.12.114]	[Browser:Chrome - 84.0.4147.89]	[Action:Closing mssql connection]	[Remarks:Success]
[Date: 2020-07-21 14:47:24]	[UserID:14/1082]	[IP:10.128.12.114]	[Browser:Chrome - 84.0.4147.89]	[Action:Making connection to server]	[Remarks:Successful connection to server: S3]
[Date: 2020-07-21 14:47:24]	[UserID:14/1082]	[IP:10.128.12.114]	[Browser:Chrome - 84.0.4147.89]	[Action:GetProgramList 14/1082]	[Remarks:[{"ID":"1","ProgramIndex":"GST","ProgramName":"GST"}]]
[Date: 2020-07-21 14:47:24]	[UserID:14/1082]	[IP:10.128.12.114]	[Browser:Chrome - 84.0.4147.89]	[Action:Making connection to server]	[Remarks:Successful connection to server: S3]
[Date: 2020-07-21 14:47:25]	[UserID:14/1082]	[IP:10.128.12.114]	[Browser:Chrome - 84.0.4147.89]	[Action:GetProgramList 14/1082]	[Remarks:[{"ID":"1","ProgramIndex":"GST","ProgramName":"GST"}]]
[Date: 2020-07-21 14:47:25]	[UserID:14/1082]	[IP:10.128.12.114]	[Browser:Chrome - 84.0.4147.89]	[Action:Making connection to server]	[Remarks:Successful connection to server: S3]
[Date: 2020-07-21 14:47:25]	[UserID:14/1082]	[IP:10.128.12.114]	[Browser:Chrome - 84.0.4147.89]	[Action:Filtering User : MasterData Username : 14/1082]	[Remarks:Successful filter row count: 1]
[Date: 2020-07-21 14:47:25]	[UserID:14/1082]	[IP:10.128.12.114]	[Browser:Chrome - 84.0.4147.89]	[Action:Making connection to server]	[Remarks:Successful connection to server: S3]
[Date: 2020-07-21 14:47:25]	[UserID:14/1082]	[IP:10.128.12.114]	[Browser:Chrome - 84.0.4147.89]	[Action:GetGSTModules 14/1082,1]	[Remarks:Successful filter row count: 8]
[Date: 2020-07-21 14:47:25]	[UserID:14/1082]	[IP:10.128.12.114]	[Browser:Chrome - 84.0.4147.89]	[Action:Closing mssql connection]	[Remarks:Success]
[Date: 2020-07-21 15:14:43]	[UserID:14/1082]	[IP:10.128.12.114]	[Browser:Chrome - 84.0.4147.89]	[Action:Making connection to server]	[Remarks:Successful connection to server: S3]
[Date: 2020-07-21 15:14:43]	[UserID:14/1082]	[IP:10.128.12.114]	[Browser:Chrome - 84.0.4147.89]	[Action:GetGSTModules 14/1082,1]	[Remarks:Successful filter row count: 8]
[Date: 2020-07-21 15:14:43]	[UserID:14/1082]	[IP:10.128.12.114]	[Browser:Chrome - 84.0.4147.89]	[Action:Closing mssql connection]	[Remarks:Success]
[Date: 2020-07-21 15:14:46]	[UserID:]	[IP:10.128.12.114]	[Browser:Chrome - 84.0.4147.89]	[Action:Making connection to server]	[Remarks:Successful connection to server: S3]
[Date: 2020-07-21 15:14:46]	[UserID:]	[IP:10.128.12.114]	[Browser:Chrome - 84.0.4147.89]	[Action:GetProgramList ]	[Remarks:"no data"]
[Date: 2020-07-21 15:15:04]	[UserID:]	[IP:10.128.12.114]	[Browser:Chrome - 84.0.4147.89]	[Action:Making connection to server]	[Remarks:Successful connection to server: S3]
[Date: 2020-07-21 15:15:04]	[UserID:]	[IP:10.128.12.114]	[Browser:Chrome - 84.0.4147.89]	[Action:GetProgramList ]	[Remarks:"no data"]
[Date: 2020-07-21 15:15:09]	[UserID:14/1082]	[IP:10.128.12.114]	[Browser:Chrome - 84.0.4147.89]	[Action:Making connection to server]	[Remarks:Successful connection to server: S3]
[Date: 2020-07-21 15:15:09]	[UserID:14/1082]	[IP:10.128.12.114]	[Browser:Chrome - 84.0.4147.89]	[Action:User 14/1082]	[Remarks:Success]
[Date: 2020-07-21 15:15:09]	[UserID:14/1082]	[IP:10.128.12.114]	[Browser:Chrome - 84.0.4147.89]	[Action:Filtering User : MasterData Username : 14/1082]	[Remarks:Successful filter row count: 0]
[Date: 2020-07-21 15:15:09]	[UserID:14/1082]	[IP:10.128.12.114]	[Browser:Chrome - 84.0.4147.89]	[Action:Filtering User : MasterData Username : 14/1082]	[Remarks:Successful filter row count: 0]
[Date: 2020-07-21 15:15:09]	[UserID:14/1082]	[IP:10.128.12.114]	[Browser:Chrome - 84.0.4147.89]	[Action:Filtering User : MasterData Username : 14/1082]	[Remarks:Success]
[Date: 2020-07-21 15:15:09]	[UserID:14/1082]	[IP:10.128.12.114]	[Browser:Chrome - 84.0.4147.89]	[Action:Closing mssql connection]	[Remarks:Success]
[Date: 2020-07-21 15:15:10]	[UserID:14/1082]	[IP:10.128.12.114]	[Browser:Chrome - 84.0.4147.89]	[Action:Making connection to server]	[Remarks:Successful connection to server: S3]
[Date: 2020-07-21 15:15:10]	[UserID:14/1082]	[IP:10.128.12.114]	[Browser:Chrome - 84.0.4147.89]	[Action:GetProgramList 14/1082]	[Remarks:[{"ID":"1","ProgramIndex":"GST","ProgramName":"GST"}]]
[Date: 2020-07-21 15:15:10]	[UserID:14/1082]	[IP:10.128.12.114]	[Browser:Chrome - 84.0.4147.89]	[Action:Making connection to server]	[Remarks:Successful connection to server: S3]
[Date: 2020-07-21 15:15:10]	[UserID:14/1082]	[IP:10.128.12.114]	[Browser:Chrome - 84.0.4147.89]	[Action:GetProgramList 14/1082]	[Remarks:[{"ID":"1","ProgramIndex":"GST","ProgramName":"GST"}]]
[Date: 2020-07-21 15:15:10]	[UserID:14/1082]	[IP:10.128.12.114]	[Browser:Chrome - 84.0.4147.89]	[Action:Making connection to server]	[Remarks:Successful connection to server: S3]
[Date: 2020-07-21 15:15:10]	[UserID:14/1082]	[IP:10.128.12.114]	[Browser:Chrome - 84.0.4147.89]	[Action:Filtering User : MasterData Username : 14/1082]	[Remarks:Successful filter row count: 1]
[Date: 2020-07-21 15:15:10]	[UserID:14/1082]	[IP:10.128.12.114]	[Browser:Chrome - 84.0.4147.89]	[Action:Making connection to server]	[Remarks:Successful connection to server: S3]
[Date: 2020-07-21 15:15:10]	[UserID:14/1082]	[IP:10.128.12.114]	[Browser:Chrome - 84.0.4147.89]	[Action:GetGSTModules 14/1082,1]	[Remarks:Successful filter row count: 8]
[Date: 2020-07-21 15:15:10]	[UserID:14/1082]	[IP:10.128.12.114]	[Browser:Chrome - 84.0.4147.89]	[Action:Closing mssql connection]	[Remarks:Success]
[Date: 2020-07-21 15:26:29]	[UserID:14/1082]	[IP:10.128.12.114]	[Browser:Chrome - 84.0.4147.89]	[Action:Making connection to server]	[Remarks:Successful connection to server: S3]
[Date: 2020-07-21 15:26:29]	[UserID:14/1082]	[IP:10.128.12.114]	[Browser:Chrome - 84.0.4147.89]	[Action:GetGSTModules 14/1082,1]	[Remarks:Successful filter row count: 8]
[Date: 2020-07-21 15:26:29]	[UserID:14/1082]	[IP:10.128.12.114]	[Browser:Chrome - 84.0.4147.89]	[Action:Closing mssql connection]	[Remarks:Success]
[Date: 2020-07-21 15:37:22]	[UserID:]	[IP:10.128.12.114]	[Browser:Chrome - 84.0.4147.89]	[Action:Making connection to server]	[Remarks:Successful connection to server: S3]
[Date: 2020-07-21 15:37:22]	[UserID:]	[IP:10.128.12.114]	[Browser:Chrome - 84.0.4147.89]	[Action:GetProgramList ]	[Remarks:"no data"]
[Date: 2020-07-21 15:44:05]	[UserID:]	[IP:10.128.12.114]	[Browser:Chrome - 84.0.4147.89]	[Action:Making connection to server]	[Remarks:Successful connection to server: S3]
[Date: 2020-07-21 15:44:06]	[UserID:]	[IP:10.128.12.114]	[Browser:Chrome - 84.0.4147.89]	[Action:GetProgramList ]	[Remarks:"no data"]
[Date: 2020-07-21 15:44:10]	[UserID:14/1082]	[IP:10.128.12.114]	[Browser:Chrome - 84.0.4147.89]	[Action:Making connection to server]	[Remarks:Successful connection to server: S3]
[Date: 2020-07-21 15:44:10]	[UserID:14/1082]	[IP:10.128.12.114]	[Browser:Chrome - 84.0.4147.89]	[Action:User 14/1082]	[Remarks:Success]
[Date: 2020-07-21 15:44:10]	[UserID:14/1082]	[IP:10.128.12.114]	[Browser:Chrome - 84.0.4147.89]	[Action:Filtering User : MasterData Username : 14/1082]	[Remarks:Successful filter row count: 0]
[Date: 2020-07-21 15:44:10]	[UserID:14/1082]	[IP:10.128.12.114]	[Browser:Chrome - 84.0.4147.89]	[Action:Filtering User : MasterData Username : 14/1082]	[Remarks:Successful filter row count: 0]
[Date: 2020-07-21 15:44:10]	[UserID:14/1082]	[IP:10.128.12.114]	[Browser:Chrome - 84.0.4147.89]	[Action:Filtering User : MasterData Username : 14/1082]	[Remarks:Success]
[Date: 2020-07-21 15:44:10]	[UserID:14/1082]	[IP:10.128.12.114]	[Browser:Chrome - 84.0.4147.89]	[Action:Closing mssql connection]	[Remarks:Success]
[Date: 2020-07-21 15:44:10]	[UserID:14/1082]	[IP:10.128.12.114]	[Browser:Chrome - 84.0.4147.89]	[Action:Making connection to server]	[Remarks:Successful connection to server: S3]
[Date: 2020-07-21 15:44:10]	[UserID:14/1082]	[IP:10.128.12.114]	[Browser:Chrome - 84.0.4147.89]	[Action:GetProgramList 14/1082]	[Remarks:[{"ID":"1","ProgramIndex":"GST","ProgramName":"GST"}]]
[Date: 2020-07-21 15:44:10]	[UserID:14/1082]	[IP:10.128.12.114]	[Browser:Chrome - 84.0.4147.89]	[Action:Making connection to server]	[Remarks:Successful connection to server: S3]
[Date: 2020-07-21 15:44:10]	[UserID:14/1082]	[IP:10.128.12.114]	[Browser:Chrome - 84.0.4147.89]	[Action:GetProgramList 14/1082]	[Remarks:[{"ID":"1","ProgramIndex":"GST","ProgramName":"GST"}]]
[Date: 2020-07-21 15:44:10]	[UserID:14/1082]	[IP:10.128.12.114]	[Browser:Chrome - 84.0.4147.89]	[Action:Making connection to server]	[Remarks:Successful connection to server: S3]
[Date: 2020-07-21 15:44:10]	[UserID:14/1082]	[IP:10.128.12.114]	[Browser:Chrome - 84.0.4147.89]	[Action:Filtering User : MasterData Username : 14/1082]	[Remarks:Successful filter row count: 1]
[Date: 2020-07-21 15:44:11]	[UserID:14/1082]	[IP:10.128.12.114]	[Browser:Chrome - 84.0.4147.89]	[Action:Making connection to server]	[Remarks:Successful connection to server: S3]
[Date: 2020-07-21 15:44:11]	[UserID:14/1082]	[IP:10.128.12.114]	[Browser:Chrome - 84.0.4147.89]	[Action:GetGSTModules 14/1082,1]	[Remarks:Successful filter row count: 8]
[Date: 2020-07-21 15:44:11]	[UserID:14/1082]	[IP:10.128.12.114]	[Browser:Chrome - 84.0.4147.89]	[Action:Closing mssql connection]	[Remarks:Success]
[Date: 2020-07-21 16:15:33]	[UserID:14/1082]	[IP:10.128.12.114]	[Browser:Chrome - 84.0.4147.89]	[Action:Making connection to server]	[Remarks:Successful connection to server: S3]
[Date: 2020-07-21 16:15:33]	[UserID:14/1082]	[IP:10.128.12.114]	[Browser:Chrome - 84.0.4147.89]	[Action:GetGSTModules 14/1082,1]	[Remarks:Successful filter row count: 8]
[Date: 2020-07-21 16:15:33]	[UserID:14/1082]	[IP:10.128.12.114]	[Browser:Chrome - 84.0.4147.89]	[Action:Closing mssql connection]	[Remarks:Success]
[Date: 2020-07-21 16:20:16]	[UserID:14/1082]	[IP:10.128.12.114]	[Browser:Chrome - 84.0.4147.89]	[Action:Making connection to server]	[Remarks:Successful connection to server: S3]
[Date: 2020-07-21 16:20:16]	[UserID:14/1082]	[IP:10.128.12.114]	[Browser:Chrome - 84.0.4147.89]	[Action:GetProgramList 14/1082]	[Remarks:[{"ID":"1","ProgramIndex":"GST","ProgramName":"GST"}]]
[Date: 2020-07-21 16:20:16]	[UserID:14/1082]	[IP:10.128.12.114]	[Browser:Chrome - 84.0.4147.89]	[Action:Making connection to server]	[Remarks:Successful connection to server: S3]
[Date: 2020-07-21 16:20:16]	[UserID:14/1082]	[IP:10.128.12.114]	[Browser:Chrome - 84.0.4147.89]	[Action:GetProgramList 14/1082]	[Remarks:[{"ID":"1","ProgramIndex":"GST","ProgramName":"GST"}]]
[Date: 2020-07-21 16:20:16]	[UserID:14/1082]	[IP:10.128.12.114]	[Browser:Chrome - 84.0.4147.89]	[Action:Making connection to server]	[Remarks:Successful connection to server: S3]
[Date: 2020-07-21 16:20:16]	[UserID:14/1082]	[IP:10.128.12.114]	[Browser:Chrome - 84.0.4147.89]	[Action:Filtering User : MasterData Username : 14/1082]	[Remarks:Successful filter row count: 1]
[Date: 2020-07-21 16:20:16]	[UserID:14/1082]	[IP:10.128.12.114]	[Browser:Chrome - 84.0.4147.89]	[Action:Making connection to server]	[Remarks:Successful connection to server: S3]
[Date: 2020-07-21 16:20:16]	[UserID:14/1082]	[IP:10.128.12.114]	[Browser:Chrome - 84.0.4147.89]	[Action:GetGSTModules 14/1082,1]	[Remarks:Successful filter row count: 8]
[Date: 2020-07-21 16:20:17]	[UserID:14/1082]	[IP:10.128.12.114]	[Browser:Chrome - 84.0.4147.89]	[Action:Closing mssql connection]	[Remarks:Success]
[Date: 2020-07-21 16:20:24]	[UserID:]	[IP:10.128.12.114]	[Browser:Chrome - 84.0.4147.89]	[Action:Making connection to server]	[Remarks:Successful connection to server: S3]
[Date: 2020-07-21 16:20:24]	[UserID:]	[IP:10.128.12.114]	[Browser:Chrome - 84.0.4147.89]	[Action:GetProgramList ]	[Remarks:"no data"]
[Date: 2020-07-21 16:23:27]	[UserID:]	[IP:10.128.12.114]	[Browser:Chrome - 84.0.4147.89]	[Action:Making connection to server]	[Remarks:Successful connection to server: S3]
[Date: 2020-07-21 16:23:27]	[UserID:]	[IP:10.128.12.114]	[Browser:Chrome - 84.0.4147.89]	[Action:GetProgramList ]	[Remarks:"no data"]
[Date: 2020-07-21 16:24:49]	[UserID:]	[IP:10.128.12.114]	[Browser:Chrome - 84.0.4147.89]	[Action:Making connection to server]	[Remarks:Successful connection to server: S3]
[Date: 2020-07-21 16:24:49]	[UserID:]	[IP:10.128.12.114]	[Browser:Chrome - 84.0.4147.89]	[Action:GetProgramList ]	[Remarks:"no data"]
[Date: 2020-07-21 16:24:55]	[UserID:14/1082]	[IP:10.128.12.114]	[Browser:Chrome - 84.0.4147.89]	[Action:Making connection to server]	[Remarks:Successful connection to server: S3]
[Date: 2020-07-21 16:24:55]	[UserID:14/1082]	[IP:10.128.12.114]	[Browser:Chrome - 84.0.4147.89]	[Action:User 14/1082]	[Remarks:Success]
[Date: 2020-07-21 16:24:55]	[UserID:14/1082]	[IP:10.128.12.114]	[Browser:Chrome - 84.0.4147.89]	[Action:Filtering User : MasterData Username : 14/1082]	[Remarks:Successful filter row count: 0]
[Date: 2020-07-21 16:24:55]	[UserID:14/1082]	[IP:10.128.12.114]	[Browser:Chrome - 84.0.4147.89]	[Action:Filtering User : MasterData Username : 14/1082]	[Remarks:Successful filter row count: 0]
[Date: 2020-07-21 16:24:55]	[UserID:14/1082]	[IP:10.128.12.114]	[Browser:Chrome - 84.0.4147.89]	[Action:Filtering User : MasterData Username : 14/1082]	[Remarks:Success]
[Date: 2020-07-21 16:24:55]	[UserID:14/1082]	[IP:10.128.12.114]	[Browser:Chrome - 84.0.4147.89]	[Action:Closing mssql connection]	[Remarks:Success]
[Date: 2020-07-21 16:24:55]	[UserID:14/1082]	[IP:10.128.12.114]	[Browser:Chrome - 84.0.4147.89]	[Action:Making connection to server]	[Remarks:Successful connection to server: S3]
[Date: 2020-07-21 16:24:55]	[UserID:14/1082]	[IP:10.128.12.114]	[Browser:Chrome - 84.0.4147.89]	[Action:GetProgramList 14/1082]	[Remarks:[{"ID":"1","ProgramIndex":"GST","ProgramName":"GST"}]]
[Date: 2020-07-21 16:24:55]	[UserID:14/1082]	[IP:10.128.12.114]	[Browser:Chrome - 84.0.4147.89]	[Action:Making connection to server]	[Remarks:Successful connection to server: S3]
[Date: 2020-07-21 16:24:55]	[UserID:14/1082]	[IP:10.128.12.114]	[Browser:Chrome - 84.0.4147.89]	[Action:GetProgramList 14/1082]	[Remarks:[{"ID":"1","ProgramIndex":"GST","ProgramName":"GST"}]]
[Date: 2020-07-21 16:24:55]	[UserID:14/1082]	[IP:10.128.12.114]	[Browser:Chrome - 84.0.4147.89]	[Action:Making connection to server]	[Remarks:Successful connection to server: S3]
[Date: 2020-07-21 16:24:55]	[UserID:14/1082]	[IP:10.128.12.114]	[Browser:Chrome - 84.0.4147.89]	[Action:Filtering User : MasterData Username : 14/1082]	[Remarks:Successful filter row count: 1]
[Date: 2020-07-21 16:24:56]	[UserID:14/1082]	[IP:10.128.12.114]	[Browser:Chrome - 84.0.4147.89]	[Action:Making connection to server]	[Remarks:Successful connection to server: S3]
[Date: 2020-07-21 16:24:56]	[UserID:14/1082]	[IP:10.128.12.114]	[Browser:Chrome - 84.0.4147.89]	[Action:GetGSTModules 14/1082,1]	[Remarks:Successful filter row count: 8]
[Date: 2020-07-21 16:24:56]	[UserID:14/1082]	[IP:10.128.12.114]	[Browser:Chrome - 84.0.4147.89]	[Action:Closing mssql connection]	[Remarks:Success]
[Date: 2020-07-21 17:05:47]	[UserID:]	[IP:10.128.12.114]	[Browser:Chrome - 84.0.4147.89]	[Action:Making connection to server]	[Remarks:Successful connection to server: S3]
[Date: 2020-07-21 17:05:47]	[UserID:]	[IP:10.128.12.114]	[Browser:Chrome - 84.0.4147.89]	[Action:GetProgramList ]	[Remarks:"no data"]
[Date: 2020-07-21 17:57:22]	[UserID:]	[IP:10.128.130.5]	[Browser:Firefox - 78.0]	[Action:Making connection to server]	[Remarks:Successful connection to server: S3]
[Date: 2020-07-21 17:57:23]	[UserID:]	[IP:10.128.130.5]	[Browser:Firefox - 78.0]	[Action:GetProgramList ]	[Remarks:"no data"]
[Date: 2020-07-21 23:35:07]	[UserID:]	[IP:10.128.130.5]	[Browser:Chrome - 84.0.4147.89]	[Action:Making connection to server]	[Remarks:Successful connection to server: S3]
[Date: 2020-07-21 23:35:07]	[UserID:]	[IP:10.128.130.5]	[Browser:Chrome - 84.0.4147.89]	[Action:GetProgramList ]	[Remarks:"no data"]
