[Date: 2014-10-29 11:38:18]	[UserID:]	[IP:10.10.11.1]	[Browser:Chrome - 38.0.2125.111]	[Action:Making connection to server]	[Remarks:Successful connection to server: S3]
[Date: 2014-10-29 11:38:18]	[UserID:]	[IP:10.10.11.1]	[Browser:Chrome - 38.0.2125.111]	[Action:GetProgramList ]	[Remarks:"no data"]
[Date: 2014-10-29 11:38:22]	[UserID:andrew]	[IP:10.10.11.1]	[Browser:Chrome - 38.0.2125.111]	[Action:Making connection to server]	[Remarks:Successful connection to server: S3]
[Date: 2014-10-29 11:38:22]	[UserID:andrew]	[IP:10.10.11.1]	[Browser:Chrome - 38.0.2125.111]	[Action:User andrew]	[Remarks:Success]
[Date: 2014-10-29 11:38:22]	[UserID:andrew]	[IP:10.10.11.1]	[Browser:Chrome - 38.0.2125.111]	[Action:Filtering User : MasterData Username : andrew]	[Remarks:Successful filter row count: 0]
[Date: 2014-10-29 11:38:22]	[UserID:andrew]	[IP:10.10.11.1]	[Browser:Chrome - 38.0.2125.111]	[Action:Filtering User : MasterData Username : andrew]	[Remarks:Successful filter row count: 0]
[Date: 2014-10-29 11:38:22]	[UserID:andrew]	[IP:10.10.11.1]	[Browser:Chrome - 38.0.2125.111]	[Action:Filtering User : MasterData Username : andrew]	[Remarks:Success]
[Date: 2014-10-29 11:38:22]	[UserID:andrew]	[IP:10.10.11.1]	[Browser:Chrome - 38.0.2125.111]	[Action:Closing mssql connection]	[Remarks:Success]
[Date: 2014-10-29 11:38:22]	[UserID:andrew]	[IP:10.10.11.1]	[Browser:Chrome - 38.0.2125.111]	[Action:Making connection to server]	[Remarks:Successful connection to server: S3]
[Date: 2014-10-29 11:38:22]	[UserID:andrew]	[IP:10.10.11.1]	[Browser:Chrome - 38.0.2125.111]	[Action:GetProgramList andrew]	[Remarks:[{"ID":"1","ProgramIndex":"GST","ProgramName":"GST"}]]
[Date: 2014-10-29 11:38:22]	[UserID:andrew]	[IP:10.10.11.1]	[Browser:Chrome - 38.0.2125.111]	[Action:Making connection to server]	[Remarks:Successful connection to server: S3]
[Date: 2014-10-29 11:38:22]	[UserID:andrew]	[IP:10.10.11.1]	[Browser:Chrome - 38.0.2125.111]	[Action:GetProgramList andrew]	[Remarks:[{"ID":"1","ProgramIndex":"GST","ProgramName":"GST"}]]
[Date: 2014-10-29 11:38:22]	[UserID:andrew]	[IP:10.10.11.1]	[Browser:Chrome - 38.0.2125.111]	[Action:Making connection to server]	[Remarks:Successful connection to server: S3]
[Date: 2014-10-29 11:38:22]	[UserID:andrew]	[IP:10.10.11.1]	[Browser:Chrome - 38.0.2125.111]	[Action:Filtering User : MasterData Username : andrew]	[Remarks:Successful filter row count: 1]
[Date: 2014-10-29 11:38:23]	[UserID:andrew]	[IP:10.10.11.1]	[Browser:Chrome - 38.0.2125.111]	[Action:Making connection to server]	[Remarks:Successful connection to server: S3]
[Date: 2014-10-29 11:38:23]	[UserID:andrew]	[IP:10.10.11.1]	[Browser:Chrome - 38.0.2125.111]	[Action:GetGSTModules andrew,1]	[Remarks:Successful filter row count: 5]
[Date: 2014-10-29 11:38:23]	[UserID:andrew]	[IP:10.10.11.1]	[Browser:Chrome - 38.0.2125.111]	[Action:Closing mssql connection]	[Remarks:Success]
[Date: 2014-10-29 11:38:44]	[UserID:andrew]	[IP:10.10.11.1]	[Browser:Chrome - 38.0.2125.111]	[Action:Making connection to server]	[Remarks:Successful connection to server: S3]
[Date: 2014-10-29 11:38:44]	[UserID:andrew]	[IP:10.10.11.1]	[Browser:Chrome - 38.0.2125.111]	[Action:GetGSTModules andrew,1]	[Remarks:Successful filter row count: 5]
[Date: 2014-10-29 11:38:44]	[UserID:andrew]	[IP:10.10.11.1]	[Browser:Chrome - 38.0.2125.111]	[Action:Closing mssql connection]	[Remarks:Success]
[Date: 2014-10-29 11:38:49]	[UserID:andrew]	[IP:10.10.11.1]	[Browser:Chrome - 38.0.2125.111]	[Action:Making connection to server]	[Remarks:Successful connection to server: S3]
[Date: 2014-10-29 11:38:49]	[UserID:andrew]	[IP:10.10.11.1]	[Browser:Chrome - 38.0.2125.111]	[Action:GetGSTModules andrew,1]	[Remarks:Successful filter row count: 5]
[Date: 2014-10-29 11:38:49]	[UserID:andrew]	[IP:10.10.11.1]	[Browser:Chrome - 38.0.2125.111]	[Action:Closing mssql connection]	[Remarks:Success]
[Date: 2014-10-29 11:40:26]	[UserID:andrew]	[IP:10.10.11.1]	[Browser:Chrome - 38.0.2125.111]	[Action:Making connection to server]	[Remarks:Successful connection to server: S3]
[Date: 2014-10-29 11:40:26]	[UserID:andrew]	[IP:10.10.11.1]	[Browser:Chrome - 38.0.2125.111]	[Action:GetProgramList andrew]	[Remarks:[{"ID":"1","ProgramIndex":"GST","ProgramName":"GST"}]]
[Date: 2014-10-29 11:40:26]	[UserID:andrew]	[IP:10.10.11.1]	[Browser:Chrome - 38.0.2125.111]	[Action:Making connection to server]	[Remarks:Successful connection to server: S3]
[Date: 2014-10-29 11:40:26]	[UserID:andrew]	[IP:10.10.11.1]	[Browser:Chrome - 38.0.2125.111]	[Action:GetProgramList andrew]	[Remarks:[{"ID":"1","ProgramIndex":"GST","ProgramName":"GST"}]]
[Date: 2014-10-29 11:40:26]	[UserID:andrew]	[IP:10.10.11.1]	[Browser:Chrome - 38.0.2125.111]	[Action:Making connection to server]	[Remarks:Successful connection to server: S3]
[Date: 2014-10-29 11:40:26]	[UserID:andrew]	[IP:10.10.11.1]	[Browser:Chrome - 38.0.2125.111]	[Action:Filtering User : MasterData Username : andrew]	[Remarks:Successful filter row count: 1]
[Date: 2014-10-29 11:40:27]	[UserID:andrew]	[IP:10.10.11.1]	[Browser:Chrome - 38.0.2125.111]	[Action:Making connection to server]	[Remarks:Successful connection to server: S3]
[Date: 2014-10-29 11:40:27]	[UserID:andrew]	[IP:10.10.11.1]	[Browser:Chrome - 38.0.2125.111]	[Action:GetGSTModules andrew,1]	[Remarks:Successful filter row count: 5]
[Date: 2014-10-29 11:40:27]	[UserID:andrew]	[IP:10.10.11.1]	[Browser:Chrome - 38.0.2125.111]	[Action:Closing mssql connection]	[Remarks:Success]
