[Date: 2016-03-31 07:47:52]	[UserID:]	[IP:10.10.11.1]	[Browser:Chrome - 49.0.2623.87]	[Action:Making connection to server]	[Remarks:Successful connection to server: S3]
[Date: 2016-03-31 07:47:52]	[UserID:]	[IP:10.10.11.1]	[Browser:Chrome - 49.0.2623.87]	[Action:GetProgramList ]	[Remarks:"no data"]
[Date: 2016-03-31 08:13:36]	[UserID:06/343]	[IP:10.10.11.1]	[Browser:Chrome - 49.0.2623.87]	[Action:Making connection to server]	[Remarks:Successful connection to server: S3]
[Date: 2016-03-31 08:13:36]	[UserID:06/343]	[IP:10.10.11.1]	[Browser:Chrome - 49.0.2623.87]	[Action:User 06/343]	[Remarks:Success]
[Date: 2016-03-31 08:13:36]	[UserID:06/343]	[IP:10.10.11.1]	[Browser:Chrome - 49.0.2623.87]	[Action:Filtering User : MasterData Username : 06/343]	[Remarks:Successful filter row count: 0]
[Date: 2016-03-31 08:13:36]	[UserID:06/343]	[IP:10.10.11.1]	[Browser:Chrome - 49.0.2623.87]	[Action:Filtering User : MasterData Username : 06/343]	[Remarks:Successful filter row count: 0]
[Date: 2016-03-31 08:13:36]	[UserID:06/343]	[IP:10.10.11.1]	[Browser:Chrome - 49.0.2623.87]	[Action:Filtering User : MasterData Username : 06/343]	[Remarks:Success]
[Date: 2016-03-31 08:13:36]	[UserID:06/343]	[IP:10.10.11.1]	[Browser:Chrome - 49.0.2623.87]	[Action:Closing mssql connection]	[Remarks:Success]
[Date: 2016-03-31 08:13:36]	[UserID:06/343]	[IP:10.10.11.1]	[Browser:Chrome - 49.0.2623.87]	[Action:Making connection to server]	[Remarks:Successful connection to server: S3]
[Date: 2016-03-31 08:13:36]	[UserID:06/343]	[IP:10.10.11.1]	[Browser:Chrome - 49.0.2623.87]	[Action:GetProgramList 06/343]	[Remarks:[{"ID":"1","ProgramIndex":"GST","ProgramName":"GST"}]]
[Date: 2016-03-31 08:13:36]	[UserID:06/343]	[IP:10.10.11.1]	[Browser:Chrome - 49.0.2623.87]	[Action:Making connection to server]	[Remarks:Successful connection to server: S3]
[Date: 2016-03-31 08:13:36]	[UserID:06/343]	[IP:10.10.11.1]	[Browser:Chrome - 49.0.2623.87]	[Action:GetProgramList 06/343]	[Remarks:[{"ID":"1","ProgramIndex":"GST","ProgramName":"GST"}]]
[Date: 2016-03-31 08:13:36]	[UserID:06/343]	[IP:10.10.11.1]	[Browser:Chrome - 49.0.2623.87]	[Action:Making connection to server]	[Remarks:Successful connection to server: S3]
[Date: 2016-03-31 08:13:36]	[UserID:06/343]	[IP:10.10.11.1]	[Browser:Chrome - 49.0.2623.87]	[Action:Filtering User : MasterData Username : 06/343]	[Remarks:Successful filter row count: 1]
[Date: 2016-03-31 08:13:37]	[UserID:06/343]	[IP:10.10.11.1]	[Browser:Chrome - 49.0.2623.87]	[Action:Making connection to server]	[Remarks:Successful connection to server: S3]
[Date: 2016-03-31 08:13:37]	[UserID:06/343]	[IP:10.10.11.1]	[Browser:Chrome - 49.0.2623.87]	[Action:GetGSTModules 06/343,1]	[Remarks:Successful filter row count: 5]
[Date: 2016-03-31 08:13:37]	[UserID:06/343]	[IP:10.10.11.1]	[Browser:Chrome - 49.0.2623.87]	[Action:Closing mssql connection]	[Remarks:Success]
[Date: 2016-03-31 08:15:57]	[UserID:06/343]	[IP:10.10.11.1]	[Browser:Chrome - 49.0.2623.87]	[Action:Making connection to server]	[Remarks:Successful connection to server: S3]
[Date: 2016-03-31 08:15:57]	[UserID:06/343]	[IP:10.10.11.1]	[Browser:Chrome - 49.0.2623.87]	[Action:GetGSTModules 06/343,1]	[Remarks:Successful filter row count: 5]
[Date: 2016-03-31 08:15:57]	[UserID:06/343]	[IP:10.10.11.1]	[Browser:Chrome - 49.0.2623.87]	[Action:Closing mssql connection]	[Remarks:Success]
[Date: 2016-03-31 08:44:46]	[UserID:]	[IP:10.10.11.1]	[Browser:Chrome - 49.0.2623.87]	[Action:Making connection to server]	[Remarks:Successful connection to server: S3]
[Date: 2016-03-31 08:44:47]	[UserID:]	[IP:10.10.11.1]	[Browser:Chrome - 49.0.2623.87]	[Action:GetProgramList ]	[Remarks:"no data"]
[Date: 2016-03-31 08:44:50]	[UserID:08/504]	[IP:10.10.11.1]	[Browser:Chrome - 49.0.2623.87]	[Action:Making connection to server]	[Remarks:Successful connection to server: S3]
[Date: 2016-03-31 08:44:50]	[UserID:08/504]	[IP:10.10.11.1]	[Browser:Chrome - 49.0.2623.87]	[Action:User 08/504]	[Remarks:Success]
[Date: 2016-03-31 08:44:50]	[UserID:08/504]	[IP:10.10.11.1]	[Browser:Chrome - 49.0.2623.87]	[Action:Filtering User : MasterData Username : 08/504]	[Remarks:Successful filter row count: 0]
[Date: 2016-03-31 08:44:50]	[UserID:08/504]	[IP:10.10.11.1]	[Browser:Chrome - 49.0.2623.87]	[Action:Filtering User : MasterData Username : 08/504]	[Remarks:Successful filter row count: 0]
[Date: 2016-03-31 08:44:50]	[UserID:08/504]	[IP:10.10.11.1]	[Browser:Chrome - 49.0.2623.87]	[Action:Filtering User : MasterData Username : 08/504]	[Remarks:Success]
[Date: 2016-03-31 08:44:50]	[UserID:08/504]	[IP:10.10.11.1]	[Browser:Chrome - 49.0.2623.87]	[Action:Closing mssql connection]	[Remarks:Success]
[Date: 2016-03-31 08:44:50]	[UserID:08/504]	[IP:10.10.11.1]	[Browser:Chrome - 49.0.2623.87]	[Action:Making connection to server]	[Remarks:Successful connection to server: S3]
[Date: 2016-03-31 08:44:51]	[UserID:08/504]	[IP:10.10.11.1]	[Browser:Chrome - 49.0.2623.87]	[Action:GetProgramList 08/504]	[Remarks:[{"ID":"1","ProgramIndex":"GST","ProgramName":"GST"}]]
[Date: 2016-03-31 08:44:51]	[UserID:08/504]	[IP:10.10.11.1]	[Browser:Chrome - 49.0.2623.87]	[Action:Making connection to server]	[Remarks:Successful connection to server: S3]
[Date: 2016-03-31 08:44:51]	[UserID:08/504]	[IP:10.10.11.1]	[Browser:Chrome - 49.0.2623.87]	[Action:GetProgramList 08/504]	[Remarks:[{"ID":"1","ProgramIndex":"GST","ProgramName":"GST"}]]
[Date: 2016-03-31 08:44:51]	[UserID:08/504]	[IP:10.10.11.1]	[Browser:Chrome - 49.0.2623.87]	[Action:Making connection to server]	[Remarks:Successful connection to server: S3]
[Date: 2016-03-31 08:44:51]	[UserID:08/504]	[IP:10.10.11.1]	[Browser:Chrome - 49.0.2623.87]	[Action:Filtering User : MasterData Username : 08/504]	[Remarks:Successful filter row count: 1]
[Date: 2016-03-31 08:44:51]	[UserID:08/504]	[IP:10.10.11.1]	[Browser:Chrome - 49.0.2623.87]	[Action:Making connection to server]	[Remarks:Successful connection to server: S3]
[Date: 2016-03-31 08:44:51]	[UserID:08/504]	[IP:10.10.11.1]	[Browser:Chrome - 49.0.2623.87]	[Action:GetGSTModules 08/504,1]	[Remarks:Successful filter row count: 5]
[Date: 2016-03-31 08:44:51]	[UserID:08/504]	[IP:10.10.11.1]	[Browser:Chrome - 49.0.2623.87]	[Action:Closing mssql connection]	[Remarks:Success]
[Date: 2016-03-31 08:50:41]	[UserID:08/504]	[IP:10.10.11.1]	[Browser:Chrome - 49.0.2623.87]	[Action:Making connection to server]	[Remarks:Successful connection to server: S3]
[Date: 2016-03-31 08:50:41]	[UserID:08/504]	[IP:10.10.11.1]	[Browser:Chrome - 49.0.2623.87]	[Action:GetGSTModules 08/504,1]	[Remarks:Successful filter row count: 5]
[Date: 2016-03-31 08:50:43]	[UserID:08/504]	[IP:10.10.11.1]	[Browser:Chrome - 49.0.2623.87]	[Action:Closing mssql connection]	[Remarks:Success]
[Date: 2016-03-31 08:51:20]	[UserID:08/504]	[IP:10.10.11.1]	[Browser:Chrome - 49.0.2623.87]	[Action:Making connection to server]	[Remarks:Successful connection to server: S3]
[Date: 2016-03-31 08:51:30]	[UserID:08/504]	[IP:10.10.11.1]	[Browser:Chrome - 49.0.2623.87]	[Action:GetGSTModules 08/504,1]	[Remarks:Successful filter row count: 5]
[Date: 2016-03-31 08:51:30]	[UserID:08/504]	[IP:10.10.11.1]	[Browser:Chrome - 49.0.2623.87]	[Action:Closing mssql connection]	[Remarks:Success]
[Date: 2016-03-31 08:56:32]	[UserID:08/504]	[IP:10.10.11.1]	[Browser:Chrome - 49.0.2623.87]	[Action:Making connection to server]	[Remarks:Successful connection to server: S3]
[Date: 2016-03-31 08:56:32]	[UserID:08/504]	[IP:10.10.11.1]	[Browser:Chrome - 49.0.2623.87]	[Action:GetGSTModules 08/504,1]	[Remarks:Successful filter row count: 5]
[Date: 2016-03-31 08:56:32]	[UserID:08/504]	[IP:10.10.11.1]	[Browser:Chrome - 49.0.2623.87]	[Action:Closing mssql connection]	[Remarks:Success]
[Date: 2016-03-31 08:56:59]	[UserID:08/504]	[IP:10.10.11.1]	[Browser:Chrome - 49.0.2623.87]	[Action:Making connection to server]	[Remarks:Successful connection to server: S3]
[Date: 2016-03-31 08:56:59]	[UserID:08/504]	[IP:10.10.11.1]	[Browser:Chrome - 49.0.2623.87]	[Action:GetGSTModules 08/504,1]	[Remarks:Successful filter row count: 5]
[Date: 2016-03-31 08:56:59]	[UserID:08/504]	[IP:10.10.11.1]	[Browser:Chrome - 49.0.2623.87]	[Action:Closing mssql connection]	[Remarks:Success]
[Date: 2016-03-31 09:26:39]	[UserID:08/504]	[IP:10.10.11.1]	[Browser:Chrome - 49.0.2623.87]	[Action:Making connection to server]	[Remarks:Successful connection to server: S3]
[Date: 2016-03-31 09:26:40]	[UserID:08/504]	[IP:10.10.11.1]	[Browser:Chrome - 49.0.2623.87]	[Action:GetGSTModules 08/504,1]	[Remarks:Successful filter row count: 5]
[Date: 2016-03-31 09:26:40]	[UserID:08/504]	[IP:10.10.11.1]	[Browser:Chrome - 49.0.2623.87]	[Action:Closing mssql connection]	[Remarks:Success]
[Date: 2016-03-31 09:26:57]	[UserID:08/504]	[IP:10.10.11.1]	[Browser:Chrome - 49.0.2623.87]	[Action:Making connection to server]	[Remarks:Successful connection to server: S3]
[Date: 2016-03-31 09:26:57]	[UserID:08/504]	[IP:10.10.11.1]	[Browser:Chrome - 49.0.2623.87]	[Action:GetGSTModules 08/504,1]	[Remarks:Successful filter row count: 5]
[Date: 2016-03-31 09:26:57]	[UserID:08/504]	[IP:10.10.11.1]	[Browser:Chrome - 49.0.2623.87]	[Action:Closing mssql connection]	[Remarks:Success]
[Date: 2016-03-31 09:40:50]	[UserID:08/504]	[IP:10.10.11.1]	[Browser:Chrome - 49.0.2623.87]	[Action:Making connection to server]	[Remarks:Successful connection to server: S3]
[Date: 2016-03-31 09:40:50]	[UserID:08/504]	[IP:10.10.11.1]	[Browser:Chrome - 49.0.2623.87]	[Action:GetGSTModules 08/504,1]	[Remarks:Successful filter row count: 5]
[Date: 2016-03-31 09:40:50]	[UserID:08/504]	[IP:10.10.11.1]	[Browser:Chrome - 49.0.2623.87]	[Action:Closing mssql connection]	[Remarks:Success]
[Date: 2016-03-31 09:57:25]	[UserID:]	[IP:10.10.11.1]	[Browser:Chrome - 42.0.2311.135]	[Action:Making connection to server]	[Remarks:Successful connection to server: S3]
[Date: 2016-03-31 09:57:25]	[UserID:]	[IP:10.10.11.1]	[Browser:Chrome - 42.0.2311.135]	[Action:GetProgramList ]	[Remarks:"no data"]
[Date: 2016-03-31 09:57:32]	[UserID:dev/lcolocado]	[IP:10.10.11.1]	[Browser:Chrome - 42.0.2311.135]	[Action:Making connection to server]	[Remarks:Successful connection to server: S3]
[Date: 2016-03-31 09:57:32]	[UserID:dev/lcolocado]	[IP:10.10.11.1]	[Browser:Chrome - 42.0.2311.135]	[Action:User dev/lcolocado]	[Remarks:Success]
[Date: 2016-03-31 09:57:32]	[UserID:dev/lcolocado]	[IP:10.10.11.1]	[Browser:Chrome - 42.0.2311.135]	[Action:Filtering User : MasterData Username : dev/lcolocado]	[Remarks:Successful filter row count: 0]
[Date: 2016-03-31 09:57:32]	[UserID:dev/lcolocado]	[IP:10.10.11.1]	[Browser:Chrome - 42.0.2311.135]	[Action:Filtering User : MasterData Username : dev/lcolocado]	[Remarks:Successful filter row count: 0]
[Date: 2016-03-31 09:57:32]	[UserID:dev/lcolocado]	[IP:10.10.11.1]	[Browser:Chrome - 42.0.2311.135]	[Action:Filtering User : MasterData Username : dev/lcolocado]	[Remarks:Success]
[Date: 2016-03-31 09:57:32]	[UserID:dev/lcolocado]	[IP:10.10.11.1]	[Browser:Chrome - 42.0.2311.135]	[Action:Closing mssql connection]	[Remarks:Success]
[Date: 2016-03-31 09:57:32]	[UserID:dev/lcolocado]	[IP:10.10.11.1]	[Browser:Chrome - 42.0.2311.135]	[Action:Making connection to server]	[Remarks:Successful connection to server: S3]
[Date: 2016-03-31 09:57:32]	[UserID:dev/lcolocado]	[IP:10.10.11.1]	[Browser:Chrome - 42.0.2311.135]	[Action:GetProgramList dev/lcolocado]	[Remarks:[{"ID":"1","ProgramIndex":"GST","ProgramName":"GST"},{"ID":"3","ProgramIndex":"PRD","ProgramName":"PRD"}]]
[Date: 2016-03-31 09:57:32]	[UserID:dev/lcolocado]	[IP:10.10.11.1]	[Browser:Chrome - 42.0.2311.135]	[Action:Making connection to server]	[Remarks:Successful connection to server: S3]
[Date: 2016-03-31 09:57:32]	[UserID:dev/lcolocado]	[IP:10.10.11.1]	[Browser:Chrome - 42.0.2311.135]	[Action:GetProgramList dev/lcolocado]	[Remarks:[{"ID":"1","ProgramIndex":"GST","ProgramName":"GST"},{"ID":"3","ProgramIndex":"PRD","ProgramName":"PRD"}]]
[Date: 2016-03-31 09:57:32]	[UserID:dev/lcolocado]	[IP:10.10.11.1]	[Browser:Chrome - 42.0.2311.135]	[Action:Making connection to server]	[Remarks:Successful connection to server: S3]
[Date: 2016-03-31 09:57:32]	[UserID:dev/lcolocado]	[IP:10.10.11.1]	[Browser:Chrome - 42.0.2311.135]	[Action:Filtering User : MasterData Username : dev/lcolocado]	[Remarks:Successful filter row count: 1]
[Date: 2016-03-31 09:57:35]	[UserID:dev/lcolocado]	[IP:10.10.11.1]	[Browser:Chrome - 42.0.2311.135]	[Action:Making connection to server]	[Remarks:Successful connection to server: S3]
[Date: 2016-03-31 09:57:35]	[UserID:dev/lcolocado]	[IP:10.10.11.1]	[Browser:Chrome - 42.0.2311.135]	[Action:GetGSTModules dev/lcolocado,1]	[Remarks:Successful filter row count: 8]
[Date: 2016-03-31 09:57:35]	[UserID:dev/lcolocado]	[IP:10.10.11.1]	[Browser:Chrome - 42.0.2311.135]	[Action:Closing mssql connection]	[Remarks:Success]
[Date: 2016-03-31 10:33:21]	[UserID:dev/lcolocado]	[IP:10.10.11.1]	[Browser:Chrome - 42.0.2311.135]	[Action:Making connection to server]	[Remarks:Successful connection to server: S3]
[Date: 2016-03-31 10:33:21]	[UserID:dev/lcolocado]	[IP:10.10.11.1]	[Browser:Chrome - 42.0.2311.135]	[Action:GetGSTModules dev/lcolocado,1]	[Remarks:Successful filter row count: 8]
[Date: 2016-03-31 10:33:21]	[UserID:dev/lcolocado]	[IP:10.10.11.1]	[Browser:Chrome - 42.0.2311.135]	[Action:Closing mssql connection]	[Remarks:Success]
[Date: 2016-03-31 10:48:04]	[UserID:]	[IP:10.10.11.1]	[Browser:Chrome - 49.0.2623.87]	[Action:Making connection to server]	[Remarks:Successful connection to server: S3]
[Date: 2016-03-31 10:48:04]	[UserID:]	[IP:10.10.11.1]	[Browser:Chrome - 49.0.2623.87]	[Action:GetProgramList ]	[Remarks:"no data"]
[Date: 2016-03-31 10:48:10]	[UserID:14/1082]	[IP:10.10.11.1]	[Browser:Chrome - 49.0.2623.87]	[Action:Making connection to server]	[Remarks:Successful connection to server: S3]
[Date: 2016-03-31 10:48:10]	[UserID:14/1082]	[IP:10.10.11.1]	[Browser:Chrome - 49.0.2623.87]	[Action:User 14/1082]	[Remarks:Success]
[Date: 2016-03-31 10:48:10]	[UserID:14/1082]	[IP:10.10.11.1]	[Browser:Chrome - 49.0.2623.87]	[Action:Filtering User : MasterData Username : 14/1082]	[Remarks:Successful filter row count: 0]
[Date: 2016-03-31 10:48:10]	[UserID:14/1082]	[IP:10.10.11.1]	[Browser:Chrome - 49.0.2623.87]	[Action:Filtering User : MasterData Username : 14/1082]	[Remarks:Successful filter row count: 0]
[Date: 2016-03-31 10:48:10]	[UserID:14/1082]	[IP:10.10.11.1]	[Browser:Chrome - 49.0.2623.87]	[Action:Filtering User : MasterData Username : 14/1082]	[Remarks:Success]
[Date: 2016-03-31 10:48:10]	[UserID:14/1082]	[IP:10.10.11.1]	[Browser:Chrome - 49.0.2623.87]	[Action:Closing mssql connection]	[Remarks:Success]
[Date: 2016-03-31 10:48:13]	[UserID:14/1082]	[IP:10.10.11.1]	[Browser:Chrome - 49.0.2623.87]	[Action:Making connection to server]	[Remarks:Successful connection to server: S3]
[Date: 2016-03-31 10:48:13]	[UserID:14/1082]	[IP:10.10.11.1]	[Browser:Chrome - 49.0.2623.87]	[Action:GetProgramList 14/1082]	[Remarks:[{"ID":"1","ProgramIndex":"GST","ProgramName":"GST"}]]
[Date: 2016-03-31 10:48:13]	[UserID:14/1082]	[IP:10.10.11.1]	[Browser:Chrome - 49.0.2623.87]	[Action:Making connection to server]	[Remarks:Successful connection to server: S3]
[Date: 2016-03-31 10:48:13]	[UserID:14/1082]	[IP:10.10.11.1]	[Browser:Chrome - 49.0.2623.87]	[Action:GetProgramList 14/1082]	[Remarks:[{"ID":"1","ProgramIndex":"GST","ProgramName":"GST"}]]
[Date: 2016-03-31 10:48:13]	[UserID:14/1082]	[IP:10.10.11.1]	[Browser:Chrome - 49.0.2623.87]	[Action:Making connection to server]	[Remarks:Successful connection to server: S3]
[Date: 2016-03-31 10:48:13]	[UserID:14/1082]	[IP:10.10.11.1]	[Browser:Chrome - 49.0.2623.87]	[Action:Filtering User : MasterData Username : 14/1082]	[Remarks:Successful filter row count: 1]
[Date: 2016-03-31 10:48:13]	[UserID:14/1082]	[IP:10.10.11.1]	[Browser:Chrome - 49.0.2623.87]	[Action:Making connection to server]	[Remarks:Successful connection to server: S3]
[Date: 2016-03-31 10:48:13]	[UserID:14/1082]	[IP:10.10.11.1]	[Browser:Chrome - 49.0.2623.87]	[Action:GetGSTModules 14/1082,1]	[Remarks:Successful filter row count: 7]
[Date: 2016-03-31 10:48:13]	[UserID:14/1082]	[IP:10.10.11.1]	[Browser:Chrome - 49.0.2623.87]	[Action:Closing mssql connection]	[Remarks:Success]
[Date: 2016-03-31 10:48:38]	[UserID:08/504]	[IP:10.10.11.1]	[Browser:Chrome - 49.0.2623.87]	[Action:Making connection to server]	[Remarks:Successful connection to server: S3]
[Date: 2016-03-31 10:48:38]	[UserID:08/504]	[IP:10.10.11.1]	[Browser:Chrome - 49.0.2623.87]	[Action:GetProgramList 08/504]	[Remarks:[{"ID":"1","ProgramIndex":"GST","ProgramName":"GST"}]]
[Date: 2016-03-31 10:48:38]	[UserID:08/504]	[IP:10.10.11.1]	[Browser:Chrome - 49.0.2623.87]	[Action:Making connection to server]	[Remarks:Successful connection to server: S3]
[Date: 2016-03-31 10:48:38]	[UserID:08/504]	[IP:10.10.11.1]	[Browser:Chrome - 49.0.2623.87]	[Action:GetProgramList 08/504]	[Remarks:[{"ID":"1","ProgramIndex":"GST","ProgramName":"GST"}]]
[Date: 2016-03-31 10:48:38]	[UserID:08/504]	[IP:10.10.11.1]	[Browser:Chrome - 49.0.2623.87]	[Action:Making connection to server]	[Remarks:Successful connection to server: S3]
[Date: 2016-03-31 10:48:38]	[UserID:08/504]	[IP:10.10.11.1]	[Browser:Chrome - 49.0.2623.87]	[Action:Filtering User : MasterData Username : 08/504]	[Remarks:Successful filter row count: 1]
[Date: 2016-03-31 10:48:40]	[UserID:08/504]	[IP:10.10.11.1]	[Browser:Chrome - 49.0.2623.87]	[Action:Making connection to server]	[Remarks:Successful connection to server: S3]
[Date: 2016-03-31 10:48:40]	[UserID:08/504]	[IP:10.10.11.1]	[Browser:Chrome - 49.0.2623.87]	[Action:GetGSTModules 08/504,1]	[Remarks:Successful filter row count: 5]
[Date: 2016-03-31 10:48:40]	[UserID:08/504]	[IP:10.10.11.1]	[Browser:Chrome - 49.0.2623.87]	[Action:Closing mssql connection]	[Remarks:Success]
[Date: 2016-03-31 10:51:36]	[UserID:08/504]	[IP:10.10.11.1]	[Browser:Chrome - 49.0.2623.87]	[Action:Making connection to server]	[Remarks:Successful connection to server: S3]
[Date: 2016-03-31 10:51:36]	[UserID:08/504]	[IP:10.10.11.1]	[Browser:Chrome - 49.0.2623.87]	[Action:GetGSTModules 08/504,1]	[Remarks:Successful filter row count: 5]
[Date: 2016-03-31 10:51:36]	[UserID:08/504]	[IP:10.10.11.1]	[Browser:Chrome - 49.0.2623.87]	[Action:Closing mssql connection]	[Remarks:Success]
[Date: 2016-03-31 10:54:02]	[UserID:14/1082]	[IP:10.10.11.1]	[Browser:Chrome - 49.0.2623.87]	[Action:Making connection to server]	[Remarks:Successful connection to server: S3]
[Date: 2016-03-31 10:54:02]	[UserID:14/1082]	[IP:10.10.11.1]	[Browser:Chrome - 49.0.2623.87]	[Action:GetGSTModules 14/1082,1]	[Remarks:Successful filter row count: 7]
[Date: 2016-03-31 10:54:02]	[UserID:14/1082]	[IP:10.10.11.1]	[Browser:Chrome - 49.0.2623.87]	[Action:Closing mssql connection]	[Remarks:Success]
[Date: 2016-03-31 10:56:47]	[UserID:]	[IP:10.10.11.1]	[Browser:Chrome - 49.0.2623.110]	[Action:Making connection to server]	[Remarks:Successful connection to server: S3]
[Date: 2016-03-31 10:56:47]	[UserID:]	[IP:10.10.11.1]	[Browser:Chrome - 49.0.2623.110]	[Action:GetProgramList ]	[Remarks:"no data"]
[Date: 2016-03-31 10:56:58]	[UserID:10/660]	[IP:10.10.11.1]	[Browser:Chrome - 49.0.2623.110]	[Action:Making connection to server]	[Remarks:Successful connection to server: S3]
[Date: 2016-03-31 10:56:58]	[UserID:10/660]	[IP:10.10.11.1]	[Browser:Chrome - 49.0.2623.110]	[Action:User 10/660]	[Remarks:Success]
[Date: 2016-03-31 10:56:58]	[UserID:10/660]	[IP:10.10.11.1]	[Browser:Chrome - 49.0.2623.110]	[Action:Filtering User : MasterData Username : 10/660]	[Remarks:Successful filter row count: 0]
[Date: 2016-03-31 10:56:58]	[UserID:10/660]	[IP:10.10.11.1]	[Browser:Chrome - 49.0.2623.110]	[Action:Filtering User : MasterData Username : 10/660]	[Remarks:Successful filter row count: 0]
[Date: 2016-03-31 10:56:58]	[UserID:10/660]	[IP:10.10.11.1]	[Browser:Chrome - 49.0.2623.110]	[Action:Filtering User : MasterData Username : 10/660]	[Remarks:Success]
[Date: 2016-03-31 10:56:58]	[UserID:10/660]	[IP:10.10.11.1]	[Browser:Chrome - 49.0.2623.110]	[Action:Closing mssql connection]	[Remarks:Success]
[Date: 2016-03-31 10:56:58]	[UserID:10/660]	[IP:10.10.11.1]	[Browser:Chrome - 49.0.2623.110]	[Action:Making connection to server]	[Remarks:Successful connection to server: S3]
[Date: 2016-03-31 10:56:58]	[UserID:10/660]	[IP:10.10.11.1]	[Browser:Chrome - 49.0.2623.110]	[Action:GetProgramList 10/660]	[Remarks:[{"ID":"1","ProgramIndex":"GST","ProgramName":"GST"}]]
[Date: 2016-03-31 10:56:59]	[UserID:10/660]	[IP:10.10.11.1]	[Browser:Chrome - 49.0.2623.110]	[Action:Making connection to server]	[Remarks:Successful connection to server: S3]
[Date: 2016-03-31 10:56:59]	[UserID:10/660]	[IP:10.10.11.1]	[Browser:Chrome - 49.0.2623.110]	[Action:GetProgramList 10/660]	[Remarks:[{"ID":"1","ProgramIndex":"GST","ProgramName":"GST"}]]
[Date: 2016-03-31 10:56:59]	[UserID:10/660]	[IP:10.10.11.1]	[Browser:Chrome - 49.0.2623.110]	[Action:Making connection to server]	[Remarks:Successful connection to server: S3]
[Date: 2016-03-31 10:56:59]	[UserID:10/660]	[IP:10.10.11.1]	[Browser:Chrome - 49.0.2623.110]	[Action:Filtering User : MasterData Username : 10/660]	[Remarks:Successful filter row count: 1]
[Date: 2016-03-31 10:56:59]	[UserID:10/660]	[IP:10.10.11.1]	[Browser:Chrome - 49.0.2623.110]	[Action:Making connection to server]	[Remarks:Successful connection to server: S3]
[Date: 2016-03-31 10:56:59]	[UserID:10/660]	[IP:10.10.11.1]	[Browser:Chrome - 49.0.2623.110]	[Action:GetGSTModules 10/660,1]	[Remarks:Successful filter row count: 3]
[Date: 2016-03-31 10:56:59]	[UserID:10/660]	[IP:10.10.11.1]	[Browser:Chrome - 49.0.2623.110]	[Action:Closing mssql connection]	[Remarks:Success]
[Date: 2016-03-31 10:58:16]	[UserID:14/1082]	[IP:10.10.11.1]	[Browser:Chrome - 49.0.2623.87]	[Action:Making connection to server]	[Remarks:Successful connection to server: S3]
[Date: 2016-03-31 10:58:16]	[UserID:14/1082]	[IP:10.10.11.1]	[Browser:Chrome - 49.0.2623.87]	[Action:GetGSTModules 14/1082,1]	[Remarks:Successful filter row count: 7]
[Date: 2016-03-31 10:58:16]	[UserID:14/1082]	[IP:10.10.11.1]	[Browser:Chrome - 49.0.2623.87]	[Action:Closing mssql connection]	[Remarks:Success]
[Date: 2016-03-31 11:04:27]	[UserID:08/504]	[IP:10.10.11.1]	[Browser:Chrome - 49.0.2623.87]	[Action:Making connection to server]	[Remarks:Successful connection to server: S3]
[Date: 2016-03-31 11:04:27]	[UserID:08/504]	[IP:10.10.11.1]	[Browser:Chrome - 49.0.2623.87]	[Action:GetGSTModules 08/504,1]	[Remarks:Successful filter row count: 5]
[Date: 2016-03-31 11:04:27]	[UserID:08/504]	[IP:10.10.11.1]	[Browser:Chrome - 49.0.2623.87]	[Action:Closing mssql connection]	[Remarks:Success]
[Date: 2016-03-31 11:05:30]	[UserID:10/660]	[IP:10.10.11.1]	[Browser:Chrome - 49.0.2623.110]	[Action:Making connection to server]	[Remarks:Successful connection to server: S3]
[Date: 2016-03-31 11:05:30]	[UserID:10/660]	[IP:10.10.11.1]	[Browser:Chrome - 49.0.2623.110]	[Action:GetGSTModules 10/660,1]	[Remarks:Successful filter row count: 3]
[Date: 2016-03-31 11:05:30]	[UserID:10/660]	[IP:10.10.11.1]	[Browser:Chrome - 49.0.2623.110]	[Action:Closing mssql connection]	[Remarks:Success]
[Date: 2016-03-31 11:11:55]	[UserID:08/504]	[IP:10.10.11.1]	[Browser:Chrome - 49.0.2623.87]	[Action:Making connection to server]	[Remarks:Successful connection to server: S3]
[Date: 2016-03-31 11:11:55]	[UserID:08/504]	[IP:10.10.11.1]	[Browser:Chrome - 49.0.2623.87]	[Action:GetGSTModules 08/504,1]	[Remarks:Successful filter row count: 5]
[Date: 2016-03-31 11:11:55]	[UserID:08/504]	[IP:10.10.11.1]	[Browser:Chrome - 49.0.2623.87]	[Action:Closing mssql connection]	[Remarks:Success]
[Date: 2016-03-31 11:15:31]	[UserID:]	[IP:10.10.11.1]	[Browser:Chrome - 49.0.2623.87]	[Action:Making connection to server]	[Remarks:Successful connection to server: S3]
[Date: 2016-03-31 11:15:31]	[UserID:]	[IP:10.10.11.1]	[Browser:Chrome - 49.0.2623.87]	[Action:GetProgramList ]	[Remarks:"no data"]
[Date: 2016-03-31 11:20:40]	[UserID:10/660]	[IP:10.10.11.1]	[Browser:Chrome - 49.0.2623.110]	[Action:Making connection to server]	[Remarks:Successful connection to server: S3]
[Date: 2016-03-31 11:20:40]	[UserID:10/660]	[IP:10.10.11.1]	[Browser:Chrome - 49.0.2623.110]	[Action:GetGSTModules 10/660,1]	[Remarks:Successful filter row count: 3]
[Date: 2016-03-31 11:20:40]	[UserID:10/660]	[IP:10.10.11.1]	[Browser:Chrome - 49.0.2623.110]	[Action:Closing mssql connection]	[Remarks:Success]
[Date: 2016-03-31 11:21:59]	[UserID:08/504]	[IP:10.10.11.1]	[Browser:Chrome - 49.0.2623.87]	[Action:Making connection to server]	[Remarks:Successful connection to server: S3]
[Date: 2016-03-31 11:21:59]	[UserID:08/504]	[IP:10.10.11.1]	[Browser:Chrome - 49.0.2623.87]	[Action:GetGSTModules 08/504,1]	[Remarks:Successful filter row count: 5]
[Date: 2016-03-31 11:21:59]	[UserID:08/504]	[IP:10.10.11.1]	[Browser:Chrome - 49.0.2623.87]	[Action:Closing mssql connection]	[Remarks:Success]
[Date: 2016-03-31 11:22:16]	[UserID:10/660]	[IP:10.10.11.1]	[Browser:Chrome - 49.0.2623.110]	[Action:Making connection to server]	[Remarks:Successful connection to server: S3]
[Date: 2016-03-31 11:22:16]	[UserID:10/660]	[IP:10.10.11.1]	[Browser:Chrome - 49.0.2623.110]	[Action:GetProgramList 10/660]	[Remarks:[{"ID":"1","ProgramIndex":"GST","ProgramName":"GST"}]]
[Date: 2016-03-31 11:22:16]	[UserID:10/660]	[IP:10.10.11.1]	[Browser:Chrome - 49.0.2623.110]	[Action:Making connection to server]	[Remarks:Successful connection to server: S3]
[Date: 2016-03-31 11:22:16]	[UserID:10/660]	[IP:10.10.11.1]	[Browser:Chrome - 49.0.2623.110]	[Action:GetProgramList 10/660]	[Remarks:[{"ID":"1","ProgramIndex":"GST","ProgramName":"GST"}]]
[Date: 2016-03-31 11:22:16]	[UserID:10/660]	[IP:10.10.11.1]	[Browser:Chrome - 49.0.2623.110]	[Action:Making connection to server]	[Remarks:Successful connection to server: S3]
[Date: 2016-03-31 11:22:16]	[UserID:10/660]	[IP:10.10.11.1]	[Browser:Chrome - 49.0.2623.110]	[Action:Filtering User : MasterData Username : 10/660]	[Remarks:Successful filter row count: 1]
[Date: 2016-03-31 11:22:16]	[UserID:10/660]	[IP:10.10.11.1]	[Browser:Chrome - 49.0.2623.110]	[Action:Making connection to server]	[Remarks:Successful connection to server: S3]
[Date: 2016-03-31 11:22:16]	[UserID:10/660]	[IP:10.10.11.1]	[Browser:Chrome - 49.0.2623.110]	[Action:GetGSTModules 10/660,1]	[Remarks:Successful filter row count: 3]
[Date: 2016-03-31 11:22:16]	[UserID:10/660]	[IP:10.10.11.1]	[Browser:Chrome - 49.0.2623.110]	[Action:Closing mssql connection]	[Remarks:Success]
[Date: 2016-03-31 11:26:54]	[UserID:10/660]	[IP:10.10.11.1]	[Browser:Chrome - 49.0.2623.110]	[Action:Making connection to server]	[Remarks:Successful connection to server: S3]
[Date: 2016-03-31 11:26:54]	[UserID:10/660]	[IP:10.10.11.1]	[Browser:Chrome - 49.0.2623.110]	[Action:GetGSTModules 10/660,1]	[Remarks:Successful filter row count: 3]
[Date: 2016-03-31 11:26:54]	[UserID:10/660]	[IP:10.10.11.1]	[Browser:Chrome - 49.0.2623.110]	[Action:Closing mssql connection]	[Remarks:Success]
[Date: 2016-03-31 11:27:23]	[UserID:]	[IP:10.10.11.1]	[Browser:Chrome - 49.0.2623.110]	[Action:Making connection to server]	[Remarks:Successful connection to server: S3]
[Date: 2016-03-31 11:27:23]	[UserID:]	[IP:10.10.11.1]	[Browser:Chrome - 49.0.2623.110]	[Action:GetProgramList ]	[Remarks:"no data"]
[Date: 2016-03-31 11:33:58]	[UserID:06/343]	[IP:10.10.11.1]	[Browser:Chrome - 49.0.2623.87]	[Action:Making connection to server]	[Remarks:Successful connection to server: S3]
[Date: 2016-03-31 11:33:58]	[UserID:06/343]	[IP:10.10.11.1]	[Browser:Chrome - 49.0.2623.87]	[Action:GetGSTModules 06/343,1]	[Remarks:Successful filter row count: 5]
[Date: 2016-03-31 11:33:58]	[UserID:06/343]	[IP:10.10.11.1]	[Browser:Chrome - 49.0.2623.87]	[Action:Closing mssql connection]	[Remarks:Success]
[Date: 2016-03-31 11:34:21]	[UserID:06/343]	[IP:10.10.11.1]	[Browser:Chrome - 49.0.2623.87]	[Action:Making connection to server]	[Remarks:Successful connection to server: S3]
[Date: 2016-03-31 11:34:21]	[UserID:06/343]	[IP:10.10.11.1]	[Browser:Chrome - 49.0.2623.87]	[Action:GetGSTModules 06/343,1]	[Remarks:Successful filter row count: 5]
[Date: 2016-03-31 11:34:21]	[UserID:06/343]	[IP:10.10.11.1]	[Browser:Chrome - 49.0.2623.87]	[Action:Closing mssql connection]	[Remarks:Success]
[Date: 2016-03-31 11:35:05]	[UserID:06/343]	[IP:10.10.11.1]	[Browser:Chrome - 49.0.2623.87]	[Action:Making connection to server]	[Remarks:Successful connection to server: S3]
[Date: 2016-03-31 11:35:05]	[UserID:06/343]	[IP:10.10.11.1]	[Browser:Chrome - 49.0.2623.87]	[Action:GetGSTModules 06/343,1]	[Remarks:Successful filter row count: 5]
[Date: 2016-03-31 11:35:05]	[UserID:06/343]	[IP:10.10.11.1]	[Browser:Chrome - 49.0.2623.87]	[Action:Closing mssql connection]	[Remarks:Success]
[Date: 2016-03-31 11:47:10]	[UserID:08/504]	[IP:10.10.11.1]	[Browser:Chrome - 49.0.2623.87]	[Action:Making connection to server]	[Remarks:Successful connection to server: S3]
[Date: 2016-03-31 11:47:10]	[UserID:08/504]	[IP:10.10.11.1]	[Browser:Chrome - 49.0.2623.87]	[Action:GetGSTModules 08/504,1]	[Remarks:Successful filter row count: 5]
[Date: 2016-03-31 11:47:10]	[UserID:08/504]	[IP:10.10.11.1]	[Browser:Chrome - 49.0.2623.87]	[Action:Closing mssql connection]	[Remarks:Success]
[Date: 2016-03-31 11:47:52]	[UserID:08/504]	[IP:10.10.11.1]	[Browser:Chrome - 49.0.2623.87]	[Action:Making connection to server]	[Remarks:Successful connection to server: S3]
[Date: 2016-03-31 11:47:52]	[UserID:08/504]	[IP:10.10.11.1]	[Browser:Chrome - 49.0.2623.87]	[Action:GetGSTModules 08/504,1]	[Remarks:Successful filter row count: 5]
[Date: 2016-03-31 11:47:52]	[UserID:08/504]	[IP:10.10.11.1]	[Browser:Chrome - 49.0.2623.87]	[Action:Closing mssql connection]	[Remarks:Success]
[Date: 2016-03-31 11:48:15]	[UserID:08/504]	[IP:10.10.11.1]	[Browser:Chrome - 49.0.2623.87]	[Action:Making connection to server]	[Remarks:Successful connection to server: S3]
[Date: 2016-03-31 11:48:15]	[UserID:08/504]	[IP:10.10.11.1]	[Browser:Chrome - 49.0.2623.87]	[Action:GetGSTModules 08/504,1]	[Remarks:Successful filter row count: 5]
[Date: 2016-03-31 11:48:15]	[UserID:08/504]	[IP:10.10.11.1]	[Browser:Chrome - 49.0.2623.87]	[Action:Closing mssql connection]	[Remarks:Success]
[Date: 2016-03-31 11:49:06]	[UserID:08/504]	[IP:10.10.11.1]	[Browser:Chrome - 49.0.2623.87]	[Action:Making connection to server]	[Remarks:Successful connection to server: S3]
[Date: 2016-03-31 11:49:06]	[UserID:08/504]	[IP:10.10.11.1]	[Browser:Chrome - 49.0.2623.87]	[Action:GetGSTModules 08/504,1]	[Remarks:Successful filter row count: 5]
[Date: 2016-03-31 11:49:06]	[UserID:08/504]	[IP:10.10.11.1]	[Browser:Chrome - 49.0.2623.87]	[Action:Closing mssql connection]	[Remarks:Success]
[Date: 2016-03-31 11:49:27]	[UserID:08/504]	[IP:10.10.11.1]	[Browser:Chrome - 49.0.2623.87]	[Action:Making connection to server]	[Remarks:Successful connection to server: S3]
[Date: 2016-03-31 11:49:27]	[UserID:08/504]	[IP:10.10.11.1]	[Browser:Chrome - 49.0.2623.87]	[Action:GetGSTModules 08/504,1]	[Remarks:Successful filter row count: 5]
[Date: 2016-03-31 11:49:27]	[UserID:08/504]	[IP:10.10.11.1]	[Browser:Chrome - 49.0.2623.87]	[Action:Closing mssql connection]	[Remarks:Success]
[Date: 2016-03-31 13:00:49]	[UserID:]	[IP:10.10.11.1]	[Browser:Chrome - 49.0.2623.75]	[Action:Making connection to server]	[Remarks:Successful connection to server: S3]
[Date: 2016-03-31 13:00:49]	[UserID:]	[IP:10.10.11.1]	[Browser:Chrome - 49.0.2623.75]	[Action:GetProgramList ]	[Remarks:"no data"]
[Date: 2016-03-31 13:34:44]	[UserID:08/504]	[IP:10.10.11.1]	[Browser:Chrome - 49.0.2623.87]	[Action:Making connection to server]	[Remarks:Successful connection to server: S3]
[Date: 2016-03-31 13:34:44]	[UserID:08/504]	[IP:10.10.11.1]	[Browser:Chrome - 49.0.2623.87]	[Action:GetProgramList 08/504]	[Remarks:[{"ID":"1","ProgramIndex":"GST","ProgramName":"GST"}]]
[Date: 2016-03-31 13:34:44]	[UserID:08/504]	[IP:10.10.11.1]	[Browser:Chrome - 49.0.2623.87]	[Action:Making connection to server]	[Remarks:Successful connection to server: S3]
[Date: 2016-03-31 13:34:44]	[UserID:08/504]	[IP:10.10.11.1]	[Browser:Chrome - 49.0.2623.87]	[Action:GetProgramList 08/504]	[Remarks:[{"ID":"1","ProgramIndex":"GST","ProgramName":"GST"}]]
[Date: 2016-03-31 13:34:44]	[UserID:08/504]	[IP:10.10.11.1]	[Browser:Chrome - 49.0.2623.87]	[Action:Making connection to server]	[Remarks:Successful connection to server: S3]
[Date: 2016-03-31 13:34:44]	[UserID:08/504]	[IP:10.10.11.1]	[Browser:Chrome - 49.0.2623.87]	[Action:Filtering User : MasterData Username : 08/504]	[Remarks:Successful filter row count: 1]
[Date: 2016-03-31 13:34:45]	[UserID:08/504]	[IP:10.10.11.1]	[Browser:Chrome - 49.0.2623.87]	[Action:Making connection to server]	[Remarks:Successful connection to server: S3]
[Date: 2016-03-31 13:34:45]	[UserID:08/504]	[IP:10.10.11.1]	[Browser:Chrome - 49.0.2623.87]	[Action:GetGSTModules 08/504,1]	[Remarks:Successful filter row count: 5]
[Date: 2016-03-31 13:34:45]	[UserID:08/504]	[IP:10.10.11.1]	[Browser:Chrome - 49.0.2623.87]	[Action:Closing mssql connection]	[Remarks:Success]
[Date: 2016-03-31 13:35:35]	[UserID:08/504]	[IP:10.10.11.1]	[Browser:Chrome - 49.0.2623.87]	[Action:Making connection to server]	[Remarks:Successful connection to server: S3]
[Date: 2016-03-31 13:35:35]	[UserID:08/504]	[IP:10.10.11.1]	[Browser:Chrome - 49.0.2623.87]	[Action:GetGSTModules 08/504,1]	[Remarks:Successful filter row count: 5]
[Date: 2016-03-31 13:35:35]	[UserID:08/504]	[IP:10.10.11.1]	[Browser:Chrome - 49.0.2623.87]	[Action:Closing mssql connection]	[Remarks:Success]
[Date: 2016-03-31 13:57:04]	[UserID:08/504]	[IP:10.10.11.1]	[Browser:Chrome - 49.0.2623.87]	[Action:Making connection to server]	[Remarks:Successful connection to server: S3]
[Date: 2016-03-31 13:57:04]	[UserID:08/504]	[IP:10.10.11.1]	[Browser:Chrome - 49.0.2623.87]	[Action:GetGSTModules 08/504,1]	[Remarks:Successful filter row count: 5]
[Date: 2016-03-31 13:57:04]	[UserID:08/504]	[IP:10.10.11.1]	[Browser:Chrome - 49.0.2623.87]	[Action:Closing mssql connection]	[Remarks:Success]
[Date: 2016-03-31 14:41:18]	[UserID:08/504]	[IP:10.10.11.1]	[Browser:Chrome - 49.0.2623.87]	[Action:Making connection to server]	[Remarks:Successful connection to server: S3]
[Date: 2016-03-31 14:41:19]	[UserID:08/504]	[IP:10.10.11.1]	[Browser:Chrome - 49.0.2623.87]	[Action:GetProgramList 08/504]	[Remarks:[{"ID":"1","ProgramIndex":"GST","ProgramName":"GST"}]]
[Date: 2016-03-31 14:41:19]	[UserID:08/504]	[IP:10.10.11.1]	[Browser:Chrome - 49.0.2623.87]	[Action:Making connection to server]	[Remarks:Successful connection to server: S3]
[Date: 2016-03-31 14:41:19]	[UserID:08/504]	[IP:10.10.11.1]	[Browser:Chrome - 49.0.2623.87]	[Action:GetProgramList 08/504]	[Remarks:[{"ID":"1","ProgramIndex":"GST","ProgramName":"GST"}]]
[Date: 2016-03-31 14:41:19]	[UserID:08/504]	[IP:10.10.11.1]	[Browser:Chrome - 49.0.2623.87]	[Action:Making connection to server]	[Remarks:Successful connection to server: S3]
[Date: 2016-03-31 14:41:19]	[UserID:08/504]	[IP:10.10.11.1]	[Browser:Chrome - 49.0.2623.87]	[Action:Filtering User : MasterData Username : 08/504]	[Remarks:Successful filter row count: 1]
[Date: 2016-03-31 14:41:19]	[UserID:08/504]	[IP:10.10.11.1]	[Browser:Chrome - 49.0.2623.87]	[Action:Making connection to server]	[Remarks:Successful connection to server: S3]
[Date: 2016-03-31 14:41:20]	[UserID:08/504]	[IP:10.10.11.1]	[Browser:Chrome - 49.0.2623.87]	[Action:GetGSTModules 08/504,1]	[Remarks:Successful filter row count: 5]
[Date: 2016-03-31 14:41:20]	[UserID:08/504]	[IP:10.10.11.1]	[Browser:Chrome - 49.0.2623.87]	[Action:Closing mssql connection]	[Remarks:Success]
[Date: 2016-03-31 14:43:11]	[UserID:08/504]	[IP:10.10.11.1]	[Browser:Chrome - 49.0.2623.87]	[Action:Making connection to server]	[Remarks:Successful connection to server: S3]
[Date: 2016-03-31 14:43:11]	[UserID:08/504]	[IP:10.10.11.1]	[Browser:Chrome - 49.0.2623.87]	[Action:GetGSTModules 08/504,1]	[Remarks:Successful filter row count: 5]
[Date: 2016-03-31 14:43:11]	[UserID:08/504]	[IP:10.10.11.1]	[Browser:Chrome - 49.0.2623.87]	[Action:Closing mssql connection]	[Remarks:Success]
[Date: 2016-03-31 15:40:04]	[UserID:06/343]	[IP:10.10.11.1]	[Browser:Chrome - 49.0.2623.87]	[Action:Making connection to server]	[Remarks:Successful connection to server: S3]
[Date: 2016-03-31 15:40:04]	[UserID:06/343]	[IP:10.10.11.1]	[Browser:Chrome - 49.0.2623.87]	[Action:GetGSTModules 06/343,1]	[Remarks:Successful filter row count: 5]
[Date: 2016-03-31 15:40:04]	[UserID:06/343]	[IP:10.10.11.1]	[Browser:Chrome - 49.0.2623.87]	[Action:Closing mssql connection]	[Remarks:Success]
[Date: 2016-03-31 15:40:21]	[UserID:06/343]	[IP:10.10.11.1]	[Browser:Chrome - 49.0.2623.87]	[Action:Making connection to server]	[Remarks:Successful connection to server: S3]
[Date: 2016-03-31 15:40:21]	[UserID:06/343]	[IP:10.10.11.1]	[Browser:Chrome - 49.0.2623.87]	[Action:GetGSTModules 06/343,1]	[Remarks:Successful filter row count: 5]
[Date: 2016-03-31 15:40:21]	[UserID:06/343]	[IP:10.10.11.1]	[Browser:Chrome - 49.0.2623.87]	[Action:Closing mssql connection]	[Remarks:Success]
[Date: 2016-03-31 15:42:01]	[UserID:06/343]	[IP:10.10.11.1]	[Browser:Chrome - 49.0.2623.87]	[Action:Making connection to server]	[Remarks:Successful connection to server: S3]
[Date: 2016-03-31 15:42:01]	[UserID:06/343]	[IP:10.10.11.1]	[Browser:Chrome - 49.0.2623.87]	[Action:GetGSTModules 06/343,1]	[Remarks:Successful filter row count: 5]
[Date: 2016-03-31 15:42:01]	[UserID:06/343]	[IP:10.10.11.1]	[Browser:Chrome - 49.0.2623.87]	[Action:Closing mssql connection]	[Remarks:Success]
[Date: 2016-03-31 15:46:19]	[UserID:06/343]	[IP:10.10.11.1]	[Browser:Chrome - 49.0.2623.87]	[Action:Making connection to server]	[Remarks:Successful connection to server: S3]
[Date: 2016-03-31 15:46:19]	[UserID:06/343]	[IP:10.10.11.1]	[Browser:Chrome - 49.0.2623.87]	[Action:GetGSTModules 06/343,1]	[Remarks:Successful filter row count: 5]
[Date: 2016-03-31 15:46:19]	[UserID:06/343]	[IP:10.10.11.1]	[Browser:Chrome - 49.0.2623.87]	[Action:Closing mssql connection]	[Remarks:Success]
[Date: 2016-03-31 16:15:38]	[UserID:08/504]	[IP:10.10.11.1]	[Browser:Chrome - 49.0.2623.87]	[Action:Making connection to server]	[Remarks:Successful connection to server: S3]
[Date: 2016-03-31 16:15:39]	[UserID:08/504]	[IP:10.10.11.1]	[Browser:Chrome - 49.0.2623.87]	[Action:GetProgramList 08/504]	[Remarks:[{"ID":"1","ProgramIndex":"GST","ProgramName":"GST"}]]
[Date: 2016-03-31 16:15:44]	[UserID:08/504]	[IP:10.10.11.1]	[Browser:Chrome - 49.0.2623.87]	[Action:Making connection to server]	[Remarks:Successful connection to server: S3]
[Date: 2016-03-31 16:15:44]	[UserID:08/504]	[IP:10.10.11.1]	[Browser:Chrome - 49.0.2623.87]	[Action:GetProgramList 08/504]	[Remarks:[{"ID":"1","ProgramIndex":"GST","ProgramName":"GST"}]]
[Date: 2016-03-31 16:15:44]	[UserID:08/504]	[IP:10.10.11.1]	[Browser:Chrome - 49.0.2623.87]	[Action:Making connection to server]	[Remarks:Successful connection to server: S3]
[Date: 2016-03-31 16:15:44]	[UserID:08/504]	[IP:10.10.11.1]	[Browser:Chrome - 49.0.2623.87]	[Action:Filtering User : MasterData Username : 08/504]	[Remarks:Successful filter row count: 1]
[Date: 2016-03-31 16:15:45]	[UserID:08/504]	[IP:10.10.11.1]	[Browser:Chrome - 49.0.2623.87]	[Action:Making connection to server]	[Remarks:Successful connection to server: S3]
[Date: 2016-03-31 16:15:46]	[UserID:08/504]	[IP:10.10.11.1]	[Browser:Chrome - 49.0.2623.87]	[Action:GetGSTModules 08/504,1]	[Remarks:Successful filter row count: 5]
[Date: 2016-03-31 16:15:46]	[UserID:08/504]	[IP:10.10.11.1]	[Browser:Chrome - 49.0.2623.87]	[Action:Closing mssql connection]	[Remarks:Success]
[Date: 2016-03-31 16:29:12]	[UserID:08/504]	[IP:10.10.11.1]	[Browser:Chrome - 49.0.2623.87]	[Action:Making connection to server]	[Remarks:Successful connection to server: S3]
[Date: 2016-03-31 16:29:12]	[UserID:08/504]	[IP:10.10.11.1]	[Browser:Chrome - 49.0.2623.87]	[Action:GetGSTModules 08/504,1]	[Remarks:Successful filter row count: 5]
[Date: 2016-03-31 16:29:12]	[UserID:08/504]	[IP:10.10.11.1]	[Browser:Chrome - 49.0.2623.87]	[Action:Closing mssql connection]	[Remarks:Success]
[Date: 2016-03-31 17:04:29]	[UserID:]	[IP:10.10.11.1]	[Browser:Chrome - 49.0.2623.110]	[Action:Making connection to server]	[Remarks:Successful connection to server: S3]
[Date: 2016-03-31 17:04:29]	[UserID:]	[IP:10.10.11.1]	[Browser:Chrome - 49.0.2623.110]	[Action:GetProgramList ]	[Remarks:"no data"]
[Date: 2016-03-31 17:04:33]	[UserID:11/715]	[IP:10.10.11.1]	[Browser:Chrome - 49.0.2623.110]	[Action:Making connection to server]	[Remarks:Successful connection to server: S3]
[Date: 2016-03-31 17:04:33]	[UserID:11/715]	[IP:10.10.11.1]	[Browser:Chrome - 49.0.2623.110]	[Action:User 11/715]	[Remarks:Success]
[Date: 2016-03-31 17:04:33]	[UserID:11/715]	[IP:10.10.11.1]	[Browser:Chrome - 49.0.2623.110]	[Action:Filtering User : MasterData Username : 11/715]	[Remarks:Successful filter row count: 0]
[Date: 2016-03-31 17:04:33]	[UserID:11/715]	[IP:10.10.11.1]	[Browser:Chrome - 49.0.2623.110]	[Action:Filtering User : MasterData Username : 11/715]	[Remarks:Successful filter row count: 0]
[Date: 2016-03-31 17:04:33]	[UserID:11/715]	[IP:10.10.11.1]	[Browser:Chrome - 49.0.2623.110]	[Action:Filtering User : MasterData Username : 11/715]	[Remarks:Success]
[Date: 2016-03-31 17:04:33]	[UserID:11/715]	[IP:10.10.11.1]	[Browser:Chrome - 49.0.2623.110]	[Action:Closing mssql connection]	[Remarks:Success]
[Date: 2016-03-31 17:04:33]	[UserID:11/715]	[IP:10.10.11.1]	[Browser:Chrome - 49.0.2623.110]	[Action:Making connection to server]	[Remarks:Successful connection to server: S3]
[Date: 2016-03-31 17:04:33]	[UserID:11/715]	[IP:10.10.11.1]	[Browser:Chrome - 49.0.2623.110]	[Action:GetProgramList 11/715]	[Remarks:[{"ID":"1","ProgramIndex":"GST","ProgramName":"GST"}]]
[Date: 2016-03-31 17:04:33]	[UserID:11/715]	[IP:10.10.11.1]	[Browser:Chrome - 49.0.2623.110]	[Action:Making connection to server]	[Remarks:Successful connection to server: S3]
[Date: 2016-03-31 17:04:33]	[UserID:11/715]	[IP:10.10.11.1]	[Browser:Chrome - 49.0.2623.110]	[Action:GetProgramList 11/715]	[Remarks:[{"ID":"1","ProgramIndex":"GST","ProgramName":"GST"}]]
[Date: 2016-03-31 17:04:33]	[UserID:11/715]	[IP:10.10.11.1]	[Browser:Chrome - 49.0.2623.110]	[Action:Making connection to server]	[Remarks:Successful connection to server: S3]
[Date: 2016-03-31 17:04:33]	[UserID:11/715]	[IP:10.10.11.1]	[Browser:Chrome - 49.0.2623.110]	[Action:Filtering User : MasterData Username : 11/715]	[Remarks:Successful filter row count: 1]
[Date: 2016-03-31 17:04:34]	[UserID:11/715]	[IP:10.10.11.1]	[Browser:Chrome - 49.0.2623.110]	[Action:Making connection to server]	[Remarks:Successful connection to server: S3]
[Date: 2016-03-31 17:04:34]	[UserID:11/715]	[IP:10.10.11.1]	[Browser:Chrome - 49.0.2623.110]	[Action:GetGSTModules 11/715,1]	[Remarks:Successful filter row count: 3]
[Date: 2016-03-31 17:04:34]	[UserID:11/715]	[IP:10.10.11.1]	[Browser:Chrome - 49.0.2623.110]	[Action:Closing mssql connection]	[Remarks:Success]
[Date: 2016-03-31 17:27:27]	[UserID:]	[IP:10.10.11.1]	[Browser:Chrome - 49.0.2623.110]	[Action:Making connection to server]	[Remarks:Successful connection to server: S3]
[Date: 2016-03-31 17:27:27]	[UserID:]	[IP:10.10.11.1]	[Browser:Chrome - 49.0.2623.110]	[Action:GetProgramList ]	[Remarks:"no data"]
[Date: 2016-03-31 17:27:30]	[UserID:10/660]	[IP:10.10.11.1]	[Browser:Chrome - 49.0.2623.110]	[Action:Making connection to server]	[Remarks:Successful connection to server: S3]
[Date: 2016-03-31 17:27:30]	[UserID:10/660]	[IP:10.10.11.1]	[Browser:Chrome - 49.0.2623.110]	[Action:User 10/660]	[Remarks:Success]
[Date: 2016-03-31 17:27:30]	[UserID:10/660]	[IP:10.10.11.1]	[Browser:Chrome - 49.0.2623.110]	[Action:Filtering User : MasterData Username : 10/660]	[Remarks:Successful filter row count: 0]
[Date: 2016-03-31 17:27:30]	[UserID:10/660]	[IP:10.10.11.1]	[Browser:Chrome - 49.0.2623.110]	[Action:Filtering User : MasterData Username : 10/660]	[Remarks:Successful filter row count: 0]
[Date: 2016-03-31 17:27:30]	[UserID:10/660]	[IP:10.10.11.1]	[Browser:Chrome - 49.0.2623.110]	[Action:Filtering User : MasterData Username : 10/660]	[Remarks:Success]
[Date: 2016-03-31 17:27:30]	[UserID:10/660]	[IP:10.10.11.1]	[Browser:Chrome - 49.0.2623.110]	[Action:Closing mssql connection]	[Remarks:Success]
[Date: 2016-03-31 17:27:30]	[UserID:10/660]	[IP:10.10.11.1]	[Browser:Chrome - 49.0.2623.110]	[Action:Making connection to server]	[Remarks:Successful connection to server: S3]
[Date: 2016-03-31 17:27:30]	[UserID:10/660]	[IP:10.10.11.1]	[Browser:Chrome - 49.0.2623.110]	[Action:GetProgramList 10/660]	[Remarks:[{"ID":"1","ProgramIndex":"GST","ProgramName":"GST"}]]
[Date: 2016-03-31 17:27:30]	[UserID:10/660]	[IP:10.10.11.1]	[Browser:Chrome - 49.0.2623.110]	[Action:Making connection to server]	[Remarks:Successful connection to server: S3]
[Date: 2016-03-31 17:27:30]	[UserID:10/660]	[IP:10.10.11.1]	[Browser:Chrome - 49.0.2623.110]	[Action:GetProgramList 10/660]	[Remarks:[{"ID":"1","ProgramIndex":"GST","ProgramName":"GST"}]]
[Date: 2016-03-31 17:27:30]	[UserID:10/660]	[IP:10.10.11.1]	[Browser:Chrome - 49.0.2623.110]	[Action:Making connection to server]	[Remarks:Successful connection to server: S3]
[Date: 2016-03-31 17:27:30]	[UserID:10/660]	[IP:10.10.11.1]	[Browser:Chrome - 49.0.2623.110]	[Action:Filtering User : MasterData Username : 10/660]	[Remarks:Successful filter row count: 1]
[Date: 2016-03-31 17:27:30]	[UserID:10/660]	[IP:10.10.11.1]	[Browser:Chrome - 49.0.2623.110]	[Action:Making connection to server]	[Remarks:Successful connection to server: S3]
[Date: 2016-03-31 17:27:30]	[UserID:10/660]	[IP:10.10.11.1]	[Browser:Chrome - 49.0.2623.110]	[Action:GetGSTModules 10/660,1]	[Remarks:Successful filter row count: 3]
[Date: 2016-03-31 17:27:30]	[UserID:10/660]	[IP:10.10.11.1]	[Browser:Chrome - 49.0.2623.110]	[Action:Closing mssql connection]	[Remarks:Success]
[Date: 2016-03-31 17:32:15]	[UserID:10/660]	[IP:10.10.11.1]	[Browser:Chrome - 49.0.2623.110]	[Action:Making connection to server]	[Remarks:Successful connection to server: S3]
[Date: 2016-03-31 17:32:15]	[UserID:10/660]	[IP:10.10.11.1]	[Browser:Chrome - 49.0.2623.110]	[Action:GetGSTModules 10/660,1]	[Remarks:Successful filter row count: 3]
[Date: 2016-03-31 17:32:15]	[UserID:10/660]	[IP:10.10.11.1]	[Browser:Chrome - 49.0.2623.110]	[Action:Closing mssql connection]	[Remarks:Success]
[Date: 2016-03-31 17:32:27]	[UserID:10/660]	[IP:10.10.11.1]	[Browser:Chrome - 49.0.2623.110]	[Action:Making connection to server]	[Remarks:Successful connection to server: S3]
[Date: 2016-03-31 17:32:27]	[UserID:10/660]	[IP:10.10.11.1]	[Browser:Chrome - 49.0.2623.110]	[Action:GetGSTModules 10/660,1]	[Remarks:Successful filter row count: 3]
[Date: 2016-03-31 17:32:28]	[UserID:10/660]	[IP:10.10.11.1]	[Browser:Chrome - 49.0.2623.110]	[Action:Closing mssql connection]	[Remarks:Success]
[Date: 2016-03-31 17:36:19]	[UserID:10/660]	[IP:10.10.11.1]	[Browser:Chrome - 49.0.2623.110]	[Action:Making connection to server]	[Remarks:Successful connection to server: S3]
[Date: 2016-03-31 17:36:20]	[UserID:10/660]	[IP:10.10.11.1]	[Browser:Chrome - 49.0.2623.110]	[Action:GetGSTModules 10/660,1]	[Remarks:Successful filter row count: 3]
[Date: 2016-03-31 17:36:20]	[UserID:10/660]	[IP:10.10.11.1]	[Browser:Chrome - 49.0.2623.110]	[Action:Closing mssql connection]	[Remarks:Success]
[Date: 2016-03-31 17:37:04]	[UserID:]	[IP:10.10.11.1]	[Browser:Chrome - 49.0.2623.110]	[Action:Making connection to server]	[Remarks:Successful connection to server: S3]
[Date: 2016-03-31 17:37:04]	[UserID:]	[IP:10.10.11.1]	[Browser:Chrome - 49.0.2623.110]	[Action:GetProgramList ]	[Remarks:"no data"]
[Date: 2016-03-31 17:37:47]	[UserID:08/504]	[IP:10.10.11.1]	[Browser:Chrome - 49.0.2623.87]	[Action:Making connection to server]	[Remarks:Successful connection to server: S3]
[Date: 2016-03-31 17:37:47]	[UserID:08/504]	[IP:10.10.11.1]	[Browser:Chrome - 49.0.2623.87]	[Action:GetProgramList 08/504]	[Remarks:[{"ID":"1","ProgramIndex":"GST","ProgramName":"GST"}]]
[Date: 2016-03-31 17:37:47]	[UserID:08/504]	[IP:10.10.11.1]	[Browser:Chrome - 49.0.2623.87]	[Action:Making connection to server]	[Remarks:Successful connection to server: S3]
[Date: 2016-03-31 17:37:47]	[UserID:08/504]	[IP:10.10.11.1]	[Browser:Chrome - 49.0.2623.87]	[Action:GetProgramList 08/504]	[Remarks:[{"ID":"1","ProgramIndex":"GST","ProgramName":"GST"}]]
[Date: 2016-03-31 17:37:47]	[UserID:08/504]	[IP:10.10.11.1]	[Browser:Chrome - 49.0.2623.87]	[Action:Making connection to server]	[Remarks:Successful connection to server: S3]
[Date: 2016-03-31 17:37:47]	[UserID:08/504]	[IP:10.10.11.1]	[Browser:Chrome - 49.0.2623.87]	[Action:Filtering User : MasterData Username : 08/504]	[Remarks:Successful filter row count: 1]
[Date: 2016-03-31 17:37:48]	[UserID:08/504]	[IP:10.10.11.1]	[Browser:Chrome - 49.0.2623.87]	[Action:Making connection to server]	[Remarks:Successful connection to server: S3]
[Date: 2016-03-31 17:37:48]	[UserID:08/504]	[IP:10.10.11.1]	[Browser:Chrome - 49.0.2623.87]	[Action:GetGSTModules 08/504,1]	[Remarks:Successful filter row count: 5]
[Date: 2016-03-31 17:37:48]	[UserID:08/504]	[IP:10.10.11.1]	[Browser:Chrome - 49.0.2623.87]	[Action:Closing mssql connection]	[Remarks:Success]
[Date: 2016-03-31 17:37:57]	[UserID:08/504]	[IP:10.10.11.1]	[Browser:Chrome - 49.0.2623.87]	[Action:Making connection to server]	[Remarks:Successful connection to server: S3]
[Date: 2016-03-31 17:37:58]	[UserID:08/504]	[IP:10.10.11.1]	[Browser:Chrome - 49.0.2623.87]	[Action:GetGSTModules 08/504,1]	[Remarks:Successful filter row count: 5]
[Date: 2016-03-31 17:37:58]	[UserID:08/504]	[IP:10.10.11.1]	[Browser:Chrome - 49.0.2623.87]	[Action:Closing mssql connection]	[Remarks:Success]
[Date: 2016-03-31 17:48:29]	[UserID:08/504]	[IP:10.10.11.1]	[Browser:Chrome - 49.0.2623.87]	[Action:Making connection to server]	[Remarks:Successful connection to server: S3]
[Date: 2016-03-31 17:48:31]	[UserID:08/504]	[IP:10.10.11.1]	[Browser:Chrome - 49.0.2623.87]	[Action:GetGSTModules 08/504,1]	[Remarks:Successful filter row count: 5]
[Date: 2016-03-31 17:48:31]	[UserID:08/504]	[IP:10.10.11.1]	[Browser:Chrome - 49.0.2623.87]	[Action:Closing mssql connection]	[Remarks:Success]
[Date: 2016-03-31 17:59:28]	[UserID:08/504]	[IP:10.10.11.1]	[Browser:Chrome - 49.0.2623.87]	[Action:Making connection to server]	[Remarks:Successful connection to server: S3]
[Date: 2016-03-31 17:59:28]	[UserID:08/504]	[IP:10.10.11.1]	[Browser:Chrome - 49.0.2623.87]	[Action:GetGSTModules 08/504,1]	[Remarks:Successful filter row count: 5]
[Date: 2016-03-31 17:59:28]	[UserID:08/504]	[IP:10.10.11.1]	[Browser:Chrome - 49.0.2623.87]	[Action:Closing mssql connection]	[Remarks:Success]
[Date: 2016-03-31 18:09:03]	[UserID:08/504]	[IP:10.10.11.1]	[Browser:Chrome - 49.0.2623.87]	[Action:Making connection to server]	[Remarks:Successful connection to server: S3]
[Date: 2016-03-31 18:09:03]	[UserID:08/504]	[IP:10.10.11.1]	[Browser:Chrome - 49.0.2623.87]	[Action:GetGSTModules 08/504,1]	[Remarks:Successful filter row count: 5]
[Date: 2016-03-31 18:09:03]	[UserID:08/504]	[IP:10.10.11.1]	[Browser:Chrome - 49.0.2623.87]	[Action:Closing mssql connection]	[Remarks:Success]
[Date: 2016-03-31 19:20:54]	[UserID:08/504]	[IP:10.10.11.1]	[Browser:Chrome - 49.0.2623.87]	[Action:Making connection to server]	[Remarks:Successful connection to server: S3]
[Date: 2016-03-31 19:20:54]	[UserID:08/504]	[IP:10.10.11.1]	[Browser:Chrome - 49.0.2623.87]	[Action:GetGSTModules 08/504,1]	[Remarks:Successful filter row count: 5]
[Date: 2016-03-31 19:20:54]	[UserID:08/504]	[IP:10.10.11.1]	[Browser:Chrome - 49.0.2623.87]	[Action:Closing mssql connection]	[Remarks:Success]
[Date: 2016-03-31 19:35:14]	[UserID:08/504]	[IP:10.10.11.1]	[Browser:Chrome - 49.0.2623.87]	[Action:Making connection to server]	[Remarks:Successful connection to server: S3]
[Date: 2016-03-31 19:35:14]	[UserID:08/504]	[IP:10.10.11.1]	[Browser:Chrome - 49.0.2623.87]	[Action:GetGSTModules 08/504,1]	[Remarks:Successful filter row count: 5]
[Date: 2016-03-31 19:35:14]	[UserID:08/504]	[IP:10.10.11.1]	[Browser:Chrome - 49.0.2623.87]	[Action:Closing mssql connection]	[Remarks:Success]
[Date: 2016-03-31 19:48:39]	[UserID:08/504]	[IP:10.10.11.1]	[Browser:Chrome - 49.0.2623.87]	[Action:Making connection to server]	[Remarks:Successful connection to server: S3]
[Date: 2016-03-31 19:48:39]	[UserID:08/504]	[IP:10.10.11.1]	[Browser:Chrome - 49.0.2623.87]	[Action:GetGSTModules 08/504,1]	[Remarks:Successful filter row count: 5]
[Date: 2016-03-31 19:48:39]	[UserID:08/504]	[IP:10.10.11.1]	[Browser:Chrome - 49.0.2623.87]	[Action:Closing mssql connection]	[Remarks:Success]
[Date: 2016-03-31 19:50:26]	[UserID:08/504]	[IP:10.10.11.1]	[Browser:Chrome - 49.0.2623.87]	[Action:Making connection to server]	[Remarks:Successful connection to server: S3]
[Date: 2016-03-31 19:50:26]	[UserID:08/504]	[IP:10.10.11.1]	[Browser:Chrome - 49.0.2623.87]	[Action:GetGSTModules 08/504,1]	[Remarks:Successful filter row count: 5]
[Date: 2016-03-31 19:50:26]	[UserID:08/504]	[IP:10.10.11.1]	[Browser:Chrome - 49.0.2623.87]	[Action:Closing mssql connection]	[Remarks:Success]
[Date: 2016-03-31 19:50:43]	[UserID:08/504]	[IP:10.10.11.1]	[Browser:Chrome - 49.0.2623.87]	[Action:Making connection to server]	[Remarks:Successful connection to server: S3]
[Date: 2016-03-31 19:50:43]	[UserID:08/504]	[IP:10.10.11.1]	[Browser:Chrome - 49.0.2623.87]	[Action:GetGSTModules 08/504,1]	[Remarks:Successful filter row count: 5]
[Date: 2016-03-31 19:50:43]	[UserID:08/504]	[IP:10.10.11.1]	[Browser:Chrome - 49.0.2623.87]	[Action:Closing mssql connection]	[Remarks:Success]
[Date: 2016-03-31 19:52:22]	[UserID:08/504]	[IP:10.10.11.1]	[Browser:Chrome - 49.0.2623.87]	[Action:Making connection to server]	[Remarks:Successful connection to server: S3]
[Date: 2016-03-31 19:52:22]	[UserID:08/504]	[IP:10.10.11.1]	[Browser:Chrome - 49.0.2623.87]	[Action:GetGSTModules 08/504,1]	[Remarks:Successful filter row count: 5]
[Date: 2016-03-31 19:52:22]	[UserID:08/504]	[IP:10.10.11.1]	[Browser:Chrome - 49.0.2623.87]	[Action:Closing mssql connection]	[Remarks:Success]
[Date: 2016-03-31 20:29:08]	[UserID:08/504]	[IP:10.10.11.1]	[Browser:Chrome - 49.0.2623.87]	[Action:Making connection to server]	[Remarks:Successful connection to server: S3]
[Date: 2016-03-31 20:29:08]	[UserID:08/504]	[IP:10.10.11.1]	[Browser:Chrome - 49.0.2623.87]	[Action:GetGSTModules 08/504,1]	[Remarks:Successful filter row count: 5]
[Date: 2016-03-31 20:29:08]	[UserID:08/504]	[IP:10.10.11.1]	[Browser:Chrome - 49.0.2623.87]	[Action:Closing mssql connection]	[Remarks:Success]
