[Date: 2018-12-19 08:36:49]	[UserID:]	[IP:10.128.12.113]	[Browser:Chrome - 71.0.3578.98]	[Action:Making connection to server]	[Remarks:Successful connection to server: S3]
[Date: 2018-12-19 08:36:49]	[UserID:]	[IP:10.128.12.113]	[Browser:Chrome - 71.0.3578.98]	[Action:GetProgramList ]	[Remarks:"no data"]
[Date: 2018-12-19 09:36:47]	[UserID:06/343]	[IP:10.128.12.113]	[Browser:Chrome - 71.0.3578.98]	[Action:Making connection to server]	[Remarks:Successful connection to server: S3]
[Date: 2018-12-19 09:36:47]	[UserID:06/343]	[IP:10.128.12.113]	[Browser:Chrome - 71.0.3578.98]	[Action:User 06/343]	[Remarks:Success]
[Date: 2018-12-19 09:36:47]	[UserID:06/343]	[IP:10.128.12.113]	[Browser:Chrome - 71.0.3578.98]	[Action:Filtering User : MasterData Username : 06/343]	[Remarks:Successful filter row count: 0]
[Date: 2018-12-19 09:36:47]	[UserID:06/343]	[IP:10.128.12.113]	[Browser:Chrome - 71.0.3578.98]	[Action:Filtering User : MasterData Username : 06/343]	[Remarks:Successful filter row count: 0]
[Date: 2018-12-19 09:36:47]	[UserID:06/343]	[IP:10.128.12.113]	[Browser:Chrome - 71.0.3578.98]	[Action:Filtering User : MasterData Username : 06/343]	[Remarks:Success]
[Date: 2018-12-19 09:36:47]	[UserID:06/343]	[IP:10.128.12.113]	[Browser:Chrome - 71.0.3578.98]	[Action:Closing mssql connection]	[Remarks:Success]
[Date: 2018-12-19 09:36:47]	[UserID:06/343]	[IP:10.128.12.113]	[Browser:Chrome - 71.0.3578.98]	[Action:Making connection to server]	[Remarks:Successful connection to server: S3]
[Date: 2018-12-19 09:36:47]	[UserID:06/343]	[IP:10.128.12.113]	[Browser:Chrome - 71.0.3578.98]	[Action:GetProgramList 06/343]	[Remarks:[{"ID":"1","ProgramIndex":"GST","ProgramName":"GST"}]]
[Date: 2018-12-19 09:36:47]	[UserID:06/343]	[IP:10.128.12.113]	[Browser:Chrome - 71.0.3578.98]	[Action:Making connection to server]	[Remarks:Successful connection to server: S3]
[Date: 2018-12-19 09:36:47]	[UserID:06/343]	[IP:10.128.12.113]	[Browser:Chrome - 71.0.3578.98]	[Action:GetProgramList 06/343]	[Remarks:[{"ID":"1","ProgramIndex":"GST","ProgramName":"GST"}]]
[Date: 2018-12-19 09:36:47]	[UserID:06/343]	[IP:10.128.12.113]	[Browser:Chrome - 71.0.3578.98]	[Action:Making connection to server]	[Remarks:Successful connection to server: S3]
[Date: 2018-12-19 09:36:47]	[UserID:06/343]	[IP:10.128.12.113]	[Browser:Chrome - 71.0.3578.98]	[Action:Filtering User : MasterData Username : 06/343]	[Remarks:Successful filter row count: 1]
[Date: 2018-12-19 09:36:48]	[UserID:06/343]	[IP:10.128.12.113]	[Browser:Chrome - 71.0.3578.98]	[Action:Making connection to server]	[Remarks:Successful connection to server: S3]
[Date: 2018-12-19 09:36:48]	[UserID:06/343]	[IP:10.128.12.113]	[Browser:Chrome - 71.0.3578.98]	[Action:GetGSTModules 06/343,1]	[Remarks:Successful filter row count: 6]
[Date: 2018-12-19 09:36:48]	[UserID:06/343]	[IP:10.128.12.113]	[Browser:Chrome - 71.0.3578.98]	[Action:Closing mssql connection]	[Remarks:Success]
[Date: 2018-12-19 09:47:55]	[UserID:06/343]	[IP:10.128.12.113]	[Browser:Chrome - 71.0.3578.98]	[Action:Making connection to server]	[Remarks:Successful connection to server: S3]
[Date: 2018-12-19 09:47:55]	[UserID:06/343]	[IP:10.128.12.113]	[Browser:Chrome - 71.0.3578.98]	[Action:GetGSTModules 06/343,1]	[Remarks:Successful filter row count: 6]
[Date: 2018-12-19 09:47:55]	[UserID:06/343]	[IP:10.128.12.113]	[Browser:Chrome - 71.0.3578.98]	[Action:Closing mssql connection]	[Remarks:Success]
[Date: 2018-12-19 10:28:37]	[UserID:06/343]	[IP:10.128.12.113]	[Browser:Chrome - 71.0.3578.98]	[Action:Making connection to server]	[Remarks:Successful connection to server: S3]
[Date: 2018-12-19 10:28:37]	[UserID:06/343]	[IP:10.128.12.113]	[Browser:Chrome - 71.0.3578.98]	[Action:GetGSTModules 06/343,1]	[Remarks:Successful filter row count: 6]
[Date: 2018-12-19 10:28:37]	[UserID:06/343]	[IP:10.128.12.113]	[Browser:Chrome - 71.0.3578.98]	[Action:Closing mssql connection]	[Remarks:Success]
[Date: 2018-12-19 10:31:24]	[UserID:06/343]	[IP:10.128.12.113]	[Browser:Chrome - 71.0.3578.98]	[Action:Making connection to server]	[Remarks:Successful connection to server: S3]
[Date: 2018-12-19 10:31:24]	[UserID:06/343]	[IP:10.128.12.113]	[Browser:Chrome - 71.0.3578.98]	[Action:GetGSTModules 06/343,1]	[Remarks:Successful filter row count: 6]
[Date: 2018-12-19 10:31:24]	[UserID:06/343]	[IP:10.128.12.113]	[Browser:Chrome - 71.0.3578.98]	[Action:Closing mssql connection]	[Remarks:Success]
[Date: 2018-12-19 12:03:29]	[UserID:]	[IP:10.128.80.158]	[Browser:Chrome - 70.0.3538.110]	[Action:Making connection to server]	[Remarks:Successful connection to server: S3]
[Date: 2018-12-19 12:03:29]	[UserID:]	[IP:10.128.80.158]	[Browser:Chrome - 70.0.3538.110]	[Action:GetProgramList ]	[Remarks:"no data"]
[Date: 2018-12-19 18:18:33]	[UserID:]	[IP:10.128.12.210]	[Browser:Chrome - 71.0.3578.98]	[Action:Making connection to server]	[Remarks:Successful connection to server: S3]
[Date: 2018-12-19 18:18:33]	[UserID:]	[IP:10.128.12.210]	[Browser:Chrome - 71.0.3578.98]	[Action:GetProgramList ]	[Remarks:"no data"]
[Date: 2018-12-19 18:18:48]	[UserID:10/660]	[IP:10.128.12.210]	[Browser:Chrome - 71.0.3578.98]	[Action:Making connection to server]	[Remarks:Successful connection to server: S3]
[Date: 2018-12-19 18:18:48]	[UserID:10/660]	[IP:10.128.12.210]	[Browser:Chrome - 71.0.3578.98]	[Action:User 10/660]	[Remarks:Success]
[Date: 2018-12-19 18:18:48]	[UserID:10/660]	[IP:10.128.12.210]	[Browser:Chrome - 71.0.3578.98]	[Action:Filtering User : MasterData Username : 10/660]	[Remarks:Successful filter row count: 0]
[Date: 2018-12-19 18:18:48]	[UserID:10/660]	[IP:10.128.12.210]	[Browser:Chrome - 71.0.3578.98]	[Action:Filtering User : MasterData Username : 10/660]	[Remarks:Successful filter row count: 0]
[Date: 2018-12-19 18:18:48]	[UserID:10/660]	[IP:10.128.12.210]	[Browser:Chrome - 71.0.3578.98]	[Action:Filtering User : MasterData Username : 10/660]	[Remarks:Success]
[Date: 2018-12-19 18:18:48]	[UserID:10/660]	[IP:10.128.12.210]	[Browser:Chrome - 71.0.3578.98]	[Action:Closing mssql connection]	[Remarks:Success]
[Date: 2018-12-19 18:18:48]	[UserID:10/660]	[IP:10.128.12.210]	[Browser:Chrome - 71.0.3578.98]	[Action:Making connection to server]	[Remarks:Successful connection to server: S3]
[Date: 2018-12-19 18:18:48]	[UserID:10/660]	[IP:10.128.12.210]	[Browser:Chrome - 71.0.3578.98]	[Action:GetProgramList 10/660]	[Remarks:[{"ID":"1","ProgramIndex":"GST","ProgramName":"GST"}]]
[Date: 2018-12-19 18:18:48]	[UserID:10/660]	[IP:10.128.12.210]	[Browser:Chrome - 71.0.3578.98]	[Action:Making connection to server]	[Remarks:Successful connection to server: S3]
[Date: 2018-12-19 18:18:49]	[UserID:10/660]	[IP:10.128.12.210]	[Browser:Chrome - 71.0.3578.98]	[Action:GetProgramList 10/660]	[Remarks:[{"ID":"1","ProgramIndex":"GST","ProgramName":"GST"}]]
[Date: 2018-12-19 18:18:49]	[UserID:10/660]	[IP:10.128.12.210]	[Browser:Chrome - 71.0.3578.98]	[Action:Making connection to server]	[Remarks:Successful connection to server: S3]
[Date: 2018-12-19 18:18:49]	[UserID:10/660]	[IP:10.128.12.210]	[Browser:Chrome - 71.0.3578.98]	[Action:Filtering User : MasterData Username : 10/660]	[Remarks:Successful filter row count: 1]
[Date: 2018-12-19 18:18:49]	[UserID:10/660]	[IP:10.128.12.210]	[Browser:Chrome - 71.0.3578.98]	[Action:Making connection to server]	[Remarks:Successful connection to server: S3]
[Date: 2018-12-19 18:18:49]	[UserID:10/660]	[IP:10.128.12.210]	[Browser:Chrome - 71.0.3578.98]	[Action:GetGSTModules 10/660,1]	[Remarks:Successful filter row count: 5]
[Date: 2018-12-19 18:18:49]	[UserID:10/660]	[IP:10.128.12.210]	[Browser:Chrome - 71.0.3578.98]	[Action:Closing mssql connection]	[Remarks:Success]
[Date: 2018-12-19 18:27:47]	[UserID:10/660]	[IP:10.128.12.210]	[Browser:Chrome - 71.0.3578.98]	[Action:Making connection to server]	[Remarks:Successful connection to server: S3]
[Date: 2018-12-19 18:27:47]	[UserID:10/660]	[IP:10.128.12.210]	[Browser:Chrome - 71.0.3578.98]	[Action:GetGSTModules 10/660,1]	[Remarks:Successful filter row count: 5]
[Date: 2018-12-19 18:27:47]	[UserID:10/660]	[IP:10.128.12.210]	[Browser:Chrome - 71.0.3578.98]	[Action:Closing mssql connection]	[Remarks:Success]
[Date: 2018-12-19 18:29:38]	[UserID:10/660]	[IP:10.128.12.210]	[Browser:Chrome - 71.0.3578.98]	[Action:Making connection to server]	[Remarks:Successful connection to server: S3]
[Date: 2018-12-19 18:29:38]	[UserID:10/660]	[IP:10.128.12.210]	[Browser:Chrome - 71.0.3578.98]	[Action:GetGSTModules 10/660,1]	[Remarks:Successful filter row count: 5]
[Date: 2018-12-19 18:29:38]	[UserID:10/660]	[IP:10.128.12.210]	[Browser:Chrome - 71.0.3578.98]	[Action:Closing mssql connection]	[Remarks:Success]
