[Date: 2018-10-11 10:10:37]	[UserID:]	[IP:10.128.12.113]	[Browser:Chrome - 69.0.3497.100]	[Action:Making connection to server]	[Remarks:Successful connection to server: S3]
[Date: 2018-10-11 10:10:37]	[UserID:]	[IP:10.128.12.113]	[Browser:Chrome - 69.0.3497.100]	[Action:GetProgramList ]	[Remarks:"no data"]
[Date: 2018-10-11 10:13:34]	[UserID:06/343]	[IP:10.128.12.113]	[Browser:Chrome - 69.0.3497.100]	[Action:Making connection to server]	[Remarks:Successful connection to server: S3]
[Date: 2018-10-11 10:13:34]	[UserID:06/343]	[IP:10.128.12.113]	[Browser:Chrome - 69.0.3497.100]	[Action:User 06/343]	[Remarks:Success]
[Date: 2018-10-11 10:13:34]	[UserID:06/343]	[IP:10.128.12.113]	[Browser:Chrome - 69.0.3497.100]	[Action:Filtering User : MasterData Username : 06/343]	[Remarks:Successful filter row count: 0]
[Date: 2018-10-11 10:13:34]	[UserID:06/343]	[IP:10.128.12.113]	[Browser:Chrome - 69.0.3497.100]	[Action:Filtering User : MasterData Username : 06/343]	[Remarks:Successful filter row count: 0]
[Date: 2018-10-11 10:13:34]	[UserID:06/343]	[IP:10.128.12.113]	[Browser:Chrome - 69.0.3497.100]	[Action:Filtering User : MasterData Username : 06/343]	[Remarks:Success]
[Date: 2018-10-11 10:13:34]	[UserID:06/343]	[IP:10.128.12.113]	[Browser:Chrome - 69.0.3497.100]	[Action:Closing mssql connection]	[Remarks:Success]
[Date: 2018-10-11 10:13:34]	[UserID:06/343]	[IP:10.128.12.113]	[Browser:Chrome - 69.0.3497.100]	[Action:Making connection to server]	[Remarks:Successful connection to server: S3]
[Date: 2018-10-11 10:13:34]	[UserID:06/343]	[IP:10.128.12.113]	[Browser:Chrome - 69.0.3497.100]	[Action:GetProgramList 06/343]	[Remarks:[{"ID":"1","ProgramIndex":"GST","ProgramName":"GST"}]]
[Date: 2018-10-11 10:13:34]	[UserID:06/343]	[IP:10.128.12.113]	[Browser:Chrome - 69.0.3497.100]	[Action:Making connection to server]	[Remarks:Successful connection to server: S3]
[Date: 2018-10-11 10:13:34]	[UserID:06/343]	[IP:10.128.12.113]	[Browser:Chrome - 69.0.3497.100]	[Action:GetProgramList 06/343]	[Remarks:[{"ID":"1","ProgramIndex":"GST","ProgramName":"GST"}]]
[Date: 2018-10-11 10:13:34]	[UserID:06/343]	[IP:10.128.12.113]	[Browser:Chrome - 69.0.3497.100]	[Action:Making connection to server]	[Remarks:Successful connection to server: S3]
[Date: 2018-10-11 10:13:34]	[UserID:06/343]	[IP:10.128.12.113]	[Browser:Chrome - 69.0.3497.100]	[Action:Filtering User : MasterData Username : 06/343]	[Remarks:Successful filter row count: 1]
[Date: 2018-10-11 10:13:34]	[UserID:06/343]	[IP:10.128.12.113]	[Browser:Chrome - 69.0.3497.100]	[Action:Making connection to server]	[Remarks:Successful connection to server: S3]
[Date: 2018-10-11 10:13:34]	[UserID:06/343]	[IP:10.128.12.113]	[Browser:Chrome - 69.0.3497.100]	[Action:GetGSTModules 06/343,1]	[Remarks:Successful filter row count: 6]
[Date: 2018-10-11 10:13:34]	[UserID:06/343]	[IP:10.128.12.113]	[Browser:Chrome - 69.0.3497.100]	[Action:Closing mssql connection]	[Remarks:Success]
[Date: 2018-10-11 10:27:10]	[UserID:06/343]	[IP:10.128.12.113]	[Browser:Chrome - 69.0.3497.100]	[Action:Making connection to server]	[Remarks:Successful connection to server: S3]
[Date: 2018-10-11 10:27:10]	[UserID:06/343]	[IP:10.128.12.113]	[Browser:Chrome - 69.0.3497.100]	[Action:GetGSTModules 06/343,1]	[Remarks:Successful filter row count: 6]
[Date: 2018-10-11 10:27:10]	[UserID:06/343]	[IP:10.128.12.113]	[Browser:Chrome - 69.0.3497.100]	[Action:Closing mssql connection]	[Remarks:Success]
[Date: 2018-10-11 10:29:05]	[UserID:]	[IP:10.128.12.210]	[Browser:Chrome - 69.0.3497.100]	[Action:Making connection to server]	[Remarks:Successful connection to server: S3]
[Date: 2018-10-11 10:29:05]	[UserID:]	[IP:10.128.12.210]	[Browser:Chrome - 69.0.3497.100]	[Action:GetProgramList ]	[Remarks:"no data"]
[Date: 2018-10-11 10:29:14]	[UserID:10/660]	[IP:10.128.12.210]	[Browser:Chrome - 69.0.3497.100]	[Action:Making connection to server]	[Remarks:Successful connection to server: S3]
[Date: 2018-10-11 10:29:14]	[UserID:10/660]	[IP:10.128.12.210]	[Browser:Chrome - 69.0.3497.100]	[Action:User 10/660]	[Remarks:Success]
[Date: 2018-10-11 10:29:14]	[UserID:10/660]	[IP:10.128.12.210]	[Browser:Chrome - 69.0.3497.100]	[Action:Filtering User : MasterData Username : 10/660]	[Remarks:Successful filter row count: 0]
[Date: 2018-10-11 10:29:14]	[UserID:10/660]	[IP:10.128.12.210]	[Browser:Chrome - 69.0.3497.100]	[Action:Filtering User : MasterData Username : 10/660]	[Remarks:Successful filter row count: 0]
[Date: 2018-10-11 10:29:14]	[UserID:10/660]	[IP:10.128.12.210]	[Browser:Chrome - 69.0.3497.100]	[Action:Filtering User : MasterData Username : 10/660]	[Remarks:Success]
[Date: 2018-10-11 10:29:14]	[UserID:10/660]	[IP:10.128.12.210]	[Browser:Chrome - 69.0.3497.100]	[Action:Closing mssql connection]	[Remarks:Success]
[Date: 2018-10-11 10:29:14]	[UserID:10/660]	[IP:10.128.12.210]	[Browser:Chrome - 69.0.3497.100]	[Action:Making connection to server]	[Remarks:Successful connection to server: S3]
[Date: 2018-10-11 10:29:14]	[UserID:10/660]	[IP:10.128.12.210]	[Browser:Chrome - 69.0.3497.100]	[Action:GetProgramList 10/660]	[Remarks:[{"ID":"1","ProgramIndex":"GST","ProgramName":"GST"}]]
[Date: 2018-10-11 10:29:14]	[UserID:10/660]	[IP:10.128.12.210]	[Browser:Chrome - 69.0.3497.100]	[Action:Making connection to server]	[Remarks:Successful connection to server: S3]
[Date: 2018-10-11 10:29:14]	[UserID:10/660]	[IP:10.128.12.210]	[Browser:Chrome - 69.0.3497.100]	[Action:GetProgramList 10/660]	[Remarks:[{"ID":"1","ProgramIndex":"GST","ProgramName":"GST"}]]
[Date: 2018-10-11 10:29:14]	[UserID:10/660]	[IP:10.128.12.210]	[Browser:Chrome - 69.0.3497.100]	[Action:Making connection to server]	[Remarks:Successful connection to server: S3]
[Date: 2018-10-11 10:29:14]	[UserID:10/660]	[IP:10.128.12.210]	[Browser:Chrome - 69.0.3497.100]	[Action:Filtering User : MasterData Username : 10/660]	[Remarks:Successful filter row count: 1]
[Date: 2018-10-11 10:29:14]	[UserID:10/660]	[IP:10.128.12.210]	[Browser:Chrome - 69.0.3497.100]	[Action:Making connection to server]	[Remarks:Successful connection to server: S3]
[Date: 2018-10-11 10:29:14]	[UserID:10/660]	[IP:10.128.12.210]	[Browser:Chrome - 69.0.3497.100]	[Action:GetGSTModules 10/660,1]	[Remarks:Successful filter row count: 5]
[Date: 2018-10-11 10:29:14]	[UserID:10/660]	[IP:10.128.12.210]	[Browser:Chrome - 69.0.3497.100]	[Action:Closing mssql connection]	[Remarks:Success]
[Date: 2018-10-11 10:32:59]	[UserID:10/660]	[IP:10.128.12.210]	[Browser:Chrome - 69.0.3497.100]	[Action:Making connection to server]	[Remarks:Successful connection to server: S3]
[Date: 2018-10-11 10:32:59]	[UserID:10/660]	[IP:10.128.12.210]	[Browser:Chrome - 69.0.3497.100]	[Action:GetGSTModules 10/660,1]	[Remarks:Successful filter row count: 5]
[Date: 2018-10-11 10:32:59]	[UserID:10/660]	[IP:10.128.12.210]	[Browser:Chrome - 69.0.3497.100]	[Action:Closing mssql connection]	[Remarks:Success]
[Date: 2018-10-11 10:33:25]	[UserID:]	[IP:10.128.12.210]	[Browser:Chrome - 69.0.3497.100]	[Action:Making connection to server]	[Remarks:Successful connection to server: S3]
[Date: 2018-10-11 10:33:25]	[UserID:]	[IP:10.128.12.210]	[Browser:Chrome - 69.0.3497.100]	[Action:GetProgramList ]	[Remarks:"no data"]
[Date: 2018-10-11 10:54:12]	[UserID:06/343]	[IP:10.128.12.113]	[Browser:Chrome - 69.0.3497.100]	[Action:Making connection to server]	[Remarks:Successful connection to server: S3]
[Date: 2018-10-11 10:54:12]	[UserID:06/343]	[IP:10.128.12.113]	[Browser:Chrome - 69.0.3497.100]	[Action:GetGSTModules 06/343,1]	[Remarks:Successful filter row count: 6]
[Date: 2018-10-11 10:54:12]	[UserID:06/343]	[IP:10.128.12.113]	[Browser:Chrome - 69.0.3497.100]	[Action:Closing mssql connection]	[Remarks:Success]
[Date: 2018-10-11 11:02:09]	[UserID:06/343]	[IP:10.128.12.113]	[Browser:Chrome - 69.0.3497.100]	[Action:Making connection to server]	[Remarks:Successful connection to server: S3]
[Date: 2018-10-11 11:02:09]	[UserID:06/343]	[IP:10.128.12.113]	[Browser:Chrome - 69.0.3497.100]	[Action:GetGSTModules 06/343,1]	[Remarks:Successful filter row count: 6]
[Date: 2018-10-11 11:02:09]	[UserID:06/343]	[IP:10.128.12.113]	[Browser:Chrome - 69.0.3497.100]	[Action:Closing mssql connection]	[Remarks:Success]
[Date: 2018-10-11 18:11:12]	[UserID:]	[IP:10.128.12.210]	[Browser:Chrome - 69.0.3497.100]	[Action:Making connection to server]	[Remarks:Successful connection to server: S3]
[Date: 2018-10-11 18:11:12]	[UserID:]	[IP:10.128.12.210]	[Browser:Chrome - 69.0.3497.100]	[Action:GetProgramList ]	[Remarks:"no data"]
[Date: 2018-10-11 18:11:22]	[UserID:10/660]	[IP:10.128.12.210]	[Browser:Chrome - 69.0.3497.100]	[Action:Making connection to server]	[Remarks:Successful connection to server: S3]
[Date: 2018-10-11 18:11:22]	[UserID:10/660]	[IP:10.128.12.210]	[Browser:Chrome - 69.0.3497.100]	[Action:User 10/660]	[Remarks:Success]
[Date: 2018-10-11 18:11:22]	[UserID:10/660]	[IP:10.128.12.210]	[Browser:Chrome - 69.0.3497.100]	[Action:Filtering User : MasterData Username : 10/660]	[Remarks:Successful filter row count: 0]
[Date: 2018-10-11 18:11:22]	[UserID:10/660]	[IP:10.128.12.210]	[Browser:Chrome - 69.0.3497.100]	[Action:Filtering User : MasterData Username : 10/660]	[Remarks:Successful filter row count: 0]
[Date: 2018-10-11 18:11:22]	[UserID:10/660]	[IP:10.128.12.210]	[Browser:Chrome - 69.0.3497.100]	[Action:Filtering User : MasterData Username : 10/660]	[Remarks:Success]
[Date: 2018-10-11 18:11:22]	[UserID:10/660]	[IP:10.128.12.210]	[Browser:Chrome - 69.0.3497.100]	[Action:Closing mssql connection]	[Remarks:Success]
[Date: 2018-10-11 18:11:22]	[UserID:10/660]	[IP:10.128.12.210]	[Browser:Chrome - 69.0.3497.100]	[Action:Making connection to server]	[Remarks:Successful connection to server: S3]
[Date: 2018-10-11 18:11:22]	[UserID:10/660]	[IP:10.128.12.210]	[Browser:Chrome - 69.0.3497.100]	[Action:GetProgramList 10/660]	[Remarks:[{"ID":"1","ProgramIndex":"GST","ProgramName":"GST"}]]
[Date: 2018-10-11 18:11:22]	[UserID:10/660]	[IP:10.128.12.210]	[Browser:Chrome - 69.0.3497.100]	[Action:Making connection to server]	[Remarks:Successful connection to server: S3]
[Date: 2018-10-11 18:11:22]	[UserID:10/660]	[IP:10.128.12.210]	[Browser:Chrome - 69.0.3497.100]	[Action:GetProgramList 10/660]	[Remarks:[{"ID":"1","ProgramIndex":"GST","ProgramName":"GST"}]]
[Date: 2018-10-11 18:11:22]	[UserID:10/660]	[IP:10.128.12.210]	[Browser:Chrome - 69.0.3497.100]	[Action:Making connection to server]	[Remarks:Successful connection to server: S3]
[Date: 2018-10-11 18:11:22]	[UserID:10/660]	[IP:10.128.12.210]	[Browser:Chrome - 69.0.3497.100]	[Action:Filtering User : MasterData Username : 10/660]	[Remarks:Successful filter row count: 1]
[Date: 2018-10-11 18:11:22]	[UserID:10/660]	[IP:10.128.12.210]	[Browser:Chrome - 69.0.3497.100]	[Action:Making connection to server]	[Remarks:Successful connection to server: S3]
[Date: 2018-10-11 18:11:22]	[UserID:10/660]	[IP:10.128.12.210]	[Browser:Chrome - 69.0.3497.100]	[Action:GetGSTModules 10/660,1]	[Remarks:Successful filter row count: 5]
[Date: 2018-10-11 18:11:22]	[UserID:10/660]	[IP:10.128.12.210]	[Browser:Chrome - 69.0.3497.100]	[Action:Closing mssql connection]	[Remarks:Success]
[Date: 2018-10-11 18:17:36]	[UserID:10/660]	[IP:10.128.12.210]	[Browser:Chrome - 69.0.3497.100]	[Action:Making connection to server]	[Remarks:Successful connection to server: S3]
[Date: 2018-10-11 18:17:36]	[UserID:10/660]	[IP:10.128.12.210]	[Browser:Chrome - 69.0.3497.100]	[Action:GetGSTModules 10/660,1]	[Remarks:Successful filter row count: 5]
[Date: 2018-10-11 18:17:36]	[UserID:10/660]	[IP:10.128.12.210]	[Browser:Chrome - 69.0.3497.100]	[Action:Closing mssql connection]	[Remarks:Success]
[Date: 2018-10-11 18:20:19]	[UserID:10/660]	[IP:10.128.12.210]	[Browser:Chrome - 69.0.3497.100]	[Action:Making connection to server]	[Remarks:Successful connection to server: S3]
[Date: 2018-10-11 18:20:19]	[UserID:10/660]	[IP:10.128.12.210]	[Browser:Chrome - 69.0.3497.100]	[Action:GetGSTModules 10/660,1]	[Remarks:Successful filter row count: 5]
[Date: 2018-10-11 18:20:19]	[UserID:10/660]	[IP:10.128.12.210]	[Browser:Chrome - 69.0.3497.100]	[Action:Closing mssql connection]	[Remarks:Success]
