[Date: 2015-11-27 07:29:08]	[UserID:]	[IP:10.10.11.1]	[Browser:Chrome - 46.0.2490.86]	[Action:Making connection to server]	[Remarks:Successful connection to server: S3]
[Date: 2015-11-27 07:29:08]	[UserID:]	[IP:10.10.11.1]	[Browser:Chrome - 46.0.2490.86]	[Action:Making connection to server]	[Remarks:Successful connection to server: S3]
[Date: 2015-11-27 07:29:09]	[UserID:]	[IP:10.10.11.1]	[Browser:Chrome - 46.0.2490.86]	[Action:GetProgramList ]	[Remarks:"no data"]
[Date: 2015-11-27 07:29:09]	[UserID:]	[IP:10.10.11.1]	[Browser:Chrome - 46.0.2490.86]	[Action:GetProgramList ]	[Remarks:"no data"]
[Date: 2015-11-27 07:29:17]	[UserID:06/343]	[IP:10.10.11.1]	[Browser:Chrome - 46.0.2490.86]	[Action:Making connection to server]	[Remarks:Successful connection to server: S3]
[Date: 2015-11-27 07:29:18]	[UserID:06/343]	[IP:10.10.11.1]	[Browser:Chrome - 46.0.2490.86]	[Action:User 06/343]	[Remarks:Success]
[Date: 2015-11-27 07:29:18]	[UserID:06/343]	[IP:10.10.11.1]	[Browser:Chrome - 46.0.2490.86]	[Action:Filtering User : MasterData Username : 06/343]	[Remarks:Successful filter row count: 0]
[Date: 2015-11-27 07:29:18]	[UserID:06/343]	[IP:10.10.11.1]	[Browser:Chrome - 46.0.2490.86]	[Action:Filtering User : MasterData Username : 06/343]	[Remarks:Successful filter row count: 0]
[Date: 2015-11-27 07:29:18]	[UserID:06/343]	[IP:10.10.11.1]	[Browser:Chrome - 46.0.2490.86]	[Action:Filtering User : MasterData Username : 06/343]	[Remarks:Success]
[Date: 2015-11-27 07:29:18]	[UserID:06/343]	[IP:10.10.11.1]	[Browser:Chrome - 46.0.2490.86]	[Action:Closing mssql connection]	[Remarks:Success]
[Date: 2015-11-27 07:29:19]	[UserID:06/343]	[IP:10.10.11.1]	[Browser:Chrome - 46.0.2490.86]	[Action:Making connection to server]	[Remarks:Successful connection to server: S3]
[Date: 2015-11-27 07:29:19]	[UserID:06/343]	[IP:10.10.11.1]	[Browser:Chrome - 46.0.2490.86]	[Action:GetProgramList 06/343]	[Remarks:[{"ID":"1","ProgramIndex":"GST","ProgramName":"GST"}]]
[Date: 2015-11-27 07:29:19]	[UserID:06/343]	[IP:10.10.11.1]	[Browser:Chrome - 46.0.2490.86]	[Action:Making connection to server]	[Remarks:Successful connection to server: S3]
[Date: 2015-11-27 07:29:19]	[UserID:06/343]	[IP:10.10.11.1]	[Browser:Chrome - 46.0.2490.86]	[Action:GetProgramList 06/343]	[Remarks:[{"ID":"1","ProgramIndex":"GST","ProgramName":"GST"}]]
[Date: 2015-11-27 07:29:19]	[UserID:06/343]	[IP:10.10.11.1]	[Browser:Chrome - 46.0.2490.86]	[Action:Making connection to server]	[Remarks:Successful connection to server: S3]
[Date: 2015-11-27 07:29:19]	[UserID:06/343]	[IP:10.10.11.1]	[Browser:Chrome - 46.0.2490.86]	[Action:Filtering User : MasterData Username : 06/343]	[Remarks:Successful filter row count: 1]
[Date: 2015-11-27 07:29:19]	[UserID:06/343]	[IP:10.10.11.1]	[Browser:Chrome - 46.0.2490.86]	[Action:Making connection to server]	[Remarks:Successful connection to server: S3]
[Date: 2015-11-27 07:29:19]	[UserID:06/343]	[IP:10.10.11.1]	[Browser:Chrome - 46.0.2490.86]	[Action:GetGSTModules 06/343,1]	[Remarks:Successful filter row count: 5]
[Date: 2015-11-27 07:29:19]	[UserID:06/343]	[IP:10.10.11.1]	[Browser:Chrome - 46.0.2490.86]	[Action:Closing mssql connection]	[Remarks:Success]
[Date: 2015-11-27 07:40:19]	[UserID:06/343]	[IP:10.10.11.1]	[Browser:Chrome - 46.0.2490.86]	[Action:Making connection to server]	[Remarks:Successful connection to server: S3]
[Date: 2015-11-27 07:40:19]	[UserID:06/343]	[IP:10.10.11.1]	[Browser:Chrome - 46.0.2490.86]	[Action:GetGSTModules 06/343,1]	[Remarks:Successful filter row count: 5]
[Date: 2015-11-27 07:40:19]	[UserID:06/343]	[IP:10.10.11.1]	[Browser:Chrome - 46.0.2490.86]	[Action:Closing mssql connection]	[Remarks:Success]
[Date: 2015-11-27 07:49:25]	[UserID:06/343]	[IP:10.10.11.1]	[Browser:Chrome - 46.0.2490.86]	[Action:Making connection to server]	[Remarks:Successful connection to server: S3]
[Date: 2015-11-27 07:49:26]	[UserID:06/343]	[IP:10.10.11.1]	[Browser:Chrome - 46.0.2490.86]	[Action:GetGSTModules 06/343,1]	[Remarks:Successful filter row count: 5]
[Date: 2015-11-27 07:49:26]	[UserID:06/343]	[IP:10.10.11.1]	[Browser:Chrome - 46.0.2490.86]	[Action:Closing mssql connection]	[Remarks:Success]
[Date: 2015-11-27 07:51:22]	[UserID:06/343]	[IP:10.10.11.1]	[Browser:Chrome - 46.0.2490.86]	[Action:Making connection to server]	[Remarks:Successful connection to server: S3]
[Date: 2015-11-27 07:51:22]	[UserID:06/343]	[IP:10.10.11.1]	[Browser:Chrome - 46.0.2490.86]	[Action:GetGSTModules 06/343,1]	[Remarks:Successful filter row count: 5]
[Date: 2015-11-27 07:51:22]	[UserID:06/343]	[IP:10.10.11.1]	[Browser:Chrome - 46.0.2490.86]	[Action:Closing mssql connection]	[Remarks:Success]
[Date: 2015-11-27 07:55:03]	[UserID:06/343]	[IP:10.10.11.1]	[Browser:Chrome - 46.0.2490.86]	[Action:Making connection to server]	[Remarks:Successful connection to server: S3]
[Date: 2015-11-27 07:55:03]	[UserID:06/343]	[IP:10.10.11.1]	[Browser:Chrome - 46.0.2490.86]	[Action:GetGSTModules 06/343,1]	[Remarks:Successful filter row count: 5]
[Date: 2015-11-27 07:55:03]	[UserID:06/343]	[IP:10.10.11.1]	[Browser:Chrome - 46.0.2490.86]	[Action:Closing mssql connection]	[Remarks:Success]
[Date: 2015-11-27 07:57:05]	[UserID:06/343]	[IP:10.10.11.1]	[Browser:Chrome - 46.0.2490.86]	[Action:Making connection to server]	[Remarks:Successful connection to server: S3]
[Date: 2015-11-27 07:57:05]	[UserID:06/343]	[IP:10.10.11.1]	[Browser:Chrome - 46.0.2490.86]	[Action:GetGSTModules 06/343,1]	[Remarks:Successful filter row count: 5]
[Date: 2015-11-27 07:57:05]	[UserID:06/343]	[IP:10.10.11.1]	[Browser:Chrome - 46.0.2490.86]	[Action:Closing mssql connection]	[Remarks:Success]
[Date: 2015-11-27 08:17:20]	[UserID:]	[IP:10.10.11.1]	[Browser:Chrome - 46.0.2490.86]	[Action:Making connection to server]	[Remarks:Successful connection to server: S3]
[Date: 2015-11-27 08:17:21]	[UserID:]	[IP:10.10.11.1]	[Browser:Chrome - 46.0.2490.86]	[Action:GetProgramList ]	[Remarks:"no data"]
[Date: 2015-11-27 08:17:23]	[UserID:11/715]	[IP:10.10.11.1]	[Browser:Chrome - 46.0.2490.86]	[Action:Making connection to server]	[Remarks:Successful connection to server: S3]
[Date: 2015-11-27 08:17:23]	[UserID:11/715]	[IP:10.10.11.1]	[Browser:Chrome - 46.0.2490.86]	[Action:User 11/715]	[Remarks:Success]
[Date: 2015-11-27 08:17:23]	[UserID:11/715]	[IP:10.10.11.1]	[Browser:Chrome - 46.0.2490.86]	[Action:Filtering User : MasterData Username : 11/715]	[Remarks:Successful filter row count: 0]
[Date: 2015-11-27 08:17:23]	[UserID:11/715]	[IP:10.10.11.1]	[Browser:Chrome - 46.0.2490.86]	[Action:Filtering User : MasterData Username : 11/715]	[Remarks:Successful filter row count: 0]
[Date: 2015-11-27 08:17:23]	[UserID:11/715]	[IP:10.10.11.1]	[Browser:Chrome - 46.0.2490.86]	[Action:Filtering User : MasterData Username : 11/715]	[Remarks:Success]
[Date: 2015-11-27 08:17:23]	[UserID:11/715]	[IP:10.10.11.1]	[Browser:Chrome - 46.0.2490.86]	[Action:Closing mssql connection]	[Remarks:Success]
[Date: 2015-11-27 08:17:23]	[UserID:11/715]	[IP:10.10.11.1]	[Browser:Chrome - 46.0.2490.86]	[Action:Making connection to server]	[Remarks:Successful connection to server: S3]
[Date: 2015-11-27 08:17:23]	[UserID:11/715]	[IP:10.10.11.1]	[Browser:Chrome - 46.0.2490.86]	[Action:GetProgramList 11/715]	[Remarks:[{"ID":"1","ProgramIndex":"GST","ProgramName":"GST"}]]
[Date: 2015-11-27 08:17:23]	[UserID:11/715]	[IP:10.10.11.1]	[Browser:Chrome - 46.0.2490.86]	[Action:Making connection to server]	[Remarks:Successful connection to server: S3]
[Date: 2015-11-27 08:17:23]	[UserID:11/715]	[IP:10.10.11.1]	[Browser:Chrome - 46.0.2490.86]	[Action:GetProgramList 11/715]	[Remarks:[{"ID":"1","ProgramIndex":"GST","ProgramName":"GST"}]]
[Date: 2015-11-27 08:17:23]	[UserID:11/715]	[IP:10.10.11.1]	[Browser:Chrome - 46.0.2490.86]	[Action:Making connection to server]	[Remarks:Successful connection to server: S3]
[Date: 2015-11-27 08:17:23]	[UserID:11/715]	[IP:10.10.11.1]	[Browser:Chrome - 46.0.2490.86]	[Action:Filtering User : MasterData Username : 11/715]	[Remarks:Successful filter row count: 1]
[Date: 2015-11-27 08:17:24]	[UserID:11/715]	[IP:10.10.11.1]	[Browser:Chrome - 46.0.2490.86]	[Action:Making connection to server]	[Remarks:Successful connection to server: S3]
[Date: 2015-11-27 08:17:25]	[UserID:11/715]	[IP:10.10.11.1]	[Browser:Chrome - 46.0.2490.86]	[Action:GetGSTModules 11/715,1]	[Remarks:Successful filter row count: 3]
[Date: 2015-11-27 08:17:25]	[UserID:11/715]	[IP:10.10.11.1]	[Browser:Chrome - 46.0.2490.86]	[Action:Closing mssql connection]	[Remarks:Success]
[Date: 2015-11-27 08:19:47]	[UserID:11/715]	[IP:10.10.11.1]	[Browser:Chrome - 46.0.2490.86]	[Action:Making connection to server]	[Remarks:Successful connection to server: S3]
[Date: 2015-11-27 08:19:47]	[UserID:11/715]	[IP:10.10.11.1]	[Browser:Chrome - 46.0.2490.86]	[Action:GetGSTModules 11/715,1]	[Remarks:Successful filter row count: 3]
[Date: 2015-11-27 08:19:47]	[UserID:11/715]	[IP:10.10.11.1]	[Browser:Chrome - 46.0.2490.86]	[Action:Closing mssql connection]	[Remarks:Success]
[Date: 2015-11-27 08:41:06]	[UserID:]	[IP:10.10.11.1]	[Browser:Chrome - 46.0.2490.86]	[Action:Making connection to server]	[Remarks:Successful connection to server: S3]
[Date: 2015-11-27 08:41:06]	[UserID:]	[IP:10.10.11.1]	[Browser:Chrome - 46.0.2490.86]	[Action:GetProgramList ]	[Remarks:"no data"]
[Date: 2015-11-27 08:41:08]	[UserID:06/371]	[IP:10.10.11.1]	[Browser:Chrome - 46.0.2490.86]	[Action:Making connection to server]	[Remarks:Successful connection to server: S3]
[Date: 2015-11-27 08:41:08]	[UserID:06/371]	[IP:10.10.11.1]	[Browser:Chrome - 46.0.2490.86]	[Action:User 06/371]	[Remarks:Success]
[Date: 2015-11-27 08:41:08]	[UserID:06/371]	[IP:10.10.11.1]	[Browser:Chrome - 46.0.2490.86]	[Action:Filtering User : MasterData Username : 06/371]	[Remarks:Successful filter row count: 0]
[Date: 2015-11-27 08:41:08]	[UserID:06/371]	[IP:10.10.11.1]	[Browser:Chrome - 46.0.2490.86]	[Action:Filtering User : MasterData Username : 06/371]	[Remarks:Successful filter row count: 0]
[Date: 2015-11-27 08:41:08]	[UserID:06/371]	[IP:10.10.11.1]	[Browser:Chrome - 46.0.2490.86]	[Action:Filtering User : MasterData Username : 06/371]	[Remarks:Success]
[Date: 2015-11-27 08:41:08]	[UserID:06/371]	[IP:10.10.11.1]	[Browser:Chrome - 46.0.2490.86]	[Action:Closing mssql connection]	[Remarks:Success]
[Date: 2015-11-27 08:41:08]	[UserID:06/371]	[IP:10.10.11.1]	[Browser:Chrome - 46.0.2490.86]	[Action:Making connection to server]	[Remarks:Successful connection to server: S3]
[Date: 2015-11-27 08:41:08]	[UserID:06/371]	[IP:10.10.11.1]	[Browser:Chrome - 46.0.2490.86]	[Action:GetProgramList 06/371]	[Remarks:[{"ID":"1","ProgramIndex":"GST","ProgramName":"GST"}]]
[Date: 2015-11-27 08:41:08]	[UserID:06/371]	[IP:10.10.11.1]	[Browser:Chrome - 46.0.2490.86]	[Action:Making connection to server]	[Remarks:Successful connection to server: S3]
[Date: 2015-11-27 08:41:08]	[UserID:06/371]	[IP:10.10.11.1]	[Browser:Chrome - 46.0.2490.86]	[Action:GetProgramList 06/371]	[Remarks:[{"ID":"1","ProgramIndex":"GST","ProgramName":"GST"}]]
[Date: 2015-11-27 08:41:08]	[UserID:06/371]	[IP:10.10.11.1]	[Browser:Chrome - 46.0.2490.86]	[Action:Making connection to server]	[Remarks:Successful connection to server: S3]
[Date: 2015-11-27 08:41:08]	[UserID:06/371]	[IP:10.10.11.1]	[Browser:Chrome - 46.0.2490.86]	[Action:Filtering User : MasterData Username : 06/371]	[Remarks:Successful filter row count: 1]
[Date: 2015-11-27 08:41:09]	[UserID:06/371]	[IP:10.10.11.1]	[Browser:Chrome - 46.0.2490.86]	[Action:Making connection to server]	[Remarks:Successful connection to server: S3]
[Date: 2015-11-27 08:41:09]	[UserID:06/371]	[IP:10.10.11.1]	[Browser:Chrome - 46.0.2490.86]	[Action:GetGSTModules 06/371,1]	[Remarks:Successful filter row count: 5]
[Date: 2015-11-27 08:41:09]	[UserID:06/371]	[IP:10.10.11.1]	[Browser:Chrome - 46.0.2490.86]	[Action:Closing mssql connection]	[Remarks:Success]
[Date: 2015-11-27 08:50:51]	[UserID:06/371]	[IP:10.10.11.1]	[Browser:Chrome - 46.0.2490.86]	[Action:Making connection to server]	[Remarks:Successful connection to server: S3]
[Date: 2015-11-27 08:50:51]	[UserID:06/371]	[IP:10.10.11.1]	[Browser:Chrome - 46.0.2490.86]	[Action:GetGSTModules 06/371,1]	[Remarks:Successful filter row count: 5]
[Date: 2015-11-27 08:50:51]	[UserID:06/371]	[IP:10.10.11.1]	[Browser:Chrome - 46.0.2490.86]	[Action:Closing mssql connection]	[Remarks:Success]
[Date: 2015-11-27 08:51:30]	[UserID:06/371]	[IP:10.10.11.1]	[Browser:Chrome - 46.0.2490.86]	[Action:Making connection to server]	[Remarks:Successful connection to server: S3]
[Date: 2015-11-27 08:51:30]	[UserID:06/371]	[IP:10.10.11.1]	[Browser:Chrome - 46.0.2490.86]	[Action:GetGSTModules 06/371,1]	[Remarks:Successful filter row count: 5]
[Date: 2015-11-27 08:51:30]	[UserID:06/371]	[IP:10.10.11.1]	[Browser:Chrome - 46.0.2490.86]	[Action:Closing mssql connection]	[Remarks:Success]
[Date: 2015-11-27 08:51:46]	[UserID:06/371]	[IP:10.10.11.1]	[Browser:Chrome - 46.0.2490.86]	[Action:Making connection to server]	[Remarks:Successful connection to server: S3]
[Date: 2015-11-27 08:51:46]	[UserID:06/371]	[IP:10.10.11.1]	[Browser:Chrome - 46.0.2490.86]	[Action:GetGSTModules 06/371,1]	[Remarks:Successful filter row count: 5]
[Date: 2015-11-27 08:51:46]	[UserID:06/371]	[IP:10.10.11.1]	[Browser:Chrome - 46.0.2490.86]	[Action:Closing mssql connection]	[Remarks:Success]
[Date: 2015-11-27 08:51:51]	[UserID:]	[IP:10.10.11.1]	[Browser:Chrome - 46.0.2490.86]	[Action:Making connection to server]	[Remarks:Successful connection to server: S3]
[Date: 2015-11-27 08:51:51]	[UserID:]	[IP:10.10.11.1]	[Browser:Chrome - 46.0.2490.86]	[Action:GetProgramList ]	[Remarks:"no data"]
[Date: 2015-11-27 08:51:54]	[UserID:10/660]	[IP:10.10.11.1]	[Browser:Chrome - 46.0.2490.86]	[Action:Making connection to server]	[Remarks:Successful connection to server: S3]
[Date: 2015-11-27 08:51:54]	[UserID:10/660]	[IP:10.10.11.1]	[Browser:Chrome - 46.0.2490.86]	[Action:User 10/660]	[Remarks:Success]
[Date: 2015-11-27 08:51:54]	[UserID:10/660]	[IP:10.10.11.1]	[Browser:Chrome - 46.0.2490.86]	[Action:Filtering User : MasterData Username : 10/660]	[Remarks:Successful filter row count: 0]
[Date: 2015-11-27 08:51:54]	[UserID:10/660]	[IP:10.10.11.1]	[Browser:Chrome - 46.0.2490.86]	[Action:Filtering User : MasterData Username : 10/660]	[Remarks:Successful filter row count: 0]
[Date: 2015-11-27 08:51:54]	[UserID:10/660]	[IP:10.10.11.1]	[Browser:Chrome - 46.0.2490.86]	[Action:Filtering User : MasterData Username : 10/660]	[Remarks:Success]
[Date: 2015-11-27 08:51:54]	[UserID:10/660]	[IP:10.10.11.1]	[Browser:Chrome - 46.0.2490.86]	[Action:Closing mssql connection]	[Remarks:Success]
[Date: 2015-11-27 08:51:54]	[UserID:10/660]	[IP:10.10.11.1]	[Browser:Chrome - 46.0.2490.86]	[Action:Making connection to server]	[Remarks:Successful connection to server: S3]
[Date: 2015-11-27 08:51:54]	[UserID:10/660]	[IP:10.10.11.1]	[Browser:Chrome - 46.0.2490.86]	[Action:GetProgramList 10/660]	[Remarks:[{"ID":"1","ProgramIndex":"GST","ProgramName":"GST"}]]
[Date: 2015-11-27 08:51:54]	[UserID:10/660]	[IP:10.10.11.1]	[Browser:Chrome - 46.0.2490.86]	[Action:Making connection to server]	[Remarks:Successful connection to server: S3]
[Date: 2015-11-27 08:51:54]	[UserID:10/660]	[IP:10.10.11.1]	[Browser:Chrome - 46.0.2490.86]	[Action:GetProgramList 10/660]	[Remarks:[{"ID":"1","ProgramIndex":"GST","ProgramName":"GST"}]]
[Date: 2015-11-27 08:51:54]	[UserID:10/660]	[IP:10.10.11.1]	[Browser:Chrome - 46.0.2490.86]	[Action:Making connection to server]	[Remarks:Successful connection to server: S3]
[Date: 2015-11-27 08:51:54]	[UserID:10/660]	[IP:10.10.11.1]	[Browser:Chrome - 46.0.2490.86]	[Action:Filtering User : MasterData Username : 10/660]	[Remarks:Successful filter row count: 1]
[Date: 2015-11-27 08:51:55]	[UserID:10/660]	[IP:10.10.11.1]	[Browser:Chrome - 46.0.2490.86]	[Action:Making connection to server]	[Remarks:Successful connection to server: S3]
[Date: 2015-11-27 08:51:55]	[UserID:10/660]	[IP:10.10.11.1]	[Browser:Chrome - 46.0.2490.86]	[Action:GetGSTModules 10/660,1]	[Remarks:Successful filter row count: 3]
[Date: 2015-11-27 08:51:55]	[UserID:10/660]	[IP:10.10.11.1]	[Browser:Chrome - 46.0.2490.86]	[Action:Closing mssql connection]	[Remarks:Success]
[Date: 2015-11-27 08:54:26]	[UserID:06/371]	[IP:10.10.11.1]	[Browser:Chrome - 46.0.2490.86]	[Action:Making connection to server]	[Remarks:Successful connection to server: S3]
[Date: 2015-11-27 08:54:26]	[UserID:06/371]	[IP:10.10.11.1]	[Browser:Chrome - 46.0.2490.86]	[Action:GetGSTModules 06/371,1]	[Remarks:Successful filter row count: 5]
[Date: 2015-11-27 08:54:26]	[UserID:06/371]	[IP:10.10.11.1]	[Browser:Chrome - 46.0.2490.86]	[Action:Closing mssql connection]	[Remarks:Success]
[Date: 2015-11-27 08:54:48]	[UserID:06/371]	[IP:10.10.11.1]	[Browser:Chrome - 46.0.2490.86]	[Action:Making connection to server]	[Remarks:Successful connection to server: S3]
[Date: 2015-11-27 08:54:48]	[UserID:06/371]	[IP:10.10.11.1]	[Browser:Chrome - 46.0.2490.86]	[Action:GetGSTModules 06/371,1]	[Remarks:Successful filter row count: 5]
[Date: 2015-11-27 08:54:48]	[UserID:06/371]	[IP:10.10.11.1]	[Browser:Chrome - 46.0.2490.86]	[Action:Closing mssql connection]	[Remarks:Success]
[Date: 2015-11-27 08:57:24]	[UserID:06/371]	[IP:10.10.11.1]	[Browser:Chrome - 46.0.2490.86]	[Action:Making connection to server]	[Remarks:Successful connection to server: S3]
[Date: 2015-11-27 08:57:24]	[UserID:06/371]	[IP:10.10.11.1]	[Browser:Chrome - 46.0.2490.86]	[Action:GetProgramList 06/371]	[Remarks:[{"ID":"1","ProgramIndex":"GST","ProgramName":"GST"}]]
[Date: 2015-11-27 08:57:24]	[UserID:06/371]	[IP:10.10.11.1]	[Browser:Chrome - 46.0.2490.86]	[Action:Making connection to server]	[Remarks:Successful connection to server: S3]
[Date: 2015-11-27 08:57:24]	[UserID:06/371]	[IP:10.10.11.1]	[Browser:Chrome - 46.0.2490.86]	[Action:GetProgramList 06/371]	[Remarks:[{"ID":"1","ProgramIndex":"GST","ProgramName":"GST"}]]
[Date: 2015-11-27 08:57:24]	[UserID:06/371]	[IP:10.10.11.1]	[Browser:Chrome - 46.0.2490.86]	[Action:Making connection to server]	[Remarks:Successful connection to server: S3]
[Date: 2015-11-27 08:57:24]	[UserID:06/371]	[IP:10.10.11.1]	[Browser:Chrome - 46.0.2490.86]	[Action:Filtering User : MasterData Username : 06/371]	[Remarks:Successful filter row count: 1]
[Date: 2015-11-27 08:57:25]	[UserID:06/371]	[IP:10.10.11.1]	[Browser:Chrome - 46.0.2490.86]	[Action:Making connection to server]	[Remarks:Successful connection to server: S3]
[Date: 2015-11-27 08:57:25]	[UserID:06/371]	[IP:10.10.11.1]	[Browser:Chrome - 46.0.2490.86]	[Action:GetGSTModules 06/371,1]	[Remarks:Successful filter row count: 5]
[Date: 2015-11-27 08:57:25]	[UserID:06/371]	[IP:10.10.11.1]	[Browser:Chrome - 46.0.2490.86]	[Action:Closing mssql connection]	[Remarks:Success]
[Date: 2015-11-27 08:58:53]	[UserID:10/660]	[IP:10.10.11.1]	[Browser:Chrome - 46.0.2490.86]	[Action:Making connection to server]	[Remarks:Successful connection to server: S3]
[Date: 2015-11-27 08:58:53]	[UserID:10/660]	[IP:10.10.11.1]	[Browser:Chrome - 46.0.2490.86]	[Action:GetGSTModules 10/660,1]	[Remarks:Successful filter row count: 3]
[Date: 2015-11-27 08:58:53]	[UserID:10/660]	[IP:10.10.11.1]	[Browser:Chrome - 46.0.2490.86]	[Action:Closing mssql connection]	[Remarks:Success]
[Date: 2015-11-27 08:59:15]	[UserID:]	[IP:10.10.11.1]	[Browser:Chrome - 46.0.2490.86]	[Action:Making connection to server]	[Remarks:Successful connection to server: S3]
[Date: 2015-11-27 08:59:15]	[UserID:]	[IP:10.10.11.1]	[Browser:Chrome - 46.0.2490.86]	[Action:GetProgramList ]	[Remarks:"no data"]
[Date: 2015-11-27 09:02:51]	[UserID:06/371]	[IP:10.10.11.1]	[Browser:Chrome - 46.0.2490.86]	[Action:Making connection to server]	[Remarks:Successful connection to server: S3]
[Date: 2015-11-27 09:02:52]	[UserID:06/371]	[IP:10.10.11.1]	[Browser:Chrome - 46.0.2490.86]	[Action:GetGSTModules 06/371,1]	[Remarks:Successful filter row count: 5]
[Date: 2015-11-27 09:02:52]	[UserID:06/371]	[IP:10.10.11.1]	[Browser:Chrome - 46.0.2490.86]	[Action:Closing mssql connection]	[Remarks:Success]
[Date: 2015-11-27 09:03:34]	[UserID:06/371]	[IP:10.10.11.1]	[Browser:Chrome - 46.0.2490.86]	[Action:Making connection to server]	[Remarks:Successful connection to server: S3]
[Date: 2015-11-27 09:03:34]	[UserID:06/371]	[IP:10.10.11.1]	[Browser:Chrome - 46.0.2490.86]	[Action:GetGSTModules 06/371,1]	[Remarks:Successful filter row count: 5]
[Date: 2015-11-27 09:03:34]	[UserID:06/371]	[IP:10.10.11.1]	[Browser:Chrome - 46.0.2490.86]	[Action:Closing mssql connection]	[Remarks:Success]
[Date: 2015-11-27 09:05:53]	[UserID:06/371]	[IP:10.10.11.1]	[Browser:Chrome - 46.0.2490.86]	[Action:Making connection to server]	[Remarks:Successful connection to server: S3]
[Date: 2015-11-27 09:05:54]	[UserID:06/371]	[IP:10.10.11.1]	[Browser:Chrome - 46.0.2490.86]	[Action:GetGSTModules 06/371,1]	[Remarks:Successful filter row count: 5]
[Date: 2015-11-27 09:05:54]	[UserID:06/371]	[IP:10.10.11.1]	[Browser:Chrome - 46.0.2490.86]	[Action:Closing mssql connection]	[Remarks:Success]
[Date: 2015-11-27 09:06:20]	[UserID:06/371]	[IP:10.10.11.1]	[Browser:Chrome - 46.0.2490.86]	[Action:Making connection to server]	[Remarks:Successful connection to server: S3]
[Date: 2015-11-27 09:06:20]	[UserID:06/371]	[IP:10.10.11.1]	[Browser:Chrome - 46.0.2490.86]	[Action:GetGSTModules 06/371,1]	[Remarks:Successful filter row count: 5]
[Date: 2015-11-27 09:06:20]	[UserID:06/371]	[IP:10.10.11.1]	[Browser:Chrome - 46.0.2490.86]	[Action:Closing mssql connection]	[Remarks:Success]
[Date: 2015-11-27 09:07:25]	[UserID:06/371]	[IP:10.10.11.1]	[Browser:Chrome - 46.0.2490.86]	[Action:Making connection to server]	[Remarks:Successful connection to server: S3]
[Date: 2015-11-27 09:07:25]	[UserID:06/371]	[IP:10.10.11.1]	[Browser:Chrome - 46.0.2490.86]	[Action:GetGSTModules 06/371,1]	[Remarks:Successful filter row count: 5]
[Date: 2015-11-27 09:07:25]	[UserID:06/371]	[IP:10.10.11.1]	[Browser:Chrome - 46.0.2490.86]	[Action:Closing mssql connection]	[Remarks:Success]
[Date: 2015-11-27 09:08:42]	[UserID:06/371]	[IP:10.10.11.1]	[Browser:Chrome - 46.0.2490.86]	[Action:Making connection to server]	[Remarks:Successful connection to server: S3]
[Date: 2015-11-27 09:08:42]	[UserID:06/371]	[IP:10.10.11.1]	[Browser:Chrome - 46.0.2490.86]	[Action:GetGSTModules 06/371,1]	[Remarks:Successful filter row count: 5]
[Date: 2015-11-27 09:08:42]	[UserID:06/371]	[IP:10.10.11.1]	[Browser:Chrome - 46.0.2490.86]	[Action:Closing mssql connection]	[Remarks:Success]
[Date: 2015-11-27 09:21:02]	[UserID:06/371]	[IP:10.10.11.1]	[Browser:Chrome - 46.0.2490.86]	[Action:Making connection to server]	[Remarks:Successful connection to server: S3]
[Date: 2015-11-27 09:21:02]	[UserID:06/371]	[IP:10.10.11.1]	[Browser:Chrome - 46.0.2490.86]	[Action:GetGSTModules 06/371,1]	[Remarks:Successful filter row count: 5]
[Date: 2015-11-27 09:21:02]	[UserID:06/371]	[IP:10.10.11.1]	[Browser:Chrome - 46.0.2490.86]	[Action:Closing mssql connection]	[Remarks:Success]
[Date: 2015-11-27 09:25:04]	[UserID:06/343]	[IP:10.10.11.1]	[Browser:Chrome - 46.0.2490.86]	[Action:Making connection to server]	[Remarks:Successful connection to server: S3]
[Date: 2015-11-27 09:25:04]	[UserID:06/343]	[IP:10.10.11.1]	[Browser:Chrome - 46.0.2490.86]	[Action:GetGSTModules 06/343,1]	[Remarks:Successful filter row count: 5]
[Date: 2015-11-27 09:25:04]	[UserID:06/343]	[IP:10.10.11.1]	[Browser:Chrome - 46.0.2490.86]	[Action:Closing mssql connection]	[Remarks:Success]
[Date: 2015-11-27 09:26:20]	[UserID:06/343]	[IP:10.10.11.1]	[Browser:Chrome - 46.0.2490.86]	[Action:Making connection to server]	[Remarks:Successful connection to server: S3]
[Date: 2015-11-27 09:26:20]	[UserID:06/343]	[IP:10.10.11.1]	[Browser:Chrome - 46.0.2490.86]	[Action:GetGSTModules 06/343,1]	[Remarks:Successful filter row count: 5]
[Date: 2015-11-27 09:26:20]	[UserID:06/343]	[IP:10.10.11.1]	[Browser:Chrome - 46.0.2490.86]	[Action:Closing mssql connection]	[Remarks:Success]
[Date: 2015-11-27 09:27:34]	[UserID:06/343]	[IP:10.10.11.1]	[Browser:Chrome - 46.0.2490.86]	[Action:Making connection to server]	[Remarks:Successful connection to server: S3]
[Date: 2015-11-27 09:27:34]	[UserID:06/343]	[IP:10.10.11.1]	[Browser:Chrome - 46.0.2490.86]	[Action:GetGSTModules 06/343,1]	[Remarks:Successful filter row count: 5]
[Date: 2015-11-27 09:27:34]	[UserID:06/343]	[IP:10.10.11.1]	[Browser:Chrome - 46.0.2490.86]	[Action:Closing mssql connection]	[Remarks:Success]
[Date: 2015-11-27 09:46:16]	[UserID:06/371]	[IP:10.10.11.1]	[Browser:Chrome - 46.0.2490.86]	[Action:Making connection to server]	[Remarks:Successful connection to server: S3]
[Date: 2015-11-27 09:46:16]	[UserID:06/371]	[IP:10.10.11.1]	[Browser:Chrome - 46.0.2490.86]	[Action:GetProgramList 06/371]	[Remarks:[{"ID":"1","ProgramIndex":"GST","ProgramName":"GST"}]]
[Date: 2015-11-27 09:46:16]	[UserID:06/371]	[IP:10.10.11.1]	[Browser:Chrome - 46.0.2490.86]	[Action:Making connection to server]	[Remarks:Successful connection to server: S3]
[Date: 2015-11-27 09:46:16]	[UserID:06/371]	[IP:10.10.11.1]	[Browser:Chrome - 46.0.2490.86]	[Action:GetProgramList 06/371]	[Remarks:[{"ID":"1","ProgramIndex":"GST","ProgramName":"GST"}]]
[Date: 2015-11-27 09:46:16]	[UserID:06/371]	[IP:10.10.11.1]	[Browser:Chrome - 46.0.2490.86]	[Action:Making connection to server]	[Remarks:Successful connection to server: S3]
[Date: 2015-11-27 09:46:16]	[UserID:06/371]	[IP:10.10.11.1]	[Browser:Chrome - 46.0.2490.86]	[Action:Filtering User : MasterData Username : 06/371]	[Remarks:Successful filter row count: 1]
[Date: 2015-11-27 09:46:17]	[UserID:06/371]	[IP:10.10.11.1]	[Browser:Chrome - 46.0.2490.86]	[Action:Making connection to server]	[Remarks:Successful connection to server: S3]
[Date: 2015-11-27 09:46:17]	[UserID:06/371]	[IP:10.10.11.1]	[Browser:Chrome - 46.0.2490.86]	[Action:GetGSTModules 06/371,1]	[Remarks:Successful filter row count: 5]
[Date: 2015-11-27 09:46:17]	[UserID:06/371]	[IP:10.10.11.1]	[Browser:Chrome - 46.0.2490.86]	[Action:Closing mssql connection]	[Remarks:Success]
[Date: 2015-11-27 09:57:31]	[UserID:06/371]	[IP:10.10.11.1]	[Browser:Chrome - 46.0.2490.86]	[Action:Making connection to server]	[Remarks:Successful connection to server: S3]
[Date: 2015-11-27 09:57:31]	[UserID:06/371]	[IP:10.10.11.1]	[Browser:Chrome - 46.0.2490.86]	[Action:GetGSTModules 06/371,1]	[Remarks:Successful filter row count: 5]
[Date: 2015-11-27 09:57:31]	[UserID:06/371]	[IP:10.10.11.1]	[Browser:Chrome - 46.0.2490.86]	[Action:Closing mssql connection]	[Remarks:Success]
[Date: 2015-11-27 10:07:48]	[UserID:]	[IP:10.10.11.1]	[Browser:Chrome - 46.0.2490.86]	[Action:Making connection to server]	[Remarks:Successful connection to server: S3]
[Date: 2015-11-27 10:07:49]	[UserID:]	[IP:10.10.11.1]	[Browser:Chrome - 46.0.2490.86]	[Action:GetProgramList ]	[Remarks:"no data"]
[Date: 2015-11-27 10:08:00]	[UserID:eieikhin]	[IP:10.10.11.1]	[Browser:Chrome - 46.0.2490.86]	[Action:Making connection to server]	[Remarks:Successful connection to server: S3]
[Date: 2015-11-27 10:08:00]	[UserID:eieikhin]	[IP:10.10.11.1]	[Browser:Chrome - 46.0.2490.86]	[Action:LogMeIn eieikhin,eekhin123456]	[Remarks:Failed]
[Date: 2015-11-27 10:08:00]	[UserID:eieikhin]	[IP:10.10.11.1]	[Browser:Chrome - 46.0.2490.86]	[Action:Closing mssql connection]	[Remarks:Success]
[Date: 2015-11-27 10:08:05]	[UserID:eieikhin]	[IP:10.10.11.1]	[Browser:Chrome - 46.0.2490.86]	[Action:Making connection to server]	[Remarks:Successful connection to server: S3]
[Date: 2015-11-27 10:08:05]	[UserID:eieikhin]	[IP:10.10.11.1]	[Browser:Chrome - 46.0.2490.86]	[Action:LogMeIn eieikhin,eekhin1234566]	[Remarks:Failed]
[Date: 2015-11-27 10:08:05]	[UserID:eieikhin]	[IP:10.10.11.1]	[Browser:Chrome - 46.0.2490.86]	[Action:Closing mssql connection]	[Remarks:Success]
[Date: 2015-11-27 10:08:10]	[UserID:eieikhin]	[IP:10.10.11.1]	[Browser:Chrome - 46.0.2490.86]	[Action:Making connection to server]	[Remarks:Successful connection to server: S3]
[Date: 2015-11-27 10:08:10]	[UserID:eieikhin]	[IP:10.10.11.1]	[Browser:Chrome - 46.0.2490.86]	[Action:User eieikhin]	[Remarks:Success]
[Date: 2015-11-27 10:08:10]	[UserID:eieikhin]	[IP:10.10.11.1]	[Browser:Chrome - 46.0.2490.86]	[Action:Filtering User : MasterData Username : eieikhin]	[Remarks:Successful filter row count: 0]
[Date: 2015-11-27 10:08:10]	[UserID:eieikhin]	[IP:10.10.11.1]	[Browser:Chrome - 46.0.2490.86]	[Action:Filtering User : MasterData Username : eieikhin]	[Remarks:Successful filter row count: 0]
[Date: 2015-11-27 10:08:10]	[UserID:eieikhin]	[IP:10.10.11.1]	[Browser:Chrome - 46.0.2490.86]	[Action:Filtering User : MasterData Username : eieikhin]	[Remarks:Success]
[Date: 2015-11-27 10:08:10]	[UserID:eieikhin]	[IP:10.10.11.1]	[Browser:Chrome - 46.0.2490.86]	[Action:Closing mssql connection]	[Remarks:Success]
[Date: 2015-11-27 10:08:11]	[UserID:]	[IP:10.10.11.1]	[Browser:Chrome - 46.0.2490.86]	[Action:Making connection to server]	[Remarks:Successful connection to server: S3]
[Date: 2015-11-27 10:08:11]	[UserID:]	[IP:10.10.11.1]	[Browser:Chrome - 46.0.2490.86]	[Action:GetProgramList ]	[Remarks:"no data"]
[Date: 2015-11-27 10:08:22]	[UserID:eieikhin]	[IP:10.10.11.1]	[Browser:Chrome - 46.0.2490.86]	[Action:Making connection to server]	[Remarks:Successful connection to server: S3]
[Date: 2015-11-27 10:08:22]	[UserID:eieikhin]	[IP:10.10.11.1]	[Browser:Chrome - 46.0.2490.86]	[Action:LogMeIn eieikhin,1234567]	[Remarks:Failed]
[Date: 2015-11-27 10:08:22]	[UserID:eieikhin]	[IP:10.10.11.1]	[Browser:Chrome - 46.0.2490.86]	[Action:Closing mssql connection]	[Remarks:Success]
[Date: 2015-11-27 10:08:26]	[UserID:eieikhin]	[IP:10.10.11.1]	[Browser:Chrome - 46.0.2490.86]	[Action:Making connection to server]	[Remarks:Successful connection to server: S3]
[Date: 2015-11-27 10:08:26]	[UserID:eieikhin]	[IP:10.10.11.1]	[Browser:Chrome - 46.0.2490.86]	[Action:User eieikhin]	[Remarks:Success]
[Date: 2015-11-27 10:08:26]	[UserID:eieikhin]	[IP:10.10.11.1]	[Browser:Chrome - 46.0.2490.86]	[Action:Filtering User : MasterData Username : eieikhin]	[Remarks:Successful filter row count: 0]
[Date: 2015-11-27 10:08:26]	[UserID:eieikhin]	[IP:10.10.11.1]	[Browser:Chrome - 46.0.2490.86]	[Action:Filtering User : MasterData Username : eieikhin]	[Remarks:Successful filter row count: 0]
[Date: 2015-11-27 10:08:26]	[UserID:eieikhin]	[IP:10.10.11.1]	[Browser:Chrome - 46.0.2490.86]	[Action:Filtering User : MasterData Username : eieikhin]	[Remarks:Success]
[Date: 2015-11-27 10:08:26]	[UserID:eieikhin]	[IP:10.10.11.1]	[Browser:Chrome - 46.0.2490.86]	[Action:Closing mssql connection]	[Remarks:Success]
[Date: 2015-11-27 10:08:26]	[UserID:]	[IP:10.10.11.1]	[Browser:Chrome - 46.0.2490.86]	[Action:Making connection to server]	[Remarks:Successful connection to server: S3]
[Date: 2015-11-27 10:08:26]	[UserID:]	[IP:10.10.11.1]	[Browser:Chrome - 46.0.2490.86]	[Action:GetProgramList ]	[Remarks:"no data"]
[Date: 2015-11-27 10:08:32]	[UserID:eieikhin]	[IP:10.10.11.1]	[Browser:Chrome - 46.0.2490.86]	[Action:Making connection to server]	[Remarks:Successful connection to server: S3]
[Date: 2015-11-27 10:08:32]	[UserID:eieikhin]	[IP:10.10.11.1]	[Browser:Chrome - 46.0.2490.86]	[Action:LogMeIn eieikhin,eekhin12345]	[Remarks:Failed]
[Date: 2015-11-27 10:08:32]	[UserID:eieikhin]	[IP:10.10.11.1]	[Browser:Chrome - 46.0.2490.86]	[Action:Closing mssql connection]	[Remarks:Success]
[Date: 2015-11-27 10:08:36]	[UserID:eieikhin]	[IP:10.10.11.1]	[Browser:Chrome - 46.0.2490.86]	[Action:Making connection to server]	[Remarks:Successful connection to server: S3]
[Date: 2015-11-27 10:08:36]	[UserID:eieikhin]	[IP:10.10.11.1]	[Browser:Chrome - 46.0.2490.86]	[Action:LogMeIn eieikhin,eekhin123456]	[Remarks:Failed]
[Date: 2015-11-27 10:08:36]	[UserID:eieikhin]	[IP:10.10.11.1]	[Browser:Chrome - 46.0.2490.86]	[Action:Closing mssql connection]	[Remarks:Success]
[Date: 2015-11-27 10:08:40]	[UserID:eieikhin]	[IP:10.10.11.1]	[Browser:Chrome - 46.0.2490.86]	[Action:Making connection to server]	[Remarks:Successful connection to server: S3]
[Date: 2015-11-27 10:08:40]	[UserID:eieikhin]	[IP:10.10.11.1]	[Browser:Chrome - 46.0.2490.86]	[Action:LogMeIn eieikhin,12345]	[Remarks:Failed]
[Date: 2015-11-27 10:08:40]	[UserID:eieikhin]	[IP:10.10.11.1]	[Browser:Chrome - 46.0.2490.86]	[Action:Closing mssql connection]	[Remarks:Success]
[Date: 2015-11-27 10:08:49]	[UserID:eieikhin]	[IP:10.10.11.1]	[Browser:Chrome - 46.0.2490.86]	[Action:Making connection to server]	[Remarks:Successful connection to server: S3]
[Date: 2015-11-27 10:08:54]	[UserID:eieikhin]	[IP:10.10.11.1]	[Browser:Chrome - 46.0.2490.86]	[Action:Sending Message. To:eieikhin@jsilogistics.com, from: sg-alert@jsilogistics.com]	[Remarks:Successful filter row count: 1]
[Date: 2015-11-27 10:08:54]	[UserID:eieikhin]	[IP:10.10.11.1]	[Browser:Chrome - 46.0.2490.86]	[Action:Closing mssql connection]	[Remarks:Success]
[Date: 2015-11-27 10:09:50]	[UserID:eieikhin]	[IP:10.10.11.1]	[Browser:Chrome - 46.0.2490.86]	[Action:Making connection to server]	[Remarks:Successful connection to server: S3]
[Date: 2015-11-27 10:09:50]	[UserID:eieikhin]	[IP:10.10.11.1]	[Browser:Chrome - 46.0.2490.86]	[Action:User eieikhin]	[Remarks:Success]
[Date: 2015-11-27 10:09:50]	[UserID:eieikhin]	[IP:10.10.11.1]	[Browser:Chrome - 46.0.2490.86]	[Action:Filtering User : MasterData Username : eieikhin]	[Remarks:Successful filter row count: 0]
[Date: 2015-11-27 10:09:50]	[UserID:eieikhin]	[IP:10.10.11.1]	[Browser:Chrome - 46.0.2490.86]	[Action:Filtering User : MasterData Username : eieikhin]	[Remarks:Successful filter row count: 0]
[Date: 2015-11-27 10:09:50]	[UserID:eieikhin]	[IP:10.10.11.1]	[Browser:Chrome - 46.0.2490.86]	[Action:Filtering User : MasterData Username : eieikhin]	[Remarks:Success]
[Date: 2015-11-27 10:09:50]	[UserID:eieikhin]	[IP:10.10.11.1]	[Browser:Chrome - 46.0.2490.86]	[Action:Closing mssql connection]	[Remarks:Success]
[Date: 2015-11-27 10:09:51]	[UserID:]	[IP:10.10.11.1]	[Browser:Chrome - 46.0.2490.86]	[Action:Making connection to server]	[Remarks:Successful connection to server: S3]
[Date: 2015-11-27 10:09:51]	[UserID:]	[IP:10.10.11.1]	[Browser:Chrome - 46.0.2490.86]	[Action:GetProgramList ]	[Remarks:"no data"]
[Date: 2015-11-27 10:10:03]	[UserID:eiei]	[IP:10.10.11.1]	[Browser:Chrome - 46.0.2490.86]	[Action:Making connection to server]	[Remarks:Successful connection to server: S3]
[Date: 2015-11-27 10:10:03]	[UserID:eiei]	[IP:10.10.11.1]	[Browser:Chrome - 46.0.2490.86]	[Action:LogMeIn eiei,123456]	[Remarks:Failed]
[Date: 2015-11-27 10:10:03]	[UserID:eiei]	[IP:10.10.11.1]	[Browser:Chrome - 46.0.2490.86]	[Action:Closing mssql connection]	[Remarks:Success]
[Date: 2015-11-27 10:10:13]	[UserID:]	[IP:10.10.11.1]	[Browser:Firefox - 42.0]	[Action:Making connection to server]	[Remarks:Successful connection to server: S3]
[Date: 2015-11-27 10:10:13]	[UserID:]	[IP:10.10.11.1]	[Browser:Firefox - 42.0]	[Action:GetProgramList ]	[Remarks:"no data"]
[Date: 2015-11-27 10:10:21]	[UserID:eieikhin]	[IP:10.10.11.1]	[Browser:Firefox - 42.0]	[Action:Making connection to server]	[Remarks:Successful connection to server: S3]
[Date: 2015-11-27 10:10:21]	[UserID:eieikhin]	[IP:10.10.11.1]	[Browser:Firefox - 42.0]	[Action:User eieikhin]	[Remarks:Success]
[Date: 2015-11-27 10:10:21]	[UserID:eieikhin]	[IP:10.10.11.1]	[Browser:Firefox - 42.0]	[Action:Filtering User : MasterData Username : eieikhin]	[Remarks:Successful filter row count: 0]
[Date: 2015-11-27 10:10:21]	[UserID:eieikhin]	[IP:10.10.11.1]	[Browser:Firefox - 42.0]	[Action:Filtering User : MasterData Username : eieikhin]	[Remarks:Successful filter row count: 0]
[Date: 2015-11-27 10:10:21]	[UserID:eieikhin]	[IP:10.10.11.1]	[Browser:Firefox - 42.0]	[Action:Filtering User : MasterData Username : eieikhin]	[Remarks:Success]
[Date: 2015-11-27 10:10:21]	[UserID:eieikhin]	[IP:10.10.11.1]	[Browser:Firefox - 42.0]	[Action:Closing mssql connection]	[Remarks:Success]
[Date: 2015-11-27 10:10:22]	[UserID:eieikhin]	[IP:10.10.11.1]	[Browser:Firefox - 42.0]	[Action:Making connection to server]	[Remarks:Successful connection to server: S3]
[Date: 2015-11-27 10:10:22]	[UserID:eieikhin]	[IP:10.10.11.1]	[Browser:Firefox - 42.0]	[Action:GetProgramList eieikhin]	[Remarks:[{"ID":"1","ProgramIndex":"GST","ProgramName":"GST"},{"ID":"3","ProgramIndex":"PRD","ProgramName":"PRD"}]]
[Date: 2015-11-27 10:10:22]	[UserID:eieikhin]	[IP:10.10.11.1]	[Browser:Firefox - 42.0]	[Action:Making connection to server]	[Remarks:Successful connection to server: S3]
[Date: 2015-11-27 10:10:22]	[UserID:eieikhin]	[IP:10.10.11.1]	[Browser:Firefox - 42.0]	[Action:GetProgramList eieikhin]	[Remarks:[{"ID":"1","ProgramIndex":"GST","ProgramName":"GST"},{"ID":"3","ProgramIndex":"PRD","ProgramName":"PRD"}]]
[Date: 2015-11-27 10:10:22]	[UserID:eieikhin]	[IP:10.10.11.1]	[Browser:Firefox - 42.0]	[Action:Making connection to server]	[Remarks:Successful connection to server: S3]
[Date: 2015-11-27 10:10:22]	[UserID:eieikhin]	[IP:10.10.11.1]	[Browser:Firefox - 42.0]	[Action:Filtering User : MasterData Username : eieikhin]	[Remarks:Successful filter row count: 1]
[Date: 2015-11-27 10:10:25]	[UserID:eieikhin]	[IP:10.10.11.1]	[Browser:Firefox - 42.0]	[Action:Making connection to server]	[Remarks:Successful connection to server: S3]
[Date: 2015-11-27 10:10:27]	[UserID:eieikhin]	[IP:10.10.11.1]	[Browser:Firefox - 42.0]	[Action:GetGSTModules eieikhin,1]	[Remarks:Successful filter row count: 7]
[Date: 2015-11-27 10:10:27]	[UserID:eieikhin]	[IP:10.10.11.1]	[Browser:Firefox - 42.0]	[Action:Closing mssql connection]	[Remarks:Success]
[Date: 2015-11-27 10:10:43]	[UserID:eieikhin]	[IP:10.10.11.1]	[Browser:Firefox - 42.0]	[Action:Making connection to server]	[Remarks:Successful connection to server: S3]
[Date: 2015-11-27 10:10:43]	[UserID:eieikhin]	[IP:10.10.11.1]	[Browser:Firefox - 42.0]	[Action:GetGSTModules eieikhin,1]	[Remarks:Successful filter row count: 7]
[Date: 2015-11-27 10:10:43]	[UserID:eieikhin]	[IP:10.10.11.1]	[Browser:Firefox - 42.0]	[Action:Closing mssql connection]	[Remarks:Success]
[Date: 2015-11-27 10:11:03]	[UserID:eieikhin]	[IP:10.10.11.1]	[Browser:Firefox - 42.0]	[Action:Making connection to server]	[Remarks:Successful connection to server: S3]
[Date: 2015-11-27 10:11:03]	[UserID:eieikhin]	[IP:10.10.11.1]	[Browser:Firefox - 42.0]	[Action:GetGSTModules eieikhin,1]	[Remarks:Successful filter row count: 7]
[Date: 2015-11-27 10:11:03]	[UserID:eieikhin]	[IP:10.10.11.1]	[Browser:Firefox - 42.0]	[Action:Closing mssql connection]	[Remarks:Success]
[Date: 2015-11-27 10:12:05]	[UserID:eieikhin]	[IP:10.10.11.1]	[Browser:Firefox - 42.0]	[Action:Making connection to server]	[Remarks:Successful connection to server: S3]
[Date: 2015-11-27 10:12:05]	[UserID:eieikhin]	[IP:10.10.11.1]	[Browser:Firefox - 42.0]	[Action:GetGSTModules eieikhin,1]	[Remarks:Successful filter row count: 7]
[Date: 2015-11-27 10:12:05]	[UserID:eieikhin]	[IP:10.10.11.1]	[Browser:Firefox - 42.0]	[Action:Closing mssql connection]	[Remarks:Success]
[Date: 2015-11-27 10:15:49]	[UserID:eieikhin]	[IP:10.10.11.1]	[Browser:Firefox - 42.0]	[Action:Making connection to server]	[Remarks:Successful connection to server: S3]
[Date: 2015-11-27 10:15:49]	[UserID:eieikhin]	[IP:10.10.11.1]	[Browser:Firefox - 42.0]	[Action:GetGSTModules eieikhin,1]	[Remarks:Successful filter row count: 7]
[Date: 2015-11-27 10:15:49]	[UserID:eieikhin]	[IP:10.10.11.1]	[Browser:Firefox - 42.0]	[Action:Closing mssql connection]	[Remarks:Success]
[Date: 2015-11-27 10:24:33]	[UserID:]	[IP:10.10.11.1]	[Browser:Google favicon]	[Action:Making connection to server]	[Remarks:Successful connection to server: S3]
[Date: 2015-11-27 10:24:33]	[UserID:]	[IP:10.10.11.1]	[Browser:Google favicon]	[Action:GetProgramList ]	[Remarks:"no data"]
[Date: 2015-11-27 10:36:51]	[UserID:]	[IP:10.10.11.1]	[Browser:Firefox - 42.0]	[Action:Making connection to server]	[Remarks:Successful connection to server: S3]
[Date: 2015-11-27 10:36:57]	[UserID:]	[IP:10.10.11.1]	[Browser:Firefox - 42.0]	[Action:GetProgramList ]	[Remarks:"no data"]
[Date: 2015-11-27 10:39:46]	[UserID:06/343]	[IP:10.10.11.1]	[Browser:Chrome - 46.0.2490.86]	[Action:Making connection to server]	[Remarks:Successful connection to server: S3]
[Date: 2015-11-27 10:39:48]	[UserID:06/343]	[IP:10.10.11.1]	[Browser:Chrome - 46.0.2490.86]	[Action:GetGSTModules 06/343,1]	[Remarks:Successful filter row count: 5]
[Date: 2015-11-27 10:39:48]	[UserID:06/343]	[IP:10.10.11.1]	[Browser:Chrome - 46.0.2490.86]	[Action:Closing mssql connection]	[Remarks:Success]
[Date: 2015-11-27 10:47:55]	[UserID:]	[IP:10.10.11.1]	[Browser:Chrome - 46.0.2490.86]	[Action:Making connection to server]	[Remarks:Successful connection to server: S3]
[Date: 2015-11-27 10:47:55]	[UserID:]	[IP:10.10.11.1]	[Browser:Chrome - 46.0.2490.86]	[Action:GetProgramList ]	[Remarks:"no data"]
[Date: 2015-11-27 10:47:57]	[UserID:14/1082]	[IP:10.10.11.1]	[Browser:Chrome - 46.0.2490.86]	[Action:Making connection to server]	[Remarks:Successful connection to server: S3]
[Date: 2015-11-27 10:47:58]	[UserID:14/1082]	[IP:10.10.11.1]	[Browser:Chrome - 46.0.2490.86]	[Action:User 14/1082]	[Remarks:Success]
[Date: 2015-11-27 10:47:58]	[UserID:14/1082]	[IP:10.10.11.1]	[Browser:Chrome - 46.0.2490.86]	[Action:Filtering User : MasterData Username : 14/1082]	[Remarks:Successful filter row count: 0]
[Date: 2015-11-27 10:47:58]	[UserID:14/1082]	[IP:10.10.11.1]	[Browser:Chrome - 46.0.2490.86]	[Action:Filtering User : MasterData Username : 14/1082]	[Remarks:Successful filter row count: 0]
[Date: 2015-11-27 10:47:58]	[UserID:14/1082]	[IP:10.10.11.1]	[Browser:Chrome - 46.0.2490.86]	[Action:Filtering User : MasterData Username : 14/1082]	[Remarks:Success]
[Date: 2015-11-27 10:47:58]	[UserID:14/1082]	[IP:10.10.11.1]	[Browser:Chrome - 46.0.2490.86]	[Action:Closing mssql connection]	[Remarks:Success]
[Date: 2015-11-27 10:47:59]	[UserID:14/1082]	[IP:10.10.11.1]	[Browser:Chrome - 46.0.2490.86]	[Action:Making connection to server]	[Remarks:Successful connection to server: S3]
[Date: 2015-11-27 10:47:59]	[UserID:14/1082]	[IP:10.10.11.1]	[Browser:Chrome - 46.0.2490.86]	[Action:GetProgramList 14/1082]	[Remarks:[{"ID":"1","ProgramIndex":"GST","ProgramName":"GST"}]]
[Date: 2015-11-27 10:47:59]	[UserID:14/1082]	[IP:10.10.11.1]	[Browser:Chrome - 46.0.2490.86]	[Action:Making connection to server]	[Remarks:Successful connection to server: S3]
[Date: 2015-11-27 10:47:59]	[UserID:14/1082]	[IP:10.10.11.1]	[Browser:Chrome - 46.0.2490.86]	[Action:GetProgramList 14/1082]	[Remarks:[{"ID":"1","ProgramIndex":"GST","ProgramName":"GST"}]]
[Date: 2015-11-27 10:47:59]	[UserID:14/1082]	[IP:10.10.11.1]	[Browser:Chrome - 46.0.2490.86]	[Action:Making connection to server]	[Remarks:Successful connection to server: S3]
[Date: 2015-11-27 10:47:59]	[UserID:14/1082]	[IP:10.10.11.1]	[Browser:Chrome - 46.0.2490.86]	[Action:Filtering User : MasterData Username : 14/1082]	[Remarks:Successful filter row count: 1]
[Date: 2015-11-27 10:47:59]	[UserID:14/1082]	[IP:10.10.11.1]	[Browser:Chrome - 46.0.2490.86]	[Action:Making connection to server]	[Remarks:Successful connection to server: S3]
[Date: 2015-11-27 10:47:59]	[UserID:14/1082]	[IP:10.10.11.1]	[Browser:Chrome - 46.0.2490.86]	[Action:GetGSTModules 14/1082,1]	[Remarks:Successful filter row count: 7]
[Date: 2015-11-27 10:47:59]	[UserID:14/1082]	[IP:10.10.11.1]	[Browser:Chrome - 46.0.2490.86]	[Action:Closing mssql connection]	[Remarks:Success]
[Date: 2015-11-27 10:52:56]	[UserID:14/1082]	[IP:10.10.11.1]	[Browser:Chrome - 46.0.2490.86]	[Action:Making connection to server]	[Remarks:Successful connection to server: S3]
[Date: 2015-11-27 10:52:56]	[UserID:14/1082]	[IP:10.10.11.1]	[Browser:Chrome - 46.0.2490.86]	[Action:GetGSTModules 14/1082,1]	[Remarks:Successful filter row count: 7]
[Date: 2015-11-27 10:52:56]	[UserID:14/1082]	[IP:10.10.11.1]	[Browser:Chrome - 46.0.2490.86]	[Action:Closing mssql connection]	[Remarks:Success]
[Date: 2015-11-27 11:00:58]	[UserID:14/1082]	[IP:10.10.11.1]	[Browser:Chrome - 46.0.2490.86]	[Action:Making connection to server]	[Remarks:Successful connection to server: S3]
[Date: 2015-11-27 11:00:58]	[UserID:14/1082]	[IP:10.10.11.1]	[Browser:Chrome - 46.0.2490.86]	[Action:GetGSTModules 14/1082,1]	[Remarks:Successful filter row count: 7]
[Date: 2015-11-27 11:00:58]	[UserID:14/1082]	[IP:10.10.11.1]	[Browser:Chrome - 46.0.2490.86]	[Action:Closing mssql connection]	[Remarks:Success]
[Date: 2015-11-27 11:14:20]	[UserID:14/1082]	[IP:10.10.11.1]	[Browser:Chrome - 46.0.2490.86]	[Action:Making connection to server]	[Remarks:Successful connection to server: S3]
[Date: 2015-11-27 11:14:21]	[UserID:14/1082]	[IP:10.10.11.1]	[Browser:Chrome - 46.0.2490.86]	[Action:GetGSTModules 14/1082,1]	[Remarks:Successful filter row count: 7]
[Date: 2015-11-27 11:14:21]	[UserID:14/1082]	[IP:10.10.11.1]	[Browser:Chrome - 46.0.2490.86]	[Action:Closing mssql connection]	[Remarks:Success]
[Date: 2015-11-27 11:19:42]	[UserID:14/1082]	[IP:10.10.11.1]	[Browser:Chrome - 46.0.2490.86]	[Action:Making connection to server]	[Remarks:Successful connection to server: S3]
[Date: 2015-11-27 11:19:42]	[UserID:14/1082]	[IP:10.10.11.1]	[Browser:Chrome - 46.0.2490.86]	[Action:GetGSTModules 14/1082,1]	[Remarks:Successful filter row count: 7]
[Date: 2015-11-27 11:19:42]	[UserID:14/1082]	[IP:10.10.11.1]	[Browser:Chrome - 46.0.2490.86]	[Action:Closing mssql connection]	[Remarks:Success]
[Date: 2015-11-27 11:24:22]	[UserID:14/1082]	[IP:10.10.11.1]	[Browser:Chrome - 46.0.2490.86]	[Action:Making connection to server]	[Remarks:Successful connection to server: S3]
[Date: 2015-11-27 11:24:22]	[UserID:14/1082]	[IP:10.10.11.1]	[Browser:Chrome - 46.0.2490.86]	[Action:GetGSTModules 14/1082,1]	[Remarks:Successful filter row count: 7]
[Date: 2015-11-27 11:24:22]	[UserID:14/1082]	[IP:10.10.11.1]	[Browser:Chrome - 46.0.2490.86]	[Action:Closing mssql connection]	[Remarks:Success]
[Date: 2015-11-27 15:22:54]	[UserID:14/1082]	[IP:10.10.11.1]	[Browser:Chrome - 46.0.2490.86]	[Action:Making connection to server]	[Remarks:Successful connection to server: S3]
[Date: 2015-11-27 15:22:54]	[UserID:14/1082]	[IP:10.10.11.1]	[Browser:Chrome - 46.0.2490.86]	[Action:GetGSTModules 14/1082,1]	[Remarks:Successful filter row count: 7]
[Date: 2015-11-27 15:22:54]	[UserID:14/1082]	[IP:10.10.11.1]	[Browser:Chrome - 46.0.2490.86]	[Action:Closing mssql connection]	[Remarks:Success]
[Date: 2015-11-27 15:29:04]	[UserID:14/1082]	[IP:10.10.11.1]	[Browser:Chrome - 46.0.2490.86]	[Action:Making connection to server]	[Remarks:Successful connection to server: S3]
[Date: 2015-11-27 15:29:05]	[UserID:14/1082]	[IP:10.10.11.1]	[Browser:Chrome - 46.0.2490.86]	[Action:GetGSTModules 14/1082,1]	[Remarks:Successful filter row count: 7]
[Date: 2015-11-27 15:29:05]	[UserID:14/1082]	[IP:10.10.11.1]	[Browser:Chrome - 46.0.2490.86]	[Action:Closing mssql connection]	[Remarks:Success]
[Date: 2015-11-27 15:30:55]	[UserID:]	[IP:10.10.11.1]	[Browser:Chrome - 46.0.2490.86]	[Action:Making connection to server]	[Remarks:Successful connection to server: S3]
[Date: 2015-11-27 15:30:55]	[UserID:]	[IP:10.10.11.1]	[Browser:Chrome - 46.0.2490.86]	[Action:GetProgramList ]	[Remarks:"no data"]
[Date: 2015-11-27 15:30:57]	[UserID:06/371]	[IP:10.10.11.1]	[Browser:Chrome - 46.0.2490.86]	[Action:Making connection to server]	[Remarks:Successful connection to server: S3]
[Date: 2015-11-27 15:30:57]	[UserID:06/371]	[IP:10.10.11.1]	[Browser:Chrome - 46.0.2490.86]	[Action:User 06/371]	[Remarks:Success]
[Date: 2015-11-27 15:30:57]	[UserID:06/371]	[IP:10.10.11.1]	[Browser:Chrome - 46.0.2490.86]	[Action:Filtering User : MasterData Username : 06/371]	[Remarks:Successful filter row count: 0]
[Date: 2015-11-27 15:30:57]	[UserID:06/371]	[IP:10.10.11.1]	[Browser:Chrome - 46.0.2490.86]	[Action:Filtering User : MasterData Username : 06/371]	[Remarks:Successful filter row count: 0]
[Date: 2015-11-27 15:30:57]	[UserID:06/371]	[IP:10.10.11.1]	[Browser:Chrome - 46.0.2490.86]	[Action:Filtering User : MasterData Username : 06/371]	[Remarks:Success]
[Date: 2015-11-27 15:30:57]	[UserID:06/371]	[IP:10.10.11.1]	[Browser:Chrome - 46.0.2490.86]	[Action:Closing mssql connection]	[Remarks:Success]
[Date: 2015-11-27 15:30:57]	[UserID:06/371]	[IP:10.10.11.1]	[Browser:Chrome - 46.0.2490.86]	[Action:Making connection to server]	[Remarks:Successful connection to server: S3]
[Date: 2015-11-27 15:30:57]	[UserID:06/371]	[IP:10.10.11.1]	[Browser:Chrome - 46.0.2490.86]	[Action:GetProgramList 06/371]	[Remarks:[{"ID":"1","ProgramIndex":"GST","ProgramName":"GST"}]]
[Date: 2015-11-27 15:30:57]	[UserID:06/371]	[IP:10.10.11.1]	[Browser:Chrome - 46.0.2490.86]	[Action:Making connection to server]	[Remarks:Successful connection to server: S3]
[Date: 2015-11-27 15:30:57]	[UserID:06/371]	[IP:10.10.11.1]	[Browser:Chrome - 46.0.2490.86]	[Action:GetProgramList 06/371]	[Remarks:[{"ID":"1","ProgramIndex":"GST","ProgramName":"GST"}]]
[Date: 2015-11-27 15:30:57]	[UserID:06/371]	[IP:10.10.11.1]	[Browser:Chrome - 46.0.2490.86]	[Action:Making connection to server]	[Remarks:Successful connection to server: S3]
[Date: 2015-11-27 15:30:57]	[UserID:06/371]	[IP:10.10.11.1]	[Browser:Chrome - 46.0.2490.86]	[Action:Filtering User : MasterData Username : 06/371]	[Remarks:Successful filter row count: 1]
[Date: 2015-11-27 15:30:57]	[UserID:06/371]	[IP:10.10.11.1]	[Browser:Chrome - 46.0.2490.86]	[Action:Making connection to server]	[Remarks:Successful connection to server: S3]
[Date: 2015-11-27 15:30:57]	[UserID:06/371]	[IP:10.10.11.1]	[Browser:Chrome - 46.0.2490.86]	[Action:GetGSTModules 06/371,1]	[Remarks:Successful filter row count: 5]
[Date: 2015-11-27 15:30:57]	[UserID:06/371]	[IP:10.10.11.1]	[Browser:Chrome - 46.0.2490.86]	[Action:Closing mssql connection]	[Remarks:Success]
[Date: 2015-11-27 15:33:34]	[UserID:06/371]	[IP:10.10.11.1]	[Browser:Chrome - 46.0.2490.86]	[Action:Making connection to server]	[Remarks:Successful connection to server: S3]
[Date: 2015-11-27 15:33:34]	[UserID:06/371]	[IP:10.10.11.1]	[Browser:Chrome - 46.0.2490.86]	[Action:GetGSTModules 06/371,1]	[Remarks:Successful filter row count: 5]
[Date: 2015-11-27 15:33:34]	[UserID:06/371]	[IP:10.10.11.1]	[Browser:Chrome - 46.0.2490.86]	[Action:Closing mssql connection]	[Remarks:Success]
[Date: 2015-11-27 15:43:56]	[UserID:]	[IP:10.10.11.1]	[Browser:Chrome - 46.0.2490.86]	[Action:Making connection to server]	[Remarks:Successful connection to server: S3]
[Date: 2015-11-27 15:43:56]	[UserID:]	[IP:10.10.11.1]	[Browser:Chrome - 46.0.2490.86]	[Action:GetProgramList ]	[Remarks:"no data"]
[Date: 2015-11-27 16:51:26]	[UserID:]	[IP:10.10.11.1]	[Browser:Chrome - 46.0.2490.86]	[Action:Making connection to server]	[Remarks:Successful connection to server: S3]
[Date: 2015-11-27 16:51:27]	[UserID:]	[IP:10.10.11.1]	[Browser:Chrome - 46.0.2490.86]	[Action:GetProgramList ]	[Remarks:"no data"]
