[Date: 2019-10-26 09:18:48]	[UserID:]	[IP:10.128.12.114]	[Browser:Chrome - 77.0.3865.120]	[Action:Making connection to server]	[Remarks:Successful connection to server: S3]
[Date: 2019-10-26 09:18:48]	[UserID:]	[IP:10.128.12.114]	[Browser:Chrome - 77.0.3865.120]	[Action:GetProgramList ]	[Remarks:"no data"]
[Date: 2019-10-26 09:18:55]	[UserID:14/1082]	[IP:10.128.12.114]	[Browser:Chrome - 77.0.3865.120]	[Action:Making connection to server]	[Remarks:Successful connection to server: S3]
[Date: 2019-10-26 09:18:55]	[UserID:14/1082]	[IP:10.128.12.114]	[Browser:Chrome - 77.0.3865.120]	[Action:User 14/1082]	[Remarks:Success]
[Date: 2019-10-26 09:18:55]	[UserID:14/1082]	[IP:10.128.12.114]	[Browser:Chrome - 77.0.3865.120]	[Action:Filtering User : MasterData Username : 14/1082]	[Remarks:Successful filter row count: 0]
[Date: 2019-10-26 09:18:55]	[UserID:14/1082]	[IP:10.128.12.114]	[Browser:Chrome - 77.0.3865.120]	[Action:Filtering User : MasterData Username : 14/1082]	[Remarks:Successful filter row count: 0]
[Date: 2019-10-26 09:18:55]	[UserID:14/1082]	[IP:10.128.12.114]	[Browser:Chrome - 77.0.3865.120]	[Action:Filtering User : MasterData Username : 14/1082]	[Remarks:Success]
[Date: 2019-10-26 09:18:55]	[UserID:14/1082]	[IP:10.128.12.114]	[Browser:Chrome - 77.0.3865.120]	[Action:Closing mssql connection]	[Remarks:Success]
[Date: 2019-10-26 09:18:55]	[UserID:14/1082]	[IP:10.128.12.114]	[Browser:Chrome - 77.0.3865.120]	[Action:Making connection to server]	[Remarks:Successful connection to server: S3]
[Date: 2019-10-26 09:18:55]	[UserID:14/1082]	[IP:10.128.12.114]	[Browser:Chrome - 77.0.3865.120]	[Action:GetProgramList 14/1082]	[Remarks:[{"ID":"1","ProgramIndex":"GST","ProgramName":"GST"}]]
[Date: 2019-10-26 09:18:55]	[UserID:14/1082]	[IP:10.128.12.114]	[Browser:Chrome - 77.0.3865.120]	[Action:Making connection to server]	[Remarks:Successful connection to server: S3]
[Date: 2019-10-26 09:18:55]	[UserID:14/1082]	[IP:10.128.12.114]	[Browser:Chrome - 77.0.3865.120]	[Action:GetProgramList 14/1082]	[Remarks:[{"ID":"1","ProgramIndex":"GST","ProgramName":"GST"}]]
[Date: 2019-10-26 09:18:55]	[UserID:14/1082]	[IP:10.128.12.114]	[Browser:Chrome - 77.0.3865.120]	[Action:Making connection to server]	[Remarks:Successful connection to server: S3]
[Date: 2019-10-26 09:18:55]	[UserID:14/1082]	[IP:10.128.12.114]	[Browser:Chrome - 77.0.3865.120]	[Action:Filtering User : MasterData Username : 14/1082]	[Remarks:Successful filter row count: 1]
[Date: 2019-10-26 09:18:55]	[UserID:14/1082]	[IP:10.128.12.114]	[Browser:Chrome - 77.0.3865.120]	[Action:Making connection to server]	[Remarks:Successful connection to server: S3]
[Date: 2019-10-26 09:18:56]	[UserID:14/1082]	[IP:10.128.12.114]	[Browser:Chrome - 77.0.3865.120]	[Action:GetGSTModules 14/1082,1]	[Remarks:Successful filter row count: 8]
[Date: 2019-10-26 09:18:56]	[UserID:14/1082]	[IP:10.128.12.114]	[Browser:Chrome - 77.0.3865.120]	[Action:Closing mssql connection]	[Remarks:Success]
[Date: 2019-10-26 14:11:22]	[UserID:]	[IP:10.128.12.114]	[Browser:Chrome - 77.0.3865.120]	[Action:Making connection to server]	[Remarks:Successful connection to server: S3]
[Date: 2019-10-26 14:11:22]	[UserID:]	[IP:10.128.12.114]	[Browser:Chrome - 77.0.3865.120]	[Action:GetProgramList ]	[Remarks:"no data"]
