[Date: 2016-01-26 07:27:10]	[UserID:]	[IP:10.10.11.1]	[Browser:Chrome - 47.0.2526.111]	[Action:Making connection to server]	[Remarks:Successful connection to server: S3]
[Date: 2016-01-26 07:27:11]	[UserID:]	[IP:10.10.11.1]	[Browser:Chrome - 47.0.2526.111]	[Action:GetProgramList ]	[Remarks:"no data"]
[Date: 2016-01-26 07:30:38]	[UserID:06/343]	[IP:10.10.11.1]	[Browser:Chrome - 47.0.2526.111]	[Action:Making connection to server]	[Remarks:Successful connection to server: S3]
[Date: 2016-01-26 07:30:38]	[UserID:06/343]	[IP:10.10.11.1]	[Browser:Chrome - 47.0.2526.111]	[Action:User 06/343]	[Remarks:Success]
[Date: 2016-01-26 07:30:38]	[UserID:06/343]	[IP:10.10.11.1]	[Browser:Chrome - 47.0.2526.111]	[Action:Filtering User : MasterData Username : 06/343]	[Remarks:Successful filter row count: 0]
[Date: 2016-01-26 07:30:38]	[UserID:06/343]	[IP:10.10.11.1]	[Browser:Chrome - 47.0.2526.111]	[Action:Filtering User : MasterData Username : 06/343]	[Remarks:Successful filter row count: 0]
[Date: 2016-01-26 07:30:38]	[UserID:06/343]	[IP:10.10.11.1]	[Browser:Chrome - 47.0.2526.111]	[Action:Filtering User : MasterData Username : 06/343]	[Remarks:Success]
[Date: 2016-01-26 07:30:38]	[UserID:06/343]	[IP:10.10.11.1]	[Browser:Chrome - 47.0.2526.111]	[Action:Closing mssql connection]	[Remarks:Success]
[Date: 2016-01-26 07:30:39]	[UserID:06/343]	[IP:10.10.11.1]	[Browser:Chrome - 47.0.2526.111]	[Action:Making connection to server]	[Remarks:Successful connection to server: S3]
[Date: 2016-01-26 07:30:39]	[UserID:06/343]	[IP:10.10.11.1]	[Browser:Chrome - 47.0.2526.111]	[Action:GetProgramList 06/343]	[Remarks:[{"ID":"1","ProgramIndex":"GST","ProgramName":"GST"}]]
[Date: 2016-01-26 07:30:39]	[UserID:06/343]	[IP:10.10.11.1]	[Browser:Chrome - 47.0.2526.111]	[Action:Making connection to server]	[Remarks:Successful connection to server: S3]
[Date: 2016-01-26 07:30:39]	[UserID:06/343]	[IP:10.10.11.1]	[Browser:Chrome - 47.0.2526.111]	[Action:GetProgramList 06/343]	[Remarks:[{"ID":"1","ProgramIndex":"GST","ProgramName":"GST"}]]
[Date: 2016-01-26 07:30:39]	[UserID:06/343]	[IP:10.10.11.1]	[Browser:Chrome - 47.0.2526.111]	[Action:Making connection to server]	[Remarks:Successful connection to server: S3]
[Date: 2016-01-26 07:30:39]	[UserID:06/343]	[IP:10.10.11.1]	[Browser:Chrome - 47.0.2526.111]	[Action:Filtering User : MasterData Username : 06/343]	[Remarks:Successful filter row count: 1]
[Date: 2016-01-26 07:30:39]	[UserID:06/343]	[IP:10.10.11.1]	[Browser:Chrome - 47.0.2526.111]	[Action:Making connection to server]	[Remarks:Successful connection to server: S3]
[Date: 2016-01-26 07:30:39]	[UserID:06/343]	[IP:10.10.11.1]	[Browser:Chrome - 47.0.2526.111]	[Action:GetGSTModules 06/343,1]	[Remarks:Successful filter row count: 5]
[Date: 2016-01-26 07:30:39]	[UserID:06/343]	[IP:10.10.11.1]	[Browser:Chrome - 47.0.2526.111]	[Action:Closing mssql connection]	[Remarks:Success]
[Date: 2016-01-26 07:51:28]	[UserID:]	[IP:10.10.11.1]	[Browser:Chrome - 47.0.2526.111]	[Action:Making connection to server]	[Remarks:Successful connection to server: S3]
[Date: 2016-01-26 07:51:28]	[UserID:]	[IP:10.10.11.1]	[Browser:Chrome - 47.0.2526.111]	[Action:GetProgramList ]	[Remarks:"no data"]
[Date: 2016-01-26 08:15:57]	[UserID:]	[IP:10.10.11.1]	[Browser:Chrome - 47.0.2526.111]	[Action:Making connection to server]	[Remarks:Successful connection to server: S3]
[Date: 2016-01-26 08:15:58]	[UserID:]	[IP:10.10.11.1]	[Browser:Chrome - 47.0.2526.111]	[Action:GetProgramList ]	[Remarks:"no data"]
[Date: 2016-01-26 08:16:00]	[UserID:11/715]	[IP:10.10.11.1]	[Browser:Chrome - 47.0.2526.111]	[Action:Making connection to server]	[Remarks:Successful connection to server: S3]
[Date: 2016-01-26 08:16:00]	[UserID:11/715]	[IP:10.10.11.1]	[Browser:Chrome - 47.0.2526.111]	[Action:User 11/715]	[Remarks:Success]
[Date: 2016-01-26 08:16:00]	[UserID:11/715]	[IP:10.10.11.1]	[Browser:Chrome - 47.0.2526.111]	[Action:Filtering User : MasterData Username : 11/715]	[Remarks:Successful filter row count: 0]
[Date: 2016-01-26 08:16:00]	[UserID:11/715]	[IP:10.10.11.1]	[Browser:Chrome - 47.0.2526.111]	[Action:Filtering User : MasterData Username : 11/715]	[Remarks:Successful filter row count: 0]
[Date: 2016-01-26 08:16:00]	[UserID:11/715]	[IP:10.10.11.1]	[Browser:Chrome - 47.0.2526.111]	[Action:Filtering User : MasterData Username : 11/715]	[Remarks:Success]
[Date: 2016-01-26 08:16:00]	[UserID:11/715]	[IP:10.10.11.1]	[Browser:Chrome - 47.0.2526.111]	[Action:Closing mssql connection]	[Remarks:Success]
[Date: 2016-01-26 08:16:00]	[UserID:11/715]	[IP:10.10.11.1]	[Browser:Chrome - 47.0.2526.111]	[Action:Making connection to server]	[Remarks:Successful connection to server: S3]
[Date: 2016-01-26 08:16:00]	[UserID:11/715]	[IP:10.10.11.1]	[Browser:Chrome - 47.0.2526.111]	[Action:GetProgramList 11/715]	[Remarks:[{"ID":"1","ProgramIndex":"GST","ProgramName":"GST"}]]
[Date: 2016-01-26 08:16:00]	[UserID:11/715]	[IP:10.10.11.1]	[Browser:Chrome - 47.0.2526.111]	[Action:Making connection to server]	[Remarks:Successful connection to server: S3]
[Date: 2016-01-26 08:16:00]	[UserID:11/715]	[IP:10.10.11.1]	[Browser:Chrome - 47.0.2526.111]	[Action:GetProgramList 11/715]	[Remarks:[{"ID":"1","ProgramIndex":"GST","ProgramName":"GST"}]]
[Date: 2016-01-26 08:16:00]	[UserID:11/715]	[IP:10.10.11.1]	[Browser:Chrome - 47.0.2526.111]	[Action:Making connection to server]	[Remarks:Successful connection to server: S3]
[Date: 2016-01-26 08:16:00]	[UserID:11/715]	[IP:10.10.11.1]	[Browser:Chrome - 47.0.2526.111]	[Action:Filtering User : MasterData Username : 11/715]	[Remarks:Successful filter row count: 1]
[Date: 2016-01-26 08:16:01]	[UserID:11/715]	[IP:10.10.11.1]	[Browser:Chrome - 47.0.2526.111]	[Action:Making connection to server]	[Remarks:Successful connection to server: S3]
[Date: 2016-01-26 08:16:01]	[UserID:11/715]	[IP:10.10.11.1]	[Browser:Chrome - 47.0.2526.111]	[Action:GetGSTModules 11/715,1]	[Remarks:Successful filter row count: 3]
[Date: 2016-01-26 08:16:01]	[UserID:11/715]	[IP:10.10.11.1]	[Browser:Chrome - 47.0.2526.111]	[Action:Closing mssql connection]	[Remarks:Success]
[Date: 2016-01-26 08:17:57]	[UserID:11/715]	[IP:10.10.11.1]	[Browser:Chrome - 47.0.2526.111]	[Action:Making connection to server]	[Remarks:Successful connection to server: S3]
[Date: 2016-01-26 08:17:57]	[UserID:11/715]	[IP:10.10.11.1]	[Browser:Chrome - 47.0.2526.111]	[Action:GetGSTModules 11/715,1]	[Remarks:Successful filter row count: 3]
[Date: 2016-01-26 08:17:57]	[UserID:11/715]	[IP:10.10.11.1]	[Browser:Chrome - 47.0.2526.111]	[Action:Closing mssql connection]	[Remarks:Success]
[Date: 2016-01-26 08:19:53]	[UserID:]	[IP:10.10.11.1]	[Browser:Chrome - 47.0.2526.111]	[Action:Making connection to server]	[Remarks:Successful connection to server: S3]
[Date: 2016-01-26 08:19:53]	[UserID:]	[IP:10.10.11.1]	[Browser:Chrome - 47.0.2526.111]	[Action:GetProgramList ]	[Remarks:"no data"]
[Date: 2016-01-26 08:20:13]	[UserID:08/504]	[IP:10.10.11.1]	[Browser:Chrome - 47.0.2526.111]	[Action:Making connection to server]	[Remarks:Successful connection to server: S3]
[Date: 2016-01-26 08:20:13]	[UserID:08/504]	[IP:10.10.11.1]	[Browser:Chrome - 47.0.2526.111]	[Action:User 08/504]	[Remarks:Success]
[Date: 2016-01-26 08:20:13]	[UserID:08/504]	[IP:10.10.11.1]	[Browser:Chrome - 47.0.2526.111]	[Action:Filtering User : MasterData Username : 08/504]	[Remarks:Successful filter row count: 0]
[Date: 2016-01-26 08:20:13]	[UserID:08/504]	[IP:10.10.11.1]	[Browser:Chrome - 47.0.2526.111]	[Action:Filtering User : MasterData Username : 08/504]	[Remarks:Successful filter row count: 0]
[Date: 2016-01-26 08:20:13]	[UserID:08/504]	[IP:10.10.11.1]	[Browser:Chrome - 47.0.2526.111]	[Action:Filtering User : MasterData Username : 08/504]	[Remarks:Success]
[Date: 2016-01-26 08:20:13]	[UserID:08/504]	[IP:10.10.11.1]	[Browser:Chrome - 47.0.2526.111]	[Action:Closing mssql connection]	[Remarks:Success]
[Date: 2016-01-26 08:20:14]	[UserID:08/504]	[IP:10.10.11.1]	[Browser:Chrome - 47.0.2526.111]	[Action:Making connection to server]	[Remarks:Successful connection to server: S3]
[Date: 2016-01-26 08:20:14]	[UserID:08/504]	[IP:10.10.11.1]	[Browser:Chrome - 47.0.2526.111]	[Action:GetProgramList 08/504]	[Remarks:[{"ID":"1","ProgramIndex":"GST","ProgramName":"GST"}]]
[Date: 2016-01-26 08:20:14]	[UserID:08/504]	[IP:10.10.11.1]	[Browser:Chrome - 47.0.2526.111]	[Action:Making connection to server]	[Remarks:Successful connection to server: S3]
[Date: 2016-01-26 08:20:14]	[UserID:08/504]	[IP:10.10.11.1]	[Browser:Chrome - 47.0.2526.111]	[Action:GetProgramList 08/504]	[Remarks:[{"ID":"1","ProgramIndex":"GST","ProgramName":"GST"}]]
[Date: 2016-01-26 08:20:14]	[UserID:08/504]	[IP:10.10.11.1]	[Browser:Chrome - 47.0.2526.111]	[Action:Making connection to server]	[Remarks:Successful connection to server: S3]
[Date: 2016-01-26 08:20:14]	[UserID:08/504]	[IP:10.10.11.1]	[Browser:Chrome - 47.0.2526.111]	[Action:Filtering User : MasterData Username : 08/504]	[Remarks:Successful filter row count: 1]
[Date: 2016-01-26 08:20:14]	[UserID:08/504]	[IP:10.10.11.1]	[Browser:Chrome - 47.0.2526.111]	[Action:Making connection to server]	[Remarks:Successful connection to server: S3]
[Date: 2016-01-26 08:20:14]	[UserID:08/504]	[IP:10.10.11.1]	[Browser:Chrome - 47.0.2526.111]	[Action:GetGSTModules 08/504,1]	[Remarks:Successful filter row count: 3]
[Date: 2016-01-26 08:20:14]	[UserID:08/504]	[IP:10.10.11.1]	[Browser:Chrome - 47.0.2526.111]	[Action:Closing mssql connection]	[Remarks:Success]
[Date: 2016-01-26 08:20:43]	[UserID:11/715]	[IP:10.10.11.1]	[Browser:Chrome - 47.0.2526.111]	[Action:Making connection to server]	[Remarks:Successful connection to server: S3]
[Date: 2016-01-26 08:20:43]	[UserID:11/715]	[IP:10.10.11.1]	[Browser:Chrome - 47.0.2526.111]	[Action:GetGSTModules 11/715,1]	[Remarks:Successful filter row count: 3]
[Date: 2016-01-26 08:20:43]	[UserID:11/715]	[IP:10.10.11.1]	[Browser:Chrome - 47.0.2526.111]	[Action:Closing mssql connection]	[Remarks:Success]
[Date: 2016-01-26 08:26:05]	[UserID:08/504]	[IP:10.10.11.1]	[Browser:Chrome - 47.0.2526.111]	[Action:Making connection to server]	[Remarks:Successful connection to server: S3]
[Date: 2016-01-26 08:26:05]	[UserID:08/504]	[IP:10.10.11.1]	[Browser:Chrome - 47.0.2526.111]	[Action:GetGSTModules 08/504,1]	[Remarks:Successful filter row count: 3]
[Date: 2016-01-26 08:26:05]	[UserID:08/504]	[IP:10.10.11.1]	[Browser:Chrome - 47.0.2526.111]	[Action:Closing mssql connection]	[Remarks:Success]
[Date: 2016-01-26 08:29:56]	[UserID:08/504]	[IP:10.10.11.1]	[Browser:Chrome - 47.0.2526.111]	[Action:Making connection to server]	[Remarks:Successful connection to server: S3]
[Date: 2016-01-26 08:29:56]	[UserID:08/504]	[IP:10.10.11.1]	[Browser:Chrome - 47.0.2526.111]	[Action:GetGSTModules 08/504,1]	[Remarks:Successful filter row count: 3]
[Date: 2016-01-26 08:29:56]	[UserID:08/504]	[IP:10.10.11.1]	[Browser:Chrome - 47.0.2526.111]	[Action:Closing mssql connection]	[Remarks:Success]
[Date: 2016-01-26 08:32:33]	[UserID:]	[IP:10.10.11.1]	[Browser:Chrome - 47.0.2526.111]	[Action:Making connection to server]	[Remarks:Successful connection to server: S3]
[Date: 2016-01-26 08:32:33]	[UserID:]	[IP:10.10.11.1]	[Browser:Chrome - 47.0.2526.111]	[Action:GetProgramList ]	[Remarks:"no data"]
[Date: 2016-01-26 08:39:11]	[UserID:]	[IP:10.10.11.1]	[Browser:Chrome - 47.0.2526.111]	[Action:Making connection to server]	[Remarks:Successful connection to server: S3]
[Date: 2016-01-26 08:39:11]	[UserID:]	[IP:10.10.11.1]	[Browser:Chrome - 47.0.2526.111]	[Action:GetProgramList ]	[Remarks:"no data"]
[Date: 2016-01-26 08:39:12]	[UserID:06/371]	[IP:10.10.11.1]	[Browser:Chrome - 47.0.2526.111]	[Action:Making connection to server]	[Remarks:Successful connection to server: S3]
[Date: 2016-01-26 08:39:13]	[UserID:06/371]	[IP:10.10.11.1]	[Browser:Chrome - 47.0.2526.111]	[Action:User 06/371]	[Remarks:Success]
[Date: 2016-01-26 08:39:13]	[UserID:06/371]	[IP:10.10.11.1]	[Browser:Chrome - 47.0.2526.111]	[Action:Filtering User : MasterData Username : 06/371]	[Remarks:Successful filter row count: 0]
[Date: 2016-01-26 08:39:13]	[UserID:06/371]	[IP:10.10.11.1]	[Browser:Chrome - 47.0.2526.111]	[Action:Filtering User : MasterData Username : 06/371]	[Remarks:Successful filter row count: 0]
[Date: 2016-01-26 08:39:13]	[UserID:06/371]	[IP:10.10.11.1]	[Browser:Chrome - 47.0.2526.111]	[Action:Filtering User : MasterData Username : 06/371]	[Remarks:Success]
[Date: 2016-01-26 08:39:13]	[UserID:06/371]	[IP:10.10.11.1]	[Browser:Chrome - 47.0.2526.111]	[Action:Closing mssql connection]	[Remarks:Success]
[Date: 2016-01-26 08:39:13]	[UserID:06/371]	[IP:10.10.11.1]	[Browser:Chrome - 47.0.2526.111]	[Action:Making connection to server]	[Remarks:Successful connection to server: S3]
[Date: 2016-01-26 08:39:13]	[UserID:06/371]	[IP:10.10.11.1]	[Browser:Chrome - 47.0.2526.111]	[Action:GetProgramList 06/371]	[Remarks:[{"ID":"1","ProgramIndex":"GST","ProgramName":"GST"}]]
[Date: 2016-01-26 08:39:13]	[UserID:06/371]	[IP:10.10.11.1]	[Browser:Chrome - 47.0.2526.111]	[Action:Making connection to server]	[Remarks:Successful connection to server: S3]
[Date: 2016-01-26 08:39:13]	[UserID:06/371]	[IP:10.10.11.1]	[Browser:Chrome - 47.0.2526.111]	[Action:GetProgramList 06/371]	[Remarks:[{"ID":"1","ProgramIndex":"GST","ProgramName":"GST"}]]
[Date: 2016-01-26 08:39:13]	[UserID:06/371]	[IP:10.10.11.1]	[Browser:Chrome - 47.0.2526.111]	[Action:Making connection to server]	[Remarks:Successful connection to server: S3]
[Date: 2016-01-26 08:39:13]	[UserID:06/371]	[IP:10.10.11.1]	[Browser:Chrome - 47.0.2526.111]	[Action:Filtering User : MasterData Username : 06/371]	[Remarks:Successful filter row count: 1]
[Date: 2016-01-26 08:39:13]	[UserID:06/371]	[IP:10.10.11.1]	[Browser:Chrome - 47.0.2526.111]	[Action:Making connection to server]	[Remarks:Successful connection to server: S3]
[Date: 2016-01-26 08:39:13]	[UserID:06/371]	[IP:10.10.11.1]	[Browser:Chrome - 47.0.2526.111]	[Action:GetGSTModules 06/371,1]	[Remarks:Successful filter row count: 5]
[Date: 2016-01-26 08:39:13]	[UserID:06/371]	[IP:10.10.11.1]	[Browser:Chrome - 47.0.2526.111]	[Action:Closing mssql connection]	[Remarks:Success]
[Date: 2016-01-26 08:46:48]	[UserID:06/371]	[IP:10.10.11.1]	[Browser:Chrome - 47.0.2526.111]	[Action:Making connection to server]	[Remarks:Successful connection to server: S3]
[Date: 2016-01-26 08:46:51]	[UserID:06/371]	[IP:10.10.11.1]	[Browser:Chrome - 47.0.2526.111]	[Action:GetGSTModules 06/371,1]	[Remarks:Successful filter row count: 5]
[Date: 2016-01-26 08:46:51]	[UserID:06/371]	[IP:10.10.11.1]	[Browser:Chrome - 47.0.2526.111]	[Action:Closing mssql connection]	[Remarks:Success]
[Date: 2016-01-26 08:50:44]	[UserID:]	[IP:10.10.11.1]	[Browser:Chrome - 47.0.2526.111]	[Action:Making connection to server]	[Remarks:Successful connection to server: S3]
[Date: 2016-01-26 08:50:44]	[UserID:]	[IP:10.10.11.1]	[Browser:Chrome - 47.0.2526.111]	[Action:GetProgramList ]	[Remarks:"no data"]
[Date: 2016-01-26 08:50:45]	[UserID:08/504]	[IP:10.10.11.1]	[Browser:Chrome - 47.0.2526.111]	[Action:Making connection to server]	[Remarks:Successful connection to server: S3]
[Date: 2016-01-26 08:50:45]	[UserID:08/504]	[IP:10.10.11.1]	[Browser:Chrome - 47.0.2526.111]	[Action:User 08/504]	[Remarks:Success]
[Date: 2016-01-26 08:50:45]	[UserID:08/504]	[IP:10.10.11.1]	[Browser:Chrome - 47.0.2526.111]	[Action:Filtering User : MasterData Username : 08/504]	[Remarks:Successful filter row count: 0]
[Date: 2016-01-26 08:50:45]	[UserID:08/504]	[IP:10.10.11.1]	[Browser:Chrome - 47.0.2526.111]	[Action:Filtering User : MasterData Username : 08/504]	[Remarks:Successful filter row count: 0]
[Date: 2016-01-26 08:50:45]	[UserID:08/504]	[IP:10.10.11.1]	[Browser:Chrome - 47.0.2526.111]	[Action:Filtering User : MasterData Username : 08/504]	[Remarks:Success]
[Date: 2016-01-26 08:50:45]	[UserID:08/504]	[IP:10.10.11.1]	[Browser:Chrome - 47.0.2526.111]	[Action:Closing mssql connection]	[Remarks:Success]
[Date: 2016-01-26 08:50:46]	[UserID:08/504]	[IP:10.10.11.1]	[Browser:Chrome - 47.0.2526.111]	[Action:Making connection to server]	[Remarks:Successful connection to server: S3]
[Date: 2016-01-26 08:50:46]	[UserID:08/504]	[IP:10.10.11.1]	[Browser:Chrome - 47.0.2526.111]	[Action:GetProgramList 08/504]	[Remarks:[{"ID":"1","ProgramIndex":"GST","ProgramName":"GST"}]]
[Date: 2016-01-26 08:50:46]	[UserID:08/504]	[IP:10.10.11.1]	[Browser:Chrome - 47.0.2526.111]	[Action:Making connection to server]	[Remarks:Successful connection to server: S3]
[Date: 2016-01-26 08:50:46]	[UserID:08/504]	[IP:10.10.11.1]	[Browser:Chrome - 47.0.2526.111]	[Action:GetProgramList 08/504]	[Remarks:[{"ID":"1","ProgramIndex":"GST","ProgramName":"GST"}]]
[Date: 2016-01-26 08:50:46]	[UserID:08/504]	[IP:10.10.11.1]	[Browser:Chrome - 47.0.2526.111]	[Action:Making connection to server]	[Remarks:Successful connection to server: S3]
[Date: 2016-01-26 08:50:46]	[UserID:08/504]	[IP:10.10.11.1]	[Browser:Chrome - 47.0.2526.111]	[Action:Filtering User : MasterData Username : 08/504]	[Remarks:Successful filter row count: 1]
[Date: 2016-01-26 08:50:46]	[UserID:08/504]	[IP:10.10.11.1]	[Browser:Chrome - 47.0.2526.111]	[Action:Making connection to server]	[Remarks:Successful connection to server: S3]
[Date: 2016-01-26 08:50:46]	[UserID:08/504]	[IP:10.10.11.1]	[Browser:Chrome - 47.0.2526.111]	[Action:GetGSTModules 08/504,1]	[Remarks:Successful filter row count: 3]
[Date: 2016-01-26 08:50:46]	[UserID:08/504]	[IP:10.10.11.1]	[Browser:Chrome - 47.0.2526.111]	[Action:Closing mssql connection]	[Remarks:Success]
[Date: 2016-01-26 08:51:45]	[UserID:08/504]	[IP:10.10.11.1]	[Browser:Chrome - 47.0.2526.111]	[Action:Making connection to server]	[Remarks:Successful connection to server: S3]
[Date: 2016-01-26 08:51:45]	[UserID:08/504]	[IP:10.10.11.1]	[Browser:Chrome - 47.0.2526.111]	[Action:GetGSTModules 08/504,1]	[Remarks:Successful filter row count: 3]
[Date: 2016-01-26 08:51:45]	[UserID:08/504]	[IP:10.10.11.1]	[Browser:Chrome - 47.0.2526.111]	[Action:Closing mssql connection]	[Remarks:Success]
[Date: 2016-01-26 08:53:34]	[UserID:08/504]	[IP:10.10.11.1]	[Browser:Chrome - 47.0.2526.111]	[Action:Making connection to server]	[Remarks:Successful connection to server: S3]
[Date: 2016-01-26 08:53:34]	[UserID:08/504]	[IP:10.10.11.1]	[Browser:Chrome - 47.0.2526.111]	[Action:GetGSTModules 08/504,1]	[Remarks:Successful filter row count: 3]
[Date: 2016-01-26 08:53:34]	[UserID:08/504]	[IP:10.10.11.1]	[Browser:Chrome - 47.0.2526.111]	[Action:Closing mssql connection]	[Remarks:Success]
[Date: 2016-01-26 09:02:21]	[UserID:06/371]	[IP:10.10.11.1]	[Browser:Chrome - 47.0.2526.111]	[Action:Making connection to server]	[Remarks:Successful connection to server: S3]
[Date: 2016-01-26 09:02:21]	[UserID:06/371]	[IP:10.10.11.1]	[Browser:Chrome - 47.0.2526.111]	[Action:GetGSTModules 06/371,1]	[Remarks:Successful filter row count: 5]
[Date: 2016-01-26 09:02:21]	[UserID:06/371]	[IP:10.10.11.1]	[Browser:Chrome - 47.0.2526.111]	[Action:Closing mssql connection]	[Remarks:Success]
[Date: 2016-01-26 09:05:28]	[UserID:06/371]	[IP:10.10.11.1]	[Browser:Chrome - 47.0.2526.111]	[Action:Making connection to server]	[Remarks:Successful connection to server: S3]
[Date: 2016-01-26 09:05:28]	[UserID:06/371]	[IP:10.10.11.1]	[Browser:Chrome - 47.0.2526.111]	[Action:GetGSTModules 06/371,1]	[Remarks:Successful filter row count: 5]
[Date: 2016-01-26 09:05:28]	[UserID:06/371]	[IP:10.10.11.1]	[Browser:Chrome - 47.0.2526.111]	[Action:Closing mssql connection]	[Remarks:Success]
[Date: 2016-01-26 09:05:45]	[UserID:06/371]	[IP:10.10.11.1]	[Browser:Chrome - 47.0.2526.111]	[Action:Making connection to server]	[Remarks:Successful connection to server: S3]
[Date: 2016-01-26 09:05:45]	[UserID:06/371]	[IP:10.10.11.1]	[Browser:Chrome - 47.0.2526.111]	[Action:GetGSTModules 06/371,1]	[Remarks:Successful filter row count: 5]
[Date: 2016-01-26 09:05:45]	[UserID:06/371]	[IP:10.10.11.1]	[Browser:Chrome - 47.0.2526.111]	[Action:Closing mssql connection]	[Remarks:Success]
[Date: 2016-01-26 09:09:30]	[UserID:06/371]	[IP:10.10.11.1]	[Browser:Chrome - 47.0.2526.111]	[Action:Making connection to server]	[Remarks:Successful connection to server: S3]
[Date: 2016-01-26 09:09:30]	[UserID:06/371]	[IP:10.10.11.1]	[Browser:Chrome - 47.0.2526.111]	[Action:GetGSTModules 06/371,1]	[Remarks:Successful filter row count: 5]
[Date: 2016-01-26 09:09:30]	[UserID:06/371]	[IP:10.10.11.1]	[Browser:Chrome - 47.0.2526.111]	[Action:Closing mssql connection]	[Remarks:Success]
[Date: 2016-01-26 09:17:35]	[UserID:08/504]	[IP:10.10.11.1]	[Browser:Chrome - 47.0.2526.111]	[Action:Making connection to server]	[Remarks:Successful connection to server: S3]
[Date: 2016-01-26 09:17:35]	[UserID:08/504]	[IP:10.10.11.1]	[Browser:Chrome - 47.0.2526.111]	[Action:GetProgramList 08/504]	[Remarks:[{"ID":"1","ProgramIndex":"GST","ProgramName":"GST"}]]
[Date: 2016-01-26 09:17:35]	[UserID:08/504]	[IP:10.10.11.1]	[Browser:Chrome - 47.0.2526.111]	[Action:Making connection to server]	[Remarks:Successful connection to server: S3]
[Date: 2016-01-26 09:17:35]	[UserID:08/504]	[IP:10.10.11.1]	[Browser:Chrome - 47.0.2526.111]	[Action:GetProgramList 08/504]	[Remarks:[{"ID":"1","ProgramIndex":"GST","ProgramName":"GST"}]]
[Date: 2016-01-26 09:17:35]	[UserID:08/504]	[IP:10.10.11.1]	[Browser:Chrome - 47.0.2526.111]	[Action:Making connection to server]	[Remarks:Successful connection to server: S3]
[Date: 2016-01-26 09:17:35]	[UserID:08/504]	[IP:10.10.11.1]	[Browser:Chrome - 47.0.2526.111]	[Action:Filtering User : MasterData Username : 08/504]	[Remarks:Successful filter row count: 1]
[Date: 2016-01-26 09:17:35]	[UserID:08/504]	[IP:10.10.11.1]	[Browser:Chrome - 47.0.2526.111]	[Action:Making connection to server]	[Remarks:Successful connection to server: S3]
[Date: 2016-01-26 09:17:35]	[UserID:08/504]	[IP:10.10.11.1]	[Browser:Chrome - 47.0.2526.111]	[Action:GetGSTModules 08/504,1]	[Remarks:Successful filter row count: 3]
[Date: 2016-01-26 09:17:35]	[UserID:08/504]	[IP:10.10.11.1]	[Browser:Chrome - 47.0.2526.111]	[Action:Closing mssql connection]	[Remarks:Success]
[Date: 2016-01-26 09:19:37]	[UserID:08/504]	[IP:10.10.11.1]	[Browser:Chrome - 47.0.2526.111]	[Action:Making connection to server]	[Remarks:Successful connection to server: S3]
[Date: 2016-01-26 09:19:37]	[UserID:08/504]	[IP:10.10.11.1]	[Browser:Chrome - 47.0.2526.111]	[Action:GetGSTModules 08/504,1]	[Remarks:Successful filter row count: 3]
[Date: 2016-01-26 09:19:37]	[UserID:08/504]	[IP:10.10.11.1]	[Browser:Chrome - 47.0.2526.111]	[Action:Closing mssql connection]	[Remarks:Success]
[Date: 2016-01-26 09:26:49]	[UserID:06/371]	[IP:10.10.11.1]	[Browser:Chrome - 47.0.2526.111]	[Action:Making connection to server]	[Remarks:Successful connection to server: S3]
[Date: 2016-01-26 09:26:49]	[UserID:06/371]	[IP:10.10.11.1]	[Browser:Chrome - 47.0.2526.111]	[Action:GetGSTModules 06/371,1]	[Remarks:Successful filter row count: 5]
[Date: 2016-01-26 09:26:49]	[UserID:06/371]	[IP:10.10.11.1]	[Browser:Chrome - 47.0.2526.111]	[Action:Closing mssql connection]	[Remarks:Success]
[Date: 2016-01-26 09:42:54]	[UserID:]	[IP:10.10.11.1]	[Browser:Chrome - 47.0.2526.111]	[Action:Making connection to server]	[Remarks:Successful connection to server: S3]
[Date: 2016-01-26 09:42:54]	[UserID:]	[IP:10.10.11.1]	[Browser:Chrome - 47.0.2526.111]	[Action:GetProgramList ]	[Remarks:"no data"]
[Date: 2016-01-26 09:42:57]	[UserID:10/660]	[IP:10.10.11.1]	[Browser:Chrome - 47.0.2526.111]	[Action:Making connection to server]	[Remarks:Successful connection to server: S3]
[Date: 2016-01-26 09:42:57]	[UserID:10/660]	[IP:10.10.11.1]	[Browser:Chrome - 47.0.2526.111]	[Action:User 10/660]	[Remarks:Success]
[Date: 2016-01-26 09:42:57]	[UserID:10/660]	[IP:10.10.11.1]	[Browser:Chrome - 47.0.2526.111]	[Action:Filtering User : MasterData Username : 10/660]	[Remarks:Successful filter row count: 0]
[Date: 2016-01-26 09:42:57]	[UserID:10/660]	[IP:10.10.11.1]	[Browser:Chrome - 47.0.2526.111]	[Action:Filtering User : MasterData Username : 10/660]	[Remarks:Successful filter row count: 0]
[Date: 2016-01-26 09:42:57]	[UserID:10/660]	[IP:10.10.11.1]	[Browser:Chrome - 47.0.2526.111]	[Action:Filtering User : MasterData Username : 10/660]	[Remarks:Success]
[Date: 2016-01-26 09:42:57]	[UserID:10/660]	[IP:10.10.11.1]	[Browser:Chrome - 47.0.2526.111]	[Action:Closing mssql connection]	[Remarks:Success]
[Date: 2016-01-26 09:42:57]	[UserID:10/660]	[IP:10.10.11.1]	[Browser:Chrome - 47.0.2526.111]	[Action:Making connection to server]	[Remarks:Successful connection to server: S3]
[Date: 2016-01-26 09:42:57]	[UserID:10/660]	[IP:10.10.11.1]	[Browser:Chrome - 47.0.2526.111]	[Action:GetProgramList 10/660]	[Remarks:[{"ID":"1","ProgramIndex":"GST","ProgramName":"GST"}]]
[Date: 2016-01-26 09:42:57]	[UserID:10/660]	[IP:10.10.11.1]	[Browser:Chrome - 47.0.2526.111]	[Action:Making connection to server]	[Remarks:Successful connection to server: S3]
[Date: 2016-01-26 09:42:58]	[UserID:10/660]	[IP:10.10.11.1]	[Browser:Chrome - 47.0.2526.111]	[Action:GetProgramList 10/660]	[Remarks:[{"ID":"1","ProgramIndex":"GST","ProgramName":"GST"}]]
[Date: 2016-01-26 09:42:58]	[UserID:10/660]	[IP:10.10.11.1]	[Browser:Chrome - 47.0.2526.111]	[Action:Making connection to server]	[Remarks:Successful connection to server: S3]
[Date: 2016-01-26 09:42:58]	[UserID:10/660]	[IP:10.10.11.1]	[Browser:Chrome - 47.0.2526.111]	[Action:Filtering User : MasterData Username : 10/660]	[Remarks:Successful filter row count: 1]
[Date: 2016-01-26 09:42:58]	[UserID:10/660]	[IP:10.10.11.1]	[Browser:Chrome - 47.0.2526.111]	[Action:Making connection to server]	[Remarks:Successful connection to server: S3]
[Date: 2016-01-26 09:42:58]	[UserID:10/660]	[IP:10.10.11.1]	[Browser:Chrome - 47.0.2526.111]	[Action:GetGSTModules 10/660,1]	[Remarks:Successful filter row count: 3]
[Date: 2016-01-26 09:42:58]	[UserID:10/660]	[IP:10.10.11.1]	[Browser:Chrome - 47.0.2526.111]	[Action:Closing mssql connection]	[Remarks:Success]
[Date: 2016-01-26 09:45:26]	[UserID:06/371]	[IP:10.10.11.1]	[Browser:Chrome - 47.0.2526.111]	[Action:Making connection to server]	[Remarks:Successful connection to server: S3]
[Date: 2016-01-26 09:45:26]	[UserID:06/371]	[IP:10.10.11.1]	[Browser:Chrome - 47.0.2526.111]	[Action:GetProgramList 06/371]	[Remarks:[{"ID":"1","ProgramIndex":"GST","ProgramName":"GST"}]]
[Date: 2016-01-26 09:45:26]	[UserID:06/371]	[IP:10.10.11.1]	[Browser:Chrome - 47.0.2526.111]	[Action:Making connection to server]	[Remarks:Successful connection to server: S3]
[Date: 2016-01-26 09:45:26]	[UserID:06/371]	[IP:10.10.11.1]	[Browser:Chrome - 47.0.2526.111]	[Action:GetProgramList 06/371]	[Remarks:[{"ID":"1","ProgramIndex":"GST","ProgramName":"GST"}]]
[Date: 2016-01-26 09:45:26]	[UserID:06/371]	[IP:10.10.11.1]	[Browser:Chrome - 47.0.2526.111]	[Action:Making connection to server]	[Remarks:Successful connection to server: S3]
[Date: 2016-01-26 09:45:26]	[UserID:06/371]	[IP:10.10.11.1]	[Browser:Chrome - 47.0.2526.111]	[Action:Filtering User : MasterData Username : 06/371]	[Remarks:Successful filter row count: 1]
[Date: 2016-01-26 09:45:26]	[UserID:06/371]	[IP:10.10.11.1]	[Browser:Chrome - 47.0.2526.111]	[Action:Making connection to server]	[Remarks:Successful connection to server: S3]
[Date: 2016-01-26 09:45:27]	[UserID:06/371]	[IP:10.10.11.1]	[Browser:Chrome - 47.0.2526.111]	[Action:GetGSTModules 06/371,1]	[Remarks:Successful filter row count: 5]
[Date: 2016-01-26 09:45:27]	[UserID:06/371]	[IP:10.10.11.1]	[Browser:Chrome - 47.0.2526.111]	[Action:Closing mssql connection]	[Remarks:Success]
[Date: 2016-01-26 09:48:38]	[UserID:06/371]	[IP:10.10.11.1]	[Browser:Chrome - 47.0.2526.111]	[Action:Making connection to server]	[Remarks:Successful connection to server: S3]
[Date: 2016-01-26 09:48:41]	[UserID:06/371]	[IP:10.10.11.1]	[Browser:Chrome - 47.0.2526.111]	[Action:GetGSTModules 06/371,1]	[Remarks:Successful filter row count: 5]
[Date: 2016-01-26 09:48:41]	[UserID:06/371]	[IP:10.10.11.1]	[Browser:Chrome - 47.0.2526.111]	[Action:Closing mssql connection]	[Remarks:Success]
[Date: 2016-01-26 09:52:10]	[UserID:10/660]	[IP:10.10.11.1]	[Browser:Chrome - 47.0.2526.111]	[Action:Making connection to server]	[Remarks:Successful connection to server: S3]
[Date: 2016-01-26 09:52:10]	[UserID:10/660]	[IP:10.10.11.1]	[Browser:Chrome - 47.0.2526.111]	[Action:GetGSTModules 10/660,1]	[Remarks:Successful filter row count: 3]
[Date: 2016-01-26 09:52:10]	[UserID:10/660]	[IP:10.10.11.1]	[Browser:Chrome - 47.0.2526.111]	[Action:Closing mssql connection]	[Remarks:Success]
[Date: 2016-01-26 09:55:21]	[UserID:06/371]	[IP:10.10.11.1]	[Browser:Chrome - 47.0.2526.111]	[Action:Making connection to server]	[Remarks:Successful connection to server: S3]
[Date: 2016-01-26 09:55:21]	[UserID:06/371]	[IP:10.10.11.1]	[Browser:Chrome - 47.0.2526.111]	[Action:GetGSTModules 06/371,1]	[Remarks:Successful filter row count: 5]
[Date: 2016-01-26 09:55:21]	[UserID:06/371]	[IP:10.10.11.1]	[Browser:Chrome - 47.0.2526.111]	[Action:Closing mssql connection]	[Remarks:Success]
[Date: 2016-01-26 10:04:10]	[UserID:10/660]	[IP:10.10.11.1]	[Browser:Chrome - 47.0.2526.111]	[Action:Making connection to server]	[Remarks:Successful connection to server: S3]
[Date: 2016-01-26 10:04:10]	[UserID:10/660]	[IP:10.10.11.1]	[Browser:Chrome - 47.0.2526.111]	[Action:GetGSTModules 10/660,1]	[Remarks:Successful filter row count: 3]
[Date: 2016-01-26 10:04:10]	[UserID:10/660]	[IP:10.10.11.1]	[Browser:Chrome - 47.0.2526.111]	[Action:Closing mssql connection]	[Remarks:Success]
[Date: 2016-01-26 10:04:50]	[UserID:]	[IP:10.10.11.1]	[Browser:Chrome - 47.0.2526.111]	[Action:Making connection to server]	[Remarks:Successful connection to server: S3]
[Date: 2016-01-26 10:04:50]	[UserID:]	[IP:10.10.11.1]	[Browser:Chrome - 47.0.2526.111]	[Action:GetProgramList ]	[Remarks:"no data"]
[Date: 2016-01-26 10:44:53]	[UserID:]	[IP:10.10.11.1]	[Browser:Firefox - 6.0]	[Action:Making connection to server]	[Remarks:Successful connection to server: S3]
[Date: 2016-01-26 10:44:53]	[UserID:]	[IP:10.10.11.1]	[Browser:Firefox - 6.0]	[Action:GetProgramList ]	[Remarks:"no data"]
[Date: 2016-01-26 13:18:51]	[UserID:06/343]	[IP:10.10.11.1]	[Browser:Chrome - 47.0.2526.111]	[Action:Making connection to server]	[Remarks:Successful connection to server: S3]
[Date: 2016-01-26 13:18:51]	[UserID:06/343]	[IP:10.10.11.1]	[Browser:Chrome - 47.0.2526.111]	[Action:GetGSTModules 06/343,1]	[Remarks:Successful filter row count: 5]
[Date: 2016-01-26 13:18:51]	[UserID:06/343]	[IP:10.10.11.1]	[Browser:Chrome - 47.0.2526.111]	[Action:Closing mssql connection]	[Remarks:Success]
[Date: 2016-01-26 14:38:04]	[UserID:]	[IP:10.10.11.1]	[Browser:Firefox - 6.0]	[Action:Making connection to server]	[Remarks:Successful connection to server: S3]
[Date: 2016-01-26 14:38:04]	[UserID:]	[IP:10.10.11.1]	[Browser:Firefox - 6.0]	[Action:GetProgramList ]	[Remarks:"no data"]
[Date: 2016-01-26 14:40:03]	[UserID:06/343]	[IP:10.10.11.1]	[Browser:Chrome - 47.0.2526.111]	[Action:Making connection to server]	[Remarks:Successful connection to server: S3]
[Date: 2016-01-26 14:40:04]	[UserID:06/343]	[IP:10.10.11.1]	[Browser:Chrome - 47.0.2526.111]	[Action:GetGSTModules 06/343,1]	[Remarks:Successful filter row count: 5]
[Date: 2016-01-26 14:40:04]	[UserID:06/343]	[IP:10.10.11.1]	[Browser:Chrome - 47.0.2526.111]	[Action:Closing mssql connection]	[Remarks:Success]
[Date: 2016-01-26 14:46:51]	[UserID:06/343]	[IP:10.10.11.1]	[Browser:Chrome - 47.0.2526.111]	[Action:Making connection to server]	[Remarks:Successful connection to server: S3]
[Date: 2016-01-26 14:46:51]	[UserID:06/343]	[IP:10.10.11.1]	[Browser:Chrome - 47.0.2526.111]	[Action:GetGSTModules 06/343,1]	[Remarks:Successful filter row count: 5]
[Date: 2016-01-26 14:46:51]	[UserID:06/343]	[IP:10.10.11.1]	[Browser:Chrome - 47.0.2526.111]	[Action:Closing mssql connection]	[Remarks:Success]
[Date: 2016-01-26 14:50:13]	[UserID:]	[IP:10.10.11.1]	[Browser:Chrome - 47.0.2526.111]	[Action:Making connection to server]	[Remarks:Successful connection to server: S3]
[Date: 2016-01-26 14:50:13]	[UserID:]	[IP:10.10.11.1]	[Browser:Chrome - 47.0.2526.111]	[Action:GetProgramList ]	[Remarks:"no data"]
[Date: 2016-01-26 14:50:14]	[UserID:06/371]	[IP:10.10.11.1]	[Browser:Chrome - 47.0.2526.111]	[Action:Making connection to server]	[Remarks:Successful connection to server: S3]
[Date: 2016-01-26 14:50:14]	[UserID:06/371]	[IP:10.10.11.1]	[Browser:Chrome - 47.0.2526.111]	[Action:User 06/371]	[Remarks:Success]
[Date: 2016-01-26 14:50:14]	[UserID:06/371]	[IP:10.10.11.1]	[Browser:Chrome - 47.0.2526.111]	[Action:Filtering User : MasterData Username : 06/371]	[Remarks:Successful filter row count: 0]
[Date: 2016-01-26 14:50:14]	[UserID:06/371]	[IP:10.10.11.1]	[Browser:Chrome - 47.0.2526.111]	[Action:Filtering User : MasterData Username : 06/371]	[Remarks:Successful filter row count: 0]
[Date: 2016-01-26 14:50:14]	[UserID:06/371]	[IP:10.10.11.1]	[Browser:Chrome - 47.0.2526.111]	[Action:Filtering User : MasterData Username : 06/371]	[Remarks:Success]
[Date: 2016-01-26 14:50:14]	[UserID:06/371]	[IP:10.10.11.1]	[Browser:Chrome - 47.0.2526.111]	[Action:Closing mssql connection]	[Remarks:Success]
[Date: 2016-01-26 14:50:15]	[UserID:06/371]	[IP:10.10.11.1]	[Browser:Chrome - 47.0.2526.111]	[Action:Making connection to server]	[Remarks:Successful connection to server: S3]
[Date: 2016-01-26 14:50:15]	[UserID:06/371]	[IP:10.10.11.1]	[Browser:Chrome - 47.0.2526.111]	[Action:GetProgramList 06/371]	[Remarks:[{"ID":"1","ProgramIndex":"GST","ProgramName":"GST"}]]
[Date: 2016-01-26 14:50:15]	[UserID:06/371]	[IP:10.10.11.1]	[Browser:Chrome - 47.0.2526.111]	[Action:Making connection to server]	[Remarks:Successful connection to server: S3]
[Date: 2016-01-26 14:50:15]	[UserID:06/371]	[IP:10.10.11.1]	[Browser:Chrome - 47.0.2526.111]	[Action:GetProgramList 06/371]	[Remarks:[{"ID":"1","ProgramIndex":"GST","ProgramName":"GST"}]]
[Date: 2016-01-26 14:50:15]	[UserID:06/371]	[IP:10.10.11.1]	[Browser:Chrome - 47.0.2526.111]	[Action:Making connection to server]	[Remarks:Successful connection to server: S3]
[Date: 2016-01-26 14:50:15]	[UserID:06/371]	[IP:10.10.11.1]	[Browser:Chrome - 47.0.2526.111]	[Action:Filtering User : MasterData Username : 06/371]	[Remarks:Successful filter row count: 1]
[Date: 2016-01-26 14:50:15]	[UserID:06/371]	[IP:10.10.11.1]	[Browser:Chrome - 47.0.2526.111]	[Action:Making connection to server]	[Remarks:Successful connection to server: S3]
[Date: 2016-01-26 14:50:15]	[UserID:06/371]	[IP:10.10.11.1]	[Browser:Chrome - 47.0.2526.111]	[Action:GetGSTModules 06/371,1]	[Remarks:Successful filter row count: 5]
[Date: 2016-01-26 14:50:15]	[UserID:06/371]	[IP:10.10.11.1]	[Browser:Chrome - 47.0.2526.111]	[Action:Closing mssql connection]	[Remarks:Success]
[Date: 2016-01-26 14:53:11]	[UserID:06/371]	[IP:10.10.11.1]	[Browser:Chrome - 47.0.2526.111]	[Action:Making connection to server]	[Remarks:Successful connection to server: S3]
[Date: 2016-01-26 14:53:11]	[UserID:06/371]	[IP:10.10.11.1]	[Browser:Chrome - 47.0.2526.111]	[Action:GetGSTModules 06/371,1]	[Remarks:Successful filter row count: 5]
[Date: 2016-01-26 14:53:11]	[UserID:06/371]	[IP:10.10.11.1]	[Browser:Chrome - 47.0.2526.111]	[Action:Closing mssql connection]	[Remarks:Success]
[Date: 2016-01-26 14:55:46]	[UserID:06/371]	[IP:10.10.11.1]	[Browser:Chrome - 47.0.2526.111]	[Action:Making connection to server]	[Remarks:Successful connection to server: S3]
[Date: 2016-01-26 14:55:46]	[UserID:06/371]	[IP:10.10.11.1]	[Browser:Chrome - 47.0.2526.111]	[Action:GetGSTModules 06/371,1]	[Remarks:Successful filter row count: 5]
[Date: 2016-01-26 14:55:46]	[UserID:06/371]	[IP:10.10.11.1]	[Browser:Chrome - 47.0.2526.111]	[Action:Closing mssql connection]	[Remarks:Success]
[Date: 2016-01-26 14:59:51]	[UserID:06/371]	[IP:10.10.11.1]	[Browser:Chrome - 47.0.2526.111]	[Action:Making connection to server]	[Remarks:Successful connection to server: S3]
[Date: 2016-01-26 14:59:51]	[UserID:06/371]	[IP:10.10.11.1]	[Browser:Chrome - 47.0.2526.111]	[Action:GetGSTModules 06/371,1]	[Remarks:Successful filter row count: 5]
[Date: 2016-01-26 14:59:51]	[UserID:06/371]	[IP:10.10.11.1]	[Browser:Chrome - 47.0.2526.111]	[Action:Closing mssql connection]	[Remarks:Success]
[Date: 2016-01-26 15:02:09]	[UserID:06/371]	[IP:10.10.11.1]	[Browser:Chrome - 47.0.2526.111]	[Action:Making connection to server]	[Remarks:Successful connection to server: S3]
[Date: 2016-01-26 15:02:09]	[UserID:06/371]	[IP:10.10.11.1]	[Browser:Chrome - 47.0.2526.111]	[Action:GetGSTModules 06/371,1]	[Remarks:Successful filter row count: 5]
[Date: 2016-01-26 15:02:09]	[UserID:06/371]	[IP:10.10.11.1]	[Browser:Chrome - 47.0.2526.111]	[Action:Closing mssql connection]	[Remarks:Success]
[Date: 2016-01-26 15:02:40]	[UserID:06/371]	[IP:10.10.11.1]	[Browser:Chrome - 47.0.2526.111]	[Action:Making connection to server]	[Remarks:Successful connection to server: S3]
[Date: 2016-01-26 15:02:40]	[UserID:06/371]	[IP:10.10.11.1]	[Browser:Chrome - 47.0.2526.111]	[Action:GetGSTModules 06/371,1]	[Remarks:Successful filter row count: 5]
[Date: 2016-01-26 15:02:40]	[UserID:06/371]	[IP:10.10.11.1]	[Browser:Chrome - 47.0.2526.111]	[Action:Closing mssql connection]	[Remarks:Success]
