[Date: 2016-05-30 08:07:50]	[UserID:]	[IP:10.10.11.1]	[Browser:Chrome - 50.0.2661.102]	[Action:Making connection to server]	[Remarks:Successful connection to server: S3]
[Date: 2016-05-30 08:07:50]	[UserID:]	[IP:10.10.11.1]	[Browser:Chrome - 50.0.2661.102]	[Action:GetProgramList ]	[Remarks:"no data"]
[Date: 2016-05-30 08:08:00]	[UserID:06/343]	[IP:10.10.11.1]	[Browser:Chrome - 50.0.2661.102]	[Action:Making connection to server]	[Remarks:Successful connection to server: S3]
[Date: 2016-05-30 08:08:00]	[UserID:06/343]	[IP:10.10.11.1]	[Browser:Chrome - 50.0.2661.102]	[Action:User 06/343]	[Remarks:Success]
[Date: 2016-05-30 08:08:00]	[UserID:06/343]	[IP:10.10.11.1]	[Browser:Chrome - 50.0.2661.102]	[Action:Filtering User : MasterData Username : 06/343]	[Remarks:Successful filter row count: 0]
[Date: 2016-05-30 08:08:00]	[UserID:06/343]	[IP:10.10.11.1]	[Browser:Chrome - 50.0.2661.102]	[Action:Filtering User : MasterData Username : 06/343]	[Remarks:Successful filter row count: 0]
[Date: 2016-05-30 08:08:00]	[UserID:06/343]	[IP:10.10.11.1]	[Browser:Chrome - 50.0.2661.102]	[Action:Filtering User : MasterData Username : 06/343]	[Remarks:Success]
[Date: 2016-05-30 08:08:00]	[UserID:06/343]	[IP:10.10.11.1]	[Browser:Chrome - 50.0.2661.102]	[Action:Closing mssql connection]	[Remarks:Success]
[Date: 2016-05-30 08:08:00]	[UserID:06/343]	[IP:10.10.11.1]	[Browser:Chrome - 50.0.2661.102]	[Action:Making connection to server]	[Remarks:Successful connection to server: S3]
[Date: 2016-05-30 08:08:00]	[UserID:06/343]	[IP:10.10.11.1]	[Browser:Chrome - 50.0.2661.102]	[Action:GetProgramList 06/343]	[Remarks:[{"ID":"1","ProgramIndex":"GST","ProgramName":"GST"}]]
[Date: 2016-05-30 08:08:00]	[UserID:06/343]	[IP:10.10.11.1]	[Browser:Chrome - 50.0.2661.102]	[Action:Making connection to server]	[Remarks:Successful connection to server: S3]
[Date: 2016-05-30 08:08:00]	[UserID:06/343]	[IP:10.10.11.1]	[Browser:Chrome - 50.0.2661.102]	[Action:GetProgramList 06/343]	[Remarks:[{"ID":"1","ProgramIndex":"GST","ProgramName":"GST"}]]
[Date: 2016-05-30 08:08:00]	[UserID:06/343]	[IP:10.10.11.1]	[Browser:Chrome - 50.0.2661.102]	[Action:Making connection to server]	[Remarks:Successful connection to server: S3]
[Date: 2016-05-30 08:08:00]	[UserID:06/343]	[IP:10.10.11.1]	[Browser:Chrome - 50.0.2661.102]	[Action:Filtering User : MasterData Username : 06/343]	[Remarks:Successful filter row count: 1]
[Date: 2016-05-30 08:08:01]	[UserID:06/343]	[IP:10.10.11.1]	[Browser:Chrome - 50.0.2661.102]	[Action:Making connection to server]	[Remarks:Successful connection to server: S3]
[Date: 2016-05-30 08:08:01]	[UserID:06/343]	[IP:10.10.11.1]	[Browser:Chrome - 50.0.2661.102]	[Action:GetGSTModules 06/343,1]	[Remarks:Successful filter row count: 5]
[Date: 2016-05-30 08:08:01]	[UserID:06/343]	[IP:10.10.11.1]	[Browser:Chrome - 50.0.2661.102]	[Action:Closing mssql connection]	[Remarks:Success]
[Date: 2016-05-30 08:12:22]	[UserID:06/343]	[IP:10.10.11.1]	[Browser:Chrome - 50.0.2661.102]	[Action:Making connection to server]	[Remarks:Successful connection to server: S3]
[Date: 2016-05-30 08:12:22]	[UserID:06/343]	[IP:10.10.11.1]	[Browser:Chrome - 50.0.2661.102]	[Action:GetGSTModules 06/343,1]	[Remarks:Successful filter row count: 5]
[Date: 2016-05-30 08:12:22]	[UserID:06/343]	[IP:10.10.11.1]	[Browser:Chrome - 50.0.2661.102]	[Action:Closing mssql connection]	[Remarks:Success]
[Date: 2016-05-30 08:16:26]	[UserID:06/343]	[IP:10.10.11.1]	[Browser:Chrome - 50.0.2661.102]	[Action:Making connection to server]	[Remarks:Successful connection to server: S3]
[Date: 2016-05-30 08:16:26]	[UserID:06/343]	[IP:10.10.11.1]	[Browser:Chrome - 50.0.2661.102]	[Action:GetGSTModules 06/343,1]	[Remarks:Successful filter row count: 5]
[Date: 2016-05-30 08:16:26]	[UserID:06/343]	[IP:10.10.11.1]	[Browser:Chrome - 50.0.2661.102]	[Action:Closing mssql connection]	[Remarks:Success]
[Date: 2016-05-30 08:39:59]	[UserID:]	[IP:10.10.11.1]	[Browser:Chrome - 49.0.2623.75]	[Action:Making connection to server]	[Remarks:Successful connection to server: S3]
[Date: 2016-05-30 08:39:59]	[UserID:]	[IP:10.10.11.1]	[Browser:Chrome - 49.0.2623.75]	[Action:GetProgramList ]	[Remarks:"no data"]
[Date: 2016-05-30 08:49:30]	[UserID:]	[IP:10.10.11.1]	[Browser:Chrome - 49.0.2623.75]	[Action:Making connection to server]	[Remarks:Successful connection to server: S3]
[Date: 2016-05-30 08:49:30]	[UserID:]	[IP:10.10.11.1]	[Browser:Chrome - 49.0.2623.75]	[Action:GetProgramList ]	[Remarks:"no data"]
[Date: 2016-05-30 08:50:38]	[UserID:06/343]	[IP:10.10.11.1]	[Browser:Chrome - 50.0.2661.102]	[Action:Making connection to server]	[Remarks:Successful connection to server: S3]
[Date: 2016-05-30 08:50:38]	[UserID:06/343]	[IP:10.10.11.1]	[Browser:Chrome - 50.0.2661.102]	[Action:GetGSTModules 06/343,1]	[Remarks:Successful filter row count: 5]
[Date: 2016-05-30 08:50:38]	[UserID:06/343]	[IP:10.10.11.1]	[Browser:Chrome - 50.0.2661.102]	[Action:Closing mssql connection]	[Remarks:Success]
[Date: 2016-05-30 08:53:15]	[UserID:06/343]	[IP:10.10.11.1]	[Browser:Chrome - 50.0.2661.102]	[Action:Making connection to server]	[Remarks:Successful connection to server: S3]
[Date: 2016-05-30 08:53:18]	[UserID:06/343]	[IP:10.10.11.1]	[Browser:Chrome - 50.0.2661.102]	[Action:GetGSTModules 06/343,1]	[Remarks:Successful filter row count: 5]
[Date: 2016-05-30 08:53:18]	[UserID:06/343]	[IP:10.10.11.1]	[Browser:Chrome - 50.0.2661.102]	[Action:Closing mssql connection]	[Remarks:Success]
[Date: 2016-05-30 08:53:34]	[UserID:06/343]	[IP:10.10.11.1]	[Browser:Chrome - 50.0.2661.102]	[Action:Making connection to server]	[Remarks:Successful connection to server: S3]
[Date: 2016-05-30 08:53:34]	[UserID:06/343]	[IP:10.10.11.1]	[Browser:Chrome - 50.0.2661.102]	[Action:GetGSTModules 06/343,1]	[Remarks:Successful filter row count: 5]
[Date: 2016-05-30 08:53:34]	[UserID:06/343]	[IP:10.10.11.1]	[Browser:Chrome - 50.0.2661.102]	[Action:Closing mssql connection]	[Remarks:Success]
[Date: 2016-05-30 08:53:51]	[UserID:06/343]	[IP:10.10.11.1]	[Browser:Chrome - 50.0.2661.102]	[Action:Making connection to server]	[Remarks:Successful connection to server: S3]
[Date: 2016-05-30 08:53:52]	[UserID:06/343]	[IP:10.10.11.1]	[Browser:Chrome - 50.0.2661.102]	[Action:GetGSTModules 06/343,1]	[Remarks:Successful filter row count: 5]
[Date: 2016-05-30 08:53:52]	[UserID:06/343]	[IP:10.10.11.1]	[Browser:Chrome - 50.0.2661.102]	[Action:Closing mssql connection]	[Remarks:Success]
[Date: 2016-05-30 08:57:07]	[UserID:06/343]	[IP:10.10.11.1]	[Browser:Chrome - 50.0.2661.102]	[Action:Making connection to server]	[Remarks:Successful connection to server: S3]
[Date: 2016-05-30 08:57:07]	[UserID:06/343]	[IP:10.10.11.1]	[Browser:Chrome - 50.0.2661.102]	[Action:GetGSTModules 06/343,1]	[Remarks:Successful filter row count: 5]
[Date: 2016-05-30 08:57:07]	[UserID:06/343]	[IP:10.10.11.1]	[Browser:Chrome - 50.0.2661.102]	[Action:Closing mssql connection]	[Remarks:Success]
[Date: 2016-05-30 08:57:38]	[UserID:06/343]	[IP:10.10.11.1]	[Browser:Chrome - 50.0.2661.102]	[Action:Making connection to server]	[Remarks:Successful connection to server: S3]
[Date: 2016-05-30 08:57:38]	[UserID:06/343]	[IP:10.10.11.1]	[Browser:Chrome - 50.0.2661.102]	[Action:GetGSTModules 06/343,1]	[Remarks:Successful filter row count: 5]
[Date: 2016-05-30 08:57:38]	[UserID:06/343]	[IP:10.10.11.1]	[Browser:Chrome - 50.0.2661.102]	[Action:Closing mssql connection]	[Remarks:Success]
[Date: 2016-05-30 10:57:12]	[UserID:]	[IP:10.10.11.1]	[Browser:Chrome - 50.0.2661.102]	[Action:Making connection to server]	[Remarks:Successful connection to server: S3]
[Date: 2016-05-30 10:57:14]	[UserID:]	[IP:10.10.11.1]	[Browser:Chrome - 50.0.2661.102]	[Action:GetProgramList ]	[Remarks:"no data"]
[Date: 2016-05-30 11:10:18]	[UserID:08/504]	[IP:10.10.11.1]	[Browser:Chrome - 50.0.2661.102]	[Action:Making connection to server]	[Remarks:Successful connection to server: S3]
[Date: 2016-05-30 11:10:18]	[UserID:08/504]	[IP:10.10.11.1]	[Browser:Chrome - 50.0.2661.102]	[Action:User 08/504]	[Remarks:Success]
[Date: 2016-05-30 11:10:18]	[UserID:08/504]	[IP:10.10.11.1]	[Browser:Chrome - 50.0.2661.102]	[Action:Filtering User : MasterData Username : 08/504]	[Remarks:Successful filter row count: 0]
[Date: 2016-05-30 11:10:18]	[UserID:08/504]	[IP:10.10.11.1]	[Browser:Chrome - 50.0.2661.102]	[Action:Filtering User : MasterData Username : 08/504]	[Remarks:Successful filter row count: 0]
[Date: 2016-05-30 11:10:18]	[UserID:08/504]	[IP:10.10.11.1]	[Browser:Chrome - 50.0.2661.102]	[Action:Filtering User : MasterData Username : 08/504]	[Remarks:Success]
[Date: 2016-05-30 11:10:18]	[UserID:08/504]	[IP:10.10.11.1]	[Browser:Chrome - 50.0.2661.102]	[Action:Closing mssql connection]	[Remarks:Success]
[Date: 2016-05-30 11:10:19]	[UserID:08/504]	[IP:10.10.11.1]	[Browser:Chrome - 50.0.2661.102]	[Action:Making connection to server]	[Remarks:Successful connection to server: S3]
[Date: 2016-05-30 11:10:19]	[UserID:08/504]	[IP:10.10.11.1]	[Browser:Chrome - 50.0.2661.102]	[Action:GetProgramList 08/504]	[Remarks:[{"ID":"1","ProgramIndex":"GST","ProgramName":"GST"}]]
[Date: 2016-05-30 11:10:19]	[UserID:08/504]	[IP:10.10.11.1]	[Browser:Chrome - 50.0.2661.102]	[Action:Making connection to server]	[Remarks:Successful connection to server: S3]
[Date: 2016-05-30 11:10:19]	[UserID:08/504]	[IP:10.10.11.1]	[Browser:Chrome - 50.0.2661.102]	[Action:GetProgramList 08/504]	[Remarks:[{"ID":"1","ProgramIndex":"GST","ProgramName":"GST"}]]
[Date: 2016-05-30 11:10:19]	[UserID:08/504]	[IP:10.10.11.1]	[Browser:Chrome - 50.0.2661.102]	[Action:Making connection to server]	[Remarks:Successful connection to server: S3]
[Date: 2016-05-30 11:10:19]	[UserID:08/504]	[IP:10.10.11.1]	[Browser:Chrome - 50.0.2661.102]	[Action:Filtering User : MasterData Username : 08/504]	[Remarks:Successful filter row count: 1]
[Date: 2016-05-30 11:10:19]	[UserID:08/504]	[IP:10.10.11.1]	[Browser:Chrome - 50.0.2661.102]	[Action:Making connection to server]	[Remarks:Successful connection to server: S3]
[Date: 2016-05-30 11:10:19]	[UserID:08/504]	[IP:10.10.11.1]	[Browser:Chrome - 50.0.2661.102]	[Action:GetGSTModules 08/504,1]	[Remarks:Successful filter row count: 5]
[Date: 2016-05-30 11:10:19]	[UserID:08/504]	[IP:10.10.11.1]	[Browser:Chrome - 50.0.2661.102]	[Action:Closing mssql connection]	[Remarks:Success]
[Date: 2016-05-30 11:13:09]	[UserID:08/504]	[IP:10.10.11.1]	[Browser:Chrome - 50.0.2661.102]	[Action:Making connection to server]	[Remarks:Successful connection to server: S3]
[Date: 2016-05-30 11:13:09]	[UserID:08/504]	[IP:10.10.11.1]	[Browser:Chrome - 50.0.2661.102]	[Action:GetGSTModules 08/504,1]	[Remarks:Successful filter row count: 5]
[Date: 2016-05-30 11:13:09]	[UserID:08/504]	[IP:10.10.11.1]	[Browser:Chrome - 50.0.2661.102]	[Action:Closing mssql connection]	[Remarks:Success]
[Date: 2016-05-30 11:25:15]	[UserID:]	[IP:10.10.11.1]	[Browser:Chrome - 50.0.2661.102]	[Action:Making connection to server]	[Remarks:Successful connection to server: S3]
[Date: 2016-05-30 11:25:15]	[UserID:]	[IP:10.10.11.1]	[Browser:Chrome - 50.0.2661.102]	[Action:GetProgramList ]	[Remarks:"no data"]
[Date: 2016-05-30 11:25:20]	[UserID:10/660]	[IP:10.10.11.1]	[Browser:Chrome - 50.0.2661.102]	[Action:Making connection to server]	[Remarks:Successful connection to server: S3]
[Date: 2016-05-30 11:25:20]	[UserID:10/660]	[IP:10.10.11.1]	[Browser:Chrome - 50.0.2661.102]	[Action:User 10/660]	[Remarks:Success]
[Date: 2016-05-30 11:25:20]	[UserID:10/660]	[IP:10.10.11.1]	[Browser:Chrome - 50.0.2661.102]	[Action:Filtering User : MasterData Username : 10/660]	[Remarks:Successful filter row count: 0]
[Date: 2016-05-30 11:25:20]	[UserID:10/660]	[IP:10.10.11.1]	[Browser:Chrome - 50.0.2661.102]	[Action:Filtering User : MasterData Username : 10/660]	[Remarks:Successful filter row count: 0]
[Date: 2016-05-30 11:25:20]	[UserID:10/660]	[IP:10.10.11.1]	[Browser:Chrome - 50.0.2661.102]	[Action:Filtering User : MasterData Username : 10/660]	[Remarks:Success]
[Date: 2016-05-30 11:25:20]	[UserID:10/660]	[IP:10.10.11.1]	[Browser:Chrome - 50.0.2661.102]	[Action:Closing mssql connection]	[Remarks:Success]
[Date: 2016-05-30 11:25:20]	[UserID:10/660]	[IP:10.10.11.1]	[Browser:Chrome - 50.0.2661.102]	[Action:Making connection to server]	[Remarks:Successful connection to server: S3]
[Date: 2016-05-30 11:25:20]	[UserID:10/660]	[IP:10.10.11.1]	[Browser:Chrome - 50.0.2661.102]	[Action:GetProgramList 10/660]	[Remarks:[{"ID":"1","ProgramIndex":"GST","ProgramName":"GST"}]]
[Date: 2016-05-30 11:25:20]	[UserID:10/660]	[IP:10.10.11.1]	[Browser:Chrome - 50.0.2661.102]	[Action:Making connection to server]	[Remarks:Successful connection to server: S3]
[Date: 2016-05-30 11:25:20]	[UserID:10/660]	[IP:10.10.11.1]	[Browser:Chrome - 50.0.2661.102]	[Action:GetProgramList 10/660]	[Remarks:[{"ID":"1","ProgramIndex":"GST","ProgramName":"GST"}]]
[Date: 2016-05-30 11:25:20]	[UserID:10/660]	[IP:10.10.11.1]	[Browser:Chrome - 50.0.2661.102]	[Action:Making connection to server]	[Remarks:Successful connection to server: S3]
[Date: 2016-05-30 11:25:20]	[UserID:10/660]	[IP:10.10.11.1]	[Browser:Chrome - 50.0.2661.102]	[Action:Filtering User : MasterData Username : 10/660]	[Remarks:Successful filter row count: 1]
[Date: 2016-05-30 11:25:20]	[UserID:10/660]	[IP:10.10.11.1]	[Browser:Chrome - 50.0.2661.102]	[Action:Making connection to server]	[Remarks:Successful connection to server: S3]
[Date: 2016-05-30 11:25:20]	[UserID:10/660]	[IP:10.10.11.1]	[Browser:Chrome - 50.0.2661.102]	[Action:GetGSTModules 10/660,1]	[Remarks:Successful filter row count: 3]
[Date: 2016-05-30 11:25:20]	[UserID:10/660]	[IP:10.10.11.1]	[Browser:Chrome - 50.0.2661.102]	[Action:Closing mssql connection]	[Remarks:Success]
[Date: 2016-05-30 11:31:04]	[UserID:10/660]	[IP:10.10.11.1]	[Browser:Chrome - 50.0.2661.102]	[Action:Making connection to server]	[Remarks:Successful connection to server: S3]
[Date: 2016-05-30 11:31:04]	[UserID:10/660]	[IP:10.10.11.1]	[Browser:Chrome - 50.0.2661.102]	[Action:GetGSTModules 10/660,1]	[Remarks:Successful filter row count: 3]
[Date: 2016-05-30 11:31:04]	[UserID:10/660]	[IP:10.10.11.1]	[Browser:Chrome - 50.0.2661.102]	[Action:Closing mssql connection]	[Remarks:Success]
[Date: 2016-05-30 11:32:06]	[UserID:08/504]	[IP:10.10.11.1]	[Browser:Chrome - 50.0.2661.102]	[Action:Making connection to server]	[Remarks:Successful connection to server: S3]
[Date: 2016-05-30 11:32:06]	[UserID:08/504]	[IP:10.10.11.1]	[Browser:Chrome - 50.0.2661.102]	[Action:GetGSTModules 08/504,1]	[Remarks:Successful filter row count: 5]
[Date: 2016-05-30 11:32:06]	[UserID:08/504]	[IP:10.10.11.1]	[Browser:Chrome - 50.0.2661.102]	[Action:Closing mssql connection]	[Remarks:Success]
[Date: 2016-05-30 11:45:19]	[UserID:08/504]	[IP:10.10.11.1]	[Browser:Chrome - 50.0.2661.102]	[Action:Making connection to server]	[Remarks:Successful connection to server: S3]
[Date: 2016-05-30 11:45:21]	[UserID:08/504]	[IP:10.10.11.1]	[Browser:Chrome - 50.0.2661.102]	[Action:GetGSTModules 08/504,1]	[Remarks:Successful filter row count: 5]
[Date: 2016-05-30 11:45:21]	[UserID:08/504]	[IP:10.10.11.1]	[Browser:Chrome - 50.0.2661.102]	[Action:Closing mssql connection]	[Remarks:Success]
[Date: 2016-05-30 11:45:30]	[UserID:08/504]	[IP:10.10.11.1]	[Browser:Chrome - 50.0.2661.102]	[Action:Making connection to server]	[Remarks:Successful connection to server: S3]
[Date: 2016-05-30 11:45:31]	[UserID:08/504]	[IP:10.10.11.1]	[Browser:Chrome - 50.0.2661.102]	[Action:GetGSTModules 08/504,1]	[Remarks:Successful filter row count: 5]
[Date: 2016-05-30 11:45:31]	[UserID:08/504]	[IP:10.10.11.1]	[Browser:Chrome - 50.0.2661.102]	[Action:Closing mssql connection]	[Remarks:Success]
[Date: 2016-05-30 11:47:43]	[UserID:10/660]	[IP:10.10.11.1]	[Browser:Chrome - 50.0.2661.102]	[Action:Making connection to server]	[Remarks:Successful connection to server: S3]
[Date: 2016-05-30 11:47:43]	[UserID:10/660]	[IP:10.10.11.1]	[Browser:Chrome - 50.0.2661.102]	[Action:GetGSTModules 10/660,1]	[Remarks:Successful filter row count: 3]
[Date: 2016-05-30 11:47:43]	[UserID:10/660]	[IP:10.10.11.1]	[Browser:Chrome - 50.0.2661.102]	[Action:Closing mssql connection]	[Remarks:Success]
[Date: 2016-05-30 11:49:46]	[UserID:08/504]	[IP:10.10.11.1]	[Browser:Chrome - 50.0.2661.102]	[Action:Making connection to server]	[Remarks:Successful connection to server: S3]
[Date: 2016-05-30 11:49:46]	[UserID:08/504]	[IP:10.10.11.1]	[Browser:Chrome - 50.0.2661.102]	[Action:GetGSTModules 08/504,1]	[Remarks:Successful filter row count: 5]
[Date: 2016-05-30 11:49:46]	[UserID:08/504]	[IP:10.10.11.1]	[Browser:Chrome - 50.0.2661.102]	[Action:Closing mssql connection]	[Remarks:Success]
[Date: 2016-05-30 11:49:56]	[UserID:]	[IP:10.10.11.1]	[Browser:Chrome - 50.0.2661.102]	[Action:Making connection to server]	[Remarks:Successful connection to server: S3]
[Date: 2016-05-30 11:49:56]	[UserID:]	[IP:10.10.11.1]	[Browser:Chrome - 50.0.2661.102]	[Action:GetProgramList ]	[Remarks:"no data"]
[Date: 2016-05-30 14:37:11]	[UserID:]	[IP:10.10.11.1]	[Browser:Chrome - 50.0.2661.102]	[Action:Making connection to server]	[Remarks:Successful connection to server: S3]
[Date: 2016-05-30 14:37:11]	[UserID:]	[IP:10.10.11.1]	[Browser:Chrome - 50.0.2661.102]	[Action:GetProgramList ]	[Remarks:"no data"]
[Date: 2016-05-30 14:43:43]	[UserID:]	[IP:10.10.11.1]	[Browser:Chrome - 50.0.2661.102]	[Action:Making connection to server]	[Remarks:Successful connection to server: S3]
[Date: 2016-05-30 14:43:43]	[UserID:]	[IP:10.10.11.1]	[Browser:Chrome - 50.0.2661.102]	[Action:GetProgramList ]	[Remarks:"no data"]
[Date: 2016-05-30 14:43:45]	[UserID:08/504]	[IP:10.10.11.1]	[Browser:Chrome - 50.0.2661.102]	[Action:Making connection to server]	[Remarks:Successful connection to server: S3]
[Date: 2016-05-30 14:43:45]	[UserID:08/504]	[IP:10.10.11.1]	[Browser:Chrome - 50.0.2661.102]	[Action:User 08/504]	[Remarks:Success]
[Date: 2016-05-30 14:43:45]	[UserID:08/504]	[IP:10.10.11.1]	[Browser:Chrome - 50.0.2661.102]	[Action:Filtering User : MasterData Username : 08/504]	[Remarks:Successful filter row count: 0]
[Date: 2016-05-30 14:43:45]	[UserID:08/504]	[IP:10.10.11.1]	[Browser:Chrome - 50.0.2661.102]	[Action:Filtering User : MasterData Username : 08/504]	[Remarks:Successful filter row count: 0]
[Date: 2016-05-30 14:43:45]	[UserID:08/504]	[IP:10.10.11.1]	[Browser:Chrome - 50.0.2661.102]	[Action:Filtering User : MasterData Username : 08/504]	[Remarks:Success]
[Date: 2016-05-30 14:43:45]	[UserID:08/504]	[IP:10.10.11.1]	[Browser:Chrome - 50.0.2661.102]	[Action:Closing mssql connection]	[Remarks:Success]
[Date: 2016-05-30 14:43:45]	[UserID:08/504]	[IP:10.10.11.1]	[Browser:Chrome - 50.0.2661.102]	[Action:Making connection to server]	[Remarks:Successful connection to server: S3]
[Date: 2016-05-30 14:43:45]	[UserID:08/504]	[IP:10.10.11.1]	[Browser:Chrome - 50.0.2661.102]	[Action:GetProgramList 08/504]	[Remarks:[{"ID":"1","ProgramIndex":"GST","ProgramName":"GST"}]]
[Date: 2016-05-30 14:43:45]	[UserID:08/504]	[IP:10.10.11.1]	[Browser:Chrome - 50.0.2661.102]	[Action:Making connection to server]	[Remarks:Successful connection to server: S3]
[Date: 2016-05-30 14:43:45]	[UserID:08/504]	[IP:10.10.11.1]	[Browser:Chrome - 50.0.2661.102]	[Action:GetProgramList 08/504]	[Remarks:[{"ID":"1","ProgramIndex":"GST","ProgramName":"GST"}]]
[Date: 2016-05-30 14:43:45]	[UserID:08/504]	[IP:10.10.11.1]	[Browser:Chrome - 50.0.2661.102]	[Action:Making connection to server]	[Remarks:Successful connection to server: S3]
[Date: 2016-05-30 14:43:45]	[UserID:08/504]	[IP:10.10.11.1]	[Browser:Chrome - 50.0.2661.102]	[Action:Filtering User : MasterData Username : 08/504]	[Remarks:Successful filter row count: 1]
[Date: 2016-05-30 14:43:46]	[UserID:08/504]	[IP:10.10.11.1]	[Browser:Chrome - 50.0.2661.102]	[Action:Making connection to server]	[Remarks:Successful connection to server: S3]
[Date: 2016-05-30 14:43:46]	[UserID:08/504]	[IP:10.10.11.1]	[Browser:Chrome - 50.0.2661.102]	[Action:GetGSTModules 08/504,1]	[Remarks:Successful filter row count: 5]
[Date: 2016-05-30 14:43:46]	[UserID:08/504]	[IP:10.10.11.1]	[Browser:Chrome - 50.0.2661.102]	[Action:Closing mssql connection]	[Remarks:Success]
[Date: 2016-05-30 17:40:17]	[UserID:]	[IP:10.10.11.1]	[Browser:Chrome - 50.0.2661.102]	[Action:Making connection to server]	[Remarks:Successful connection to server: S3]
[Date: 2016-05-30 17:40:17]	[UserID:]	[IP:10.10.11.1]	[Browser:Chrome - 50.0.2661.102]	[Action:GetProgramList ]	[Remarks:"no data"]
[Date: 2016-05-30 17:40:19]	[UserID:14/1082]	[IP:10.10.11.1]	[Browser:Chrome - 50.0.2661.102]	[Action:Making connection to server]	[Remarks:Successful connection to server: S3]
[Date: 2016-05-30 17:40:19]	[UserID:14/1082]	[IP:10.10.11.1]	[Browser:Chrome - 50.0.2661.102]	[Action:User 14/1082]	[Remarks:Success]
[Date: 2016-05-30 17:40:19]	[UserID:14/1082]	[IP:10.10.11.1]	[Browser:Chrome - 50.0.2661.102]	[Action:Filtering User : MasterData Username : 14/1082]	[Remarks:Successful filter row count: 0]
[Date: 2016-05-30 17:40:19]	[UserID:14/1082]	[IP:10.10.11.1]	[Browser:Chrome - 50.0.2661.102]	[Action:Filtering User : MasterData Username : 14/1082]	[Remarks:Successful filter row count: 0]
[Date: 2016-05-30 17:40:19]	[UserID:14/1082]	[IP:10.10.11.1]	[Browser:Chrome - 50.0.2661.102]	[Action:Filtering User : MasterData Username : 14/1082]	[Remarks:Success]
[Date: 2016-05-30 17:40:19]	[UserID:14/1082]	[IP:10.10.11.1]	[Browser:Chrome - 50.0.2661.102]	[Action:Closing mssql connection]	[Remarks:Success]
[Date: 2016-05-30 17:40:20]	[UserID:14/1082]	[IP:10.10.11.1]	[Browser:Chrome - 50.0.2661.102]	[Action:Making connection to server]	[Remarks:Successful connection to server: S3]
[Date: 2016-05-30 17:40:20]	[UserID:14/1082]	[IP:10.10.11.1]	[Browser:Chrome - 50.0.2661.102]	[Action:GetProgramList 14/1082]	[Remarks:[{"ID":"1","ProgramIndex":"GST","ProgramName":"GST"}]]
[Date: 2016-05-30 17:40:20]	[UserID:14/1082]	[IP:10.10.11.1]	[Browser:Chrome - 50.0.2661.102]	[Action:Making connection to server]	[Remarks:Successful connection to server: S3]
[Date: 2016-05-30 17:40:20]	[UserID:14/1082]	[IP:10.10.11.1]	[Browser:Chrome - 50.0.2661.102]	[Action:GetProgramList 14/1082]	[Remarks:[{"ID":"1","ProgramIndex":"GST","ProgramName":"GST"}]]
[Date: 2016-05-30 17:40:20]	[UserID:14/1082]	[IP:10.10.11.1]	[Browser:Chrome - 50.0.2661.102]	[Action:Making connection to server]	[Remarks:Successful connection to server: S3]
[Date: 2016-05-30 17:40:20]	[UserID:14/1082]	[IP:10.10.11.1]	[Browser:Chrome - 50.0.2661.102]	[Action:Filtering User : MasterData Username : 14/1082]	[Remarks:Successful filter row count: 1]
[Date: 2016-05-30 17:40:20]	[UserID:14/1082]	[IP:10.10.11.1]	[Browser:Chrome - 50.0.2661.102]	[Action:Making connection to server]	[Remarks:Successful connection to server: S3]
[Date: 2016-05-30 17:40:20]	[UserID:14/1082]	[IP:10.10.11.1]	[Browser:Chrome - 50.0.2661.102]	[Action:GetGSTModules 14/1082,1]	[Remarks:Successful filter row count: 7]
[Date: 2016-05-30 17:40:20]	[UserID:14/1082]	[IP:10.10.11.1]	[Browser:Chrome - 50.0.2661.102]	[Action:Closing mssql connection]	[Remarks:Success]
[Date: 2016-05-30 17:48:17]	[UserID:14/1082]	[IP:10.10.11.1]	[Browser:Chrome - 50.0.2661.102]	[Action:Making connection to server]	[Remarks:Successful connection to server: S3]
[Date: 2016-05-30 17:48:17]	[UserID:14/1082]	[IP:10.10.11.1]	[Browser:Chrome - 50.0.2661.102]	[Action:GetGSTModules 14/1082,1]	[Remarks:Successful filter row count: 7]
[Date: 2016-05-30 17:48:17]	[UserID:14/1082]	[IP:10.10.11.1]	[Browser:Chrome - 50.0.2661.102]	[Action:Closing mssql connection]	[Remarks:Success]
[Date: 2016-05-30 17:57:33]	[UserID:]	[IP:10.10.11.1]	[Browser:Chrome - 50.0.2661.102]	[Action:Making connection to server]	[Remarks:Successful connection to server: S3]
[Date: 2016-05-30 17:57:33]	[UserID:]	[IP:10.10.11.1]	[Browser:Chrome - 50.0.2661.102]	[Action:GetProgramList ]	[Remarks:"no data"]
