[Date: 2015-10-06 08:10:41]	[UserID:]	[IP:10.10.11.1]	[Browser:Chrome - 45.0.2454.101]	[Action:Making connection to server]	[Remarks:Successful connection to server: S3]
[Date: 2015-10-06 08:10:41]	[UserID:]	[IP:10.10.11.1]	[Browser:Chrome - 45.0.2454.101]	[Action:GetProgramList ]	[Remarks:"no data"]
[Date: 2015-10-06 08:11:10]	[UserID:10/660]	[IP:10.10.11.1]	[Browser:Chrome - 45.0.2454.101]	[Action:Making connection to server]	[Remarks:Successful connection to server: S3]
[Date: 2015-10-06 08:11:10]	[UserID:10/660]	[IP:10.10.11.1]	[Browser:Chrome - 45.0.2454.101]	[Action:User 10/660]	[Remarks:Success]
[Date: 2015-10-06 08:11:10]	[UserID:10/660]	[IP:10.10.11.1]	[Browser:Chrome - 45.0.2454.101]	[Action:Filtering User : MasterData Username : 10/660]	[Remarks:Successful filter row count: 0]
[Date: 2015-10-06 08:11:10]	[UserID:10/660]	[IP:10.10.11.1]	[Browser:Chrome - 45.0.2454.101]	[Action:Filtering User : MasterData Username : 10/660]	[Remarks:Successful filter row count: 0]
[Date: 2015-10-06 08:11:10]	[UserID:10/660]	[IP:10.10.11.1]	[Browser:Chrome - 45.0.2454.101]	[Action:Filtering User : MasterData Username : 10/660]	[Remarks:Success]
[Date: 2015-10-06 08:11:10]	[UserID:10/660]	[IP:10.10.11.1]	[Browser:Chrome - 45.0.2454.101]	[Action:Closing mssql connection]	[Remarks:Success]
[Date: 2015-10-06 08:11:11]	[UserID:10/660]	[IP:10.10.11.1]	[Browser:Chrome - 45.0.2454.101]	[Action:Making connection to server]	[Remarks:Successful connection to server: S3]
[Date: 2015-10-06 08:11:11]	[UserID:10/660]	[IP:10.10.11.1]	[Browser:Chrome - 45.0.2454.101]	[Action:GetProgramList 10/660]	[Remarks:[{"ID":"1","ProgramIndex":"GST","ProgramName":"GST"}]]
[Date: 2015-10-06 08:11:11]	[UserID:10/660]	[IP:10.10.11.1]	[Browser:Chrome - 45.0.2454.101]	[Action:Making connection to server]	[Remarks:Successful connection to server: S3]
[Date: 2015-10-06 08:11:11]	[UserID:10/660]	[IP:10.10.11.1]	[Browser:Chrome - 45.0.2454.101]	[Action:GetProgramList 10/660]	[Remarks:[{"ID":"1","ProgramIndex":"GST","ProgramName":"GST"}]]
[Date: 2015-10-06 08:11:11]	[UserID:10/660]	[IP:10.10.11.1]	[Browser:Chrome - 45.0.2454.101]	[Action:Making connection to server]	[Remarks:Successful connection to server: S3]
[Date: 2015-10-06 08:11:11]	[UserID:10/660]	[IP:10.10.11.1]	[Browser:Chrome - 45.0.2454.101]	[Action:Filtering User : MasterData Username : 10/660]	[Remarks:Successful filter row count: 1]
[Date: 2015-10-06 08:11:11]	[UserID:10/660]	[IP:10.10.11.1]	[Browser:Chrome - 45.0.2454.101]	[Action:Making connection to server]	[Remarks:Successful connection to server: S3]
[Date: 2015-10-06 08:11:11]	[UserID:10/660]	[IP:10.10.11.1]	[Browser:Chrome - 45.0.2454.101]	[Action:GetGSTModules 10/660,1]	[Remarks:Successful filter row count: 3]
[Date: 2015-10-06 08:11:11]	[UserID:10/660]	[IP:10.10.11.1]	[Browser:Chrome - 45.0.2454.101]	[Action:Closing mssql connection]	[Remarks:Success]
[Date: 2015-10-06 08:12:09]	[UserID:]	[IP:10.10.11.1]	[Browser:Chrome - 45.0.2454.101]	[Action:Making connection to server]	[Remarks:Successful connection to server: S3]
[Date: 2015-10-06 08:12:09]	[UserID:]	[IP:10.10.11.1]	[Browser:Chrome - 45.0.2454.101]	[Action:GetProgramList ]	[Remarks:"no data"]
[Date: 2015-10-06 08:19:16]	[UserID:]	[IP:10.10.11.1]	[Browser:Chrome - 45.0.2454.101]	[Action:Making connection to server]	[Remarks:Successful connection to server: S3]
[Date: 2015-10-06 08:19:16]	[UserID:]	[IP:10.10.11.1]	[Browser:Chrome - 45.0.2454.101]	[Action:GetProgramList ]	[Remarks:"no data"]
[Date: 2015-10-06 08:19:18]	[UserID:11/715]	[IP:10.10.11.1]	[Browser:Chrome - 45.0.2454.101]	[Action:Making connection to server]	[Remarks:Successful connection to server: S3]
[Date: 2015-10-06 08:19:18]	[UserID:11/715]	[IP:10.10.11.1]	[Browser:Chrome - 45.0.2454.101]	[Action:User 11/715]	[Remarks:Success]
[Date: 2015-10-06 08:19:18]	[UserID:11/715]	[IP:10.10.11.1]	[Browser:Chrome - 45.0.2454.101]	[Action:Filtering User : MasterData Username : 11/715]	[Remarks:Successful filter row count: 0]
[Date: 2015-10-06 08:19:18]	[UserID:11/715]	[IP:10.10.11.1]	[Browser:Chrome - 45.0.2454.101]	[Action:Filtering User : MasterData Username : 11/715]	[Remarks:Successful filter row count: 0]
[Date: 2015-10-06 08:19:18]	[UserID:11/715]	[IP:10.10.11.1]	[Browser:Chrome - 45.0.2454.101]	[Action:Filtering User : MasterData Username : 11/715]	[Remarks:Success]
[Date: 2015-10-06 08:19:18]	[UserID:11/715]	[IP:10.10.11.1]	[Browser:Chrome - 45.0.2454.101]	[Action:Closing mssql connection]	[Remarks:Success]
[Date: 2015-10-06 08:19:18]	[UserID:11/715]	[IP:10.10.11.1]	[Browser:Chrome - 45.0.2454.101]	[Action:Making connection to server]	[Remarks:Successful connection to server: S3]
[Date: 2015-10-06 08:19:18]	[UserID:11/715]	[IP:10.10.11.1]	[Browser:Chrome - 45.0.2454.101]	[Action:GetProgramList 11/715]	[Remarks:[{"ID":"1","ProgramIndex":"GST","ProgramName":"GST"}]]
[Date: 2015-10-06 08:19:18]	[UserID:11/715]	[IP:10.10.11.1]	[Browser:Chrome - 45.0.2454.101]	[Action:Making connection to server]	[Remarks:Successful connection to server: S3]
[Date: 2015-10-06 08:19:18]	[UserID:11/715]	[IP:10.10.11.1]	[Browser:Chrome - 45.0.2454.101]	[Action:GetProgramList 11/715]	[Remarks:[{"ID":"1","ProgramIndex":"GST","ProgramName":"GST"}]]
[Date: 2015-10-06 08:19:18]	[UserID:11/715]	[IP:10.10.11.1]	[Browser:Chrome - 45.0.2454.101]	[Action:Making connection to server]	[Remarks:Successful connection to server: S3]
[Date: 2015-10-06 08:19:18]	[UserID:11/715]	[IP:10.10.11.1]	[Browser:Chrome - 45.0.2454.101]	[Action:Filtering User : MasterData Username : 11/715]	[Remarks:Successful filter row count: 1]
[Date: 2015-10-06 08:19:19]	[UserID:11/715]	[IP:10.10.11.1]	[Browser:Chrome - 45.0.2454.101]	[Action:Making connection to server]	[Remarks:Successful connection to server: S3]
[Date: 2015-10-06 08:19:19]	[UserID:11/715]	[IP:10.10.11.1]	[Browser:Chrome - 45.0.2454.101]	[Action:GetGSTModules 11/715,1]	[Remarks:Successful filter row count: 3]
[Date: 2015-10-06 08:19:19]	[UserID:11/715]	[IP:10.10.11.1]	[Browser:Chrome - 45.0.2454.101]	[Action:Closing mssql connection]	[Remarks:Success]
[Date: 2015-10-06 08:20:11]	[UserID:11/715]	[IP:10.10.11.1]	[Browser:Chrome - 45.0.2454.101]	[Action:Making connection to server]	[Remarks:Successful connection to server: S3]
[Date: 2015-10-06 08:20:12]	[UserID:11/715]	[IP:10.10.11.1]	[Browser:Chrome - 45.0.2454.101]	[Action:GetGSTModules 11/715,1]	[Remarks:Successful filter row count: 3]
[Date: 2015-10-06 08:20:12]	[UserID:11/715]	[IP:10.10.11.1]	[Browser:Chrome - 45.0.2454.101]	[Action:Closing mssql connection]	[Remarks:Success]
[Date: 2015-10-06 08:21:40]	[UserID:]	[IP:10.10.11.1]	[Browser:Chrome - 45.0.2454.101]	[Action:Making connection to server]	[Remarks:Successful connection to server: S3]
[Date: 2015-10-06 08:21:40]	[UserID:]	[IP:10.10.11.1]	[Browser:Chrome - 45.0.2454.101]	[Action:Making connection to server]	[Remarks:Successful connection to server: S3]
[Date: 2015-10-06 08:21:40]	[UserID:]	[IP:10.10.11.1]	[Browser:Chrome - 45.0.2454.101]	[Action:GetProgramList ]	[Remarks:"no data"]
[Date: 2015-10-06 08:21:40]	[UserID:]	[IP:10.10.11.1]	[Browser:Chrome - 45.0.2454.101]	[Action:GetProgramList ]	[Remarks:"no data"]
[Date: 2015-10-06 08:21:55]	[UserID:06/343]	[IP:10.10.11.1]	[Browser:Chrome - 45.0.2454.101]	[Action:Making connection to server]	[Remarks:Successful connection to server: S3]
[Date: 2015-10-06 08:21:55]	[UserID:06/343]	[IP:10.10.11.1]	[Browser:Chrome - 45.0.2454.101]	[Action:User 06/343]	[Remarks:Success]
[Date: 2015-10-06 08:21:55]	[UserID:06/343]	[IP:10.10.11.1]	[Browser:Chrome - 45.0.2454.101]	[Action:Filtering User : MasterData Username : 06/343]	[Remarks:Successful filter row count: 0]
[Date: 2015-10-06 08:21:55]	[UserID:06/343]	[IP:10.10.11.1]	[Browser:Chrome - 45.0.2454.101]	[Action:Filtering User : MasterData Username : 06/343]	[Remarks:Successful filter row count: 0]
[Date: 2015-10-06 08:21:55]	[UserID:06/343]	[IP:10.10.11.1]	[Browser:Chrome - 45.0.2454.101]	[Action:Filtering User : MasterData Username : 06/343]	[Remarks:Success]
[Date: 2015-10-06 08:21:55]	[UserID:06/343]	[IP:10.10.11.1]	[Browser:Chrome - 45.0.2454.101]	[Action:Closing mssql connection]	[Remarks:Success]
[Date: 2015-10-06 08:21:55]	[UserID:06/343]	[IP:10.10.11.1]	[Browser:Chrome - 45.0.2454.101]	[Action:Making connection to server]	[Remarks:Successful connection to server: S3]
[Date: 2015-10-06 08:21:55]	[UserID:06/343]	[IP:10.10.11.1]	[Browser:Chrome - 45.0.2454.101]	[Action:GetProgramList 06/343]	[Remarks:[{"ID":"1","ProgramIndex":"GST","ProgramName":"GST"}]]
[Date: 2015-10-06 08:21:55]	[UserID:06/343]	[IP:10.10.11.1]	[Browser:Chrome - 45.0.2454.101]	[Action:Making connection to server]	[Remarks:Successful connection to server: S3]
[Date: 2015-10-06 08:21:55]	[UserID:06/343]	[IP:10.10.11.1]	[Browser:Chrome - 45.0.2454.101]	[Action:GetProgramList 06/343]	[Remarks:[{"ID":"1","ProgramIndex":"GST","ProgramName":"GST"}]]
[Date: 2015-10-06 08:21:55]	[UserID:06/343]	[IP:10.10.11.1]	[Browser:Chrome - 45.0.2454.101]	[Action:Making connection to server]	[Remarks:Successful connection to server: S3]
[Date: 2015-10-06 08:21:55]	[UserID:06/343]	[IP:10.10.11.1]	[Browser:Chrome - 45.0.2454.101]	[Action:Filtering User : MasterData Username : 06/343]	[Remarks:Successful filter row count: 1]
[Date: 2015-10-06 08:21:55]	[UserID:06/343]	[IP:10.10.11.1]	[Browser:Chrome - 45.0.2454.101]	[Action:Making connection to server]	[Remarks:Successful connection to server: S3]
[Date: 2015-10-06 08:21:56]	[UserID:06/343]	[IP:10.10.11.1]	[Browser:Chrome - 45.0.2454.101]	[Action:GetGSTModules 06/343,1]	[Remarks:Successful filter row count: 5]
[Date: 2015-10-06 08:21:56]	[UserID:06/343]	[IP:10.10.11.1]	[Browser:Chrome - 45.0.2454.101]	[Action:Closing mssql connection]	[Remarks:Success]
[Date: 2015-10-06 08:22:19]	[UserID:11/715]	[IP:10.10.11.1]	[Browser:Chrome - 45.0.2454.101]	[Action:Making connection to server]	[Remarks:Successful connection to server: S3]
[Date: 2015-10-06 08:22:19]	[UserID:11/715]	[IP:10.10.11.1]	[Browser:Chrome - 45.0.2454.101]	[Action:GetProgramList 11/715]	[Remarks:[{"ID":"1","ProgramIndex":"GST","ProgramName":"GST"}]]
[Date: 2015-10-06 08:22:19]	[UserID:11/715]	[IP:10.10.11.1]	[Browser:Chrome - 45.0.2454.101]	[Action:Making connection to server]	[Remarks:Successful connection to server: S3]
[Date: 2015-10-06 08:22:19]	[UserID:11/715]	[IP:10.10.11.1]	[Browser:Chrome - 45.0.2454.101]	[Action:GetProgramList 11/715]	[Remarks:[{"ID":"1","ProgramIndex":"GST","ProgramName":"GST"}]]
[Date: 2015-10-06 08:22:19]	[UserID:11/715]	[IP:10.10.11.1]	[Browser:Chrome - 45.0.2454.101]	[Action:Making connection to server]	[Remarks:Successful connection to server: S3]
[Date: 2015-10-06 08:22:19]	[UserID:11/715]	[IP:10.10.11.1]	[Browser:Chrome - 45.0.2454.101]	[Action:Filtering User : MasterData Username : 11/715]	[Remarks:Successful filter row count: 1]
[Date: 2015-10-06 08:22:19]	[UserID:11/715]	[IP:10.10.11.1]	[Browser:Chrome - 45.0.2454.101]	[Action:Making connection to server]	[Remarks:Successful connection to server: S3]
[Date: 2015-10-06 08:22:19]	[UserID:11/715]	[IP:10.10.11.1]	[Browser:Chrome - 45.0.2454.101]	[Action:GetGSTModules 11/715,1]	[Remarks:Successful filter row count: 3]
[Date: 2015-10-06 08:22:19]	[UserID:11/715]	[IP:10.10.11.1]	[Browser:Chrome - 45.0.2454.101]	[Action:Closing mssql connection]	[Remarks:Success]
[Date: 2015-10-06 08:23:34]	[UserID:06/343]	[IP:10.10.11.1]	[Browser:Chrome - 45.0.2454.101]	[Action:Making connection to server]	[Remarks:Successful connection to server: S3]
[Date: 2015-10-06 08:23:34]	[UserID:06/343]	[IP:10.10.11.1]	[Browser:Chrome - 45.0.2454.101]	[Action:GetGSTModules 06/343,1]	[Remarks:Successful filter row count: 5]
[Date: 2015-10-06 08:23:34]	[UserID:06/343]	[IP:10.10.11.1]	[Browser:Chrome - 45.0.2454.101]	[Action:Closing mssql connection]	[Remarks:Success]
[Date: 2015-10-06 08:23:47]	[UserID:11/715]	[IP:10.10.11.1]	[Browser:Chrome - 45.0.2454.101]	[Action:Making connection to server]	[Remarks:Successful connection to server: S3]
[Date: 2015-10-06 08:23:47]	[UserID:11/715]	[IP:10.10.11.1]	[Browser:Chrome - 45.0.2454.101]	[Action:GetGSTModules 11/715,1]	[Remarks:Successful filter row count: 3]
[Date: 2015-10-06 08:23:47]	[UserID:11/715]	[IP:10.10.11.1]	[Browser:Chrome - 45.0.2454.101]	[Action:Closing mssql connection]	[Remarks:Success]
[Date: 2015-10-06 08:26:42]	[UserID:06/343]	[IP:10.10.11.1]	[Browser:Chrome - 45.0.2454.101]	[Action:Making connection to server]	[Remarks:Successful connection to server: S3]
[Date: 2015-10-06 08:26:42]	[UserID:06/343]	[IP:10.10.11.1]	[Browser:Chrome - 45.0.2454.101]	[Action:GetGSTModules 06/343,1]	[Remarks:Successful filter row count: 5]
[Date: 2015-10-06 08:26:42]	[UserID:06/343]	[IP:10.10.11.1]	[Browser:Chrome - 45.0.2454.101]	[Action:Closing mssql connection]	[Remarks:Success]
[Date: 2015-10-06 08:49:19]	[UserID:]	[IP:10.10.11.1]	[Browser:Chrome - 45.0.2454.101]	[Action:Making connection to server]	[Remarks:Successful connection to server: S3]
[Date: 2015-10-06 08:49:19]	[UserID:]	[IP:10.10.11.1]	[Browser:Chrome - 45.0.2454.101]	[Action:GetProgramList ]	[Remarks:"no data"]
[Date: 2015-10-06 08:49:31]	[UserID:06/371]	[IP:10.10.11.1]	[Browser:Chrome - 45.0.2454.101]	[Action:Making connection to server]	[Remarks:Successful connection to server: S3]
[Date: 2015-10-06 08:49:31]	[UserID:06/371]	[IP:10.10.11.1]	[Browser:Chrome - 45.0.2454.101]	[Action:User 06/371]	[Remarks:Success]
[Date: 2015-10-06 08:49:31]	[UserID:06/371]	[IP:10.10.11.1]	[Browser:Chrome - 45.0.2454.101]	[Action:Filtering User : MasterData Username : 06/371]	[Remarks:Successful filter row count: 0]
[Date: 2015-10-06 08:49:31]	[UserID:06/371]	[IP:10.10.11.1]	[Browser:Chrome - 45.0.2454.101]	[Action:Filtering User : MasterData Username : 06/371]	[Remarks:Successful filter row count: 0]
[Date: 2015-10-06 08:49:31]	[UserID:06/371]	[IP:10.10.11.1]	[Browser:Chrome - 45.0.2454.101]	[Action:Filtering User : MasterData Username : 06/371]	[Remarks:Success]
[Date: 2015-10-06 08:49:31]	[UserID:06/371]	[IP:10.10.11.1]	[Browser:Chrome - 45.0.2454.101]	[Action:Closing mssql connection]	[Remarks:Success]
[Date: 2015-10-06 08:49:31]	[UserID:06/371]	[IP:10.10.11.1]	[Browser:Chrome - 45.0.2454.101]	[Action:Making connection to server]	[Remarks:Successful connection to server: S3]
[Date: 2015-10-06 08:49:31]	[UserID:06/371]	[IP:10.10.11.1]	[Browser:Chrome - 45.0.2454.101]	[Action:GetProgramList 06/371]	[Remarks:[{"ID":"1","ProgramIndex":"GST","ProgramName":"GST"}]]
[Date: 2015-10-06 08:49:31]	[UserID:06/371]	[IP:10.10.11.1]	[Browser:Chrome - 45.0.2454.101]	[Action:Making connection to server]	[Remarks:Successful connection to server: S3]
[Date: 2015-10-06 08:49:31]	[UserID:06/371]	[IP:10.10.11.1]	[Browser:Chrome - 45.0.2454.101]	[Action:GetProgramList 06/371]	[Remarks:[{"ID":"1","ProgramIndex":"GST","ProgramName":"GST"}]]
[Date: 2015-10-06 08:49:31]	[UserID:06/371]	[IP:10.10.11.1]	[Browser:Chrome - 45.0.2454.101]	[Action:Making connection to server]	[Remarks:Successful connection to server: S3]
[Date: 2015-10-06 08:49:31]	[UserID:06/371]	[IP:10.10.11.1]	[Browser:Chrome - 45.0.2454.101]	[Action:Filtering User : MasterData Username : 06/371]	[Remarks:Successful filter row count: 1]
[Date: 2015-10-06 08:49:31]	[UserID:06/371]	[IP:10.10.11.1]	[Browser:Chrome - 45.0.2454.101]	[Action:Making connection to server]	[Remarks:Successful connection to server: S3]
[Date: 2015-10-06 08:49:31]	[UserID:06/371]	[IP:10.10.11.1]	[Browser:Chrome - 45.0.2454.101]	[Action:GetGSTModules 06/371,1]	[Remarks:Successful filter row count: 5]
[Date: 2015-10-06 08:49:31]	[UserID:06/371]	[IP:10.10.11.1]	[Browser:Chrome - 45.0.2454.101]	[Action:Closing mssql connection]	[Remarks:Success]
[Date: 2015-10-06 08:57:06]	[UserID:]	[IP:10.10.11.1]	[Browser:Chrome - 45.0.2454.101]	[Action:Making connection to server]	[Remarks:Successful connection to server: S3]
[Date: 2015-10-06 08:57:06]	[UserID:]	[IP:10.10.11.1]	[Browser:Chrome - 45.0.2454.101]	[Action:GetProgramList ]	[Remarks:"no data"]
[Date: 2015-10-06 08:57:43]	[UserID:10/660]	[IP:10.10.11.1]	[Browser:Chrome - 45.0.2454.101]	[Action:Making connection to server]	[Remarks:Successful connection to server: S3]
[Date: 2015-10-06 08:57:43]	[UserID:10/660]	[IP:10.10.11.1]	[Browser:Chrome - 45.0.2454.101]	[Action:User 10/660]	[Remarks:Success]
[Date: 2015-10-06 08:57:43]	[UserID:10/660]	[IP:10.10.11.1]	[Browser:Chrome - 45.0.2454.101]	[Action:Filtering User : MasterData Username : 10/660]	[Remarks:Successful filter row count: 0]
[Date: 2015-10-06 08:57:43]	[UserID:10/660]	[IP:10.10.11.1]	[Browser:Chrome - 45.0.2454.101]	[Action:Filtering User : MasterData Username : 10/660]	[Remarks:Successful filter row count: 0]
[Date: 2015-10-06 08:57:43]	[UserID:10/660]	[IP:10.10.11.1]	[Browser:Chrome - 45.0.2454.101]	[Action:Filtering User : MasterData Username : 10/660]	[Remarks:Success]
[Date: 2015-10-06 08:57:43]	[UserID:10/660]	[IP:10.10.11.1]	[Browser:Chrome - 45.0.2454.101]	[Action:Closing mssql connection]	[Remarks:Success]
[Date: 2015-10-06 08:57:44]	[UserID:10/660]	[IP:10.10.11.1]	[Browser:Chrome - 45.0.2454.101]	[Action:Making connection to server]	[Remarks:Successful connection to server: S3]
[Date: 2015-10-06 08:57:44]	[UserID:10/660]	[IP:10.10.11.1]	[Browser:Chrome - 45.0.2454.101]	[Action:GetProgramList 10/660]	[Remarks:[{"ID":"1","ProgramIndex":"GST","ProgramName":"GST"}]]
[Date: 2015-10-06 08:57:44]	[UserID:10/660]	[IP:10.10.11.1]	[Browser:Chrome - 45.0.2454.101]	[Action:Making connection to server]	[Remarks:Successful connection to server: S3]
[Date: 2015-10-06 08:57:44]	[UserID:10/660]	[IP:10.10.11.1]	[Browser:Chrome - 45.0.2454.101]	[Action:GetProgramList 10/660]	[Remarks:[{"ID":"1","ProgramIndex":"GST","ProgramName":"GST"}]]
[Date: 2015-10-06 08:57:44]	[UserID:10/660]	[IP:10.10.11.1]	[Browser:Chrome - 45.0.2454.101]	[Action:Making connection to server]	[Remarks:Successful connection to server: S3]
[Date: 2015-10-06 08:57:44]	[UserID:10/660]	[IP:10.10.11.1]	[Browser:Chrome - 45.0.2454.101]	[Action:Filtering User : MasterData Username : 10/660]	[Remarks:Successful filter row count: 1]
[Date: 2015-10-06 08:57:44]	[UserID:10/660]	[IP:10.10.11.1]	[Browser:Chrome - 45.0.2454.101]	[Action:Making connection to server]	[Remarks:Successful connection to server: S3]
[Date: 2015-10-06 08:57:44]	[UserID:10/660]	[IP:10.10.11.1]	[Browser:Chrome - 45.0.2454.101]	[Action:GetGSTModules 10/660,1]	[Remarks:Successful filter row count: 3]
[Date: 2015-10-06 08:57:44]	[UserID:10/660]	[IP:10.10.11.1]	[Browser:Chrome - 45.0.2454.101]	[Action:Closing mssql connection]	[Remarks:Success]
[Date: 2015-10-06 09:00:27]	[UserID:06/371]	[IP:10.10.11.1]	[Browser:Chrome - 45.0.2454.101]	[Action:Making connection to server]	[Remarks:Successful connection to server: S3]
[Date: 2015-10-06 09:00:27]	[UserID:06/371]	[IP:10.10.11.1]	[Browser:Chrome - 45.0.2454.101]	[Action:GetGSTModules 06/371,1]	[Remarks:Successful filter row count: 5]
[Date: 2015-10-06 09:00:27]	[UserID:06/371]	[IP:10.10.11.1]	[Browser:Chrome - 45.0.2454.101]	[Action:Closing mssql connection]	[Remarks:Success]
[Date: 2015-10-06 09:01:01]	[UserID:06/371]	[IP:10.10.11.1]	[Browser:Chrome - 45.0.2454.101]	[Action:Making connection to server]	[Remarks:Successful connection to server: S3]
[Date: 2015-10-06 09:01:01]	[UserID:06/371]	[IP:10.10.11.1]	[Browser:Chrome - 45.0.2454.101]	[Action:GetGSTModules 06/371,1]	[Remarks:Successful filter row count: 5]
[Date: 2015-10-06 09:01:01]	[UserID:06/371]	[IP:10.10.11.1]	[Browser:Chrome - 45.0.2454.101]	[Action:Closing mssql connection]	[Remarks:Success]
[Date: 2015-10-06 09:01:14]	[UserID:06/371]	[IP:10.10.11.1]	[Browser:Chrome - 45.0.2454.101]	[Action:Making connection to server]	[Remarks:Successful connection to server: S3]
[Date: 2015-10-06 09:01:14]	[UserID:06/371]	[IP:10.10.11.1]	[Browser:Chrome - 45.0.2454.101]	[Action:GetGSTModules 06/371,1]	[Remarks:Successful filter row count: 5]
[Date: 2015-10-06 09:01:14]	[UserID:06/371]	[IP:10.10.11.1]	[Browser:Chrome - 45.0.2454.101]	[Action:Closing mssql connection]	[Remarks:Success]
[Date: 2015-10-06 09:04:36]	[UserID:10/660]	[IP:10.10.11.1]	[Browser:Chrome - 45.0.2454.101]	[Action:Making connection to server]	[Remarks:Successful connection to server: S3]
[Date: 2015-10-06 09:04:38]	[UserID:10/660]	[IP:10.10.11.1]	[Browser:Chrome - 45.0.2454.101]	[Action:GetGSTModules 10/660,1]	[Remarks:Successful filter row count: 3]
[Date: 2015-10-06 09:04:38]	[UserID:10/660]	[IP:10.10.11.1]	[Browser:Chrome - 45.0.2454.101]	[Action:Closing mssql connection]	[Remarks:Success]
[Date: 2015-10-06 09:07:25]	[UserID:06/371]	[IP:10.10.11.1]	[Browser:Chrome - 45.0.2454.101]	[Action:Making connection to server]	[Remarks:Successful connection to server: S3]
[Date: 2015-10-06 09:07:25]	[UserID:06/371]	[IP:10.10.11.1]	[Browser:Chrome - 45.0.2454.101]	[Action:GetGSTModules 06/371,1]	[Remarks:Successful filter row count: 5]
[Date: 2015-10-06 09:07:25]	[UserID:06/371]	[IP:10.10.11.1]	[Browser:Chrome - 45.0.2454.101]	[Action:Closing mssql connection]	[Remarks:Success]
[Date: 2015-10-06 09:12:07]	[UserID:]	[IP:10.10.11.1]	[Browser:Chrome - 45.0.2454.101]	[Action:Making connection to server]	[Remarks:Successful connection to server: S3]
[Date: 2015-10-06 09:12:07]	[UserID:]	[IP:10.10.11.1]	[Browser:Chrome - 45.0.2454.101]	[Action:GetProgramList ]	[Remarks:"no data"]
[Date: 2015-10-06 09:12:09]	[UserID:08/504]	[IP:10.10.11.1]	[Browser:Chrome - 45.0.2454.101]	[Action:Making connection to server]	[Remarks:Successful connection to server: S3]
[Date: 2015-10-06 09:12:09]	[UserID:08/504]	[IP:10.10.11.1]	[Browser:Chrome - 45.0.2454.101]	[Action:User 08/504]	[Remarks:Success]
[Date: 2015-10-06 09:12:09]	[UserID:08/504]	[IP:10.10.11.1]	[Browser:Chrome - 45.0.2454.101]	[Action:Filtering User : MasterData Username : 08/504]	[Remarks:Successful filter row count: 0]
[Date: 2015-10-06 09:12:09]	[UserID:08/504]	[IP:10.10.11.1]	[Browser:Chrome - 45.0.2454.101]	[Action:Filtering User : MasterData Username : 08/504]	[Remarks:Successful filter row count: 0]
[Date: 2015-10-06 09:12:09]	[UserID:08/504]	[IP:10.10.11.1]	[Browser:Chrome - 45.0.2454.101]	[Action:Filtering User : MasterData Username : 08/504]	[Remarks:Success]
[Date: 2015-10-06 09:12:09]	[UserID:08/504]	[IP:10.10.11.1]	[Browser:Chrome - 45.0.2454.101]	[Action:Closing mssql connection]	[Remarks:Success]
[Date: 2015-10-06 09:12:09]	[UserID:08/504]	[IP:10.10.11.1]	[Browser:Chrome - 45.0.2454.101]	[Action:Making connection to server]	[Remarks:Successful connection to server: S3]
[Date: 2015-10-06 09:12:09]	[UserID:08/504]	[IP:10.10.11.1]	[Browser:Chrome - 45.0.2454.101]	[Action:GetProgramList 08/504]	[Remarks:[{"ID":"1","ProgramIndex":"GST","ProgramName":"GST"}]]
[Date: 2015-10-06 09:12:09]	[UserID:08/504]	[IP:10.10.11.1]	[Browser:Chrome - 45.0.2454.101]	[Action:Making connection to server]	[Remarks:Successful connection to server: S3]
[Date: 2015-10-06 09:12:09]	[UserID:08/504]	[IP:10.10.11.1]	[Browser:Chrome - 45.0.2454.101]	[Action:GetProgramList 08/504]	[Remarks:[{"ID":"1","ProgramIndex":"GST","ProgramName":"GST"}]]
[Date: 2015-10-06 09:12:09]	[UserID:08/504]	[IP:10.10.11.1]	[Browser:Chrome - 45.0.2454.101]	[Action:Making connection to server]	[Remarks:Successful connection to server: S3]
[Date: 2015-10-06 09:12:09]	[UserID:08/504]	[IP:10.10.11.1]	[Browser:Chrome - 45.0.2454.101]	[Action:Filtering User : MasterData Username : 08/504]	[Remarks:Successful filter row count: 1]
[Date: 2015-10-06 09:12:10]	[UserID:08/504]	[IP:10.10.11.1]	[Browser:Chrome - 45.0.2454.101]	[Action:Making connection to server]	[Remarks:Successful connection to server: S3]
[Date: 2015-10-06 09:12:10]	[UserID:08/504]	[IP:10.10.11.1]	[Browser:Chrome - 45.0.2454.101]	[Action:GetGSTModules 08/504,1]	[Remarks:Successful filter row count: 3]
[Date: 2015-10-06 09:12:10]	[UserID:08/504]	[IP:10.10.11.1]	[Browser:Chrome - 45.0.2454.101]	[Action:Closing mssql connection]	[Remarks:Success]
[Date: 2015-10-06 09:12:55]	[UserID:06/371]	[IP:10.10.11.1]	[Browser:Chrome - 45.0.2454.101]	[Action:Making connection to server]	[Remarks:Successful connection to server: S3]
[Date: 2015-10-06 09:12:55]	[UserID:06/371]	[IP:10.10.11.1]	[Browser:Chrome - 45.0.2454.101]	[Action:GetGSTModules 06/371,1]	[Remarks:Successful filter row count: 5]
[Date: 2015-10-06 09:12:55]	[UserID:06/371]	[IP:10.10.11.1]	[Browser:Chrome - 45.0.2454.101]	[Action:Closing mssql connection]	[Remarks:Success]
[Date: 2015-10-06 09:15:22]	[UserID:10/660]	[IP:10.10.11.1]	[Browser:Chrome - 45.0.2454.101]	[Action:Making connection to server]	[Remarks:Successful connection to server: S3]
[Date: 2015-10-06 09:15:22]	[UserID:10/660]	[IP:10.10.11.1]	[Browser:Chrome - 45.0.2454.101]	[Action:GetGSTModules 10/660,1]	[Remarks:Successful filter row count: 3]
[Date: 2015-10-06 09:15:22]	[UserID:10/660]	[IP:10.10.11.1]	[Browser:Chrome - 45.0.2454.101]	[Action:Closing mssql connection]	[Remarks:Success]
[Date: 2015-10-06 09:16:46]	[UserID:06/343]	[IP:10.10.11.1]	[Browser:Chrome - 45.0.2454.101]	[Action:Making connection to server]	[Remarks:Successful connection to server: S3]
[Date: 2015-10-06 09:16:46]	[UserID:06/343]	[IP:10.10.11.1]	[Browser:Chrome - 45.0.2454.101]	[Action:GetGSTModules 06/343,1]	[Remarks:Successful filter row count: 5]
[Date: 2015-10-06 09:16:46]	[UserID:06/343]	[IP:10.10.11.1]	[Browser:Chrome - 45.0.2454.101]	[Action:Closing mssql connection]	[Remarks:Success]
[Date: 2015-10-06 09:17:19]	[UserID:08/504]	[IP:10.10.11.1]	[Browser:Chrome - 45.0.2454.101]	[Action:Making connection to server]	[Remarks:Successful connection to server: S3]
[Date: 2015-10-06 09:17:19]	[UserID:08/504]	[IP:10.10.11.1]	[Browser:Chrome - 45.0.2454.101]	[Action:GetGSTModules 08/504,1]	[Remarks:Successful filter row count: 3]
[Date: 2015-10-06 09:17:19]	[UserID:08/504]	[IP:10.10.11.1]	[Browser:Chrome - 45.0.2454.101]	[Action:Closing mssql connection]	[Remarks:Success]
[Date: 2015-10-06 09:18:11]	[UserID:10/660]	[IP:10.10.11.1]	[Browser:Chrome - 45.0.2454.101]	[Action:Making connection to server]	[Remarks:Successful connection to server: S3]
[Date: 2015-10-06 09:18:11]	[UserID:10/660]	[IP:10.10.11.1]	[Browser:Chrome - 45.0.2454.101]	[Action:GetGSTModules 10/660,1]	[Remarks:Successful filter row count: 3]
[Date: 2015-10-06 09:18:11]	[UserID:10/660]	[IP:10.10.11.1]	[Browser:Chrome - 45.0.2454.101]	[Action:Closing mssql connection]	[Remarks:Success]
[Date: 2015-10-06 09:18:23]	[UserID:08/504]	[IP:10.10.11.1]	[Browser:Chrome - 45.0.2454.101]	[Action:Making connection to server]	[Remarks:Successful connection to server: S3]
[Date: 2015-10-06 09:18:23]	[UserID:08/504]	[IP:10.10.11.1]	[Browser:Chrome - 45.0.2454.101]	[Action:GetGSTModules 08/504,1]	[Remarks:Successful filter row count: 3]
[Date: 2015-10-06 09:18:23]	[UserID:08/504]	[IP:10.10.11.1]	[Browser:Chrome - 45.0.2454.101]	[Action:Closing mssql connection]	[Remarks:Success]
[Date: 2015-10-06 09:18:50]	[UserID:]	[IP:10.10.11.1]	[Browser:Chrome - 45.0.2454.101]	[Action:Making connection to server]	[Remarks:Successful connection to server: S3]
[Date: 2015-10-06 09:18:50]	[UserID:]	[IP:10.10.11.1]	[Browser:Chrome - 45.0.2454.101]	[Action:GetProgramList ]	[Remarks:"no data"]
[Date: 2015-10-06 09:27:26]	[UserID:06/371]	[IP:10.10.11.1]	[Browser:Chrome - 45.0.2454.101]	[Action:Making connection to server]	[Remarks:Successful connection to server: S3]
[Date: 2015-10-06 09:27:26]	[UserID:06/371]	[IP:10.10.11.1]	[Browser:Chrome - 45.0.2454.101]	[Action:GetGSTModules 06/371,1]	[Remarks:Successful filter row count: 5]
[Date: 2015-10-06 09:27:26]	[UserID:06/371]	[IP:10.10.11.1]	[Browser:Chrome - 45.0.2454.101]	[Action:Closing mssql connection]	[Remarks:Success]
[Date: 2015-10-06 09:34:42]	[UserID:06/343]	[IP:10.10.11.1]	[Browser:Chrome - 45.0.2454.101]	[Action:Making connection to server]	[Remarks:Successful connection to server: S3]
[Date: 2015-10-06 09:34:42]	[UserID:06/343]	[IP:10.10.11.1]	[Browser:Chrome - 45.0.2454.101]	[Action:GetGSTModules 06/343,1]	[Remarks:Successful filter row count: 5]
[Date: 2015-10-06 09:34:42]	[UserID:06/343]	[IP:10.10.11.1]	[Browser:Chrome - 45.0.2454.101]	[Action:Closing mssql connection]	[Remarks:Success]
[Date: 2015-10-06 09:38:38]	[UserID:06/343]	[IP:10.10.11.1]	[Browser:Chrome - 45.0.2454.101]	[Action:Making connection to server]	[Remarks:Successful connection to server: S3]
[Date: 2015-10-06 09:38:38]	[UserID:06/343]	[IP:10.10.11.1]	[Browser:Chrome - 45.0.2454.101]	[Action:GetGSTModules 06/343,1]	[Remarks:Successful filter row count: 5]
[Date: 2015-10-06 09:38:38]	[UserID:06/343]	[IP:10.10.11.1]	[Browser:Chrome - 45.0.2454.101]	[Action:Closing mssql connection]	[Remarks:Success]
[Date: 2015-10-06 09:48:05]	[UserID:06/343]	[IP:10.10.11.1]	[Browser:Chrome - 45.0.2454.101]	[Action:Making connection to server]	[Remarks:Successful connection to server: S3]
[Date: 2015-10-06 09:48:05]	[UserID:06/343]	[IP:10.10.11.1]	[Browser:Chrome - 45.0.2454.101]	[Action:GetGSTModules 06/343,1]	[Remarks:Successful filter row count: 5]
[Date: 2015-10-06 09:48:05]	[UserID:06/343]	[IP:10.10.11.1]	[Browser:Chrome - 45.0.2454.101]	[Action:Closing mssql connection]	[Remarks:Success]
[Date: 2015-10-06 10:31:06]	[UserID:06/343]	[IP:10.10.11.1]	[Browser:Chrome - 45.0.2454.101]	[Action:Making connection to server]	[Remarks:Successful connection to server: S3]
[Date: 2015-10-06 10:31:06]	[UserID:06/343]	[IP:10.10.11.1]	[Browser:Chrome - 45.0.2454.101]	[Action:GetGSTModules 06/343,1]	[Remarks:Successful filter row count: 5]
[Date: 2015-10-06 10:31:06]	[UserID:06/343]	[IP:10.10.11.1]	[Browser:Chrome - 45.0.2454.101]	[Action:Closing mssql connection]	[Remarks:Success]
[Date: 2015-10-06 10:33:43]	[UserID:06/343]	[IP:10.10.11.1]	[Browser:Chrome - 45.0.2454.101]	[Action:Making connection to server]	[Remarks:Successful connection to server: S3]
[Date: 2015-10-06 10:33:43]	[UserID:06/343]	[IP:10.10.11.1]	[Browser:Chrome - 45.0.2454.101]	[Action:GetGSTModules 06/343,1]	[Remarks:Successful filter row count: 5]
[Date: 2015-10-06 10:33:43]	[UserID:06/343]	[IP:10.10.11.1]	[Browser:Chrome - 45.0.2454.101]	[Action:Closing mssql connection]	[Remarks:Success]
[Date: 2015-10-06 10:49:56]	[UserID:]	[IP:10.10.11.1]	[Browser:Google favicon]	[Action:Making connection to server]	[Remarks:Successful connection to server: S3]
[Date: 2015-10-06 10:49:56]	[UserID:]	[IP:10.10.11.1]	[Browser:Google favicon]	[Action:GetProgramList ]	[Remarks:"no data"]
[Date: 2015-10-06 12:57:21]	[UserID:08/504]	[IP:10.10.11.1]	[Browser:Chrome - 45.0.2454.101]	[Action:Making connection to server]	[Remarks:Successful connection to server: S3]
[Date: 2015-10-06 12:57:21]	[UserID:08/504]	[IP:10.10.11.1]	[Browser:Chrome - 45.0.2454.101]	[Action:GetProgramList 08/504]	[Remarks:[{"ID":"1","ProgramIndex":"GST","ProgramName":"GST"}]]
[Date: 2015-10-06 12:57:21]	[UserID:08/504]	[IP:10.10.11.1]	[Browser:Chrome - 45.0.2454.101]	[Action:Making connection to server]	[Remarks:Successful connection to server: S3]
[Date: 2015-10-06 12:57:21]	[UserID:08/504]	[IP:10.10.11.1]	[Browser:Chrome - 45.0.2454.101]	[Action:GetProgramList 08/504]	[Remarks:[{"ID":"1","ProgramIndex":"GST","ProgramName":"GST"}]]
[Date: 2015-10-06 12:57:21]	[UserID:08/504]	[IP:10.10.11.1]	[Browser:Chrome - 45.0.2454.101]	[Action:Making connection to server]	[Remarks:Successful connection to server: S3]
[Date: 2015-10-06 12:57:21]	[UserID:08/504]	[IP:10.10.11.1]	[Browser:Chrome - 45.0.2454.101]	[Action:Filtering User : MasterData Username : 08/504]	[Remarks:Successful filter row count: 1]
[Date: 2015-10-06 12:57:22]	[UserID:08/504]	[IP:10.10.11.1]	[Browser:Chrome - 45.0.2454.101]	[Action:Making connection to server]	[Remarks:Successful connection to server: S3]
[Date: 2015-10-06 12:57:22]	[UserID:08/504]	[IP:10.10.11.1]	[Browser:Chrome - 45.0.2454.101]	[Action:GetGSTModules 08/504,1]	[Remarks:Successful filter row count: 3]
[Date: 2015-10-06 12:57:22]	[UserID:08/504]	[IP:10.10.11.1]	[Browser:Chrome - 45.0.2454.101]	[Action:Closing mssql connection]	[Remarks:Success]
[Date: 2015-10-06 13:02:02]	[UserID:08/504]	[IP:10.10.11.1]	[Browser:Chrome - 45.0.2454.101]	[Action:Making connection to server]	[Remarks:Successful connection to server: S3]
[Date: 2015-10-06 13:02:03]	[UserID:08/504]	[IP:10.10.11.1]	[Browser:Chrome - 45.0.2454.101]	[Action:GetGSTModules 08/504,1]	[Remarks:Successful filter row count: 3]
[Date: 2015-10-06 13:02:03]	[UserID:08/504]	[IP:10.10.11.1]	[Browser:Chrome - 45.0.2454.101]	[Action:Closing mssql connection]	[Remarks:Success]
[Date: 2015-10-06 13:04:44]	[UserID:08/504]	[IP:10.10.11.1]	[Browser:Chrome - 45.0.2454.101]	[Action:Making connection to server]	[Remarks:Successful connection to server: S3]
[Date: 2015-10-06 13:04:44]	[UserID:08/504]	[IP:10.10.11.1]	[Browser:Chrome - 45.0.2454.101]	[Action:GetGSTModules 08/504,1]	[Remarks:Successful filter row count: 3]
[Date: 2015-10-06 13:04:44]	[UserID:08/504]	[IP:10.10.11.1]	[Browser:Chrome - 45.0.2454.101]	[Action:Closing mssql connection]	[Remarks:Success]
[Date: 2015-10-06 13:07:37]	[UserID:08/504]	[IP:10.10.11.1]	[Browser:Chrome - 45.0.2454.101]	[Action:Making connection to server]	[Remarks:Successful connection to server: S3]
[Date: 2015-10-06 13:07:37]	[UserID:08/504]	[IP:10.10.11.1]	[Browser:Chrome - 45.0.2454.101]	[Action:GetGSTModules 08/504,1]	[Remarks:Successful filter row count: 3]
[Date: 2015-10-06 13:07:37]	[UserID:08/504]	[IP:10.10.11.1]	[Browser:Chrome - 45.0.2454.101]	[Action:Closing mssql connection]	[Remarks:Success]
[Date: 2015-10-06 13:11:26]	[UserID:08/504]	[IP:10.10.11.1]	[Browser:Chrome - 45.0.2454.101]	[Action:Making connection to server]	[Remarks:Successful connection to server: S3]
[Date: 2015-10-06 13:11:26]	[UserID:08/504]	[IP:10.10.11.1]	[Browser:Chrome - 45.0.2454.101]	[Action:GetGSTModules 08/504,1]	[Remarks:Successful filter row count: 3]
[Date: 2015-10-06 13:11:26]	[UserID:08/504]	[IP:10.10.11.1]	[Browser:Chrome - 45.0.2454.101]	[Action:Closing mssql connection]	[Remarks:Success]
[Date: 2015-10-06 13:24:34]	[UserID:08/504]	[IP:10.10.11.1]	[Browser:Chrome - 45.0.2454.101]	[Action:Making connection to server]	[Remarks:Successful connection to server: S3]
[Date: 2015-10-06 13:24:34]	[UserID:08/504]	[IP:10.10.11.1]	[Browser:Chrome - 45.0.2454.101]	[Action:GetGSTModules 08/504,1]	[Remarks:Successful filter row count: 3]
[Date: 2015-10-06 13:24:34]	[UserID:08/504]	[IP:10.10.11.1]	[Browser:Chrome - 45.0.2454.101]	[Action:Closing mssql connection]	[Remarks:Success]
[Date: 2015-10-06 13:55:24]	[UserID:08/504]	[IP:10.10.11.1]	[Browser:Chrome - 45.0.2454.101]	[Action:Making connection to server]	[Remarks:Successful connection to server: S3]
[Date: 2015-10-06 13:55:24]	[UserID:08/504]	[IP:10.10.11.1]	[Browser:Chrome - 45.0.2454.101]	[Action:GetGSTModules 08/504,1]	[Remarks:Successful filter row count: 3]
[Date: 2015-10-06 13:55:24]	[UserID:08/504]	[IP:10.10.11.1]	[Browser:Chrome - 45.0.2454.101]	[Action:Closing mssql connection]	[Remarks:Success]
[Date: 2015-10-06 14:01:26]	[UserID:08/504]	[IP:10.10.11.1]	[Browser:Chrome - 45.0.2454.101]	[Action:Making connection to server]	[Remarks:Successful connection to server: S3]
[Date: 2015-10-06 14:01:26]	[UserID:08/504]	[IP:10.10.11.1]	[Browser:Chrome - 45.0.2454.101]	[Action:GetGSTModules 08/504,1]	[Remarks:Successful filter row count: 3]
[Date: 2015-10-06 14:01:26]	[UserID:08/504]	[IP:10.10.11.1]	[Browser:Chrome - 45.0.2454.101]	[Action:Closing mssql connection]	[Remarks:Success]
[Date: 2015-10-06 14:01:40]	[UserID:08/504]	[IP:10.10.11.1]	[Browser:Chrome - 45.0.2454.101]	[Action:Making connection to server]	[Remarks:Successful connection to server: S3]
[Date: 2015-10-06 14:01:40]	[UserID:08/504]	[IP:10.10.11.1]	[Browser:Chrome - 45.0.2454.101]	[Action:GetGSTModules 08/504,1]	[Remarks:Successful filter row count: 3]
[Date: 2015-10-06 14:01:40]	[UserID:08/504]	[IP:10.10.11.1]	[Browser:Chrome - 45.0.2454.101]	[Action:Closing mssql connection]	[Remarks:Success]
[Date: 2015-10-06 14:04:59]	[UserID:08/504]	[IP:10.10.11.1]	[Browser:Chrome - 45.0.2454.101]	[Action:Making connection to server]	[Remarks:Successful connection to server: S3]
[Date: 2015-10-06 14:05:00]	[UserID:08/504]	[IP:10.10.11.1]	[Browser:Chrome - 45.0.2454.101]	[Action:GetGSTModules 08/504,1]	[Remarks:Successful filter row count: 3]
[Date: 2015-10-06 14:05:00]	[UserID:08/504]	[IP:10.10.11.1]	[Browser:Chrome - 45.0.2454.101]	[Action:Closing mssql connection]	[Remarks:Success]
[Date: 2015-10-06 14:19:49]	[UserID:08/504]	[IP:10.10.11.1]	[Browser:Chrome - 45.0.2454.101]	[Action:Making connection to server]	[Remarks:Successful connection to server: S3]
[Date: 2015-10-06 14:19:53]	[UserID:08/504]	[IP:10.10.11.1]	[Browser:Chrome - 45.0.2454.101]	[Action:GetGSTModules 08/504,1]	[Remarks:Successful filter row count: 3]
[Date: 2015-10-06 14:19:53]	[UserID:08/504]	[IP:10.10.11.1]	[Browser:Chrome - 45.0.2454.101]	[Action:Closing mssql connection]	[Remarks:Success]
[Date: 2015-10-06 14:20:42]	[UserID:08/504]	[IP:10.10.11.1]	[Browser:Chrome - 45.0.2454.101]	[Action:Making connection to server]	[Remarks:Successful connection to server: S3]
[Date: 2015-10-06 14:20:42]	[UserID:08/504]	[IP:10.10.11.1]	[Browser:Chrome - 45.0.2454.101]	[Action:GetGSTModules 08/504,1]	[Remarks:Successful filter row count: 3]
[Date: 2015-10-06 14:20:42]	[UserID:08/504]	[IP:10.10.11.1]	[Browser:Chrome - 45.0.2454.101]	[Action:Closing mssql connection]	[Remarks:Success]
[Date: 2015-10-06 14:23:19]	[UserID:08/504]	[IP:10.10.11.1]	[Browser:Chrome - 45.0.2454.101]	[Action:Making connection to server]	[Remarks:Successful connection to server: S3]
[Date: 2015-10-06 14:23:19]	[UserID:08/504]	[IP:10.10.11.1]	[Browser:Chrome - 45.0.2454.101]	[Action:GetGSTModules 08/504,1]	[Remarks:Successful filter row count: 3]
[Date: 2015-10-06 14:23:19]	[UserID:08/504]	[IP:10.10.11.1]	[Browser:Chrome - 45.0.2454.101]	[Action:Closing mssql connection]	[Remarks:Success]
[Date: 2015-10-06 14:45:50]	[UserID:08/504]	[IP:10.10.11.1]	[Browser:Chrome - 45.0.2454.101]	[Action:Making connection to server]	[Remarks:Successful connection to server: S3]
[Date: 2015-10-06 14:45:50]	[UserID:08/504]	[IP:10.10.11.1]	[Browser:Chrome - 45.0.2454.101]	[Action:GetGSTModules 08/504,1]	[Remarks:Successful filter row count: 3]
[Date: 2015-10-06 14:45:50]	[UserID:08/504]	[IP:10.10.11.1]	[Browser:Chrome - 45.0.2454.101]	[Action:Closing mssql connection]	[Remarks:Success]
[Date: 2015-10-06 15:08:24]	[UserID:06/343]	[IP:10.10.11.1]	[Browser:Chrome - 45.0.2454.101]	[Action:Making connection to server]	[Remarks:Successful connection to server: S3]
[Date: 2015-10-06 15:08:24]	[UserID:06/343]	[IP:10.10.11.1]	[Browser:Chrome - 45.0.2454.101]	[Action:GetGSTModules 06/343,1]	[Remarks:Successful filter row count: 5]
[Date: 2015-10-06 15:08:24]	[UserID:06/343]	[IP:10.10.11.1]	[Browser:Chrome - 45.0.2454.101]	[Action:Closing mssql connection]	[Remarks:Success]
[Date: 2015-10-06 15:10:50]	[UserID:06/343]	[IP:10.10.11.1]	[Browser:Chrome - 45.0.2454.101]	[Action:Making connection to server]	[Remarks:Successful connection to server: S3]
[Date: 2015-10-06 15:10:50]	[UserID:06/343]	[IP:10.10.11.1]	[Browser:Chrome - 45.0.2454.101]	[Action:GetGSTModules 06/343,1]	[Remarks:Successful filter row count: 5]
[Date: 2015-10-06 15:10:50]	[UserID:06/343]	[IP:10.10.11.1]	[Browser:Chrome - 45.0.2454.101]	[Action:Closing mssql connection]	[Remarks:Success]
[Date: 2015-10-06 15:13:14]	[UserID:08/504]	[IP:10.10.11.1]	[Browser:Chrome - 45.0.2454.101]	[Action:Making connection to server]	[Remarks:Successful connection to server: S3]
[Date: 2015-10-06 15:13:14]	[UserID:08/504]	[IP:10.10.11.1]	[Browser:Chrome - 45.0.2454.101]	[Action:GetGSTModules 08/504,1]	[Remarks:Successful filter row count: 3]
[Date: 2015-10-06 15:13:14]	[UserID:08/504]	[IP:10.10.11.1]	[Browser:Chrome - 45.0.2454.101]	[Action:Closing mssql connection]	[Remarks:Success]
[Date: 2015-10-06 15:38:25]	[UserID:]	[IP:10.10.11.1]	[Browser:Chrome - 45.0.2454.101]	[Action:Making connection to server]	[Remarks:Successful connection to server: S3]
[Date: 2015-10-06 15:38:25]	[UserID:]	[IP:10.10.11.1]	[Browser:Chrome - 45.0.2454.101]	[Action:GetProgramList ]	[Remarks:"no data"]
[Date: 2015-10-06 15:38:26]	[UserID:]	[IP:10.10.11.1]	[Browser:Google favicon]	[Action:Making connection to server]	[Remarks:Successful connection to server: S3]
[Date: 2015-10-06 15:38:26]	[UserID:]	[IP:10.10.11.1]	[Browser:Google favicon]	[Action:GetProgramList ]	[Remarks:"no data"]
[Date: 2015-10-06 15:38:47]	[UserID:14/1082]	[IP:10.10.11.1]	[Browser:Chrome - 45.0.2454.101]	[Action:Making connection to server]	[Remarks:Successful connection to server: S3]
[Date: 2015-10-06 15:38:51]	[UserID:14/1082]	[IP:10.10.11.1]	[Browser:Chrome - 45.0.2454.101]	[Action:User 14/1082]	[Remarks:Success]
[Date: 2015-10-06 15:38:51]	[UserID:14/1082]	[IP:10.10.11.1]	[Browser:Chrome - 45.0.2454.101]	[Action:Filtering User : MasterData Username : 14/1082]	[Remarks:Successful filter row count: 0]
[Date: 2015-10-06 15:38:51]	[UserID:14/1082]	[IP:10.10.11.1]	[Browser:Chrome - 45.0.2454.101]	[Action:Filtering User : MasterData Username : 14/1082]	[Remarks:Successful filter row count: 0]
[Date: 2015-10-06 15:38:51]	[UserID:14/1082]	[IP:10.10.11.1]	[Browser:Chrome - 45.0.2454.101]	[Action:Filtering User : MasterData Username : 14/1082]	[Remarks:Success]
[Date: 2015-10-06 15:38:51]	[UserID:14/1082]	[IP:10.10.11.1]	[Browser:Chrome - 45.0.2454.101]	[Action:Closing mssql connection]	[Remarks:Success]
[Date: 2015-10-06 15:38:53]	[UserID:14/1082]	[IP:10.10.11.1]	[Browser:Chrome - 45.0.2454.101]	[Action:Making connection to server]	[Remarks:Successful connection to server: S3]
[Date: 2015-10-06 15:38:53]	[UserID:14/1082]	[IP:10.10.11.1]	[Browser:Chrome - 45.0.2454.101]	[Action:GetProgramList 14/1082]	[Remarks:[{"ID":"1","ProgramIndex":"GST","ProgramName":"GST"}]]
[Date: 2015-10-06 15:38:53]	[UserID:14/1082]	[IP:10.10.11.1]	[Browser:Chrome - 45.0.2454.101]	[Action:Making connection to server]	[Remarks:Successful connection to server: S3]
[Date: 2015-10-06 15:38:53]	[UserID:14/1082]	[IP:10.10.11.1]	[Browser:Chrome - 45.0.2454.101]	[Action:GetProgramList 14/1082]	[Remarks:[{"ID":"1","ProgramIndex":"GST","ProgramName":"GST"}]]
[Date: 2015-10-06 15:38:53]	[UserID:14/1082]	[IP:10.10.11.1]	[Browser:Chrome - 45.0.2454.101]	[Action:Making connection to server]	[Remarks:Successful connection to server: S3]
[Date: 2015-10-06 15:38:53]	[UserID:14/1082]	[IP:10.10.11.1]	[Browser:Chrome - 45.0.2454.101]	[Action:Filtering User : MasterData Username : 14/1082]	[Remarks:Successful filter row count: 1]
[Date: 2015-10-06 15:38:53]	[UserID:14/1082]	[IP:10.10.11.1]	[Browser:Chrome - 45.0.2454.101]	[Action:Making connection to server]	[Remarks:Successful connection to server: S3]
[Date: 2015-10-06 15:38:56]	[UserID:14/1082]	[IP:10.10.11.1]	[Browser:Chrome - 45.0.2454.101]	[Action:GetGSTModules 14/1082,1]	[Remarks:Successful filter row count: 7]
[Date: 2015-10-06 15:38:56]	[UserID:14/1082]	[IP:10.10.11.1]	[Browser:Chrome - 45.0.2454.101]	[Action:Closing mssql connection]	[Remarks:Success]
[Date: 2015-10-06 15:55:17]	[UserID:14/1082]	[IP:10.10.11.1]	[Browser:Chrome - 45.0.2454.101]	[Action:Making connection to server]	[Remarks:Successful connection to server: S3]
[Date: 2015-10-06 15:55:17]	[UserID:14/1082]	[IP:10.10.11.1]	[Browser:Chrome - 45.0.2454.101]	[Action:GetProgramList 14/1082]	[Remarks:[{"ID":"1","ProgramIndex":"GST","ProgramName":"GST"}]]
[Date: 2015-10-06 15:55:17]	[UserID:14/1082]	[IP:10.10.11.1]	[Browser:Chrome - 45.0.2454.101]	[Action:Making connection to server]	[Remarks:Successful connection to server: S3]
[Date: 2015-10-06 15:55:17]	[UserID:14/1082]	[IP:10.10.11.1]	[Browser:Chrome - 45.0.2454.101]	[Action:GetProgramList 14/1082]	[Remarks:[{"ID":"1","ProgramIndex":"GST","ProgramName":"GST"}]]
[Date: 2015-10-06 15:55:17]	[UserID:14/1082]	[IP:10.10.11.1]	[Browser:Chrome - 45.0.2454.101]	[Action:Making connection to server]	[Remarks:Successful connection to server: S3]
[Date: 2015-10-06 15:55:17]	[UserID:14/1082]	[IP:10.10.11.1]	[Browser:Chrome - 45.0.2454.101]	[Action:Filtering User : MasterData Username : 14/1082]	[Remarks:Successful filter row count: 1]
[Date: 2015-10-06 15:55:18]	[UserID:14/1082]	[IP:10.10.11.1]	[Browser:Chrome - 45.0.2454.101]	[Action:Making connection to server]	[Remarks:Successful connection to server: S3]
[Date: 2015-10-06 15:55:18]	[UserID:14/1082]	[IP:10.10.11.1]	[Browser:Chrome - 45.0.2454.101]	[Action:GetGSTModules 14/1082,1]	[Remarks:Successful filter row count: 7]
[Date: 2015-10-06 15:55:18]	[UserID:14/1082]	[IP:10.10.11.1]	[Browser:Chrome - 45.0.2454.101]	[Action:Closing mssql connection]	[Remarks:Success]
[Date: 2015-10-06 15:59:18]	[UserID:14/1082]	[IP:10.10.11.1]	[Browser:Chrome - 45.0.2454.101]	[Action:Making connection to server]	[Remarks:Successful connection to server: S3]
[Date: 2015-10-06 15:59:18]	[UserID:14/1082]	[IP:10.10.11.1]	[Browser:Chrome - 45.0.2454.101]	[Action:GetGSTModules 14/1082,1]	[Remarks:Successful filter row count: 7]
[Date: 2015-10-06 15:59:18]	[UserID:14/1082]	[IP:10.10.11.1]	[Browser:Chrome - 45.0.2454.101]	[Action:Closing mssql connection]	[Remarks:Success]
[Date: 2015-10-06 16:04:14]	[UserID:14/1082]	[IP:10.10.11.1]	[Browser:Chrome - 45.0.2454.101]	[Action:Making connection to server]	[Remarks:Successful connection to server: S3]
[Date: 2015-10-06 16:04:14]	[UserID:14/1082]	[IP:10.10.11.1]	[Browser:Chrome - 45.0.2454.101]	[Action:GetGSTModules 14/1082,1]	[Remarks:Successful filter row count: 7]
[Date: 2015-10-06 16:04:14]	[UserID:14/1082]	[IP:10.10.11.1]	[Browser:Chrome - 45.0.2454.101]	[Action:Closing mssql connection]	[Remarks:Success]
[Date: 2015-10-06 16:12:37]	[UserID:14/1082]	[IP:10.10.11.1]	[Browser:Chrome - 45.0.2454.101]	[Action:Making connection to server]	[Remarks:Successful connection to server: S3]
[Date: 2015-10-06 16:12:37]	[UserID:14/1082]	[IP:10.10.11.1]	[Browser:Chrome - 45.0.2454.101]	[Action:GetGSTModules 14/1082,1]	[Remarks:Successful filter row count: 7]
[Date: 2015-10-06 16:12:37]	[UserID:14/1082]	[IP:10.10.11.1]	[Browser:Chrome - 45.0.2454.101]	[Action:Closing mssql connection]	[Remarks:Success]
[Date: 2015-10-06 16:31:53]	[UserID:]	[IP:10.10.11.1]	[Browser:Chrome - 45.0.2454.101]	[Action:Making connection to server]	[Remarks:Successful connection to server: S3]
[Date: 2015-10-06 16:31:54]	[UserID:]	[IP:10.10.11.1]	[Browser:Chrome - 45.0.2454.101]	[Action:GetProgramList ]	[Remarks:"no data"]
