[Date: 2021-02-22 11:25:39]	[UserID:]	[IP:10.128.130.5]	[Browser:Chrome - 88.0.4324.182]	[Action:Making connection to server]	[Remarks:Successful connection to server: S3]
[Date: 2021-02-22 11:25:39]	[UserID:]	[IP:10.128.130.5]	[Browser:Chrome - 88.0.4324.182]	[Action:GetProgramList ]	[Remarks:"no data"]
[Date: 2021-02-22 11:25:44]	[UserID:dev/jagustin]	[IP:10.128.130.5]	[Browser:Chrome - 88.0.4324.182]	[Action:Making connection to server]	[Remarks:Successful connection to server: S3]
[Date: 2021-02-22 11:25:44]	[UserID:dev/jagustin]	[IP:10.128.130.5]	[Browser:Chrome - 88.0.4324.182]	[Action:User dev/jagustin]	[Remarks:Success]
[Date: 2021-02-22 11:25:45]	[UserID:dev/jagustin]	[IP:10.128.130.5]	[Browser:Chrome - 88.0.4324.182]	[Action:Filtering User : MasterData Username : dev/jagustin]	[Remarks:Successful filter row count: 0]
[Date: 2021-02-22 11:25:45]	[UserID:dev/jagustin]	[IP:10.128.130.5]	[Browser:Chrome - 88.0.4324.182]	[Action:Filtering User : MasterData Username : dev/jagustin]	[Remarks:Successful filter row count: 0]
[Date: 2021-02-22 11:25:45]	[UserID:dev/jagustin]	[IP:10.128.130.5]	[Browser:Chrome - 88.0.4324.182]	[Action:Filtering User : MasterData Username : dev/jagustin]	[Remarks:Success]
[Date: 2021-02-22 11:25:45]	[UserID:dev/jagustin]	[IP:10.128.130.5]	[Browser:Chrome - 88.0.4324.182]	[Action:Closing mssql connection]	[Remarks:Success]
[Date: 2021-02-22 11:25:45]	[UserID:dev/jagustin]	[IP:10.128.130.5]	[Browser:Chrome - 88.0.4324.182]	[Action:Making connection to server]	[Remarks:Successful connection to server: S3]
[Date: 2021-02-22 11:25:45]	[UserID:dev/jagustin]	[IP:10.128.130.5]	[Browser:Chrome - 88.0.4324.182]	[Action:GetProgramList dev/jagustin]	[Remarks:[{"ID":"1","ProgramIndex":"GST","ProgramName":"GST"},{"ID":"3","ProgramIndex":"PRD","ProgramName":"PRD"}]]
[Date: 2021-02-22 11:25:45]	[UserID:dev/jagustin]	[IP:10.128.130.5]	[Browser:Chrome - 88.0.4324.182]	[Action:Making connection to server]	[Remarks:Successful connection to server: S3]
[Date: 2021-02-22 11:25:45]	[UserID:dev/jagustin]	[IP:10.128.130.5]	[Browser:Chrome - 88.0.4324.182]	[Action:GetProgramList dev/jagustin]	[Remarks:[{"ID":"1","ProgramIndex":"GST","ProgramName":"GST"},{"ID":"3","ProgramIndex":"PRD","ProgramName":"PRD"}]]
[Date: 2021-02-22 11:25:45]	[UserID:dev/jagustin]	[IP:10.128.130.5]	[Browser:Chrome - 88.0.4324.182]	[Action:Making connection to server]	[Remarks:Successful connection to server: S3]
[Date: 2021-02-22 11:25:45]	[UserID:dev/jagustin]	[IP:10.128.130.5]	[Browser:Chrome - 88.0.4324.182]	[Action:Filtering User : MasterData Username : dev/jagustin]	[Remarks:Successful filter row count: 1]
[Date: 2021-02-22 11:25:51]	[UserID:dev/jagustin]	[IP:10.128.130.5]	[Browser:Chrome - 88.0.4324.182]	[Action:Making connection to server]	[Remarks:Successful connection to server: S3]
[Date: 2021-02-22 11:25:51]	[UserID:dev/jagustin]	[IP:10.128.130.5]	[Browser:Chrome - 88.0.4324.182]	[Action:GetGSTModules dev/jagustin,1]	[Remarks:Successful filter row count: 14]
[Date: 2021-02-22 11:25:51]	[UserID:dev/jagustin]	[IP:10.128.130.5]	[Browser:Chrome - 88.0.4324.182]	[Action:Closing mssql connection]	[Remarks:Success]
[Date: 2021-02-22 11:44:27]	[UserID:dev/jagustin]	[IP:10.128.130.5]	[Browser:Chrome - 88.0.4324.182]	[Action:Making connection to server]	[Remarks:Successful connection to server: S3]
[Date: 2021-02-22 11:44:27]	[UserID:dev/jagustin]	[IP:10.128.130.5]	[Browser:Chrome - 88.0.4324.182]	[Action:GetGSTModules dev/jagustin,1]	[Remarks:Successful filter row count: 14]
[Date: 2021-02-22 11:44:27]	[UserID:dev/jagustin]	[IP:10.128.130.5]	[Browser:Chrome - 88.0.4324.182]	[Action:Closing mssql connection]	[Remarks:Success]
