[Date: 2018-07-28 09:04:08]	[UserID:]	[IP:10.128.12.210]	[Browser:Chrome - 67.0.3396.99]	[Action:Making connection to server]	[Remarks:Successful connection to server: S3]
[Date: 2018-07-28 09:04:08]	[UserID:]	[IP:10.128.12.210]	[Browser:Chrome - 67.0.3396.99]	[Action:GetProgramList ]	[Remarks:"no data"]
[Date: 2018-07-28 09:04:18]	[UserID:10/660]	[IP:10.128.12.210]	[Browser:Chrome - 67.0.3396.99]	[Action:Making connection to server]	[Remarks:Successful connection to server: S3]
[Date: 2018-07-28 09:04:18]	[UserID:10/660]	[IP:10.128.12.210]	[Browser:Chrome - 67.0.3396.99]	[Action:User 10/660]	[Remarks:Success]
[Date: 2018-07-28 09:04:18]	[UserID:10/660]	[IP:10.128.12.210]	[Browser:Chrome - 67.0.3396.99]	[Action:Filtering User : MasterData Username : 10/660]	[Remarks:Successful filter row count: 0]
[Date: 2018-07-28 09:04:18]	[UserID:10/660]	[IP:10.128.12.210]	[Browser:Chrome - 67.0.3396.99]	[Action:Filtering User : MasterData Username : 10/660]	[Remarks:Successful filter row count: 0]
[Date: 2018-07-28 09:04:18]	[UserID:10/660]	[IP:10.128.12.210]	[Browser:Chrome - 67.0.3396.99]	[Action:Filtering User : MasterData Username : 10/660]	[Remarks:Success]
[Date: 2018-07-28 09:04:18]	[UserID:10/660]	[IP:10.128.12.210]	[Browser:Chrome - 67.0.3396.99]	[Action:Closing mssql connection]	[Remarks:Success]
[Date: 2018-07-28 09:04:18]	[UserID:10/660]	[IP:10.128.12.210]	[Browser:Chrome - 67.0.3396.99]	[Action:Making connection to server]	[Remarks:Successful connection to server: S3]
[Date: 2018-07-28 09:04:18]	[UserID:10/660]	[IP:10.128.12.210]	[Browser:Chrome - 67.0.3396.99]	[Action:GetProgramList 10/660]	[Remarks:[{"ID":"1","ProgramIndex":"GST","ProgramName":"GST"}]]
[Date: 2018-07-28 09:04:18]	[UserID:10/660]	[IP:10.128.12.210]	[Browser:Chrome - 67.0.3396.99]	[Action:Making connection to server]	[Remarks:Successful connection to server: S3]
[Date: 2018-07-28 09:04:18]	[UserID:10/660]	[IP:10.128.12.210]	[Browser:Chrome - 67.0.3396.99]	[Action:GetProgramList 10/660]	[Remarks:[{"ID":"1","ProgramIndex":"GST","ProgramName":"GST"}]]
[Date: 2018-07-28 09:04:18]	[UserID:10/660]	[IP:10.128.12.210]	[Browser:Chrome - 67.0.3396.99]	[Action:Making connection to server]	[Remarks:Successful connection to server: S3]
[Date: 2018-07-28 09:04:18]	[UserID:10/660]	[IP:10.128.12.210]	[Browser:Chrome - 67.0.3396.99]	[Action:Filtering User : MasterData Username : 10/660]	[Remarks:Successful filter row count: 1]
[Date: 2018-07-28 09:04:19]	[UserID:10/660]	[IP:10.128.12.210]	[Browser:Chrome - 67.0.3396.99]	[Action:Making connection to server]	[Remarks:Successful connection to server: S3]
[Date: 2018-07-28 09:04:19]	[UserID:10/660]	[IP:10.128.12.210]	[Browser:Chrome - 67.0.3396.99]	[Action:GetGSTModules 10/660,1]	[Remarks:Successful filter row count: 5]
[Date: 2018-07-28 09:04:19]	[UserID:10/660]	[IP:10.128.12.210]	[Browser:Chrome - 67.0.3396.99]	[Action:Closing mssql connection]	[Remarks:Success]
[Date: 2018-07-28 09:09:42]	[UserID:10/660]	[IP:10.128.12.210]	[Browser:Chrome - 67.0.3396.99]	[Action:Making connection to server]	[Remarks:Successful connection to server: S3]
[Date: 2018-07-28 09:09:42]	[UserID:10/660]	[IP:10.128.12.210]	[Browser:Chrome - 67.0.3396.99]	[Action:GetGSTModules 10/660,1]	[Remarks:Successful filter row count: 5]
[Date: 2018-07-28 09:09:42]	[UserID:10/660]	[IP:10.128.12.210]	[Browser:Chrome - 67.0.3396.99]	[Action:Closing mssql connection]	[Remarks:Success]
[Date: 2018-07-28 09:18:16]	[UserID:10/660]	[IP:10.128.12.210]	[Browser:Chrome - 67.0.3396.99]	[Action:Making connection to server]	[Remarks:Successful connection to server: S3]
[Date: 2018-07-28 09:18:16]	[UserID:10/660]	[IP:10.128.12.210]	[Browser:Chrome - 67.0.3396.99]	[Action:GetProgramList 10/660]	[Remarks:[{"ID":"1","ProgramIndex":"GST","ProgramName":"GST"}]]
[Date: 2018-07-28 09:18:16]	[UserID:10/660]	[IP:10.128.12.210]	[Browser:Chrome - 67.0.3396.99]	[Action:Making connection to server]	[Remarks:Successful connection to server: S3]
[Date: 2018-07-28 09:18:16]	[UserID:10/660]	[IP:10.128.12.210]	[Browser:Chrome - 67.0.3396.99]	[Action:GetProgramList 10/660]	[Remarks:[{"ID":"1","ProgramIndex":"GST","ProgramName":"GST"}]]
[Date: 2018-07-28 09:18:16]	[UserID:10/660]	[IP:10.128.12.210]	[Browser:Chrome - 67.0.3396.99]	[Action:Making connection to server]	[Remarks:Successful connection to server: S3]
[Date: 2018-07-28 09:18:16]	[UserID:10/660]	[IP:10.128.12.210]	[Browser:Chrome - 67.0.3396.99]	[Action:Filtering User : MasterData Username : 10/660]	[Remarks:Successful filter row count: 1]
[Date: 2018-07-28 09:18:17]	[UserID:10/660]	[IP:10.128.12.210]	[Browser:Chrome - 67.0.3396.99]	[Action:Making connection to server]	[Remarks:Successful connection to server: S3]
[Date: 2018-07-28 09:18:17]	[UserID:10/660]	[IP:10.128.12.210]	[Browser:Chrome - 67.0.3396.99]	[Action:GetGSTModules 10/660,1]	[Remarks:Successful filter row count: 5]
[Date: 2018-07-28 09:18:17]	[UserID:10/660]	[IP:10.128.12.210]	[Browser:Chrome - 67.0.3396.99]	[Action:Closing mssql connection]	[Remarks:Success]
[Date: 2018-07-28 09:18:24]	[UserID:10/660]	[IP:10.128.12.210]	[Browser:Chrome - 67.0.3396.99]	[Action:Making connection to server]	[Remarks:Successful connection to server: S3]
[Date: 2018-07-28 09:18:24]	[UserID:10/660]	[IP:10.128.12.210]	[Browser:Chrome - 67.0.3396.99]	[Action:GetGSTModules 10/660,1]	[Remarks:Successful filter row count: 5]
[Date: 2018-07-28 09:18:24]	[UserID:10/660]	[IP:10.128.12.210]	[Browser:Chrome - 67.0.3396.99]	[Action:Closing mssql connection]	[Remarks:Success]
[Date: 2018-07-28 09:18:41]	[UserID:10/660]	[IP:10.128.12.210]	[Browser:Chrome - 67.0.3396.99]	[Action:Making connection to server]	[Remarks:Successful connection to server: S3]
[Date: 2018-07-28 09:18:41]	[UserID:10/660]	[IP:10.128.12.210]	[Browser:Chrome - 67.0.3396.99]	[Action:GetGSTModules 10/660,1]	[Remarks:Successful filter row count: 5]
[Date: 2018-07-28 09:18:41]	[UserID:10/660]	[IP:10.128.12.210]	[Browser:Chrome - 67.0.3396.99]	[Action:Closing mssql connection]	[Remarks:Success]
