[Date: 2019-09-12 08:27:06]	[UserID:]	[IP:10.128.12.120]	[Browser:Chrome - 76.0.3809.132]	[Action:Making connection to server]	[Remarks:Successful connection to server: S3]
[Date: 2019-09-12 08:27:06]	[UserID:]	[IP:10.128.12.120]	[Browser:Chrome - 76.0.3809.132]	[Action:GetProgramList ]	[Remarks:"no data"]
[Date: 2019-09-12 08:27:12]	[UserID:14/1082]	[IP:10.128.12.120]	[Browser:Chrome - 76.0.3809.132]	[Action:Making connection to server]	[Remarks:Successful connection to server: S3]
[Date: 2019-09-12 08:27:12]	[UserID:14/1082]	[IP:10.128.12.120]	[Browser:Chrome - 76.0.3809.132]	[Action:User 14/1082]	[Remarks:Success]
[Date: 2019-09-12 08:27:12]	[UserID:14/1082]	[IP:10.128.12.120]	[Browser:Chrome - 76.0.3809.132]	[Action:Filtering User : MasterData Username : 14/1082]	[Remarks:Successful filter row count: 0]
[Date: 2019-09-12 08:27:12]	[UserID:14/1082]	[IP:10.128.12.120]	[Browser:Chrome - 76.0.3809.132]	[Action:Filtering User : MasterData Username : 14/1082]	[Remarks:Successful filter row count: 0]
[Date: 2019-09-12 08:27:12]	[UserID:14/1082]	[IP:10.128.12.120]	[Browser:Chrome - 76.0.3809.132]	[Action:Filtering User : MasterData Username : 14/1082]	[Remarks:Success]
[Date: 2019-09-12 08:27:12]	[UserID:14/1082]	[IP:10.128.12.120]	[Browser:Chrome - 76.0.3809.132]	[Action:Closing mssql connection]	[Remarks:Success]
[Date: 2019-09-12 08:27:12]	[UserID:14/1082]	[IP:10.128.12.120]	[Browser:Chrome - 76.0.3809.132]	[Action:Making connection to server]	[Remarks:Successful connection to server: S3]
[Date: 2019-09-12 08:27:12]	[UserID:14/1082]	[IP:10.128.12.120]	[Browser:Chrome - 76.0.3809.132]	[Action:GetProgramList 14/1082]	[Remarks:[{"ID":"1","ProgramIndex":"GST","ProgramName":"GST"}]]
[Date: 2019-09-12 08:27:12]	[UserID:14/1082]	[IP:10.128.12.120]	[Browser:Chrome - 76.0.3809.132]	[Action:Making connection to server]	[Remarks:Successful connection to server: S3]
[Date: 2019-09-12 08:27:13]	[UserID:14/1082]	[IP:10.128.12.120]	[Browser:Chrome - 76.0.3809.132]	[Action:GetProgramList 14/1082]	[Remarks:[{"ID":"1","ProgramIndex":"GST","ProgramName":"GST"}]]
[Date: 2019-09-12 08:27:13]	[UserID:14/1082]	[IP:10.128.12.120]	[Browser:Chrome - 76.0.3809.132]	[Action:Making connection to server]	[Remarks:Successful connection to server: S3]
[Date: 2019-09-12 08:27:13]	[UserID:14/1082]	[IP:10.128.12.120]	[Browser:Chrome - 76.0.3809.132]	[Action:Filtering User : MasterData Username : 14/1082]	[Remarks:Successful filter row count: 1]
[Date: 2019-09-12 08:27:13]	[UserID:14/1082]	[IP:10.128.12.120]	[Browser:Chrome - 76.0.3809.132]	[Action:Making connection to server]	[Remarks:Successful connection to server: S3]
[Date: 2019-09-12 08:27:13]	[UserID:14/1082]	[IP:10.128.12.120]	[Browser:Chrome - 76.0.3809.132]	[Action:GetGSTModules 14/1082,1]	[Remarks:Successful filter row count: 8]
[Date: 2019-09-12 08:27:13]	[UserID:14/1082]	[IP:10.128.12.120]	[Browser:Chrome - 76.0.3809.132]	[Action:Closing mssql connection]	[Remarks:Success]
[Date: 2019-09-12 08:54:13]	[UserID:]	[IP:10.139.5.105]	[Browser:Firefox - 69.0]	[Action:Making connection to server]	[Remarks:Successful connection to server: S3]
[Date: 2019-09-12 08:54:13]	[UserID:]	[IP:10.139.5.105]	[Browser:Firefox - 69.0]	[Action:GetProgramList ]	[Remarks:"no data"]
[Date: 2019-09-12 09:42:20]	[UserID:]	[IP:10.128.81.157]	[Browser:Chrome - 76.0.3809.132]	[Action:Making connection to server]	[Remarks:Successful connection to server: S3]
[Date: 2019-09-12 09:42:20]	[UserID:]	[IP:10.128.81.157]	[Browser:Chrome - 76.0.3809.132]	[Action:GetProgramList ]	[Remarks:"no data"]
[Date: 2019-09-12 09:42:32]	[UserID:17/1257]	[IP:10.128.81.157]	[Browser:Chrome - 76.0.3809.132]	[Action:Making connection to server]	[Remarks:Successful connection to server: S3]
[Date: 2019-09-12 09:42:32]	[UserID:17/1257]	[IP:10.128.81.157]	[Browser:Chrome - 76.0.3809.132]	[Action:User 17/1257]	[Remarks:Success]
[Date: 2019-09-12 09:42:32]	[UserID:17/1257]	[IP:10.128.81.157]	[Browser:Chrome - 76.0.3809.132]	[Action:Filtering User : MasterData Username : 17/1257]	[Remarks:Successful filter row count: 0]
[Date: 2019-09-12 09:42:32]	[UserID:17/1257]	[IP:10.128.81.157]	[Browser:Chrome - 76.0.3809.132]	[Action:Filtering User : MasterData Username : 17/1257]	[Remarks:Successful filter row count: 0]
[Date: 2019-09-12 09:42:32]	[UserID:17/1257]	[IP:10.128.81.157]	[Browser:Chrome - 76.0.3809.132]	[Action:Filtering User : MasterData Username : 17/1257]	[Remarks:Success]
[Date: 2019-09-12 09:42:32]	[UserID:17/1257]	[IP:10.128.81.157]	[Browser:Chrome - 76.0.3809.132]	[Action:Closing mssql connection]	[Remarks:Success]
[Date: 2019-09-12 09:42:33]	[UserID:17/1257]	[IP:10.128.81.157]	[Browser:Chrome - 76.0.3809.132]	[Action:Making connection to server]	[Remarks:Successful connection to server: S3]
[Date: 2019-09-12 09:42:33]	[UserID:17/1257]	[IP:10.128.81.157]	[Browser:Chrome - 76.0.3809.132]	[Action:GetProgramList 17/1257]	[Remarks:[{"ID":"1","ProgramIndex":"GST","ProgramName":"GST"}]]
[Date: 2019-09-12 09:42:34]	[UserID:17/1257]	[IP:10.128.81.157]	[Browser:Chrome - 76.0.3809.132]	[Action:Making connection to server]	[Remarks:Successful connection to server: S3]
[Date: 2019-09-12 09:42:34]	[UserID:17/1257]	[IP:10.128.81.157]	[Browser:Chrome - 76.0.3809.132]	[Action:GetProgramList 17/1257]	[Remarks:[{"ID":"1","ProgramIndex":"GST","ProgramName":"GST"}]]
[Date: 2019-09-12 09:42:34]	[UserID:17/1257]	[IP:10.128.81.157]	[Browser:Chrome - 76.0.3809.132]	[Action:Making connection to server]	[Remarks:Successful connection to server: S3]
[Date: 2019-09-12 09:42:34]	[UserID:17/1257]	[IP:10.128.81.157]	[Browser:Chrome - 76.0.3809.132]	[Action:Filtering User : MasterData Username : 17/1257]	[Remarks:Successful filter row count: 1]
[Date: 2019-09-12 09:42:34]	[UserID:17/1257]	[IP:10.128.81.157]	[Browser:Chrome - 76.0.3809.132]	[Action:Making connection to server]	[Remarks:Successful connection to server: S3]
[Date: 2019-09-12 09:42:35]	[UserID:17/1257]	[IP:10.128.81.157]	[Browser:Chrome - 76.0.3809.132]	[Action:GetGSTModules 17/1257,1]	[Remarks:Successful filter row count: 5]
[Date: 2019-09-12 09:42:35]	[UserID:17/1257]	[IP:10.128.81.157]	[Browser:Chrome - 76.0.3809.132]	[Action:Closing mssql connection]	[Remarks:Success]
[Date: 2019-09-12 09:48:12]	[UserID:17/1257]	[IP:10.128.81.157]	[Browser:Chrome - 76.0.3809.132]	[Action:Making connection to server]	[Remarks:Successful connection to server: S3]
[Date: 2019-09-12 09:48:12]	[UserID:17/1257]	[IP:10.128.81.157]	[Browser:Chrome - 76.0.3809.132]	[Action:GetProgramList 17/1257]	[Remarks:[{"ID":"1","ProgramIndex":"GST","ProgramName":"GST"}]]
[Date: 2019-09-12 09:48:12]	[UserID:17/1257]	[IP:10.128.81.157]	[Browser:Chrome - 76.0.3809.132]	[Action:Making connection to server]	[Remarks:Successful connection to server: S3]
[Date: 2019-09-12 09:48:12]	[UserID:17/1257]	[IP:10.128.81.157]	[Browser:Chrome - 76.0.3809.132]	[Action:GetProgramList 17/1257]	[Remarks:[{"ID":"1","ProgramIndex":"GST","ProgramName":"GST"}]]
[Date: 2019-09-12 09:48:12]	[UserID:17/1257]	[IP:10.128.81.157]	[Browser:Chrome - 76.0.3809.132]	[Action:Making connection to server]	[Remarks:Successful connection to server: S3]
[Date: 2019-09-12 09:48:13]	[UserID:17/1257]	[IP:10.128.81.157]	[Browser:Chrome - 76.0.3809.132]	[Action:Filtering User : MasterData Username : 17/1257]	[Remarks:Successful filter row count: 1]
[Date: 2019-09-12 09:48:13]	[UserID:17/1257]	[IP:10.128.81.157]	[Browser:Chrome - 76.0.3809.132]	[Action:Making connection to server]	[Remarks:Successful connection to server: S3]
[Date: 2019-09-12 09:48:13]	[UserID:17/1257]	[IP:10.128.81.157]	[Browser:Chrome - 76.0.3809.132]	[Action:GetGSTModules 17/1257,1]	[Remarks:Successful filter row count: 5]
[Date: 2019-09-12 09:48:13]	[UserID:17/1257]	[IP:10.128.81.157]	[Browser:Chrome - 76.0.3809.132]	[Action:Closing mssql connection]	[Remarks:Success]
[Date: 2019-09-12 10:04:29]	[UserID:14/1082]	[IP:10.128.12.120]	[Browser:Chrome - 76.0.3809.132]	[Action:Making connection to server]	[Remarks:Successful connection to server: S3]
[Date: 2019-09-12 10:04:29]	[UserID:14/1082]	[IP:10.128.12.120]	[Browser:Chrome - 76.0.3809.132]	[Action:GetGSTModules 14/1082,1]	[Remarks:Successful filter row count: 8]
[Date: 2019-09-12 10:04:29]	[UserID:14/1082]	[IP:10.128.12.120]	[Browser:Chrome - 76.0.3809.132]	[Action:Closing mssql connection]	[Remarks:Success]
[Date: 2019-09-12 10:36:54]	[UserID:]	[IP:10.128.12.113]	[Browser:Chrome - 76.0.3809.132]	[Action:Making connection to server]	[Remarks:Successful connection to server: S3]
[Date: 2019-09-12 10:36:54]	[UserID:]	[IP:10.128.12.113]	[Browser:Chrome - 76.0.3809.132]	[Action:GetProgramList ]	[Remarks:"no data"]
[Date: 2019-09-12 10:37:22]	[UserID:06/343]	[IP:10.128.12.113]	[Browser:Chrome - 76.0.3809.132]	[Action:Making connection to server]	[Remarks:Successful connection to server: S3]
[Date: 2019-09-12 10:37:22]	[UserID:06/343]	[IP:10.128.12.113]	[Browser:Chrome - 76.0.3809.132]	[Action:User 06/343]	[Remarks:Success]
[Date: 2019-09-12 10:37:22]	[UserID:06/343]	[IP:10.128.12.113]	[Browser:Chrome - 76.0.3809.132]	[Action:Filtering User : MasterData Username : 06/343]	[Remarks:Successful filter row count: 0]
[Date: 2019-09-12 10:37:22]	[UserID:06/343]	[IP:10.128.12.113]	[Browser:Chrome - 76.0.3809.132]	[Action:Filtering User : MasterData Username : 06/343]	[Remarks:Successful filter row count: 0]
[Date: 2019-09-12 10:37:22]	[UserID:06/343]	[IP:10.128.12.113]	[Browser:Chrome - 76.0.3809.132]	[Action:Filtering User : MasterData Username : 06/343]	[Remarks:Success]
[Date: 2019-09-12 10:37:22]	[UserID:06/343]	[IP:10.128.12.113]	[Browser:Chrome - 76.0.3809.132]	[Action:Closing mssql connection]	[Remarks:Success]
[Date: 2019-09-12 10:37:22]	[UserID:06/343]	[IP:10.128.12.113]	[Browser:Chrome - 76.0.3809.132]	[Action:Making connection to server]	[Remarks:Successful connection to server: S3]
[Date: 2019-09-12 10:37:22]	[UserID:06/343]	[IP:10.128.12.113]	[Browser:Chrome - 76.0.3809.132]	[Action:GetProgramList 06/343]	[Remarks:[{"ID":"1","ProgramIndex":"GST","ProgramName":"GST"}]]
[Date: 2019-09-12 10:37:22]	[UserID:06/343]	[IP:10.128.12.113]	[Browser:Chrome - 76.0.3809.132]	[Action:Making connection to server]	[Remarks:Successful connection to server: S3]
[Date: 2019-09-12 10:37:22]	[UserID:06/343]	[IP:10.128.12.113]	[Browser:Chrome - 76.0.3809.132]	[Action:GetProgramList 06/343]	[Remarks:[{"ID":"1","ProgramIndex":"GST","ProgramName":"GST"}]]
[Date: 2019-09-12 10:37:22]	[UserID:06/343]	[IP:10.128.12.113]	[Browser:Chrome - 76.0.3809.132]	[Action:Making connection to server]	[Remarks:Successful connection to server: S3]
[Date: 2019-09-12 10:37:22]	[UserID:06/343]	[IP:10.128.12.113]	[Browser:Chrome - 76.0.3809.132]	[Action:Filtering User : MasterData Username : 06/343]	[Remarks:Successful filter row count: 1]
[Date: 2019-09-12 10:37:23]	[UserID:06/343]	[IP:10.128.12.113]	[Browser:Chrome - 76.0.3809.132]	[Action:Making connection to server]	[Remarks:Successful connection to server: S3]
[Date: 2019-09-12 10:37:23]	[UserID:06/343]	[IP:10.128.12.113]	[Browser:Chrome - 76.0.3809.132]	[Action:GetGSTModules 06/343,1]	[Remarks:Successful filter row count: 7]
[Date: 2019-09-12 10:37:23]	[UserID:06/343]	[IP:10.128.12.113]	[Browser:Chrome - 76.0.3809.132]	[Action:Closing mssql connection]	[Remarks:Success]
[Date: 2019-09-12 10:39:15]	[UserID:06/343]	[IP:10.128.12.113]	[Browser:Chrome - 76.0.3809.132]	[Action:Making connection to server]	[Remarks:Successful connection to server: S3]
[Date: 2019-09-12 10:39:15]	[UserID:06/343]	[IP:10.128.12.113]	[Browser:Chrome - 76.0.3809.132]	[Action:GetGSTModules 06/343,1]	[Remarks:Successful filter row count: 7]
[Date: 2019-09-12 10:39:15]	[UserID:06/343]	[IP:10.128.12.113]	[Browser:Chrome - 76.0.3809.132]	[Action:Closing mssql connection]	[Remarks:Success]
[Date: 2019-09-12 10:42:39]	[UserID:06/343]	[IP:10.128.12.113]	[Browser:Chrome - 76.0.3809.132]	[Action:Making connection to server]	[Remarks:Successful connection to server: S3]
[Date: 2019-09-12 10:42:39]	[UserID:06/343]	[IP:10.128.12.113]	[Browser:Chrome - 76.0.3809.132]	[Action:GetGSTModules 06/343,1]	[Remarks:Successful filter row count: 7]
[Date: 2019-09-12 10:42:39]	[UserID:06/343]	[IP:10.128.12.113]	[Browser:Chrome - 76.0.3809.132]	[Action:Closing mssql connection]	[Remarks:Success]
[Date: 2019-09-12 10:46:03]	[UserID:06/343]	[IP:10.128.12.113]	[Browser:Chrome - 76.0.3809.132]	[Action:Making connection to server]	[Remarks:Successful connection to server: S3]
[Date: 2019-09-12 10:46:03]	[UserID:06/343]	[IP:10.128.12.113]	[Browser:Chrome - 76.0.3809.132]	[Action:GetProgramList 06/343]	[Remarks:[{"ID":"1","ProgramIndex":"GST","ProgramName":"GST"}]]
[Date: 2019-09-12 10:46:03]	[UserID:06/343]	[IP:10.128.12.113]	[Browser:Chrome - 76.0.3809.132]	[Action:Making connection to server]	[Remarks:Successful connection to server: S3]
[Date: 2019-09-12 10:46:03]	[UserID:06/343]	[IP:10.128.12.113]	[Browser:Chrome - 76.0.3809.132]	[Action:GetProgramList 06/343]	[Remarks:[{"ID":"1","ProgramIndex":"GST","ProgramName":"GST"}]]
[Date: 2019-09-12 10:46:03]	[UserID:06/343]	[IP:10.128.12.113]	[Browser:Chrome - 76.0.3809.132]	[Action:Making connection to server]	[Remarks:Successful connection to server: S3]
[Date: 2019-09-12 10:46:03]	[UserID:06/343]	[IP:10.128.12.113]	[Browser:Chrome - 76.0.3809.132]	[Action:Filtering User : MasterData Username : 06/343]	[Remarks:Successful filter row count: 1]
[Date: 2019-09-12 10:46:03]	[UserID:06/343]	[IP:10.128.12.113]	[Browser:Chrome - 76.0.3809.132]	[Action:Making connection to server]	[Remarks:Successful connection to server: S3]
[Date: 2019-09-12 10:46:03]	[UserID:06/343]	[IP:10.128.12.113]	[Browser:Chrome - 76.0.3809.132]	[Action:GetGSTModules 06/343,1]	[Remarks:Successful filter row count: 7]
[Date: 2019-09-12 10:46:03]	[UserID:06/343]	[IP:10.128.12.113]	[Browser:Chrome - 76.0.3809.132]	[Action:Closing mssql connection]	[Remarks:Success]
[Date: 2019-09-12 10:47:29]	[UserID:06/343]	[IP:10.128.12.113]	[Browser:Chrome - 76.0.3809.132]	[Action:Making connection to server]	[Remarks:Successful connection to server: S3]
[Date: 2019-09-12 10:47:30]	[UserID:06/343]	[IP:10.128.12.113]	[Browser:Chrome - 76.0.3809.132]	[Action:GetGSTModules 06/343,1]	[Remarks:Successful filter row count: 7]
[Date: 2019-09-12 10:47:30]	[UserID:06/343]	[IP:10.128.12.113]	[Browser:Chrome - 76.0.3809.132]	[Action:Closing mssql connection]	[Remarks:Success]
[Date: 2019-09-12 10:47:59]	[UserID:06/343]	[IP:10.128.12.113]	[Browser:Chrome - 76.0.3809.132]	[Action:Making connection to server]	[Remarks:Successful connection to server: S3]
[Date: 2019-09-12 10:47:59]	[UserID:06/343]	[IP:10.128.12.113]	[Browser:Chrome - 76.0.3809.132]	[Action:GetGSTModules 06/343,1]	[Remarks:Successful filter row count: 7]
[Date: 2019-09-12 10:47:59]	[UserID:06/343]	[IP:10.128.12.113]	[Browser:Chrome - 76.0.3809.132]	[Action:Closing mssql connection]	[Remarks:Success]
[Date: 2019-09-12 10:48:43]	[UserID:06/343]	[IP:10.128.12.113]	[Browser:Chrome - 76.0.3809.132]	[Action:Making connection to server]	[Remarks:Successful connection to server: S3]
[Date: 2019-09-12 10:48:43]	[UserID:06/343]	[IP:10.128.12.113]	[Browser:Chrome - 76.0.3809.132]	[Action:GetGSTModules 06/343,1]	[Remarks:Successful filter row count: 7]
[Date: 2019-09-12 10:48:43]	[UserID:06/343]	[IP:10.128.12.113]	[Browser:Chrome - 76.0.3809.132]	[Action:Closing mssql connection]	[Remarks:Success]
[Date: 2019-09-12 11:01:57]	[UserID:06/343]	[IP:10.128.12.113]	[Browser:Chrome - 76.0.3809.132]	[Action:Making connection to server]	[Remarks:Successful connection to server: S3]
[Date: 2019-09-12 11:01:57]	[UserID:06/343]	[IP:10.128.12.113]	[Browser:Chrome - 76.0.3809.132]	[Action:GetGSTModules 06/343,1]	[Remarks:Successful filter row count: 7]
[Date: 2019-09-12 11:01:57]	[UserID:06/343]	[IP:10.128.12.113]	[Browser:Chrome - 76.0.3809.132]	[Action:Closing mssql connection]	[Remarks:Success]
[Date: 2019-09-12 11:07:29]	[UserID:14/1082]	[IP:10.128.12.120]	[Browser:Chrome - 76.0.3809.132]	[Action:Making connection to server]	[Remarks:Successful connection to server: S3]
[Date: 2019-09-12 11:07:29]	[UserID:14/1082]	[IP:10.128.12.120]	[Browser:Chrome - 76.0.3809.132]	[Action:GetGSTModules 14/1082,1]	[Remarks:Successful filter row count: 8]
[Date: 2019-09-12 11:07:29]	[UserID:14/1082]	[IP:10.128.12.120]	[Browser:Chrome - 76.0.3809.132]	[Action:Closing mssql connection]	[Remarks:Success]
[Date: 2019-09-12 11:10:51]	[UserID:]	[IP:10.128.12.114]	[Browser:Chrome - 76.0.3809.132]	[Action:Making connection to server]	[Remarks:Successful connection to server: S3]
[Date: 2019-09-12 11:10:51]	[UserID:]	[IP:10.128.12.114]	[Browser:Chrome - 76.0.3809.132]	[Action:GetProgramList ]	[Remarks:"no data"]
[Date: 2019-09-12 11:10:57]	[UserID:14/1082]	[IP:10.128.12.114]	[Browser:Chrome - 76.0.3809.132]	[Action:Making connection to server]	[Remarks:Successful connection to server: S3]
[Date: 2019-09-12 11:10:57]	[UserID:14/1082]	[IP:10.128.12.114]	[Browser:Chrome - 76.0.3809.132]	[Action:User 14/1082]	[Remarks:Success]
[Date: 2019-09-12 11:10:57]	[UserID:14/1082]	[IP:10.128.12.114]	[Browser:Chrome - 76.0.3809.132]	[Action:Filtering User : MasterData Username : 14/1082]	[Remarks:Successful filter row count: 0]
[Date: 2019-09-12 11:10:57]	[UserID:14/1082]	[IP:10.128.12.114]	[Browser:Chrome - 76.0.3809.132]	[Action:Filtering User : MasterData Username : 14/1082]	[Remarks:Successful filter row count: 0]
[Date: 2019-09-12 11:10:57]	[UserID:14/1082]	[IP:10.128.12.114]	[Browser:Chrome - 76.0.3809.132]	[Action:Filtering User : MasterData Username : 14/1082]	[Remarks:Success]
[Date: 2019-09-12 11:10:57]	[UserID:14/1082]	[IP:10.128.12.114]	[Browser:Chrome - 76.0.3809.132]	[Action:Closing mssql connection]	[Remarks:Success]
[Date: 2019-09-12 11:10:57]	[UserID:14/1082]	[IP:10.128.12.114]	[Browser:Chrome - 76.0.3809.132]	[Action:Making connection to server]	[Remarks:Successful connection to server: S3]
[Date: 2019-09-12 11:10:57]	[UserID:14/1082]	[IP:10.128.12.114]	[Browser:Chrome - 76.0.3809.132]	[Action:GetProgramList 14/1082]	[Remarks:[{"ID":"1","ProgramIndex":"GST","ProgramName":"GST"}]]
[Date: 2019-09-12 11:10:57]	[UserID:14/1082]	[IP:10.128.12.114]	[Browser:Chrome - 76.0.3809.132]	[Action:Making connection to server]	[Remarks:Successful connection to server: S3]
[Date: 2019-09-12 11:10:57]	[UserID:14/1082]	[IP:10.128.12.114]	[Browser:Chrome - 76.0.3809.132]	[Action:GetProgramList 14/1082]	[Remarks:[{"ID":"1","ProgramIndex":"GST","ProgramName":"GST"}]]
[Date: 2019-09-12 11:10:57]	[UserID:14/1082]	[IP:10.128.12.114]	[Browser:Chrome - 76.0.3809.132]	[Action:Making connection to server]	[Remarks:Successful connection to server: S3]
[Date: 2019-09-12 11:10:57]	[UserID:14/1082]	[IP:10.128.12.114]	[Browser:Chrome - 76.0.3809.132]	[Action:Filtering User : MasterData Username : 14/1082]	[Remarks:Successful filter row count: 1]
[Date: 2019-09-12 11:10:57]	[UserID:14/1082]	[IP:10.128.12.114]	[Browser:Chrome - 76.0.3809.132]	[Action:Making connection to server]	[Remarks:Successful connection to server: S3]
[Date: 2019-09-12 11:10:57]	[UserID:14/1082]	[IP:10.128.12.114]	[Browser:Chrome - 76.0.3809.132]	[Action:GetGSTModules 14/1082,1]	[Remarks:Successful filter row count: 8]
[Date: 2019-09-12 11:10:57]	[UserID:14/1082]	[IP:10.128.12.114]	[Browser:Chrome - 76.0.3809.132]	[Action:Closing mssql connection]	[Remarks:Success]
[Date: 2019-09-12 11:13:06]	[UserID:14/1082]	[IP:10.128.12.120]	[Browser:Chrome - 76.0.3809.132]	[Action:Making connection to server]	[Remarks:Successful connection to server: S3]
[Date: 2019-09-12 11:13:07]	[UserID:14/1082]	[IP:10.128.12.120]	[Browser:Chrome - 76.0.3809.132]	[Action:GetGSTModules 14/1082,1]	[Remarks:Successful filter row count: 8]
[Date: 2019-09-12 11:13:07]	[UserID:14/1082]	[IP:10.128.12.120]	[Browser:Chrome - 76.0.3809.132]	[Action:Closing mssql connection]	[Remarks:Success]
[Date: 2019-09-12 11:46:52]	[UserID:06/343]	[IP:10.128.12.113]	[Browser:Chrome - 76.0.3809.132]	[Action:Making connection to server]	[Remarks:Successful connection to server: S3]
[Date: 2019-09-12 11:46:52]	[UserID:06/343]	[IP:10.128.12.113]	[Browser:Chrome - 76.0.3809.132]	[Action:GetGSTModules 06/343,1]	[Remarks:Successful filter row count: 7]
[Date: 2019-09-12 11:46:52]	[UserID:06/343]	[IP:10.128.12.113]	[Browser:Chrome - 76.0.3809.132]	[Action:Closing mssql connection]	[Remarks:Success]
[Date: 2019-09-12 14:03:42]	[UserID:14/1082]	[IP:10.128.12.120]	[Browser:Chrome - 76.0.3809.132]	[Action:Making connection to server]	[Remarks:Successful connection to server: S3]
[Date: 2019-09-12 14:03:42]	[UserID:14/1082]	[IP:10.128.12.120]	[Browser:Chrome - 76.0.3809.132]	[Action:GetGSTModules 14/1082,1]	[Remarks:Successful filter row count: 8]
[Date: 2019-09-12 14:03:42]	[UserID:14/1082]	[IP:10.128.12.120]	[Browser:Chrome - 76.0.3809.132]	[Action:Closing mssql connection]	[Remarks:Success]
[Date: 2019-09-12 14:17:14]	[UserID:]	[IP:10.128.8.120]	[Browser:Chrome - 78.0.3902.4]	[Action:Making connection to server]	[Remarks:Successful connection to server: S3]
[Date: 2019-09-12 14:17:14]	[UserID:]	[IP:10.128.8.120]	[Browser:Chrome - 78.0.3902.4]	[Action:GetProgramList ]	[Remarks:"no data"]
[Date: 2019-09-12 14:17:14]	[UserID:]	[IP:10.128.8.120]	[Browser:Chrome - 78.0.3902.4]	[Action:Making connection to server]	[Remarks:Successful connection to server: S3]
[Date: 2019-09-12 14:17:14]	[UserID:]	[IP:10.128.8.120]	[Browser:Chrome - 78.0.3902.4]	[Action:GetProgramList ]	[Remarks:"no data"]
[Date: 2019-09-12 14:17:18]	[UserID:dev/nsosa]	[IP:10.128.8.120]	[Browser:Chrome - 78.0.3902.4]	[Action:Making connection to server]	[Remarks:Successful connection to server: S3]
[Date: 2019-09-12 14:17:18]	[UserID:dev/nsosa]	[IP:10.128.8.120]	[Browser:Chrome - 78.0.3902.4]	[Action:User dev/nsosa]	[Remarks:Success]
[Date: 2019-09-12 14:17:18]	[UserID:dev/nsosa]	[IP:10.128.8.120]	[Browser:Chrome - 78.0.3902.4]	[Action:Filtering User : MasterData Username : dev/nsosa]	[Remarks:Successful filter row count: 0]
[Date: 2019-09-12 14:17:18]	[UserID:dev/nsosa]	[IP:10.128.8.120]	[Browser:Chrome - 78.0.3902.4]	[Action:Filtering User : MasterData Username : dev/nsosa]	[Remarks:Successful filter row count: 0]
[Date: 2019-09-12 14:17:18]	[UserID:dev/nsosa]	[IP:10.128.8.120]	[Browser:Chrome - 78.0.3902.4]	[Action:Filtering User : MasterData Username : dev/nsosa]	[Remarks:Success]
[Date: 2019-09-12 14:17:18]	[UserID:dev/nsosa]	[IP:10.128.8.120]	[Browser:Chrome - 78.0.3902.4]	[Action:Closing mssql connection]	[Remarks:Success]
[Date: 2019-09-12 14:17:18]	[UserID:dev/nsosa]	[IP:10.128.8.120]	[Browser:Chrome - 78.0.3902.4]	[Action:Making connection to server]	[Remarks:Successful connection to server: S3]
[Date: 2019-09-12 14:17:18]	[UserID:dev/nsosa]	[IP:10.128.8.120]	[Browser:Chrome - 78.0.3902.4]	[Action:GetProgramList dev/nsosa]	[Remarks:[{"ID":"1","ProgramIndex":"GST","ProgramName":"GST"},{"ID":"3","ProgramIndex":"PRD","ProgramName":"PRD"}]]
[Date: 2019-09-12 14:17:18]	[UserID:dev/nsosa]	[IP:10.128.8.120]	[Browser:Chrome - 78.0.3902.4]	[Action:Making connection to server]	[Remarks:Successful connection to server: S3]
[Date: 2019-09-12 14:17:18]	[UserID:dev/nsosa]	[IP:10.128.8.120]	[Browser:Chrome - 78.0.3902.4]	[Action:GetProgramList dev/nsosa]	[Remarks:[{"ID":"1","ProgramIndex":"GST","ProgramName":"GST"},{"ID":"3","ProgramIndex":"PRD","ProgramName":"PRD"}]]
[Date: 2019-09-12 14:17:18]	[UserID:dev/nsosa]	[IP:10.128.8.120]	[Browser:Chrome - 78.0.3902.4]	[Action:Making connection to server]	[Remarks:Successful connection to server: S3]
[Date: 2019-09-12 14:17:18]	[UserID:dev/nsosa]	[IP:10.128.8.120]	[Browser:Chrome - 78.0.3902.4]	[Action:Filtering User : MasterData Username : dev/nsosa]	[Remarks:Successful filter row count: 1]
[Date: 2019-09-12 14:17:20]	[UserID:dev/nsosa]	[IP:10.128.8.120]	[Browser:Chrome - 78.0.3902.4]	[Action:Making connection to server]	[Remarks:Successful connection to server: S3]
[Date: 2019-09-12 14:17:20]	[UserID:dev/nsosa]	[IP:10.128.8.120]	[Browser:Chrome - 78.0.3902.4]	[Action:GetGSTModules dev/nsosa,1]	[Remarks:Successful filter row count: 10]
[Date: 2019-09-12 14:17:20]	[UserID:dev/nsosa]	[IP:10.128.8.120]	[Browser:Chrome - 78.0.3902.4]	[Action:Closing mssql connection]	[Remarks:Success]
[Date: 2019-09-12 14:23:07]	[UserID:14/1082]	[IP:10.128.12.120]	[Browser:Chrome - 76.0.3809.132]	[Action:Making connection to server]	[Remarks:Successful connection to server: S3]
[Date: 2019-09-12 14:23:07]	[UserID:14/1082]	[IP:10.128.12.120]	[Browser:Chrome - 76.0.3809.132]	[Action:GetGSTModules 14/1082,1]	[Remarks:Successful filter row count: 8]
[Date: 2019-09-12 14:23:07]	[UserID:14/1082]	[IP:10.128.12.120]	[Browser:Chrome - 76.0.3809.132]	[Action:Closing mssql connection]	[Remarks:Success]
[Date: 2019-09-12 14:57:25]	[UserID:14/1082]	[IP:10.128.12.120]	[Browser:Chrome - 76.0.3809.132]	[Action:Making connection to server]	[Remarks:Successful connection to server: S3]
[Date: 2019-09-12 14:57:25]	[UserID:14/1082]	[IP:10.128.12.120]	[Browser:Chrome - 76.0.3809.132]	[Action:GetGSTModules 14/1082,1]	[Remarks:Successful filter row count: 8]
[Date: 2019-09-12 14:57:25]	[UserID:14/1082]	[IP:10.128.12.120]	[Browser:Chrome - 76.0.3809.132]	[Action:Closing mssql connection]	[Remarks:Success]
[Date: 2019-09-12 15:01:51]	[UserID:]	[IP:10.128.12.113]	[Browser:Chrome - 76.0.3809.132]	[Action:Making connection to server]	[Remarks:Successful connection to server: S3]
[Date: 2019-09-12 15:01:51]	[UserID:]	[IP:10.128.12.113]	[Browser:Chrome - 76.0.3809.132]	[Action:GetProgramList ]	[Remarks:"no data"]
[Date: 2019-09-12 15:02:00]	[UserID:]	[IP:10.128.12.113]	[Browser:Chrome - 76.0.3809.132]	[Action:Making connection to server]	[Remarks:Successful connection to server: S3]
[Date: 2019-09-12 15:02:00]	[UserID:]	[IP:10.128.12.113]	[Browser:Chrome - 76.0.3809.132]	[Action:GetProgramList ]	[Remarks:"no data"]
[Date: 2019-09-12 15:02:07]	[UserID:06/343]	[IP:10.128.12.113]	[Browser:Chrome - 76.0.3809.132]	[Action:Making connection to server]	[Remarks:Successful connection to server: S3]
[Date: 2019-09-12 15:02:07]	[UserID:06/343]	[IP:10.128.12.113]	[Browser:Chrome - 76.0.3809.132]	[Action:User 06/343]	[Remarks:Success]
[Date: 2019-09-12 15:02:07]	[UserID:06/343]	[IP:10.128.12.113]	[Browser:Chrome - 76.0.3809.132]	[Action:Filtering User : MasterData Username : 06/343]	[Remarks:Successful filter row count: 0]
[Date: 2019-09-12 15:02:07]	[UserID:06/343]	[IP:10.128.12.113]	[Browser:Chrome - 76.0.3809.132]	[Action:Filtering User : MasterData Username : 06/343]	[Remarks:Successful filter row count: 0]
[Date: 2019-09-12 15:02:07]	[UserID:06/343]	[IP:10.128.12.113]	[Browser:Chrome - 76.0.3809.132]	[Action:Filtering User : MasterData Username : 06/343]	[Remarks:Success]
[Date: 2019-09-12 15:02:07]	[UserID:06/343]	[IP:10.128.12.113]	[Browser:Chrome - 76.0.3809.132]	[Action:Closing mssql connection]	[Remarks:Success]
[Date: 2019-09-12 15:02:07]	[UserID:06/343]	[IP:10.128.12.113]	[Browser:Chrome - 76.0.3809.132]	[Action:Making connection to server]	[Remarks:Successful connection to server: S3]
[Date: 2019-09-12 15:02:07]	[UserID:06/343]	[IP:10.128.12.113]	[Browser:Chrome - 76.0.3809.132]	[Action:GetProgramList 06/343]	[Remarks:[{"ID":"1","ProgramIndex":"GST","ProgramName":"GST"}]]
[Date: 2019-09-12 15:02:07]	[UserID:06/343]	[IP:10.128.12.113]	[Browser:Chrome - 76.0.3809.132]	[Action:Making connection to server]	[Remarks:Successful connection to server: S3]
[Date: 2019-09-12 15:02:07]	[UserID:06/343]	[IP:10.128.12.113]	[Browser:Chrome - 76.0.3809.132]	[Action:GetProgramList 06/343]	[Remarks:[{"ID":"1","ProgramIndex":"GST","ProgramName":"GST"}]]
[Date: 2019-09-12 15:02:07]	[UserID:06/343]	[IP:10.128.12.113]	[Browser:Chrome - 76.0.3809.132]	[Action:Making connection to server]	[Remarks:Successful connection to server: S3]
[Date: 2019-09-12 15:02:07]	[UserID:06/343]	[IP:10.128.12.113]	[Browser:Chrome - 76.0.3809.132]	[Action:Filtering User : MasterData Username : 06/343]	[Remarks:Successful filter row count: 1]
[Date: 2019-09-12 15:02:08]	[UserID:06/343]	[IP:10.128.12.113]	[Browser:Chrome - 76.0.3809.132]	[Action:Making connection to server]	[Remarks:Successful connection to server: S3]
[Date: 2019-09-12 15:02:08]	[UserID:06/343]	[IP:10.128.12.113]	[Browser:Chrome - 76.0.3809.132]	[Action:GetGSTModules 06/343,1]	[Remarks:Successful filter row count: 7]
[Date: 2019-09-12 15:02:08]	[UserID:06/343]	[IP:10.128.12.113]	[Browser:Chrome - 76.0.3809.132]	[Action:Closing mssql connection]	[Remarks:Success]
[Date: 2019-09-12 15:03:18]	[UserID:14/1082]	[IP:10.128.12.120]	[Browser:Chrome - 76.0.3809.132]	[Action:Making connection to server]	[Remarks:Successful connection to server: S3]
[Date: 2019-09-12 15:03:18]	[UserID:14/1082]	[IP:10.128.12.120]	[Browser:Chrome - 76.0.3809.132]	[Action:GetProgramList 14/1082]	[Remarks:[{"ID":"1","ProgramIndex":"GST","ProgramName":"GST"}]]
[Date: 2019-09-12 15:03:18]	[UserID:14/1082]	[IP:10.128.12.120]	[Browser:Chrome - 76.0.3809.132]	[Action:Making connection to server]	[Remarks:Successful connection to server: S3]
[Date: 2019-09-12 15:03:18]	[UserID:14/1082]	[IP:10.128.12.120]	[Browser:Chrome - 76.0.3809.132]	[Action:GetProgramList 14/1082]	[Remarks:[{"ID":"1","ProgramIndex":"GST","ProgramName":"GST"}]]
[Date: 2019-09-12 15:03:18]	[UserID:14/1082]	[IP:10.128.12.120]	[Browser:Chrome - 76.0.3809.132]	[Action:Making connection to server]	[Remarks:Successful connection to server: S3]
[Date: 2019-09-12 15:03:18]	[UserID:14/1082]	[IP:10.128.12.120]	[Browser:Chrome - 76.0.3809.132]	[Action:Filtering User : MasterData Username : 14/1082]	[Remarks:Successful filter row count: 1]
[Date: 2019-09-12 15:03:18]	[UserID:14/1082]	[IP:10.128.12.120]	[Browser:Chrome - 76.0.3809.132]	[Action:Making connection to server]	[Remarks:Successful connection to server: S3]
[Date: 2019-09-12 15:03:18]	[UserID:14/1082]	[IP:10.128.12.120]	[Browser:Chrome - 76.0.3809.132]	[Action:GetGSTModules 14/1082,1]	[Remarks:Successful filter row count: 8]
[Date: 2019-09-12 15:03:18]	[UserID:14/1082]	[IP:10.128.12.120]	[Browser:Chrome - 76.0.3809.132]	[Action:Closing mssql connection]	[Remarks:Success]
[Date: 2019-09-12 15:40:30]	[UserID:06/343]	[IP:10.128.12.113]	[Browser:Chrome - 76.0.3809.132]	[Action:Making connection to server]	[Remarks:Successful connection to server: S3]
[Date: 2019-09-12 15:40:30]	[UserID:06/343]	[IP:10.128.12.113]	[Browser:Chrome - 76.0.3809.132]	[Action:GetGSTModules 06/343,1]	[Remarks:Successful filter row count: 7]
[Date: 2019-09-12 15:40:30]	[UserID:06/343]	[IP:10.128.12.113]	[Browser:Chrome - 76.0.3809.132]	[Action:Closing mssql connection]	[Remarks:Success]
[Date: 2019-09-12 15:45:37]	[UserID:]	[IP:10.128.12.115]	[Browser:Chrome - 76.0.3809.132]	[Action:Making connection to server]	[Remarks:Successful connection to server: S3]
[Date: 2019-09-12 15:45:37]	[UserID:]	[IP:10.128.12.115]	[Browser:Chrome - 76.0.3809.132]	[Action:GetProgramList ]	[Remarks:"no data"]
[Date: 2019-09-12 15:45:50]	[UserID:17/1248]	[IP:10.128.12.115]	[Browser:Chrome - 76.0.3809.132]	[Action:Making connection to server]	[Remarks:Successful connection to server: S3]
[Date: 2019-09-12 15:45:50]	[UserID:17/1248]	[IP:10.128.12.115]	[Browser:Chrome - 76.0.3809.132]	[Action:User 17/1248]	[Remarks:Success]
[Date: 2019-09-12 15:45:50]	[UserID:17/1248]	[IP:10.128.12.115]	[Browser:Chrome - 76.0.3809.132]	[Action:Filtering User : MasterData Username : 17/1248]	[Remarks:Successful filter row count: 0]
[Date: 2019-09-12 15:45:50]	[UserID:17/1248]	[IP:10.128.12.115]	[Browser:Chrome - 76.0.3809.132]	[Action:Filtering User : MasterData Username : 17/1248]	[Remarks:Successful filter row count: 0]
[Date: 2019-09-12 15:45:50]	[UserID:17/1248]	[IP:10.128.12.115]	[Browser:Chrome - 76.0.3809.132]	[Action:Filtering User : MasterData Username : 17/1248]	[Remarks:Success]
[Date: 2019-09-12 15:45:50]	[UserID:17/1248]	[IP:10.128.12.115]	[Browser:Chrome - 76.0.3809.132]	[Action:Closing mssql connection]	[Remarks:Success]
[Date: 2019-09-12 15:45:50]	[UserID:17/1248]	[IP:10.128.12.115]	[Browser:Chrome - 76.0.3809.132]	[Action:Making connection to server]	[Remarks:Successful connection to server: S3]
[Date: 2019-09-12 15:45:51]	[UserID:17/1248]	[IP:10.128.12.115]	[Browser:Chrome - 76.0.3809.132]	[Action:GetProgramList 17/1248]	[Remarks:[{"ID":"1","ProgramIndex":"GST","ProgramName":"GST"}]]
[Date: 2019-09-12 15:45:51]	[UserID:17/1248]	[IP:10.128.12.115]	[Browser:Chrome - 76.0.3809.132]	[Action:Making connection to server]	[Remarks:Successful connection to server: S3]
[Date: 2019-09-12 15:45:51]	[UserID:17/1248]	[IP:10.128.12.115]	[Browser:Chrome - 76.0.3809.132]	[Action:GetProgramList 17/1248]	[Remarks:[{"ID":"1","ProgramIndex":"GST","ProgramName":"GST"}]]
[Date: 2019-09-12 15:45:51]	[UserID:17/1248]	[IP:10.128.12.115]	[Browser:Chrome - 76.0.3809.132]	[Action:Making connection to server]	[Remarks:Successful connection to server: S3]
[Date: 2019-09-12 15:45:51]	[UserID:17/1248]	[IP:10.128.12.115]	[Browser:Chrome - 76.0.3809.132]	[Action:Filtering User : MasterData Username : 17/1248]	[Remarks:Successful filter row count: 1]
[Date: 2019-09-12 15:45:51]	[UserID:17/1248]	[IP:10.128.12.115]	[Browser:Chrome - 76.0.3809.132]	[Action:Making connection to server]	[Remarks:Successful connection to server: S3]
[Date: 2019-09-12 15:45:51]	[UserID:17/1248]	[IP:10.128.12.115]	[Browser:Chrome - 76.0.3809.132]	[Action:GetGSTModules 17/1248,1]	[Remarks:Successful filter row count: 6]
[Date: 2019-09-12 15:45:51]	[UserID:17/1248]	[IP:10.128.12.115]	[Browser:Chrome - 76.0.3809.132]	[Action:Closing mssql connection]	[Remarks:Success]
[Date: 2019-09-12 15:45:56]	[UserID:06/343]	[IP:10.128.12.113]	[Browser:Chrome - 76.0.3809.132]	[Action:Making connection to server]	[Remarks:Successful connection to server: S3]
[Date: 2019-09-12 15:45:56]	[UserID:06/343]	[IP:10.128.12.113]	[Browser:Chrome - 76.0.3809.132]	[Action:GetGSTModules 06/343,1]	[Remarks:Successful filter row count: 7]
[Date: 2019-09-12 15:45:56]	[UserID:06/343]	[IP:10.128.12.113]	[Browser:Chrome - 76.0.3809.132]	[Action:Closing mssql connection]	[Remarks:Success]
[Date: 2019-09-12 15:46:26]	[UserID:06/343]	[IP:10.128.12.113]	[Browser:Chrome - 76.0.3809.132]	[Action:Making connection to server]	[Remarks:Successful connection to server: S3]
[Date: 2019-09-12 15:46:26]	[UserID:06/343]	[IP:10.128.12.113]	[Browser:Chrome - 76.0.3809.132]	[Action:GetGSTModules 06/343,1]	[Remarks:Successful filter row count: 7]
[Date: 2019-09-12 15:46:26]	[UserID:06/343]	[IP:10.128.12.113]	[Browser:Chrome - 76.0.3809.132]	[Action:Closing mssql connection]	[Remarks:Success]
[Date: 2019-09-12 15:47:03]	[UserID:06/343]	[IP:10.128.12.113]	[Browser:Chrome - 76.0.3809.132]	[Action:Making connection to server]	[Remarks:Successful connection to server: S3]
[Date: 2019-09-12 15:47:03]	[UserID:06/343]	[IP:10.128.12.113]	[Browser:Chrome - 76.0.3809.132]	[Action:GetGSTModules 06/343,1]	[Remarks:Successful filter row count: 7]
[Date: 2019-09-12 15:47:03]	[UserID:06/343]	[IP:10.128.12.113]	[Browser:Chrome - 76.0.3809.132]	[Action:Closing mssql connection]	[Remarks:Success]
[Date: 2019-09-12 15:56:32]	[UserID:17/1248]	[IP:10.128.12.115]	[Browser:Chrome - 76.0.3809.132]	[Action:Making connection to server]	[Remarks:Successful connection to server: S3]
[Date: 2019-09-12 15:56:32]	[UserID:17/1248]	[IP:10.128.12.115]	[Browser:Chrome - 76.0.3809.132]	[Action:GetProgramList 17/1248]	[Remarks:[{"ID":"1","ProgramIndex":"GST","ProgramName":"GST"}]]
[Date: 2019-09-12 15:56:32]	[UserID:17/1248]	[IP:10.128.12.115]	[Browser:Chrome - 76.0.3809.132]	[Action:Making connection to server]	[Remarks:Successful connection to server: S3]
[Date: 2019-09-12 15:56:32]	[UserID:17/1248]	[IP:10.128.12.115]	[Browser:Chrome - 76.0.3809.132]	[Action:GetProgramList 17/1248]	[Remarks:[{"ID":"1","ProgramIndex":"GST","ProgramName":"GST"}]]
[Date: 2019-09-12 15:56:32]	[UserID:17/1248]	[IP:10.128.12.115]	[Browser:Chrome - 76.0.3809.132]	[Action:Making connection to server]	[Remarks:Successful connection to server: S3]
[Date: 2019-09-12 15:56:32]	[UserID:17/1248]	[IP:10.128.12.115]	[Browser:Chrome - 76.0.3809.132]	[Action:Filtering User : MasterData Username : 17/1248]	[Remarks:Successful filter row count: 1]
[Date: 2019-09-12 15:56:32]	[UserID:17/1248]	[IP:10.128.12.115]	[Browser:Chrome - 76.0.3809.132]	[Action:Making connection to server]	[Remarks:Successful connection to server: S3]
[Date: 2019-09-12 15:56:32]	[UserID:17/1248]	[IP:10.128.12.115]	[Browser:Chrome - 76.0.3809.132]	[Action:GetGSTModules 17/1248,1]	[Remarks:Successful filter row count: 6]
[Date: 2019-09-12 15:56:32]	[UserID:17/1248]	[IP:10.128.12.115]	[Browser:Chrome - 76.0.3809.132]	[Action:Closing mssql connection]	[Remarks:Success]
[Date: 2019-09-12 16:07:17]	[UserID:06/343]	[IP:10.128.12.113]	[Browser:Chrome - 76.0.3809.132]	[Action:Making connection to server]	[Remarks:Successful connection to server: S3]
[Date: 2019-09-12 16:07:17]	[UserID:06/343]	[IP:10.128.12.113]	[Browser:Chrome - 76.0.3809.132]	[Action:GetGSTModules 06/343,1]	[Remarks:Successful filter row count: 7]
[Date: 2019-09-12 16:07:17]	[UserID:06/343]	[IP:10.128.12.113]	[Browser:Chrome - 76.0.3809.132]	[Action:Closing mssql connection]	[Remarks:Success]
[Date: 2019-09-12 16:13:11]	[UserID:]	[IP:10.128.12.115]	[Browser:Chrome - 76.0.3809.132]	[Action:Making connection to server]	[Remarks:Successful connection to server: S3]
[Date: 2019-09-12 16:13:12]	[UserID:]	[IP:10.128.12.115]	[Browser:Chrome - 76.0.3809.132]	[Action:GetProgramList ]	[Remarks:"no data"]
[Date: 2019-09-12 16:13:18]	[UserID:17/1248]	[IP:10.128.12.115]	[Browser:Chrome - 76.0.3809.132]	[Action:Making connection to server]	[Remarks:Successful connection to server: S3]
[Date: 2019-09-12 16:13:18]	[UserID:17/1248]	[IP:10.128.12.115]	[Browser:Chrome - 76.0.3809.132]	[Action:User 17/1248]	[Remarks:Success]
[Date: 2019-09-12 16:13:18]	[UserID:17/1248]	[IP:10.128.12.115]	[Browser:Chrome - 76.0.3809.132]	[Action:Filtering User : MasterData Username : 17/1248]	[Remarks:Successful filter row count: 0]
[Date: 2019-09-12 16:13:18]	[UserID:17/1248]	[IP:10.128.12.115]	[Browser:Chrome - 76.0.3809.132]	[Action:Filtering User : MasterData Username : 17/1248]	[Remarks:Successful filter row count: 0]
[Date: 2019-09-12 16:13:18]	[UserID:17/1248]	[IP:10.128.12.115]	[Browser:Chrome - 76.0.3809.132]	[Action:Filtering User : MasterData Username : 17/1248]	[Remarks:Success]
[Date: 2019-09-12 16:13:18]	[UserID:17/1248]	[IP:10.128.12.115]	[Browser:Chrome - 76.0.3809.132]	[Action:Closing mssql connection]	[Remarks:Success]
[Date: 2019-09-12 16:13:18]	[UserID:17/1248]	[IP:10.128.12.115]	[Browser:Chrome - 76.0.3809.132]	[Action:Making connection to server]	[Remarks:Successful connection to server: S3]
[Date: 2019-09-12 16:13:18]	[UserID:17/1248]	[IP:10.128.12.115]	[Browser:Chrome - 76.0.3809.132]	[Action:GetProgramList 17/1248]	[Remarks:[{"ID":"1","ProgramIndex":"GST","ProgramName":"GST"}]]
[Date: 2019-09-12 16:13:18]	[UserID:17/1248]	[IP:10.128.12.115]	[Browser:Chrome - 76.0.3809.132]	[Action:Making connection to server]	[Remarks:Successful connection to server: S3]
[Date: 2019-09-12 16:13:18]	[UserID:17/1248]	[IP:10.128.12.115]	[Browser:Chrome - 76.0.3809.132]	[Action:GetProgramList 17/1248]	[Remarks:[{"ID":"1","ProgramIndex":"GST","ProgramName":"GST"}]]
[Date: 2019-09-12 16:13:18]	[UserID:17/1248]	[IP:10.128.12.115]	[Browser:Chrome - 76.0.3809.132]	[Action:Making connection to server]	[Remarks:Successful connection to server: S3]
[Date: 2019-09-12 16:13:18]	[UserID:17/1248]	[IP:10.128.12.115]	[Browser:Chrome - 76.0.3809.132]	[Action:Filtering User : MasterData Username : 17/1248]	[Remarks:Successful filter row count: 1]
[Date: 2019-09-12 16:13:18]	[UserID:17/1248]	[IP:10.128.12.115]	[Browser:Chrome - 76.0.3809.132]	[Action:Making connection to server]	[Remarks:Successful connection to server: S3]
[Date: 2019-09-12 16:13:18]	[UserID:17/1248]	[IP:10.128.12.115]	[Browser:Chrome - 76.0.3809.132]	[Action:GetGSTModules 17/1248,1]	[Remarks:Successful filter row count: 6]
[Date: 2019-09-12 16:13:18]	[UserID:17/1248]	[IP:10.128.12.115]	[Browser:Chrome - 76.0.3809.132]	[Action:Closing mssql connection]	[Remarks:Success]
[Date: 2019-09-12 16:15:59]	[UserID:17/1248]	[IP:10.128.12.115]	[Browser:Chrome - 76.0.3809.132]	[Action:Making connection to server]	[Remarks:Successful connection to server: S3]
[Date: 2019-09-12 16:15:59]	[UserID:17/1248]	[IP:10.128.12.115]	[Browser:Chrome - 76.0.3809.132]	[Action:GetGSTModules 17/1248,1]	[Remarks:Successful filter row count: 6]
[Date: 2019-09-12 16:15:59]	[UserID:17/1248]	[IP:10.128.12.115]	[Browser:Chrome - 76.0.3809.132]	[Action:Closing mssql connection]	[Remarks:Success]
[Date: 2019-09-12 16:23:10]	[UserID:]	[IP:10.128.12.115]	[Browser:Chrome - 76.0.3809.132]	[Action:Making connection to server]	[Remarks:Successful connection to server: S3]
[Date: 2019-09-12 16:23:10]	[UserID:]	[IP:10.128.12.115]	[Browser:Chrome - 76.0.3809.132]	[Action:GetProgramList ]	[Remarks:"no data"]
[Date: 2019-09-12 16:38:15]	[UserID:]	[IP:10.128.12.120]	[Browser:Chrome - 76.0.3809.132]	[Action:Making connection to server]	[Remarks:Successful connection to server: S3]
[Date: 2019-09-12 16:38:15]	[UserID:]	[IP:10.128.12.120]	[Browser:Chrome - 76.0.3809.132]	[Action:GetProgramList ]	[Remarks:"no data"]
[Date: 2019-09-12 16:38:21]	[UserID:14/1082]	[IP:10.128.12.120]	[Browser:Chrome - 76.0.3809.132]	[Action:Making connection to server]	[Remarks:Successful connection to server: S3]
[Date: 2019-09-12 16:38:21]	[UserID:14/1082]	[IP:10.128.12.120]	[Browser:Chrome - 76.0.3809.132]	[Action:User 14/1082]	[Remarks:Success]
[Date: 2019-09-12 16:38:21]	[UserID:14/1082]	[IP:10.128.12.120]	[Browser:Chrome - 76.0.3809.132]	[Action:Filtering User : MasterData Username : 14/1082]	[Remarks:Successful filter row count: 0]
[Date: 2019-09-12 16:38:21]	[UserID:14/1082]	[IP:10.128.12.120]	[Browser:Chrome - 76.0.3809.132]	[Action:Filtering User : MasterData Username : 14/1082]	[Remarks:Successful filter row count: 0]
[Date: 2019-09-12 16:38:21]	[UserID:14/1082]	[IP:10.128.12.120]	[Browser:Chrome - 76.0.3809.132]	[Action:Filtering User : MasterData Username : 14/1082]	[Remarks:Success]
[Date: 2019-09-12 16:38:21]	[UserID:14/1082]	[IP:10.128.12.120]	[Browser:Chrome - 76.0.3809.132]	[Action:Closing mssql connection]	[Remarks:Success]
[Date: 2019-09-12 16:38:21]	[UserID:14/1082]	[IP:10.128.12.120]	[Browser:Chrome - 76.0.3809.132]	[Action:Making connection to server]	[Remarks:Successful connection to server: S3]
[Date: 2019-09-12 16:38:21]	[UserID:14/1082]	[IP:10.128.12.120]	[Browser:Chrome - 76.0.3809.132]	[Action:GetProgramList 14/1082]	[Remarks:[{"ID":"1","ProgramIndex":"GST","ProgramName":"GST"}]]
[Date: 2019-09-12 16:38:21]	[UserID:14/1082]	[IP:10.128.12.120]	[Browser:Chrome - 76.0.3809.132]	[Action:Making connection to server]	[Remarks:Successful connection to server: S3]
[Date: 2019-09-12 16:38:21]	[UserID:14/1082]	[IP:10.128.12.120]	[Browser:Chrome - 76.0.3809.132]	[Action:GetProgramList 14/1082]	[Remarks:[{"ID":"1","ProgramIndex":"GST","ProgramName":"GST"}]]
[Date: 2019-09-12 16:38:21]	[UserID:14/1082]	[IP:10.128.12.120]	[Browser:Chrome - 76.0.3809.132]	[Action:Making connection to server]	[Remarks:Successful connection to server: S3]
[Date: 2019-09-12 16:38:21]	[UserID:14/1082]	[IP:10.128.12.120]	[Browser:Chrome - 76.0.3809.132]	[Action:Filtering User : MasterData Username : 14/1082]	[Remarks:Successful filter row count: 1]
[Date: 2019-09-12 16:38:21]	[UserID:14/1082]	[IP:10.128.12.120]	[Browser:Chrome - 76.0.3809.132]	[Action:Making connection to server]	[Remarks:Successful connection to server: S3]
[Date: 2019-09-12 16:38:21]	[UserID:14/1082]	[IP:10.128.12.120]	[Browser:Chrome - 76.0.3809.132]	[Action:GetGSTModules 14/1082,1]	[Remarks:Successful filter row count: 8]
[Date: 2019-09-12 16:38:21]	[UserID:14/1082]	[IP:10.128.12.120]	[Browser:Chrome - 76.0.3809.132]	[Action:Closing mssql connection]	[Remarks:Success]
[Date: 2019-09-12 16:40:53]	[UserID:06/343]	[IP:10.128.12.113]	[Browser:Chrome - 76.0.3809.132]	[Action:Making connection to server]	[Remarks:Successful connection to server: S3]
[Date: 2019-09-12 16:40:53]	[UserID:06/343]	[IP:10.128.12.113]	[Browser:Chrome - 76.0.3809.132]	[Action:GetGSTModules 06/343,1]	[Remarks:Successful filter row count: 7]
[Date: 2019-09-12 16:40:53]	[UserID:06/343]	[IP:10.128.12.113]	[Browser:Chrome - 76.0.3809.132]	[Action:Closing mssql connection]	[Remarks:Success]
[Date: 2019-09-12 16:40:58]	[UserID:]	[IP:10.128.12.114]	[Browser:Chrome - 76.0.3809.132]	[Action:Making connection to server]	[Remarks:Successful connection to server: S3]
[Date: 2019-09-12 16:40:58]	[UserID:]	[IP:10.128.12.114]	[Browser:Chrome - 76.0.3809.132]	[Action:GetProgramList ]	[Remarks:"no data"]
[Date: 2019-09-12 16:41:17]	[UserID:14/1082]	[IP:10.128.12.120]	[Browser:Chrome - 76.0.3809.132]	[Action:Making connection to server]	[Remarks:Successful connection to server: S3]
[Date: 2019-09-12 16:41:17]	[UserID:14/1082]	[IP:10.128.12.120]	[Browser:Chrome - 76.0.3809.132]	[Action:GetProgramList 14/1082]	[Remarks:[{"ID":"1","ProgramIndex":"GST","ProgramName":"GST"}]]
[Date: 2019-09-12 16:41:17]	[UserID:14/1082]	[IP:10.128.12.120]	[Browser:Chrome - 76.0.3809.132]	[Action:Making connection to server]	[Remarks:Successful connection to server: S3]
[Date: 2019-09-12 16:41:17]	[UserID:14/1082]	[IP:10.128.12.120]	[Browser:Chrome - 76.0.3809.132]	[Action:GetProgramList 14/1082]	[Remarks:[{"ID":"1","ProgramIndex":"GST","ProgramName":"GST"}]]
[Date: 2019-09-12 16:41:17]	[UserID:14/1082]	[IP:10.128.12.120]	[Browser:Chrome - 76.0.3809.132]	[Action:Making connection to server]	[Remarks:Successful connection to server: S3]
[Date: 2019-09-12 16:41:17]	[UserID:14/1082]	[IP:10.128.12.120]	[Browser:Chrome - 76.0.3809.132]	[Action:Filtering User : MasterData Username : 14/1082]	[Remarks:Successful filter row count: 1]
[Date: 2019-09-12 16:41:18]	[UserID:14/1082]	[IP:10.128.12.120]	[Browser:Chrome - 76.0.3809.132]	[Action:Making connection to server]	[Remarks:Successful connection to server: S3]
[Date: 2019-09-12 16:41:18]	[UserID:14/1082]	[IP:10.128.12.120]	[Browser:Chrome - 76.0.3809.132]	[Action:GetGSTModules 14/1082,1]	[Remarks:Successful filter row count: 8]
[Date: 2019-09-12 16:41:18]	[UserID:14/1082]	[IP:10.128.12.120]	[Browser:Chrome - 76.0.3809.132]	[Action:Closing mssql connection]	[Remarks:Success]
[Date: 2019-09-12 17:16:31]	[UserID:14/1082]	[IP:10.128.12.120]	[Browser:Chrome - 76.0.3809.132]	[Action:Making connection to server]	[Remarks:Successful connection to server: S3]
[Date: 2019-09-12 17:16:31]	[UserID:14/1082]	[IP:10.128.12.120]	[Browser:Chrome - 76.0.3809.132]	[Action:GetGSTModules 14/1082,1]	[Remarks:Successful filter row count: 8]
[Date: 2019-09-12 17:16:31]	[UserID:14/1082]	[IP:10.128.12.120]	[Browser:Chrome - 76.0.3809.132]	[Action:Closing mssql connection]	[Remarks:Success]
[Date: 2019-09-12 17:26:45]	[UserID:14/1082]	[IP:10.128.12.120]	[Browser:Chrome - 76.0.3809.132]	[Action:Making connection to server]	[Remarks:Successful connection to server: S3]
[Date: 2019-09-12 17:26:46]	[UserID:14/1082]	[IP:10.128.12.120]	[Browser:Chrome - 76.0.3809.132]	[Action:GetGSTModules 14/1082,1]	[Remarks:Successful filter row count: 8]
[Date: 2019-09-12 17:26:47]	[UserID:14/1082]	[IP:10.128.12.120]	[Browser:Chrome - 76.0.3809.132]	[Action:Closing mssql connection]	[Remarks:Success]
[Date: 2019-09-12 17:27:16]	[UserID:14/1082]	[IP:10.128.12.120]	[Browser:Chrome - 76.0.3809.132]	[Action:Making connection to server]	[Remarks:Successful connection to server: S3]
[Date: 2019-09-12 17:27:16]	[UserID:14/1082]	[IP:10.128.12.120]	[Browser:Chrome - 76.0.3809.132]	[Action:GetGSTModules 14/1082,1]	[Remarks:Successful filter row count: 8]
[Date: 2019-09-12 17:27:16]	[UserID:14/1082]	[IP:10.128.12.120]	[Browser:Chrome - 76.0.3809.132]	[Action:Closing mssql connection]	[Remarks:Success]
[Date: 2019-09-12 17:29:24]	[UserID:14/1082]	[IP:10.128.12.120]	[Browser:Chrome - 76.0.3809.132]	[Action:Making connection to server]	[Remarks:Successful connection to server: S3]
[Date: 2019-09-12 17:29:24]	[UserID:14/1082]	[IP:10.128.12.120]	[Browser:Chrome - 76.0.3809.132]	[Action:GetGSTModules 14/1082,1]	[Remarks:Successful filter row count: 8]
[Date: 2019-09-12 17:29:24]	[UserID:14/1082]	[IP:10.128.12.120]	[Browser:Chrome - 76.0.3809.132]	[Action:Closing mssql connection]	[Remarks:Success]
[Date: 2019-09-12 18:19:23]	[UserID:14/1082]	[IP:10.128.12.120]	[Browser:Chrome - 76.0.3809.132]	[Action:Making connection to server]	[Remarks:Successful connection to server: S3]
[Date: 2019-09-12 18:19:23]	[UserID:14/1082]	[IP:10.128.12.120]	[Browser:Chrome - 76.0.3809.132]	[Action:GetGSTModules 14/1082,1]	[Remarks:Successful filter row count: 8]
[Date: 2019-09-12 18:19:23]	[UserID:14/1082]	[IP:10.128.12.120]	[Browser:Chrome - 76.0.3809.132]	[Action:Closing mssql connection]	[Remarks:Success]
[Date: 2019-09-12 22:40:11]	[UserID:]	[IP:10.139.5.108]	[Browser:Chrome - 76.0.3809.132]	[Action:Making connection to server]	[Remarks:Successful connection to server: S3]
[Date: 2019-09-12 22:40:11]	[UserID:]	[IP:10.139.5.108]	[Browser:Chrome - 76.0.3809.132]	[Action:GetProgramList ]	[Remarks:"no data"]
