[Date: 2017-08-14 07:58:12]	[UserID:]	[IP:10.128.12.113]	[Browser:Chrome - 60.0.3112.90]	[Action:Making connection to server]	[Remarks:Successful connection to server: S3]
[Date: 2017-08-14 07:58:12]	[UserID:]	[IP:10.128.12.113]	[Browser:Chrome - 60.0.3112.90]	[Action:GetProgramList ]	[Remarks:"no data"]
[Date: 2017-08-14 07:58:17]	[UserID:06/343]	[IP:10.128.12.113]	[Browser:Chrome - 60.0.3112.90]	[Action:Making connection to server]	[Remarks:Successful connection to server: S3]
[Date: 2017-08-14 07:58:17]	[UserID:06/343]	[IP:10.128.12.113]	[Browser:Chrome - 60.0.3112.90]	[Action:User 06/343]	[Remarks:Success]
[Date: 2017-08-14 07:58:17]	[UserID:06/343]	[IP:10.128.12.113]	[Browser:Chrome - 60.0.3112.90]	[Action:Filtering User : MasterData Username : 06/343]	[Remarks:Successful filter row count: 0]
[Date: 2017-08-14 07:58:17]	[UserID:06/343]	[IP:10.128.12.113]	[Browser:Chrome - 60.0.3112.90]	[Action:Filtering User : MasterData Username : 06/343]	[Remarks:Successful filter row count: 0]
[Date: 2017-08-14 07:58:17]	[UserID:06/343]	[IP:10.128.12.113]	[Browser:Chrome - 60.0.3112.90]	[Action:Filtering User : MasterData Username : 06/343]	[Remarks:Success]
[Date: 2017-08-14 07:58:17]	[UserID:06/343]	[IP:10.128.12.113]	[Browser:Chrome - 60.0.3112.90]	[Action:Closing mssql connection]	[Remarks:Success]
[Date: 2017-08-14 07:58:17]	[UserID:06/343]	[IP:10.128.12.113]	[Browser:Chrome - 60.0.3112.90]	[Action:Making connection to server]	[Remarks:Successful connection to server: S3]
[Date: 2017-08-14 07:58:17]	[UserID:06/343]	[IP:10.128.12.113]	[Browser:Chrome - 60.0.3112.90]	[Action:GetProgramList 06/343]	[Remarks:[{"ID":"1","ProgramIndex":"GST","ProgramName":"GST"}]]
[Date: 2017-08-14 07:58:17]	[UserID:06/343]	[IP:10.128.12.113]	[Browser:Chrome - 60.0.3112.90]	[Action:Making connection to server]	[Remarks:Successful connection to server: S3]
[Date: 2017-08-14 07:58:17]	[UserID:06/343]	[IP:10.128.12.113]	[Browser:Chrome - 60.0.3112.90]	[Action:GetProgramList 06/343]	[Remarks:[{"ID":"1","ProgramIndex":"GST","ProgramName":"GST"}]]
[Date: 2017-08-14 07:58:17]	[UserID:06/343]	[IP:10.128.12.113]	[Browser:Chrome - 60.0.3112.90]	[Action:Making connection to server]	[Remarks:Successful connection to server: S3]
[Date: 2017-08-14 07:58:17]	[UserID:06/343]	[IP:10.128.12.113]	[Browser:Chrome - 60.0.3112.90]	[Action:Filtering User : MasterData Username : 06/343]	[Remarks:Successful filter row count: 1]
[Date: 2017-08-14 07:58:18]	[UserID:06/343]	[IP:10.128.12.113]	[Browser:Chrome - 60.0.3112.90]	[Action:Making connection to server]	[Remarks:Successful connection to server: S3]
[Date: 2017-08-14 07:58:18]	[UserID:06/343]	[IP:10.128.12.113]	[Browser:Chrome - 60.0.3112.90]	[Action:GetGSTModules 06/343,1]	[Remarks:Successful filter row count: 5]
[Date: 2017-08-14 07:58:18]	[UserID:06/343]	[IP:10.128.12.113]	[Browser:Chrome - 60.0.3112.90]	[Action:Closing mssql connection]	[Remarks:Success]
[Date: 2017-08-14 09:18:26]	[UserID:06/343]	[IP:10.128.12.113]	[Browser:Chrome - 60.0.3112.90]	[Action:Making connection to server]	[Remarks:Successful connection to server: S3]
[Date: 2017-08-14 09:18:26]	[UserID:06/343]	[IP:10.128.12.113]	[Browser:Chrome - 60.0.3112.90]	[Action:GetGSTModules 06/343,1]	[Remarks:Successful filter row count: 5]
[Date: 2017-08-14 09:18:26]	[UserID:06/343]	[IP:10.128.12.113]	[Browser:Chrome - 60.0.3112.90]	[Action:Closing mssql connection]	[Remarks:Success]
[Date: 2017-08-14 09:21:16]	[UserID:06/343]	[IP:10.128.12.113]	[Browser:Chrome - 60.0.3112.90]	[Action:Making connection to server]	[Remarks:Successful connection to server: S3]
[Date: 2017-08-14 09:21:16]	[UserID:06/343]	[IP:10.128.12.113]	[Browser:Chrome - 60.0.3112.90]	[Action:GetGSTModules 06/343,1]	[Remarks:Successful filter row count: 5]
[Date: 2017-08-14 09:21:16]	[UserID:06/343]	[IP:10.128.12.113]	[Browser:Chrome - 60.0.3112.90]	[Action:Closing mssql connection]	[Remarks:Success]
[Date: 2017-08-14 09:27:03]	[UserID:06/343]	[IP:10.128.12.113]	[Browser:Chrome - 60.0.3112.90]	[Action:Making connection to server]	[Remarks:Successful connection to server: S3]
[Date: 2017-08-14 09:27:03]	[UserID:06/343]	[IP:10.128.12.113]	[Browser:Chrome - 60.0.3112.90]	[Action:GetGSTModules 06/343,1]	[Remarks:Successful filter row count: 5]
[Date: 2017-08-14 09:27:03]	[UserID:06/343]	[IP:10.128.12.113]	[Browser:Chrome - 60.0.3112.90]	[Action:Closing mssql connection]	[Remarks:Success]
[Date: 2017-08-14 09:38:08]	[UserID:06/343]	[IP:10.128.12.113]	[Browser:Chrome - 60.0.3112.90]	[Action:Making connection to server]	[Remarks:Successful connection to server: S3]
[Date: 2017-08-14 09:38:08]	[UserID:06/343]	[IP:10.128.12.113]	[Browser:Chrome - 60.0.3112.90]	[Action:GetGSTModules 06/343,1]	[Remarks:Successful filter row count: 5]
[Date: 2017-08-14 09:38:08]	[UserID:06/343]	[IP:10.128.12.113]	[Browser:Chrome - 60.0.3112.90]	[Action:Closing mssql connection]	[Remarks:Success]
[Date: 2017-08-14 09:39:59]	[UserID:06/343]	[IP:10.128.12.113]	[Browser:Chrome - 60.0.3112.90]	[Action:Making connection to server]	[Remarks:Successful connection to server: S3]
[Date: 2017-08-14 09:39:59]	[UserID:06/343]	[IP:10.128.12.113]	[Browser:Chrome - 60.0.3112.90]	[Action:GetGSTModules 06/343,1]	[Remarks:Successful filter row count: 5]
[Date: 2017-08-14 09:39:59]	[UserID:06/343]	[IP:10.128.12.113]	[Browser:Chrome - 60.0.3112.90]	[Action:Closing mssql connection]	[Remarks:Success]
[Date: 2017-08-14 09:40:27]	[UserID:06/343]	[IP:10.128.12.113]	[Browser:Chrome - 60.0.3112.90]	[Action:Making connection to server]	[Remarks:Successful connection to server: S3]
[Date: 2017-08-14 09:40:27]	[UserID:06/343]	[IP:10.128.12.113]	[Browser:Chrome - 60.0.3112.90]	[Action:GetGSTModules 06/343,1]	[Remarks:Successful filter row count: 5]
[Date: 2017-08-14 09:40:27]	[UserID:06/343]	[IP:10.128.12.113]	[Browser:Chrome - 60.0.3112.90]	[Action:Closing mssql connection]	[Remarks:Success]
[Date: 2017-08-14 09:41:00]	[UserID:06/343]	[IP:10.128.12.113]	[Browser:Chrome - 60.0.3112.90]	[Action:Making connection to server]	[Remarks:Successful connection to server: S3]
[Date: 2017-08-14 09:41:00]	[UserID:06/343]	[IP:10.128.12.113]	[Browser:Chrome - 60.0.3112.90]	[Action:GetGSTModules 06/343,1]	[Remarks:Successful filter row count: 5]
[Date: 2017-08-14 09:41:00]	[UserID:06/343]	[IP:10.128.12.113]	[Browser:Chrome - 60.0.3112.90]	[Action:Closing mssql connection]	[Remarks:Success]
[Date: 2017-08-14 09:42:00]	[UserID:06/343]	[IP:10.128.12.113]	[Browser:Chrome - 60.0.3112.90]	[Action:Making connection to server]	[Remarks:Successful connection to server: S3]
[Date: 2017-08-14 09:42:00]	[UserID:06/343]	[IP:10.128.12.113]	[Browser:Chrome - 60.0.3112.90]	[Action:GetGSTModules 06/343,1]	[Remarks:Successful filter row count: 5]
[Date: 2017-08-14 09:42:00]	[UserID:06/343]	[IP:10.128.12.113]	[Browser:Chrome - 60.0.3112.90]	[Action:Closing mssql connection]	[Remarks:Success]
[Date: 2017-08-14 09:42:04]	[UserID:06/343]	[IP:10.128.12.113]	[Browser:Chrome - 60.0.3112.90]	[Action:Making connection to server]	[Remarks:Successful connection to server: S3]
[Date: 2017-08-14 09:42:04]	[UserID:06/343]	[IP:10.128.12.113]	[Browser:Chrome - 60.0.3112.90]	[Action:GetGSTModules 06/343,1]	[Remarks:Successful filter row count: 5]
[Date: 2017-08-14 09:42:04]	[UserID:06/343]	[IP:10.128.12.113]	[Browser:Chrome - 60.0.3112.90]	[Action:Closing mssql connection]	[Remarks:Success]
[Date: 2017-08-14 09:42:48]	[UserID:06/343]	[IP:10.128.12.113]	[Browser:Chrome - 60.0.3112.90]	[Action:Making connection to server]	[Remarks:Successful connection to server: S3]
[Date: 2017-08-14 09:42:48]	[UserID:06/343]	[IP:10.128.12.113]	[Browser:Chrome - 60.0.3112.90]	[Action:GetGSTModules 06/343,1]	[Remarks:Successful filter row count: 5]
[Date: 2017-08-14 09:42:48]	[UserID:06/343]	[IP:10.128.12.113]	[Browser:Chrome - 60.0.3112.90]	[Action:Closing mssql connection]	[Remarks:Success]
[Date: 2017-08-14 11:37:19]	[UserID:06/343]	[IP:10.128.12.113]	[Browser:Chrome - 60.0.3112.90]	[Action:Making connection to server]	[Remarks:Successful connection to server: S3]
[Date: 2017-08-14 11:37:19]	[UserID:06/343]	[IP:10.128.12.113]	[Browser:Chrome - 60.0.3112.90]	[Action:GetProgramList 06/343]	[Remarks:[{"ID":"1","ProgramIndex":"GST","ProgramName":"GST"}]]
[Date: 2017-08-14 11:37:19]	[UserID:06/343]	[IP:10.128.12.113]	[Browser:Chrome - 60.0.3112.90]	[Action:Making connection to server]	[Remarks:Successful connection to server: S3]
[Date: 2017-08-14 11:37:19]	[UserID:06/343]	[IP:10.128.12.113]	[Browser:Chrome - 60.0.3112.90]	[Action:GetProgramList 06/343]	[Remarks:[{"ID":"1","ProgramIndex":"GST","ProgramName":"GST"}]]
[Date: 2017-08-14 11:37:19]	[UserID:06/343]	[IP:10.128.12.113]	[Browser:Chrome - 60.0.3112.90]	[Action:Making connection to server]	[Remarks:Successful connection to server: S3]
[Date: 2017-08-14 11:37:19]	[UserID:06/343]	[IP:10.128.12.113]	[Browser:Chrome - 60.0.3112.90]	[Action:Filtering User : MasterData Username : 06/343]	[Remarks:Successful filter row count: 1]
[Date: 2017-08-14 11:37:19]	[UserID:06/343]	[IP:10.128.12.113]	[Browser:Chrome - 60.0.3112.90]	[Action:Making connection to server]	[Remarks:Successful connection to server: S3]
[Date: 2017-08-14 11:37:19]	[UserID:06/343]	[IP:10.128.12.113]	[Browser:Chrome - 60.0.3112.90]	[Action:GetGSTModules 06/343,1]	[Remarks:Successful filter row count: 5]
[Date: 2017-08-14 11:37:19]	[UserID:06/343]	[IP:10.128.12.113]	[Browser:Chrome - 60.0.3112.90]	[Action:Closing mssql connection]	[Remarks:Success]
[Date: 2017-08-14 11:38:43]	[UserID:06/343]	[IP:10.128.12.113]	[Browser:Chrome - 60.0.3112.90]	[Action:Making connection to server]	[Remarks:Successful connection to server: S3]
[Date: 2017-08-14 11:38:43]	[UserID:06/343]	[IP:10.128.12.113]	[Browser:Chrome - 60.0.3112.90]	[Action:GetGSTModules 06/343,1]	[Remarks:Successful filter row count: 5]
[Date: 2017-08-14 11:38:43]	[UserID:06/343]	[IP:10.128.12.113]	[Browser:Chrome - 60.0.3112.90]	[Action:Closing mssql connection]	[Remarks:Success]
[Date: 2017-08-14 14:18:01]	[UserID:06/343]	[IP:10.128.12.113]	[Browser:Chrome - 60.0.3112.90]	[Action:Making connection to server]	[Remarks:Successful connection to server: S3]
[Date: 2017-08-14 14:18:01]	[UserID:06/343]	[IP:10.128.12.113]	[Browser:Chrome - 60.0.3112.90]	[Action:GetProgramList 06/343]	[Remarks:[{"ID":"1","ProgramIndex":"GST","ProgramName":"GST"}]]
[Date: 2017-08-14 14:18:01]	[UserID:06/343]	[IP:10.128.12.113]	[Browser:Chrome - 60.0.3112.90]	[Action:Making connection to server]	[Remarks:Successful connection to server: S3]
[Date: 2017-08-14 14:18:01]	[UserID:06/343]	[IP:10.128.12.113]	[Browser:Chrome - 60.0.3112.90]	[Action:GetProgramList 06/343]	[Remarks:[{"ID":"1","ProgramIndex":"GST","ProgramName":"GST"}]]
[Date: 2017-08-14 14:18:01]	[UserID:06/343]	[IP:10.128.12.113]	[Browser:Chrome - 60.0.3112.90]	[Action:Making connection to server]	[Remarks:Successful connection to server: S3]
[Date: 2017-08-14 14:18:01]	[UserID:06/343]	[IP:10.128.12.113]	[Browser:Chrome - 60.0.3112.90]	[Action:Filtering User : MasterData Username : 06/343]	[Remarks:Successful filter row count: 1]
[Date: 2017-08-14 14:18:02]	[UserID:06/343]	[IP:10.128.12.113]	[Browser:Chrome - 60.0.3112.90]	[Action:Making connection to server]	[Remarks:Successful connection to server: S3]
[Date: 2017-08-14 14:18:02]	[UserID:06/343]	[IP:10.128.12.113]	[Browser:Chrome - 60.0.3112.90]	[Action:GetGSTModules 06/343,1]	[Remarks:Successful filter row count: 5]
[Date: 2017-08-14 14:18:02]	[UserID:06/343]	[IP:10.128.12.113]	[Browser:Chrome - 60.0.3112.90]	[Action:Closing mssql connection]	[Remarks:Success]
