[Date: 2020-08-03 07:57:57]	[UserID:]	[IP:10.128.130.5]	[Browser:Firefox - 78.0]	[Action:Making connection to server]	[Remarks:Successful connection to server: S3]
[Date: 2020-08-03 07:57:57]	[UserID:]	[IP:10.128.130.5]	[Browser:Firefox - 78.0]	[Action:GetProgramList ]	[Remarks:"no data"]
[Date: 2020-08-03 07:58:12]	[UserID:]	[IP:10.128.130.5]	[Browser:Chrome - 84.0.4147.105]	[Action:Making connection to server]	[Remarks:Successful connection to server: S3]
[Date: 2020-08-03 07:58:12]	[UserID:]	[IP:10.128.130.5]	[Browser:Chrome - 84.0.4147.105]	[Action:GetProgramList ]	[Remarks:"no data"]
[Date: 2020-08-03 08:14:39]	[UserID:]	[IP:10.128.130.5]	[Browser:Chrome - 84.0.4147.105]	[Action:Making connection to server]	[Remarks:Successful connection to server: S3]
[Date: 2020-08-03 08:14:39]	[UserID:]	[IP:10.128.130.5]	[Browser:Chrome - 84.0.4147.105]	[Action:GetProgramList ]	[Remarks:"no data"]
[Date: 2020-08-03 08:48:05]	[UserID:]	[IP:10.128.12.115]	[Browser:Chrome - 84.0.4147.105]	[Action:Making connection to server]	[Remarks:Successful connection to server: S3]
[Date: 2020-08-03 08:48:06]	[UserID:]	[IP:10.128.12.115]	[Browser:Chrome - 84.0.4147.105]	[Action:GetProgramList ]	[Remarks:"no data"]
[Date: 2020-08-03 08:48:12]	[UserID:17/1248]	[IP:10.128.12.115]	[Browser:Chrome - 84.0.4147.105]	[Action:Making connection to server]	[Remarks:Successful connection to server: S3]
[Date: 2020-08-03 08:48:12]	[UserID:17/1248]	[IP:10.128.12.115]	[Browser:Chrome - 84.0.4147.105]	[Action:User 17/1248]	[Remarks:Success]
[Date: 2020-08-03 08:48:13]	[UserID:17/1248]	[IP:10.128.12.115]	[Browser:Chrome - 84.0.4147.105]	[Action:Filtering User : MasterData Username : 17/1248]	[Remarks:Successful filter row count: 0]
[Date: 2020-08-03 08:48:13]	[UserID:17/1248]	[IP:10.128.12.115]	[Browser:Chrome - 84.0.4147.105]	[Action:Filtering User : MasterData Username : 17/1248]	[Remarks:Successful filter row count: 0]
[Date: 2020-08-03 08:48:13]	[UserID:17/1248]	[IP:10.128.12.115]	[Browser:Chrome - 84.0.4147.105]	[Action:Filtering User : MasterData Username : 17/1248]	[Remarks:Success]
[Date: 2020-08-03 08:48:13]	[UserID:17/1248]	[IP:10.128.12.115]	[Browser:Chrome - 84.0.4147.105]	[Action:Closing mssql connection]	[Remarks:Success]
[Date: 2020-08-03 08:48:13]	[UserID:17/1248]	[IP:10.128.12.115]	[Browser:Chrome - 84.0.4147.105]	[Action:Making connection to server]	[Remarks:Successful connection to server: S3]
[Date: 2020-08-03 08:48:13]	[UserID:17/1248]	[IP:10.128.12.115]	[Browser:Chrome - 84.0.4147.105]	[Action:GetProgramList 17/1248]	[Remarks:[{"ID":"1","ProgramIndex":"GST","ProgramName":"GST"}]]
[Date: 2020-08-03 08:48:13]	[UserID:17/1248]	[IP:10.128.12.115]	[Browser:Chrome - 84.0.4147.105]	[Action:Making connection to server]	[Remarks:Successful connection to server: S3]
[Date: 2020-08-03 08:48:13]	[UserID:17/1248]	[IP:10.128.12.115]	[Browser:Chrome - 84.0.4147.105]	[Action:GetProgramList 17/1248]	[Remarks:[{"ID":"1","ProgramIndex":"GST","ProgramName":"GST"}]]
[Date: 2020-08-03 08:48:13]	[UserID:17/1248]	[IP:10.128.12.115]	[Browser:Chrome - 84.0.4147.105]	[Action:Making connection to server]	[Remarks:Successful connection to server: S3]
[Date: 2020-08-03 08:48:13]	[UserID:17/1248]	[IP:10.128.12.115]	[Browser:Chrome - 84.0.4147.105]	[Action:Filtering User : MasterData Username : 17/1248]	[Remarks:Successful filter row count: 1]
[Date: 2020-08-03 08:48:13]	[UserID:17/1248]	[IP:10.128.12.115]	[Browser:Chrome - 84.0.4147.105]	[Action:Making connection to server]	[Remarks:Successful connection to server: S3]
[Date: 2020-08-03 08:48:13]	[UserID:17/1248]	[IP:10.128.12.115]	[Browser:Chrome - 84.0.4147.105]	[Action:GetGSTModules 17/1248,1]	[Remarks:Successful filter row count: 6]
[Date: 2020-08-03 08:48:13]	[UserID:17/1248]	[IP:10.128.12.115]	[Browser:Chrome - 84.0.4147.105]	[Action:Closing mssql connection]	[Remarks:Success]
[Date: 2020-08-03 10:13:36]	[UserID:17/1248]	[IP:10.128.12.115]	[Browser:Chrome - 84.0.4147.105]	[Action:Making connection to server]	[Remarks:Successful connection to server: S3]
[Date: 2020-08-03 10:13:36]	[UserID:17/1248]	[IP:10.128.12.115]	[Browser:Chrome - 84.0.4147.105]	[Action:GetGSTModules 17/1248,1]	[Remarks:Successful filter row count: 6]
[Date: 2020-08-03 10:13:36]	[UserID:17/1248]	[IP:10.128.12.115]	[Browser:Chrome - 84.0.4147.105]	[Action:Closing mssql connection]	[Remarks:Success]
[Date: 2020-08-03 10:59:20]	[UserID:]	[IP:10.128.12.115]	[Browser:Chrome - 84.0.4147.105]	[Action:Making connection to server]	[Remarks:Successful connection to server: S3]
[Date: 2020-08-03 10:59:21]	[UserID:]	[IP:10.128.12.115]	[Browser:Chrome - 84.0.4147.105]	[Action:GetProgramList ]	[Remarks:"no data"]
[Date: 2020-08-03 14:57:36]	[UserID:]	[IP:10.128.12.115]	[Browser:Chrome - 84.0.4147.105]	[Action:Making connection to server]	[Remarks:Successful connection to server: S3]
[Date: 2020-08-03 14:57:36]	[UserID:]	[IP:10.128.12.115]	[Browser:Chrome - 84.0.4147.105]	[Action:GetProgramList ]	[Remarks:"no data"]
[Date: 2020-08-03 14:58:17]	[UserID:17/1248]	[IP:10.128.12.115]	[Browser:Chrome - 84.0.4147.105]	[Action:Making connection to server]	[Remarks:Successful connection to server: S3]
[Date: 2020-08-03 14:58:17]	[UserID:17/1248]	[IP:10.128.12.115]	[Browser:Chrome - 84.0.4147.105]	[Action:User 17/1248]	[Remarks:Success]
[Date: 2020-08-03 14:58:17]	[UserID:17/1248]	[IP:10.128.12.115]	[Browser:Chrome - 84.0.4147.105]	[Action:Filtering User : MasterData Username : 17/1248]	[Remarks:Successful filter row count: 0]
[Date: 2020-08-03 14:58:17]	[UserID:17/1248]	[IP:10.128.12.115]	[Browser:Chrome - 84.0.4147.105]	[Action:Filtering User : MasterData Username : 17/1248]	[Remarks:Successful filter row count: 0]
[Date: 2020-08-03 14:58:17]	[UserID:17/1248]	[IP:10.128.12.115]	[Browser:Chrome - 84.0.4147.105]	[Action:Filtering User : MasterData Username : 17/1248]	[Remarks:Success]
[Date: 2020-08-03 14:58:17]	[UserID:17/1248]	[IP:10.128.12.115]	[Browser:Chrome - 84.0.4147.105]	[Action:Closing mssql connection]	[Remarks:Success]
[Date: 2020-08-03 14:58:17]	[UserID:17/1248]	[IP:10.128.12.115]	[Browser:Chrome - 84.0.4147.105]	[Action:Making connection to server]	[Remarks:Successful connection to server: S3]
[Date: 2020-08-03 14:58:17]	[UserID:17/1248]	[IP:10.128.12.115]	[Browser:Chrome - 84.0.4147.105]	[Action:GetProgramList 17/1248]	[Remarks:[{"ID":"1","ProgramIndex":"GST","ProgramName":"GST"}]]
[Date: 2020-08-03 14:58:17]	[UserID:17/1248]	[IP:10.128.12.115]	[Browser:Chrome - 84.0.4147.105]	[Action:Making connection to server]	[Remarks:Successful connection to server: S3]
[Date: 2020-08-03 14:58:17]	[UserID:17/1248]	[IP:10.128.12.115]	[Browser:Chrome - 84.0.4147.105]	[Action:GetProgramList 17/1248]	[Remarks:[{"ID":"1","ProgramIndex":"GST","ProgramName":"GST"}]]
[Date: 2020-08-03 14:58:17]	[UserID:17/1248]	[IP:10.128.12.115]	[Browser:Chrome - 84.0.4147.105]	[Action:Making connection to server]	[Remarks:Successful connection to server: S3]
[Date: 2020-08-03 14:58:17]	[UserID:17/1248]	[IP:10.128.12.115]	[Browser:Chrome - 84.0.4147.105]	[Action:Filtering User : MasterData Username : 17/1248]	[Remarks:Successful filter row count: 1]
[Date: 2020-08-03 14:58:18]	[UserID:17/1248]	[IP:10.128.12.115]	[Browser:Chrome - 84.0.4147.105]	[Action:Making connection to server]	[Remarks:Successful connection to server: S3]
[Date: 2020-08-03 14:58:18]	[UserID:17/1248]	[IP:10.128.12.115]	[Browser:Chrome - 84.0.4147.105]	[Action:GetGSTModules 17/1248,1]	[Remarks:Successful filter row count: 6]
[Date: 2020-08-03 14:58:18]	[UserID:17/1248]	[IP:10.128.12.115]	[Browser:Chrome - 84.0.4147.105]	[Action:Closing mssql connection]	[Remarks:Success]
[Date: 2020-08-03 16:07:04]	[UserID:]	[IP:10.128.130.5]	[Browser:Chrome - 84.0.4147.105]	[Action:Making connection to server]	[Remarks:Successful connection to server: S3]
[Date: 2020-08-03 16:07:04]	[UserID:]	[IP:10.128.130.5]	[Browser:Chrome - 84.0.4147.105]	[Action:GetProgramList ]	[Remarks:"no data"]
[Date: 2020-08-03 16:07:14]	[UserID:06/343]	[IP:10.128.130.5]	[Browser:Chrome - 84.0.4147.105]	[Action:Making connection to server]	[Remarks:Successful connection to server: S3]
[Date: 2020-08-03 16:07:14]	[UserID:06/343]	[IP:10.128.130.5]	[Browser:Chrome - 84.0.4147.105]	[Action:User 06/343]	[Remarks:Success]
[Date: 2020-08-03 16:07:14]	[UserID:06/343]	[IP:10.128.130.5]	[Browser:Chrome - 84.0.4147.105]	[Action:Filtering User : MasterData Username : 06/343]	[Remarks:Successful filter row count: 0]
[Date: 2020-08-03 16:07:14]	[UserID:06/343]	[IP:10.128.130.5]	[Browser:Chrome - 84.0.4147.105]	[Action:Filtering User : MasterData Username : 06/343]	[Remarks:Successful filter row count: 0]
[Date: 2020-08-03 16:07:14]	[UserID:06/343]	[IP:10.128.130.5]	[Browser:Chrome - 84.0.4147.105]	[Action:Filtering User : MasterData Username : 06/343]	[Remarks:Success]
[Date: 2020-08-03 16:07:14]	[UserID:06/343]	[IP:10.128.130.5]	[Browser:Chrome - 84.0.4147.105]	[Action:Closing mssql connection]	[Remarks:Success]
[Date: 2020-08-03 16:07:15]	[UserID:06/343]	[IP:10.128.130.5]	[Browser:Chrome - 84.0.4147.105]	[Action:Making connection to server]	[Remarks:Successful connection to server: S3]
[Date: 2020-08-03 16:07:15]	[UserID:06/343]	[IP:10.128.130.5]	[Browser:Chrome - 84.0.4147.105]	[Action:GetProgramList 06/343]	[Remarks:[{"ID":"1","ProgramIndex":"GST","ProgramName":"GST"}]]
[Date: 2020-08-03 16:07:15]	[UserID:06/343]	[IP:10.128.130.5]	[Browser:Chrome - 84.0.4147.105]	[Action:Making connection to server]	[Remarks:Successful connection to server: S3]
[Date: 2020-08-03 16:07:15]	[UserID:06/343]	[IP:10.128.130.5]	[Browser:Chrome - 84.0.4147.105]	[Action:GetProgramList 06/343]	[Remarks:[{"ID":"1","ProgramIndex":"GST","ProgramName":"GST"}]]
[Date: 2020-08-03 16:07:15]	[UserID:06/343]	[IP:10.128.130.5]	[Browser:Chrome - 84.0.4147.105]	[Action:Making connection to server]	[Remarks:Successful connection to server: S3]
[Date: 2020-08-03 16:07:15]	[UserID:06/343]	[IP:10.128.130.5]	[Browser:Chrome - 84.0.4147.105]	[Action:Filtering User : MasterData Username : 06/343]	[Remarks:Successful filter row count: 1]
[Date: 2020-08-03 16:07:15]	[UserID:06/343]	[IP:10.128.130.5]	[Browser:Chrome - 84.0.4147.105]	[Action:Making connection to server]	[Remarks:Successful connection to server: S3]
[Date: 2020-08-03 16:07:15]	[UserID:06/343]	[IP:10.128.130.5]	[Browser:Chrome - 84.0.4147.105]	[Action:GetGSTModules 06/343,1]	[Remarks:Successful filter row count: 7]
[Date: 2020-08-03 16:07:15]	[UserID:06/343]	[IP:10.128.130.5]	[Browser:Chrome - 84.0.4147.105]	[Action:Closing mssql connection]	[Remarks:Success]
[Date: 2020-08-03 16:08:52]	[UserID:06/343]	[IP:10.128.130.5]	[Browser:Chrome - 84.0.4147.105]	[Action:Making connection to server]	[Remarks:Successful connection to server: S3]
[Date: 2020-08-03 16:08:52]	[UserID:06/343]	[IP:10.128.130.5]	[Browser:Chrome - 84.0.4147.105]	[Action:GetGSTModules 06/343,1]	[Remarks:Successful filter row count: 7]
[Date: 2020-08-03 16:08:52]	[UserID:06/343]	[IP:10.128.130.5]	[Browser:Chrome - 84.0.4147.105]	[Action:Closing mssql connection]	[Remarks:Success]
[Date: 2020-08-03 16:10:34]	[UserID:06/343]	[IP:10.128.130.5]	[Browser:Chrome - 84.0.4147.105]	[Action:Making connection to server]	[Remarks:Successful connection to server: S3]
[Date: 2020-08-03 16:10:34]	[UserID:06/343]	[IP:10.128.130.5]	[Browser:Chrome - 84.0.4147.105]	[Action:GetGSTModules 06/343,1]	[Remarks:Successful filter row count: 7]
[Date: 2020-08-03 16:10:34]	[UserID:06/343]	[IP:10.128.130.5]	[Browser:Chrome - 84.0.4147.105]	[Action:Closing mssql connection]	[Remarks:Success]
[Date: 2020-08-03 16:19:18]	[UserID:17/1248]	[IP:10.128.12.115]	[Browser:Chrome - 84.0.4147.105]	[Action:Making connection to server]	[Remarks:Successful connection to server: S3]
[Date: 2020-08-03 16:19:18]	[UserID:17/1248]	[IP:10.128.12.115]	[Browser:Chrome - 84.0.4147.105]	[Action:GetGSTModules 17/1248,1]	[Remarks:Successful filter row count: 6]
[Date: 2020-08-03 16:19:18]	[UserID:17/1248]	[IP:10.128.12.115]	[Browser:Chrome - 84.0.4147.105]	[Action:Closing mssql connection]	[Remarks:Success]
[Date: 2020-08-03 16:27:05]	[UserID:]	[IP:10.128.12.115]	[Browser:Chrome - 84.0.4147.105]	[Action:Making connection to server]	[Remarks:Successful connection to server: S3]
[Date: 2020-08-03 16:27:05]	[UserID:]	[IP:10.128.12.115]	[Browser:Chrome - 84.0.4147.105]	[Action:GetProgramList ]	[Remarks:"no data"]
[Date: 2020-08-03 23:07:14]	[UserID:]	[IP:10.128.130.5]	[Browser:Firefox - 78.0]	[Action:Making connection to server]	[Remarks:Successful connection to server: S3]
[Date: 2020-08-03 23:07:14]	[UserID:]	[IP:10.128.130.5]	[Browser:Firefox - 78.0]	[Action:GetProgramList ]	[Remarks:"no data"]
