[Date: 2020-10-01 07:50:02]	[UserID:]	[IP:10.128.130.5]	[Browser:Chrome - 85.0.4183.121]	[Action:Making connection to server]	[Remarks:Successful connection to server: S3]
[Date: 2020-10-01 07:50:02]	[UserID:]	[IP:10.128.130.5]	[Browser:Chrome - 85.0.4183.121]	[Action:GetProgramList ]	[Remarks:"no data"]
[Date: 2020-10-01 07:50:13]	[UserID:06/343]	[IP:10.128.130.5]	[Browser:Chrome - 85.0.4183.121]	[Action:Making connection to server]	[Remarks:Successful connection to server: S3]
[Date: 2020-10-01 07:50:13]	[UserID:06/343]	[IP:10.128.130.5]	[Browser:Chrome - 85.0.4183.121]	[Action:User 06/343]	[Remarks:Success]
[Date: 2020-10-01 07:50:13]	[UserID:06/343]	[IP:10.128.130.5]	[Browser:Chrome - 85.0.4183.121]	[Action:Filtering User : MasterData Username : 06/343]	[Remarks:Successful filter row count: 0]
[Date: 2020-10-01 07:50:13]	[UserID:06/343]	[IP:10.128.130.5]	[Browser:Chrome - 85.0.4183.121]	[Action:Filtering User : MasterData Username : 06/343]	[Remarks:Successful filter row count: 0]
[Date: 2020-10-01 07:50:13]	[UserID:06/343]	[IP:10.128.130.5]	[Browser:Chrome - 85.0.4183.121]	[Action:Filtering User : MasterData Username : 06/343]	[Remarks:Success]
[Date: 2020-10-01 07:50:13]	[UserID:06/343]	[IP:10.128.130.5]	[Browser:Chrome - 85.0.4183.121]	[Action:Closing mssql connection]	[Remarks:Success]
[Date: 2020-10-01 07:50:13]	[UserID:06/343]	[IP:10.128.130.5]	[Browser:Chrome - 85.0.4183.121]	[Action:Making connection to server]	[Remarks:Successful connection to server: S3]
[Date: 2020-10-01 07:50:13]	[UserID:06/343]	[IP:10.128.130.5]	[Browser:Chrome - 85.0.4183.121]	[Action:GetProgramList 06/343]	[Remarks:[{"ID":"1","ProgramIndex":"GST","ProgramName":"GST"}]]
[Date: 2020-10-01 07:50:13]	[UserID:06/343]	[IP:10.128.130.5]	[Browser:Chrome - 85.0.4183.121]	[Action:Making connection to server]	[Remarks:Successful connection to server: S3]
[Date: 2020-10-01 07:50:13]	[UserID:06/343]	[IP:10.128.130.5]	[Browser:Chrome - 85.0.4183.121]	[Action:GetProgramList 06/343]	[Remarks:[{"ID":"1","ProgramIndex":"GST","ProgramName":"GST"}]]
[Date: 2020-10-01 07:50:13]	[UserID:06/343]	[IP:10.128.130.5]	[Browser:Chrome - 85.0.4183.121]	[Action:Making connection to server]	[Remarks:Successful connection to server: S3]
[Date: 2020-10-01 07:50:13]	[UserID:06/343]	[IP:10.128.130.5]	[Browser:Chrome - 85.0.4183.121]	[Action:Filtering User : MasterData Username : 06/343]	[Remarks:Successful filter row count: 1]
[Date: 2020-10-01 07:50:14]	[UserID:06/343]	[IP:10.128.130.5]	[Browser:Chrome - 85.0.4183.121]	[Action:Making connection to server]	[Remarks:Successful connection to server: S3]
[Date: 2020-10-01 07:50:14]	[UserID:06/343]	[IP:10.128.130.5]	[Browser:Chrome - 85.0.4183.121]	[Action:GetGSTModules 06/343,1]	[Remarks:Successful filter row count: 7]
[Date: 2020-10-01 07:50:14]	[UserID:06/343]	[IP:10.128.130.5]	[Browser:Chrome - 85.0.4183.121]	[Action:Closing mssql connection]	[Remarks:Success]
[Date: 2020-10-01 07:50:19]	[UserID:06/343]	[IP:10.128.130.5]	[Browser:Chrome - 85.0.4183.121]	[Action:Making connection to server]	[Remarks:Successful connection to server: S3]
[Date: 2020-10-01 07:50:19]	[UserID:06/343]	[IP:10.128.130.5]	[Browser:Chrome - 85.0.4183.121]	[Action:GetGSTModules 06/343,1]	[Remarks:Successful filter row count: 7]
[Date: 2020-10-01 07:50:19]	[UserID:06/343]	[IP:10.128.130.5]	[Browser:Chrome - 85.0.4183.121]	[Action:Closing mssql connection]	[Remarks:Success]
[Date: 2020-10-01 07:53:25]	[UserID:06/343]	[IP:10.128.130.5]	[Browser:Chrome - 85.0.4183.121]	[Action:Making connection to server]	[Remarks:Successful connection to server: S3]
[Date: 2020-10-01 07:53:25]	[UserID:06/343]	[IP:10.128.130.5]	[Browser:Chrome - 85.0.4183.121]	[Action:GetGSTModules 06/343,1]	[Remarks:Successful filter row count: 7]
[Date: 2020-10-01 07:53:25]	[UserID:06/343]	[IP:10.128.130.5]	[Browser:Chrome - 85.0.4183.121]	[Action:Closing mssql connection]	[Remarks:Success]
[Date: 2020-10-01 08:14:23]	[UserID:]	[IP:10.128.130.5]	[Browser:Chrome - 85.0.4183.121]	[Action:Making connection to server]	[Remarks:Successful connection to server: S3]
[Date: 2020-10-01 08:14:23]	[UserID:]	[IP:10.128.130.5]	[Browser:Chrome - 85.0.4183.121]	[Action:GetProgramList ]	[Remarks:"no data"]
[Date: 2020-10-01 11:49:50]	[UserID:]	[IP:10.128.130.5]	[Browser:Firefox - 81.0]	[Action:Making connection to server]	[Remarks:Successful connection to server: S3]
[Date: 2020-10-01 11:49:50]	[UserID:]	[IP:10.128.130.5]	[Browser:Firefox - 81.0]	[Action:GetProgramList ]	[Remarks:"no data"]
[Date: 2020-10-01 12:06:15]	[UserID:]	[IP:10.128.130.5]	[Browser:Chrome - 85.0.4183.121]	[Action:Making connection to server]	[Remarks:Successful connection to server: S3]
[Date: 2020-10-01 12:06:15]	[UserID:]	[IP:10.128.130.5]	[Browser:Chrome - 85.0.4183.121]	[Action:GetProgramList ]	[Remarks:"no data"]
[Date: 2020-10-01 12:06:23]	[UserID:06/343]	[IP:10.128.130.5]	[Browser:Chrome - 85.0.4183.121]	[Action:Making connection to server]	[Remarks:Successful connection to server: S3]
[Date: 2020-10-01 12:06:23]	[UserID:06/343]	[IP:10.128.130.5]	[Browser:Chrome - 85.0.4183.121]	[Action:User 06/343]	[Remarks:Success]
[Date: 2020-10-01 12:06:23]	[UserID:06/343]	[IP:10.128.130.5]	[Browser:Chrome - 85.0.4183.121]	[Action:Filtering User : MasterData Username : 06/343]	[Remarks:Successful filter row count: 0]
[Date: 2020-10-01 12:06:23]	[UserID:06/343]	[IP:10.128.130.5]	[Browser:Chrome - 85.0.4183.121]	[Action:Filtering User : MasterData Username : 06/343]	[Remarks:Successful filter row count: 0]
[Date: 2020-10-01 12:06:23]	[UserID:06/343]	[IP:10.128.130.5]	[Browser:Chrome - 85.0.4183.121]	[Action:Filtering User : MasterData Username : 06/343]	[Remarks:Success]
[Date: 2020-10-01 12:06:23]	[UserID:06/343]	[IP:10.128.130.5]	[Browser:Chrome - 85.0.4183.121]	[Action:Closing mssql connection]	[Remarks:Success]
[Date: 2020-10-01 12:06:24]	[UserID:06/343]	[IP:10.128.130.5]	[Browser:Chrome - 85.0.4183.121]	[Action:Making connection to server]	[Remarks:Successful connection to server: S3]
[Date: 2020-10-01 12:06:24]	[UserID:06/343]	[IP:10.128.130.5]	[Browser:Chrome - 85.0.4183.121]	[Action:GetProgramList 06/343]	[Remarks:[{"ID":"1","ProgramIndex":"GST","ProgramName":"GST"}]]
[Date: 2020-10-01 12:06:24]	[UserID:06/343]	[IP:10.128.130.5]	[Browser:Chrome - 85.0.4183.121]	[Action:Making connection to server]	[Remarks:Successful connection to server: S3]
[Date: 2020-10-01 12:06:24]	[UserID:06/343]	[IP:10.128.130.5]	[Browser:Chrome - 85.0.4183.121]	[Action:GetProgramList 06/343]	[Remarks:[{"ID":"1","ProgramIndex":"GST","ProgramName":"GST"}]]
[Date: 2020-10-01 12:06:24]	[UserID:06/343]	[IP:10.128.130.5]	[Browser:Chrome - 85.0.4183.121]	[Action:Making connection to server]	[Remarks:Successful connection to server: S3]
[Date: 2020-10-01 12:06:24]	[UserID:06/343]	[IP:10.128.130.5]	[Browser:Chrome - 85.0.4183.121]	[Action:Filtering User : MasterData Username : 06/343]	[Remarks:Successful filter row count: 1]
[Date: 2020-10-01 12:06:24]	[UserID:06/343]	[IP:10.128.130.5]	[Browser:Chrome - 85.0.4183.121]	[Action:Making connection to server]	[Remarks:Successful connection to server: S3]
[Date: 2020-10-01 12:06:24]	[UserID:06/343]	[IP:10.128.130.5]	[Browser:Chrome - 85.0.4183.121]	[Action:GetGSTModules 06/343,1]	[Remarks:Successful filter row count: 7]
[Date: 2020-10-01 12:06:24]	[UserID:06/343]	[IP:10.128.130.5]	[Browser:Chrome - 85.0.4183.121]	[Action:Closing mssql connection]	[Remarks:Success]
[Date: 2020-10-01 12:43:04]	[UserID:06/343]	[IP:10.128.130.5]	[Browser:Chrome - 85.0.4183.121]	[Action:Making connection to server]	[Remarks:Successful connection to server: S3]
[Date: 2020-10-01 12:43:04]	[UserID:06/343]	[IP:10.128.130.5]	[Browser:Chrome - 85.0.4183.121]	[Action:GetGSTModules 06/343,1]	[Remarks:Successful filter row count: 7]
[Date: 2020-10-01 12:43:04]	[UserID:06/343]	[IP:10.128.130.5]	[Browser:Chrome - 85.0.4183.121]	[Action:Closing mssql connection]	[Remarks:Success]
[Date: 2020-10-01 13:17:24]	[UserID:06/343]	[IP:10.128.130.5]	[Browser:Chrome - 85.0.4183.121]	[Action:Making connection to server]	[Remarks:Successful connection to server: S3]
[Date: 2020-10-01 13:17:24]	[UserID:06/343]	[IP:10.128.130.5]	[Browser:Chrome - 85.0.4183.121]	[Action:GetGSTModules 06/343,1]	[Remarks:Successful filter row count: 7]
[Date: 2020-10-01 13:17:24]	[UserID:06/343]	[IP:10.128.130.5]	[Browser:Chrome - 85.0.4183.121]	[Action:Closing mssql connection]	[Remarks:Success]
[Date: 2020-10-01 13:44:18]	[UserID:06/343]	[IP:10.128.130.5]	[Browser:Chrome - 85.0.4183.121]	[Action:Making connection to server]	[Remarks:Successful connection to server: S3]
[Date: 2020-10-01 13:44:18]	[UserID:06/343]	[IP:10.128.130.5]	[Browser:Chrome - 85.0.4183.121]	[Action:GetGSTModules 06/343,1]	[Remarks:Successful filter row count: 7]
[Date: 2020-10-01 13:44:18]	[UserID:06/343]	[IP:10.128.130.5]	[Browser:Chrome - 85.0.4183.121]	[Action:Closing mssql connection]	[Remarks:Success]
[Date: 2020-10-01 14:00:04]	[UserID:]	[IP:10.128.130.5]	[Browser:Chrome - 85.0.4183.121]	[Action:Making connection to server]	[Remarks:Successful connection to server: S3]
[Date: 2020-10-01 14:00:04]	[UserID:]	[IP:10.128.130.5]	[Browser:Chrome - 85.0.4183.121]	[Action:GetProgramList ]	[Remarks:"no data"]
[Date: 2020-10-01 14:00:05]	[UserID:]	[IP:10.128.130.5]	[Browser:Chrome - 85.0.4183.121]	[Action:Making connection to server]	[Remarks:Successful connection to server: S3]
[Date: 2020-10-01 14:00:05]	[UserID:]	[IP:10.128.130.5]	[Browser:Chrome - 85.0.4183.121]	[Action:GetProgramList ]	[Remarks:"no data"]
[Date: 2020-10-01 14:00:12]	[UserID:dev/rjrodriguez]	[IP:10.128.130.5]	[Browser:Chrome - 85.0.4183.121]	[Action:Making connection to server]	[Remarks:Successful connection to server: S3]
[Date: 2020-10-01 14:00:12]	[UserID:dev/rjrodriguez]	[IP:10.128.130.5]	[Browser:Chrome - 85.0.4183.121]	[Action:User dev/rjrodriguez]	[Remarks:Success]
[Date: 2020-10-01 14:00:12]	[UserID:dev/rjrodriguez]	[IP:10.128.130.5]	[Browser:Chrome - 85.0.4183.121]	[Action:Filtering User : MasterData Username : dev/rjrodriguez]	[Remarks:Successful filter row count: 0]
[Date: 2020-10-01 14:00:12]	[UserID:dev/rjrodriguez]	[IP:10.128.130.5]	[Browser:Chrome - 85.0.4183.121]	[Action:Filtering User : MasterData Username : dev/rjrodriguez]	[Remarks:Successful filter row count: 0]
[Date: 2020-10-01 14:00:12]	[UserID:dev/rjrodriguez]	[IP:10.128.130.5]	[Browser:Chrome - 85.0.4183.121]	[Action:Filtering User : MasterData Username : dev/rjrodriguez]	[Remarks:Success]
[Date: 2020-10-01 14:00:12]	[UserID:dev/rjrodriguez]	[IP:10.128.130.5]	[Browser:Chrome - 85.0.4183.121]	[Action:Closing mssql connection]	[Remarks:Success]
[Date: 2020-10-01 14:00:12]	[UserID:dev/rjrodriguez]	[IP:10.128.130.5]	[Browser:Chrome - 85.0.4183.121]	[Action:Making connection to server]	[Remarks:Successful connection to server: S3]
[Date: 2020-10-01 14:00:14]	[UserID:dev/rjrodriguez]	[IP:10.128.130.5]	[Browser:Chrome - 85.0.4183.121]	[Action:GetProgramList dev/rjrodriguez]	[Remarks:[{"ID":"1","ProgramIndex":"GST","ProgramName":"GST"},{"ID":"3","ProgramIndex":"PRD","ProgramName":"PRD"}]]
[Date: 2020-10-01 14:00:14]	[UserID:dev/rjrodriguez]	[IP:10.128.130.5]	[Browser:Chrome - 85.0.4183.121]	[Action:Making connection to server]	[Remarks:Successful connection to server: S3]
[Date: 2020-10-01 14:00:14]	[UserID:dev/rjrodriguez]	[IP:10.128.130.5]	[Browser:Chrome - 85.0.4183.121]	[Action:GetProgramList dev/rjrodriguez]	[Remarks:[{"ID":"1","ProgramIndex":"GST","ProgramName":"GST"},{"ID":"3","ProgramIndex":"PRD","ProgramName":"PRD"}]]
[Date: 2020-10-01 14:00:14]	[UserID:dev/rjrodriguez]	[IP:10.128.130.5]	[Browser:Chrome - 85.0.4183.121]	[Action:Making connection to server]	[Remarks:Successful connection to server: S3]
[Date: 2020-10-01 14:00:14]	[UserID:dev/rjrodriguez]	[IP:10.128.130.5]	[Browser:Chrome - 85.0.4183.121]	[Action:Filtering User : MasterData Username : dev/rjrodriguez]	[Remarks:Successful filter row count: 1]
[Date: 2020-10-01 14:00:30]	[UserID:dev/rjrodriguez]	[IP:10.128.130.5]	[Browser:Chrome - 85.0.4183.121]	[Action:Making connection to server]	[Remarks:Successful connection to server: S3]
[Date: 2020-10-01 14:00:30]	[UserID:dev/rjrodriguez]	[IP:10.128.130.5]	[Browser:Chrome - 85.0.4183.121]	[Action:GetGSTModules dev/rjrodriguez,1]	[Remarks:Successful filter row count: 12]
[Date: 2020-10-01 14:00:30]	[UserID:dev/rjrodriguez]	[IP:10.128.130.5]	[Browser:Chrome - 85.0.4183.121]	[Action:Closing mssql connection]	[Remarks:Success]
[Date: 2020-10-01 14:50:15]	[UserID:dev/rjrodriguez]	[IP:10.128.130.5]	[Browser:Chrome - 85.0.4183.121]	[Action:Making connection to server]	[Remarks:Successful connection to server: S3]
[Date: 2020-10-01 14:50:15]	[UserID:dev/rjrodriguez]	[IP:10.128.130.5]	[Browser:Chrome - 85.0.4183.121]	[Action:GetProgramList dev/rjrodriguez]	[Remarks:[{"ID":"1","ProgramIndex":"GST","ProgramName":"GST"},{"ID":"3","ProgramIndex":"PRD","ProgramName":"PRD"}]]
[Date: 2020-10-01 14:50:15]	[UserID:dev/rjrodriguez]	[IP:10.128.130.5]	[Browser:Chrome - 85.0.4183.121]	[Action:Making connection to server]	[Remarks:Successful connection to server: S3]
[Date: 2020-10-01 14:50:15]	[UserID:dev/rjrodriguez]	[IP:10.128.130.5]	[Browser:Chrome - 85.0.4183.121]	[Action:GetProgramList dev/rjrodriguez]	[Remarks:[{"ID":"1","ProgramIndex":"GST","ProgramName":"GST"},{"ID":"3","ProgramIndex":"PRD","ProgramName":"PRD"}]]
[Date: 2020-10-01 14:50:15]	[UserID:dev/rjrodriguez]	[IP:10.128.130.5]	[Browser:Chrome - 85.0.4183.121]	[Action:Making connection to server]	[Remarks:Successful connection to server: S3]
[Date: 2020-10-01 14:50:15]	[UserID:dev/rjrodriguez]	[IP:10.128.130.5]	[Browser:Chrome - 85.0.4183.121]	[Action:Filtering User : MasterData Username : dev/rjrodriguez]	[Remarks:Successful filter row count: 1]
[Date: 2020-10-01 14:50:19]	[UserID:dev/rjrodriguez]	[IP:10.128.130.5]	[Browser:Chrome - 85.0.4183.121]	[Action:Making connection to server]	[Remarks:Successful connection to server: S3]
[Date: 2020-10-01 14:50:19]	[UserID:dev/rjrodriguez]	[IP:10.128.130.5]	[Browser:Chrome - 85.0.4183.121]	[Action:GetGSTModules dev/rjrodriguez,1]	[Remarks:Successful filter row count: 12]
[Date: 2020-10-01 14:50:19]	[UserID:dev/rjrodriguez]	[IP:10.128.130.5]	[Browser:Chrome - 85.0.4183.121]	[Action:Closing mssql connection]	[Remarks:Success]
[Date: 2020-10-01 15:37:10]	[UserID:06/343]	[IP:10.128.130.5]	[Browser:Chrome - 85.0.4183.121]	[Action:Making connection to server]	[Remarks:Successful connection to server: S3]
[Date: 2020-10-01 15:37:10]	[UserID:06/343]	[IP:10.128.130.5]	[Browser:Chrome - 85.0.4183.121]	[Action:GetGSTModules 06/343,1]	[Remarks:Successful filter row count: 7]
[Date: 2020-10-01 15:37:10]	[UserID:06/343]	[IP:10.128.130.5]	[Browser:Chrome - 85.0.4183.121]	[Action:Closing mssql connection]	[Remarks:Success]
[Date: 2020-10-01 15:45:45]	[UserID:06/343]	[IP:10.128.130.5]	[Browser:Chrome - 85.0.4183.121]	[Action:Making connection to server]	[Remarks:Successful connection to server: S3]
[Date: 2020-10-01 15:45:45]	[UserID:06/343]	[IP:10.128.130.5]	[Browser:Chrome - 85.0.4183.121]	[Action:GetGSTModules 06/343,1]	[Remarks:Successful filter row count: 7]
[Date: 2020-10-01 15:45:45]	[UserID:06/343]	[IP:10.128.130.5]	[Browser:Chrome - 85.0.4183.121]	[Action:Closing mssql connection]	[Remarks:Success]
[Date: 2020-10-01 18:14:02]	[UserID:]	[IP:10.128.80.168]	[Browser:Chrome - 85.0.4183.121]	[Action:Making connection to server]	[Remarks:Successful connection to server: S3]
[Date: 2020-10-01 18:14:02]	[UserID:]	[IP:10.128.80.168]	[Browser:Chrome - 85.0.4183.121]	[Action:GetProgramList ]	[Remarks:"no data"]
[Date: 2020-10-01 23:03:03]	[UserID:]	[IP:10.128.130.5]	[Browser:Chrome - 85.0.4183.121]	[Action:Making connection to server]	[Remarks:Successful connection to server: S3]
[Date: 2020-10-01 23:03:03]	[UserID:]	[IP:10.128.130.5]	[Browser:Chrome - 85.0.4183.121]	[Action:GetProgramList ]	[Remarks:"no data"]
