[Date: 2015-07-29 07:45:50]	[UserID:]	[IP:10.10.11.1]	[Browser:Chrome - 44.0.2403.107]	[Action:Making connection to server]	[Remarks:Successful connection to server: S3]
[Date: 2015-07-29 07:45:50]	[UserID:]	[IP:10.10.11.1]	[Browser:Chrome - 44.0.2403.107]	[Action:GetProgramList ]	[Remarks:"no data"]
[Date: 2015-07-29 07:45:58]	[UserID:]	[IP:10.10.11.1]	[Browser:Chrome - 44.0.2403.107]	[Action:Making connection to server]	[Remarks:Successful connection to server: S3]
[Date: 2015-07-29 07:45:58]	[UserID:]	[IP:10.10.11.1]	[Browser:Chrome - 44.0.2403.107]	[Action:GetProgramList ]	[Remarks:"no data"]
[Date: 2015-07-29 07:45:59]	[UserID:]	[IP:10.10.11.1]	[Browser:Chrome - 44.0.2403.107]	[Action:Making connection to server]	[Remarks:Successful connection to server: S3]
[Date: 2015-07-29 07:45:59]	[UserID:]	[IP:10.10.11.1]	[Browser:Chrome - 44.0.2403.107]	[Action:GetProgramList ]	[Remarks:"no data"]
[Date: 2015-07-29 07:53:25]	[UserID:06/343]	[IP:10.10.11.1]	[Browser:Chrome - 44.0.2403.107]	[Action:Making connection to server]	[Remarks:Successful connection to server: S3]
[Date: 2015-07-29 07:53:25]	[UserID:06/343]	[IP:10.10.11.1]	[Browser:Chrome - 44.0.2403.107]	[Action:User 06/343]	[Remarks:Success]
[Date: 2015-07-29 07:53:25]	[UserID:06/343]	[IP:10.10.11.1]	[Browser:Chrome - 44.0.2403.107]	[Action:Filtering User : MasterData Username : 06/343]	[Remarks:Successful filter row count: 0]
[Date: 2015-07-29 07:53:25]	[UserID:06/343]	[IP:10.10.11.1]	[Browser:Chrome - 44.0.2403.107]	[Action:Filtering User : MasterData Username : 06/343]	[Remarks:Successful filter row count: 0]
[Date: 2015-07-29 07:53:25]	[UserID:06/343]	[IP:10.10.11.1]	[Browser:Chrome - 44.0.2403.107]	[Action:Filtering User : MasterData Username : 06/343]	[Remarks:Success]
[Date: 2015-07-29 07:53:25]	[UserID:06/343]	[IP:10.10.11.1]	[Browser:Chrome - 44.0.2403.107]	[Action:Closing mssql connection]	[Remarks:Success]
[Date: 2015-07-29 07:53:26]	[UserID:06/343]	[IP:10.10.11.1]	[Browser:Chrome - 44.0.2403.107]	[Action:Making connection to server]	[Remarks:Successful connection to server: S3]
[Date: 2015-07-29 07:53:26]	[UserID:06/343]	[IP:10.10.11.1]	[Browser:Chrome - 44.0.2403.107]	[Action:GetProgramList 06/343]	[Remarks:[{"ID":"1","ProgramIndex":"GST","ProgramName":"GST"}]]
[Date: 2015-07-29 07:53:26]	[UserID:06/343]	[IP:10.10.11.1]	[Browser:Chrome - 44.0.2403.107]	[Action:Making connection to server]	[Remarks:Successful connection to server: S3]
[Date: 2015-07-29 07:53:26]	[UserID:06/343]	[IP:10.10.11.1]	[Browser:Chrome - 44.0.2403.107]	[Action:GetProgramList 06/343]	[Remarks:[{"ID":"1","ProgramIndex":"GST","ProgramName":"GST"}]]
[Date: 2015-07-29 07:53:26]	[UserID:06/343]	[IP:10.10.11.1]	[Browser:Chrome - 44.0.2403.107]	[Action:Making connection to server]	[Remarks:Successful connection to server: S3]
[Date: 2015-07-29 07:53:26]	[UserID:06/343]	[IP:10.10.11.1]	[Browser:Chrome - 44.0.2403.107]	[Action:Filtering User : MasterData Username : 06/343]	[Remarks:Successful filter row count: 1]
[Date: 2015-07-29 07:53:27]	[UserID:06/343]	[IP:10.10.11.1]	[Browser:Chrome - 44.0.2403.107]	[Action:Making connection to server]	[Remarks:Successful connection to server: S3]
[Date: 2015-07-29 07:53:27]	[UserID:06/343]	[IP:10.10.11.1]	[Browser:Chrome - 44.0.2403.107]	[Action:GetGSTModules 06/343,1]	[Remarks:Successful filter row count: 5]
[Date: 2015-07-29 07:53:27]	[UserID:06/343]	[IP:10.10.11.1]	[Browser:Chrome - 44.0.2403.107]	[Action:Closing mssql connection]	[Remarks:Success]
[Date: 2015-07-29 08:19:24]	[UserID:06/343]	[IP:10.10.11.1]	[Browser:Chrome - 44.0.2403.107]	[Action:Making connection to server]	[Remarks:Successful connection to server: S3]
[Date: 2015-07-29 08:19:24]	[UserID:06/343]	[IP:10.10.11.1]	[Browser:Chrome - 44.0.2403.107]	[Action:GetGSTModules 06/343,1]	[Remarks:Successful filter row count: 5]
[Date: 2015-07-29 08:19:24]	[UserID:06/343]	[IP:10.10.11.1]	[Browser:Chrome - 44.0.2403.107]	[Action:Closing mssql connection]	[Remarks:Success]
[Date: 2015-07-29 08:21:01]	[UserID:]	[IP:10.10.11.1]	[Browser:Chrome - 44.0.2403.107]	[Action:Making connection to server]	[Remarks:Successful connection to server: S3]
[Date: 2015-07-29 08:21:01]	[UserID:]	[IP:10.10.11.1]	[Browser:Chrome - 44.0.2403.107]	[Action:GetProgramList ]	[Remarks:"no data"]
[Date: 2015-07-29 08:21:04]	[UserID:06/371]	[IP:10.10.11.1]	[Browser:Chrome - 44.0.2403.107]	[Action:Making connection to server]	[Remarks:Successful connection to server: S3]
[Date: 2015-07-29 08:21:04]	[UserID:06/371]	[IP:10.10.11.1]	[Browser:Chrome - 44.0.2403.107]	[Action:User 06/371]	[Remarks:Success]
[Date: 2015-07-29 08:21:04]	[UserID:06/371]	[IP:10.10.11.1]	[Browser:Chrome - 44.0.2403.107]	[Action:Filtering User : MasterData Username : 06/371]	[Remarks:Successful filter row count: 0]
[Date: 2015-07-29 08:21:04]	[UserID:06/371]	[IP:10.10.11.1]	[Browser:Chrome - 44.0.2403.107]	[Action:Filtering User : MasterData Username : 06/371]	[Remarks:Successful filter row count: 0]
[Date: 2015-07-29 08:21:04]	[UserID:06/371]	[IP:10.10.11.1]	[Browser:Chrome - 44.0.2403.107]	[Action:Filtering User : MasterData Username : 06/371]	[Remarks:Success]
[Date: 2015-07-29 08:21:04]	[UserID:06/371]	[IP:10.10.11.1]	[Browser:Chrome - 44.0.2403.107]	[Action:Closing mssql connection]	[Remarks:Success]
[Date: 2015-07-29 08:21:04]	[UserID:06/371]	[IP:10.10.11.1]	[Browser:Chrome - 44.0.2403.107]	[Action:Making connection to server]	[Remarks:Successful connection to server: S3]
[Date: 2015-07-29 08:21:04]	[UserID:06/371]	[IP:10.10.11.1]	[Browser:Chrome - 44.0.2403.107]	[Action:GetProgramList 06/371]	[Remarks:[{"ID":"1","ProgramIndex":"GST","ProgramName":"GST"}]]
[Date: 2015-07-29 08:21:04]	[UserID:06/371]	[IP:10.10.11.1]	[Browser:Chrome - 44.0.2403.107]	[Action:Making connection to server]	[Remarks:Successful connection to server: S3]
[Date: 2015-07-29 08:21:04]	[UserID:06/371]	[IP:10.10.11.1]	[Browser:Chrome - 44.0.2403.107]	[Action:GetProgramList 06/371]	[Remarks:[{"ID":"1","ProgramIndex":"GST","ProgramName":"GST"}]]
[Date: 2015-07-29 08:21:04]	[UserID:06/371]	[IP:10.10.11.1]	[Browser:Chrome - 44.0.2403.107]	[Action:Making connection to server]	[Remarks:Successful connection to server: S3]
[Date: 2015-07-29 08:21:04]	[UserID:06/371]	[IP:10.10.11.1]	[Browser:Chrome - 44.0.2403.107]	[Action:Filtering User : MasterData Username : 06/371]	[Remarks:Successful filter row count: 1]
[Date: 2015-07-29 08:21:05]	[UserID:06/371]	[IP:10.10.11.1]	[Browser:Chrome - 44.0.2403.107]	[Action:Making connection to server]	[Remarks:Successful connection to server: S3]
[Date: 2015-07-29 08:21:05]	[UserID:06/371]	[IP:10.10.11.1]	[Browser:Chrome - 44.0.2403.107]	[Action:GetGSTModules 06/371,1]	[Remarks:Successful filter row count: 5]
[Date: 2015-07-29 08:21:05]	[UserID:06/371]	[IP:10.10.11.1]	[Browser:Chrome - 44.0.2403.107]	[Action:Closing mssql connection]	[Remarks:Success]
[Date: 2015-07-29 08:25:10]	[UserID:06/343]	[IP:10.10.11.1]	[Browser:Chrome - 44.0.2403.107]	[Action:Making connection to server]	[Remarks:Successful connection to server: S3]
[Date: 2015-07-29 08:25:10]	[UserID:06/343]	[IP:10.10.11.1]	[Browser:Chrome - 44.0.2403.107]	[Action:GetGSTModules 06/343,1]	[Remarks:Successful filter row count: 5]
[Date: 2015-07-29 08:25:10]	[UserID:06/343]	[IP:10.10.11.1]	[Browser:Chrome - 44.0.2403.107]	[Action:Closing mssql connection]	[Remarks:Success]
[Date: 2015-07-29 08:28:55]	[UserID:06/371]	[IP:10.10.11.1]	[Browser:Chrome - 44.0.2403.107]	[Action:Making connection to server]	[Remarks:Successful connection to server: S3]
[Date: 2015-07-29 08:28:55]	[UserID:06/371]	[IP:10.10.11.1]	[Browser:Chrome - 44.0.2403.107]	[Action:GetGSTModules 06/371,1]	[Remarks:Successful filter row count: 5]
[Date: 2015-07-29 08:28:55]	[UserID:06/371]	[IP:10.10.11.1]	[Browser:Chrome - 44.0.2403.107]	[Action:Closing mssql connection]	[Remarks:Success]
[Date: 2015-07-29 08:29:17]	[UserID:06/371]	[IP:10.10.11.1]	[Browser:Chrome - 44.0.2403.107]	[Action:Making connection to server]	[Remarks:Successful connection to server: S3]
[Date: 2015-07-29 08:29:17]	[UserID:06/371]	[IP:10.10.11.1]	[Browser:Chrome - 44.0.2403.107]	[Action:GetGSTModules 06/371,1]	[Remarks:Successful filter row count: 5]
[Date: 2015-07-29 08:29:17]	[UserID:06/371]	[IP:10.10.11.1]	[Browser:Chrome - 44.0.2403.107]	[Action:Closing mssql connection]	[Remarks:Success]
[Date: 2015-07-29 08:29:38]	[UserID:]	[IP:10.10.11.1]	[Browser:Chrome - 44.0.2403.107]	[Action:Making connection to server]	[Remarks:Successful connection to server: S3]
[Date: 2015-07-29 08:29:38]	[UserID:]	[IP:10.10.11.1]	[Browser:Chrome - 44.0.2403.107]	[Action:GetProgramList ]	[Remarks:"no data"]
[Date: 2015-07-29 08:29:40]	[UserID:11/715]	[IP:10.10.11.1]	[Browser:Chrome - 44.0.2403.107]	[Action:Making connection to server]	[Remarks:Successful connection to server: S3]
[Date: 2015-07-29 08:29:40]	[UserID:11/715]	[IP:10.10.11.1]	[Browser:Chrome - 44.0.2403.107]	[Action:User 11/715]	[Remarks:Success]
[Date: 2015-07-29 08:29:40]	[UserID:11/715]	[IP:10.10.11.1]	[Browser:Chrome - 44.0.2403.107]	[Action:Filtering User : MasterData Username : 11/715]	[Remarks:Successful filter row count: 0]
[Date: 2015-07-29 08:29:40]	[UserID:11/715]	[IP:10.10.11.1]	[Browser:Chrome - 44.0.2403.107]	[Action:Filtering User : MasterData Username : 11/715]	[Remarks:Successful filter row count: 0]
[Date: 2015-07-29 08:29:40]	[UserID:11/715]	[IP:10.10.11.1]	[Browser:Chrome - 44.0.2403.107]	[Action:Filtering User : MasterData Username : 11/715]	[Remarks:Success]
[Date: 2015-07-29 08:29:40]	[UserID:11/715]	[IP:10.10.11.1]	[Browser:Chrome - 44.0.2403.107]	[Action:Closing mssql connection]	[Remarks:Success]
[Date: 2015-07-29 08:29:40]	[UserID:11/715]	[IP:10.10.11.1]	[Browser:Chrome - 44.0.2403.107]	[Action:Making connection to server]	[Remarks:Successful connection to server: S3]
[Date: 2015-07-29 08:29:40]	[UserID:11/715]	[IP:10.10.11.1]	[Browser:Chrome - 44.0.2403.107]	[Action:GetProgramList 11/715]	[Remarks:[{"ID":"1","ProgramIndex":"GST","ProgramName":"GST"}]]
[Date: 2015-07-29 08:29:40]	[UserID:11/715]	[IP:10.10.11.1]	[Browser:Chrome - 44.0.2403.107]	[Action:Making connection to server]	[Remarks:Successful connection to server: S3]
[Date: 2015-07-29 08:29:40]	[UserID:11/715]	[IP:10.10.11.1]	[Browser:Chrome - 44.0.2403.107]	[Action:GetProgramList 11/715]	[Remarks:[{"ID":"1","ProgramIndex":"GST","ProgramName":"GST"}]]
[Date: 2015-07-29 08:29:40]	[UserID:11/715]	[IP:10.10.11.1]	[Browser:Chrome - 44.0.2403.107]	[Action:Making connection to server]	[Remarks:Successful connection to server: S3]
[Date: 2015-07-29 08:29:40]	[UserID:11/715]	[IP:10.10.11.1]	[Browser:Chrome - 44.0.2403.107]	[Action:Filtering User : MasterData Username : 11/715]	[Remarks:Successful filter row count: 1]
[Date: 2015-07-29 08:29:41]	[UserID:11/715]	[IP:10.10.11.1]	[Browser:Chrome - 44.0.2403.107]	[Action:Making connection to server]	[Remarks:Successful connection to server: S3]
[Date: 2015-07-29 08:29:41]	[UserID:11/715]	[IP:10.10.11.1]	[Browser:Chrome - 44.0.2403.107]	[Action:GetGSTModules 11/715,1]	[Remarks:Successful filter row count: 3]
[Date: 2015-07-29 08:29:41]	[UserID:11/715]	[IP:10.10.11.1]	[Browser:Chrome - 44.0.2403.107]	[Action:Closing mssql connection]	[Remarks:Success]
[Date: 2015-07-29 08:30:39]	[UserID:06/371]	[IP:10.10.11.1]	[Browser:Chrome - 44.0.2403.107]	[Action:Making connection to server]	[Remarks:Successful connection to server: S3]
[Date: 2015-07-29 08:30:39]	[UserID:06/371]	[IP:10.10.11.1]	[Browser:Chrome - 44.0.2403.107]	[Action:GetGSTModules 06/371,1]	[Remarks:Successful filter row count: 5]
[Date: 2015-07-29 08:30:39]	[UserID:06/371]	[IP:10.10.11.1]	[Browser:Chrome - 44.0.2403.107]	[Action:Closing mssql connection]	[Remarks:Success]
[Date: 2015-07-29 08:30:54]	[UserID:06/371]	[IP:10.10.11.1]	[Browser:Chrome - 44.0.2403.107]	[Action:Making connection to server]	[Remarks:Successful connection to server: S3]
[Date: 2015-07-29 08:30:54]	[UserID:06/371]	[IP:10.10.11.1]	[Browser:Chrome - 44.0.2403.107]	[Action:GetGSTModules 06/371,1]	[Remarks:Successful filter row count: 5]
[Date: 2015-07-29 08:30:54]	[UserID:06/371]	[IP:10.10.11.1]	[Browser:Chrome - 44.0.2403.107]	[Action:Closing mssql connection]	[Remarks:Success]
[Date: 2015-07-29 08:31:19]	[UserID:11/715]	[IP:10.10.11.1]	[Browser:Chrome - 44.0.2403.107]	[Action:Making connection to server]	[Remarks:Successful connection to server: S3]
[Date: 2015-07-29 08:31:19]	[UserID:11/715]	[IP:10.10.11.1]	[Browser:Chrome - 44.0.2403.107]	[Action:GetGSTModules 11/715,1]	[Remarks:Successful filter row count: 3]
[Date: 2015-07-29 08:31:19]	[UserID:11/715]	[IP:10.10.11.1]	[Browser:Chrome - 44.0.2403.107]	[Action:Closing mssql connection]	[Remarks:Success]
[Date: 2015-07-29 08:32:44]	[UserID:11/715]	[IP:10.10.11.1]	[Browser:Chrome - 44.0.2403.107]	[Action:Making connection to server]	[Remarks:Successful connection to server: S3]
[Date: 2015-07-29 08:32:44]	[UserID:11/715]	[IP:10.10.11.1]	[Browser:Chrome - 44.0.2403.107]	[Action:GetGSTModules 11/715,1]	[Remarks:Successful filter row count: 3]
[Date: 2015-07-29 08:32:44]	[UserID:11/715]	[IP:10.10.11.1]	[Browser:Chrome - 44.0.2403.107]	[Action:Closing mssql connection]	[Remarks:Success]
[Date: 2015-07-29 08:34:02]	[UserID:06/371]	[IP:10.10.11.1]	[Browser:Chrome - 44.0.2403.107]	[Action:Making connection to server]	[Remarks:Successful connection to server: S3]
[Date: 2015-07-29 08:34:02]	[UserID:06/371]	[IP:10.10.11.1]	[Browser:Chrome - 44.0.2403.107]	[Action:GetGSTModules 06/371,1]	[Remarks:Successful filter row count: 5]
[Date: 2015-07-29 08:34:02]	[UserID:06/371]	[IP:10.10.11.1]	[Browser:Chrome - 44.0.2403.107]	[Action:Closing mssql connection]	[Remarks:Success]
[Date: 2015-07-29 08:39:23]	[UserID:06/371]	[IP:10.10.11.1]	[Browser:Chrome - 44.0.2403.107]	[Action:Making connection to server]	[Remarks:Successful connection to server: S3]
[Date: 2015-07-29 08:39:23]	[UserID:06/371]	[IP:10.10.11.1]	[Browser:Chrome - 44.0.2403.107]	[Action:GetGSTModules 06/371,1]	[Remarks:Successful filter row count: 5]
[Date: 2015-07-29 08:39:23]	[UserID:06/371]	[IP:10.10.11.1]	[Browser:Chrome - 44.0.2403.107]	[Action:Closing mssql connection]	[Remarks:Success]
[Date: 2015-07-29 08:41:28]	[UserID:06/371]	[IP:10.10.11.1]	[Browser:Chrome - 44.0.2403.107]	[Action:Making connection to server]	[Remarks:Successful connection to server: S3]
[Date: 2015-07-29 08:41:28]	[UserID:06/371]	[IP:10.10.11.1]	[Browser:Chrome - 44.0.2403.107]	[Action:GetGSTModules 06/371,1]	[Remarks:Successful filter row count: 5]
[Date: 2015-07-29 08:41:28]	[UserID:06/371]	[IP:10.10.11.1]	[Browser:Chrome - 44.0.2403.107]	[Action:Closing mssql connection]	[Remarks:Success]
[Date: 2015-07-29 08:41:42]	[UserID:06/371]	[IP:10.10.11.1]	[Browser:Chrome - 44.0.2403.107]	[Action:Making connection to server]	[Remarks:Successful connection to server: S3]
[Date: 2015-07-29 08:41:42]	[UserID:06/371]	[IP:10.10.11.1]	[Browser:Chrome - 44.0.2403.107]	[Action:GetGSTModules 06/371,1]	[Remarks:Successful filter row count: 5]
[Date: 2015-07-29 08:41:42]	[UserID:06/371]	[IP:10.10.11.1]	[Browser:Chrome - 44.0.2403.107]	[Action:Closing mssql connection]	[Remarks:Success]
[Date: 2015-07-29 08:42:26]	[UserID:06/343]	[IP:10.10.11.1]	[Browser:Chrome - 44.0.2403.107]	[Action:Making connection to server]	[Remarks:Successful connection to server: S3]
[Date: 2015-07-29 08:42:27]	[UserID:06/343]	[IP:10.10.11.1]	[Browser:Chrome - 44.0.2403.107]	[Action:GetGSTModules 06/343,1]	[Remarks:Successful filter row count: 5]
[Date: 2015-07-29 08:42:27]	[UserID:06/343]	[IP:10.10.11.1]	[Browser:Chrome - 44.0.2403.107]	[Action:Closing mssql connection]	[Remarks:Success]
[Date: 2015-07-29 08:43:05]	[UserID:06/371]	[IP:10.10.11.1]	[Browser:Chrome - 44.0.2403.107]	[Action:Making connection to server]	[Remarks:Successful connection to server: S3]
[Date: 2015-07-29 08:43:05]	[UserID:06/371]	[IP:10.10.11.1]	[Browser:Chrome - 44.0.2403.107]	[Action:GetGSTModules 06/371,1]	[Remarks:Successful filter row count: 5]
[Date: 2015-07-29 08:43:05]	[UserID:06/371]	[IP:10.10.11.1]	[Browser:Chrome - 44.0.2403.107]	[Action:Closing mssql connection]	[Remarks:Success]
[Date: 2015-07-29 08:43:49]	[UserID:06/343]	[IP:10.10.11.1]	[Browser:Chrome - 44.0.2403.107]	[Action:Making connection to server]	[Remarks:Successful connection to server: S3]
[Date: 2015-07-29 08:43:49]	[UserID:06/343]	[IP:10.10.11.1]	[Browser:Chrome - 44.0.2403.107]	[Action:GetGSTModules 06/343,1]	[Remarks:Successful filter row count: 5]
[Date: 2015-07-29 08:43:49]	[UserID:06/343]	[IP:10.10.11.1]	[Browser:Chrome - 44.0.2403.107]	[Action:Closing mssql connection]	[Remarks:Success]
[Date: 2015-07-29 08:50:03]	[UserID:06/343]	[IP:10.10.11.1]	[Browser:Chrome - 44.0.2403.107]	[Action:Making connection to server]	[Remarks:Successful connection to server: S3]
[Date: 2015-07-29 08:50:03]	[UserID:06/343]	[IP:10.10.11.1]	[Browser:Chrome - 44.0.2403.107]	[Action:GetGSTModules 06/343,1]	[Remarks:Successful filter row count: 5]
[Date: 2015-07-29 08:50:03]	[UserID:06/343]	[IP:10.10.11.1]	[Browser:Chrome - 44.0.2403.107]	[Action:Closing mssql connection]	[Remarks:Success]
[Date: 2015-07-29 08:51:33]	[UserID:06/343]	[IP:10.10.11.1]	[Browser:Chrome - 44.0.2403.107]	[Action:Making connection to server]	[Remarks:Successful connection to server: S3]
[Date: 2015-07-29 08:51:33]	[UserID:06/343]	[IP:10.10.11.1]	[Browser:Chrome - 44.0.2403.107]	[Action:GetGSTModules 06/343,1]	[Remarks:Successful filter row count: 5]
[Date: 2015-07-29 08:51:33]	[UserID:06/343]	[IP:10.10.11.1]	[Browser:Chrome - 44.0.2403.107]	[Action:Closing mssql connection]	[Remarks:Success]
[Date: 2015-07-29 08:51:36]	[UserID:06/371]	[IP:10.10.11.1]	[Browser:Chrome - 44.0.2403.107]	[Action:Making connection to server]	[Remarks:Successful connection to server: S3]
[Date: 2015-07-29 08:51:36]	[UserID:06/371]	[IP:10.10.11.1]	[Browser:Chrome - 44.0.2403.107]	[Action:GetGSTModules 06/371,1]	[Remarks:Successful filter row count: 5]
[Date: 2015-07-29 08:51:36]	[UserID:06/371]	[IP:10.10.11.1]	[Browser:Chrome - 44.0.2403.107]	[Action:Closing mssql connection]	[Remarks:Success]
[Date: 2015-07-29 08:53:22]	[UserID:06/343]	[IP:10.10.11.1]	[Browser:Chrome - 44.0.2403.107]	[Action:Making connection to server]	[Remarks:Successful connection to server: S3]
[Date: 2015-07-29 08:53:23]	[UserID:06/343]	[IP:10.10.11.1]	[Browser:Chrome - 44.0.2403.107]	[Action:GetGSTModules 06/343,1]	[Remarks:Successful filter row count: 5]
[Date: 2015-07-29 08:53:23]	[UserID:06/343]	[IP:10.10.11.1]	[Browser:Chrome - 44.0.2403.107]	[Action:Closing mssql connection]	[Remarks:Success]
[Date: 2015-07-29 08:59:11]	[UserID:06/343]	[IP:10.10.11.1]	[Browser:Chrome - 44.0.2403.107]	[Action:Making connection to server]	[Remarks:Successful connection to server: S3]
[Date: 2015-07-29 08:59:11]	[UserID:06/343]	[IP:10.10.11.1]	[Browser:Chrome - 44.0.2403.107]	[Action:GetGSTModules 06/343,1]	[Remarks:Successful filter row count: 5]
[Date: 2015-07-29 08:59:11]	[UserID:06/343]	[IP:10.10.11.1]	[Browser:Chrome - 44.0.2403.107]	[Action:Closing mssql connection]	[Remarks:Success]
[Date: 2015-07-29 09:00:55]	[UserID:06/343]	[IP:10.10.11.1]	[Browser:Chrome - 44.0.2403.107]	[Action:Making connection to server]	[Remarks:Successful connection to server: S3]
[Date: 2015-07-29 09:00:55]	[UserID:06/343]	[IP:10.10.11.1]	[Browser:Chrome - 44.0.2403.107]	[Action:GetGSTModules 06/343,1]	[Remarks:Successful filter row count: 5]
[Date: 2015-07-29 09:00:55]	[UserID:06/343]	[IP:10.10.11.1]	[Browser:Chrome - 44.0.2403.107]	[Action:Closing mssql connection]	[Remarks:Success]
[Date: 2015-07-29 09:04:34]	[UserID:06/343]	[IP:10.10.11.1]	[Browser:Chrome - 44.0.2403.107]	[Action:Making connection to server]	[Remarks:Successful connection to server: S3]
[Date: 2015-07-29 09:04:34]	[UserID:06/343]	[IP:10.10.11.1]	[Browser:Chrome - 44.0.2403.107]	[Action:GetGSTModules 06/343,1]	[Remarks:Successful filter row count: 5]
[Date: 2015-07-29 09:04:34]	[UserID:06/343]	[IP:10.10.11.1]	[Browser:Chrome - 44.0.2403.107]	[Action:Closing mssql connection]	[Remarks:Success]
[Date: 2015-07-29 09:32:13]	[UserID:]	[IP:10.10.11.1]	[Browser:Chrome - 44.0.2403.107]	[Action:Making connection to server]	[Remarks:Successful connection to server: S3]
[Date: 2015-07-29 09:32:13]	[UserID:]	[IP:10.10.11.1]	[Browser:Chrome - 44.0.2403.107]	[Action:GetProgramList ]	[Remarks:"no data"]
[Date: 2015-07-29 09:32:16]	[UserID:10/660]	[IP:10.10.11.1]	[Browser:Chrome - 44.0.2403.107]	[Action:Making connection to server]	[Remarks:Successful connection to server: S3]
[Date: 2015-07-29 09:32:16]	[UserID:10/660]	[IP:10.10.11.1]	[Browser:Chrome - 44.0.2403.107]	[Action:User 10/660]	[Remarks:Success]
[Date: 2015-07-29 09:32:16]	[UserID:10/660]	[IP:10.10.11.1]	[Browser:Chrome - 44.0.2403.107]	[Action:Filtering User : MasterData Username : 10/660]	[Remarks:Successful filter row count: 0]
[Date: 2015-07-29 09:32:16]	[UserID:10/660]	[IP:10.10.11.1]	[Browser:Chrome - 44.0.2403.107]	[Action:Filtering User : MasterData Username : 10/660]	[Remarks:Successful filter row count: 0]
[Date: 2015-07-29 09:32:16]	[UserID:10/660]	[IP:10.10.11.1]	[Browser:Chrome - 44.0.2403.107]	[Action:Filtering User : MasterData Username : 10/660]	[Remarks:Success]
[Date: 2015-07-29 09:32:16]	[UserID:10/660]	[IP:10.10.11.1]	[Browser:Chrome - 44.0.2403.107]	[Action:Closing mssql connection]	[Remarks:Success]
[Date: 2015-07-29 09:32:16]	[UserID:10/660]	[IP:10.10.11.1]	[Browser:Chrome - 44.0.2403.107]	[Action:Making connection to server]	[Remarks:Successful connection to server: S3]
[Date: 2015-07-29 09:32:16]	[UserID:10/660]	[IP:10.10.11.1]	[Browser:Chrome - 44.0.2403.107]	[Action:GetProgramList 10/660]	[Remarks:[{"ID":"1","ProgramIndex":"GST","ProgramName":"GST"}]]
[Date: 2015-07-29 09:32:16]	[UserID:10/660]	[IP:10.10.11.1]	[Browser:Chrome - 44.0.2403.107]	[Action:Making connection to server]	[Remarks:Successful connection to server: S3]
[Date: 2015-07-29 09:32:16]	[UserID:10/660]	[IP:10.10.11.1]	[Browser:Chrome - 44.0.2403.107]	[Action:GetProgramList 10/660]	[Remarks:[{"ID":"1","ProgramIndex":"GST","ProgramName":"GST"}]]
[Date: 2015-07-29 09:32:16]	[UserID:10/660]	[IP:10.10.11.1]	[Browser:Chrome - 44.0.2403.107]	[Action:Making connection to server]	[Remarks:Successful connection to server: S3]
[Date: 2015-07-29 09:32:16]	[UserID:10/660]	[IP:10.10.11.1]	[Browser:Chrome - 44.0.2403.107]	[Action:Filtering User : MasterData Username : 10/660]	[Remarks:Successful filter row count: 1]
[Date: 2015-07-29 09:32:17]	[UserID:10/660]	[IP:10.10.11.1]	[Browser:Chrome - 44.0.2403.107]	[Action:Making connection to server]	[Remarks:Successful connection to server: S3]
[Date: 2015-07-29 09:32:17]	[UserID:10/660]	[IP:10.10.11.1]	[Browser:Chrome - 44.0.2403.107]	[Action:GetGSTModules 10/660,1]	[Remarks:Successful filter row count: 3]
[Date: 2015-07-29 09:32:17]	[UserID:10/660]	[IP:10.10.11.1]	[Browser:Chrome - 44.0.2403.107]	[Action:Closing mssql connection]	[Remarks:Success]
[Date: 2015-07-29 09:45:25]	[UserID:10/660]	[IP:10.10.11.1]	[Browser:Chrome - 44.0.2403.107]	[Action:Making connection to server]	[Remarks:Successful connection to server: S3]
[Date: 2015-07-29 09:45:25]	[UserID:10/660]	[IP:10.10.11.1]	[Browser:Chrome - 44.0.2403.107]	[Action:GetGSTModules 10/660,1]	[Remarks:Successful filter row count: 3]
[Date: 2015-07-29 09:45:25]	[UserID:10/660]	[IP:10.10.11.1]	[Browser:Chrome - 44.0.2403.107]	[Action:Closing mssql connection]	[Remarks:Success]
[Date: 2015-07-29 10:13:20]	[UserID:10/660]	[IP:10.10.11.1]	[Browser:Chrome - 44.0.2403.107]	[Action:Making connection to server]	[Remarks:Successful connection to server: S3]
[Date: 2015-07-29 10:13:20]	[UserID:10/660]	[IP:10.10.11.1]	[Browser:Chrome - 44.0.2403.107]	[Action:GetGSTModules 10/660,1]	[Remarks:Successful filter row count: 3]
[Date: 2015-07-29 10:13:20]	[UserID:10/660]	[IP:10.10.11.1]	[Browser:Chrome - 44.0.2403.107]	[Action:Closing mssql connection]	[Remarks:Success]
[Date: 2015-07-29 10:16:33]	[UserID:]	[IP:10.10.11.1]	[Browser:Chrome - 44.0.2403.107]	[Action:Making connection to server]	[Remarks:Successful connection to server: S3]
[Date: 2015-07-29 10:16:33]	[UserID:]	[IP:10.10.11.1]	[Browser:Chrome - 44.0.2403.107]	[Action:GetProgramList ]	[Remarks:"no data"]
[Date: 2015-07-29 10:30:39]	[UserID:]	[IP:10.10.11.1]	[Browser:Chrome - 44.0.2403.107]	[Action:Making connection to server]	[Remarks:Successful connection to server: S3]
[Date: 2015-07-29 10:30:39]	[UserID:]	[IP:10.10.11.1]	[Browser:Chrome - 44.0.2403.107]	[Action:GetProgramList ]	[Remarks:"no data"]
[Date: 2015-07-29 10:30:40]	[UserID:10/660]	[IP:10.10.11.1]	[Browser:Chrome - 44.0.2403.107]	[Action:Making connection to server]	[Remarks:Successful connection to server: S3]
[Date: 2015-07-29 10:30:40]	[UserID:10/660]	[IP:10.10.11.1]	[Browser:Chrome - 44.0.2403.107]	[Action:User 10/660]	[Remarks:Success]
[Date: 2015-07-29 10:30:40]	[UserID:10/660]	[IP:10.10.11.1]	[Browser:Chrome - 44.0.2403.107]	[Action:Filtering User : MasterData Username : 10/660]	[Remarks:Successful filter row count: 0]
[Date: 2015-07-29 10:30:40]	[UserID:10/660]	[IP:10.10.11.1]	[Browser:Chrome - 44.0.2403.107]	[Action:Filtering User : MasterData Username : 10/660]	[Remarks:Successful filter row count: 0]
[Date: 2015-07-29 10:30:40]	[UserID:10/660]	[IP:10.10.11.1]	[Browser:Chrome - 44.0.2403.107]	[Action:Filtering User : MasterData Username : 10/660]	[Remarks:Success]
[Date: 2015-07-29 10:30:40]	[UserID:10/660]	[IP:10.10.11.1]	[Browser:Chrome - 44.0.2403.107]	[Action:Closing mssql connection]	[Remarks:Success]
[Date: 2015-07-29 10:30:41]	[UserID:10/660]	[IP:10.10.11.1]	[Browser:Chrome - 44.0.2403.107]	[Action:Making connection to server]	[Remarks:Successful connection to server: S3]
[Date: 2015-07-29 10:30:41]	[UserID:10/660]	[IP:10.10.11.1]	[Browser:Chrome - 44.0.2403.107]	[Action:GetProgramList 10/660]	[Remarks:[{"ID":"1","ProgramIndex":"GST","ProgramName":"GST"}]]
[Date: 2015-07-29 10:30:41]	[UserID:10/660]	[IP:10.10.11.1]	[Browser:Chrome - 44.0.2403.107]	[Action:Making connection to server]	[Remarks:Successful connection to server: S3]
[Date: 2015-07-29 10:30:41]	[UserID:10/660]	[IP:10.10.11.1]	[Browser:Chrome - 44.0.2403.107]	[Action:GetProgramList 10/660]	[Remarks:[{"ID":"1","ProgramIndex":"GST","ProgramName":"GST"}]]
[Date: 2015-07-29 10:30:41]	[UserID:10/660]	[IP:10.10.11.1]	[Browser:Chrome - 44.0.2403.107]	[Action:Making connection to server]	[Remarks:Successful connection to server: S3]
[Date: 2015-07-29 10:30:41]	[UserID:10/660]	[IP:10.10.11.1]	[Browser:Chrome - 44.0.2403.107]	[Action:Filtering User : MasterData Username : 10/660]	[Remarks:Successful filter row count: 1]
[Date: 2015-07-29 10:30:41]	[UserID:10/660]	[IP:10.10.11.1]	[Browser:Chrome - 44.0.2403.107]	[Action:Making connection to server]	[Remarks:Successful connection to server: S3]
[Date: 2015-07-29 10:30:41]	[UserID:10/660]	[IP:10.10.11.1]	[Browser:Chrome - 44.0.2403.107]	[Action:GetGSTModules 10/660,1]	[Remarks:Successful filter row count: 3]
[Date: 2015-07-29 10:30:41]	[UserID:10/660]	[IP:10.10.11.1]	[Browser:Chrome - 44.0.2403.107]	[Action:Closing mssql connection]	[Remarks:Success]
[Date: 2015-07-29 10:32:00]	[UserID:]	[IP:10.10.11.1]	[Browser:Chrome - 44.0.2403.107]	[Action:Making connection to server]	[Remarks:Successful connection to server: S3]
[Date: 2015-07-29 10:32:00]	[UserID:]	[IP:10.10.11.1]	[Browser:Chrome - 44.0.2403.107]	[Action:GetProgramList ]	[Remarks:"no data"]
[Date: 2015-07-29 11:10:39]	[UserID:]	[IP:10.10.11.1]	[Browser:Chrome - 44.0.2403.125]	[Action:Making connection to server]	[Remarks:Successful connection to server: S3]
[Date: 2015-07-29 11:10:39]	[UserID:]	[IP:10.10.11.1]	[Browser:Chrome - 44.0.2403.125]	[Action:GetProgramList ]	[Remarks:"no data"]
[Date: 2015-07-29 11:10:47]	[UserID:eieikhin]	[IP:10.10.11.1]	[Browser:Chrome - 44.0.2403.125]	[Action:Making connection to server]	[Remarks:Successful connection to server: S3]
[Date: 2015-07-29 11:10:47]	[UserID:eieikhin]	[IP:10.10.11.1]	[Browser:Chrome - 44.0.2403.125]	[Action:User eieikhin]	[Remarks:Success]
[Date: 2015-07-29 11:10:47]	[UserID:eieikhin]	[IP:10.10.11.1]	[Browser:Chrome - 44.0.2403.125]	[Action:Filtering User : MasterData Username : eieikhin]	[Remarks:Successful filter row count: 0]
[Date: 2015-07-29 11:10:47]	[UserID:eieikhin]	[IP:10.10.11.1]	[Browser:Chrome - 44.0.2403.125]	[Action:Filtering User : MasterData Username : eieikhin]	[Remarks:Successful filter row count: 0]
[Date: 2015-07-29 11:10:47]	[UserID:eieikhin]	[IP:10.10.11.1]	[Browser:Chrome - 44.0.2403.125]	[Action:Filtering User : MasterData Username : eieikhin]	[Remarks:Success]
[Date: 2015-07-29 11:10:47]	[UserID:eieikhin]	[IP:10.10.11.1]	[Browser:Chrome - 44.0.2403.125]	[Action:Closing mssql connection]	[Remarks:Success]
[Date: 2015-07-29 11:10:47]	[UserID:eieikhin]	[IP:10.10.11.1]	[Browser:Chrome - 44.0.2403.125]	[Action:Making connection to server]	[Remarks:Successful connection to server: S3]
[Date: 2015-07-29 11:10:47]	[UserID:eieikhin]	[IP:10.10.11.1]	[Browser:Chrome - 44.0.2403.125]	[Action:GetProgramList eieikhin]	[Remarks:[{"ID":"1","ProgramIndex":"GST","ProgramName":"GST"},{"ID":"3","ProgramIndex":"PRD","ProgramName":"PRD"}]]
[Date: 2015-07-29 11:10:47]	[UserID:eieikhin]	[IP:10.10.11.1]	[Browser:Chrome - 44.0.2403.125]	[Action:Making connection to server]	[Remarks:Successful connection to server: S3]
[Date: 2015-07-29 11:10:47]	[UserID:eieikhin]	[IP:10.10.11.1]	[Browser:Chrome - 44.0.2403.125]	[Action:GetProgramList eieikhin]	[Remarks:[{"ID":"1","ProgramIndex":"GST","ProgramName":"GST"},{"ID":"3","ProgramIndex":"PRD","ProgramName":"PRD"}]]
[Date: 2015-07-29 11:10:47]	[UserID:eieikhin]	[IP:10.10.11.1]	[Browser:Chrome - 44.0.2403.125]	[Action:Making connection to server]	[Remarks:Successful connection to server: S3]
[Date: 2015-07-29 11:10:47]	[UserID:eieikhin]	[IP:10.10.11.1]	[Browser:Chrome - 44.0.2403.125]	[Action:Filtering User : MasterData Username : eieikhin]	[Remarks:Successful filter row count: 1]
[Date: 2015-07-29 11:10:50]	[UserID:eieikhin]	[IP:10.10.11.1]	[Browser:Chrome - 44.0.2403.125]	[Action:Making connection to server]	[Remarks:Successful connection to server: S3]
[Date: 2015-07-29 11:10:50]	[UserID:eieikhin]	[IP:10.10.11.1]	[Browser:Chrome - 44.0.2403.125]	[Action:GetGSTModules eieikhin,1]	[Remarks:Successful filter row count: 7]
[Date: 2015-07-29 11:10:50]	[UserID:eieikhin]	[IP:10.10.11.1]	[Browser:Chrome - 44.0.2403.125]	[Action:Closing mssql connection]	[Remarks:Success]
[Date: 2015-07-29 11:11:22]	[UserID:eieikhin]	[IP:10.10.11.1]	[Browser:Chrome - 44.0.2403.125]	[Action:Making connection to server]	[Remarks:Successful connection to server: S3]
[Date: 2015-07-29 11:11:22]	[UserID:eieikhin]	[IP:10.10.11.1]	[Browser:Chrome - 44.0.2403.125]	[Action:GetGSTModules eieikhin,1]	[Remarks:Successful filter row count: 7]
[Date: 2015-07-29 11:11:22]	[UserID:eieikhin]	[IP:10.10.11.1]	[Browser:Chrome - 44.0.2403.125]	[Action:Closing mssql connection]	[Remarks:Success]
[Date: 2015-07-29 12:56:05]	[UserID:]	[IP:10.10.11.1]	[Browser:Chrome - 44.0.2403.125]	[Action:Making connection to server]	[Remarks:Successful connection to server: S3]
[Date: 2015-07-29 12:56:05]	[UserID:]	[IP:10.10.11.1]	[Browser:Chrome - 44.0.2403.125]	[Action:GetProgramList ]	[Remarks:"no data"]
[Date: 2015-07-29 13:35:49]	[UserID:]	[IP:10.10.11.1]	[Browser:Chrome - 44.0.2403.107]	[Action:Making connection to server]	[Remarks:Successful connection to server: S3]
[Date: 2015-07-29 13:35:49]	[UserID:]	[IP:10.10.11.1]	[Browser:Chrome - 44.0.2403.107]	[Action:GetProgramList ]	[Remarks:"no data"]
[Date: 2015-07-29 14:05:43]	[UserID:]	[IP:10.10.11.1]	[Browser:Chrome - 44.0.2403.107]	[Action:Making connection to server]	[Remarks:Successful connection to server: S3]
[Date: 2015-07-29 14:05:43]	[UserID:]	[IP:10.10.11.1]	[Browser:Chrome - 44.0.2403.107]	[Action:GetProgramList ]	[Remarks:"no data"]
[Date: 2015-07-29 14:12:21]	[UserID:06/371]	[IP:10.10.11.1]	[Browser:Chrome - 44.0.2403.107]	[Action:Making connection to server]	[Remarks:Successful connection to server: S3]
[Date: 2015-07-29 14:12:21]	[UserID:06/371]	[IP:10.10.11.1]	[Browser:Chrome - 44.0.2403.107]	[Action:User 06/371]	[Remarks:Success]
[Date: 2015-07-29 14:12:21]	[UserID:06/371]	[IP:10.10.11.1]	[Browser:Chrome - 44.0.2403.107]	[Action:Filtering User : MasterData Username : 06/371]	[Remarks:Successful filter row count: 0]
[Date: 2015-07-29 14:12:21]	[UserID:06/371]	[IP:10.10.11.1]	[Browser:Chrome - 44.0.2403.107]	[Action:Filtering User : MasterData Username : 06/371]	[Remarks:Successful filter row count: 0]
[Date: 2015-07-29 14:12:21]	[UserID:06/371]	[IP:10.10.11.1]	[Browser:Chrome - 44.0.2403.107]	[Action:Filtering User : MasterData Username : 06/371]	[Remarks:Success]
[Date: 2015-07-29 14:12:21]	[UserID:06/371]	[IP:10.10.11.1]	[Browser:Chrome - 44.0.2403.107]	[Action:Closing mssql connection]	[Remarks:Success]
[Date: 2015-07-29 14:12:21]	[UserID:06/371]	[IP:10.10.11.1]	[Browser:Chrome - 44.0.2403.107]	[Action:Making connection to server]	[Remarks:Successful connection to server: S3]
[Date: 2015-07-29 14:12:21]	[UserID:06/371]	[IP:10.10.11.1]	[Browser:Chrome - 44.0.2403.107]	[Action:GetProgramList 06/371]	[Remarks:[{"ID":"1","ProgramIndex":"GST","ProgramName":"GST"}]]
[Date: 2015-07-29 14:12:21]	[UserID:06/371]	[IP:10.10.11.1]	[Browser:Chrome - 44.0.2403.107]	[Action:Making connection to server]	[Remarks:Successful connection to server: S3]
[Date: 2015-07-29 14:12:21]	[UserID:06/371]	[IP:10.10.11.1]	[Browser:Chrome - 44.0.2403.107]	[Action:GetProgramList 06/371]	[Remarks:[{"ID":"1","ProgramIndex":"GST","ProgramName":"GST"}]]
[Date: 2015-07-29 14:12:21]	[UserID:06/371]	[IP:10.10.11.1]	[Browser:Chrome - 44.0.2403.107]	[Action:Making connection to server]	[Remarks:Successful connection to server: S3]
[Date: 2015-07-29 14:12:21]	[UserID:06/371]	[IP:10.10.11.1]	[Browser:Chrome - 44.0.2403.107]	[Action:Filtering User : MasterData Username : 06/371]	[Remarks:Successful filter row count: 1]
[Date: 2015-07-29 14:12:22]	[UserID:06/371]	[IP:10.10.11.1]	[Browser:Chrome - 44.0.2403.107]	[Action:Making connection to server]	[Remarks:Successful connection to server: S3]
[Date: 2015-07-29 14:12:22]	[UserID:06/371]	[IP:10.10.11.1]	[Browser:Chrome - 44.0.2403.107]	[Action:GetGSTModules 06/371,1]	[Remarks:Successful filter row count: 5]
[Date: 2015-07-29 14:12:22]	[UserID:06/371]	[IP:10.10.11.1]	[Browser:Chrome - 44.0.2403.107]	[Action:Closing mssql connection]	[Remarks:Success]
[Date: 2015-07-29 14:32:00]	[UserID:06/371]	[IP:10.10.11.1]	[Browser:Chrome - 44.0.2403.107]	[Action:Making connection to server]	[Remarks:Successful connection to server: S3]
[Date: 2015-07-29 14:32:00]	[UserID:06/371]	[IP:10.10.11.1]	[Browser:Chrome - 44.0.2403.107]	[Action:GetGSTModules 06/371,1]	[Remarks:Successful filter row count: 5]
[Date: 2015-07-29 14:32:00]	[UserID:06/371]	[IP:10.10.11.1]	[Browser:Chrome - 44.0.2403.107]	[Action:Closing mssql connection]	[Remarks:Success]
