[Date: 2018-12-01 08:11:32]	[UserID:]	[IP:10.139.5.101]	[Browser:Chrome - 70.0.3538.77]	[Action:Making connection to server]	[Remarks:Successful connection to server: S3]
[Date: 2018-12-01 08:11:32]	[UserID:]	[IP:10.139.5.101]	[Browser:Chrome - 70.0.3538.77]	[Action:GetProgramList ]	[Remarks:"no data"]
[Date: 2018-12-01 23:32:30]	[UserID:]	[IP:10.139.5.104]	[Browser:Chrome - 70.0.3538.102]	[Action:Making connection to server]	[Remarks:Successful connection to server: S3]
[Date: 2018-12-01 23:32:30]	[UserID:]	[IP:10.139.5.104]	[Browser:Chrome - 70.0.3538.102]	[Action:GetProgramList ]	[Remarks:"no data"]
