[Date: 2014-12-18 11:00:11]	[UserID:]	[IP:10.10.11.1]	[Browser:Chrome - 39.0.2171.95]	[Action:Making connection to server]	[Remarks:Successful connection to server: S3]
[Date: 2014-12-18 11:00:13]	[UserID:]	[IP:10.10.11.1]	[Browser:Chrome - 39.0.2171.95]	[Action:GetProgramList ]	[Remarks:"no data"]
[Date: 2014-12-18 11:00:25]	[UserID:06/343]	[IP:10.10.11.1]	[Browser:Chrome - 39.0.2171.95]	[Action:Making connection to server]	[Remarks:Successful connection to server: S3]
[Date: 2014-12-18 11:00:25]	[UserID:06/343]	[IP:10.10.11.1]	[Browser:Chrome - 39.0.2171.95]	[Action:User 06/343]	[Remarks:Success]
[Date: 2014-12-18 11:00:25]	[UserID:06/343]	[IP:10.10.11.1]	[Browser:Chrome - 39.0.2171.95]	[Action:Filtering User : MasterData Username : 06/343]	[Remarks:Successful filter row count: 0]
[Date: 2014-12-18 11:00:25]	[UserID:06/343]	[IP:10.10.11.1]	[Browser:Chrome - 39.0.2171.95]	[Action:Filtering User : MasterData Username : 06/343]	[Remarks:Successful filter row count: 0]
[Date: 2014-12-18 11:00:25]	[UserID:06/343]	[IP:10.10.11.1]	[Browser:Chrome - 39.0.2171.95]	[Action:Filtering User : MasterData Username : 06/343]	[Remarks:Success]
[Date: 2014-12-18 11:00:25]	[UserID:06/343]	[IP:10.10.11.1]	[Browser:Chrome - 39.0.2171.95]	[Action:Closing mssql connection]	[Remarks:Success]
[Date: 2014-12-18 11:00:59]	[UserID:06/343]	[IP:10.10.11.1]	[Browser:Chrome - 39.0.2171.95]	[Action:Making connection to server]	[Remarks:Successful connection to server: S3]
[Date: 2014-12-18 11:00:59]	[UserID:06/343]	[IP:10.10.11.1]	[Browser:Chrome - 39.0.2171.95]	[Action:User 06/343]	[Remarks:Username [06/343] exists]
[Date: 2014-12-18 11:00:59]	[UserID:06/343]	[IP:10.10.11.1]	[Browser:Chrome - 39.0.2171.95]	[Action:User 06/343]	[Remarks:Successful filter row count.0]
[Date: 2014-12-18 11:00:59]	[UserID:06/343]	[IP:10.10.11.1]	[Browser:Chrome - 39.0.2171.95]	[Action:User 06/343]	[Remarks:Success]
[Date: 2014-12-18 11:00:59]	[UserID:06/343]	[IP:10.10.11.1]	[Browser:Chrome - 39.0.2171.95]	[Action:Filtering User : MasterData Username : 06/343]	[Remarks:Successful filter row count: 0]
[Date: 2014-12-18 11:00:59]	[UserID:06/343]	[IP:10.10.11.1]	[Browser:Chrome - 39.0.2171.95]	[Action:Filtering User : MasterData Username : 06/343]	[Remarks:Successful filter row count: 0]
[Date: 2014-12-18 11:00:59]	[UserID:06/343]	[IP:10.10.11.1]	[Browser:Chrome - 39.0.2171.95]	[Action:Filtering User : MasterData Username : 06/343]	[Remarks:Success]
[Date: 2014-12-18 11:01:00]	[UserID:06/343]	[IP:10.10.11.1]	[Browser:Chrome - 39.0.2171.95]	[Action:Sending Message. To:sltan@jsilogistics.com, from: jsi-dev@jsilogistics.com.sg]	[Remarks:Successful filter row count: 1]
[Date: 2014-12-18 11:01:00]	[UserID:06/343]	[IP:10.10.11.1]	[Browser:Chrome - 39.0.2171.95]	[Action:Closing mssql connection]	[Remarks:Success]
[Date: 2014-12-18 11:01:00]	[UserID:06/343]	[IP:10.10.11.1]	[Browser:Chrome - 39.0.2171.95]	[Action:Making connection to server]	[Remarks:Successful connection to server: S3]
[Date: 2014-12-18 11:01:00]	[UserID:06/343]	[IP:10.10.11.1]	[Browser:Chrome - 39.0.2171.95]	[Action:GetProgramList 06/343]	[Remarks:[{"ID":"1","ProgramIndex":"GST","ProgramName":"GST"}]]
[Date: 2014-12-18 11:01:00]	[UserID:06/343]	[IP:10.10.11.1]	[Browser:Chrome - 39.0.2171.95]	[Action:Making connection to server]	[Remarks:Successful connection to server: S3]
[Date: 2014-12-18 11:01:00]	[UserID:06/343]	[IP:10.10.11.1]	[Browser:Chrome - 39.0.2171.95]	[Action:GetProgramList 06/343]	[Remarks:[{"ID":"1","ProgramIndex":"GST","ProgramName":"GST"}]]
[Date: 2014-12-18 11:01:00]	[UserID:06/343]	[IP:10.10.11.1]	[Browser:Chrome - 39.0.2171.95]	[Action:Making connection to server]	[Remarks:Successful connection to server: S3]
[Date: 2014-12-18 11:01:00]	[UserID:06/343]	[IP:10.10.11.1]	[Browser:Chrome - 39.0.2171.95]	[Action:Filtering User : MasterData Username : 06/343]	[Remarks:Successful filter row count: 1]
[Date: 2014-12-18 11:01:02]	[UserID:06/343]	[IP:10.10.11.1]	[Browser:Chrome - 39.0.2171.95]	[Action:Making connection to server]	[Remarks:Successful connection to server: S3]
[Date: 2014-12-18 11:01:02]	[UserID:06/343]	[IP:10.10.11.1]	[Browser:Chrome - 39.0.2171.95]	[Action:GetGSTModules 06/343,1]	[Remarks:Successful filter row count: 5]
[Date: 2014-12-18 11:01:02]	[UserID:06/343]	[IP:10.10.11.1]	[Browser:Chrome - 39.0.2171.95]	[Action:Closing mssql connection]	[Remarks:Success]
[Date: 2014-12-18 11:05:44]	[UserID:06/343]	[IP:10.10.11.1]	[Browser:Chrome - 39.0.2171.95]	[Action:Making connection to server]	[Remarks:Successful connection to server: S3]
[Date: 2014-12-18 11:05:44]	[UserID:06/343]	[IP:10.10.11.1]	[Browser:Chrome - 39.0.2171.95]	[Action:GetGSTModules 06/343,1]	[Remarks:Successful filter row count: 5]
[Date: 2014-12-18 11:05:44]	[UserID:06/343]	[IP:10.10.11.1]	[Browser:Chrome - 39.0.2171.95]	[Action:Closing mssql connection]	[Remarks:Success]
[Date: 2014-12-18 11:17:45]	[UserID:06/343]	[IP:10.10.11.1]	[Browser:Chrome - 39.0.2171.95]	[Action:Making connection to server]	[Remarks:Successful connection to server: S3]
[Date: 2014-12-18 11:17:46]	[UserID:06/343]	[IP:10.10.11.1]	[Browser:Chrome - 39.0.2171.95]	[Action:GetGSTModules 06/343,1]	[Remarks:Successful filter row count: 5]
[Date: 2014-12-18 11:17:46]	[UserID:06/343]	[IP:10.10.11.1]	[Browser:Chrome - 39.0.2171.95]	[Action:Closing mssql connection]	[Remarks:Success]
[Date: 2014-12-18 11:35:57]	[UserID:06/343]	[IP:10.10.11.1]	[Browser:Chrome - 39.0.2171.95]	[Action:Making connection to server]	[Remarks:Successful connection to server: S3]
[Date: 2014-12-18 11:35:57]	[UserID:06/343]	[IP:10.10.11.1]	[Browser:Chrome - 39.0.2171.95]	[Action:GetGSTModules 06/343,1]	[Remarks:Successful filter row count: 5]
[Date: 2014-12-18 11:35:57]	[UserID:06/343]	[IP:10.10.11.1]	[Browser:Chrome - 39.0.2171.95]	[Action:Closing mssql connection]	[Remarks:Success]
[Date: 2014-12-18 11:38:25]	[UserID:06/343]	[IP:10.10.11.1]	[Browser:Chrome - 39.0.2171.95]	[Action:Making connection to server]	[Remarks:Successful connection to server: S3]
[Date: 2014-12-18 11:38:25]	[UserID:06/343]	[IP:10.10.11.1]	[Browser:Chrome - 39.0.2171.95]	[Action:GetGSTModules 06/343,1]	[Remarks:Successful filter row count: 5]
[Date: 2014-12-18 11:38:25]	[UserID:06/343]	[IP:10.10.11.1]	[Browser:Chrome - 39.0.2171.95]	[Action:Closing mssql connection]	[Remarks:Success]
[Date: 2014-12-18 11:39:57]	[UserID:06/343]	[IP:10.10.11.1]	[Browser:Chrome - 39.0.2171.95]	[Action:Making connection to server]	[Remarks:Successful connection to server: S3]
[Date: 2014-12-18 11:39:57]	[UserID:06/343]	[IP:10.10.11.1]	[Browser:Chrome - 39.0.2171.95]	[Action:GetGSTModules 06/343,1]	[Remarks:Successful filter row count: 5]
[Date: 2014-12-18 11:39:57]	[UserID:06/343]	[IP:10.10.11.1]	[Browser:Chrome - 39.0.2171.95]	[Action:Closing mssql connection]	[Remarks:Success]
[Date: 2014-12-18 11:40:27]	[UserID:06/343]	[IP:10.10.11.1]	[Browser:Chrome - 39.0.2171.95]	[Action:Making connection to server]	[Remarks:Successful connection to server: S3]
[Date: 2014-12-18 11:40:27]	[UserID:06/343]	[IP:10.10.11.1]	[Browser:Chrome - 39.0.2171.95]	[Action:GetGSTModules 06/343,1]	[Remarks:Successful filter row count: 5]
[Date: 2014-12-18 11:40:27]	[UserID:06/343]	[IP:10.10.11.1]	[Browser:Chrome - 39.0.2171.95]	[Action:Closing mssql connection]	[Remarks:Success]
[Date: 2014-12-18 11:40:53]	[UserID:06/343]	[IP:10.10.11.1]	[Browser:Chrome - 39.0.2171.95]	[Action:Making connection to server]	[Remarks:Successful connection to server: S3]
[Date: 2014-12-18 11:40:53]	[UserID:06/343]	[IP:10.10.11.1]	[Browser:Chrome - 39.0.2171.95]	[Action:GetGSTModules 06/343,1]	[Remarks:Successful filter row count: 5]
[Date: 2014-12-18 11:40:53]	[UserID:06/343]	[IP:10.10.11.1]	[Browser:Chrome - 39.0.2171.95]	[Action:Closing mssql connection]	[Remarks:Success]
[Date: 2014-12-18 13:44:36]	[UserID:06/343]	[IP:10.10.11.1]	[Browser:Chrome - 39.0.2171.95]	[Action:Making connection to server]	[Remarks:Successful connection to server: S3]
[Date: 2014-12-18 13:44:36]	[UserID:06/343]	[IP:10.10.11.1]	[Browser:Chrome - 39.0.2171.95]	[Action:GetGSTModules 06/343,1]	[Remarks:Successful filter row count: 5]
[Date: 2014-12-18 13:44:36]	[UserID:06/343]	[IP:10.10.11.1]	[Browser:Chrome - 39.0.2171.95]	[Action:Closing mssql connection]	[Remarks:Success]
[Date: 2014-12-18 13:48:05]	[UserID:06/343]	[IP:10.10.11.1]	[Browser:Chrome - 39.0.2171.95]	[Action:Making connection to server]	[Remarks:Successful connection to server: S3]
[Date: 2014-12-18 13:48:05]	[UserID:06/343]	[IP:10.10.11.1]	[Browser:Chrome - 39.0.2171.95]	[Action:GetGSTModules 06/343,1]	[Remarks:Successful filter row count: 5]
[Date: 2014-12-18 13:48:05]	[UserID:06/343]	[IP:10.10.11.1]	[Browser:Chrome - 39.0.2171.95]	[Action:Closing mssql connection]	[Remarks:Success]
[Date: 2014-12-18 13:50:53]	[UserID:06/343]	[IP:10.10.11.1]	[Browser:Chrome - 39.0.2171.95]	[Action:Making connection to server]	[Remarks:Successful connection to server: S3]
[Date: 2014-12-18 13:50:53]	[UserID:06/343]	[IP:10.10.11.1]	[Browser:Chrome - 39.0.2171.95]	[Action:GetGSTModules 06/343,1]	[Remarks:Successful filter row count: 5]
[Date: 2014-12-18 13:50:53]	[UserID:06/343]	[IP:10.10.11.1]	[Browser:Chrome - 39.0.2171.95]	[Action:Closing mssql connection]	[Remarks:Success]
[Date: 2014-12-18 13:51:54]	[UserID:06/343]	[IP:10.10.11.1]	[Browser:Chrome - 39.0.2171.95]	[Action:Making connection to server]	[Remarks:Successful connection to server: S3]
[Date: 2014-12-18 13:51:54]	[UserID:06/343]	[IP:10.10.11.1]	[Browser:Chrome - 39.0.2171.95]	[Action:GetGSTModules 06/343,1]	[Remarks:Successful filter row count: 5]
[Date: 2014-12-18 13:51:54]	[UserID:06/343]	[IP:10.10.11.1]	[Browser:Chrome - 39.0.2171.95]	[Action:Closing mssql connection]	[Remarks:Success]
[Date: 2014-12-18 14:30:42]	[UserID:06/343]	[IP:10.10.11.1]	[Browser:Chrome - 39.0.2171.95]	[Action:Making connection to server]	[Remarks:Successful connection to server: S3]
[Date: 2014-12-18 14:30:42]	[UserID:06/343]	[IP:10.10.11.1]	[Browser:Chrome - 39.0.2171.95]	[Action:GetGSTModules 06/343,1]	[Remarks:Successful filter row count: 5]
[Date: 2014-12-18 14:30:42]	[UserID:06/343]	[IP:10.10.11.1]	[Browser:Chrome - 39.0.2171.95]	[Action:Closing mssql connection]	[Remarks:Success]
