[Date: 2015-07-27 07:47:08]	[UserID:]	[IP:10.10.11.1]	[Browser:Chrome - 44.0.2403.89]	[Action:Making connection to server]	[Remarks:Successful connection to server: S3]
[Date: 2015-07-27 07:47:08]	[UserID:]	[IP:10.10.11.1]	[Browser:Chrome - 44.0.2403.89]	[Action:Making connection to server]	[Remarks:Successful connection to server: S3]
[Date: 2015-07-27 07:47:08]	[UserID:]	[IP:10.10.11.1]	[Browser:Chrome - 44.0.2403.89]	[Action:GetProgramList ]	[Remarks:"no data"]
[Date: 2015-07-27 07:47:09]	[UserID:]	[IP:10.10.11.1]	[Browser:Chrome - 44.0.2403.89]	[Action:GetProgramList ]	[Remarks:"no data"]
[Date: 2015-07-27 07:47:17]	[UserID:06/343]	[IP:10.10.11.1]	[Browser:Chrome - 44.0.2403.89]	[Action:Making connection to server]	[Remarks:Successful connection to server: S3]
[Date: 2015-07-27 07:47:17]	[UserID:06/343]	[IP:10.10.11.1]	[Browser:Chrome - 44.0.2403.89]	[Action:User 06/343]	[Remarks:Success]
[Date: 2015-07-27 07:47:17]	[UserID:06/343]	[IP:10.10.11.1]	[Browser:Chrome - 44.0.2403.89]	[Action:Filtering User : MasterData Username : 06/343]	[Remarks:Successful filter row count: 0]
[Date: 2015-07-27 07:47:17]	[UserID:06/343]	[IP:10.10.11.1]	[Browser:Chrome - 44.0.2403.89]	[Action:Filtering User : MasterData Username : 06/343]	[Remarks:Successful filter row count: 0]
[Date: 2015-07-27 07:47:17]	[UserID:06/343]	[IP:10.10.11.1]	[Browser:Chrome - 44.0.2403.89]	[Action:Filtering User : MasterData Username : 06/343]	[Remarks:Success]
[Date: 2015-07-27 07:47:17]	[UserID:06/343]	[IP:10.10.11.1]	[Browser:Chrome - 44.0.2403.89]	[Action:Closing mssql connection]	[Remarks:Success]
[Date: 2015-07-27 07:47:18]	[UserID:06/343]	[IP:10.10.11.1]	[Browser:Chrome - 44.0.2403.89]	[Action:Making connection to server]	[Remarks:Successful connection to server: S3]
[Date: 2015-07-27 07:47:18]	[UserID:06/343]	[IP:10.10.11.1]	[Browser:Chrome - 44.0.2403.89]	[Action:GetProgramList 06/343]	[Remarks:[{"ID":"1","ProgramIndex":"GST","ProgramName":"GST"}]]
[Date: 2015-07-27 07:47:18]	[UserID:06/343]	[IP:10.10.11.1]	[Browser:Chrome - 44.0.2403.89]	[Action:Making connection to server]	[Remarks:Successful connection to server: S3]
[Date: 2015-07-27 07:47:18]	[UserID:06/343]	[IP:10.10.11.1]	[Browser:Chrome - 44.0.2403.89]	[Action:GetProgramList 06/343]	[Remarks:[{"ID":"1","ProgramIndex":"GST","ProgramName":"GST"}]]
[Date: 2015-07-27 07:47:18]	[UserID:06/343]	[IP:10.10.11.1]	[Browser:Chrome - 44.0.2403.89]	[Action:Making connection to server]	[Remarks:Successful connection to server: S3]
[Date: 2015-07-27 07:47:18]	[UserID:06/343]	[IP:10.10.11.1]	[Browser:Chrome - 44.0.2403.89]	[Action:Filtering User : MasterData Username : 06/343]	[Remarks:Successful filter row count: 1]
[Date: 2015-07-27 07:47:18]	[UserID:06/343]	[IP:10.10.11.1]	[Browser:Chrome - 44.0.2403.89]	[Action:Making connection to server]	[Remarks:Successful connection to server: S3]
[Date: 2015-07-27 07:47:18]	[UserID:06/343]	[IP:10.10.11.1]	[Browser:Chrome - 44.0.2403.89]	[Action:GetGSTModules 06/343,1]	[Remarks:Successful filter row count: 5]
[Date: 2015-07-27 07:47:18]	[UserID:06/343]	[IP:10.10.11.1]	[Browser:Chrome - 44.0.2403.89]	[Action:Closing mssql connection]	[Remarks:Success]
[Date: 2015-07-27 07:52:21]	[UserID:06/343]	[IP:10.10.11.1]	[Browser:Chrome - 44.0.2403.89]	[Action:Making connection to server]	[Remarks:Successful connection to server: S3]
[Date: 2015-07-27 07:52:22]	[UserID:06/343]	[IP:10.10.11.1]	[Browser:Chrome - 44.0.2403.89]	[Action:GetGSTModules 06/343,1]	[Remarks:Successful filter row count: 5]
[Date: 2015-07-27 07:52:22]	[UserID:06/343]	[IP:10.10.11.1]	[Browser:Chrome - 44.0.2403.89]	[Action:Closing mssql connection]	[Remarks:Success]
[Date: 2015-07-27 08:04:54]	[UserID:06/343]	[IP:10.10.11.1]	[Browser:Chrome - 44.0.2403.89]	[Action:Making connection to server]	[Remarks:Successful connection to server: S3]
[Date: 2015-07-27 08:04:54]	[UserID:06/343]	[IP:10.10.11.1]	[Browser:Chrome - 44.0.2403.89]	[Action:GetGSTModules 06/343,1]	[Remarks:Successful filter row count: 5]
[Date: 2015-07-27 08:04:54]	[UserID:06/343]	[IP:10.10.11.1]	[Browser:Chrome - 44.0.2403.89]	[Action:Closing mssql connection]	[Remarks:Success]
[Date: 2015-07-27 08:16:37]	[UserID:06/343]	[IP:10.10.11.1]	[Browser:Chrome - 44.0.2403.89]	[Action:Making connection to server]	[Remarks:Successful connection to server: S3]
[Date: 2015-07-27 08:16:37]	[UserID:06/343]	[IP:10.10.11.1]	[Browser:Chrome - 44.0.2403.89]	[Action:GetGSTModules 06/343,1]	[Remarks:Successful filter row count: 5]
[Date: 2015-07-27 08:16:37]	[UserID:06/343]	[IP:10.10.11.1]	[Browser:Chrome - 44.0.2403.89]	[Action:Closing mssql connection]	[Remarks:Success]
[Date: 2015-07-27 08:20:10]	[UserID:06/343]	[IP:10.10.11.1]	[Browser:Chrome - 44.0.2403.89]	[Action:Making connection to server]	[Remarks:Successful connection to server: S3]
[Date: 2015-07-27 08:20:10]	[UserID:06/343]	[IP:10.10.11.1]	[Browser:Chrome - 44.0.2403.89]	[Action:GetGSTModules 06/343,1]	[Remarks:Successful filter row count: 5]
[Date: 2015-07-27 08:20:10]	[UserID:06/343]	[IP:10.10.11.1]	[Browser:Chrome - 44.0.2403.89]	[Action:Closing mssql connection]	[Remarks:Success]
[Date: 2015-07-27 08:24:43]	[UserID:06/343]	[IP:10.10.11.1]	[Browser:Chrome - 44.0.2403.89]	[Action:Making connection to server]	[Remarks:Successful connection to server: S3]
[Date: 2015-07-27 08:24:43]	[UserID:06/343]	[IP:10.10.11.1]	[Browser:Chrome - 44.0.2403.89]	[Action:GetGSTModules 06/343,1]	[Remarks:Successful filter row count: 5]
[Date: 2015-07-27 08:24:43]	[UserID:06/343]	[IP:10.10.11.1]	[Browser:Chrome - 44.0.2403.89]	[Action:Closing mssql connection]	[Remarks:Success]
[Date: 2015-07-27 08:33:02]	[UserID:]	[IP:10.10.11.1]	[Browser:Chrome - 43.0.2357.134]	[Action:Making connection to server]	[Remarks:Successful connection to server: S3]
[Date: 2015-07-27 08:33:02]	[UserID:]	[IP:10.10.11.1]	[Browser:Chrome - 43.0.2357.134]	[Action:GetProgramList ]	[Remarks:"no data"]
[Date: 2015-07-27 08:33:11]	[UserID:06/371]	[IP:10.10.11.1]	[Browser:Chrome - 43.0.2357.134]	[Action:Making connection to server]	[Remarks:Successful connection to server: S3]
[Date: 2015-07-27 08:33:11]	[UserID:06/371]	[IP:10.10.11.1]	[Browser:Chrome - 43.0.2357.134]	[Action:User 06/371]	[Remarks:Success]
[Date: 2015-07-27 08:33:11]	[UserID:06/371]	[IP:10.10.11.1]	[Browser:Chrome - 43.0.2357.134]	[Action:Filtering User : MasterData Username : 06/371]	[Remarks:Successful filter row count: 0]
[Date: 2015-07-27 08:33:11]	[UserID:06/371]	[IP:10.10.11.1]	[Browser:Chrome - 43.0.2357.134]	[Action:Filtering User : MasterData Username : 06/371]	[Remarks:Successful filter row count: 0]
[Date: 2015-07-27 08:33:11]	[UserID:06/371]	[IP:10.10.11.1]	[Browser:Chrome - 43.0.2357.134]	[Action:Filtering User : MasterData Username : 06/371]	[Remarks:Success]
[Date: 2015-07-27 08:33:11]	[UserID:06/371]	[IP:10.10.11.1]	[Browser:Chrome - 43.0.2357.134]	[Action:Closing mssql connection]	[Remarks:Success]
[Date: 2015-07-27 08:33:12]	[UserID:06/371]	[IP:10.10.11.1]	[Browser:Chrome - 43.0.2357.134]	[Action:Making connection to server]	[Remarks:Successful connection to server: S3]
[Date: 2015-07-27 08:33:12]	[UserID:06/371]	[IP:10.10.11.1]	[Browser:Chrome - 43.0.2357.134]	[Action:GetProgramList 06/371]	[Remarks:[{"ID":"1","ProgramIndex":"GST","ProgramName":"GST"}]]
[Date: 2015-07-27 08:33:12]	[UserID:06/371]	[IP:10.10.11.1]	[Browser:Chrome - 43.0.2357.134]	[Action:Making connection to server]	[Remarks:Successful connection to server: S3]
[Date: 2015-07-27 08:33:12]	[UserID:06/371]	[IP:10.10.11.1]	[Browser:Chrome - 43.0.2357.134]	[Action:GetProgramList 06/371]	[Remarks:[{"ID":"1","ProgramIndex":"GST","ProgramName":"GST"}]]
[Date: 2015-07-27 08:33:12]	[UserID:06/371]	[IP:10.10.11.1]	[Browser:Chrome - 43.0.2357.134]	[Action:Making connection to server]	[Remarks:Successful connection to server: S3]
[Date: 2015-07-27 08:33:12]	[UserID:06/371]	[IP:10.10.11.1]	[Browser:Chrome - 43.0.2357.134]	[Action:Filtering User : MasterData Username : 06/371]	[Remarks:Successful filter row count: 1]
[Date: 2015-07-27 08:33:12]	[UserID:06/371]	[IP:10.10.11.1]	[Browser:Chrome - 43.0.2357.134]	[Action:Making connection to server]	[Remarks:Successful connection to server: S3]
[Date: 2015-07-27 08:33:12]	[UserID:06/371]	[IP:10.10.11.1]	[Browser:Chrome - 43.0.2357.134]	[Action:GetGSTModules 06/371,1]	[Remarks:Successful filter row count: 5]
[Date: 2015-07-27 08:33:12]	[UserID:06/371]	[IP:10.10.11.1]	[Browser:Chrome - 43.0.2357.134]	[Action:Closing mssql connection]	[Remarks:Success]
[Date: 2015-07-27 08:36:03]	[UserID:06/371]	[IP:10.10.11.1]	[Browser:Chrome - 43.0.2357.134]	[Action:Making connection to server]	[Remarks:Successful connection to server: S3]
[Date: 2015-07-27 08:36:03]	[UserID:06/371]	[IP:10.10.11.1]	[Browser:Chrome - 43.0.2357.134]	[Action:GetGSTModules 06/371,1]	[Remarks:Successful filter row count: 5]
[Date: 2015-07-27 08:36:03]	[UserID:06/371]	[IP:10.10.11.1]	[Browser:Chrome - 43.0.2357.134]	[Action:Closing mssql connection]	[Remarks:Success]
[Date: 2015-07-27 08:46:55]	[UserID:06/371]	[IP:10.10.11.1]	[Browser:Chrome - 43.0.2357.134]	[Action:Making connection to server]	[Remarks:Successful connection to server: S3]
[Date: 2015-07-27 08:46:55]	[UserID:06/371]	[IP:10.10.11.1]	[Browser:Chrome - 43.0.2357.134]	[Action:GetGSTModules 06/371,1]	[Remarks:Successful filter row count: 5]
[Date: 2015-07-27 08:46:55]	[UserID:06/371]	[IP:10.10.11.1]	[Browser:Chrome - 43.0.2357.134]	[Action:Closing mssql connection]	[Remarks:Success]
[Date: 2015-07-27 08:48:55]	[UserID:06/371]	[IP:10.10.11.1]	[Browser:Chrome - 43.0.2357.134]	[Action:Making connection to server]	[Remarks:Successful connection to server: S3]
[Date: 2015-07-27 08:48:55]	[UserID:06/371]	[IP:10.10.11.1]	[Browser:Chrome - 43.0.2357.134]	[Action:GetGSTModules 06/371,1]	[Remarks:Successful filter row count: 5]
[Date: 2015-07-27 08:48:55]	[UserID:06/371]	[IP:10.10.11.1]	[Browser:Chrome - 43.0.2357.134]	[Action:Closing mssql connection]	[Remarks:Success]
[Date: 2015-07-27 09:00:32]	[UserID:06/371]	[IP:10.10.11.1]	[Browser:Chrome - 43.0.2357.134]	[Action:Making connection to server]	[Remarks:Successful connection to server: S3]
[Date: 2015-07-27 09:00:32]	[UserID:06/371]	[IP:10.10.11.1]	[Browser:Chrome - 43.0.2357.134]	[Action:GetGSTModules 06/371,1]	[Remarks:Successful filter row count: 5]
[Date: 2015-07-27 09:00:32]	[UserID:06/371]	[IP:10.10.11.1]	[Browser:Chrome - 43.0.2357.134]	[Action:Closing mssql connection]	[Remarks:Success]
[Date: 2015-07-27 09:25:46]	[UserID:]	[IP:10.10.11.1]	[Browser:Chrome - 43.0.2357.134]	[Action:Making connection to server]	[Remarks:Successful connection to server: S3]
[Date: 2015-07-27 09:25:46]	[UserID:]	[IP:10.10.11.1]	[Browser:Chrome - 43.0.2357.134]	[Action:GetProgramList ]	[Remarks:"no data"]
[Date: 2015-07-27 09:26:37]	[UserID:10/660]	[IP:10.10.11.1]	[Browser:Chrome - 43.0.2357.134]	[Action:Making connection to server]	[Remarks:Successful connection to server: S3]
[Date: 2015-07-27 09:26:37]	[UserID:10/660]	[IP:10.10.11.1]	[Browser:Chrome - 43.0.2357.134]	[Action:User 10/660]	[Remarks:Success]
[Date: 2015-07-27 09:26:37]	[UserID:10/660]	[IP:10.10.11.1]	[Browser:Chrome - 43.0.2357.134]	[Action:Filtering User : MasterData Username : 10/660]	[Remarks:Successful filter row count: 0]
[Date: 2015-07-27 09:26:37]	[UserID:10/660]	[IP:10.10.11.1]	[Browser:Chrome - 43.0.2357.134]	[Action:Filtering User : MasterData Username : 10/660]	[Remarks:Successful filter row count: 0]
[Date: 2015-07-27 09:26:37]	[UserID:10/660]	[IP:10.10.11.1]	[Browser:Chrome - 43.0.2357.134]	[Action:Filtering User : MasterData Username : 10/660]	[Remarks:Success]
[Date: 2015-07-27 09:26:37]	[UserID:10/660]	[IP:10.10.11.1]	[Browser:Chrome - 43.0.2357.134]	[Action:Closing mssql connection]	[Remarks:Success]
[Date: 2015-07-27 09:26:38]	[UserID:10/660]	[IP:10.10.11.1]	[Browser:Chrome - 43.0.2357.134]	[Action:Making connection to server]	[Remarks:Successful connection to server: S3]
[Date: 2015-07-27 09:26:38]	[UserID:10/660]	[IP:10.10.11.1]	[Browser:Chrome - 43.0.2357.134]	[Action:GetProgramList 10/660]	[Remarks:[{"ID":"1","ProgramIndex":"GST","ProgramName":"GST"}]]
[Date: 2015-07-27 09:26:38]	[UserID:10/660]	[IP:10.10.11.1]	[Browser:Chrome - 43.0.2357.134]	[Action:Making connection to server]	[Remarks:Successful connection to server: S3]
[Date: 2015-07-27 09:26:38]	[UserID:10/660]	[IP:10.10.11.1]	[Browser:Chrome - 43.0.2357.134]	[Action:GetProgramList 10/660]	[Remarks:[{"ID":"1","ProgramIndex":"GST","ProgramName":"GST"}]]
[Date: 2015-07-27 09:26:38]	[UserID:10/660]	[IP:10.10.11.1]	[Browser:Chrome - 43.0.2357.134]	[Action:Making connection to server]	[Remarks:Successful connection to server: S3]
[Date: 2015-07-27 09:26:38]	[UserID:10/660]	[IP:10.10.11.1]	[Browser:Chrome - 43.0.2357.134]	[Action:Filtering User : MasterData Username : 10/660]	[Remarks:Successful filter row count: 1]
[Date: 2015-07-27 09:26:38]	[UserID:10/660]	[IP:10.10.11.1]	[Browser:Chrome - 43.0.2357.134]	[Action:Making connection to server]	[Remarks:Successful connection to server: S3]
[Date: 2015-07-27 09:26:38]	[UserID:10/660]	[IP:10.10.11.1]	[Browser:Chrome - 43.0.2357.134]	[Action:GetGSTModules 10/660,1]	[Remarks:Successful filter row count: 3]
[Date: 2015-07-27 09:26:38]	[UserID:10/660]	[IP:10.10.11.1]	[Browser:Chrome - 43.0.2357.134]	[Action:Closing mssql connection]	[Remarks:Success]
[Date: 2015-07-27 09:39:07]	[UserID:10/660]	[IP:10.10.11.1]	[Browser:Chrome - 43.0.2357.134]	[Action:Making connection to server]	[Remarks:Successful connection to server: S3]
[Date: 2015-07-27 09:39:07]	[UserID:10/660]	[IP:10.10.11.1]	[Browser:Chrome - 43.0.2357.134]	[Action:GetGSTModules 10/660,1]	[Remarks:Successful filter row count: 3]
[Date: 2015-07-27 09:39:07]	[UserID:10/660]	[IP:10.10.11.1]	[Browser:Chrome - 43.0.2357.134]	[Action:Closing mssql connection]	[Remarks:Success]
[Date: 2015-07-27 10:15:10]	[UserID:10/660]	[IP:10.10.11.1]	[Browser:Chrome - 43.0.2357.134]	[Action:Making connection to server]	[Remarks:Successful connection to server: S3]
[Date: 2015-07-27 10:15:10]	[UserID:10/660]	[IP:10.10.11.1]	[Browser:Chrome - 43.0.2357.134]	[Action:GetGSTModules 10/660,1]	[Remarks:Successful filter row count: 3]
[Date: 2015-07-27 10:15:10]	[UserID:10/660]	[IP:10.10.11.1]	[Browser:Chrome - 43.0.2357.134]	[Action:Closing mssql connection]	[Remarks:Success]
[Date: 2015-07-27 10:16:02]	[UserID:]	[IP:10.10.11.1]	[Browser:Chrome - 43.0.2357.134]	[Action:Making connection to server]	[Remarks:Successful connection to server: S3]
[Date: 2015-07-27 10:16:02]	[UserID:]	[IP:10.10.11.1]	[Browser:Chrome - 43.0.2357.134]	[Action:GetProgramList ]	[Remarks:"no data"]
[Date: 2015-07-27 10:41:22]	[UserID:06/343]	[IP:10.10.11.1]	[Browser:Chrome - 44.0.2403.89]	[Action:Making connection to server]	[Remarks:Successful connection to server: S3]
[Date: 2015-07-27 10:41:22]	[UserID:06/343]	[IP:10.10.11.1]	[Browser:Chrome - 44.0.2403.89]	[Action:GetGSTModules 06/343,1]	[Remarks:Successful filter row count: 5]
[Date: 2015-07-27 10:41:22]	[UserID:06/343]	[IP:10.10.11.1]	[Browser:Chrome - 44.0.2403.89]	[Action:Closing mssql connection]	[Remarks:Success]
[Date: 2015-07-27 10:43:35]	[UserID:06/343]	[IP:10.10.11.1]	[Browser:Chrome - 44.0.2403.89]	[Action:Making connection to server]	[Remarks:Successful connection to server: S3]
[Date: 2015-07-27 10:43:35]	[UserID:06/343]	[IP:10.10.11.1]	[Browser:Chrome - 44.0.2403.89]	[Action:GetGSTModules 06/343,1]	[Remarks:Successful filter row count: 5]
[Date: 2015-07-27 10:43:35]	[UserID:06/343]	[IP:10.10.11.1]	[Browser:Chrome - 44.0.2403.89]	[Action:Closing mssql connection]	[Remarks:Success]
[Date: 2015-07-27 10:57:44]	[UserID:06/343]	[IP:10.10.11.1]	[Browser:Chrome - 44.0.2403.89]	[Action:Making connection to server]	[Remarks:Successful connection to server: S3]
[Date: 2015-07-27 10:57:44]	[UserID:06/343]	[IP:10.10.11.1]	[Browser:Chrome - 44.0.2403.89]	[Action:GetGSTModules 06/343,1]	[Remarks:Successful filter row count: 5]
[Date: 2015-07-27 10:57:44]	[UserID:06/343]	[IP:10.10.11.1]	[Browser:Chrome - 44.0.2403.89]	[Action:Closing mssql connection]	[Remarks:Success]
[Date: 2015-07-27 10:58:42]	[UserID:06/343]	[IP:10.10.11.1]	[Browser:Chrome - 44.0.2403.89]	[Action:Making connection to server]	[Remarks:Successful connection to server: S3]
[Date: 2015-07-27 10:58:42]	[UserID:06/343]	[IP:10.10.11.1]	[Browser:Chrome - 44.0.2403.89]	[Action:GetGSTModules 06/343,1]	[Remarks:Successful filter row count: 5]
[Date: 2015-07-27 10:58:42]	[UserID:06/343]	[IP:10.10.11.1]	[Browser:Chrome - 44.0.2403.89]	[Action:Closing mssql connection]	[Remarks:Success]
[Date: 2015-07-27 11:01:45]	[UserID:06/343]	[IP:10.10.11.1]	[Browser:Chrome - 44.0.2403.89]	[Action:Making connection to server]	[Remarks:Successful connection to server: S3]
[Date: 2015-07-27 11:01:45]	[UserID:06/343]	[IP:10.10.11.1]	[Browser:Chrome - 44.0.2403.89]	[Action:GetGSTModules 06/343,1]	[Remarks:Successful filter row count: 5]
[Date: 2015-07-27 11:01:45]	[UserID:06/343]	[IP:10.10.11.1]	[Browser:Chrome - 44.0.2403.89]	[Action:Closing mssql connection]	[Remarks:Success]
[Date: 2015-07-27 11:02:25]	[UserID:06/343]	[IP:10.10.11.1]	[Browser:Chrome - 44.0.2403.89]	[Action:Making connection to server]	[Remarks:Successful connection to server: S3]
[Date: 2015-07-27 11:02:25]	[UserID:06/343]	[IP:10.10.11.1]	[Browser:Chrome - 44.0.2403.89]	[Action:GetGSTModules 06/343,1]	[Remarks:Successful filter row count: 5]
[Date: 2015-07-27 11:02:25]	[UserID:06/343]	[IP:10.10.11.1]	[Browser:Chrome - 44.0.2403.89]	[Action:Closing mssql connection]	[Remarks:Success]
[Date: 2015-07-27 12:50:10]	[UserID:06/343]	[IP:10.10.11.1]	[Browser:Chrome - 44.0.2403.89]	[Action:Making connection to server]	[Remarks:Successful connection to server: S3]
[Date: 2015-07-27 12:50:10]	[UserID:06/343]	[IP:10.10.11.1]	[Browser:Chrome - 44.0.2403.89]	[Action:GetGSTModules 06/343,1]	[Remarks:Successful filter row count: 5]
[Date: 2015-07-27 12:50:10]	[UserID:06/343]	[IP:10.10.11.1]	[Browser:Chrome - 44.0.2403.89]	[Action:Closing mssql connection]	[Remarks:Success]
[Date: 2015-07-27 12:51:29]	[UserID:06/343]	[IP:10.10.11.1]	[Browser:Chrome - 44.0.2403.89]	[Action:Making connection to server]	[Remarks:Successful connection to server: S3]
[Date: 2015-07-27 12:51:29]	[UserID:06/343]	[IP:10.10.11.1]	[Browser:Chrome - 44.0.2403.89]	[Action:GetGSTModules 06/343,1]	[Remarks:Successful filter row count: 5]
[Date: 2015-07-27 12:51:29]	[UserID:06/343]	[IP:10.10.11.1]	[Browser:Chrome - 44.0.2403.89]	[Action:Closing mssql connection]	[Remarks:Success]
[Date: 2015-07-27 15:11:44]	[UserID:06/343]	[IP:10.10.11.1]	[Browser:Chrome - 44.0.2403.89]	[Action:Making connection to server]	[Remarks:Successful connection to server: S3]
[Date: 2015-07-27 15:11:44]	[UserID:06/343]	[IP:10.10.11.1]	[Browser:Chrome - 44.0.2403.89]	[Action:GetProgramList 06/343]	[Remarks:[{"ID":"1","ProgramIndex":"GST","ProgramName":"GST"}]]
[Date: 2015-07-27 15:11:44]	[UserID:06/343]	[IP:10.10.11.1]	[Browser:Chrome - 44.0.2403.89]	[Action:Making connection to server]	[Remarks:Successful connection to server: S3]
[Date: 2015-07-27 15:11:44]	[UserID:06/343]	[IP:10.10.11.1]	[Browser:Chrome - 44.0.2403.89]	[Action:GetProgramList 06/343]	[Remarks:[{"ID":"1","ProgramIndex":"GST","ProgramName":"GST"}]]
[Date: 2015-07-27 15:11:44]	[UserID:06/343]	[IP:10.10.11.1]	[Browser:Chrome - 44.0.2403.89]	[Action:Making connection to server]	[Remarks:Successful connection to server: S3]
[Date: 2015-07-27 15:11:44]	[UserID:06/343]	[IP:10.10.11.1]	[Browser:Chrome - 44.0.2403.89]	[Action:Filtering User : MasterData Username : 06/343]	[Remarks:Successful filter row count: 1]
[Date: 2015-07-27 15:11:44]	[UserID:06/343]	[IP:10.10.11.1]	[Browser:Chrome - 44.0.2403.89]	[Action:Making connection to server]	[Remarks:Successful connection to server: S3]
[Date: 2015-07-27 15:11:44]	[UserID:06/343]	[IP:10.10.11.1]	[Browser:Chrome - 44.0.2403.89]	[Action:GetProgramList 06/343]	[Remarks:[{"ID":"1","ProgramIndex":"GST","ProgramName":"GST"}]]
[Date: 2015-07-27 15:11:44]	[UserID:06/343]	[IP:10.10.11.1]	[Browser:Chrome - 44.0.2403.89]	[Action:Making connection to server]	[Remarks:Successful connection to server: S3]
[Date: 2015-07-27 15:11:44]	[UserID:06/343]	[IP:10.10.11.1]	[Browser:Chrome - 44.0.2403.89]	[Action:GetProgramList 06/343]	[Remarks:[{"ID":"1","ProgramIndex":"GST","ProgramName":"GST"}]]
[Date: 2015-07-27 15:11:44]	[UserID:06/343]	[IP:10.10.11.1]	[Browser:Chrome - 44.0.2403.89]	[Action:Making connection to server]	[Remarks:Successful connection to server: S3]
[Date: 2015-07-27 15:11:44]	[UserID:06/343]	[IP:10.10.11.1]	[Browser:Chrome - 44.0.2403.89]	[Action:Filtering User : MasterData Username : 06/343]	[Remarks:Successful filter row count: 1]
[Date: 2015-07-27 15:11:45]	[UserID:06/343]	[IP:10.10.11.1]	[Browser:Chrome - 44.0.2403.89]	[Action:Making connection to server]	[Remarks:Successful connection to server: S3]
[Date: 2015-07-27 15:11:45]	[UserID:06/343]	[IP:10.10.11.1]	[Browser:Chrome - 44.0.2403.89]	[Action:GetGSTModules 06/343,1]	[Remarks:Successful filter row count: 5]
[Date: 2015-07-27 15:11:45]	[UserID:06/343]	[IP:10.10.11.1]	[Browser:Chrome - 44.0.2403.89]	[Action:Closing mssql connection]	[Remarks:Success]
[Date: 2015-07-27 15:13:16]	[UserID:06/343]	[IP:10.10.11.1]	[Browser:Chrome - 44.0.2403.89]	[Action:Making connection to server]	[Remarks:Successful connection to server: S3]
[Date: 2015-07-27 15:13:16]	[UserID:06/343]	[IP:10.10.11.1]	[Browser:Chrome - 44.0.2403.89]	[Action:GetProgramList 06/343]	[Remarks:[{"ID":"1","ProgramIndex":"GST","ProgramName":"GST"}]]
[Date: 2015-07-27 15:13:16]	[UserID:06/343]	[IP:10.10.11.1]	[Browser:Chrome - 44.0.2403.89]	[Action:Making connection to server]	[Remarks:Successful connection to server: S3]
[Date: 2015-07-27 15:13:16]	[UserID:06/343]	[IP:10.10.11.1]	[Browser:Chrome - 44.0.2403.89]	[Action:GetProgramList 06/343]	[Remarks:[{"ID":"1","ProgramIndex":"GST","ProgramName":"GST"}]]
[Date: 2015-07-27 15:13:16]	[UserID:06/343]	[IP:10.10.11.1]	[Browser:Chrome - 44.0.2403.89]	[Action:Making connection to server]	[Remarks:Successful connection to server: S3]
[Date: 2015-07-27 15:13:16]	[UserID:06/343]	[IP:10.10.11.1]	[Browser:Chrome - 44.0.2403.89]	[Action:Filtering User : MasterData Username : 06/343]	[Remarks:Successful filter row count: 1]
[Date: 2015-07-27 15:13:17]	[UserID:06/343]	[IP:10.10.11.1]	[Browser:Chrome - 44.0.2403.89]	[Action:Making connection to server]	[Remarks:Successful connection to server: S3]
[Date: 2015-07-27 15:13:17]	[UserID:06/343]	[IP:10.10.11.1]	[Browser:Chrome - 44.0.2403.89]	[Action:GetGSTModules 06/343,1]	[Remarks:Successful filter row count: 5]
[Date: 2015-07-27 15:13:17]	[UserID:06/343]	[IP:10.10.11.1]	[Browser:Chrome - 44.0.2403.89]	[Action:Closing mssql connection]	[Remarks:Success]
[Date: 2015-07-27 15:15:32]	[UserID:06/343]	[IP:10.10.11.1]	[Browser:Chrome - 44.0.2403.89]	[Action:Making connection to server]	[Remarks:Successful connection to server: S3]
[Date: 2015-07-27 15:15:32]	[UserID:06/343]	[IP:10.10.11.1]	[Browser:Chrome - 44.0.2403.89]	[Action:GetGSTModules 06/343,1]	[Remarks:Successful filter row count: 5]
[Date: 2015-07-27 15:15:32]	[UserID:06/343]	[IP:10.10.11.1]	[Browser:Chrome - 44.0.2403.89]	[Action:Closing mssql connection]	[Remarks:Success]
[Date: 2015-07-27 15:59:13]	[UserID:06/343]	[IP:10.10.11.1]	[Browser:Chrome - 44.0.2403.89]	[Action:Making connection to server]	[Remarks:Successful connection to server: S3]
[Date: 2015-07-27 15:59:13]	[UserID:06/343]	[IP:10.10.11.1]	[Browser:Chrome - 44.0.2403.89]	[Action:GetGSTModules 06/343,1]	[Remarks:Successful filter row count: 5]
[Date: 2015-07-27 15:59:13]	[UserID:06/343]	[IP:10.10.11.1]	[Browser:Chrome - 44.0.2403.89]	[Action:Closing mssql connection]	[Remarks:Success]
[Date: 2015-07-27 16:00:16]	[UserID:06/343]	[IP:10.10.11.1]	[Browser:Chrome - 44.0.2403.89]	[Action:Making connection to server]	[Remarks:Successful connection to server: S3]
[Date: 2015-07-27 16:00:16]	[UserID:06/343]	[IP:10.10.11.1]	[Browser:Chrome - 44.0.2403.89]	[Action:GetGSTModules 06/343,1]	[Remarks:Successful filter row count: 5]
[Date: 2015-07-27 16:00:16]	[UserID:06/343]	[IP:10.10.11.1]	[Browser:Chrome - 44.0.2403.89]	[Action:Closing mssql connection]	[Remarks:Success]
