[Date: 2020-06-08 07:46:22]	[UserID:]	[IP:10.128.130.5]	[Browser:Chrome - 83.0.4103.97]	[Action:Making connection to server]	[Remarks:Successful connection to server: S3]
[Date: 2020-06-08 07:46:22]	[UserID:]	[IP:10.128.130.5]	[Browser:Chrome - 83.0.4103.97]	[Action:GetProgramList ]	[Remarks:"no data"]
[Date: 2020-06-08 09:19:12]	[UserID:]	[IP:10.128.12.114]	[Browser:Chrome - 83.0.4103.97]	[Action:Making connection to server]	[Remarks:Successful connection to server: S3]
[Date: 2020-06-08 09:19:12]	[UserID:]	[IP:10.128.12.114]	[Browser:Chrome - 83.0.4103.97]	[Action:GetProgramList ]	[Remarks:"no data"]
[Date: 2020-06-08 09:19:18]	[UserID:14/1082]	[IP:10.128.12.114]	[Browser:Chrome - 83.0.4103.97]	[Action:Making connection to server]	[Remarks:Successful connection to server: S3]
[Date: 2020-06-08 09:19:18]	[UserID:14/1082]	[IP:10.128.12.114]	[Browser:Chrome - 83.0.4103.97]	[Action:User 14/1082]	[Remarks:Success]
[Date: 2020-06-08 09:19:18]	[UserID:14/1082]	[IP:10.128.12.114]	[Browser:Chrome - 83.0.4103.97]	[Action:Filtering User : MasterData Username : 14/1082]	[Remarks:Successful filter row count: 0]
[Date: 2020-06-08 09:19:18]	[UserID:14/1082]	[IP:10.128.12.114]	[Browser:Chrome - 83.0.4103.97]	[Action:Filtering User : MasterData Username : 14/1082]	[Remarks:Successful filter row count: 0]
[Date: 2020-06-08 09:19:18]	[UserID:14/1082]	[IP:10.128.12.114]	[Browser:Chrome - 83.0.4103.97]	[Action:Filtering User : MasterData Username : 14/1082]	[Remarks:Success]
[Date: 2020-06-08 09:19:18]	[UserID:14/1082]	[IP:10.128.12.114]	[Browser:Chrome - 83.0.4103.97]	[Action:Closing mssql connection]	[Remarks:Success]
[Date: 2020-06-08 09:19:18]	[UserID:14/1082]	[IP:10.128.12.114]	[Browser:Chrome - 83.0.4103.97]	[Action:Making connection to server]	[Remarks:Successful connection to server: S3]
[Date: 2020-06-08 09:19:18]	[UserID:14/1082]	[IP:10.128.12.114]	[Browser:Chrome - 83.0.4103.97]	[Action:GetProgramList 14/1082]	[Remarks:[{"ID":"1","ProgramIndex":"GST","ProgramName":"GST"}]]
[Date: 2020-06-08 09:19:18]	[UserID:14/1082]	[IP:10.128.12.114]	[Browser:Chrome - 83.0.4103.97]	[Action:Making connection to server]	[Remarks:Successful connection to server: S3]
[Date: 2020-06-08 09:19:18]	[UserID:14/1082]	[IP:10.128.12.114]	[Browser:Chrome - 83.0.4103.97]	[Action:GetProgramList 14/1082]	[Remarks:[{"ID":"1","ProgramIndex":"GST","ProgramName":"GST"}]]
[Date: 2020-06-08 09:19:18]	[UserID:14/1082]	[IP:10.128.12.114]	[Browser:Chrome - 83.0.4103.97]	[Action:Making connection to server]	[Remarks:Successful connection to server: S3]
[Date: 2020-06-08 09:19:18]	[UserID:14/1082]	[IP:10.128.12.114]	[Browser:Chrome - 83.0.4103.97]	[Action:Filtering User : MasterData Username : 14/1082]	[Remarks:Successful filter row count: 1]
[Date: 2020-06-08 09:19:18]	[UserID:14/1082]	[IP:10.128.12.114]	[Browser:Chrome - 83.0.4103.97]	[Action:Making connection to server]	[Remarks:Successful connection to server: S3]
[Date: 2020-06-08 09:19:18]	[UserID:14/1082]	[IP:10.128.12.114]	[Browser:Chrome - 83.0.4103.97]	[Action:GetGSTModules 14/1082,1]	[Remarks:Successful filter row count: 8]
[Date: 2020-06-08 09:19:18]	[UserID:14/1082]	[IP:10.128.12.114]	[Browser:Chrome - 83.0.4103.97]	[Action:Closing mssql connection]	[Remarks:Success]
[Date: 2020-06-08 09:28:28]	[UserID:]	[IP:10.128.130.5]	[Browser:Chrome - 83.0.4103.97]	[Action:Making connection to server]	[Remarks:Successful connection to server: S3]
[Date: 2020-06-08 09:28:28]	[UserID:]	[IP:10.128.130.5]	[Browser:Chrome - 83.0.4103.97]	[Action:GetProgramList ]	[Remarks:"no data"]
[Date: 2020-06-08 12:54:19]	[UserID:]	[IP:10.128.130.5]	[Browser:Chrome - 83.0.4103.97]	[Action:Making connection to server]	[Remarks:Successful connection to server: S3]
[Date: 2020-06-08 12:54:19]	[UserID:]	[IP:10.128.130.5]	[Browser:Chrome - 83.0.4103.97]	[Action:GetProgramList ]	[Remarks:"no data"]
[Date: 2020-06-08 12:54:28]	[UserID:06/343]	[IP:10.128.130.5]	[Browser:Chrome - 83.0.4103.97]	[Action:Making connection to server]	[Remarks:Successful connection to server: S3]
[Date: 2020-06-08 12:54:29]	[UserID:06/343]	[IP:10.128.130.5]	[Browser:Chrome - 83.0.4103.97]	[Action:User 06/343]	[Remarks:Success]
[Date: 2020-06-08 12:54:29]	[UserID:06/343]	[IP:10.128.130.5]	[Browser:Chrome - 83.0.4103.97]	[Action:Filtering User : MasterData Username : 06/343]	[Remarks:Successful filter row count: 0]
[Date: 2020-06-08 12:54:29]	[UserID:06/343]	[IP:10.128.130.5]	[Browser:Chrome - 83.0.4103.97]	[Action:Filtering User : MasterData Username : 06/343]	[Remarks:Successful filter row count: 0]
[Date: 2020-06-08 12:54:29]	[UserID:06/343]	[IP:10.128.130.5]	[Browser:Chrome - 83.0.4103.97]	[Action:Filtering User : MasterData Username : 06/343]	[Remarks:Success]
[Date: 2020-06-08 12:54:29]	[UserID:06/343]	[IP:10.128.130.5]	[Browser:Chrome - 83.0.4103.97]	[Action:Closing mssql connection]	[Remarks:Success]
[Date: 2020-06-08 12:54:29]	[UserID:06/343]	[IP:10.128.130.5]	[Browser:Chrome - 83.0.4103.97]	[Action:Making connection to server]	[Remarks:Successful connection to server: S3]
[Date: 2020-06-08 12:54:29]	[UserID:06/343]	[IP:10.128.130.5]	[Browser:Chrome - 83.0.4103.97]	[Action:GetProgramList 06/343]	[Remarks:[{"ID":"1","ProgramIndex":"GST","ProgramName":"GST"}]]
[Date: 2020-06-08 12:54:29]	[UserID:06/343]	[IP:10.128.130.5]	[Browser:Chrome - 83.0.4103.97]	[Action:Making connection to server]	[Remarks:Successful connection to server: S3]
[Date: 2020-06-08 12:54:29]	[UserID:06/343]	[IP:10.128.130.5]	[Browser:Chrome - 83.0.4103.97]	[Action:GetProgramList 06/343]	[Remarks:[{"ID":"1","ProgramIndex":"GST","ProgramName":"GST"}]]
[Date: 2020-06-08 12:54:29]	[UserID:06/343]	[IP:10.128.130.5]	[Browser:Chrome - 83.0.4103.97]	[Action:Making connection to server]	[Remarks:Successful connection to server: S3]
[Date: 2020-06-08 12:54:29]	[UserID:06/343]	[IP:10.128.130.5]	[Browser:Chrome - 83.0.4103.97]	[Action:Filtering User : MasterData Username : 06/343]	[Remarks:Successful filter row count: 1]
[Date: 2020-06-08 12:54:30]	[UserID:06/343]	[IP:10.128.130.5]	[Browser:Chrome - 83.0.4103.97]	[Action:Making connection to server]	[Remarks:Successful connection to server: S3]
[Date: 2020-06-08 12:54:30]	[UserID:06/343]	[IP:10.128.130.5]	[Browser:Chrome - 83.0.4103.97]	[Action:GetGSTModules 06/343,1]	[Remarks:Successful filter row count: 7]
[Date: 2020-06-08 12:54:30]	[UserID:06/343]	[IP:10.128.130.5]	[Browser:Chrome - 83.0.4103.97]	[Action:Closing mssql connection]	[Remarks:Success]
[Date: 2020-06-08 12:58:53]	[UserID:06/343]	[IP:10.128.130.5]	[Browser:Chrome - 83.0.4103.97]	[Action:Making connection to server]	[Remarks:Successful connection to server: S3]
[Date: 2020-06-08 12:58:53]	[UserID:06/343]	[IP:10.128.130.5]	[Browser:Chrome - 83.0.4103.97]	[Action:GetGSTModules 06/343,1]	[Remarks:Successful filter row count: 7]
[Date: 2020-06-08 12:58:53]	[UserID:06/343]	[IP:10.128.130.5]	[Browser:Chrome - 83.0.4103.97]	[Action:Closing mssql connection]	[Remarks:Success]
[Date: 2020-06-08 13:01:39]	[UserID:06/343]	[IP:10.128.130.5]	[Browser:Chrome - 83.0.4103.97]	[Action:Making connection to server]	[Remarks:Successful connection to server: S3]
[Date: 2020-06-08 13:01:39]	[UserID:06/343]	[IP:10.128.130.5]	[Browser:Chrome - 83.0.4103.97]	[Action:GetGSTModules 06/343,1]	[Remarks:Successful filter row count: 7]
[Date: 2020-06-08 13:01:39]	[UserID:06/343]	[IP:10.128.130.5]	[Browser:Chrome - 83.0.4103.97]	[Action:Closing mssql connection]	[Remarks:Success]
[Date: 2020-06-08 13:04:57]	[UserID:06/343]	[IP:10.128.130.5]	[Browser:Chrome - 83.0.4103.97]	[Action:Making connection to server]	[Remarks:Successful connection to server: S3]
[Date: 2020-06-08 13:04:58]	[UserID:06/343]	[IP:10.128.130.5]	[Browser:Chrome - 83.0.4103.97]	[Action:GetGSTModules 06/343,1]	[Remarks:Successful filter row count: 7]
[Date: 2020-06-08 13:04:58]	[UserID:06/343]	[IP:10.128.130.5]	[Browser:Chrome - 83.0.4103.97]	[Action:Closing mssql connection]	[Remarks:Success]
[Date: 2020-06-08 13:07:26]	[UserID:06/343]	[IP:10.128.130.5]	[Browser:Chrome - 83.0.4103.97]	[Action:Making connection to server]	[Remarks:Successful connection to server: S3]
[Date: 2020-06-08 13:07:27]	[UserID:06/343]	[IP:10.128.130.5]	[Browser:Chrome - 83.0.4103.97]	[Action:GetGSTModules 06/343,1]	[Remarks:Successful filter row count: 7]
[Date: 2020-06-08 13:07:27]	[UserID:06/343]	[IP:10.128.130.5]	[Browser:Chrome - 83.0.4103.97]	[Action:Closing mssql connection]	[Remarks:Success]
[Date: 2020-06-08 13:13:02]	[UserID:06/343]	[IP:10.128.130.5]	[Browser:Chrome - 83.0.4103.97]	[Action:Making connection to server]	[Remarks:Successful connection to server: S3]
[Date: 2020-06-08 13:13:02]	[UserID:06/343]	[IP:10.128.130.5]	[Browser:Chrome - 83.0.4103.97]	[Action:GetGSTModules 06/343,1]	[Remarks:Successful filter row count: 7]
[Date: 2020-06-08 13:13:02]	[UserID:06/343]	[IP:10.128.130.5]	[Browser:Chrome - 83.0.4103.97]	[Action:Closing mssql connection]	[Remarks:Success]
[Date: 2020-06-08 13:15:34]	[UserID:06/343]	[IP:10.128.130.5]	[Browser:Chrome - 83.0.4103.97]	[Action:Making connection to server]	[Remarks:Successful connection to server: S3]
[Date: 2020-06-08 13:15:34]	[UserID:06/343]	[IP:10.128.130.5]	[Browser:Chrome - 83.0.4103.97]	[Action:GetGSTModules 06/343,1]	[Remarks:Successful filter row count: 7]
[Date: 2020-06-08 13:15:34]	[UserID:06/343]	[IP:10.128.130.5]	[Browser:Chrome - 83.0.4103.97]	[Action:Closing mssql connection]	[Remarks:Success]
[Date: 2020-06-08 17:32:29]	[UserID:]	[IP:10.128.12.114]	[Browser:Chrome - 83.0.4103.97]	[Action:Making connection to server]	[Remarks:Successful connection to server: S3]
[Date: 2020-06-08 17:32:29]	[UserID:]	[IP:10.128.12.114]	[Browser:Chrome - 83.0.4103.97]	[Action:GetProgramList ]	[Remarks:"no data"]
[Date: 2020-06-08 22:42:32]	[UserID:]	[IP:10.128.130.5]	[Browser:Firefox - 76.0]	[Action:Making connection to server]	[Remarks:Successful connection to server: S3]
[Date: 2020-06-08 22:42:32]	[UserID:]	[IP:10.128.130.5]	[Browser:Firefox - 76.0]	[Action:GetProgramList ]	[Remarks:"no data"]
