[Date: 2016-01-20 07:39:36]	[UserID:]	[IP:10.10.11.1]	[Browser:Chrome - 47.0.2526.111]	[Action:Making connection to server]	[Remarks:Successful connection to server: S3]
[Date: 2016-01-20 07:39:36]	[UserID:]	[IP:10.10.11.1]	[Browser:Chrome - 47.0.2526.111]	[Action:GetProgramList ]	[Remarks:"no data"]
[Date: 2016-01-20 07:59:16]	[UserID:]	[IP:10.10.11.1]	[Browser:Chrome - 47.0.2526.111]	[Action:Making connection to server]	[Remarks:Successful connection to server: S3]
[Date: 2016-01-20 07:59:16]	[UserID:]	[IP:10.10.11.1]	[Browser:Chrome - 47.0.2526.111]	[Action:GetProgramList ]	[Remarks:"no data"]
[Date: 2016-01-20 07:59:19]	[UserID:11/715]	[IP:10.10.11.1]	[Browser:Chrome - 47.0.2526.111]	[Action:Making connection to server]	[Remarks:Successful connection to server: S3]
[Date: 2016-01-20 07:59:19]	[UserID:11/715]	[IP:10.10.11.1]	[Browser:Chrome - 47.0.2526.111]	[Action:User 11/715]	[Remarks:Success]
[Date: 2016-01-20 07:59:19]	[UserID:11/715]	[IP:10.10.11.1]	[Browser:Chrome - 47.0.2526.111]	[Action:Filtering User : MasterData Username : 11/715]	[Remarks:Successful filter row count: 0]
[Date: 2016-01-20 07:59:19]	[UserID:11/715]	[IP:10.10.11.1]	[Browser:Chrome - 47.0.2526.111]	[Action:Filtering User : MasterData Username : 11/715]	[Remarks:Successful filter row count: 0]
[Date: 2016-01-20 07:59:19]	[UserID:11/715]	[IP:10.10.11.1]	[Browser:Chrome - 47.0.2526.111]	[Action:Filtering User : MasterData Username : 11/715]	[Remarks:Success]
[Date: 2016-01-20 07:59:19]	[UserID:11/715]	[IP:10.10.11.1]	[Browser:Chrome - 47.0.2526.111]	[Action:Closing mssql connection]	[Remarks:Success]
[Date: 2016-01-20 07:59:19]	[UserID:11/715]	[IP:10.10.11.1]	[Browser:Chrome - 47.0.2526.111]	[Action:Making connection to server]	[Remarks:Successful connection to server: S3]
[Date: 2016-01-20 07:59:19]	[UserID:11/715]	[IP:10.10.11.1]	[Browser:Chrome - 47.0.2526.111]	[Action:GetProgramList 11/715]	[Remarks:[{"ID":"1","ProgramIndex":"GST","ProgramName":"GST"}]]
[Date: 2016-01-20 07:59:19]	[UserID:11/715]	[IP:10.10.11.1]	[Browser:Chrome - 47.0.2526.111]	[Action:Making connection to server]	[Remarks:Successful connection to server: S3]
[Date: 2016-01-20 07:59:19]	[UserID:11/715]	[IP:10.10.11.1]	[Browser:Chrome - 47.0.2526.111]	[Action:GetProgramList 11/715]	[Remarks:[{"ID":"1","ProgramIndex":"GST","ProgramName":"GST"}]]
[Date: 2016-01-20 07:59:19]	[UserID:11/715]	[IP:10.10.11.1]	[Browser:Chrome - 47.0.2526.111]	[Action:Making connection to server]	[Remarks:Successful connection to server: S3]
[Date: 2016-01-20 07:59:19]	[UserID:11/715]	[IP:10.10.11.1]	[Browser:Chrome - 47.0.2526.111]	[Action:Filtering User : MasterData Username : 11/715]	[Remarks:Successful filter row count: 1]
[Date: 2016-01-20 07:59:19]	[UserID:11/715]	[IP:10.10.11.1]	[Browser:Chrome - 47.0.2526.111]	[Action:Making connection to server]	[Remarks:Successful connection to server: S3]
[Date: 2016-01-20 07:59:20]	[UserID:11/715]	[IP:10.10.11.1]	[Browser:Chrome - 47.0.2526.111]	[Action:GetGSTModules 11/715,1]	[Remarks:Successful filter row count: 3]
[Date: 2016-01-20 07:59:20]	[UserID:11/715]	[IP:10.10.11.1]	[Browser:Chrome - 47.0.2526.111]	[Action:Closing mssql connection]	[Remarks:Success]
[Date: 2016-01-20 08:02:22]	[UserID:11/715]	[IP:10.10.11.1]	[Browser:Chrome - 47.0.2526.111]	[Action:Making connection to server]	[Remarks:Successful connection to server: S3]
[Date: 2016-01-20 08:02:22]	[UserID:11/715]	[IP:10.10.11.1]	[Browser:Chrome - 47.0.2526.111]	[Action:GetGSTModules 11/715,1]	[Remarks:Successful filter row count: 3]
[Date: 2016-01-20 08:02:22]	[UserID:11/715]	[IP:10.10.11.1]	[Browser:Chrome - 47.0.2526.111]	[Action:Closing mssql connection]	[Remarks:Success]
[Date: 2016-01-20 08:04:17]	[UserID:11/715]	[IP:10.10.11.1]	[Browser:Chrome - 47.0.2526.111]	[Action:Making connection to server]	[Remarks:Successful connection to server: S3]
[Date: 2016-01-20 08:04:17]	[UserID:11/715]	[IP:10.10.11.1]	[Browser:Chrome - 47.0.2526.111]	[Action:GetGSTModules 11/715,1]	[Remarks:Successful filter row count: 3]
[Date: 2016-01-20 08:04:17]	[UserID:11/715]	[IP:10.10.11.1]	[Browser:Chrome - 47.0.2526.111]	[Action:Closing mssql connection]	[Remarks:Success]
[Date: 2016-01-20 08:17:44]	[UserID:06/343]	[IP:10.10.11.1]	[Browser:Chrome - 47.0.2526.111]	[Action:Making connection to server]	[Remarks:Successful connection to server: S3]
[Date: 2016-01-20 08:17:44]	[UserID:06/343]	[IP:10.10.11.1]	[Browser:Chrome - 47.0.2526.111]	[Action:User 06/343]	[Remarks:Success]
[Date: 2016-01-20 08:17:45]	[UserID:06/343]	[IP:10.10.11.1]	[Browser:Chrome - 47.0.2526.111]	[Action:Filtering User : MasterData Username : 06/343]	[Remarks:Successful filter row count: 0]
[Date: 2016-01-20 08:17:45]	[UserID:06/343]	[IP:10.10.11.1]	[Browser:Chrome - 47.0.2526.111]	[Action:Filtering User : MasterData Username : 06/343]	[Remarks:Successful filter row count: 0]
[Date: 2016-01-20 08:17:45]	[UserID:06/343]	[IP:10.10.11.1]	[Browser:Chrome - 47.0.2526.111]	[Action:Filtering User : MasterData Username : 06/343]	[Remarks:Success]
[Date: 2016-01-20 08:17:45]	[UserID:06/343]	[IP:10.10.11.1]	[Browser:Chrome - 47.0.2526.111]	[Action:Closing mssql connection]	[Remarks:Success]
[Date: 2016-01-20 08:17:45]	[UserID:06/343]	[IP:10.10.11.1]	[Browser:Chrome - 47.0.2526.111]	[Action:Making connection to server]	[Remarks:Successful connection to server: S3]
[Date: 2016-01-20 08:17:45]	[UserID:06/343]	[IP:10.10.11.1]	[Browser:Chrome - 47.0.2526.111]	[Action:GetProgramList 06/343]	[Remarks:[{"ID":"1","ProgramIndex":"GST","ProgramName":"GST"}]]
[Date: 2016-01-20 08:17:45]	[UserID:06/343]	[IP:10.10.11.1]	[Browser:Chrome - 47.0.2526.111]	[Action:Making connection to server]	[Remarks:Successful connection to server: S3]
[Date: 2016-01-20 08:17:45]	[UserID:06/343]	[IP:10.10.11.1]	[Browser:Chrome - 47.0.2526.111]	[Action:GetProgramList 06/343]	[Remarks:[{"ID":"1","ProgramIndex":"GST","ProgramName":"GST"}]]
[Date: 2016-01-20 08:17:45]	[UserID:06/343]	[IP:10.10.11.1]	[Browser:Chrome - 47.0.2526.111]	[Action:Making connection to server]	[Remarks:Successful connection to server: S3]
[Date: 2016-01-20 08:17:45]	[UserID:06/343]	[IP:10.10.11.1]	[Browser:Chrome - 47.0.2526.111]	[Action:Filtering User : MasterData Username : 06/343]	[Remarks:Successful filter row count: 1]
[Date: 2016-01-20 08:17:46]	[UserID:06/343]	[IP:10.10.11.1]	[Browser:Chrome - 47.0.2526.111]	[Action:Making connection to server]	[Remarks:Successful connection to server: S3]
[Date: 2016-01-20 08:17:46]	[UserID:06/343]	[IP:10.10.11.1]	[Browser:Chrome - 47.0.2526.111]	[Action:GetGSTModules 06/343,1]	[Remarks:Successful filter row count: 5]
[Date: 2016-01-20 08:17:46]	[UserID:06/343]	[IP:10.10.11.1]	[Browser:Chrome - 47.0.2526.111]	[Action:Closing mssql connection]	[Remarks:Success]
[Date: 2016-01-20 08:23:13]	[UserID:]	[IP:10.10.11.1]	[Browser:Chrome - 47.0.2526.111]	[Action:Making connection to server]	[Remarks:Successful connection to server: S3]
[Date: 2016-01-20 08:23:13]	[UserID:]	[IP:10.10.11.1]	[Browser:Chrome - 47.0.2526.111]	[Action:GetProgramList ]	[Remarks:"no data"]
[Date: 2016-01-20 08:23:20]	[UserID:10/660]	[IP:10.10.11.1]	[Browser:Chrome - 47.0.2526.111]	[Action:Making connection to server]	[Remarks:Successful connection to server: S3]
[Date: 2016-01-20 08:23:20]	[UserID:10/660]	[IP:10.10.11.1]	[Browser:Chrome - 47.0.2526.111]	[Action:User 10/660]	[Remarks:Success]
[Date: 2016-01-20 08:23:20]	[UserID:10/660]	[IP:10.10.11.1]	[Browser:Chrome - 47.0.2526.111]	[Action:Filtering User : MasterData Username : 10/660]	[Remarks:Successful filter row count: 0]
[Date: 2016-01-20 08:23:20]	[UserID:10/660]	[IP:10.10.11.1]	[Browser:Chrome - 47.0.2526.111]	[Action:Filtering User : MasterData Username : 10/660]	[Remarks:Successful filter row count: 0]
[Date: 2016-01-20 08:23:20]	[UserID:10/660]	[IP:10.10.11.1]	[Browser:Chrome - 47.0.2526.111]	[Action:Filtering User : MasterData Username : 10/660]	[Remarks:Success]
[Date: 2016-01-20 08:23:20]	[UserID:10/660]	[IP:10.10.11.1]	[Browser:Chrome - 47.0.2526.111]	[Action:Closing mssql connection]	[Remarks:Success]
[Date: 2016-01-20 08:23:20]	[UserID:10/660]	[IP:10.10.11.1]	[Browser:Chrome - 47.0.2526.111]	[Action:Making connection to server]	[Remarks:Successful connection to server: S3]
[Date: 2016-01-20 08:23:20]	[UserID:10/660]	[IP:10.10.11.1]	[Browser:Chrome - 47.0.2526.111]	[Action:GetProgramList 10/660]	[Remarks:[{"ID":"1","ProgramIndex":"GST","ProgramName":"GST"}]]
[Date: 2016-01-20 08:23:20]	[UserID:10/660]	[IP:10.10.11.1]	[Browser:Chrome - 47.0.2526.111]	[Action:Making connection to server]	[Remarks:Successful connection to server: S3]
[Date: 2016-01-20 08:23:20]	[UserID:10/660]	[IP:10.10.11.1]	[Browser:Chrome - 47.0.2526.111]	[Action:GetProgramList 10/660]	[Remarks:[{"ID":"1","ProgramIndex":"GST","ProgramName":"GST"}]]
[Date: 2016-01-20 08:23:20]	[UserID:10/660]	[IP:10.10.11.1]	[Browser:Chrome - 47.0.2526.111]	[Action:Making connection to server]	[Remarks:Successful connection to server: S3]
[Date: 2016-01-20 08:23:20]	[UserID:10/660]	[IP:10.10.11.1]	[Browser:Chrome - 47.0.2526.111]	[Action:Filtering User : MasterData Username : 10/660]	[Remarks:Successful filter row count: 1]
[Date: 2016-01-20 08:23:20]	[UserID:10/660]	[IP:10.10.11.1]	[Browser:Chrome - 47.0.2526.111]	[Action:Making connection to server]	[Remarks:Successful connection to server: S3]
[Date: 2016-01-20 08:23:20]	[UserID:10/660]	[IP:10.10.11.1]	[Browser:Chrome - 47.0.2526.111]	[Action:GetGSTModules 10/660,1]	[Remarks:Successful filter row count: 3]
[Date: 2016-01-20 08:23:20]	[UserID:10/660]	[IP:10.10.11.1]	[Browser:Chrome - 47.0.2526.111]	[Action:Closing mssql connection]	[Remarks:Success]
[Date: 2016-01-20 08:32:23]	[UserID:06/343]	[IP:10.10.11.1]	[Browser:Chrome - 47.0.2526.111]	[Action:Making connection to server]	[Remarks:Successful connection to server: S3]
[Date: 2016-01-20 08:32:23]	[UserID:06/343]	[IP:10.10.11.1]	[Browser:Chrome - 47.0.2526.111]	[Action:GetGSTModules 06/343,1]	[Remarks:Successful filter row count: 5]
[Date: 2016-01-20 08:32:23]	[UserID:06/343]	[IP:10.10.11.1]	[Browser:Chrome - 47.0.2526.111]	[Action:Closing mssql connection]	[Remarks:Success]
[Date: 2016-01-20 08:55:53]	[UserID:]	[IP:10.10.11.1]	[Browser:Chrome - 47.0.2526.111]	[Action:Making connection to server]	[Remarks:Successful connection to server: S3]
[Date: 2016-01-20 08:55:53]	[UserID:]	[IP:10.10.11.1]	[Browser:Chrome - 47.0.2526.111]	[Action:GetProgramList ]	[Remarks:"no data"]
[Date: 2016-01-20 08:55:56]	[UserID:08/504]	[IP:10.10.11.1]	[Browser:Chrome - 47.0.2526.111]	[Action:Making connection to server]	[Remarks:Successful connection to server: S3]
[Date: 2016-01-20 08:55:56]	[UserID:08/504]	[IP:10.10.11.1]	[Browser:Chrome - 47.0.2526.111]	[Action:User 08/504]	[Remarks:Success]
[Date: 2016-01-20 08:55:56]	[UserID:08/504]	[IP:10.10.11.1]	[Browser:Chrome - 47.0.2526.111]	[Action:Filtering User : MasterData Username : 08/504]	[Remarks:Successful filter row count: 0]
[Date: 2016-01-20 08:55:56]	[UserID:08/504]	[IP:10.10.11.1]	[Browser:Chrome - 47.0.2526.111]	[Action:Filtering User : MasterData Username : 08/504]	[Remarks:Successful filter row count: 0]
[Date: 2016-01-20 08:55:56]	[UserID:08/504]	[IP:10.10.11.1]	[Browser:Chrome - 47.0.2526.111]	[Action:Filtering User : MasterData Username : 08/504]	[Remarks:Success]
[Date: 2016-01-20 08:55:56]	[UserID:08/504]	[IP:10.10.11.1]	[Browser:Chrome - 47.0.2526.111]	[Action:Closing mssql connection]	[Remarks:Success]
[Date: 2016-01-20 08:55:56]	[UserID:08/504]	[IP:10.10.11.1]	[Browser:Chrome - 47.0.2526.111]	[Action:Making connection to server]	[Remarks:Successful connection to server: S3]
[Date: 2016-01-20 08:55:56]	[UserID:08/504]	[IP:10.10.11.1]	[Browser:Chrome - 47.0.2526.111]	[Action:GetProgramList 08/504]	[Remarks:[{"ID":"1","ProgramIndex":"GST","ProgramName":"GST"}]]
[Date: 2016-01-20 08:55:56]	[UserID:08/504]	[IP:10.10.11.1]	[Browser:Chrome - 47.0.2526.111]	[Action:Making connection to server]	[Remarks:Successful connection to server: S3]
[Date: 2016-01-20 08:55:56]	[UserID:08/504]	[IP:10.10.11.1]	[Browser:Chrome - 47.0.2526.111]	[Action:GetProgramList 08/504]	[Remarks:[{"ID":"1","ProgramIndex":"GST","ProgramName":"GST"}]]
[Date: 2016-01-20 08:55:56]	[UserID:08/504]	[IP:10.10.11.1]	[Browser:Chrome - 47.0.2526.111]	[Action:Making connection to server]	[Remarks:Successful connection to server: S3]
[Date: 2016-01-20 08:55:56]	[UserID:08/504]	[IP:10.10.11.1]	[Browser:Chrome - 47.0.2526.111]	[Action:Filtering User : MasterData Username : 08/504]	[Remarks:Successful filter row count: 1]
[Date: 2016-01-20 08:55:57]	[UserID:08/504]	[IP:10.10.11.1]	[Browser:Chrome - 47.0.2526.111]	[Action:Making connection to server]	[Remarks:Successful connection to server: S3]
[Date: 2016-01-20 08:55:57]	[UserID:08/504]	[IP:10.10.11.1]	[Browser:Chrome - 47.0.2526.111]	[Action:GetGSTModules 08/504,1]	[Remarks:Successful filter row count: 3]
[Date: 2016-01-20 08:55:57]	[UserID:08/504]	[IP:10.10.11.1]	[Browser:Chrome - 47.0.2526.111]	[Action:Closing mssql connection]	[Remarks:Success]
[Date: 2016-01-20 09:05:00]	[UserID:08/504]	[IP:10.10.11.1]	[Browser:Chrome - 47.0.2526.111]	[Action:Making connection to server]	[Remarks:Successful connection to server: S3]
[Date: 2016-01-20 09:05:00]	[UserID:08/504]	[IP:10.10.11.1]	[Browser:Chrome - 47.0.2526.111]	[Action:GetGSTModules 08/504,1]	[Remarks:Successful filter row count: 3]
[Date: 2016-01-20 09:05:00]	[UserID:08/504]	[IP:10.10.11.1]	[Browser:Chrome - 47.0.2526.111]	[Action:Closing mssql connection]	[Remarks:Success]
[Date: 2016-01-20 09:10:47]	[UserID:]	[IP:10.10.11.1]	[Browser:Chrome - 47.0.2526.111]	[Action:Making connection to server]	[Remarks:Successful connection to server: S3]
[Date: 2016-01-20 09:10:47]	[UserID:]	[IP:10.10.11.1]	[Browser:Chrome - 47.0.2526.111]	[Action:GetProgramList ]	[Remarks:"no data"]
[Date: 2016-01-20 09:10:50]	[UserID:06/371]	[IP:10.10.11.1]	[Browser:Chrome - 47.0.2526.111]	[Action:Making connection to server]	[Remarks:Successful connection to server: S3]
[Date: 2016-01-20 09:10:50]	[UserID:06/371]	[IP:10.10.11.1]	[Browser:Chrome - 47.0.2526.111]	[Action:User 06/371]	[Remarks:Success]
[Date: 2016-01-20 09:10:50]	[UserID:06/371]	[IP:10.10.11.1]	[Browser:Chrome - 47.0.2526.111]	[Action:Filtering User : MasterData Username : 06/371]	[Remarks:Successful filter row count: 0]
[Date: 2016-01-20 09:10:50]	[UserID:06/371]	[IP:10.10.11.1]	[Browser:Chrome - 47.0.2526.111]	[Action:Filtering User : MasterData Username : 06/371]	[Remarks:Successful filter row count: 0]
[Date: 2016-01-20 09:10:50]	[UserID:06/371]	[IP:10.10.11.1]	[Browser:Chrome - 47.0.2526.111]	[Action:Filtering User : MasterData Username : 06/371]	[Remarks:Success]
[Date: 2016-01-20 09:10:51]	[UserID:06/371]	[IP:10.10.11.1]	[Browser:Chrome - 47.0.2526.111]	[Action:Closing mssql connection]	[Remarks:Success]
[Date: 2016-01-20 09:10:55]	[UserID:06/371]	[IP:10.10.11.1]	[Browser:Chrome - 47.0.2526.111]	[Action:Making connection to server]	[Remarks:Successful connection to server: S3]
[Date: 2016-01-20 09:10:55]	[UserID:06/371]	[IP:10.10.11.1]	[Browser:Chrome - 47.0.2526.111]	[Action:GetProgramList 06/371]	[Remarks:[{"ID":"1","ProgramIndex":"GST","ProgramName":"GST"}]]
[Date: 2016-01-20 09:10:55]	[UserID:06/371]	[IP:10.10.11.1]	[Browser:Chrome - 47.0.2526.111]	[Action:Making connection to server]	[Remarks:Successful connection to server: S3]
[Date: 2016-01-20 09:10:56]	[UserID:06/371]	[IP:10.10.11.1]	[Browser:Chrome - 47.0.2526.111]	[Action:GetProgramList 06/371]	[Remarks:[{"ID":"1","ProgramIndex":"GST","ProgramName":"GST"}]]
[Date: 2016-01-20 09:10:56]	[UserID:06/371]	[IP:10.10.11.1]	[Browser:Chrome - 47.0.2526.111]	[Action:Making connection to server]	[Remarks:Successful connection to server: S3]
[Date: 2016-01-20 09:10:56]	[UserID:06/371]	[IP:10.10.11.1]	[Browser:Chrome - 47.0.2526.111]	[Action:Filtering User : MasterData Username : 06/371]	[Remarks:Successful filter row count: 1]
[Date: 2016-01-20 09:11:00]	[UserID:06/371]	[IP:10.10.11.1]	[Browser:Chrome - 47.0.2526.111]	[Action:Making connection to server]	[Remarks:Successful connection to server: S3]
[Date: 2016-01-20 09:11:00]	[UserID:06/371]	[IP:10.10.11.1]	[Browser:Chrome - 47.0.2526.111]	[Action:GetGSTModules 06/371,1]	[Remarks:Successful filter row count: 5]
[Date: 2016-01-20 09:11:00]	[UserID:06/371]	[IP:10.10.11.1]	[Browser:Chrome - 47.0.2526.111]	[Action:Closing mssql connection]	[Remarks:Success]
[Date: 2016-01-20 09:11:03]	[UserID:08/504]	[IP:10.10.11.1]	[Browser:Chrome - 47.0.2526.111]	[Action:Making connection to server]	[Remarks:Successful connection to server: S3]
[Date: 2016-01-20 09:11:03]	[UserID:08/504]	[IP:10.10.11.1]	[Browser:Chrome - 47.0.2526.111]	[Action:GetGSTModules 08/504,1]	[Remarks:Successful filter row count: 3]
[Date: 2016-01-20 09:11:03]	[UserID:08/504]	[IP:10.10.11.1]	[Browser:Chrome - 47.0.2526.111]	[Action:Closing mssql connection]	[Remarks:Success]
[Date: 2016-01-20 09:12:13]	[UserID:06/371]	[IP:10.10.11.1]	[Browser:Chrome - 47.0.2526.111]	[Action:Making connection to server]	[Remarks:Successful connection to server: S3]
[Date: 2016-01-20 09:12:13]	[UserID:06/371]	[IP:10.10.11.1]	[Browser:Chrome - 47.0.2526.111]	[Action:GetGSTModules 06/371,1]	[Remarks:Successful filter row count: 5]
[Date: 2016-01-20 09:12:13]	[UserID:06/371]	[IP:10.10.11.1]	[Browser:Chrome - 47.0.2526.111]	[Action:Closing mssql connection]	[Remarks:Success]
[Date: 2016-01-20 09:12:33]	[UserID:10/660]	[IP:10.10.11.1]	[Browser:Chrome - 47.0.2526.111]	[Action:Making connection to server]	[Remarks:Successful connection to server: S3]
[Date: 2016-01-20 09:12:33]	[UserID:10/660]	[IP:10.10.11.1]	[Browser:Chrome - 47.0.2526.111]	[Action:GetGSTModules 10/660,1]	[Remarks:Successful filter row count: 3]
[Date: 2016-01-20 09:12:33]	[UserID:10/660]	[IP:10.10.11.1]	[Browser:Chrome - 47.0.2526.111]	[Action:Closing mssql connection]	[Remarks:Success]
[Date: 2016-01-20 09:12:55]	[UserID:]	[IP:10.10.11.1]	[Browser:Chrome - 47.0.2526.111]	[Action:Making connection to server]	[Remarks:Successful connection to server: S3]
[Date: 2016-01-20 09:12:55]	[UserID:]	[IP:10.10.11.1]	[Browser:Chrome - 47.0.2526.111]	[Action:GetProgramList ]	[Remarks:"no data"]
[Date: 2016-01-20 09:13:44]	[UserID:08/504]	[IP:10.10.11.1]	[Browser:Chrome - 47.0.2526.111]	[Action:Making connection to server]	[Remarks:Successful connection to server: S3]
[Date: 2016-01-20 09:13:44]	[UserID:08/504]	[IP:10.10.11.1]	[Browser:Chrome - 47.0.2526.111]	[Action:GetGSTModules 08/504,1]	[Remarks:Successful filter row count: 3]
[Date: 2016-01-20 09:13:44]	[UserID:08/504]	[IP:10.10.11.1]	[Browser:Chrome - 47.0.2526.111]	[Action:Closing mssql connection]	[Remarks:Success]
[Date: 2016-01-20 09:25:42]	[UserID:06/371]	[IP:10.10.11.1]	[Browser:Chrome - 47.0.2526.111]	[Action:Making connection to server]	[Remarks:Successful connection to server: S3]
[Date: 2016-01-20 09:25:42]	[UserID:06/371]	[IP:10.10.11.1]	[Browser:Chrome - 47.0.2526.111]	[Action:GetGSTModules 06/371,1]	[Remarks:Successful filter row count: 5]
[Date: 2016-01-20 09:25:42]	[UserID:06/371]	[IP:10.10.11.1]	[Browser:Chrome - 47.0.2526.111]	[Action:Closing mssql connection]	[Remarks:Success]
[Date: 2016-01-20 09:32:34]	[UserID:06/371]	[IP:10.10.11.1]	[Browser:Chrome - 47.0.2526.111]	[Action:Making connection to server]	[Remarks:Successful connection to server: S3]
[Date: 2016-01-20 09:32:35]	[UserID:06/371]	[IP:10.10.11.1]	[Browser:Chrome - 47.0.2526.111]	[Action:GetGSTModules 06/371,1]	[Remarks:Successful filter row count: 5]
[Date: 2016-01-20 09:32:35]	[UserID:06/371]	[IP:10.10.11.1]	[Browser:Chrome - 47.0.2526.111]	[Action:Closing mssql connection]	[Remarks:Success]
[Date: 2016-01-20 09:33:58]	[UserID:06/371]	[IP:10.10.11.1]	[Browser:Chrome - 47.0.2526.111]	[Action:Making connection to server]	[Remarks:Successful connection to server: S3]
[Date: 2016-01-20 09:33:58]	[UserID:06/371]	[IP:10.10.11.1]	[Browser:Chrome - 47.0.2526.111]	[Action:GetGSTModules 06/371,1]	[Remarks:Successful filter row count: 5]
[Date: 2016-01-20 09:33:58]	[UserID:06/371]	[IP:10.10.11.1]	[Browser:Chrome - 47.0.2526.111]	[Action:Closing mssql connection]	[Remarks:Success]
[Date: 2016-01-20 09:43:04]	[UserID:]	[IP:10.10.11.1]	[Browser:Chrome - 47.0.2526.111]	[Action:Making connection to server]	[Remarks:Successful connection to server: S3]
[Date: 2016-01-20 09:43:05]	[UserID:]	[IP:10.10.11.1]	[Browser:Chrome - 47.0.2526.111]	[Action:GetProgramList ]	[Remarks:"no data"]
[Date: 2016-01-20 10:11:09]	[UserID:06/343]	[IP:10.10.11.1]	[Browser:Chrome - 47.0.2526.111]	[Action:Making connection to server]	[Remarks:Successful connection to server: S3]
[Date: 2016-01-20 10:11:09]	[UserID:06/343]	[IP:10.10.11.1]	[Browser:Chrome - 47.0.2526.111]	[Action:GetGSTModules 06/343,1]	[Remarks:Successful filter row count: 5]
[Date: 2016-01-20 10:11:09]	[UserID:06/343]	[IP:10.10.11.1]	[Browser:Chrome - 47.0.2526.111]	[Action:Closing mssql connection]	[Remarks:Success]
[Date: 2016-01-20 10:19:33]	[UserID:06/371]	[IP:10.10.11.1]	[Browser:Chrome - 47.0.2526.111]	[Action:Making connection to server]	[Remarks:Successful connection to server: S3]
[Date: 2016-01-20 10:19:33]	[UserID:06/371]	[IP:10.10.11.1]	[Browser:Chrome - 47.0.2526.111]	[Action:GetProgramList 06/371]	[Remarks:[{"ID":"1","ProgramIndex":"GST","ProgramName":"GST"}]]
[Date: 2016-01-20 10:19:33]	[UserID:06/371]	[IP:10.10.11.1]	[Browser:Chrome - 47.0.2526.111]	[Action:Making connection to server]	[Remarks:Successful connection to server: S3]
[Date: 2016-01-20 10:19:33]	[UserID:06/371]	[IP:10.10.11.1]	[Browser:Chrome - 47.0.2526.111]	[Action:GetProgramList 06/371]	[Remarks:[{"ID":"1","ProgramIndex":"GST","ProgramName":"GST"}]]
[Date: 2016-01-20 10:19:33]	[UserID:06/371]	[IP:10.10.11.1]	[Browser:Chrome - 47.0.2526.111]	[Action:Making connection to server]	[Remarks:Successful connection to server: S3]
[Date: 2016-01-20 10:19:33]	[UserID:06/371]	[IP:10.10.11.1]	[Browser:Chrome - 47.0.2526.111]	[Action:Filtering User : MasterData Username : 06/371]	[Remarks:Successful filter row count: 1]
[Date: 2016-01-20 10:19:34]	[UserID:06/371]	[IP:10.10.11.1]	[Browser:Chrome - 47.0.2526.111]	[Action:Making connection to server]	[Remarks:Successful connection to server: S3]
[Date: 2016-01-20 10:19:34]	[UserID:06/371]	[IP:10.10.11.1]	[Browser:Chrome - 47.0.2526.111]	[Action:GetGSTModules 06/371,1]	[Remarks:Successful filter row count: 5]
[Date: 2016-01-20 10:19:34]	[UserID:06/371]	[IP:10.10.11.1]	[Browser:Chrome - 47.0.2526.111]	[Action:Closing mssql connection]	[Remarks:Success]
[Date: 2016-01-20 10:20:53]	[UserID:06/371]	[IP:10.10.11.1]	[Browser:Chrome - 47.0.2526.111]	[Action:Making connection to server]	[Remarks:Successful connection to server: S3]
[Date: 2016-01-20 10:20:53]	[UserID:06/371]	[IP:10.10.11.1]	[Browser:Chrome - 47.0.2526.111]	[Action:GetGSTModules 06/371,1]	[Remarks:Successful filter row count: 5]
[Date: 2016-01-20 10:20:53]	[UserID:06/371]	[IP:10.10.11.1]	[Browser:Chrome - 47.0.2526.111]	[Action:Closing mssql connection]	[Remarks:Success]
[Date: 2016-01-20 10:43:52]	[UserID:]	[IP:10.10.11.1]	[Browser:Firefox - 6.0]	[Action:Making connection to server]	[Remarks:Successful connection to server: S3]
[Date: 2016-01-20 10:43:52]	[UserID:]	[IP:10.10.11.1]	[Browser:Firefox - 6.0]	[Action:GetProgramList ]	[Remarks:"no data"]
[Date: 2016-01-20 15:53:00]	[UserID:]	[IP:10.10.11.1]	[Browser:Chrome - 47.0.2526.111]	[Action:Making connection to server]	[Remarks:Successful connection to server: S3]
[Date: 2016-01-20 15:53:00]	[UserID:]	[IP:10.10.11.1]	[Browser:Chrome - 47.0.2526.111]	[Action:GetProgramList ]	[Remarks:"no data"]
[Date: 2016-01-20 15:53:03]	[UserID:15/1125]	[IP:10.10.11.1]	[Browser:Chrome - 47.0.2526.111]	[Action:Making connection to server]	[Remarks:Successful connection to server: S3]
[Date: 2016-01-20 15:53:03]	[UserID:15/1125]	[IP:10.10.11.1]	[Browser:Chrome - 47.0.2526.111]	[Action:LogMeIn 15/1125,151125]	[Remarks:Failed]
[Date: 2016-01-20 15:53:03]	[UserID:15/1125]	[IP:10.10.11.1]	[Browser:Chrome - 47.0.2526.111]	[Action:Closing mssql connection]	[Remarks:Success]
[Date: 2016-01-20 15:53:10]	[UserID:15/1125]	[IP:10.10.11.1]	[Browser:Chrome - 47.0.2526.111]	[Action:Making connection to server]	[Remarks:Successful connection to server: S3]
[Date: 2016-01-20 15:53:10]	[UserID:15/1125]	[IP:10.10.11.1]	[Browser:Chrome - 47.0.2526.111]	[Action:LogMeIn 15/1125,88/0025]	[Remarks:Failed]
[Date: 2016-01-20 15:53:10]	[UserID:15/1125]	[IP:10.10.11.1]	[Browser:Chrome - 47.0.2526.111]	[Action:Closing mssql connection]	[Remarks:Success]
[Date: 2016-01-20 15:53:19]	[UserID:15/1125]	[IP:10.10.11.1]	[Browser:Chrome - 47.0.2526.111]	[Action:Making connection to server]	[Remarks:Successful connection to server: S3]
[Date: 2016-01-20 15:53:19]	[UserID:15/1125]	[IP:10.10.11.1]	[Browser:Chrome - 47.0.2526.111]	[Action:User 15/1125]	[Remarks:Success]
[Date: 2016-01-20 15:53:19]	[UserID:15/1125]	[IP:10.10.11.1]	[Browser:Chrome - 47.0.2526.111]	[Action:Filtering User : MasterData Username : 15/1125]	[Remarks:Successful filter row count: 0]
[Date: 2016-01-20 15:53:19]	[UserID:15/1125]	[IP:10.10.11.1]	[Browser:Chrome - 47.0.2526.111]	[Action:Filtering User : MasterData Username : 15/1125]	[Remarks:Successful filter row count: 0]
[Date: 2016-01-20 15:53:19]	[UserID:15/1125]	[IP:10.10.11.1]	[Browser:Chrome - 47.0.2526.111]	[Action:Filtering User : MasterData Username : 15/1125]	[Remarks:Success]
[Date: 2016-01-20 15:53:19]	[UserID:15/1125]	[IP:10.10.11.1]	[Browser:Chrome - 47.0.2526.111]	[Action:Closing mssql connection]	[Remarks:Success]
[Date: 2016-01-20 15:53:19]	[UserID:]	[IP:10.10.11.1]	[Browser:Chrome - 47.0.2526.111]	[Action:Making connection to server]	[Remarks:Successful connection to server: S3]
[Date: 2016-01-20 15:53:19]	[UserID:]	[IP:10.10.11.1]	[Browser:Chrome - 47.0.2526.111]	[Action:GetProgramList ]	[Remarks:"no data"]
[Date: 2016-01-20 17:29:45]	[UserID:]	[IP:10.10.11.1]	[Browser:Chrome - 47.0.2526.111]	[Action:Making connection to server]	[Remarks:Successful connection to server: S3]
[Date: 2016-01-20 17:29:46]	[UserID:]	[IP:10.10.11.1]	[Browser:Chrome - 47.0.2526.111]	[Action:GetProgramList ]	[Remarks:"no data"]
[Date: 2016-01-20 17:29:49]	[UserID:08/504]	[IP:10.10.11.1]	[Browser:Chrome - 47.0.2526.111]	[Action:Making connection to server]	[Remarks:Successful connection to server: S3]
[Date: 2016-01-20 17:29:49]	[UserID:08/504]	[IP:10.10.11.1]	[Browser:Chrome - 47.0.2526.111]	[Action:User 08/504]	[Remarks:Success]
[Date: 2016-01-20 17:29:49]	[UserID:08/504]	[IP:10.10.11.1]	[Browser:Chrome - 47.0.2526.111]	[Action:Filtering User : MasterData Username : 08/504]	[Remarks:Successful filter row count: 0]
[Date: 2016-01-20 17:29:49]	[UserID:08/504]	[IP:10.10.11.1]	[Browser:Chrome - 47.0.2526.111]	[Action:Filtering User : MasterData Username : 08/504]	[Remarks:Successful filter row count: 0]
[Date: 2016-01-20 17:29:49]	[UserID:08/504]	[IP:10.10.11.1]	[Browser:Chrome - 47.0.2526.111]	[Action:Filtering User : MasterData Username : 08/504]	[Remarks:Success]
[Date: 2016-01-20 17:29:49]	[UserID:08/504]	[IP:10.10.11.1]	[Browser:Chrome - 47.0.2526.111]	[Action:Closing mssql connection]	[Remarks:Success]
[Date: 2016-01-20 17:29:49]	[UserID:08/504]	[IP:10.10.11.1]	[Browser:Chrome - 47.0.2526.111]	[Action:Making connection to server]	[Remarks:Successful connection to server: S3]
[Date: 2016-01-20 17:29:50]	[UserID:08/504]	[IP:10.10.11.1]	[Browser:Chrome - 47.0.2526.111]	[Action:GetProgramList 08/504]	[Remarks:[{"ID":"1","ProgramIndex":"GST","ProgramName":"GST"}]]
[Date: 2016-01-20 17:29:50]	[UserID:08/504]	[IP:10.10.11.1]	[Browser:Chrome - 47.0.2526.111]	[Action:Making connection to server]	[Remarks:Successful connection to server: S3]
[Date: 2016-01-20 17:29:50]	[UserID:08/504]	[IP:10.10.11.1]	[Browser:Chrome - 47.0.2526.111]	[Action:GetProgramList 08/504]	[Remarks:[{"ID":"1","ProgramIndex":"GST","ProgramName":"GST"}]]
[Date: 2016-01-20 17:29:50]	[UserID:08/504]	[IP:10.10.11.1]	[Browser:Chrome - 47.0.2526.111]	[Action:Making connection to server]	[Remarks:Successful connection to server: S3]
[Date: 2016-01-20 17:29:50]	[UserID:08/504]	[IP:10.10.11.1]	[Browser:Chrome - 47.0.2526.111]	[Action:Filtering User : MasterData Username : 08/504]	[Remarks:Successful filter row count: 1]
[Date: 2016-01-20 17:29:50]	[UserID:08/504]	[IP:10.10.11.1]	[Browser:Chrome - 47.0.2526.111]	[Action:Making connection to server]	[Remarks:Successful connection to server: S3]
[Date: 2016-01-20 17:29:50]	[UserID:08/504]	[IP:10.10.11.1]	[Browser:Chrome - 47.0.2526.111]	[Action:GetGSTModules 08/504,1]	[Remarks:Successful filter row count: 3]
[Date: 2016-01-20 17:29:50]	[UserID:08/504]	[IP:10.10.11.1]	[Browser:Chrome - 47.0.2526.111]	[Action:Closing mssql connection]	[Remarks:Success]
[Date: 2016-01-20 17:32:52]	[UserID:08/504]	[IP:10.10.11.1]	[Browser:Chrome - 47.0.2526.111]	[Action:Making connection to server]	[Remarks:Successful connection to server: S3]
[Date: 2016-01-20 17:32:52]	[UserID:08/504]	[IP:10.10.11.1]	[Browser:Chrome - 47.0.2526.111]	[Action:GetGSTModules 08/504,1]	[Remarks:Successful filter row count: 3]
[Date: 2016-01-20 17:32:52]	[UserID:08/504]	[IP:10.10.11.1]	[Browser:Chrome - 47.0.2526.111]	[Action:Closing mssql connection]	[Remarks:Success]
