[Date: 2020-11-19 07:54:15]	[UserID:]	[IP:10.128.130.5]	[Browser:Chrome - 86.0.4240.198]	[Action:Making connection to server]	[Remarks:Successful connection to server: S3]
[Date: 2020-11-19 07:54:15]	[UserID:]	[IP:10.128.130.5]	[Browser:Chrome - 86.0.4240.198]	[Action:GetProgramList ]	[Remarks:"no data"]
[Date: 2020-11-19 08:04:51]	[UserID:]	[IP:10.128.130.5]	[Browser:Chrome - 86.0.4240.198]	[Action:Making connection to server]	[Remarks:Successful connection to server: S3]
[Date: 2020-11-19 08:04:51]	[UserID:]	[IP:10.128.130.5]	[Browser:Chrome - 86.0.4240.198]	[Action:GetProgramList ]	[Remarks:"no data"]
[Date: 2020-11-19 09:51:13]	[UserID:]	[IP:10.128.130.5]	[Browser:Chrome - 86.0.4240.198]	[Action:Making connection to server]	[Remarks:Successful connection to server: S3]
[Date: 2020-11-19 09:51:13]	[UserID:]	[IP:10.128.130.5]	[Browser:Chrome - 86.0.4240.198]	[Action:GetProgramList ]	[Remarks:"no data"]
[Date: 2020-11-19 09:51:23]	[UserID:06/343]	[IP:10.128.130.5]	[Browser:Chrome - 86.0.4240.198]	[Action:Making connection to server]	[Remarks:Successful connection to server: S3]
[Date: 2020-11-19 09:51:23]	[UserID:06/343]	[IP:10.128.130.5]	[Browser:Chrome - 86.0.4240.198]	[Action:User 06/343]	[Remarks:Success]
[Date: 2020-11-19 09:51:23]	[UserID:06/343]	[IP:10.128.130.5]	[Browser:Chrome - 86.0.4240.198]	[Action:Filtering User : MasterData Username : 06/343]	[Remarks:Successful filter row count: 0]
[Date: 2020-11-19 09:51:23]	[UserID:06/343]	[IP:10.128.130.5]	[Browser:Chrome - 86.0.4240.198]	[Action:Filtering User : MasterData Username : 06/343]	[Remarks:Successful filter row count: 0]
[Date: 2020-11-19 09:51:23]	[UserID:06/343]	[IP:10.128.130.5]	[Browser:Chrome - 86.0.4240.198]	[Action:Filtering User : MasterData Username : 06/343]	[Remarks:Success]
[Date: 2020-11-19 09:51:23]	[UserID:06/343]	[IP:10.128.130.5]	[Browser:Chrome - 86.0.4240.198]	[Action:Closing mssql connection]	[Remarks:Success]
[Date: 2020-11-19 09:51:23]	[UserID:06/343]	[IP:10.128.130.5]	[Browser:Chrome - 86.0.4240.198]	[Action:Making connection to server]	[Remarks:Successful connection to server: S3]
[Date: 2020-11-19 09:51:23]	[UserID:06/343]	[IP:10.128.130.5]	[Browser:Chrome - 86.0.4240.198]	[Action:GetProgramList 06/343]	[Remarks:[{"ID":"1","ProgramIndex":"GST","ProgramName":"GST"}]]
[Date: 2020-11-19 09:51:23]	[UserID:06/343]	[IP:10.128.130.5]	[Browser:Chrome - 86.0.4240.198]	[Action:Making connection to server]	[Remarks:Successful connection to server: S3]
[Date: 2020-11-19 09:51:23]	[UserID:06/343]	[IP:10.128.130.5]	[Browser:Chrome - 86.0.4240.198]	[Action:GetProgramList 06/343]	[Remarks:[{"ID":"1","ProgramIndex":"GST","ProgramName":"GST"}]]
[Date: 2020-11-19 09:51:23]	[UserID:06/343]	[IP:10.128.130.5]	[Browser:Chrome - 86.0.4240.198]	[Action:Making connection to server]	[Remarks:Successful connection to server: S3]
[Date: 2020-11-19 09:51:23]	[UserID:06/343]	[IP:10.128.130.5]	[Browser:Chrome - 86.0.4240.198]	[Action:Filtering User : MasterData Username : 06/343]	[Remarks:Successful filter row count: 1]
[Date: 2020-11-19 09:51:24]	[UserID:06/343]	[IP:10.128.130.5]	[Browser:Chrome - 86.0.4240.198]	[Action:Making connection to server]	[Remarks:Successful connection to server: S3]
[Date: 2020-11-19 09:51:24]	[UserID:06/343]	[IP:10.128.130.5]	[Browser:Chrome - 86.0.4240.198]	[Action:GetGSTModules 06/343,1]	[Remarks:Successful filter row count: 7]
[Date: 2020-11-19 09:51:24]	[UserID:06/343]	[IP:10.128.130.5]	[Browser:Chrome - 86.0.4240.198]	[Action:Closing mssql connection]	[Remarks:Success]
[Date: 2020-11-19 10:01:37]	[UserID:06/343]	[IP:10.128.130.5]	[Browser:Chrome - 86.0.4240.198]	[Action:Making connection to server]	[Remarks:Successful connection to server: S3]
[Date: 2020-11-19 10:01:37]	[UserID:06/343]	[IP:10.128.130.5]	[Browser:Chrome - 86.0.4240.198]	[Action:GetGSTModules 06/343,1]	[Remarks:Successful filter row count: 7]
[Date: 2020-11-19 10:01:37]	[UserID:06/343]	[IP:10.128.130.5]	[Browser:Chrome - 86.0.4240.198]	[Action:Closing mssql connection]	[Remarks:Success]
[Date: 2020-11-19 10:04:58]	[UserID:06/343]	[IP:10.128.130.5]	[Browser:Chrome - 86.0.4240.198]	[Action:Making connection to server]	[Remarks:Successful connection to server: S3]
[Date: 2020-11-19 10:04:58]	[UserID:06/343]	[IP:10.128.130.5]	[Browser:Chrome - 86.0.4240.198]	[Action:GetGSTModules 06/343,1]	[Remarks:Successful filter row count: 7]
[Date: 2020-11-19 10:04:58]	[UserID:06/343]	[IP:10.128.130.5]	[Browser:Chrome - 86.0.4240.198]	[Action:Closing mssql connection]	[Remarks:Success]
[Date: 2020-11-19 14:24:41]	[UserID:]	[IP:10.128.12.114]	[Browser:Chrome - 86.0.4240.198]	[Action:Making connection to server]	[Remarks:Successful connection to server: S3]
[Date: 2020-11-19 14:24:41]	[UserID:]	[IP:10.128.12.114]	[Browser:Chrome - 86.0.4240.198]	[Action:GetProgramList ]	[Remarks:"no data"]
[Date: 2020-11-19 14:24:48]	[UserID:14/1082]	[IP:10.128.12.114]	[Browser:Chrome - 86.0.4240.198]	[Action:Making connection to server]	[Remarks:Successful connection to server: S3]
[Date: 2020-11-19 14:24:48]	[UserID:14/1082]	[IP:10.128.12.114]	[Browser:Chrome - 86.0.4240.198]	[Action:User 14/1082]	[Remarks:Success]
[Date: 2020-11-19 14:24:48]	[UserID:14/1082]	[IP:10.128.12.114]	[Browser:Chrome - 86.0.4240.198]	[Action:Filtering User : MasterData Username : 14/1082]	[Remarks:Successful filter row count: 0]
[Date: 2020-11-19 14:24:48]	[UserID:14/1082]	[IP:10.128.12.114]	[Browser:Chrome - 86.0.4240.198]	[Action:Filtering User : MasterData Username : 14/1082]	[Remarks:Successful filter row count: 0]
[Date: 2020-11-19 14:24:48]	[UserID:14/1082]	[IP:10.128.12.114]	[Browser:Chrome - 86.0.4240.198]	[Action:Filtering User : MasterData Username : 14/1082]	[Remarks:Success]
[Date: 2020-11-19 14:24:48]	[UserID:14/1082]	[IP:10.128.12.114]	[Browser:Chrome - 86.0.4240.198]	[Action:Closing mssql connection]	[Remarks:Success]
[Date: 2020-11-19 14:24:48]	[UserID:14/1082]	[IP:10.128.12.114]	[Browser:Chrome - 86.0.4240.198]	[Action:Making connection to server]	[Remarks:Successful connection to server: S3]
[Date: 2020-11-19 14:24:48]	[UserID:14/1082]	[IP:10.128.12.114]	[Browser:Chrome - 86.0.4240.198]	[Action:GetProgramList 14/1082]	[Remarks:[{"ID":"1","ProgramIndex":"GST","ProgramName":"GST"}]]
[Date: 2020-11-19 14:24:48]	[UserID:14/1082]	[IP:10.128.12.114]	[Browser:Chrome - 86.0.4240.198]	[Action:Making connection to server]	[Remarks:Successful connection to server: S3]
[Date: 2020-11-19 14:24:48]	[UserID:14/1082]	[IP:10.128.12.114]	[Browser:Chrome - 86.0.4240.198]	[Action:GetProgramList 14/1082]	[Remarks:[{"ID":"1","ProgramIndex":"GST","ProgramName":"GST"}]]
[Date: 2020-11-19 14:24:48]	[UserID:14/1082]	[IP:10.128.12.114]	[Browser:Chrome - 86.0.4240.198]	[Action:Making connection to server]	[Remarks:Successful connection to server: S3]
[Date: 2020-11-19 14:24:48]	[UserID:14/1082]	[IP:10.128.12.114]	[Browser:Chrome - 86.0.4240.198]	[Action:Filtering User : MasterData Username : 14/1082]	[Remarks:Successful filter row count: 1]
[Date: 2020-11-19 14:24:48]	[UserID:14/1082]	[IP:10.128.12.114]	[Browser:Chrome - 86.0.4240.198]	[Action:Making connection to server]	[Remarks:Successful connection to server: S3]
[Date: 2020-11-19 14:24:48]	[UserID:14/1082]	[IP:10.128.12.114]	[Browser:Chrome - 86.0.4240.198]	[Action:GetGSTModules 14/1082,1]	[Remarks:Successful filter row count: 8]
[Date: 2020-11-19 14:24:48]	[UserID:14/1082]	[IP:10.128.12.114]	[Browser:Chrome - 86.0.4240.198]	[Action:Closing mssql connection]	[Remarks:Success]
[Date: 2020-11-19 17:24:44]	[UserID:]	[IP:10.128.12.114]	[Browser:Chrome - 86.0.4240.198]	[Action:Making connection to server]	[Remarks:Successful connection to server: S3]
[Date: 2020-11-19 17:24:44]	[UserID:]	[IP:10.128.12.114]	[Browser:Chrome - 86.0.4240.198]	[Action:GetProgramList ]	[Remarks:"no data"]
[Date: 2020-11-19 23:05:53]	[UserID:]	[IP:10.128.130.5]	[Browser:Chrome - 86.0.4240.198]	[Action:Making connection to server]	[Remarks:Successful connection to server: S3]
[Date: 2020-11-19 23:05:53]	[UserID:]	[IP:10.128.130.5]	[Browser:Chrome - 86.0.4240.198]	[Action:GetProgramList ]	[Remarks:"no data"]
