[Date: 2019-05-05 12:12:49]	[UserID:]	[IP:10.128.80.16]	[Browser:Chrome - 73.0.3683.103]	[Action:Making connection to server]	[Remarks:Successful connection to server: S3]
[Date: 2019-05-05 12:12:49]	[UserID:]	[IP:10.128.80.16]	[Browser:Chrome - 73.0.3683.103]	[Action:GetProgramList ]	[Remarks:"no data"]
[Date: 2019-05-05 12:14:28]	[UserID:]	[IP:10.128.80.16]	[Browser:Chrome - 73.0.3683.103]	[Action:Making connection to server]	[Remarks:Successful connection to server: S3]
[Date: 2019-05-05 12:14:28]	[UserID:]	[IP:10.128.80.16]	[Browser:Chrome - 73.0.3683.103]	[Action:GetProgramList ]	[Remarks:"no data"]
