[Date: 2020-09-24 08:12:43]	[UserID:]	[IP:10.128.130.5]	[Browser:Chrome - 85.0.4183.121]	[Action:Making connection to server]	[Remarks:Successful connection to server: S3]
[Date: 2020-09-24 08:12:43]	[UserID:]	[IP:10.128.130.5]	[Browser:Chrome - 85.0.4183.121]	[Action:GetProgramList ]	[Remarks:"no data"]
[Date: 2020-09-24 10:53:29]	[UserID:]	[IP:10.128.130.5]	[Browser:Chrome - 85.0.4183.121]	[Action:Making connection to server]	[Remarks:Successful connection to server: S3]
[Date: 2020-09-24 10:53:29]	[UserID:]	[IP:10.128.130.5]	[Browser:Chrome - 85.0.4183.121]	[Action:GetProgramList ]	[Remarks:"no data"]
[Date: 2020-09-24 10:53:38]	[UserID:06/343]	[IP:10.128.130.5]	[Browser:Chrome - 85.0.4183.121]	[Action:Making connection to server]	[Remarks:Successful connection to server: S3]
[Date: 2020-09-24 10:53:38]	[UserID:06/343]	[IP:10.128.130.5]	[Browser:Chrome - 85.0.4183.121]	[Action:User 06/343]	[Remarks:Success]
[Date: 2020-09-24 10:53:38]	[UserID:06/343]	[IP:10.128.130.5]	[Browser:Chrome - 85.0.4183.121]	[Action:Filtering User : MasterData Username : 06/343]	[Remarks:Successful filter row count: 0]
[Date: 2020-09-24 10:53:38]	[UserID:06/343]	[IP:10.128.130.5]	[Browser:Chrome - 85.0.4183.121]	[Action:Filtering User : MasterData Username : 06/343]	[Remarks:Successful filter row count: 0]
[Date: 2020-09-24 10:53:38]	[UserID:06/343]	[IP:10.128.130.5]	[Browser:Chrome - 85.0.4183.121]	[Action:Filtering User : MasterData Username : 06/343]	[Remarks:Success]
[Date: 2020-09-24 10:53:38]	[UserID:06/343]	[IP:10.128.130.5]	[Browser:Chrome - 85.0.4183.121]	[Action:Closing mssql connection]	[Remarks:Success]
[Date: 2020-09-24 10:53:41]	[UserID:06/343]	[IP:10.128.130.5]	[Browser:Chrome - 85.0.4183.121]	[Action:Making connection to server]	[Remarks:Successful connection to server: S3]
[Date: 2020-09-24 10:53:41]	[UserID:06/343]	[IP:10.128.130.5]	[Browser:Chrome - 85.0.4183.121]	[Action:GetProgramList 06/343]	[Remarks:[{"ID":"1","ProgramIndex":"GST","ProgramName":"GST"}]]
[Date: 2020-09-24 10:53:41]	[UserID:06/343]	[IP:10.128.130.5]	[Browser:Chrome - 85.0.4183.121]	[Action:Making connection to server]	[Remarks:Successful connection to server: S3]
[Date: 2020-09-24 10:53:41]	[UserID:06/343]	[IP:10.128.130.5]	[Browser:Chrome - 85.0.4183.121]	[Action:GetProgramList 06/343]	[Remarks:[{"ID":"1","ProgramIndex":"GST","ProgramName":"GST"}]]
[Date: 2020-09-24 10:53:41]	[UserID:06/343]	[IP:10.128.130.5]	[Browser:Chrome - 85.0.4183.121]	[Action:Making connection to server]	[Remarks:Successful connection to server: S3]
[Date: 2020-09-24 10:53:41]	[UserID:06/343]	[IP:10.128.130.5]	[Browser:Chrome - 85.0.4183.121]	[Action:Filtering User : MasterData Username : 06/343]	[Remarks:Successful filter row count: 1]
[Date: 2020-09-24 10:53:42]	[UserID:06/343]	[IP:10.128.130.5]	[Browser:Chrome - 85.0.4183.121]	[Action:Making connection to server]	[Remarks:Successful connection to server: S3]
[Date: 2020-09-24 10:53:42]	[UserID:06/343]	[IP:10.128.130.5]	[Browser:Chrome - 85.0.4183.121]	[Action:GetGSTModules 06/343,1]	[Remarks:Successful filter row count: 7]
[Date: 2020-09-24 10:53:42]	[UserID:06/343]	[IP:10.128.130.5]	[Browser:Chrome - 85.0.4183.121]	[Action:Closing mssql connection]	[Remarks:Success]
[Date: 2020-09-24 10:56:36]	[UserID:]	[IP:10.128.12.114]	[Browser:Chrome - 85.0.4183.121]	[Action:Making connection to server]	[Remarks:Successful connection to server: S3]
[Date: 2020-09-24 10:56:36]	[UserID:]	[IP:10.128.12.114]	[Browser:Chrome - 85.0.4183.121]	[Action:GetProgramList ]	[Remarks:"no data"]
[Date: 2020-09-24 10:56:42]	[UserID:14/1082]	[IP:10.128.12.114]	[Browser:Chrome - 85.0.4183.121]	[Action:Making connection to server]	[Remarks:Successful connection to server: S3]
[Date: 2020-09-24 10:56:42]	[UserID:14/1082]	[IP:10.128.12.114]	[Browser:Chrome - 85.0.4183.121]	[Action:User 14/1082]	[Remarks:Success]
[Date: 2020-09-24 10:56:42]	[UserID:14/1082]	[IP:10.128.12.114]	[Browser:Chrome - 85.0.4183.121]	[Action:Filtering User : MasterData Username : 14/1082]	[Remarks:Successful filter row count: 0]
[Date: 2020-09-24 10:56:42]	[UserID:14/1082]	[IP:10.128.12.114]	[Browser:Chrome - 85.0.4183.121]	[Action:Filtering User : MasterData Username : 14/1082]	[Remarks:Successful filter row count: 0]
[Date: 2020-09-24 10:56:42]	[UserID:14/1082]	[IP:10.128.12.114]	[Browser:Chrome - 85.0.4183.121]	[Action:Filtering User : MasterData Username : 14/1082]	[Remarks:Success]
[Date: 2020-09-24 10:56:42]	[UserID:14/1082]	[IP:10.128.12.114]	[Browser:Chrome - 85.0.4183.121]	[Action:Closing mssql connection]	[Remarks:Success]
[Date: 2020-09-24 10:56:42]	[UserID:14/1082]	[IP:10.128.12.114]	[Browser:Chrome - 85.0.4183.121]	[Action:Making connection to server]	[Remarks:Successful connection to server: S3]
[Date: 2020-09-24 10:56:42]	[UserID:14/1082]	[IP:10.128.12.114]	[Browser:Chrome - 85.0.4183.121]	[Action:GetProgramList 14/1082]	[Remarks:[{"ID":"1","ProgramIndex":"GST","ProgramName":"GST"}]]
[Date: 2020-09-24 10:56:42]	[UserID:14/1082]	[IP:10.128.12.114]	[Browser:Chrome - 85.0.4183.121]	[Action:Making connection to server]	[Remarks:Successful connection to server: S3]
[Date: 2020-09-24 10:56:42]	[UserID:14/1082]	[IP:10.128.12.114]	[Browser:Chrome - 85.0.4183.121]	[Action:GetProgramList 14/1082]	[Remarks:[{"ID":"1","ProgramIndex":"GST","ProgramName":"GST"}]]
[Date: 2020-09-24 10:56:42]	[UserID:14/1082]	[IP:10.128.12.114]	[Browser:Chrome - 85.0.4183.121]	[Action:Making connection to server]	[Remarks:Successful connection to server: S3]
[Date: 2020-09-24 10:56:42]	[UserID:14/1082]	[IP:10.128.12.114]	[Browser:Chrome - 85.0.4183.121]	[Action:Filtering User : MasterData Username : 14/1082]	[Remarks:Successful filter row count: 1]
[Date: 2020-09-24 10:56:43]	[UserID:14/1082]	[IP:10.128.12.114]	[Browser:Chrome - 85.0.4183.121]	[Action:Making connection to server]	[Remarks:Successful connection to server: S3]
[Date: 2020-09-24 10:56:43]	[UserID:14/1082]	[IP:10.128.12.114]	[Browser:Chrome - 85.0.4183.121]	[Action:GetGSTModules 14/1082,1]	[Remarks:Successful filter row count: 8]
[Date: 2020-09-24 10:56:43]	[UserID:14/1082]	[IP:10.128.12.114]	[Browser:Chrome - 85.0.4183.121]	[Action:Closing mssql connection]	[Remarks:Success]
[Date: 2020-09-24 11:08:10]	[UserID:06/343]	[IP:10.128.130.5]	[Browser:Chrome - 85.0.4183.121]	[Action:Making connection to server]	[Remarks:Successful connection to server: S3]
[Date: 2020-09-24 11:08:10]	[UserID:06/343]	[IP:10.128.130.5]	[Browser:Chrome - 85.0.4183.121]	[Action:GetGSTModules 06/343,1]	[Remarks:Successful filter row count: 7]
[Date: 2020-09-24 11:08:10]	[UserID:06/343]	[IP:10.128.130.5]	[Browser:Chrome - 85.0.4183.121]	[Action:Closing mssql connection]	[Remarks:Success]
[Date: 2020-09-24 11:33:51]	[UserID:06/343]	[IP:10.128.130.5]	[Browser:Chrome - 85.0.4183.121]	[Action:Making connection to server]	[Remarks:Successful connection to server: S3]
[Date: 2020-09-24 11:33:51]	[UserID:06/343]	[IP:10.128.130.5]	[Browser:Chrome - 85.0.4183.121]	[Action:GetGSTModules 06/343,1]	[Remarks:Successful filter row count: 7]
[Date: 2020-09-24 11:33:51]	[UserID:06/343]	[IP:10.128.130.5]	[Browser:Chrome - 85.0.4183.121]	[Action:Closing mssql connection]	[Remarks:Success]
[Date: 2020-09-24 11:45:47]	[UserID:06/343]	[IP:10.128.130.5]	[Browser:Chrome - 85.0.4183.121]	[Action:Making connection to server]	[Remarks:Successful connection to server: S3]
[Date: 2020-09-24 11:45:47]	[UserID:06/343]	[IP:10.128.130.5]	[Browser:Chrome - 85.0.4183.121]	[Action:GetGSTModules 06/343,1]	[Remarks:Successful filter row count: 7]
[Date: 2020-09-24 11:45:47]	[UserID:06/343]	[IP:10.128.130.5]	[Browser:Chrome - 85.0.4183.121]	[Action:Closing mssql connection]	[Remarks:Success]
[Date: 2020-09-24 12:04:30]	[UserID:06/343]	[IP:10.128.130.5]	[Browser:Chrome - 85.0.4183.121]	[Action:Making connection to server]	[Remarks:Successful connection to server: S3]
[Date: 2020-09-24 12:04:30]	[UserID:06/343]	[IP:10.128.130.5]	[Browser:Chrome - 85.0.4183.121]	[Action:GetGSTModules 06/343,1]	[Remarks:Successful filter row count: 7]
[Date: 2020-09-24 12:04:30]	[UserID:06/343]	[IP:10.128.130.5]	[Browser:Chrome - 85.0.4183.121]	[Action:Closing mssql connection]	[Remarks:Success]
[Date: 2020-09-24 12:11:33]	[UserID:06/343]	[IP:10.128.130.5]	[Browser:Chrome - 85.0.4183.121]	[Action:Making connection to server]	[Remarks:Successful connection to server: S3]
[Date: 2020-09-24 12:11:33]	[UserID:06/343]	[IP:10.128.130.5]	[Browser:Chrome - 85.0.4183.121]	[Action:GetGSTModules 06/343,1]	[Remarks:Successful filter row count: 7]
[Date: 2020-09-24 12:11:33]	[UserID:06/343]	[IP:10.128.130.5]	[Browser:Chrome - 85.0.4183.121]	[Action:Closing mssql connection]	[Remarks:Success]
[Date: 2020-09-24 12:19:17]	[UserID:06/343]	[IP:10.128.130.5]	[Browser:Chrome - 85.0.4183.121]	[Action:Making connection to server]	[Remarks:Successful connection to server: S3]
[Date: 2020-09-24 12:19:17]	[UserID:06/343]	[IP:10.128.130.5]	[Browser:Chrome - 85.0.4183.121]	[Action:GetGSTModules 06/343,1]	[Remarks:Successful filter row count: 7]
[Date: 2020-09-24 12:19:17]	[UserID:06/343]	[IP:10.128.130.5]	[Browser:Chrome - 85.0.4183.121]	[Action:Closing mssql connection]	[Remarks:Success]
[Date: 2020-09-24 12:19:22]	[UserID:06/343]	[IP:10.128.130.5]	[Browser:Chrome - 85.0.4183.121]	[Action:Making connection to server]	[Remarks:Successful connection to server: S3]
[Date: 2020-09-24 12:19:22]	[UserID:06/343]	[IP:10.128.130.5]	[Browser:Chrome - 85.0.4183.121]	[Action:GetGSTModules 06/343,1]	[Remarks:Successful filter row count: 7]
[Date: 2020-09-24 12:19:22]	[UserID:06/343]	[IP:10.128.130.5]	[Browser:Chrome - 85.0.4183.121]	[Action:Closing mssql connection]	[Remarks:Success]
[Date: 2020-09-24 12:19:59]	[UserID:06/343]	[IP:10.128.130.5]	[Browser:Chrome - 85.0.4183.121]	[Action:Making connection to server]	[Remarks:Successful connection to server: S3]
[Date: 2020-09-24 12:19:59]	[UserID:06/343]	[IP:10.128.130.5]	[Browser:Chrome - 85.0.4183.121]	[Action:GetGSTModules 06/343,1]	[Remarks:Successful filter row count: 7]
[Date: 2020-09-24 12:19:59]	[UserID:06/343]	[IP:10.128.130.5]	[Browser:Chrome - 85.0.4183.121]	[Action:Closing mssql connection]	[Remarks:Success]
[Date: 2020-09-24 12:22:02]	[UserID:06/343]	[IP:10.128.130.5]	[Browser:Chrome - 85.0.4183.121]	[Action:Making connection to server]	[Remarks:Successful connection to server: S3]
[Date: 2020-09-24 12:22:02]	[UserID:06/343]	[IP:10.128.130.5]	[Browser:Chrome - 85.0.4183.121]	[Action:GetGSTModules 06/343,1]	[Remarks:Successful filter row count: 7]
[Date: 2020-09-24 12:22:02]	[UserID:06/343]	[IP:10.128.130.5]	[Browser:Chrome - 85.0.4183.121]	[Action:Closing mssql connection]	[Remarks:Success]
[Date: 2020-09-24 12:23:28]	[UserID:06/343]	[IP:10.128.130.5]	[Browser:Chrome - 85.0.4183.121]	[Action:Making connection to server]	[Remarks:Successful connection to server: S3]
[Date: 2020-09-24 12:23:28]	[UserID:06/343]	[IP:10.128.130.5]	[Browser:Chrome - 85.0.4183.121]	[Action:GetGSTModules 06/343,1]	[Remarks:Successful filter row count: 7]
[Date: 2020-09-24 12:23:28]	[UserID:06/343]	[IP:10.128.130.5]	[Browser:Chrome - 85.0.4183.121]	[Action:Closing mssql connection]	[Remarks:Success]
[Date: 2020-09-24 12:23:48]	[UserID:06/343]	[IP:10.128.130.5]	[Browser:Chrome - 85.0.4183.121]	[Action:Making connection to server]	[Remarks:Successful connection to server: S3]
[Date: 2020-09-24 12:23:48]	[UserID:06/343]	[IP:10.128.130.5]	[Browser:Chrome - 85.0.4183.121]	[Action:GetGSTModules 06/343,1]	[Remarks:Successful filter row count: 7]
[Date: 2020-09-24 12:23:48]	[UserID:06/343]	[IP:10.128.130.5]	[Browser:Chrome - 85.0.4183.121]	[Action:Closing mssql connection]	[Remarks:Success]
[Date: 2020-09-24 12:34:15]	[UserID:06/343]	[IP:10.128.130.5]	[Browser:Chrome - 85.0.4183.121]	[Action:Making connection to server]	[Remarks:Successful connection to server: S3]
[Date: 2020-09-24 12:34:15]	[UserID:06/343]	[IP:10.128.130.5]	[Browser:Chrome - 85.0.4183.121]	[Action:GetGSTModules 06/343,1]	[Remarks:Successful filter row count: 7]
[Date: 2020-09-24 12:34:15]	[UserID:06/343]	[IP:10.128.130.5]	[Browser:Chrome - 85.0.4183.121]	[Action:Closing mssql connection]	[Remarks:Success]
[Date: 2020-09-24 12:36:34]	[UserID:06/343]	[IP:10.128.130.5]	[Browser:Chrome - 85.0.4183.121]	[Action:Making connection to server]	[Remarks:Successful connection to server: S3]
[Date: 2020-09-24 12:36:34]	[UserID:06/343]	[IP:10.128.130.5]	[Browser:Chrome - 85.0.4183.121]	[Action:GetGSTModules 06/343,1]	[Remarks:Successful filter row count: 7]
[Date: 2020-09-24 12:36:34]	[UserID:06/343]	[IP:10.128.130.5]	[Browser:Chrome - 85.0.4183.121]	[Action:Closing mssql connection]	[Remarks:Success]
[Date: 2020-09-24 12:38:31]	[UserID:06/343]	[IP:10.128.130.5]	[Browser:Chrome - 85.0.4183.121]	[Action:Making connection to server]	[Remarks:Successful connection to server: S3]
[Date: 2020-09-24 12:38:31]	[UserID:06/343]	[IP:10.128.130.5]	[Browser:Chrome - 85.0.4183.121]	[Action:GetGSTModules 06/343,1]	[Remarks:Successful filter row count: 7]
[Date: 2020-09-24 12:38:31]	[UserID:06/343]	[IP:10.128.130.5]	[Browser:Chrome - 85.0.4183.121]	[Action:Closing mssql connection]	[Remarks:Success]
[Date: 2020-09-24 13:07:42]	[UserID:]	[IP:10.128.130.5]	[Browser:Chrome - 85.0.4183.102]	[Action:Making connection to server]	[Remarks:Successful connection to server: S3]
[Date: 2020-09-24 13:07:42]	[UserID:]	[IP:10.128.130.5]	[Browser:Chrome - 85.0.4183.102]	[Action:GetProgramList ]	[Remarks:"no data"]
[Date: 2020-09-24 13:07:47]	[UserID:dev/rjrodriguez]	[IP:10.128.130.5]	[Browser:Chrome - 85.0.4183.102]	[Action:Making connection to server]	[Remarks:Successful connection to server: S3]
[Date: 2020-09-24 13:07:47]	[UserID:dev/rjrodriguez]	[IP:10.128.130.5]	[Browser:Chrome - 85.0.4183.102]	[Action:User dev/rjrodriguez]	[Remarks:Success]
[Date: 2020-09-24 13:07:47]	[UserID:dev/rjrodriguez]	[IP:10.128.130.5]	[Browser:Chrome - 85.0.4183.102]	[Action:Filtering User : MasterData Username : dev/rjrodriguez]	[Remarks:Successful filter row count: 0]
[Date: 2020-09-24 13:07:47]	[UserID:dev/rjrodriguez]	[IP:10.128.130.5]	[Browser:Chrome - 85.0.4183.102]	[Action:Filtering User : MasterData Username : dev/rjrodriguez]	[Remarks:Successful filter row count: 0]
[Date: 2020-09-24 13:07:47]	[UserID:dev/rjrodriguez]	[IP:10.128.130.5]	[Browser:Chrome - 85.0.4183.102]	[Action:Filtering User : MasterData Username : dev/rjrodriguez]	[Remarks:Success]
[Date: 2020-09-24 13:07:47]	[UserID:dev/rjrodriguez]	[IP:10.128.130.5]	[Browser:Chrome - 85.0.4183.102]	[Action:Closing mssql connection]	[Remarks:Success]
[Date: 2020-09-24 13:07:47]	[UserID:dev/rjrodriguez]	[IP:10.128.130.5]	[Browser:Chrome - 85.0.4183.102]	[Action:Making connection to server]	[Remarks:Successful connection to server: S3]
[Date: 2020-09-24 13:07:47]	[UserID:dev/rjrodriguez]	[IP:10.128.130.5]	[Browser:Chrome - 85.0.4183.102]	[Action:GetProgramList dev/rjrodriguez]	[Remarks:[{"ID":"1","ProgramIndex":"GST","ProgramName":"GST"},{"ID":"3","ProgramIndex":"PRD","ProgramName":"PRD"}]]
[Date: 2020-09-24 13:07:47]	[UserID:dev/rjrodriguez]	[IP:10.128.130.5]	[Browser:Chrome - 85.0.4183.102]	[Action:Making connection to server]	[Remarks:Successful connection to server: S3]
[Date: 2020-09-24 13:07:47]	[UserID:dev/rjrodriguez]	[IP:10.128.130.5]	[Browser:Chrome - 85.0.4183.102]	[Action:GetProgramList dev/rjrodriguez]	[Remarks:[{"ID":"1","ProgramIndex":"GST","ProgramName":"GST"},{"ID":"3","ProgramIndex":"PRD","ProgramName":"PRD"}]]
[Date: 2020-09-24 13:07:47]	[UserID:dev/rjrodriguez]	[IP:10.128.130.5]	[Browser:Chrome - 85.0.4183.102]	[Action:Making connection to server]	[Remarks:Successful connection to server: S3]
[Date: 2020-09-24 13:07:47]	[UserID:dev/rjrodriguez]	[IP:10.128.130.5]	[Browser:Chrome - 85.0.4183.102]	[Action:Filtering User : MasterData Username : dev/rjrodriguez]	[Remarks:Successful filter row count: 1]
[Date: 2020-09-24 13:07:49]	[UserID:dev/rjrodriguez]	[IP:10.128.130.5]	[Browser:Chrome - 85.0.4183.102]	[Action:Making connection to server]	[Remarks:Successful connection to server: S3]
[Date: 2020-09-24 13:07:49]	[UserID:dev/rjrodriguez]	[IP:10.128.130.5]	[Browser:Chrome - 85.0.4183.102]	[Action:GetGSTModules dev/rjrodriguez,1]	[Remarks:Successful filter row count: 12]
[Date: 2020-09-24 13:07:49]	[UserID:dev/rjrodriguez]	[IP:10.128.130.5]	[Browser:Chrome - 85.0.4183.102]	[Action:Closing mssql connection]	[Remarks:Success]
[Date: 2020-09-24 13:07:56]	[UserID:dev/rjrodriguez]	[IP:10.128.130.5]	[Browser:Chrome - 85.0.4183.102]	[Action:Making connection to server]	[Remarks:Successful connection to server: S3]
[Date: 2020-09-24 13:07:56]	[UserID:dev/rjrodriguez]	[IP:10.128.130.5]	[Browser:Chrome - 85.0.4183.102]	[Action:GetGSTModules dev/rjrodriguez,1]	[Remarks:Successful filter row count: 12]
[Date: 2020-09-24 13:07:56]	[UserID:dev/rjrodriguez]	[IP:10.128.130.5]	[Browser:Chrome - 85.0.4183.102]	[Action:Closing mssql connection]	[Remarks:Success]
[Date: 2020-09-24 13:16:27]	[UserID:dev/rjrodriguez]	[IP:10.128.130.5]	[Browser:Chrome - 85.0.4183.102]	[Action:Making connection to server]	[Remarks:Successful connection to server: S3]
[Date: 2020-09-24 13:16:27]	[UserID:dev/rjrodriguez]	[IP:10.128.130.5]	[Browser:Chrome - 85.0.4183.102]	[Action:GetGSTModules dev/rjrodriguez,1]	[Remarks:Successful filter row count: 12]
[Date: 2020-09-24 13:16:27]	[UserID:dev/rjrodriguez]	[IP:10.128.130.5]	[Browser:Chrome - 85.0.4183.102]	[Action:Closing mssql connection]	[Remarks:Success]
[Date: 2020-09-24 13:16:51]	[UserID:dev/rjrodriguez]	[IP:10.128.130.5]	[Browser:Chrome - 85.0.4183.102]	[Action:Making connection to server]	[Remarks:Successful connection to server: S3]
[Date: 2020-09-24 13:16:51]	[UserID:dev/rjrodriguez]	[IP:10.128.130.5]	[Browser:Chrome - 85.0.4183.102]	[Action:GetGSTModules dev/rjrodriguez,1]	[Remarks:Successful filter row count: 12]
[Date: 2020-09-24 13:16:51]	[UserID:dev/rjrodriguez]	[IP:10.128.130.5]	[Browser:Chrome - 85.0.4183.102]	[Action:Closing mssql connection]	[Remarks:Success]
[Date: 2020-09-24 13:26:59]	[UserID:dev/rjrodriguez]	[IP:10.128.130.5]	[Browser:Chrome - 85.0.4183.102]	[Action:Making connection to server]	[Remarks:Successful connection to server: S3]
[Date: 2020-09-24 13:26:59]	[UserID:dev/rjrodriguez]	[IP:10.128.130.5]	[Browser:Chrome - 85.0.4183.102]	[Action:GetGSTModules dev/rjrodriguez,1]	[Remarks:Successful filter row count: 12]
[Date: 2020-09-24 13:26:59]	[UserID:dev/rjrodriguez]	[IP:10.128.130.5]	[Browser:Chrome - 85.0.4183.102]	[Action:Closing mssql connection]	[Remarks:Success]
[Date: 2020-09-24 14:10:38]	[UserID:]	[IP:10.128.12.114]	[Browser:Chrome - 85.0.4183.121]	[Action:Making connection to server]	[Remarks:Successful connection to server: S3]
[Date: 2020-09-24 14:10:38]	[UserID:]	[IP:10.128.12.114]	[Browser:Chrome - 85.0.4183.121]	[Action:GetProgramList ]	[Remarks:"no data"]
[Date: 2020-09-24 14:11:20]	[UserID:]	[IP:10.128.130.5]	[Browser:Firefox - 80.0]	[Action:Making connection to server]	[Remarks:Successful connection to server: S3]
[Date: 2020-09-24 14:11:20]	[UserID:]	[IP:10.128.130.5]	[Browser:Firefox - 80.0]	[Action:GetProgramList ]	[Remarks:"no data"]
[Date: 2020-09-24 14:15:07]	[UserID:dev/rjrodriguez]	[IP:10.128.130.5]	[Browser:Chrome - 85.0.4183.102]	[Action:Making connection to server]	[Remarks:Successful connection to server: S3]
[Date: 2020-09-24 14:15:07]	[UserID:dev/rjrodriguez]	[IP:10.128.130.5]	[Browser:Chrome - 85.0.4183.102]	[Action:GetGSTModules dev/rjrodriguez,1]	[Remarks:Successful filter row count: 12]
[Date: 2020-09-24 14:15:07]	[UserID:dev/rjrodriguez]	[IP:10.128.130.5]	[Browser:Chrome - 85.0.4183.102]	[Action:Closing mssql connection]	[Remarks:Success]
[Date: 2020-09-24 14:17:54]	[UserID:dev/rjrodriguez]	[IP:10.128.130.5]	[Browser:Chrome - 85.0.4183.102]	[Action:Making connection to server]	[Remarks:Successful connection to server: S3]
[Date: 2020-09-24 14:17:54]	[UserID:dev/rjrodriguez]	[IP:10.128.130.5]	[Browser:Chrome - 85.0.4183.102]	[Action:GetGSTModules dev/rjrodriguez,1]	[Remarks:Successful filter row count: 12]
[Date: 2020-09-24 14:17:54]	[UserID:dev/rjrodriguez]	[IP:10.128.130.5]	[Browser:Chrome - 85.0.4183.102]	[Action:Closing mssql connection]	[Remarks:Success]
[Date: 2020-09-24 14:23:40]	[UserID:]	[IP:10.128.130.5]	[Browser:Chrome - 85.0.4183.102]	[Action:Making connection to server]	[Remarks:Successful connection to server: S3]
[Date: 2020-09-24 14:23:40]	[UserID:]	[IP:10.128.130.5]	[Browser:Chrome - 85.0.4183.102]	[Action:GetProgramList ]	[Remarks:"no data"]
[Date: 2020-09-24 14:23:45]	[UserID:dev/rjrodriguez]	[IP:10.128.130.5]	[Browser:Chrome - 85.0.4183.102]	[Action:Making connection to server]	[Remarks:Successful connection to server: S3]
[Date: 2020-09-24 14:23:45]	[UserID:dev/rjrodriguez]	[IP:10.128.130.5]	[Browser:Chrome - 85.0.4183.102]	[Action:User dev/rjrodriguez]	[Remarks:Success]
[Date: 2020-09-24 14:23:45]	[UserID:dev/rjrodriguez]	[IP:10.128.130.5]	[Browser:Chrome - 85.0.4183.102]	[Action:Filtering User : MasterData Username : dev/rjrodriguez]	[Remarks:Successful filter row count: 0]
[Date: 2020-09-24 14:23:45]	[UserID:dev/rjrodriguez]	[IP:10.128.130.5]	[Browser:Chrome - 85.0.4183.102]	[Action:Filtering User : MasterData Username : dev/rjrodriguez]	[Remarks:Successful filter row count: 0]
[Date: 2020-09-24 14:23:45]	[UserID:dev/rjrodriguez]	[IP:10.128.130.5]	[Browser:Chrome - 85.0.4183.102]	[Action:Filtering User : MasterData Username : dev/rjrodriguez]	[Remarks:Success]
[Date: 2020-09-24 14:23:45]	[UserID:dev/rjrodriguez]	[IP:10.128.130.5]	[Browser:Chrome - 85.0.4183.102]	[Action:Closing mssql connection]	[Remarks:Success]
[Date: 2020-09-24 14:23:45]	[UserID:dev/rjrodriguez]	[IP:10.128.130.5]	[Browser:Chrome - 85.0.4183.102]	[Action:Making connection to server]	[Remarks:Successful connection to server: S3]
[Date: 2020-09-24 14:23:45]	[UserID:dev/rjrodriguez]	[IP:10.128.130.5]	[Browser:Chrome - 85.0.4183.102]	[Action:GetProgramList dev/rjrodriguez]	[Remarks:[{"ID":"1","ProgramIndex":"GST","ProgramName":"GST"},{"ID":"3","ProgramIndex":"PRD","ProgramName":"PRD"}]]
[Date: 2020-09-24 14:23:45]	[UserID:dev/rjrodriguez]	[IP:10.128.130.5]	[Browser:Chrome - 85.0.4183.102]	[Action:Making connection to server]	[Remarks:Successful connection to server: S3]
[Date: 2020-09-24 14:23:45]	[UserID:dev/rjrodriguez]	[IP:10.128.130.5]	[Browser:Chrome - 85.0.4183.102]	[Action:GetProgramList dev/rjrodriguez]	[Remarks:[{"ID":"1","ProgramIndex":"GST","ProgramName":"GST"},{"ID":"3","ProgramIndex":"PRD","ProgramName":"PRD"}]]
[Date: 2020-09-24 14:23:45]	[UserID:dev/rjrodriguez]	[IP:10.128.130.5]	[Browser:Chrome - 85.0.4183.102]	[Action:Making connection to server]	[Remarks:Successful connection to server: S3]
[Date: 2020-09-24 14:23:45]	[UserID:dev/rjrodriguez]	[IP:10.128.130.5]	[Browser:Chrome - 85.0.4183.102]	[Action:Filtering User : MasterData Username : dev/rjrodriguez]	[Remarks:Successful filter row count: 1]
[Date: 2020-09-24 14:23:48]	[UserID:dev/rjrodriguez]	[IP:10.128.130.5]	[Browser:Chrome - 85.0.4183.102]	[Action:Making connection to server]	[Remarks:Successful connection to server: S3]
[Date: 2020-09-24 14:23:48]	[UserID:dev/rjrodriguez]	[IP:10.128.130.5]	[Browser:Chrome - 85.0.4183.102]	[Action:GetGSTModules dev/rjrodriguez,1]	[Remarks:Successful filter row count: 12]
[Date: 2020-09-24 14:23:48]	[UserID:dev/rjrodriguez]	[IP:10.128.130.5]	[Browser:Chrome - 85.0.4183.102]	[Action:Closing mssql connection]	[Remarks:Success]
[Date: 2020-09-24 14:30:39]	[UserID:]	[IP:10.128.130.5]	[Browser:Chrome - 85.0.4183.102]	[Action:Making connection to server]	[Remarks:Successful connection to server: S3]
[Date: 2020-09-24 14:30:39]	[UserID:]	[IP:10.128.130.5]	[Browser:Chrome - 85.0.4183.102]	[Action:GetProgramList ]	[Remarks:"no data"]
[Date: 2020-09-24 14:30:44]	[UserID:dev/rjrodriguez]	[IP:10.128.130.5]	[Browser:Chrome - 85.0.4183.102]	[Action:Making connection to server]	[Remarks:Successful connection to server: S3]
[Date: 2020-09-24 14:30:44]	[UserID:dev/rjrodriguez]	[IP:10.128.130.5]	[Browser:Chrome - 85.0.4183.102]	[Action:User dev/rjrodriguez]	[Remarks:Success]
[Date: 2020-09-24 14:30:44]	[UserID:dev/rjrodriguez]	[IP:10.128.130.5]	[Browser:Chrome - 85.0.4183.102]	[Action:Filtering User : MasterData Username : dev/rjrodriguez]	[Remarks:Successful filter row count: 0]
[Date: 2020-09-24 14:30:44]	[UserID:dev/rjrodriguez]	[IP:10.128.130.5]	[Browser:Chrome - 85.0.4183.102]	[Action:Filtering User : MasterData Username : dev/rjrodriguez]	[Remarks:Successful filter row count: 0]
[Date: 2020-09-24 14:30:44]	[UserID:dev/rjrodriguez]	[IP:10.128.130.5]	[Browser:Chrome - 85.0.4183.102]	[Action:Filtering User : MasterData Username : dev/rjrodriguez]	[Remarks:Success]
[Date: 2020-09-24 14:30:44]	[UserID:dev/rjrodriguez]	[IP:10.128.130.5]	[Browser:Chrome - 85.0.4183.102]	[Action:Closing mssql connection]	[Remarks:Success]
[Date: 2020-09-24 14:30:45]	[UserID:dev/rjrodriguez]	[IP:10.128.130.5]	[Browser:Chrome - 85.0.4183.102]	[Action:Making connection to server]	[Remarks:Successful connection to server: S3]
[Date: 2020-09-24 14:30:45]	[UserID:dev/rjrodriguez]	[IP:10.128.130.5]	[Browser:Chrome - 85.0.4183.102]	[Action:GetProgramList dev/rjrodriguez]	[Remarks:[{"ID":"1","ProgramIndex":"GST","ProgramName":"GST"},{"ID":"3","ProgramIndex":"PRD","ProgramName":"PRD"}]]
[Date: 2020-09-24 14:30:45]	[UserID:dev/rjrodriguez]	[IP:10.128.130.5]	[Browser:Chrome - 85.0.4183.102]	[Action:Making connection to server]	[Remarks:Successful connection to server: S3]
[Date: 2020-09-24 14:30:45]	[UserID:dev/rjrodriguez]	[IP:10.128.130.5]	[Browser:Chrome - 85.0.4183.102]	[Action:GetProgramList dev/rjrodriguez]	[Remarks:[{"ID":"1","ProgramIndex":"GST","ProgramName":"GST"},{"ID":"3","ProgramIndex":"PRD","ProgramName":"PRD"}]]
[Date: 2020-09-24 14:30:45]	[UserID:dev/rjrodriguez]	[IP:10.128.130.5]	[Browser:Chrome - 85.0.4183.102]	[Action:Making connection to server]	[Remarks:Successful connection to server: S3]
[Date: 2020-09-24 14:30:45]	[UserID:dev/rjrodriguez]	[IP:10.128.130.5]	[Browser:Chrome - 85.0.4183.102]	[Action:Filtering User : MasterData Username : dev/rjrodriguez]	[Remarks:Successful filter row count: 1]
[Date: 2020-09-24 14:30:47]	[UserID:dev/rjrodriguez]	[IP:10.128.130.5]	[Browser:Chrome - 85.0.4183.102]	[Action:Making connection to server]	[Remarks:Successful connection to server: S3]
[Date: 2020-09-24 14:30:47]	[UserID:dev/rjrodriguez]	[IP:10.128.130.5]	[Browser:Chrome - 85.0.4183.102]	[Action:GetGSTModules dev/rjrodriguez,1]	[Remarks:Successful filter row count: 12]
[Date: 2020-09-24 14:30:47]	[UserID:dev/rjrodriguez]	[IP:10.128.130.5]	[Browser:Chrome - 85.0.4183.102]	[Action:Closing mssql connection]	[Remarks:Success]
[Date: 2020-09-24 14:32:07]	[UserID:]	[IP:10.128.130.5]	[Browser:Chrome - 85.0.4183.102]	[Action:Making connection to server]	[Remarks:Successful connection to server: S3]
[Date: 2020-09-24 14:32:07]	[UserID:]	[IP:10.128.130.5]	[Browser:Chrome - 85.0.4183.102]	[Action:GetProgramList ]	[Remarks:"no data"]
[Date: 2020-09-24 14:32:12]	[UserID:dev/rjrodriguez]	[IP:10.128.130.5]	[Browser:Chrome - 85.0.4183.102]	[Action:Making connection to server]	[Remarks:Successful connection to server: S3]
[Date: 2020-09-24 14:32:12]	[UserID:dev/rjrodriguez]	[IP:10.128.130.5]	[Browser:Chrome - 85.0.4183.102]	[Action:User dev/rjrodriguez]	[Remarks:Success]
[Date: 2020-09-24 14:32:12]	[UserID:dev/rjrodriguez]	[IP:10.128.130.5]	[Browser:Chrome - 85.0.4183.102]	[Action:Filtering User : MasterData Username : dev/rjrodriguez]	[Remarks:Successful filter row count: 0]
[Date: 2020-09-24 14:32:12]	[UserID:dev/rjrodriguez]	[IP:10.128.130.5]	[Browser:Chrome - 85.0.4183.102]	[Action:Filtering User : MasterData Username : dev/rjrodriguez]	[Remarks:Successful filter row count: 0]
[Date: 2020-09-24 14:32:12]	[UserID:dev/rjrodriguez]	[IP:10.128.130.5]	[Browser:Chrome - 85.0.4183.102]	[Action:Filtering User : MasterData Username : dev/rjrodriguez]	[Remarks:Success]
[Date: 2020-09-24 14:32:12]	[UserID:dev/rjrodriguez]	[IP:10.128.130.5]	[Browser:Chrome - 85.0.4183.102]	[Action:Closing mssql connection]	[Remarks:Success]
[Date: 2020-09-24 14:32:13]	[UserID:dev/rjrodriguez]	[IP:10.128.130.5]	[Browser:Chrome - 85.0.4183.102]	[Action:Making connection to server]	[Remarks:Successful connection to server: S3]
[Date: 2020-09-24 14:32:13]	[UserID:dev/rjrodriguez]	[IP:10.128.130.5]	[Browser:Chrome - 85.0.4183.102]	[Action:GetProgramList dev/rjrodriguez]	[Remarks:[{"ID":"1","ProgramIndex":"GST","ProgramName":"GST"},{"ID":"3","ProgramIndex":"PRD","ProgramName":"PRD"}]]
[Date: 2020-09-24 14:32:13]	[UserID:dev/rjrodriguez]	[IP:10.128.130.5]	[Browser:Chrome - 85.0.4183.102]	[Action:Making connection to server]	[Remarks:Successful connection to server: S3]
[Date: 2020-09-24 14:32:13]	[UserID:dev/rjrodriguez]	[IP:10.128.130.5]	[Browser:Chrome - 85.0.4183.102]	[Action:GetProgramList dev/rjrodriguez]	[Remarks:[{"ID":"1","ProgramIndex":"GST","ProgramName":"GST"},{"ID":"3","ProgramIndex":"PRD","ProgramName":"PRD"}]]
[Date: 2020-09-24 14:32:13]	[UserID:dev/rjrodriguez]	[IP:10.128.130.5]	[Browser:Chrome - 85.0.4183.102]	[Action:Making connection to server]	[Remarks:Successful connection to server: S3]
[Date: 2020-09-24 14:32:13]	[UserID:dev/rjrodriguez]	[IP:10.128.130.5]	[Browser:Chrome - 85.0.4183.102]	[Action:Filtering User : MasterData Username : dev/rjrodriguez]	[Remarks:Successful filter row count: 1]
[Date: 2020-09-24 14:32:16]	[UserID:dev/rjrodriguez]	[IP:10.128.130.5]	[Browser:Chrome - 85.0.4183.102]	[Action:Making connection to server]	[Remarks:Successful connection to server: S3]
[Date: 2020-09-24 14:32:16]	[UserID:dev/rjrodriguez]	[IP:10.128.130.5]	[Browser:Chrome - 85.0.4183.102]	[Action:GetGSTModules dev/rjrodriguez,1]	[Remarks:Successful filter row count: 12]
[Date: 2020-09-24 14:32:16]	[UserID:dev/rjrodriguez]	[IP:10.128.130.5]	[Browser:Chrome - 85.0.4183.102]	[Action:Closing mssql connection]	[Remarks:Success]
[Date: 2020-09-24 14:54:00]	[UserID:14/1082]	[IP:10.128.12.114]	[Browser:Chrome - 85.0.4183.121]	[Action:Making connection to server]	[Remarks:Successful connection to server: S3]
[Date: 2020-09-24 14:54:00]	[UserID:14/1082]	[IP:10.128.12.114]	[Browser:Chrome - 85.0.4183.121]	[Action:User 14/1082]	[Remarks:Success]
[Date: 2020-09-24 14:54:00]	[UserID:14/1082]	[IP:10.128.12.114]	[Browser:Chrome - 85.0.4183.121]	[Action:Filtering User : MasterData Username : 14/1082]	[Remarks:Successful filter row count: 0]
[Date: 2020-09-24 14:54:00]	[UserID:14/1082]	[IP:10.128.12.114]	[Browser:Chrome - 85.0.4183.121]	[Action:Filtering User : MasterData Username : 14/1082]	[Remarks:Successful filter row count: 0]
[Date: 2020-09-24 14:54:00]	[UserID:14/1082]	[IP:10.128.12.114]	[Browser:Chrome - 85.0.4183.121]	[Action:Filtering User : MasterData Username : 14/1082]	[Remarks:Success]
[Date: 2020-09-24 14:54:00]	[UserID:14/1082]	[IP:10.128.12.114]	[Browser:Chrome - 85.0.4183.121]	[Action:Closing mssql connection]	[Remarks:Success]
[Date: 2020-09-24 14:54:00]	[UserID:14/1082]	[IP:10.128.12.114]	[Browser:Chrome - 85.0.4183.121]	[Action:Making connection to server]	[Remarks:Successful connection to server: S3]
[Date: 2020-09-24 14:54:00]	[UserID:14/1082]	[IP:10.128.12.114]	[Browser:Chrome - 85.0.4183.121]	[Action:GetProgramList 14/1082]	[Remarks:[{"ID":"1","ProgramIndex":"GST","ProgramName":"GST"}]]
[Date: 2020-09-24 14:54:00]	[UserID:14/1082]	[IP:10.128.12.114]	[Browser:Chrome - 85.0.4183.121]	[Action:Making connection to server]	[Remarks:Successful connection to server: S3]
[Date: 2020-09-24 14:54:00]	[UserID:14/1082]	[IP:10.128.12.114]	[Browser:Chrome - 85.0.4183.121]	[Action:GetProgramList 14/1082]	[Remarks:[{"ID":"1","ProgramIndex":"GST","ProgramName":"GST"}]]
[Date: 2020-09-24 14:54:00]	[UserID:14/1082]	[IP:10.128.12.114]	[Browser:Chrome - 85.0.4183.121]	[Action:Making connection to server]	[Remarks:Successful connection to server: S3]
[Date: 2020-09-24 14:54:00]	[UserID:14/1082]	[IP:10.128.12.114]	[Browser:Chrome - 85.0.4183.121]	[Action:Filtering User : MasterData Username : 14/1082]	[Remarks:Successful filter row count: 1]
[Date: 2020-09-24 14:54:01]	[UserID:14/1082]	[IP:10.128.12.114]	[Browser:Chrome - 85.0.4183.121]	[Action:Making connection to server]	[Remarks:Successful connection to server: S3]
[Date: 2020-09-24 14:54:01]	[UserID:14/1082]	[IP:10.128.12.114]	[Browser:Chrome - 85.0.4183.121]	[Action:GetGSTModules 14/1082,1]	[Remarks:Successful filter row count: 8]
[Date: 2020-09-24 14:54:01]	[UserID:14/1082]	[IP:10.128.12.114]	[Browser:Chrome - 85.0.4183.121]	[Action:Closing mssql connection]	[Remarks:Success]
[Date: 2020-09-24 15:11:19]	[UserID:]	[IP:10.128.130.5]	[Browser:Firefox - 80.0]	[Action:Making connection to server]	[Remarks:Successful connection to server: S3]
[Date: 2020-09-24 15:11:19]	[UserID:]	[IP:10.128.130.5]	[Browser:Firefox - 80.0]	[Action:GetProgramList ]	[Remarks:"no data"]
[Date: 2020-09-24 15:11:41]	[UserID:dev/rjrodriguez]	[IP:10.128.130.5]	[Browser:Firefox - 80.0]	[Action:Making connection to server]	[Remarks:Successful connection to server: S3]
[Date: 2020-09-24 15:11:41]	[UserID:dev/rjrodriguez]	[IP:10.128.130.5]	[Browser:Firefox - 80.0]	[Action:User dev/rjrodriguez]	[Remarks:Success]
[Date: 2020-09-24 15:11:41]	[UserID:dev/rjrodriguez]	[IP:10.128.130.5]	[Browser:Firefox - 80.0]	[Action:Filtering User : MasterData Username : dev/rjrodriguez]	[Remarks:Successful filter row count: 0]
[Date: 2020-09-24 15:11:41]	[UserID:dev/rjrodriguez]	[IP:10.128.130.5]	[Browser:Firefox - 80.0]	[Action:Filtering User : MasterData Username : dev/rjrodriguez]	[Remarks:Successful filter row count: 0]
[Date: 2020-09-24 15:11:41]	[UserID:dev/rjrodriguez]	[IP:10.128.130.5]	[Browser:Firefox - 80.0]	[Action:Filtering User : MasterData Username : dev/rjrodriguez]	[Remarks:Success]
[Date: 2020-09-24 15:11:41]	[UserID:dev/rjrodriguez]	[IP:10.128.130.5]	[Browser:Firefox - 80.0]	[Action:Closing mssql connection]	[Remarks:Success]
[Date: 2020-09-24 15:11:41]	[UserID:]	[IP:10.128.130.5]	[Browser:Firefox - 80.0]	[Action:Making connection to server]	[Remarks:Successful connection to server: S3]
[Date: 2020-09-24 15:11:41]	[UserID:]	[IP:10.128.130.5]	[Browser:Firefox - 80.0]	[Action:GetProgramList ]	[Remarks:"no data"]
[Date: 2020-09-24 15:11:54]	[UserID:]	[IP:10.128.130.5]	[Browser:Firefox - 80.0]	[Action:Making connection to server]	[Remarks:Successful connection to server: S3]
[Date: 2020-09-24 15:11:54]	[UserID:]	[IP:10.128.130.5]	[Browser:Firefox - 80.0]	[Action:GetProgramList ]	[Remarks:"no data"]
[Date: 2020-09-24 15:12:03]	[UserID:dev/rjrodriguez]	[IP:10.128.130.5]	[Browser:Firefox - 80.0]	[Action:Making connection to server]	[Remarks:Successful connection to server: S3]
[Date: 2020-09-24 15:12:03]	[UserID:dev/rjrodriguez]	[IP:10.128.130.5]	[Browser:Firefox - 80.0]	[Action:User dev/rjrodriguez]	[Remarks:Success]
[Date: 2020-09-24 15:12:03]	[UserID:dev/rjrodriguez]	[IP:10.128.130.5]	[Browser:Firefox - 80.0]	[Action:Filtering User : MasterData Username : dev/rjrodriguez]	[Remarks:Successful filter row count: 0]
[Date: 2020-09-24 15:12:03]	[UserID:dev/rjrodriguez]	[IP:10.128.130.5]	[Browser:Firefox - 80.0]	[Action:Filtering User : MasterData Username : dev/rjrodriguez]	[Remarks:Successful filter row count: 0]
[Date: 2020-09-24 15:12:03]	[UserID:dev/rjrodriguez]	[IP:10.128.130.5]	[Browser:Firefox - 80.0]	[Action:Filtering User : MasterData Username : dev/rjrodriguez]	[Remarks:Success]
[Date: 2020-09-24 15:12:03]	[UserID:dev/rjrodriguez]	[IP:10.128.130.5]	[Browser:Firefox - 80.0]	[Action:Closing mssql connection]	[Remarks:Success]
[Date: 2020-09-24 15:12:03]	[UserID:dev/rjrodriguez]	[IP:10.128.130.5]	[Browser:Firefox - 80.0]	[Action:Making connection to server]	[Remarks:Successful connection to server: S3]
[Date: 2020-09-24 15:12:04]	[UserID:dev/rjrodriguez]	[IP:10.128.130.5]	[Browser:Firefox - 80.0]	[Action:GetProgramList dev/rjrodriguez]	[Remarks:[{"ID":"1","ProgramIndex":"GST","ProgramName":"GST"},{"ID":"3","ProgramIndex":"PRD","ProgramName":"PRD"}]]
[Date: 2020-09-24 15:12:04]	[UserID:dev/rjrodriguez]	[IP:10.128.130.5]	[Browser:Firefox - 80.0]	[Action:Making connection to server]	[Remarks:Successful connection to server: S3]
[Date: 2020-09-24 15:12:04]	[UserID:dev/rjrodriguez]	[IP:10.128.130.5]	[Browser:Firefox - 80.0]	[Action:GetProgramList dev/rjrodriguez]	[Remarks:[{"ID":"1","ProgramIndex":"GST","ProgramName":"GST"},{"ID":"3","ProgramIndex":"PRD","ProgramName":"PRD"}]]
[Date: 2020-09-24 15:12:04]	[UserID:dev/rjrodriguez]	[IP:10.128.130.5]	[Browser:Firefox - 80.0]	[Action:Making connection to server]	[Remarks:Successful connection to server: S3]
[Date: 2020-09-24 15:12:04]	[UserID:dev/rjrodriguez]	[IP:10.128.130.5]	[Browser:Firefox - 80.0]	[Action:Filtering User : MasterData Username : dev/rjrodriguez]	[Remarks:Successful filter row count: 1]
[Date: 2020-09-24 15:12:07]	[UserID:dev/rjrodriguez]	[IP:10.128.130.5]	[Browser:Firefox - 80.0]	[Action:Making connection to server]	[Remarks:Successful connection to server: S3]
[Date: 2020-09-24 15:12:07]	[UserID:dev/rjrodriguez]	[IP:10.128.130.5]	[Browser:Firefox - 80.0]	[Action:GetGSTModules dev/rjrodriguez,1]	[Remarks:Successful filter row count: 12]
[Date: 2020-09-24 15:12:07]	[UserID:dev/rjrodriguez]	[IP:10.128.130.5]	[Browser:Firefox - 80.0]	[Action:Closing mssql connection]	[Remarks:Success]
[Date: 2020-09-24 15:16:19]	[UserID:]	[IP:10.128.130.5]	[Browser:Firefox - 80.0]	[Action:Making connection to server]	[Remarks:Successful connection to server: S3]
[Date: 2020-09-24 15:16:19]	[UserID:]	[IP:10.128.130.5]	[Browser:Firefox - 80.0]	[Action:GetProgramList ]	[Remarks:"no data"]
[Date: 2020-09-24 17:07:33]	[UserID:14/1082]	[IP:10.128.12.114]	[Browser:Chrome - 85.0.4183.121]	[Action:Making connection to server]	[Remarks:Successful connection to server: S3]
[Date: 2020-09-24 17:07:33]	[UserID:14/1082]	[IP:10.128.12.114]	[Browser:Chrome - 85.0.4183.121]	[Action:GetGSTModules 14/1082,1]	[Remarks:No Data]
[Date: 2020-09-24 17:07:33]	[UserID:14/1082]	[IP:10.128.12.114]	[Browser:Chrome - 85.0.4183.121]	[Action:Closing mssql connection]	[Remarks:Success]
[Date: 2020-09-24 17:07:44]	[UserID:]	[IP:10.128.12.114]	[Browser:Chrome - 85.0.4183.121]	[Action:Making connection to server]	[Remarks:Successful connection to server: S3]
[Date: 2020-09-24 17:07:48]	[UserID:]	[IP:10.128.12.114]	[Browser:Chrome - 85.0.4183.121]	[Action:GetProgramList ]	[Remarks:"error"]
[Date: 2020-09-24 17:08:07]	[UserID:]	[IP:10.128.12.114]	[Browser:Chrome - 85.0.4183.121]	[Action:Making connection to server]	[Remarks:Successful connection to server: S3]
[Date: 2020-09-24 17:08:59]	[UserID:]	[IP:10.128.12.114]	[Browser:Chrome - 85.0.4183.121]	[Action:GetProgramList ]	[Remarks:"no data"]
[Date: 2020-09-24 17:08:59]	[UserID:14/1082]	[IP:10.128.12.114]	[Browser:Chrome - 85.0.4183.121]	[Action:Making connection to server]	[Remarks:Successful connection to server: S3]
[Date: 2020-09-24 17:08:59]	[UserID:14/1082]	[IP:10.128.12.114]	[Browser:Chrome - 85.0.4183.121]	[Action:User 14/1082]	[Remarks:Success]
[Date: 2020-09-24 17:09:00]	[UserID:14/1082]	[IP:10.128.12.114]	[Browser:Chrome - 85.0.4183.121]	[Action:Filtering User : MasterData Username : 14/1082]	[Remarks:Successful filter row count: 0]
[Date: 2020-09-24 17:09:01]	[UserID:14/1082]	[IP:10.128.12.114]	[Browser:Chrome - 85.0.4183.121]	[Action:Filtering User : MasterData Username : 14/1082]	[Remarks:Successful filter row count: 0]
[Date: 2020-09-24 17:09:01]	[UserID:14/1082]	[IP:10.128.12.114]	[Browser:Chrome - 85.0.4183.121]	[Action:Filtering User : MasterData Username : 14/1082]	[Remarks:Success]
[Date: 2020-09-24 17:09:02]	[UserID:14/1082]	[IP:10.128.12.114]	[Browser:Chrome - 85.0.4183.121]	[Action:Closing mssql connection]	[Remarks:Success]
[Date: 2020-09-24 17:09:58]	[UserID:14/1082]	[IP:10.128.12.114]	[Browser:Chrome - 85.0.4183.121]	[Action:Making connection to server]	[Remarks:Successful connection to server: S3]
[Date: 2020-09-24 17:09:58]	[UserID:14/1082]	[IP:10.128.12.114]	[Browser:Chrome - 85.0.4183.121]	[Action:GetProgramList 14/1082]	[Remarks:[{"ID":"1","ProgramIndex":"GST","ProgramName":"GST"}]]
[Date: 2020-09-24 17:09:58]	[UserID:14/1082]	[IP:10.128.12.114]	[Browser:Chrome - 85.0.4183.121]	[Action:Making connection to server]	[Remarks:Successful connection to server: S3]
[Date: 2020-09-24 17:09:58]	[UserID:14/1082]	[IP:10.128.12.114]	[Browser:Chrome - 85.0.4183.121]	[Action:GetProgramList 14/1082]	[Remarks:[{"ID":"1","ProgramIndex":"GST","ProgramName":"GST"}]]
[Date: 2020-09-24 17:09:58]	[UserID:14/1082]	[IP:10.128.12.114]	[Browser:Chrome - 85.0.4183.121]	[Action:Making connection to server]	[Remarks:Successful connection to server: S3]
[Date: 2020-09-24 17:09:58]	[UserID:14/1082]	[IP:10.128.12.114]	[Browser:Chrome - 85.0.4183.121]	[Action:Filtering User : MasterData Username : 14/1082]	[Remarks:Successful filter row count: 1]
[Date: 2020-09-24 17:09:59]	[UserID:14/1082]	[IP:10.128.12.114]	[Browser:Chrome - 85.0.4183.121]	[Action:Making connection to server]	[Remarks:Successful connection to server: S3]
[Date: 2020-09-24 17:09:59]	[UserID:14/1082]	[IP:10.128.12.114]	[Browser:Chrome - 85.0.4183.121]	[Action:GetGSTModules 14/1082,1]	[Remarks:Successful filter row count: 8]
[Date: 2020-09-24 17:09:59]	[UserID:14/1082]	[IP:10.128.12.114]	[Browser:Chrome - 85.0.4183.121]	[Action:Closing mssql connection]	[Remarks:Success]
[Date: 2020-09-24 17:15:55]	[UserID:]	[IP:10.128.12.114]	[Browser:Chrome - 85.0.4183.121]	[Action:Making connection to server]	[Remarks:Successful connection to server: S3]
[Date: 2020-09-24 17:15:55]	[UserID:]	[IP:10.128.12.114]	[Browser:Chrome - 85.0.4183.121]	[Action:GetProgramList ]	[Remarks:"no data"]
[Date: 2020-09-24 17:16:00]	[UserID:14/1082]	[IP:10.128.12.114]	[Browser:Chrome - 85.0.4183.121]	[Action:Making connection to server]	[Remarks:Successful connection to server: S3]
[Date: 2020-09-24 17:16:00]	[UserID:14/1082]	[IP:10.128.12.114]	[Browser:Chrome - 85.0.4183.121]	[Action:User 14/1082]	[Remarks:Success]
[Date: 2020-09-24 17:16:00]	[UserID:14/1082]	[IP:10.128.12.114]	[Browser:Chrome - 85.0.4183.121]	[Action:Filtering User : MasterData Username : 14/1082]	[Remarks:Successful filter row count: 0]
[Date: 2020-09-24 17:16:01]	[UserID:14/1082]	[IP:10.128.12.114]	[Browser:Chrome - 85.0.4183.121]	[Action:Filtering User : MasterData Username : 14/1082]	[Remarks:Successful filter row count: 0]
[Date: 2020-09-24 17:16:01]	[UserID:14/1082]	[IP:10.128.12.114]	[Browser:Chrome - 85.0.4183.121]	[Action:Filtering User : MasterData Username : 14/1082]	[Remarks:Success]
[Date: 2020-09-24 17:16:01]	[UserID:14/1082]	[IP:10.128.12.114]	[Browser:Chrome - 85.0.4183.121]	[Action:Closing mssql connection]	[Remarks:Success]
[Date: 2020-09-24 17:16:01]	[UserID:14/1082]	[IP:10.128.12.114]	[Browser:Chrome - 85.0.4183.121]	[Action:Making connection to server]	[Remarks:Successful connection to server: S3]
[Date: 2020-09-24 17:16:01]	[UserID:14/1082]	[IP:10.128.12.114]	[Browser:Chrome - 85.0.4183.121]	[Action:GetProgramList 14/1082]	[Remarks:[{"ID":"1","ProgramIndex":"GST","ProgramName":"GST"}]]
[Date: 2020-09-24 17:16:01]	[UserID:14/1082]	[IP:10.128.12.114]	[Browser:Chrome - 85.0.4183.121]	[Action:Making connection to server]	[Remarks:Successful connection to server: S3]
[Date: 2020-09-24 17:16:01]	[UserID:14/1082]	[IP:10.128.12.114]	[Browser:Chrome - 85.0.4183.121]	[Action:GetProgramList 14/1082]	[Remarks:[{"ID":"1","ProgramIndex":"GST","ProgramName":"GST"}]]
[Date: 2020-09-24 17:16:02]	[UserID:14/1082]	[IP:10.128.12.114]	[Browser:Chrome - 85.0.4183.121]	[Action:Making connection to server]	[Remarks:Successful connection to server: S3]
[Date: 2020-09-24 17:16:02]	[UserID:14/1082]	[IP:10.128.12.114]	[Browser:Chrome - 85.0.4183.121]	[Action:Filtering User : MasterData Username : 14/1082]	[Remarks:Successful filter row count: 1]
[Date: 2020-09-24 17:16:02]	[UserID:14/1082]	[IP:10.128.12.114]	[Browser:Chrome - 85.0.4183.121]	[Action:Making connection to server]	[Remarks:Successful connection to server: S3]
[Date: 2020-09-24 17:16:02]	[UserID:14/1082]	[IP:10.128.12.114]	[Browser:Chrome - 85.0.4183.121]	[Action:GetGSTModules 14/1082,1]	[Remarks:Successful filter row count: 8]
[Date: 2020-09-24 17:16:02]	[UserID:14/1082]	[IP:10.128.12.114]	[Browser:Chrome - 85.0.4183.121]	[Action:Closing mssql connection]	[Remarks:Success]
[Date: 2020-09-24 18:19:19]	[UserID:]	[IP:10.128.12.114]	[Browser:Chrome - 85.0.4183.121]	[Action:Making connection to server]	[Remarks:Successful connection to server: S3]
[Date: 2020-09-24 18:19:19]	[UserID:]	[IP:10.128.12.114]	[Browser:Chrome - 85.0.4183.121]	[Action:GetProgramList ]	[Remarks:"no data"]
[Date: 2020-09-24 23:13:51]	[UserID:]	[IP:10.128.130.5]	[Browser:Chrome - 85.0.4183.102]	[Action:Making connection to server]	[Remarks:Successful connection to server: S3]
[Date: 2020-09-24 23:13:51]	[UserID:]	[IP:10.128.130.5]	[Browser:Chrome - 85.0.4183.102]	[Action:GetProgramList ]	[Remarks:"no data"]
