[Date: 2020-01-22 08:12:17]	[UserID:]	[IP:10.128.12.113]	[Browser:Chrome - 79.0.3945.130]	[Action:Making connection to server]	[Remarks:Successful connection to server: S3]
[Date: 2020-01-22 08:12:17]	[UserID:]	[IP:10.128.12.113]	[Browser:Chrome - 79.0.3945.130]	[Action:GetProgramList ]	[Remarks:"no data"]
[Date: 2020-01-22 08:12:31]	[UserID:06/343]	[IP:10.128.12.113]	[Browser:Chrome - 79.0.3945.130]	[Action:Making connection to server]	[Remarks:Successful connection to server: S3]
[Date: 2020-01-22 08:12:31]	[UserID:06/343]	[IP:10.128.12.113]	[Browser:Chrome - 79.0.3945.130]	[Action:LogMeIn 06/343,plant@2020]	[Remarks:Failed]
[Date: 2020-01-22 08:12:31]	[UserID:06/343]	[IP:10.128.12.113]	[Browser:Chrome - 79.0.3945.130]	[Action:Closing mssql connection]	[Remarks:Success]
[Date: 2020-01-22 08:12:43]	[UserID:06/343]	[IP:10.128.12.113]	[Browser:Chrome - 79.0.3945.130]	[Action:Making connection to server]	[Remarks:Successful connection to server: S3]
[Date: 2020-01-22 08:12:43]	[UserID:06/343]	[IP:10.128.12.113]	[Browser:Chrome - 79.0.3945.130]	[Action:User 06/343]	[Remarks:Success]
[Date: 2020-01-22 08:12:43]	[UserID:06/343]	[IP:10.128.12.113]	[Browser:Chrome - 79.0.3945.130]	[Action:Filtering User : MasterData Username : 06/343]	[Remarks:Successful filter row count: 0]
[Date: 2020-01-22 08:12:43]	[UserID:06/343]	[IP:10.128.12.113]	[Browser:Chrome - 79.0.3945.130]	[Action:Filtering User : MasterData Username : 06/343]	[Remarks:Successful filter row count: 0]
[Date: 2020-01-22 08:12:43]	[UserID:06/343]	[IP:10.128.12.113]	[Browser:Chrome - 79.0.3945.130]	[Action:Filtering User : MasterData Username : 06/343]	[Remarks:Success]
[Date: 2020-01-22 08:12:43]	[UserID:06/343]	[IP:10.128.12.113]	[Browser:Chrome - 79.0.3945.130]	[Action:Closing mssql connection]	[Remarks:Success]
[Date: 2020-01-22 08:12:43]	[UserID:]	[IP:10.128.12.113]	[Browser:Chrome - 79.0.3945.130]	[Action:Making connection to server]	[Remarks:Successful connection to server: S3]
[Date: 2020-01-22 08:12:43]	[UserID:]	[IP:10.128.12.113]	[Browser:Chrome - 79.0.3945.130]	[Action:GetProgramList ]	[Remarks:"no data"]
[Date: 2020-01-22 08:12:53]	[UserID:06/343]	[IP:10.128.12.113]	[Browser:Chrome - 79.0.3945.130]	[Action:Making connection to server]	[Remarks:Successful connection to server: S3]
[Date: 2020-01-22 08:12:53]	[UserID:06/343]	[IP:10.128.12.113]	[Browser:Chrome - 79.0.3945.130]	[Action:User 06/343]	[Remarks:Success]
[Date: 2020-01-22 08:12:53]	[UserID:06/343]	[IP:10.128.12.113]	[Browser:Chrome - 79.0.3945.130]	[Action:Filtering User : MasterData Username : 06/343]	[Remarks:Successful filter row count: 0]
[Date: 2020-01-22 08:12:53]	[UserID:06/343]	[IP:10.128.12.113]	[Browser:Chrome - 79.0.3945.130]	[Action:Filtering User : MasterData Username : 06/343]	[Remarks:Successful filter row count: 0]
[Date: 2020-01-22 08:12:53]	[UserID:06/343]	[IP:10.128.12.113]	[Browser:Chrome - 79.0.3945.130]	[Action:Filtering User : MasterData Username : 06/343]	[Remarks:Success]
[Date: 2020-01-22 08:12:53]	[UserID:06/343]	[IP:10.128.12.113]	[Browser:Chrome - 79.0.3945.130]	[Action:Closing mssql connection]	[Remarks:Success]
[Date: 2020-01-22 08:12:53]	[UserID:06/343]	[IP:10.128.12.113]	[Browser:Chrome - 79.0.3945.130]	[Action:Making connection to server]	[Remarks:Successful connection to server: S3]
[Date: 2020-01-22 08:12:53]	[UserID:06/343]	[IP:10.128.12.113]	[Browser:Chrome - 79.0.3945.130]	[Action:GetProgramList 06/343]	[Remarks:[{"ID":"1","ProgramIndex":"GST","ProgramName":"GST"}]]
[Date: 2020-01-22 08:12:53]	[UserID:06/343]	[IP:10.128.12.113]	[Browser:Chrome - 79.0.3945.130]	[Action:Making connection to server]	[Remarks:Successful connection to server: S3]
[Date: 2020-01-22 08:12:53]	[UserID:06/343]	[IP:10.128.12.113]	[Browser:Chrome - 79.0.3945.130]	[Action:GetProgramList 06/343]	[Remarks:[{"ID":"1","ProgramIndex":"GST","ProgramName":"GST"}]]
[Date: 2020-01-22 08:12:53]	[UserID:06/343]	[IP:10.128.12.113]	[Browser:Chrome - 79.0.3945.130]	[Action:Making connection to server]	[Remarks:Successful connection to server: S3]
[Date: 2020-01-22 08:12:53]	[UserID:06/343]	[IP:10.128.12.113]	[Browser:Chrome - 79.0.3945.130]	[Action:Filtering User : MasterData Username : 06/343]	[Remarks:Successful filter row count: 1]
[Date: 2020-01-22 08:12:53]	[UserID:06/343]	[IP:10.128.12.113]	[Browser:Chrome - 79.0.3945.130]	[Action:Making connection to server]	[Remarks:Successful connection to server: S3]
[Date: 2020-01-22 08:12:53]	[UserID:06/343]	[IP:10.128.12.113]	[Browser:Chrome - 79.0.3945.130]	[Action:GetGSTModules 06/343,1]	[Remarks:Successful filter row count: 7]
[Date: 2020-01-22 08:12:53]	[UserID:06/343]	[IP:10.128.12.113]	[Browser:Chrome - 79.0.3945.130]	[Action:Closing mssql connection]	[Remarks:Success]
[Date: 2020-01-22 08:17:12]	[UserID:]	[IP:10.130.25.209]	[Browser:Chrome - 79.0.3945.130]	[Action:Making connection to server]	[Remarks:Successful connection to server: S3]
[Date: 2020-01-22 08:17:13]	[UserID:]	[IP:10.130.25.209]	[Browser:Chrome - 79.0.3945.130]	[Action:GetProgramList ]	[Remarks:"no data"]
[Date: 2020-01-22 08:17:21]	[UserID:]	[IP:10.130.25.209]	[Browser:Chrome - 79.0.3945.130]	[Action:Making connection to server]	[Remarks:Successful connection to server: S3]
[Date: 2020-01-22 08:17:21]	[UserID:]	[IP:10.130.25.209]	[Browser:Chrome - 79.0.3945.130]	[Action:GetProgramList ]	[Remarks:"no data"]
[Date: 2020-01-22 08:21:08]	[UserID:06/343]	[IP:10.128.12.113]	[Browser:Chrome - 79.0.3945.130]	[Action:Making connection to server]	[Remarks:Successful connection to server: S3]
[Date: 2020-01-22 08:21:08]	[UserID:06/343]	[IP:10.128.12.113]	[Browser:Chrome - 79.0.3945.130]	[Action:GetGSTModules 06/343,1]	[Remarks:Successful filter row count: 7]
[Date: 2020-01-22 08:21:08]	[UserID:06/343]	[IP:10.128.12.113]	[Browser:Chrome - 79.0.3945.130]	[Action:Closing mssql connection]	[Remarks:Success]
[Date: 2020-01-22 08:22:16]	[UserID:06/343]	[IP:10.128.12.113]	[Browser:Chrome - 79.0.3945.130]	[Action:Making connection to server]	[Remarks:Successful connection to server: S3]
[Date: 2020-01-22 08:22:16]	[UserID:06/343]	[IP:10.128.12.113]	[Browser:Chrome - 79.0.3945.130]	[Action:GetGSTModules 06/343,1]	[Remarks:Successful filter row count: 7]
[Date: 2020-01-22 08:22:16]	[UserID:06/343]	[IP:10.128.12.113]	[Browser:Chrome - 79.0.3945.130]	[Action:Closing mssql connection]	[Remarks:Success]
[Date: 2020-01-22 15:12:35]	[UserID:]	[IP:10.128.12.113]	[Browser:Chrome - 79.0.3945.130]	[Action:Making connection to server]	[Remarks:Successful connection to server: S3]
[Date: 2020-01-22 15:12:35]	[UserID:]	[IP:10.128.12.113]	[Browser:Chrome - 79.0.3945.130]	[Action:GetProgramList ]	[Remarks:"no data"]
[Date: 2020-01-22 15:12:42]	[UserID:06/343]	[IP:10.128.12.113]	[Browser:Chrome - 79.0.3945.130]	[Action:Making connection to server]	[Remarks:Successful connection to server: S3]
[Date: 2020-01-22 15:12:42]	[UserID:06/343]	[IP:10.128.12.113]	[Browser:Chrome - 79.0.3945.130]	[Action:User 06/343]	[Remarks:Success]
[Date: 2020-01-22 15:12:42]	[UserID:06/343]	[IP:10.128.12.113]	[Browser:Chrome - 79.0.3945.130]	[Action:Filtering User : MasterData Username : 06/343]	[Remarks:Successful filter row count: 0]
[Date: 2020-01-22 15:12:42]	[UserID:06/343]	[IP:10.128.12.113]	[Browser:Chrome - 79.0.3945.130]	[Action:Filtering User : MasterData Username : 06/343]	[Remarks:Successful filter row count: 0]
[Date: 2020-01-22 15:12:42]	[UserID:06/343]	[IP:10.128.12.113]	[Browser:Chrome - 79.0.3945.130]	[Action:Filtering User : MasterData Username : 06/343]	[Remarks:Success]
[Date: 2020-01-22 15:12:42]	[UserID:06/343]	[IP:10.128.12.113]	[Browser:Chrome - 79.0.3945.130]	[Action:Closing mssql connection]	[Remarks:Success]
[Date: 2020-01-22 15:12:42]	[UserID:06/343]	[IP:10.128.12.113]	[Browser:Chrome - 79.0.3945.130]	[Action:Making connection to server]	[Remarks:Successful connection to server: S3]
[Date: 2020-01-22 15:12:42]	[UserID:06/343]	[IP:10.128.12.113]	[Browser:Chrome - 79.0.3945.130]	[Action:GetProgramList 06/343]	[Remarks:[{"ID":"1","ProgramIndex":"GST","ProgramName":"GST"}]]
[Date: 2020-01-22 15:12:42]	[UserID:06/343]	[IP:10.128.12.113]	[Browser:Chrome - 79.0.3945.130]	[Action:Making connection to server]	[Remarks:Successful connection to server: S3]
[Date: 2020-01-22 15:12:42]	[UserID:06/343]	[IP:10.128.12.113]	[Browser:Chrome - 79.0.3945.130]	[Action:GetProgramList 06/343]	[Remarks:[{"ID":"1","ProgramIndex":"GST","ProgramName":"GST"}]]
[Date: 2020-01-22 15:12:42]	[UserID:06/343]	[IP:10.128.12.113]	[Browser:Chrome - 79.0.3945.130]	[Action:Making connection to server]	[Remarks:Successful connection to server: S3]
[Date: 2020-01-22 15:12:42]	[UserID:06/343]	[IP:10.128.12.113]	[Browser:Chrome - 79.0.3945.130]	[Action:Filtering User : MasterData Username : 06/343]	[Remarks:Successful filter row count: 1]
[Date: 2020-01-22 15:12:42]	[UserID:06/343]	[IP:10.128.12.113]	[Browser:Chrome - 79.0.3945.130]	[Action:Making connection to server]	[Remarks:Successful connection to server: S3]
[Date: 2020-01-22 15:12:42]	[UserID:06/343]	[IP:10.128.12.113]	[Browser:Chrome - 79.0.3945.130]	[Action:GetGSTModules 06/343,1]	[Remarks:Successful filter row count: 7]
[Date: 2020-01-22 15:12:42]	[UserID:06/343]	[IP:10.128.12.113]	[Browser:Chrome - 79.0.3945.130]	[Action:Closing mssql connection]	[Remarks:Success]
[Date: 2020-01-22 15:14:44]	[UserID:06/343]	[IP:10.128.12.113]	[Browser:Chrome - 79.0.3945.130]	[Action:Making connection to server]	[Remarks:Successful connection to server: S3]
[Date: 2020-01-22 15:14:44]	[UserID:06/343]	[IP:10.128.12.113]	[Browser:Chrome - 79.0.3945.130]	[Action:GetGSTModules 06/343,1]	[Remarks:Successful filter row count: 7]
[Date: 2020-01-22 15:14:44]	[UserID:06/343]	[IP:10.128.12.113]	[Browser:Chrome - 79.0.3945.130]	[Action:Closing mssql connection]	[Remarks:Success]
[Date: 2020-01-22 15:14:59]	[UserID:06/343]	[IP:10.128.12.113]	[Browser:Chrome - 79.0.3945.130]	[Action:Making connection to server]	[Remarks:Successful connection to server: S3]
[Date: 2020-01-22 15:14:59]	[UserID:06/343]	[IP:10.128.12.113]	[Browser:Chrome - 79.0.3945.130]	[Action:GetGSTModules 06/343,1]	[Remarks:Successful filter row count: 7]
[Date: 2020-01-22 15:14:59]	[UserID:06/343]	[IP:10.128.12.113]	[Browser:Chrome - 79.0.3945.130]	[Action:Closing mssql connection]	[Remarks:Success]
[Date: 2020-01-22 15:17:32]	[UserID:06/343]	[IP:10.128.12.113]	[Browser:Chrome - 79.0.3945.130]	[Action:Making connection to server]	[Remarks:Successful connection to server: S3]
[Date: 2020-01-22 15:17:32]	[UserID:06/343]	[IP:10.128.12.113]	[Browser:Chrome - 79.0.3945.130]	[Action:GetGSTModules 06/343,1]	[Remarks:Successful filter row count: 7]
[Date: 2020-01-22 15:17:32]	[UserID:06/343]	[IP:10.128.12.113]	[Browser:Chrome - 79.0.3945.130]	[Action:Closing mssql connection]	[Remarks:Success]
[Date: 2020-01-22 15:23:37]	[UserID:06/343]	[IP:10.128.12.113]	[Browser:Chrome - 79.0.3945.130]	[Action:Making connection to server]	[Remarks:Successful connection to server: S3]
[Date: 2020-01-22 15:23:37]	[UserID:06/343]	[IP:10.128.12.113]	[Browser:Chrome - 79.0.3945.130]	[Action:GetGSTModules 06/343,1]	[Remarks:Successful filter row count: 7]
[Date: 2020-01-22 15:23:37]	[UserID:06/343]	[IP:10.128.12.113]	[Browser:Chrome - 79.0.3945.130]	[Action:Closing mssql connection]	[Remarks:Success]
[Date: 2020-01-22 15:25:13]	[UserID:06/343]	[IP:10.128.12.113]	[Browser:Chrome - 79.0.3945.130]	[Action:Making connection to server]	[Remarks:Successful connection to server: S3]
[Date: 2020-01-22 15:25:13]	[UserID:06/343]	[IP:10.128.12.113]	[Browser:Chrome - 79.0.3945.130]	[Action:GetGSTModules 06/343,1]	[Remarks:Successful filter row count: 7]
[Date: 2020-01-22 15:25:13]	[UserID:06/343]	[IP:10.128.12.113]	[Browser:Chrome - 79.0.3945.130]	[Action:Closing mssql connection]	[Remarks:Success]
[Date: 2020-01-22 23:06:42]	[UserID:]	[IP:10.130.25.202]	[Browser:Firefox - 60.0]	[Action:Making connection to server]	[Remarks:Successful connection to server: S3]
[Date: 2020-01-22 23:06:42]	[UserID:]	[IP:10.130.25.202]	[Browser:Firefox - 60.0]	[Action:GetProgramList ]	[Remarks:"no data"]
