[Date: 2018-04-27 10:06:04]	[UserID:]	[IP:10.128.12.113]	[Browser:Chrome - 65.0.3325.181]	[Action:Making connection to server]	[Remarks:Successful connection to server: S3]
[Date: 2018-04-27 10:06:04]	[UserID:]	[IP:10.128.12.113]	[Browser:Chrome - 65.0.3325.181]	[Action:GetProgramList ]	[Remarks:"no data"]
[Date: 2018-04-27 10:06:06]	[UserID:06/343]	[IP:10.128.12.113]	[Browser:Chrome - 65.0.3325.181]	[Action:Making connection to server]	[Remarks:Successful connection to server: S3]
[Date: 2018-04-27 10:06:06]	[UserID:06/343]	[IP:10.128.12.113]	[Browser:Chrome - 65.0.3325.181]	[Action:User 06/343]	[Remarks:Success]
[Date: 2018-04-27 10:06:06]	[UserID:06/343]	[IP:10.128.12.113]	[Browser:Chrome - 65.0.3325.181]	[Action:Filtering User : MasterData Username : 06/343]	[Remarks:Successful filter row count: 0]
[Date: 2018-04-27 10:06:06]	[UserID:06/343]	[IP:10.128.12.113]	[Browser:Chrome - 65.0.3325.181]	[Action:Filtering User : MasterData Username : 06/343]	[Remarks:Successful filter row count: 0]
[Date: 2018-04-27 10:06:06]	[UserID:06/343]	[IP:10.128.12.113]	[Browser:Chrome - 65.0.3325.181]	[Action:Filtering User : MasterData Username : 06/343]	[Remarks:Success]
[Date: 2018-04-27 10:06:06]	[UserID:06/343]	[IP:10.128.12.113]	[Browser:Chrome - 65.0.3325.181]	[Action:Closing mssql connection]	[Remarks:Success]
[Date: 2018-04-27 10:06:06]	[UserID:06/343]	[IP:10.128.12.113]	[Browser:Chrome - 65.0.3325.181]	[Action:Making connection to server]	[Remarks:Successful connection to server: S3]
[Date: 2018-04-27 10:06:06]	[UserID:06/343]	[IP:10.128.12.113]	[Browser:Chrome - 65.0.3325.181]	[Action:GetProgramList 06/343]	[Remarks:[{"ID":"1","ProgramIndex":"GST","ProgramName":"GST"}]]
[Date: 2018-04-27 10:06:06]	[UserID:06/343]	[IP:10.128.12.113]	[Browser:Chrome - 65.0.3325.181]	[Action:Making connection to server]	[Remarks:Successful connection to server: S3]
[Date: 2018-04-27 10:06:06]	[UserID:06/343]	[IP:10.128.12.113]	[Browser:Chrome - 65.0.3325.181]	[Action:GetProgramList 06/343]	[Remarks:[{"ID":"1","ProgramIndex":"GST","ProgramName":"GST"}]]
[Date: 2018-04-27 10:06:06]	[UserID:06/343]	[IP:10.128.12.113]	[Browser:Chrome - 65.0.3325.181]	[Action:Making connection to server]	[Remarks:Successful connection to server: S3]
[Date: 2018-04-27 10:06:06]	[UserID:06/343]	[IP:10.128.12.113]	[Browser:Chrome - 65.0.3325.181]	[Action:Filtering User : MasterData Username : 06/343]	[Remarks:Successful filter row count: 1]
[Date: 2018-04-27 10:06:07]	[UserID:06/343]	[IP:10.128.12.113]	[Browser:Chrome - 65.0.3325.181]	[Action:Making connection to server]	[Remarks:Successful connection to server: S3]
[Date: 2018-04-27 10:06:07]	[UserID:06/343]	[IP:10.128.12.113]	[Browser:Chrome - 65.0.3325.181]	[Action:GetGSTModules 06/343,1]	[Remarks:Successful filter row count: 5]
[Date: 2018-04-27 10:06:07]	[UserID:06/343]	[IP:10.128.12.113]	[Browser:Chrome - 65.0.3325.181]	[Action:Closing mssql connection]	[Remarks:Success]
[Date: 2018-04-27 10:10:07]	[UserID:06/343]	[IP:10.128.12.113]	[Browser:Chrome - 65.0.3325.181]	[Action:Making connection to server]	[Remarks:Successful connection to server: S3]
[Date: 2018-04-27 10:10:07]	[UserID:06/343]	[IP:10.128.12.113]	[Browser:Chrome - 65.0.3325.181]	[Action:GetGSTModules 06/343,1]	[Remarks:Successful filter row count: 5]
[Date: 2018-04-27 10:10:07]	[UserID:06/343]	[IP:10.128.12.113]	[Browser:Chrome - 65.0.3325.181]	[Action:Closing mssql connection]	[Remarks:Success]
[Date: 2018-04-27 10:10:17]	[UserID:06/343]	[IP:10.128.12.113]	[Browser:Chrome - 65.0.3325.181]	[Action:Making connection to server]	[Remarks:Successful connection to server: S3]
[Date: 2018-04-27 10:10:17]	[UserID:06/343]	[IP:10.128.12.113]	[Browser:Chrome - 65.0.3325.181]	[Action:GetGSTModules 06/343,1]	[Remarks:Successful filter row count: 5]
[Date: 2018-04-27 10:10:17]	[UserID:06/343]	[IP:10.128.12.113]	[Browser:Chrome - 65.0.3325.181]	[Action:Closing mssql connection]	[Remarks:Success]
[Date: 2018-04-27 10:24:45]	[UserID:06/343]	[IP:10.128.12.113]	[Browser:Chrome - 65.0.3325.181]	[Action:Making connection to server]	[Remarks:Successful connection to server: S3]
[Date: 2018-04-27 10:24:45]	[UserID:06/343]	[IP:10.128.12.113]	[Browser:Chrome - 65.0.3325.181]	[Action:GetGSTModules 06/343,1]	[Remarks:Successful filter row count: 5]
[Date: 2018-04-27 10:24:45]	[UserID:06/343]	[IP:10.128.12.113]	[Browser:Chrome - 65.0.3325.181]	[Action:Closing mssql connection]	[Remarks:Success]
[Date: 2018-04-27 10:25:30]	[UserID:06/343]	[IP:10.128.12.113]	[Browser:Chrome - 65.0.3325.181]	[Action:Making connection to server]	[Remarks:Successful connection to server: S3]
[Date: 2018-04-27 10:25:30]	[UserID:06/343]	[IP:10.128.12.113]	[Browser:Chrome - 65.0.3325.181]	[Action:GetGSTModules 06/343,1]	[Remarks:Successful filter row count: 5]
[Date: 2018-04-27 10:25:30]	[UserID:06/343]	[IP:10.128.12.113]	[Browser:Chrome - 65.0.3325.181]	[Action:Closing mssql connection]	[Remarks:Success]
[Date: 2018-04-27 10:28:04]	[UserID:06/343]	[IP:10.128.12.113]	[Browser:Chrome - 65.0.3325.181]	[Action:Making connection to server]	[Remarks:Successful connection to server: S3]
[Date: 2018-04-27 10:28:04]	[UserID:06/343]	[IP:10.128.12.113]	[Browser:Chrome - 65.0.3325.181]	[Action:GetGSTModules 06/343,1]	[Remarks:Successful filter row count: 5]
[Date: 2018-04-27 10:28:04]	[UserID:06/343]	[IP:10.128.12.113]	[Browser:Chrome - 65.0.3325.181]	[Action:Closing mssql connection]	[Remarks:Success]
[Date: 2018-04-27 19:48:07]	[UserID:]	[IP:10.128.12.210]	[Browser:Chrome - 65.0.3325.181]	[Action:Making connection to server]	[Remarks:Successful connection to server: S3]
[Date: 2018-04-27 19:48:08]	[UserID:]	[IP:10.128.12.210]	[Browser:Chrome - 65.0.3325.181]	[Action:GetProgramList ]	[Remarks:"no data"]
[Date: 2018-04-27 19:48:33]	[UserID:10/660]	[IP:10.128.12.210]	[Browser:Chrome - 65.0.3325.181]	[Action:Making connection to server]	[Remarks:Successful connection to server: S3]
[Date: 2018-04-27 19:48:33]	[UserID:10/660]	[IP:10.128.12.210]	[Browser:Chrome - 65.0.3325.181]	[Action:User 10/660]	[Remarks:Success]
[Date: 2018-04-27 19:48:33]	[UserID:10/660]	[IP:10.128.12.210]	[Browser:Chrome - 65.0.3325.181]	[Action:Filtering User : MasterData Username : 10/660]	[Remarks:Successful filter row count: 0]
[Date: 2018-04-27 19:48:33]	[UserID:10/660]	[IP:10.128.12.210]	[Browser:Chrome - 65.0.3325.181]	[Action:Filtering User : MasterData Username : 10/660]	[Remarks:Successful filter row count: 0]
[Date: 2018-04-27 19:48:33]	[UserID:10/660]	[IP:10.128.12.210]	[Browser:Chrome - 65.0.3325.181]	[Action:Filtering User : MasterData Username : 10/660]	[Remarks:Success]
[Date: 2018-04-27 19:48:33]	[UserID:10/660]	[IP:10.128.12.210]	[Browser:Chrome - 65.0.3325.181]	[Action:Closing mssql connection]	[Remarks:Success]
[Date: 2018-04-27 19:48:35]	[UserID:10/660]	[IP:10.128.12.210]	[Browser:Chrome - 65.0.3325.181]	[Action:Making connection to server]	[Remarks:Successful connection to server: S3]
[Date: 2018-04-27 19:48:35]	[UserID:10/660]	[IP:10.128.12.210]	[Browser:Chrome - 65.0.3325.181]	[Action:GetProgramList 10/660]	[Remarks:[{"ID":"1","ProgramIndex":"GST","ProgramName":"GST"}]]
[Date: 2018-04-27 19:48:35]	[UserID:10/660]	[IP:10.128.12.210]	[Browser:Chrome - 65.0.3325.181]	[Action:Making connection to server]	[Remarks:Successful connection to server: S3]
[Date: 2018-04-27 19:48:35]	[UserID:10/660]	[IP:10.128.12.210]	[Browser:Chrome - 65.0.3325.181]	[Action:GetProgramList 10/660]	[Remarks:[{"ID":"1","ProgramIndex":"GST","ProgramName":"GST"}]]
[Date: 2018-04-27 19:48:35]	[UserID:10/660]	[IP:10.128.12.210]	[Browser:Chrome - 65.0.3325.181]	[Action:Making connection to server]	[Remarks:Successful connection to server: S3]
[Date: 2018-04-27 19:48:35]	[UserID:10/660]	[IP:10.128.12.210]	[Browser:Chrome - 65.0.3325.181]	[Action:Filtering User : MasterData Username : 10/660]	[Remarks:Successful filter row count: 1]
[Date: 2018-04-27 19:48:35]	[UserID:10/660]	[IP:10.128.12.210]	[Browser:Chrome - 65.0.3325.181]	[Action:Making connection to server]	[Remarks:Successful connection to server: S3]
[Date: 2018-04-27 19:48:35]	[UserID:10/660]	[IP:10.128.12.210]	[Browser:Chrome - 65.0.3325.181]	[Action:GetGSTModules 10/660,1]	[Remarks:Successful filter row count: 5]
[Date: 2018-04-27 19:48:35]	[UserID:10/660]	[IP:10.128.12.210]	[Browser:Chrome - 65.0.3325.181]	[Action:Closing mssql connection]	[Remarks:Success]
[Date: 2018-04-27 19:58:47]	[UserID:10/660]	[IP:10.128.12.210]	[Browser:Chrome - 65.0.3325.181]	[Action:Making connection to server]	[Remarks:Successful connection to server: S3]
[Date: 2018-04-27 19:58:47]	[UserID:10/660]	[IP:10.128.12.210]	[Browser:Chrome - 65.0.3325.181]	[Action:GetGSTModules 10/660,1]	[Remarks:Successful filter row count: 5]
[Date: 2018-04-27 19:58:47]	[UserID:10/660]	[IP:10.128.12.210]	[Browser:Chrome - 65.0.3325.181]	[Action:Closing mssql connection]	[Remarks:Success]
