[Date: 2018-10-20 07:41:51]	[UserID:]	[IP:10.128.12.210]	[Browser:Chrome - 69.0.3497.100]	[Action:Making connection to server]	[Remarks:Successful connection to server: S3]
[Date: 2018-10-20 07:41:51]	[UserID:]	[IP:10.128.12.210]	[Browser:Chrome - 69.0.3497.100]	[Action:GetProgramList ]	[Remarks:"no data"]
[Date: 2018-10-20 07:42:08]	[UserID:10/660]	[IP:10.128.12.210]	[Browser:Chrome - 69.0.3497.100]	[Action:Making connection to server]	[Remarks:Successful connection to server: S3]
[Date: 2018-10-20 07:42:08]	[UserID:10/660]	[IP:10.128.12.210]	[Browser:Chrome - 69.0.3497.100]	[Action:User 10/660]	[Remarks:Success]
[Date: 2018-10-20 07:42:08]	[UserID:10/660]	[IP:10.128.12.210]	[Browser:Chrome - 69.0.3497.100]	[Action:Filtering User : MasterData Username : 10/660]	[Remarks:Successful filter row count: 0]
[Date: 2018-10-20 07:42:08]	[UserID:10/660]	[IP:10.128.12.210]	[Browser:Chrome - 69.0.3497.100]	[Action:Filtering User : MasterData Username : 10/660]	[Remarks:Successful filter row count: 0]
[Date: 2018-10-20 07:42:08]	[UserID:10/660]	[IP:10.128.12.210]	[Browser:Chrome - 69.0.3497.100]	[Action:Filtering User : MasterData Username : 10/660]	[Remarks:Success]
[Date: 2018-10-20 07:42:08]	[UserID:10/660]	[IP:10.128.12.210]	[Browser:Chrome - 69.0.3497.100]	[Action:Closing mssql connection]	[Remarks:Success]
[Date: 2018-10-20 07:42:08]	[UserID:10/660]	[IP:10.128.12.210]	[Browser:Chrome - 69.0.3497.100]	[Action:Making connection to server]	[Remarks:Successful connection to server: S3]
[Date: 2018-10-20 07:42:09]	[UserID:10/660]	[IP:10.128.12.210]	[Browser:Chrome - 69.0.3497.100]	[Action:GetProgramList 10/660]	[Remarks:[{"ID":"1","ProgramIndex":"GST","ProgramName":"GST"}]]
[Date: 2018-10-20 07:42:09]	[UserID:10/660]	[IP:10.128.12.210]	[Browser:Chrome - 69.0.3497.100]	[Action:Making connection to server]	[Remarks:Successful connection to server: S3]
[Date: 2018-10-20 07:42:09]	[UserID:10/660]	[IP:10.128.12.210]	[Browser:Chrome - 69.0.3497.100]	[Action:GetProgramList 10/660]	[Remarks:[{"ID":"1","ProgramIndex":"GST","ProgramName":"GST"}]]
[Date: 2018-10-20 07:42:09]	[UserID:10/660]	[IP:10.128.12.210]	[Browser:Chrome - 69.0.3497.100]	[Action:Making connection to server]	[Remarks:Successful connection to server: S3]
[Date: 2018-10-20 07:42:09]	[UserID:10/660]	[IP:10.128.12.210]	[Browser:Chrome - 69.0.3497.100]	[Action:Filtering User : MasterData Username : 10/660]	[Remarks:Successful filter row count: 1]
[Date: 2018-10-20 07:42:09]	[UserID:10/660]	[IP:10.128.12.210]	[Browser:Chrome - 69.0.3497.100]	[Action:Making connection to server]	[Remarks:Successful connection to server: S3]
[Date: 2018-10-20 07:42:09]	[UserID:10/660]	[IP:10.128.12.210]	[Browser:Chrome - 69.0.3497.100]	[Action:GetGSTModules 10/660,1]	[Remarks:Successful filter row count: 5]
[Date: 2018-10-20 07:42:09]	[UserID:10/660]	[IP:10.128.12.210]	[Browser:Chrome - 69.0.3497.100]	[Action:Closing mssql connection]	[Remarks:Success]
[Date: 2018-10-20 07:44:34]	[UserID:10/660]	[IP:10.128.12.210]	[Browser:Chrome - 69.0.3497.100]	[Action:Making connection to server]	[Remarks:Successful connection to server: S3]
[Date: 2018-10-20 07:44:34]	[UserID:10/660]	[IP:10.128.12.210]	[Browser:Chrome - 69.0.3497.100]	[Action:GetGSTModules 10/660,1]	[Remarks:Successful filter row count: 5]
[Date: 2018-10-20 07:44:34]	[UserID:10/660]	[IP:10.128.12.210]	[Browser:Chrome - 69.0.3497.100]	[Action:Closing mssql connection]	[Remarks:Success]
[Date: 2018-10-20 07:52:18]	[UserID:10/660]	[IP:10.128.12.210]	[Browser:Chrome - 69.0.3497.100]	[Action:Making connection to server]	[Remarks:Successful connection to server: S3]
[Date: 2018-10-20 07:52:18]	[UserID:10/660]	[IP:10.128.12.210]	[Browser:Chrome - 69.0.3497.100]	[Action:GetGSTModules 10/660,1]	[Remarks:Successful filter row count: 5]
[Date: 2018-10-20 07:52:18]	[UserID:10/660]	[IP:10.128.12.210]	[Browser:Chrome - 69.0.3497.100]	[Action:Closing mssql connection]	[Remarks:Success]
