[Date: 2016-09-15 07:37:16]	[UserID:]	[IP:10.10.11.1]	[Browser:Chrome - 52.0.2743.116]	[Action:Making connection to server]	[Remarks:Successful connection to server: S3]
[Date: 2016-09-15 07:37:17]	[UserID:]	[IP:10.10.11.1]	[Browser:Chrome - 52.0.2743.116]	[Action:GetProgramList ]	[Remarks:"no data"]
[Date: 2016-09-15 08:00:24]	[UserID:06/343]	[IP:10.10.11.1]	[Browser:Chrome - 52.0.2743.116]	[Action:Making connection to server]	[Remarks:Successful connection to server: S3]
[Date: 2016-09-15 08:00:24]	[UserID:06/343]	[IP:10.10.11.1]	[Browser:Chrome - 52.0.2743.116]	[Action:User 06/343]	[Remarks:Success]
[Date: 2016-09-15 08:00:24]	[UserID:06/343]	[IP:10.10.11.1]	[Browser:Chrome - 52.0.2743.116]	[Action:Filtering User : MasterData Username : 06/343]	[Remarks:Successful filter row count: 0]
[Date: 2016-09-15 08:00:24]	[UserID:06/343]	[IP:10.10.11.1]	[Browser:Chrome - 52.0.2743.116]	[Action:Filtering User : MasterData Username : 06/343]	[Remarks:Successful filter row count: 0]
[Date: 2016-09-15 08:00:24]	[UserID:06/343]	[IP:10.10.11.1]	[Browser:Chrome - 52.0.2743.116]	[Action:Filtering User : MasterData Username : 06/343]	[Remarks:Success]
[Date: 2016-09-15 08:00:24]	[UserID:06/343]	[IP:10.10.11.1]	[Browser:Chrome - 52.0.2743.116]	[Action:Closing mssql connection]	[Remarks:Success]
[Date: 2016-09-15 08:00:24]	[UserID:06/343]	[IP:10.10.11.1]	[Browser:Chrome - 52.0.2743.116]	[Action:Making connection to server]	[Remarks:Successful connection to server: S3]
[Date: 2016-09-15 08:00:25]	[UserID:06/343]	[IP:10.10.11.1]	[Browser:Chrome - 52.0.2743.116]	[Action:GetProgramList 06/343]	[Remarks:[{"ID":"1","ProgramIndex":"GST","ProgramName":"GST"}]]
[Date: 2016-09-15 08:00:25]	[UserID:06/343]	[IP:10.10.11.1]	[Browser:Chrome - 52.0.2743.116]	[Action:Making connection to server]	[Remarks:Successful connection to server: S3]
[Date: 2016-09-15 08:00:25]	[UserID:06/343]	[IP:10.10.11.1]	[Browser:Chrome - 52.0.2743.116]	[Action:GetProgramList 06/343]	[Remarks:[{"ID":"1","ProgramIndex":"GST","ProgramName":"GST"}]]
[Date: 2016-09-15 08:00:25]	[UserID:06/343]	[IP:10.10.11.1]	[Browser:Chrome - 52.0.2743.116]	[Action:Making connection to server]	[Remarks:Successful connection to server: S3]
[Date: 2016-09-15 08:00:25]	[UserID:06/343]	[IP:10.10.11.1]	[Browser:Chrome - 52.0.2743.116]	[Action:Filtering User : MasterData Username : 06/343]	[Remarks:Successful filter row count: 1]
[Date: 2016-09-15 08:00:26]	[UserID:06/343]	[IP:10.10.11.1]	[Browser:Chrome - 52.0.2743.116]	[Action:Making connection to server]	[Remarks:Successful connection to server: S3]
[Date: 2016-09-15 08:00:26]	[UserID:06/343]	[IP:10.10.11.1]	[Browser:Chrome - 52.0.2743.116]	[Action:GetGSTModules 06/343,1]	[Remarks:Successful filter row count: 5]
[Date: 2016-09-15 08:00:26]	[UserID:06/343]	[IP:10.10.11.1]	[Browser:Chrome - 52.0.2743.116]	[Action:Closing mssql connection]	[Remarks:Success]
[Date: 2016-09-15 08:08:20]	[UserID:06/343]	[IP:10.10.11.1]	[Browser:Chrome - 52.0.2743.116]	[Action:Making connection to server]	[Remarks:Successful connection to server: S3]
[Date: 2016-09-15 08:08:21]	[UserID:06/343]	[IP:10.10.11.1]	[Browser:Chrome - 52.0.2743.116]	[Action:GetGSTModules 06/343,1]	[Remarks:Successful filter row count: 5]
[Date: 2016-09-15 08:08:21]	[UserID:06/343]	[IP:10.10.11.1]	[Browser:Chrome - 52.0.2743.116]	[Action:Closing mssql connection]	[Remarks:Success]
[Date: 2016-09-15 08:22:50]	[UserID:]	[IP:10.10.11.1]	[Browser:Chrome - 52.0.2743.116]	[Action:Making connection to server]	[Remarks:Successful connection to server: S3]
[Date: 2016-09-15 08:22:50]	[UserID:]	[IP:10.10.11.1]	[Browser:Chrome - 52.0.2743.116]	[Action:GetProgramList ]	[Remarks:"no data"]
[Date: 2016-09-15 08:22:52]	[UserID:11/715]	[IP:10.10.11.1]	[Browser:Chrome - 52.0.2743.116]	[Action:Making connection to server]	[Remarks:Successful connection to server: S3]
[Date: 2016-09-15 08:22:53]	[UserID:11/715]	[IP:10.10.11.1]	[Browser:Chrome - 52.0.2743.116]	[Action:User 11/715]	[Remarks:Success]
[Date: 2016-09-15 08:22:53]	[UserID:11/715]	[IP:10.10.11.1]	[Browser:Chrome - 52.0.2743.116]	[Action:Filtering User : MasterData Username : 11/715]	[Remarks:Successful filter row count: 0]
[Date: 2016-09-15 08:22:53]	[UserID:11/715]	[IP:10.10.11.1]	[Browser:Chrome - 52.0.2743.116]	[Action:Filtering User : MasterData Username : 11/715]	[Remarks:Successful filter row count: 0]
[Date: 2016-09-15 08:22:53]	[UserID:11/715]	[IP:10.10.11.1]	[Browser:Chrome - 52.0.2743.116]	[Action:Filtering User : MasterData Username : 11/715]	[Remarks:Success]
[Date: 2016-09-15 08:22:53]	[UserID:11/715]	[IP:10.10.11.1]	[Browser:Chrome - 52.0.2743.116]	[Action:Closing mssql connection]	[Remarks:Success]
[Date: 2016-09-15 08:22:53]	[UserID:11/715]	[IP:10.10.11.1]	[Browser:Chrome - 52.0.2743.116]	[Action:Making connection to server]	[Remarks:Successful connection to server: S3]
[Date: 2016-09-15 08:22:53]	[UserID:11/715]	[IP:10.10.11.1]	[Browser:Chrome - 52.0.2743.116]	[Action:GetProgramList 11/715]	[Remarks:[{"ID":"1","ProgramIndex":"GST","ProgramName":"GST"}]]
[Date: 2016-09-15 08:22:53]	[UserID:11/715]	[IP:10.10.11.1]	[Browser:Chrome - 52.0.2743.116]	[Action:Making connection to server]	[Remarks:Successful connection to server: S3]
[Date: 2016-09-15 08:22:53]	[UserID:11/715]	[IP:10.10.11.1]	[Browser:Chrome - 52.0.2743.116]	[Action:GetProgramList 11/715]	[Remarks:[{"ID":"1","ProgramIndex":"GST","ProgramName":"GST"}]]
[Date: 2016-09-15 08:22:53]	[UserID:11/715]	[IP:10.10.11.1]	[Browser:Chrome - 52.0.2743.116]	[Action:Making connection to server]	[Remarks:Successful connection to server: S3]
[Date: 2016-09-15 08:22:53]	[UserID:11/715]	[IP:10.10.11.1]	[Browser:Chrome - 52.0.2743.116]	[Action:Filtering User : MasterData Username : 11/715]	[Remarks:Successful filter row count: 1]
[Date: 2016-09-15 08:22:54]	[UserID:11/715]	[IP:10.10.11.1]	[Browser:Chrome - 52.0.2743.116]	[Action:Making connection to server]	[Remarks:Successful connection to server: S3]
[Date: 2016-09-15 08:22:54]	[UserID:11/715]	[IP:10.10.11.1]	[Browser:Chrome - 52.0.2743.116]	[Action:GetGSTModules 11/715,1]	[Remarks:Successful filter row count: 3]
[Date: 2016-09-15 08:22:54]	[UserID:11/715]	[IP:10.10.11.1]	[Browser:Chrome - 52.0.2743.116]	[Action:Closing mssql connection]	[Remarks:Success]
[Date: 2016-09-15 08:27:25]	[UserID:11/715]	[IP:10.10.11.1]	[Browser:Chrome - 52.0.2743.116]	[Action:Making connection to server]	[Remarks:Successful connection to server: S3]
[Date: 2016-09-15 08:27:25]	[UserID:11/715]	[IP:10.10.11.1]	[Browser:Chrome - 52.0.2743.116]	[Action:GetGSTModules 11/715,1]	[Remarks:Successful filter row count: 3]
[Date: 2016-09-15 08:27:25]	[UserID:11/715]	[IP:10.10.11.1]	[Browser:Chrome - 52.0.2743.116]	[Action:Closing mssql connection]	[Remarks:Success]
[Date: 2016-09-15 08:30:44]	[UserID:11/715]	[IP:10.10.11.1]	[Browser:Chrome - 52.0.2743.116]	[Action:Making connection to server]	[Remarks:Successful connection to server: S3]
[Date: 2016-09-15 08:30:44]	[UserID:11/715]	[IP:10.10.11.1]	[Browser:Chrome - 52.0.2743.116]	[Action:GetGSTModules 11/715,1]	[Remarks:Successful filter row count: 3]
[Date: 2016-09-15 08:30:44]	[UserID:11/715]	[IP:10.10.11.1]	[Browser:Chrome - 52.0.2743.116]	[Action:Closing mssql connection]	[Remarks:Success]
[Date: 2016-09-15 09:07:15]	[UserID:]	[IP:10.10.11.1]	[Browser:Chrome - 49.0.2623.75]	[Action:Making connection to server]	[Remarks:Successful connection to server: S3]
[Date: 2016-09-15 09:07:15]	[UserID:]	[IP:10.10.11.1]	[Browser:Chrome - 49.0.2623.75]	[Action:GetProgramList ]	[Remarks:"no data"]
[Date: 2016-09-15 10:35:15]	[UserID:06/343]	[IP:10.10.11.1]	[Browser:Chrome - 52.0.2743.116]	[Action:Making connection to server]	[Remarks:Successful connection to server: S3]
[Date: 2016-09-15 10:35:15]	[UserID:06/343]	[IP:10.10.11.1]	[Browser:Chrome - 52.0.2743.116]	[Action:GetGSTModules 06/343,1]	[Remarks:Successful filter row count: 5]
[Date: 2016-09-15 10:35:15]	[UserID:06/343]	[IP:10.10.11.1]	[Browser:Chrome - 52.0.2743.116]	[Action:Closing mssql connection]	[Remarks:Success]
[Date: 2016-09-15 10:42:40]	[UserID:06/343]	[IP:10.10.11.1]	[Browser:Chrome - 52.0.2743.116]	[Action:Making connection to server]	[Remarks:Successful connection to server: S3]
[Date: 2016-09-15 10:42:40]	[UserID:06/343]	[IP:10.10.11.1]	[Browser:Chrome - 52.0.2743.116]	[Action:GetGSTModules 06/343,1]	[Remarks:Successful filter row count: 5]
[Date: 2016-09-15 10:42:40]	[UserID:06/343]	[IP:10.10.11.1]	[Browser:Chrome - 52.0.2743.116]	[Action:Closing mssql connection]	[Remarks:Success]
[Date: 2016-09-15 16:54:52]	[UserID:]	[IP:10.10.11.1]	[Browser:Chrome - 52.0.2743.116]	[Action:Making connection to server]	[Remarks:Successful connection to server: S3]
[Date: 2016-09-15 16:54:52]	[UserID:]	[IP:10.10.11.1]	[Browser:Chrome - 52.0.2743.116]	[Action:GetProgramList ]	[Remarks:"no data"]
[Date: 2016-09-15 16:54:58]	[UserID:06/343]	[IP:10.10.11.1]	[Browser:Chrome - 52.0.2743.116]	[Action:Making connection to server]	[Remarks:Successful connection to server: S3]
[Date: 2016-09-15 16:54:58]	[UserID:06/343]	[IP:10.10.11.1]	[Browser:Chrome - 52.0.2743.116]	[Action:User 06/343]	[Remarks:Success]
[Date: 2016-09-15 16:54:58]	[UserID:06/343]	[IP:10.10.11.1]	[Browser:Chrome - 52.0.2743.116]	[Action:Filtering User : MasterData Username : 06/343]	[Remarks:Successful filter row count: 0]
[Date: 2016-09-15 16:54:58]	[UserID:06/343]	[IP:10.10.11.1]	[Browser:Chrome - 52.0.2743.116]	[Action:Filtering User : MasterData Username : 06/343]	[Remarks:Successful filter row count: 0]
[Date: 2016-09-15 16:54:58]	[UserID:06/343]	[IP:10.10.11.1]	[Browser:Chrome - 52.0.2743.116]	[Action:Filtering User : MasterData Username : 06/343]	[Remarks:Success]
[Date: 2016-09-15 16:54:58]	[UserID:06/343]	[IP:10.10.11.1]	[Browser:Chrome - 52.0.2743.116]	[Action:Closing mssql connection]	[Remarks:Success]
[Date: 2016-09-15 16:54:58]	[UserID:06/343]	[IP:10.10.11.1]	[Browser:Chrome - 52.0.2743.116]	[Action:Making connection to server]	[Remarks:Successful connection to server: S3]
[Date: 2016-09-15 16:54:58]	[UserID:06/343]	[IP:10.10.11.1]	[Browser:Chrome - 52.0.2743.116]	[Action:GetProgramList 06/343]	[Remarks:[{"ID":"1","ProgramIndex":"GST","ProgramName":"GST"}]]
[Date: 2016-09-15 16:54:58]	[UserID:06/343]	[IP:10.10.11.1]	[Browser:Chrome - 52.0.2743.116]	[Action:Making connection to server]	[Remarks:Successful connection to server: S3]
[Date: 2016-09-15 16:54:58]	[UserID:06/343]	[IP:10.10.11.1]	[Browser:Chrome - 52.0.2743.116]	[Action:GetProgramList 06/343]	[Remarks:[{"ID":"1","ProgramIndex":"GST","ProgramName":"GST"}]]
[Date: 2016-09-15 16:54:58]	[UserID:06/343]	[IP:10.10.11.1]	[Browser:Chrome - 52.0.2743.116]	[Action:Making connection to server]	[Remarks:Successful connection to server: S3]
[Date: 2016-09-15 16:54:58]	[UserID:06/343]	[IP:10.10.11.1]	[Browser:Chrome - 52.0.2743.116]	[Action:Filtering User : MasterData Username : 06/343]	[Remarks:Successful filter row count: 1]
[Date: 2016-09-15 16:54:59]	[UserID:06/343]	[IP:10.10.11.1]	[Browser:Chrome - 52.0.2743.116]	[Action:Making connection to server]	[Remarks:Successful connection to server: S3]
[Date: 2016-09-15 16:54:59]	[UserID:06/343]	[IP:10.10.11.1]	[Browser:Chrome - 52.0.2743.116]	[Action:GetGSTModules 06/343,1]	[Remarks:Successful filter row count: 5]
[Date: 2016-09-15 16:54:59]	[UserID:06/343]	[IP:10.10.11.1]	[Browser:Chrome - 52.0.2743.116]	[Action:Closing mssql connection]	[Remarks:Success]
[Date: 2016-09-15 16:56:04]	[UserID:]	[IP:10.10.11.1]	[Browser:Chrome - 52.0.2743.116]	[Action:Making connection to server]	[Remarks:Successful connection to server: S3]
[Date: 2016-09-15 16:56:04]	[UserID:]	[IP:10.10.11.1]	[Browser:Chrome - 52.0.2743.116]	[Action:GetProgramList ]	[Remarks:"no data"]
