[Date: 2015-11-16 07:30:39]	[UserID:]	[IP:10.10.11.1]	[Browser:Chrome - 46.0.2490.80]	[Action:Making connection to server]	[Remarks:Successful connection to server: S3]
[Date: 2015-11-16 07:30:39]	[UserID:]	[IP:10.10.11.1]	[Browser:Chrome - 46.0.2490.80]	[Action:GetProgramList ]	[Remarks:"no data"]
[Date: 2015-11-16 07:37:04]	[UserID:06/343]	[IP:10.10.11.1]	[Browser:Chrome - 46.0.2490.80]	[Action:Making connection to server]	[Remarks:Successful connection to server: S3]
[Date: 2015-11-16 07:37:04]	[UserID:06/343]	[IP:10.10.11.1]	[Browser:Chrome - 46.0.2490.80]	[Action:User 06/343]	[Remarks:Success]
[Date: 2015-11-16 07:37:04]	[UserID:06/343]	[IP:10.10.11.1]	[Browser:Chrome - 46.0.2490.80]	[Action:Filtering User : MasterData Username : 06/343]	[Remarks:Successful filter row count: 0]
[Date: 2015-11-16 07:37:04]	[UserID:06/343]	[IP:10.10.11.1]	[Browser:Chrome - 46.0.2490.80]	[Action:Filtering User : MasterData Username : 06/343]	[Remarks:Successful filter row count: 0]
[Date: 2015-11-16 07:37:04]	[UserID:06/343]	[IP:10.10.11.1]	[Browser:Chrome - 46.0.2490.80]	[Action:Filtering User : MasterData Username : 06/343]	[Remarks:Success]
[Date: 2015-11-16 07:37:04]	[UserID:06/343]	[IP:10.10.11.1]	[Browser:Chrome - 46.0.2490.80]	[Action:Closing mssql connection]	[Remarks:Success]
[Date: 2015-11-16 07:37:05]	[UserID:06/343]	[IP:10.10.11.1]	[Browser:Chrome - 46.0.2490.80]	[Action:Making connection to server]	[Remarks:Successful connection to server: S3]
[Date: 2015-11-16 07:37:05]	[UserID:06/343]	[IP:10.10.11.1]	[Browser:Chrome - 46.0.2490.80]	[Action:GetProgramList 06/343]	[Remarks:[{"ID":"1","ProgramIndex":"GST","ProgramName":"GST"}]]
[Date: 2015-11-16 07:37:05]	[UserID:06/343]	[IP:10.10.11.1]	[Browser:Chrome - 46.0.2490.80]	[Action:Making connection to server]	[Remarks:Successful connection to server: S3]
[Date: 2015-11-16 07:37:05]	[UserID:06/343]	[IP:10.10.11.1]	[Browser:Chrome - 46.0.2490.80]	[Action:GetProgramList 06/343]	[Remarks:[{"ID":"1","ProgramIndex":"GST","ProgramName":"GST"}]]
[Date: 2015-11-16 07:37:05]	[UserID:06/343]	[IP:10.10.11.1]	[Browser:Chrome - 46.0.2490.80]	[Action:Making connection to server]	[Remarks:Successful connection to server: S3]
[Date: 2015-11-16 07:37:05]	[UserID:06/343]	[IP:10.10.11.1]	[Browser:Chrome - 46.0.2490.80]	[Action:Filtering User : MasterData Username : 06/343]	[Remarks:Successful filter row count: 1]
[Date: 2015-11-16 07:37:05]	[UserID:06/343]	[IP:10.10.11.1]	[Browser:Chrome - 46.0.2490.80]	[Action:Making connection to server]	[Remarks:Successful connection to server: S3]
[Date: 2015-11-16 07:37:05]	[UserID:06/343]	[IP:10.10.11.1]	[Browser:Chrome - 46.0.2490.80]	[Action:GetGSTModules 06/343,1]	[Remarks:Successful filter row count: 5]
[Date: 2015-11-16 07:37:05]	[UserID:06/343]	[IP:10.10.11.1]	[Browser:Chrome - 46.0.2490.80]	[Action:Closing mssql connection]	[Remarks:Success]
[Date: 2015-11-16 07:44:04]	[UserID:06/343]	[IP:10.10.11.1]	[Browser:Chrome - 46.0.2490.80]	[Action:Making connection to server]	[Remarks:Successful connection to server: S3]
[Date: 2015-11-16 07:44:04]	[UserID:06/343]	[IP:10.10.11.1]	[Browser:Chrome - 46.0.2490.80]	[Action:GetGSTModules 06/343,1]	[Remarks:Successful filter row count: 5]
[Date: 2015-11-16 07:44:04]	[UserID:06/343]	[IP:10.10.11.1]	[Browser:Chrome - 46.0.2490.80]	[Action:Closing mssql connection]	[Remarks:Success]
[Date: 2015-11-16 07:46:13]	[UserID:06/343]	[IP:10.10.11.1]	[Browser:Chrome - 46.0.2490.80]	[Action:Making connection to server]	[Remarks:Successful connection to server: S3]
[Date: 2015-11-16 07:46:13]	[UserID:06/343]	[IP:10.10.11.1]	[Browser:Chrome - 46.0.2490.80]	[Action:GetGSTModules 06/343,1]	[Remarks:Successful filter row count: 5]
[Date: 2015-11-16 07:46:13]	[UserID:06/343]	[IP:10.10.11.1]	[Browser:Chrome - 46.0.2490.80]	[Action:Closing mssql connection]	[Remarks:Success]
[Date: 2015-11-16 07:50:00]	[UserID:06/343]	[IP:10.10.11.1]	[Browser:Chrome - 46.0.2490.80]	[Action:Making connection to server]	[Remarks:Successful connection to server: S3]
[Date: 2015-11-16 07:50:00]	[UserID:06/343]	[IP:10.10.11.1]	[Browser:Chrome - 46.0.2490.80]	[Action:GetGSTModules 06/343,1]	[Remarks:Successful filter row count: 5]
[Date: 2015-11-16 07:50:00]	[UserID:06/343]	[IP:10.10.11.1]	[Browser:Chrome - 46.0.2490.80]	[Action:Closing mssql connection]	[Remarks:Success]
[Date: 2015-11-16 07:52:24]	[UserID:06/343]	[IP:10.10.11.1]	[Browser:Chrome - 46.0.2490.80]	[Action:Making connection to server]	[Remarks:Successful connection to server: S3]
[Date: 2015-11-16 07:52:24]	[UserID:06/343]	[IP:10.10.11.1]	[Browser:Chrome - 46.0.2490.80]	[Action:GetGSTModules 06/343,1]	[Remarks:Successful filter row count: 5]
[Date: 2015-11-16 07:52:24]	[UserID:06/343]	[IP:10.10.11.1]	[Browser:Chrome - 46.0.2490.80]	[Action:Closing mssql connection]	[Remarks:Success]
[Date: 2015-11-16 07:56:26]	[UserID:06/343]	[IP:10.10.11.1]	[Browser:Chrome - 46.0.2490.80]	[Action:Making connection to server]	[Remarks:Successful connection to server: S3]
[Date: 2015-11-16 07:56:26]	[UserID:06/343]	[IP:10.10.11.1]	[Browser:Chrome - 46.0.2490.80]	[Action:GetGSTModules 06/343,1]	[Remarks:Successful filter row count: 5]
[Date: 2015-11-16 07:56:26]	[UserID:06/343]	[IP:10.10.11.1]	[Browser:Chrome - 46.0.2490.80]	[Action:Closing mssql connection]	[Remarks:Success]
[Date: 2015-11-16 07:58:19]	[UserID:06/343]	[IP:10.10.11.1]	[Browser:Chrome - 46.0.2490.80]	[Action:Making connection to server]	[Remarks:Successful connection to server: S3]
[Date: 2015-11-16 07:58:19]	[UserID:06/343]	[IP:10.10.11.1]	[Browser:Chrome - 46.0.2490.80]	[Action:GetGSTModules 06/343,1]	[Remarks:Successful filter row count: 5]
[Date: 2015-11-16 07:58:19]	[UserID:06/343]	[IP:10.10.11.1]	[Browser:Chrome - 46.0.2490.80]	[Action:Closing mssql connection]	[Remarks:Success]
[Date: 2015-11-16 07:59:02]	[UserID:06/343]	[IP:10.10.11.1]	[Browser:Chrome - 46.0.2490.80]	[Action:Making connection to server]	[Remarks:Successful connection to server: S3]
[Date: 2015-11-16 07:59:02]	[UserID:06/343]	[IP:10.10.11.1]	[Browser:Chrome - 46.0.2490.80]	[Action:GetGSTModules 06/343,1]	[Remarks:Successful filter row count: 5]
[Date: 2015-11-16 07:59:02]	[UserID:06/343]	[IP:10.10.11.1]	[Browser:Chrome - 46.0.2490.80]	[Action:Closing mssql connection]	[Remarks:Success]
[Date: 2015-11-16 08:09:52]	[UserID:]	[IP:10.10.11.1]	[Browser:Google favicon]	[Action:Making connection to server]	[Remarks:Successful connection to server: S3]
[Date: 2015-11-16 08:09:52]	[UserID:]	[IP:10.10.11.1]	[Browser:Google favicon]	[Action:GetProgramList ]	[Remarks:"no data"]
[Date: 2015-11-16 08:12:04]	[UserID:06/343]	[IP:10.10.11.1]	[Browser:Chrome - 46.0.2490.80]	[Action:Making connection to server]	[Remarks:Successful connection to server: S3]
[Date: 2015-11-16 08:12:06]	[UserID:06/343]	[IP:10.10.11.1]	[Browser:Chrome - 46.0.2490.80]	[Action:GetGSTModules 06/343,1]	[Remarks:Successful filter row count: 5]
[Date: 2015-11-16 08:12:06]	[UserID:06/343]	[IP:10.10.11.1]	[Browser:Chrome - 46.0.2490.80]	[Action:Closing mssql connection]	[Remarks:Success]
[Date: 2015-11-16 08:17:00]	[UserID:06/343]	[IP:10.10.11.1]	[Browser:Chrome - 46.0.2490.80]	[Action:Making connection to server]	[Remarks:Successful connection to server: S3]
[Date: 2015-11-16 08:17:00]	[UserID:06/343]	[IP:10.10.11.1]	[Browser:Chrome - 46.0.2490.80]	[Action:GetGSTModules 06/343,1]	[Remarks:Successful filter row count: 5]
[Date: 2015-11-16 08:17:00]	[UserID:06/343]	[IP:10.10.11.1]	[Browser:Chrome - 46.0.2490.80]	[Action:Closing mssql connection]	[Remarks:Success]
[Date: 2015-11-16 09:47:16]	[UserID:]	[IP:10.10.11.1]	[Browser:Chrome - 46.0.2490.86]	[Action:Making connection to server]	[Remarks:Successful connection to server: S3]
[Date: 2015-11-16 09:47:19]	[UserID:]	[IP:10.10.11.1]	[Browser:Chrome - 46.0.2490.86]	[Action:GetProgramList ]	[Remarks:"no data"]
[Date: 2015-11-16 09:47:24]	[UserID:10/660]	[IP:10.10.11.1]	[Browser:Chrome - 46.0.2490.86]	[Action:Making connection to server]	[Remarks:Successful connection to server: S3]
[Date: 2015-11-16 09:47:24]	[UserID:10/660]	[IP:10.10.11.1]	[Browser:Chrome - 46.0.2490.86]	[Action:User 10/660]	[Remarks:Success]
[Date: 2015-11-16 09:47:25]	[UserID:10/660]	[IP:10.10.11.1]	[Browser:Chrome - 46.0.2490.86]	[Action:Filtering User : MasterData Username : 10/660]	[Remarks:Successful filter row count: 0]
[Date: 2015-11-16 09:47:25]	[UserID:10/660]	[IP:10.10.11.1]	[Browser:Chrome - 46.0.2490.86]	[Action:Filtering User : MasterData Username : 10/660]	[Remarks:Successful filter row count: 0]
[Date: 2015-11-16 09:47:25]	[UserID:10/660]	[IP:10.10.11.1]	[Browser:Chrome - 46.0.2490.86]	[Action:Filtering User : MasterData Username : 10/660]	[Remarks:Success]
[Date: 2015-11-16 09:47:25]	[UserID:10/660]	[IP:10.10.11.1]	[Browser:Chrome - 46.0.2490.86]	[Action:Closing mssql connection]	[Remarks:Success]
[Date: 2015-11-16 09:47:25]	[UserID:10/660]	[IP:10.10.11.1]	[Browser:Chrome - 46.0.2490.86]	[Action:Making connection to server]	[Remarks:Successful connection to server: S3]
[Date: 2015-11-16 09:47:25]	[UserID:10/660]	[IP:10.10.11.1]	[Browser:Chrome - 46.0.2490.86]	[Action:GetProgramList 10/660]	[Remarks:[{"ID":"1","ProgramIndex":"GST","ProgramName":"GST"}]]
[Date: 2015-11-16 09:47:25]	[UserID:10/660]	[IP:10.10.11.1]	[Browser:Chrome - 46.0.2490.86]	[Action:Making connection to server]	[Remarks:Successful connection to server: S3]
[Date: 2015-11-16 09:47:25]	[UserID:10/660]	[IP:10.10.11.1]	[Browser:Chrome - 46.0.2490.86]	[Action:GetProgramList 10/660]	[Remarks:[{"ID":"1","ProgramIndex":"GST","ProgramName":"GST"}]]
[Date: 2015-11-16 09:47:25]	[UserID:10/660]	[IP:10.10.11.1]	[Browser:Chrome - 46.0.2490.86]	[Action:Making connection to server]	[Remarks:Successful connection to server: S3]
[Date: 2015-11-16 09:47:25]	[UserID:10/660]	[IP:10.10.11.1]	[Browser:Chrome - 46.0.2490.86]	[Action:Filtering User : MasterData Username : 10/660]	[Remarks:Successful filter row count: 1]
[Date: 2015-11-16 09:47:26]	[UserID:10/660]	[IP:10.10.11.1]	[Browser:Chrome - 46.0.2490.86]	[Action:Making connection to server]	[Remarks:Successful connection to server: S3]
[Date: 2015-11-16 09:47:26]	[UserID:10/660]	[IP:10.10.11.1]	[Browser:Chrome - 46.0.2490.86]	[Action:GetGSTModules 10/660,1]	[Remarks:Successful filter row count: 3]
[Date: 2015-11-16 09:47:26]	[UserID:10/660]	[IP:10.10.11.1]	[Browser:Chrome - 46.0.2490.86]	[Action:Closing mssql connection]	[Remarks:Success]
[Date: 2015-11-16 09:51:05]	[UserID:]	[IP:10.10.11.1]	[Browser:Chrome - 46.0.2490.86]	[Action:Making connection to server]	[Remarks:Successful connection to server: S3]
[Date: 2015-11-16 09:51:05]	[UserID:]	[IP:10.10.11.1]	[Browser:Chrome - 46.0.2490.86]	[Action:GetProgramList ]	[Remarks:"no data"]
[Date: 2015-11-16 09:51:13]	[UserID:06/371]	[IP:10.10.11.1]	[Browser:Chrome - 46.0.2490.86]	[Action:Making connection to server]	[Remarks:Successful connection to server: S3]
[Date: 2015-11-16 09:51:13]	[UserID:06/371]	[IP:10.10.11.1]	[Browser:Chrome - 46.0.2490.86]	[Action:User 06/371]	[Remarks:Success]
[Date: 2015-11-16 09:51:13]	[UserID:06/371]	[IP:10.10.11.1]	[Browser:Chrome - 46.0.2490.86]	[Action:Filtering User : MasterData Username : 06/371]	[Remarks:Successful filter row count: 0]
[Date: 2015-11-16 09:51:13]	[UserID:06/371]	[IP:10.10.11.1]	[Browser:Chrome - 46.0.2490.86]	[Action:Filtering User : MasterData Username : 06/371]	[Remarks:Successful filter row count: 0]
[Date: 2015-11-16 09:51:13]	[UserID:06/371]	[IP:10.10.11.1]	[Browser:Chrome - 46.0.2490.86]	[Action:Filtering User : MasterData Username : 06/371]	[Remarks:Success]
[Date: 2015-11-16 09:51:13]	[UserID:06/371]	[IP:10.10.11.1]	[Browser:Chrome - 46.0.2490.86]	[Action:Closing mssql connection]	[Remarks:Success]
[Date: 2015-11-16 09:51:13]	[UserID:06/371]	[IP:10.10.11.1]	[Browser:Chrome - 46.0.2490.86]	[Action:Making connection to server]	[Remarks:Successful connection to server: S3]
[Date: 2015-11-16 09:51:13]	[UserID:06/371]	[IP:10.10.11.1]	[Browser:Chrome - 46.0.2490.86]	[Action:GetProgramList 06/371]	[Remarks:[{"ID":"1","ProgramIndex":"GST","ProgramName":"GST"}]]
[Date: 2015-11-16 09:51:13]	[UserID:06/371]	[IP:10.10.11.1]	[Browser:Chrome - 46.0.2490.86]	[Action:Making connection to server]	[Remarks:Successful connection to server: S3]
[Date: 2015-11-16 09:51:13]	[UserID:06/371]	[IP:10.10.11.1]	[Browser:Chrome - 46.0.2490.86]	[Action:GetProgramList 06/371]	[Remarks:[{"ID":"1","ProgramIndex":"GST","ProgramName":"GST"}]]
[Date: 2015-11-16 09:51:13]	[UserID:06/371]	[IP:10.10.11.1]	[Browser:Chrome - 46.0.2490.86]	[Action:Making connection to server]	[Remarks:Successful connection to server: S3]
[Date: 2015-11-16 09:51:13]	[UserID:06/371]	[IP:10.10.11.1]	[Browser:Chrome - 46.0.2490.86]	[Action:Filtering User : MasterData Username : 06/371]	[Remarks:Successful filter row count: 1]
[Date: 2015-11-16 09:51:14]	[UserID:06/371]	[IP:10.10.11.1]	[Browser:Chrome - 46.0.2490.86]	[Action:Making connection to server]	[Remarks:Successful connection to server: S3]
[Date: 2015-11-16 09:51:14]	[UserID:06/371]	[IP:10.10.11.1]	[Browser:Chrome - 46.0.2490.86]	[Action:GetGSTModules 06/371,1]	[Remarks:Successful filter row count: 5]
[Date: 2015-11-16 09:51:14]	[UserID:06/371]	[IP:10.10.11.1]	[Browser:Chrome - 46.0.2490.86]	[Action:Closing mssql connection]	[Remarks:Success]
[Date: 2015-11-16 09:58:45]	[UserID:06/371]	[IP:10.10.11.1]	[Browser:Chrome - 46.0.2490.86]	[Action:Making connection to server]	[Remarks:Successful connection to server: S3]
[Date: 2015-11-16 09:58:45]	[UserID:06/371]	[IP:10.10.11.1]	[Browser:Chrome - 46.0.2490.86]	[Action:GetGSTModules 06/371,1]	[Remarks:Successful filter row count: 5]
[Date: 2015-11-16 09:58:45]	[UserID:06/371]	[IP:10.10.11.1]	[Browser:Chrome - 46.0.2490.86]	[Action:Closing mssql connection]	[Remarks:Success]
[Date: 2015-11-16 09:59:20]	[UserID:10/660]	[IP:10.10.11.1]	[Browser:Chrome - 46.0.2490.86]	[Action:Making connection to server]	[Remarks:Successful connection to server: S3]
[Date: 2015-11-16 09:59:20]	[UserID:10/660]	[IP:10.10.11.1]	[Browser:Chrome - 46.0.2490.86]	[Action:GetGSTModules 10/660,1]	[Remarks:Successful filter row count: 3]
[Date: 2015-11-16 09:59:20]	[UserID:10/660]	[IP:10.10.11.1]	[Browser:Chrome - 46.0.2490.86]	[Action:Closing mssql connection]	[Remarks:Success]
[Date: 2015-11-16 10:01:02]	[UserID:06/371]	[IP:10.10.11.1]	[Browser:Chrome - 46.0.2490.86]	[Action:Making connection to server]	[Remarks:Successful connection to server: S3]
[Date: 2015-11-16 10:01:02]	[UserID:06/371]	[IP:10.10.11.1]	[Browser:Chrome - 46.0.2490.86]	[Action:GetGSTModules 06/371,1]	[Remarks:Successful filter row count: 5]
[Date: 2015-11-16 10:01:02]	[UserID:06/371]	[IP:10.10.11.1]	[Browser:Chrome - 46.0.2490.86]	[Action:Closing mssql connection]	[Remarks:Success]
[Date: 2015-11-16 10:02:09]	[UserID:10/660]	[IP:10.10.11.1]	[Browser:Chrome - 46.0.2490.86]	[Action:Making connection to server]	[Remarks:Successful connection to server: S3]
[Date: 2015-11-16 10:02:09]	[UserID:10/660]	[IP:10.10.11.1]	[Browser:Chrome - 46.0.2490.86]	[Action:GetGSTModules 10/660,1]	[Remarks:Successful filter row count: 3]
[Date: 2015-11-16 10:02:09]	[UserID:10/660]	[IP:10.10.11.1]	[Browser:Chrome - 46.0.2490.86]	[Action:Closing mssql connection]	[Remarks:Success]
[Date: 2015-11-16 10:03:14]	[UserID:06/371]	[IP:10.10.11.1]	[Browser:Chrome - 46.0.2490.86]	[Action:Making connection to server]	[Remarks:Successful connection to server: S3]
[Date: 2015-11-16 10:03:16]	[UserID:06/371]	[IP:10.10.11.1]	[Browser:Chrome - 46.0.2490.86]	[Action:GetGSTModules 06/371,1]	[Remarks:Successful filter row count: 5]
[Date: 2015-11-16 10:03:16]	[UserID:06/371]	[IP:10.10.11.1]	[Browser:Chrome - 46.0.2490.86]	[Action:Closing mssql connection]	[Remarks:Success]
[Date: 2015-11-16 10:05:57]	[UserID:06/371]	[IP:10.10.11.1]	[Browser:Chrome - 46.0.2490.86]	[Action:Making connection to server]	[Remarks:Successful connection to server: S3]
[Date: 2015-11-16 10:05:57]	[UserID:06/371]	[IP:10.10.11.1]	[Browser:Chrome - 46.0.2490.86]	[Action:GetGSTModules 06/371,1]	[Remarks:Successful filter row count: 5]
[Date: 2015-11-16 10:05:57]	[UserID:06/371]	[IP:10.10.11.1]	[Browser:Chrome - 46.0.2490.86]	[Action:Closing mssql connection]	[Remarks:Success]
[Date: 2015-11-16 10:37:18]	[UserID:06/371]	[IP:10.10.11.1]	[Browser:Chrome - 46.0.2490.86]	[Action:Making connection to server]	[Remarks:Successful connection to server: S3]
[Date: 2015-11-16 10:37:18]	[UserID:06/371]	[IP:10.10.11.1]	[Browser:Chrome - 46.0.2490.86]	[Action:GetGSTModules 06/371,1]	[Remarks:Successful filter row count: 5]
[Date: 2015-11-16 10:37:18]	[UserID:06/371]	[IP:10.10.11.1]	[Browser:Chrome - 46.0.2490.86]	[Action:Closing mssql connection]	[Remarks:Success]
[Date: 2015-11-16 10:37:47]	[UserID:06/371]	[IP:10.10.11.1]	[Browser:Chrome - 46.0.2490.86]	[Action:Making connection to server]	[Remarks:Successful connection to server: S3]
[Date: 2015-11-16 10:37:47]	[UserID:06/371]	[IP:10.10.11.1]	[Browser:Chrome - 46.0.2490.86]	[Action:GetGSTModules 06/371,1]	[Remarks:Successful filter row count: 5]
[Date: 2015-11-16 10:37:47]	[UserID:06/371]	[IP:10.10.11.1]	[Browser:Chrome - 46.0.2490.86]	[Action:Closing mssql connection]	[Remarks:Success]
[Date: 2015-11-16 10:40:34]	[UserID:10/660]	[IP:10.10.11.1]	[Browser:Chrome - 46.0.2490.86]	[Action:Making connection to server]	[Remarks:Successful connection to server: S3]
[Date: 2015-11-16 10:40:34]	[UserID:10/660]	[IP:10.10.11.1]	[Browser:Chrome - 46.0.2490.86]	[Action:GetGSTModules 10/660,1]	[Remarks:Successful filter row count: 3]
[Date: 2015-11-16 10:40:34]	[UserID:10/660]	[IP:10.10.11.1]	[Browser:Chrome - 46.0.2490.86]	[Action:Closing mssql connection]	[Remarks:Success]
[Date: 2015-11-16 10:40:57]	[UserID:]	[IP:10.10.11.1]	[Browser:Chrome - 46.0.2490.86]	[Action:Making connection to server]	[Remarks:Successful connection to server: S3]
[Date: 2015-11-16 10:40:57]	[UserID:]	[IP:10.10.11.1]	[Browser:Chrome - 46.0.2490.86]	[Action:GetProgramList ]	[Remarks:"no data"]
[Date: 2015-11-16 10:47:20]	[UserID:06/371]	[IP:10.10.11.1]	[Browser:Chrome - 46.0.2490.86]	[Action:Making connection to server]	[Remarks:Successful connection to server: S3]
[Date: 2015-11-16 10:47:20]	[UserID:06/371]	[IP:10.10.11.1]	[Browser:Chrome - 46.0.2490.86]	[Action:GetGSTModules 06/371,1]	[Remarks:Successful filter row count: 5]
[Date: 2015-11-16 10:47:20]	[UserID:06/371]	[IP:10.10.11.1]	[Browser:Chrome - 46.0.2490.86]	[Action:Closing mssql connection]	[Remarks:Success]
[Date: 2015-11-16 10:48:28]	[UserID:06/371]	[IP:10.10.11.1]	[Browser:Chrome - 46.0.2490.86]	[Action:Making connection to server]	[Remarks:Successful connection to server: S3]
[Date: 2015-11-16 10:48:28]	[UserID:06/371]	[IP:10.10.11.1]	[Browser:Chrome - 46.0.2490.86]	[Action:GetGSTModules 06/371,1]	[Remarks:Successful filter row count: 5]
[Date: 2015-11-16 10:48:28]	[UserID:06/371]	[IP:10.10.11.1]	[Browser:Chrome - 46.0.2490.86]	[Action:Closing mssql connection]	[Remarks:Success]
[Date: 2015-11-16 10:51:21]	[UserID:]	[IP:10.10.11.1]	[Browser:Chrome - 46.0.2490.86]	[Action:Making connection to server]	[Remarks:Successful connection to server: S3]
[Date: 2015-11-16 10:51:21]	[UserID:]	[IP:10.10.11.1]	[Browser:Chrome - 46.0.2490.86]	[Action:GetProgramList ]	[Remarks:"no data"]
[Date: 2015-11-16 10:51:25]	[UserID:14/1082]	[IP:10.10.11.1]	[Browser:Chrome - 46.0.2490.86]	[Action:Making connection to server]	[Remarks:Successful connection to server: S3]
[Date: 2015-11-16 10:51:25]	[UserID:14/1082]	[IP:10.10.11.1]	[Browser:Chrome - 46.0.2490.86]	[Action:User 14/1082]	[Remarks:Success]
[Date: 2015-11-16 10:51:25]	[UserID:14/1082]	[IP:10.10.11.1]	[Browser:Chrome - 46.0.2490.86]	[Action:Filtering User : MasterData Username : 14/1082]	[Remarks:Successful filter row count: 0]
[Date: 2015-11-16 10:51:25]	[UserID:14/1082]	[IP:10.10.11.1]	[Browser:Chrome - 46.0.2490.86]	[Action:Filtering User : MasterData Username : 14/1082]	[Remarks:Successful filter row count: 0]
[Date: 2015-11-16 10:51:25]	[UserID:14/1082]	[IP:10.10.11.1]	[Browser:Chrome - 46.0.2490.86]	[Action:Filtering User : MasterData Username : 14/1082]	[Remarks:Success]
[Date: 2015-11-16 10:51:25]	[UserID:14/1082]	[IP:10.10.11.1]	[Browser:Chrome - 46.0.2490.86]	[Action:Closing mssql connection]	[Remarks:Success]
[Date: 2015-11-16 10:51:25]	[UserID:14/1082]	[IP:10.10.11.1]	[Browser:Chrome - 46.0.2490.86]	[Action:Making connection to server]	[Remarks:Successful connection to server: S3]
[Date: 2015-11-16 10:51:25]	[UserID:14/1082]	[IP:10.10.11.1]	[Browser:Chrome - 46.0.2490.86]	[Action:GetProgramList 14/1082]	[Remarks:[{"ID":"1","ProgramIndex":"GST","ProgramName":"GST"}]]
[Date: 2015-11-16 10:51:25]	[UserID:14/1082]	[IP:10.10.11.1]	[Browser:Chrome - 46.0.2490.86]	[Action:Making connection to server]	[Remarks:Successful connection to server: S3]
[Date: 2015-11-16 10:51:25]	[UserID:14/1082]	[IP:10.10.11.1]	[Browser:Chrome - 46.0.2490.86]	[Action:GetProgramList 14/1082]	[Remarks:[{"ID":"1","ProgramIndex":"GST","ProgramName":"GST"}]]
[Date: 2015-11-16 10:51:25]	[UserID:14/1082]	[IP:10.10.11.1]	[Browser:Chrome - 46.0.2490.86]	[Action:Making connection to server]	[Remarks:Successful connection to server: S3]
[Date: 2015-11-16 10:51:25]	[UserID:14/1082]	[IP:10.10.11.1]	[Browser:Chrome - 46.0.2490.86]	[Action:Filtering User : MasterData Username : 14/1082]	[Remarks:Successful filter row count: 1]
[Date: 2015-11-16 10:51:25]	[UserID:14/1082]	[IP:10.10.11.1]	[Browser:Chrome - 46.0.2490.86]	[Action:Making connection to server]	[Remarks:Successful connection to server: S3]
[Date: 2015-11-16 10:51:25]	[UserID:14/1082]	[IP:10.10.11.1]	[Browser:Chrome - 46.0.2490.86]	[Action:GetGSTModules 14/1082,1]	[Remarks:Successful filter row count: 7]
[Date: 2015-11-16 10:51:25]	[UserID:14/1082]	[IP:10.10.11.1]	[Browser:Chrome - 46.0.2490.86]	[Action:Closing mssql connection]	[Remarks:Success]
[Date: 2015-11-16 10:53:57]	[UserID:14/1082]	[IP:10.10.11.1]	[Browser:Chrome - 46.0.2490.86]	[Action:Making connection to server]	[Remarks:Successful connection to server: S3]
[Date: 2015-11-16 10:53:57]	[UserID:14/1082]	[IP:10.10.11.1]	[Browser:Chrome - 46.0.2490.86]	[Action:GetGSTModules 14/1082,1]	[Remarks:Successful filter row count: 7]
[Date: 2015-11-16 10:53:57]	[UserID:14/1082]	[IP:10.10.11.1]	[Browser:Chrome - 46.0.2490.86]	[Action:Closing mssql connection]	[Remarks:Success]
[Date: 2015-11-16 10:58:08]	[UserID:14/1082]	[IP:10.10.11.1]	[Browser:Chrome - 46.0.2490.86]	[Action:Making connection to server]	[Remarks:Successful connection to server: S3]
[Date: 2015-11-16 10:58:08]	[UserID:14/1082]	[IP:10.10.11.1]	[Browser:Chrome - 46.0.2490.86]	[Action:GetGSTModules 14/1082,1]	[Remarks:Successful filter row count: 7]
[Date: 2015-11-16 10:58:08]	[UserID:14/1082]	[IP:10.10.11.1]	[Browser:Chrome - 46.0.2490.86]	[Action:Closing mssql connection]	[Remarks:Success]
[Date: 2015-11-16 11:02:07]	[UserID:14/1082]	[IP:10.10.11.1]	[Browser:Chrome - 46.0.2490.86]	[Action:Making connection to server]	[Remarks:Successful connection to server: S3]
[Date: 2015-11-16 11:02:07]	[UserID:14/1082]	[IP:10.10.11.1]	[Browser:Chrome - 46.0.2490.86]	[Action:GetGSTModules 14/1082,1]	[Remarks:Successful filter row count: 7]
[Date: 2015-11-16 11:02:07]	[UserID:14/1082]	[IP:10.10.11.1]	[Browser:Chrome - 46.0.2490.86]	[Action:Closing mssql connection]	[Remarks:Success]
[Date: 2015-11-16 11:24:59]	[UserID:14/1082]	[IP:10.10.11.1]	[Browser:Chrome - 46.0.2490.86]	[Action:Making connection to server]	[Remarks:Successful connection to server: S3]
[Date: 2015-11-16 11:24:59]	[UserID:14/1082]	[IP:10.10.11.1]	[Browser:Chrome - 46.0.2490.86]	[Action:GetGSTModules 14/1082,1]	[Remarks:Successful filter row count: 7]
[Date: 2015-11-16 11:24:59]	[UserID:14/1082]	[IP:10.10.11.1]	[Browser:Chrome - 46.0.2490.86]	[Action:Closing mssql connection]	[Remarks:Success]
[Date: 2015-11-16 11:34:21]	[UserID:14/1082]	[IP:10.10.11.1]	[Browser:Chrome - 46.0.2490.86]	[Action:Making connection to server]	[Remarks:Successful connection to server: S3]
[Date: 2015-11-16 11:34:21]	[UserID:14/1082]	[IP:10.10.11.1]	[Browser:Chrome - 46.0.2490.86]	[Action:GetGSTModules 14/1082,1]	[Remarks:Successful filter row count: 7]
[Date: 2015-11-16 11:34:21]	[UserID:14/1082]	[IP:10.10.11.1]	[Browser:Chrome - 46.0.2490.86]	[Action:Closing mssql connection]	[Remarks:Success]
[Date: 2015-11-16 12:52:02]	[UserID:06/343]	[IP:10.10.11.1]	[Browser:Chrome - 46.0.2490.80]	[Action:Making connection to server]	[Remarks:Successful connection to server: S3]
[Date: 2015-11-16 12:52:02]	[UserID:06/343]	[IP:10.10.11.1]	[Browser:Chrome - 46.0.2490.80]	[Action:GetGSTModules 06/343,1]	[Remarks:Successful filter row count: 5]
[Date: 2015-11-16 12:52:02]	[UserID:06/343]	[IP:10.10.11.1]	[Browser:Chrome - 46.0.2490.80]	[Action:Closing mssql connection]	[Remarks:Success]
[Date: 2015-11-16 12:55:06]	[UserID:]	[IP:10.10.11.1]	[Browser:Chrome - 46.0.2490.86]	[Action:Making connection to server]	[Remarks:Successful connection to server: S3]
[Date: 2015-11-16 12:55:07]	[UserID:]	[IP:10.10.11.1]	[Browser:Chrome - 46.0.2490.86]	[Action:GetProgramList ]	[Remarks:"no data"]
[Date: 2015-11-16 12:55:22]	[UserID:eieikhin]	[IP:10.10.11.1]	[Browser:Chrome - 46.0.2490.86]	[Action:Making connection to server]	[Remarks:Successful connection to server: S3]
[Date: 2015-11-16 12:55:24]	[UserID:eieikhin]	[IP:10.10.11.1]	[Browser:Chrome - 46.0.2490.86]	[Action:LogMeIn eieikhin,eekhin123456]	[Remarks:Failed]
[Date: 2015-11-16 12:55:24]	[UserID:eieikhin]	[IP:10.10.11.1]	[Browser:Chrome - 46.0.2490.86]	[Action:Closing mssql connection]	[Remarks:Success]
[Date: 2015-11-16 12:55:30]	[UserID:eieikhin]	[IP:10.10.11.1]	[Browser:Chrome - 46.0.2490.86]	[Action:Making connection to server]	[Remarks:Successful connection to server: S3]
[Date: 2015-11-16 12:55:30]	[UserID:eieikhin]	[IP:10.10.11.1]	[Browser:Chrome - 46.0.2490.86]	[Action:LogMeIn eieikhin,eekhin12345]	[Remarks:Failed]
[Date: 2015-11-16 12:55:30]	[UserID:eieikhin]	[IP:10.10.11.1]	[Browser:Chrome - 46.0.2490.86]	[Action:Closing mssql connection]	[Remarks:Success]
[Date: 2015-11-16 12:55:37]	[UserID:eieikhin]	[IP:10.10.11.1]	[Browser:Chrome - 46.0.2490.86]	[Action:Making connection to server]	[Remarks:Successful connection to server: S3]
[Date: 2015-11-16 12:55:37]	[UserID:eieikhin]	[IP:10.10.11.1]	[Browser:Chrome - 46.0.2490.86]	[Action:LogMeIn eieikhin,eekhin12345]	[Remarks:Failed]
[Date: 2015-11-16 12:55:37]	[UserID:eieikhin]	[IP:10.10.11.1]	[Browser:Chrome - 46.0.2490.86]	[Action:Closing mssql connection]	[Remarks:Success]
[Date: 2015-11-16 12:55:42]	[UserID:eieikhin]	[IP:10.10.11.1]	[Browser:Chrome - 46.0.2490.86]	[Action:Making connection to server]	[Remarks:Successful connection to server: S3]
[Date: 2015-11-16 12:55:42]	[UserID:eieikhin]	[IP:10.10.11.1]	[Browser:Chrome - 46.0.2490.86]	[Action:User eieikhin]	[Remarks:Success]
[Date: 2015-11-16 12:55:51]	[UserID:eieikhin]	[IP:10.10.11.1]	[Browser:Chrome - 46.0.2490.86]	[Action:Filtering User : MasterData Username : eieikhin]	[Remarks:Successful filter row count: 0]
[Date: 2015-11-16 12:55:51]	[UserID:eieikhin]	[IP:10.10.11.1]	[Browser:Chrome - 46.0.2490.86]	[Action:Filtering User : MasterData Username : eieikhin]	[Remarks:Successful filter row count: 0]
[Date: 2015-11-16 12:55:51]	[UserID:eieikhin]	[IP:10.10.11.1]	[Browser:Chrome - 46.0.2490.86]	[Action:Filtering User : MasterData Username : eieikhin]	[Remarks:Success]
[Date: 2015-11-16 12:55:51]	[UserID:eieikhin]	[IP:10.10.11.1]	[Browser:Chrome - 46.0.2490.86]	[Action:Closing mssql connection]	[Remarks:Success]
[Date: 2015-11-16 12:55:51]	[UserID:]	[IP:10.10.11.1]	[Browser:Chrome - 46.0.2490.86]	[Action:Making connection to server]	[Remarks:Successful connection to server: S3]
[Date: 2015-11-16 12:55:54]	[UserID:]	[IP:10.10.11.1]	[Browser:Chrome - 46.0.2490.86]	[Action:GetProgramList ]	[Remarks:"no data"]
[Date: 2015-11-16 12:56:05]	[UserID:eieikhin]	[IP:10.10.11.1]	[Browser:Chrome - 46.0.2490.86]	[Action:Making connection to server]	[Remarks:Successful connection to server: S3]
[Date: 2015-11-16 12:56:06]	[UserID:eieikhin]	[IP:10.10.11.1]	[Browser:Chrome - 46.0.2490.86]	[Action:LogMeIn eieikhin,eekhin123456]	[Remarks:Failed]
[Date: 2015-11-16 12:56:06]	[UserID:eieikhin]	[IP:10.10.11.1]	[Browser:Chrome - 46.0.2490.86]	[Action:Closing mssql connection]	[Remarks:Success]
[Date: 2015-11-16 12:56:11]	[UserID:eieikhin]	[IP:10.10.11.1]	[Browser:Chrome - 46.0.2490.86]	[Action:Making connection to server]	[Remarks:Successful connection to server: S3]
[Date: 2015-11-16 12:56:11]	[UserID:eieikhin]	[IP:10.10.11.1]	[Browser:Chrome - 46.0.2490.86]	[Action:LogMeIn eieikhin,eekhin12345]	[Remarks:Failed]
[Date: 2015-11-16 12:56:11]	[UserID:eieikhin]	[IP:10.10.11.1]	[Browser:Chrome - 46.0.2490.86]	[Action:Closing mssql connection]	[Remarks:Success]
[Date: 2015-11-16 12:56:19]	[UserID:eieikhin]	[IP:10.10.11.1]	[Browser:Chrome - 46.0.2490.86]	[Action:Making connection to server]	[Remarks:Successful connection to server: S3]
[Date: 2015-11-16 12:56:26]	[UserID:eieikhin]	[IP:10.10.11.1]	[Browser:Chrome - 46.0.2490.86]	[Action:Sending Message. To:eieikhin@jsilogistics.com, from: sg-alert@jsilogistics.com]	[Remarks:Successful filter row count: 1]
[Date: 2015-11-16 12:56:26]	[UserID:eieikhin]	[IP:10.10.11.1]	[Browser:Chrome - 46.0.2490.86]	[Action:Closing mssql connection]	[Remarks:Success]
[Date: 2015-11-16 12:56:54]	[UserID:eieikhin]	[IP:10.10.11.1]	[Browser:Chrome - 46.0.2490.86]	[Action:Making connection to server]	[Remarks:Successful connection to server: S3]
[Date: 2015-11-16 12:56:54]	[UserID:eieikhin]	[IP:10.10.11.1]	[Browser:Chrome - 46.0.2490.86]	[Action:User eieikhin]	[Remarks:Success]
[Date: 2015-11-16 12:56:54]	[UserID:eieikhin]	[IP:10.10.11.1]	[Browser:Chrome - 46.0.2490.86]	[Action:Filtering User : MasterData Username : eieikhin]	[Remarks:Successful filter row count: 0]
[Date: 2015-11-16 12:56:54]	[UserID:eieikhin]	[IP:10.10.11.1]	[Browser:Chrome - 46.0.2490.86]	[Action:Filtering User : MasterData Username : eieikhin]	[Remarks:Successful filter row count: 0]
[Date: 2015-11-16 12:56:54]	[UserID:eieikhin]	[IP:10.10.11.1]	[Browser:Chrome - 46.0.2490.86]	[Action:Filtering User : MasterData Username : eieikhin]	[Remarks:Success]
[Date: 2015-11-16 12:56:54]	[UserID:eieikhin]	[IP:10.10.11.1]	[Browser:Chrome - 46.0.2490.86]	[Action:Closing mssql connection]	[Remarks:Success]
[Date: 2015-11-16 12:56:54]	[UserID:]	[IP:10.10.11.1]	[Browser:Chrome - 46.0.2490.86]	[Action:Making connection to server]	[Remarks:Successful connection to server: S3]
[Date: 2015-11-16 12:56:54]	[UserID:]	[IP:10.10.11.1]	[Browser:Chrome - 46.0.2490.86]	[Action:GetProgramList ]	[Remarks:"no data"]
[Date: 2015-11-16 12:57:12]	[UserID:eieikhin]	[IP:10.10.11.1]	[Browser:Chrome - 46.0.2490.86]	[Action:Making connection to server]	[Remarks:Successful connection to server: S3]
[Date: 2015-11-16 12:57:12]	[UserID:eieikhin]	[IP:10.10.11.1]	[Browser:Chrome - 46.0.2490.86]	[Action:User eieikhin]	[Remarks:Success]
[Date: 2015-11-16 12:57:12]	[UserID:eieikhin]	[IP:10.10.11.1]	[Browser:Chrome - 46.0.2490.86]	[Action:Filtering User : MasterData Username : eieikhin]	[Remarks:Successful filter row count: 0]
[Date: 2015-11-16 12:57:12]	[UserID:eieikhin]	[IP:10.10.11.1]	[Browser:Chrome - 46.0.2490.86]	[Action:Filtering User : MasterData Username : eieikhin]	[Remarks:Successful filter row count: 0]
[Date: 2015-11-16 12:57:12]	[UserID:eieikhin]	[IP:10.10.11.1]	[Browser:Chrome - 46.0.2490.86]	[Action:Filtering User : MasterData Username : eieikhin]	[Remarks:Success]
[Date: 2015-11-16 12:57:12]	[UserID:eieikhin]	[IP:10.10.11.1]	[Browser:Chrome - 46.0.2490.86]	[Action:Closing mssql connection]	[Remarks:Success]
[Date: 2015-11-16 12:57:12]	[UserID:eieikhin]	[IP:10.10.11.1]	[Browser:Chrome - 46.0.2490.86]	[Action:Making connection to server]	[Remarks:Successful connection to server: S3]
[Date: 2015-11-16 12:57:12]	[UserID:eieikhin]	[IP:10.10.11.1]	[Browser:Chrome - 46.0.2490.86]	[Action:GetProgramList eieikhin]	[Remarks:[{"ID":"1","ProgramIndex":"GST","ProgramName":"GST"},{"ID":"3","ProgramIndex":"PRD","ProgramName":"PRD"}]]
[Date: 2015-11-16 12:57:12]	[UserID:eieikhin]	[IP:10.10.11.1]	[Browser:Chrome - 46.0.2490.86]	[Action:Making connection to server]	[Remarks:Successful connection to server: S3]
[Date: 2015-11-16 12:57:12]	[UserID:eieikhin]	[IP:10.10.11.1]	[Browser:Chrome - 46.0.2490.86]	[Action:GetProgramList eieikhin]	[Remarks:[{"ID":"1","ProgramIndex":"GST","ProgramName":"GST"},{"ID":"3","ProgramIndex":"PRD","ProgramName":"PRD"}]]
[Date: 2015-11-16 12:57:12]	[UserID:eieikhin]	[IP:10.10.11.1]	[Browser:Chrome - 46.0.2490.86]	[Action:Making connection to server]	[Remarks:Successful connection to server: S3]
[Date: 2015-11-16 12:57:12]	[UserID:eieikhin]	[IP:10.10.11.1]	[Browser:Chrome - 46.0.2490.86]	[Action:Filtering User : MasterData Username : eieikhin]	[Remarks:Successful filter row count: 1]
[Date: 2015-11-16 12:57:14]	[UserID:eieikhin]	[IP:10.10.11.1]	[Browser:Chrome - 46.0.2490.86]	[Action:Making connection to server]	[Remarks:Successful connection to server: S3]
[Date: 2015-11-16 12:57:14]	[UserID:eieikhin]	[IP:10.10.11.1]	[Browser:Chrome - 46.0.2490.86]	[Action:GetGSTModules eieikhin,1]	[Remarks:Successful filter row count: 7]
[Date: 2015-11-16 12:57:14]	[UserID:eieikhin]	[IP:10.10.11.1]	[Browser:Chrome - 46.0.2490.86]	[Action:Closing mssql connection]	[Remarks:Success]
[Date: 2015-11-16 13:02:08]	[UserID:14/1082]	[IP:10.10.11.1]	[Browser:Chrome - 46.0.2490.86]	[Action:Making connection to server]	[Remarks:Successful connection to server: S3]
[Date: 2015-11-16 13:02:08]	[UserID:14/1082]	[IP:10.10.11.1]	[Browser:Chrome - 46.0.2490.86]	[Action:GetGSTModules 14/1082,1]	[Remarks:Successful filter row count: 7]
[Date: 2015-11-16 13:02:08]	[UserID:14/1082]	[IP:10.10.11.1]	[Browser:Chrome - 46.0.2490.86]	[Action:Closing mssql connection]	[Remarks:Success]
[Date: 2015-11-16 13:05:14]	[UserID:14/1082]	[IP:10.10.11.1]	[Browser:Chrome - 46.0.2490.86]	[Action:Making connection to server]	[Remarks:Successful connection to server: S3]
[Date: 2015-11-16 13:05:14]	[UserID:14/1082]	[IP:10.10.11.1]	[Browser:Chrome - 46.0.2490.86]	[Action:GetGSTModules 14/1082,1]	[Remarks:Successful filter row count: 7]
[Date: 2015-11-16 13:05:14]	[UserID:14/1082]	[IP:10.10.11.1]	[Browser:Chrome - 46.0.2490.86]	[Action:Closing mssql connection]	[Remarks:Success]
[Date: 2015-11-16 13:31:02]	[UserID:14/1082]	[IP:10.10.11.1]	[Browser:Chrome - 46.0.2490.86]	[Action:Making connection to server]	[Remarks:Successful connection to server: S3]
[Date: 2015-11-16 13:31:03]	[UserID:14/1082]	[IP:10.10.11.1]	[Browser:Chrome - 46.0.2490.86]	[Action:GetProgramList 14/1082]	[Remarks:[{"ID":"1","ProgramIndex":"GST","ProgramName":"GST"}]]
[Date: 2015-11-16 13:31:03]	[UserID:14/1082]	[IP:10.10.11.1]	[Browser:Chrome - 46.0.2490.86]	[Action:Making connection to server]	[Remarks:Successful connection to server: S3]
[Date: 2015-11-16 13:31:03]	[UserID:14/1082]	[IP:10.10.11.1]	[Browser:Chrome - 46.0.2490.86]	[Action:GetProgramList 14/1082]	[Remarks:[{"ID":"1","ProgramIndex":"GST","ProgramName":"GST"}]]
[Date: 2015-11-16 13:31:03]	[UserID:14/1082]	[IP:10.10.11.1]	[Browser:Chrome - 46.0.2490.86]	[Action:Making connection to server]	[Remarks:Successful connection to server: S3]
[Date: 2015-11-16 13:31:03]	[UserID:14/1082]	[IP:10.10.11.1]	[Browser:Chrome - 46.0.2490.86]	[Action:Filtering User : MasterData Username : 14/1082]	[Remarks:Successful filter row count: 1]
[Date: 2015-11-16 13:31:04]	[UserID:14/1082]	[IP:10.10.11.1]	[Browser:Chrome - 46.0.2490.86]	[Action:Making connection to server]	[Remarks:Successful connection to server: S3]
[Date: 2015-11-16 13:31:06]	[UserID:14/1082]	[IP:10.10.11.1]	[Browser:Chrome - 46.0.2490.86]	[Action:GetGSTModules 14/1082,1]	[Remarks:Successful filter row count: 7]
[Date: 2015-11-16 13:31:06]	[UserID:14/1082]	[IP:10.10.11.1]	[Browser:Chrome - 46.0.2490.86]	[Action:Closing mssql connection]	[Remarks:Success]
[Date: 2015-11-16 13:38:11]	[UserID:14/1082]	[IP:10.10.11.1]	[Browser:Chrome - 46.0.2490.86]	[Action:Making connection to server]	[Remarks:Successful connection to server: S3]
[Date: 2015-11-16 13:38:11]	[UserID:14/1082]	[IP:10.10.11.1]	[Browser:Chrome - 46.0.2490.86]	[Action:GetGSTModules 14/1082,1]	[Remarks:Successful filter row count: 7]
[Date: 2015-11-16 13:38:11]	[UserID:14/1082]	[IP:10.10.11.1]	[Browser:Chrome - 46.0.2490.86]	[Action:Closing mssql connection]	[Remarks:Success]
[Date: 2015-11-16 13:45:07]	[UserID:14/1082]	[IP:10.10.11.1]	[Browser:Chrome - 46.0.2490.86]	[Action:Making connection to server]	[Remarks:Successful connection to server: S3]
[Date: 2015-11-16 13:45:09]	[UserID:14/1082]	[IP:10.10.11.1]	[Browser:Chrome - 46.0.2490.86]	[Action:GetGSTModules 14/1082,1]	[Remarks:Successful filter row count: 7]
[Date: 2015-11-16 13:45:09]	[UserID:14/1082]	[IP:10.10.11.1]	[Browser:Chrome - 46.0.2490.86]	[Action:Closing mssql connection]	[Remarks:Success]
[Date: 2015-11-16 14:06:42]	[UserID:14/1082]	[IP:10.10.11.1]	[Browser:Chrome - 46.0.2490.86]	[Action:Making connection to server]	[Remarks:Successful connection to server: S3]
[Date: 2015-11-16 14:06:42]	[UserID:14/1082]	[IP:10.10.11.1]	[Browser:Chrome - 46.0.2490.86]	[Action:GetGSTModules 14/1082,1]	[Remarks:Successful filter row count: 7]
[Date: 2015-11-16 14:06:42]	[UserID:14/1082]	[IP:10.10.11.1]	[Browser:Chrome - 46.0.2490.86]	[Action:Closing mssql connection]	[Remarks:Success]
[Date: 2015-11-16 14:13:15]	[UserID:14/1082]	[IP:10.10.11.1]	[Browser:Chrome - 46.0.2490.86]	[Action:Making connection to server]	[Remarks:Successful connection to server: S3]
[Date: 2015-11-16 14:13:15]	[UserID:14/1082]	[IP:10.10.11.1]	[Browser:Chrome - 46.0.2490.86]	[Action:GetGSTModules 14/1082,1]	[Remarks:Successful filter row count: 7]
[Date: 2015-11-16 14:13:15]	[UserID:14/1082]	[IP:10.10.11.1]	[Browser:Chrome - 46.0.2490.86]	[Action:Closing mssql connection]	[Remarks:Success]
[Date: 2015-11-16 14:17:48]	[UserID:14/1082]	[IP:10.10.11.1]	[Browser:Chrome - 46.0.2490.86]	[Action:Making connection to server]	[Remarks:Successful connection to server: S3]
[Date: 2015-11-16 14:18:20]	[UserID:14/1082]	[IP:10.10.11.1]	[Browser:Chrome - 46.0.2490.86]	[Action:GetGSTModules 14/1082,1]	[Remarks:Successful filter row count: 7]
[Date: 2015-11-16 14:18:20]	[UserID:14/1082]	[IP:10.10.11.1]	[Browser:Chrome - 46.0.2490.86]	[Action:Closing mssql connection]	[Remarks:Success]
[Date: 2015-11-16 14:18:50]	[UserID:06/371]	[IP:10.10.11.1]	[Browser:Chrome - 46.0.2490.86]	[Action:Making connection to server]	[Remarks:Successful connection to server: S3]
[Date: 2015-11-16 14:18:50]	[UserID:06/371]	[IP:10.10.11.1]	[Browser:Chrome - 46.0.2490.86]	[Action:GetProgramList 06/371]	[Remarks:[{"ID":"1","ProgramIndex":"GST","ProgramName":"GST"}]]
[Date: 2015-11-16 14:18:50]	[UserID:06/371]	[IP:10.10.11.1]	[Browser:Chrome - 46.0.2490.86]	[Action:Making connection to server]	[Remarks:Successful connection to server: S3]
[Date: 2015-11-16 14:18:50]	[UserID:06/371]	[IP:10.10.11.1]	[Browser:Chrome - 46.0.2490.86]	[Action:GetProgramList 06/371]	[Remarks:[{"ID":"1","ProgramIndex":"GST","ProgramName":"GST"}]]
[Date: 2015-11-16 14:18:50]	[UserID:06/371]	[IP:10.10.11.1]	[Browser:Chrome - 46.0.2490.86]	[Action:Making connection to server]	[Remarks:Successful connection to server: S3]
[Date: 2015-11-16 14:18:50]	[UserID:06/371]	[IP:10.10.11.1]	[Browser:Chrome - 46.0.2490.86]	[Action:Filtering User : MasterData Username : 06/371]	[Remarks:Successful filter row count: 1]
[Date: 2015-11-16 14:18:51]	[UserID:06/371]	[IP:10.10.11.1]	[Browser:Chrome - 46.0.2490.86]	[Action:Making connection to server]	[Remarks:Successful connection to server: S3]
[Date: 2015-11-16 14:18:51]	[UserID:06/371]	[IP:10.10.11.1]	[Browser:Chrome - 46.0.2490.86]	[Action:GetGSTModules 06/371,1]	[Remarks:Successful filter row count: 5]
[Date: 2015-11-16 14:18:51]	[UserID:06/371]	[IP:10.10.11.1]	[Browser:Chrome - 46.0.2490.86]	[Action:Closing mssql connection]	[Remarks:Success]
[Date: 2015-11-16 14:21:17]	[UserID:06/371]	[IP:10.10.11.1]	[Browser:Chrome - 46.0.2490.86]	[Action:Making connection to server]	[Remarks:Successful connection to server: S3]
[Date: 2015-11-16 14:21:17]	[UserID:06/371]	[IP:10.10.11.1]	[Browser:Chrome - 46.0.2490.86]	[Action:GetGSTModules 06/371,1]	[Remarks:Successful filter row count: 5]
[Date: 2015-11-16 14:21:17]	[UserID:06/371]	[IP:10.10.11.1]	[Browser:Chrome - 46.0.2490.86]	[Action:Closing mssql connection]	[Remarks:Success]
[Date: 2015-11-16 14:27:41]	[UserID:eieikhin]	[IP:10.10.11.1]	[Browser:Chrome - 46.0.2490.86]	[Action:Making connection to server]	[Remarks:Successful connection to server: S3]
[Date: 2015-11-16 14:27:41]	[UserID:eieikhin]	[IP:10.10.11.1]	[Browser:Chrome - 46.0.2490.86]	[Action:GetGSTModules eieikhin,1]	[Remarks:Successful filter row count: 7]
[Date: 2015-11-16 14:27:41]	[UserID:eieikhin]	[IP:10.10.11.1]	[Browser:Chrome - 46.0.2490.86]	[Action:Closing mssql connection]	[Remarks:Success]
[Date: 2015-11-16 14:33:24]	[UserID:]	[IP:10.10.11.1]	[Browser:Chrome - 46.0.2490.86]	[Action:Making connection to server]	[Remarks:Successful connection to server: S3]
[Date: 2015-11-16 14:33:25]	[UserID:]	[IP:10.10.11.1]	[Browser:Chrome - 46.0.2490.86]	[Action:GetProgramList ]	[Remarks:"no data"]
[Date: 2015-11-16 14:38:01]	[UserID:06/371]	[IP:10.10.11.1]	[Browser:Chrome - 46.0.2490.86]	[Action:Making connection to server]	[Remarks:Successful connection to server: S3]
[Date: 2015-11-16 14:38:01]	[UserID:06/371]	[IP:10.10.11.1]	[Browser:Chrome - 46.0.2490.86]	[Action:GetProgramList 06/371]	[Remarks:[{"ID":"1","ProgramIndex":"GST","ProgramName":"GST"}]]
[Date: 2015-11-16 14:38:01]	[UserID:06/371]	[IP:10.10.11.1]	[Browser:Chrome - 46.0.2490.86]	[Action:Making connection to server]	[Remarks:Successful connection to server: S3]
[Date: 2015-11-16 14:38:01]	[UserID:06/371]	[IP:10.10.11.1]	[Browser:Chrome - 46.0.2490.86]	[Action:GetProgramList 06/371]	[Remarks:[{"ID":"1","ProgramIndex":"GST","ProgramName":"GST"}]]
[Date: 2015-11-16 14:38:01]	[UserID:06/371]	[IP:10.10.11.1]	[Browser:Chrome - 46.0.2490.86]	[Action:Making connection to server]	[Remarks:Successful connection to server: S3]
[Date: 2015-11-16 14:38:01]	[UserID:06/371]	[IP:10.10.11.1]	[Browser:Chrome - 46.0.2490.86]	[Action:Filtering User : MasterData Username : 06/371]	[Remarks:Successful filter row count: 1]
[Date: 2015-11-16 14:38:02]	[UserID:06/371]	[IP:10.10.11.1]	[Browser:Chrome - 46.0.2490.86]	[Action:Making connection to server]	[Remarks:Successful connection to server: S3]
[Date: 2015-11-16 14:38:02]	[UserID:06/371]	[IP:10.10.11.1]	[Browser:Chrome - 46.0.2490.86]	[Action:GetGSTModules 06/371,1]	[Remarks:Successful filter row count: 5]
[Date: 2015-11-16 14:38:02]	[UserID:06/371]	[IP:10.10.11.1]	[Browser:Chrome - 46.0.2490.86]	[Action:Closing mssql connection]	[Remarks:Success]
[Date: 2015-11-16 14:39:36]	[UserID:06/371]	[IP:10.10.11.1]	[Browser:Chrome - 46.0.2490.86]	[Action:Making connection to server]	[Remarks:Successful connection to server: S3]
[Date: 2015-11-16 14:39:36]	[UserID:06/371]	[IP:10.10.11.1]	[Browser:Chrome - 46.0.2490.86]	[Action:GetGSTModules 06/371,1]	[Remarks:Successful filter row count: 5]
[Date: 2015-11-16 14:39:36]	[UserID:06/371]	[IP:10.10.11.1]	[Browser:Chrome - 46.0.2490.86]	[Action:Closing mssql connection]	[Remarks:Success]
[Date: 2015-11-16 14:40:04]	[UserID:eieikhin]	[IP:10.10.11.1]	[Browser:Chrome - 46.0.2490.86]	[Action:Making connection to server]	[Remarks:Successful connection to server: S3]
[Date: 2015-11-16 14:40:04]	[UserID:eieikhin]	[IP:10.10.11.1]	[Browser:Chrome - 46.0.2490.86]	[Action:GetGSTModules eieikhin,1]	[Remarks:Successful filter row count: 7]
[Date: 2015-11-16 14:40:04]	[UserID:eieikhin]	[IP:10.10.11.1]	[Browser:Chrome - 46.0.2490.86]	[Action:Closing mssql connection]	[Remarks:Success]
[Date: 2015-11-16 14:48:10]	[UserID:eieikhin]	[IP:10.10.11.1]	[Browser:Chrome - 46.0.2490.86]	[Action:Making connection to server]	[Remarks:Successful connection to server: S3]
[Date: 2015-11-16 14:48:10]	[UserID:eieikhin]	[IP:10.10.11.1]	[Browser:Chrome - 46.0.2490.86]	[Action:GetProgramList eieikhin]	[Remarks:[{"ID":"1","ProgramIndex":"GST","ProgramName":"GST"},{"ID":"3","ProgramIndex":"PRD","ProgramName":"PRD"}]]
[Date: 2015-11-16 14:48:10]	[UserID:eieikhin]	[IP:10.10.11.1]	[Browser:Chrome - 46.0.2490.86]	[Action:Making connection to server]	[Remarks:Successful connection to server: S3]
[Date: 2015-11-16 14:48:10]	[UserID:eieikhin]	[IP:10.10.11.1]	[Browser:Chrome - 46.0.2490.86]	[Action:GetProgramList eieikhin]	[Remarks:[{"ID":"1","ProgramIndex":"GST","ProgramName":"GST"},{"ID":"3","ProgramIndex":"PRD","ProgramName":"PRD"}]]
[Date: 2015-11-16 14:48:10]	[UserID:eieikhin]	[IP:10.10.11.1]	[Browser:Chrome - 46.0.2490.86]	[Action:Making connection to server]	[Remarks:Successful connection to server: S3]
[Date: 2015-11-16 14:48:10]	[UserID:eieikhin]	[IP:10.10.11.1]	[Browser:Chrome - 46.0.2490.86]	[Action:Filtering User : MasterData Username : eieikhin]	[Remarks:Successful filter row count: 1]
[Date: 2015-11-16 14:48:12]	[UserID:eieikhin]	[IP:10.10.11.1]	[Browser:Chrome - 46.0.2490.86]	[Action:Making connection to server]	[Remarks:Successful connection to server: S3]
[Date: 2015-11-16 14:48:12]	[UserID:eieikhin]	[IP:10.10.11.1]	[Browser:Chrome - 46.0.2490.86]	[Action:GetGSTModules eieikhin,1]	[Remarks:Successful filter row count: 7]
[Date: 2015-11-16 14:48:12]	[UserID:eieikhin]	[IP:10.10.11.1]	[Browser:Chrome - 46.0.2490.86]	[Action:Closing mssql connection]	[Remarks:Success]
[Date: 2015-11-16 14:53:47]	[UserID:06/371]	[IP:10.10.11.1]	[Browser:Chrome - 46.0.2490.86]	[Action:Making connection to server]	[Remarks:Successful connection to server: S3]
[Date: 2015-11-16 14:53:47]	[UserID:06/371]	[IP:10.10.11.1]	[Browser:Chrome - 46.0.2490.86]	[Action:GetProgramList 06/371]	[Remarks:[{"ID":"1","ProgramIndex":"GST","ProgramName":"GST"}]]
[Date: 2015-11-16 14:53:47]	[UserID:06/371]	[IP:10.10.11.1]	[Browser:Chrome - 46.0.2490.86]	[Action:Making connection to server]	[Remarks:Successful connection to server: S3]
[Date: 2015-11-16 14:53:47]	[UserID:06/371]	[IP:10.10.11.1]	[Browser:Chrome - 46.0.2490.86]	[Action:GetProgramList 06/371]	[Remarks:[{"ID":"1","ProgramIndex":"GST","ProgramName":"GST"}]]
[Date: 2015-11-16 14:53:47]	[UserID:06/371]	[IP:10.10.11.1]	[Browser:Chrome - 46.0.2490.86]	[Action:Making connection to server]	[Remarks:Successful connection to server: S3]
[Date: 2015-11-16 14:53:47]	[UserID:06/371]	[IP:10.10.11.1]	[Browser:Chrome - 46.0.2490.86]	[Action:Filtering User : MasterData Username : 06/371]	[Remarks:Successful filter row count: 1]
[Date: 2015-11-16 14:53:48]	[UserID:06/371]	[IP:10.10.11.1]	[Browser:Chrome - 46.0.2490.86]	[Action:Making connection to server]	[Remarks:Successful connection to server: S3]
[Date: 2015-11-16 14:53:48]	[UserID:06/371]	[IP:10.10.11.1]	[Browser:Chrome - 46.0.2490.86]	[Action:GetGSTModules 06/371,1]	[Remarks:Successful filter row count: 5]
[Date: 2015-11-16 14:53:48]	[UserID:06/371]	[IP:10.10.11.1]	[Browser:Chrome - 46.0.2490.86]	[Action:Closing mssql connection]	[Remarks:Success]
[Date: 2015-11-16 14:55:03]	[UserID:06/371]	[IP:10.10.11.1]	[Browser:Chrome - 46.0.2490.86]	[Action:Making connection to server]	[Remarks:Successful connection to server: S3]
[Date: 2015-11-16 14:55:03]	[UserID:06/371]	[IP:10.10.11.1]	[Browser:Chrome - 46.0.2490.86]	[Action:GetGSTModules 06/371,1]	[Remarks:Successful filter row count: 5]
[Date: 2015-11-16 14:55:03]	[UserID:06/371]	[IP:10.10.11.1]	[Browser:Chrome - 46.0.2490.86]	[Action:Closing mssql connection]	[Remarks:Success]
[Date: 2015-11-16 14:58:30]	[UserID:06/371]	[IP:10.10.11.1]	[Browser:Chrome - 46.0.2490.86]	[Action:Making connection to server]	[Remarks:Successful connection to server: S3]
[Date: 2015-11-16 14:58:30]	[UserID:06/371]	[IP:10.10.11.1]	[Browser:Chrome - 46.0.2490.86]	[Action:GetGSTModules 06/371,1]	[Remarks:Successful filter row count: 5]
[Date: 2015-11-16 14:58:30]	[UserID:06/371]	[IP:10.10.11.1]	[Browser:Chrome - 46.0.2490.86]	[Action:Closing mssql connection]	[Remarks:Success]
[Date: 2015-11-16 14:58:47]	[UserID:14/1082]	[IP:10.10.11.1]	[Browser:Chrome - 46.0.2490.86]	[Action:Making connection to server]	[Remarks:Successful connection to server: S3]
[Date: 2015-11-16 14:58:47]	[UserID:14/1082]	[IP:10.10.11.1]	[Browser:Chrome - 46.0.2490.86]	[Action:GetProgramList 14/1082]	[Remarks:[{"ID":"1","ProgramIndex":"GST","ProgramName":"GST"}]]
[Date: 2015-11-16 14:58:47]	[UserID:14/1082]	[IP:10.10.11.1]	[Browser:Chrome - 46.0.2490.86]	[Action:Making connection to server]	[Remarks:Successful connection to server: S3]
[Date: 2015-11-16 14:58:47]	[UserID:14/1082]	[IP:10.10.11.1]	[Browser:Chrome - 46.0.2490.86]	[Action:GetProgramList 14/1082]	[Remarks:[{"ID":"1","ProgramIndex":"GST","ProgramName":"GST"}]]
[Date: 2015-11-16 14:58:47]	[UserID:14/1082]	[IP:10.10.11.1]	[Browser:Chrome - 46.0.2490.86]	[Action:Making connection to server]	[Remarks:Successful connection to server: S3]
[Date: 2015-11-16 14:58:47]	[UserID:14/1082]	[IP:10.10.11.1]	[Browser:Chrome - 46.0.2490.86]	[Action:Filtering User : MasterData Username : 14/1082]	[Remarks:Successful filter row count: 1]
[Date: 2015-11-16 14:58:47]	[UserID:14/1082]	[IP:10.10.11.1]	[Browser:Chrome - 46.0.2490.86]	[Action:Making connection to server]	[Remarks:Successful connection to server: S3]
[Date: 2015-11-16 14:58:47]	[UserID:14/1082]	[IP:10.10.11.1]	[Browser:Chrome - 46.0.2490.86]	[Action:GetGSTModules 14/1082,1]	[Remarks:Successful filter row count: 7]
[Date: 2015-11-16 14:58:47]	[UserID:14/1082]	[IP:10.10.11.1]	[Browser:Chrome - 46.0.2490.86]	[Action:Closing mssql connection]	[Remarks:Success]
[Date: 2015-11-16 15:34:20]	[UserID:]	[IP:10.10.11.1]	[Browser:Chrome - 46.0.2490.86]	[Action:Making connection to server]	[Remarks:Successful connection to server: S3]
[Date: 2015-11-16 15:34:21]	[UserID:]	[IP:10.10.11.1]	[Browser:Chrome - 46.0.2490.86]	[Action:GetProgramList ]	[Remarks:"no data"]
[Date: 2015-11-16 15:54:50]	[UserID:14/1082]	[IP:10.10.11.1]	[Browser:Chrome - 46.0.2490.86]	[Action:Making connection to server]	[Remarks:Successful connection to server: S3]
[Date: 2015-11-16 15:54:50]	[UserID:14/1082]	[IP:10.10.11.1]	[Browser:Chrome - 46.0.2490.86]	[Action:GetGSTModules 14/1082,1]	[Remarks:Successful filter row count: 7]
[Date: 2015-11-16 15:54:50]	[UserID:14/1082]	[IP:10.10.11.1]	[Browser:Chrome - 46.0.2490.86]	[Action:Closing mssql connection]	[Remarks:Success]
[Date: 2015-11-16 15:58:27]	[UserID:14/1082]	[IP:10.10.11.1]	[Browser:Chrome - 46.0.2490.86]	[Action:Making connection to server]	[Remarks:Successful connection to server: S3]
[Date: 2015-11-16 15:58:27]	[UserID:14/1082]	[IP:10.10.11.1]	[Browser:Chrome - 46.0.2490.86]	[Action:GetGSTModules 14/1082,1]	[Remarks:Successful filter row count: 7]
[Date: 2015-11-16 15:58:27]	[UserID:14/1082]	[IP:10.10.11.1]	[Browser:Chrome - 46.0.2490.86]	[Action:Closing mssql connection]	[Remarks:Success]
[Date: 2015-11-16 16:00:50]	[UserID:14/1082]	[IP:10.10.11.1]	[Browser:Chrome - 46.0.2490.86]	[Action:Making connection to server]	[Remarks:Successful connection to server: S3]
[Date: 2015-11-16 16:00:50]	[UserID:14/1082]	[IP:10.10.11.1]	[Browser:Chrome - 46.0.2490.86]	[Action:GetGSTModules 14/1082,1]	[Remarks:Successful filter row count: 7]
[Date: 2015-11-16 16:00:50]	[UserID:14/1082]	[IP:10.10.11.1]	[Browser:Chrome - 46.0.2490.86]	[Action:Closing mssql connection]	[Remarks:Success]
[Date: 2015-11-16 16:05:12]	[UserID:14/1082]	[IP:10.10.11.1]	[Browser:Chrome - 46.0.2490.86]	[Action:Making connection to server]	[Remarks:Successful connection to server: S3]
[Date: 2015-11-16 16:05:13]	[UserID:14/1082]	[IP:10.10.11.1]	[Browser:Chrome - 46.0.2490.86]	[Action:GetGSTModules 14/1082,1]	[Remarks:Successful filter row count: 7]
[Date: 2015-11-16 16:05:13]	[UserID:14/1082]	[IP:10.10.11.1]	[Browser:Chrome - 46.0.2490.86]	[Action:Closing mssql connection]	[Remarks:Success]
[Date: 2015-11-16 18:05:50]	[UserID:]	[IP:10.10.11.1]	[Browser:Chrome - 46.0.2490.86]	[Action:Making connection to server]	[Remarks:Successful connection to server: S3]
[Date: 2015-11-16 18:05:50]	[UserID:]	[IP:10.10.11.1]	[Browser:Chrome - 46.0.2490.86]	[Action:GetProgramList ]	[Remarks:"no data"]
