[Date: 2020-08-17 08:07:39]	[UserID:]	[IP:10.128.130.5]	[Browser:Chrome - 84.0.4147.125]	[Action:Making connection to server]	[Remarks:Successful connection to server: S3]
[Date: 2020-08-17 08:07:40]	[UserID:]	[IP:10.128.130.5]	[Browser:Chrome - 84.0.4147.125]	[Action:GetProgramList ]	[Remarks:"no data"]
[Date: 2020-08-17 08:14:26]	[UserID:]	[IP:10.128.130.5]	[Browser:Chrome - 84.0.4147.125]	[Action:Making connection to server]	[Remarks:Successful connection to server: S3]
[Date: 2020-08-17 08:14:26]	[UserID:]	[IP:10.128.130.5]	[Browser:Chrome - 84.0.4147.125]	[Action:GetProgramList ]	[Remarks:"no data"]
[Date: 2020-08-17 08:47:56]	[UserID:]	[IP:10.128.130.5]	[Browser:Chrome - 84.0.4147.125]	[Action:Making connection to server]	[Remarks:Successful connection to server: S3]
[Date: 2020-08-17 08:47:56]	[UserID:]	[IP:10.128.130.5]	[Browser:Chrome - 84.0.4147.125]	[Action:GetProgramList ]	[Remarks:"no data"]
[Date: 2020-08-17 11:04:02]	[UserID:]	[IP:10.128.12.115]	[Browser:Chrome - 84.0.4147.125]	[Action:Making connection to server]	[Remarks:Successful connection to server: S3]
[Date: 2020-08-17 11:04:02]	[UserID:]	[IP:10.128.12.115]	[Browser:Chrome - 84.0.4147.125]	[Action:GetProgramList ]	[Remarks:"no data"]
[Date: 2020-08-17 11:04:06]	[UserID:17/1248]	[IP:10.128.12.115]	[Browser:Chrome - 84.0.4147.125]	[Action:Making connection to server]	[Remarks:Successful connection to server: S3]
[Date: 2020-08-17 11:04:06]	[UserID:17/1248]	[IP:10.128.12.115]	[Browser:Chrome - 84.0.4147.125]	[Action:User 17/1248]	[Remarks:Success]
[Date: 2020-08-17 11:04:06]	[UserID:17/1248]	[IP:10.128.12.115]	[Browser:Chrome - 84.0.4147.125]	[Action:Filtering User : MasterData Username : 17/1248]	[Remarks:Successful filter row count: 0]
[Date: 2020-08-17 11:04:06]	[UserID:17/1248]	[IP:10.128.12.115]	[Browser:Chrome - 84.0.4147.125]	[Action:Filtering User : MasterData Username : 17/1248]	[Remarks:Successful filter row count: 0]
[Date: 2020-08-17 11:04:06]	[UserID:17/1248]	[IP:10.128.12.115]	[Browser:Chrome - 84.0.4147.125]	[Action:Filtering User : MasterData Username : 17/1248]	[Remarks:Success]
[Date: 2020-08-17 11:04:06]	[UserID:17/1248]	[IP:10.128.12.115]	[Browser:Chrome - 84.0.4147.125]	[Action:Closing mssql connection]	[Remarks:Success]
[Date: 2020-08-17 11:04:07]	[UserID:17/1248]	[IP:10.128.12.115]	[Browser:Chrome - 84.0.4147.125]	[Action:Making connection to server]	[Remarks:Successful connection to server: S3]
[Date: 2020-08-17 11:04:07]	[UserID:17/1248]	[IP:10.128.12.115]	[Browser:Chrome - 84.0.4147.125]	[Action:GetProgramList 17/1248]	[Remarks:[{"ID":"1","ProgramIndex":"GST","ProgramName":"GST"}]]
[Date: 2020-08-17 11:04:07]	[UserID:17/1248]	[IP:10.128.12.115]	[Browser:Chrome - 84.0.4147.125]	[Action:Making connection to server]	[Remarks:Successful connection to server: S3]
[Date: 2020-08-17 11:04:07]	[UserID:17/1248]	[IP:10.128.12.115]	[Browser:Chrome - 84.0.4147.125]	[Action:GetProgramList 17/1248]	[Remarks:[{"ID":"1","ProgramIndex":"GST","ProgramName":"GST"}]]
[Date: 2020-08-17 11:04:07]	[UserID:17/1248]	[IP:10.128.12.115]	[Browser:Chrome - 84.0.4147.125]	[Action:Making connection to server]	[Remarks:Successful connection to server: S3]
[Date: 2020-08-17 11:04:07]	[UserID:17/1248]	[IP:10.128.12.115]	[Browser:Chrome - 84.0.4147.125]	[Action:Filtering User : MasterData Username : 17/1248]	[Remarks:Successful filter row count: 1]
[Date: 2020-08-17 11:04:07]	[UserID:17/1248]	[IP:10.128.12.115]	[Browser:Chrome - 84.0.4147.125]	[Action:Making connection to server]	[Remarks:Successful connection to server: S3]
[Date: 2020-08-17 11:04:07]	[UserID:17/1248]	[IP:10.128.12.115]	[Browser:Chrome - 84.0.4147.125]	[Action:GetGSTModules 17/1248,1]	[Remarks:Successful filter row count: 6]
[Date: 2020-08-17 11:04:07]	[UserID:17/1248]	[IP:10.128.12.115]	[Browser:Chrome - 84.0.4147.125]	[Action:Closing mssql connection]	[Remarks:Success]
[Date: 2020-08-17 14:30:50]	[UserID:]	[IP:10.128.130.5]	[Browser:Chrome - 84.0.4147.125]	[Action:Making connection to server]	[Remarks:Successful connection to server: S3]
[Date: 2020-08-17 14:30:50]	[UserID:]	[IP:10.128.130.5]	[Browser:Chrome - 84.0.4147.125]	[Action:GetProgramList ]	[Remarks:"no data"]
[Date: 2020-08-17 14:31:06]	[UserID:17/1257]	[IP:10.128.130.5]	[Browser:Chrome - 84.0.4147.125]	[Action:Making connection to server]	[Remarks:Successful connection to server: S3]
[Date: 2020-08-17 14:31:06]	[UserID:17/1257]	[IP:10.128.130.5]	[Browser:Chrome - 84.0.4147.125]	[Action:LogMeIn 17/1257,Omni@2020]	[Remarks:Failed]
[Date: 2020-08-17 14:31:06]	[UserID:17/1257]	[IP:10.128.130.5]	[Browser:Chrome - 84.0.4147.125]	[Action:Closing mssql connection]	[Remarks:Success]
[Date: 2020-08-17 14:31:24]	[UserID:17/1257]	[IP:10.128.130.5]	[Browser:Chrome - 84.0.4147.125]	[Action:Making connection to server]	[Remarks:Successful connection to server: S3]
[Date: 2020-08-17 14:31:24]	[UserID:17/1257]	[IP:10.128.130.5]	[Browser:Chrome - 84.0.4147.125]	[Action:User 17/1257]	[Remarks:Success]
[Date: 2020-08-17 14:31:24]	[UserID:17/1257]	[IP:10.128.130.5]	[Browser:Chrome - 84.0.4147.125]	[Action:Filtering User : MasterData Username : 17/1257]	[Remarks:Successful filter row count: 0]
[Date: 2020-08-17 14:31:24]	[UserID:17/1257]	[IP:10.128.130.5]	[Browser:Chrome - 84.0.4147.125]	[Action:Filtering User : MasterData Username : 17/1257]	[Remarks:Successful filter row count: 0]
[Date: 2020-08-17 14:31:24]	[UserID:17/1257]	[IP:10.128.130.5]	[Browser:Chrome - 84.0.4147.125]	[Action:Filtering User : MasterData Username : 17/1257]	[Remarks:Success]
[Date: 2020-08-17 14:31:24]	[UserID:17/1257]	[IP:10.128.130.5]	[Browser:Chrome - 84.0.4147.125]	[Action:Closing mssql connection]	[Remarks:Success]
[Date: 2020-08-17 14:31:56]	[UserID:17/1257]	[IP:10.128.130.5]	[Browser:Chrome - 84.0.4147.125]	[Action:Making connection to server]	[Remarks:Successful connection to server: S3]
[Date: 2020-08-17 14:31:56]	[UserID:17/1257]	[IP:10.128.130.5]	[Browser:Chrome - 84.0.4147.125]	[Action:User 17/1257]	[Remarks:Username [17/1257] exists]
[Date: 2020-08-17 14:31:56]	[UserID:17/1257]	[IP:10.128.130.5]	[Browser:Chrome - 84.0.4147.125]	[Action:User 17/1257]	[Remarks:Successful filter row count.0]
[Date: 2020-08-17 14:31:56]	[UserID:17/1257]	[IP:10.128.130.5]	[Browser:Chrome - 84.0.4147.125]	[Action:User 17/1257]	[Remarks:Success]
[Date: 2020-08-17 14:31:56]	[UserID:17/1257]	[IP:10.128.130.5]	[Browser:Chrome - 84.0.4147.125]	[Action:Filtering User : MasterData Username : 17/1257]	[Remarks:Successful filter row count: 0]
[Date: 2020-08-17 14:31:56]	[UserID:17/1257]	[IP:10.128.130.5]	[Browser:Chrome - 84.0.4147.125]	[Action:Filtering User : MasterData Username : 17/1257]	[Remarks:Successful filter row count: 0]
[Date: 2020-08-17 14:31:56]	[UserID:17/1257]	[IP:10.128.130.5]	[Browser:Chrome - 84.0.4147.125]	[Action:Filtering User : MasterData Username : 17/1257]	[Remarks:Success]
[Date: 2020-08-17 14:31:57]	[UserID:17/1257]	[IP:10.128.130.5]	[Browser:Chrome - 84.0.4147.125]	[Action:Sending Message. To:eleong@omnilogistics.com, from: sg-alert@jsilogistics.com]	[Remarks:Successful filter row count: 1]
[Date: 2020-08-17 14:31:57]	[UserID:17/1257]	[IP:10.128.130.5]	[Browser:Chrome - 84.0.4147.125]	[Action:Closing mssql connection]	[Remarks:Success]
[Date: 2020-08-17 14:31:58]	[UserID:]	[IP:10.128.130.5]	[Browser:Chrome - 84.0.4147.125]	[Action:Making connection to server]	[Remarks:Successful connection to server: S3]
[Date: 2020-08-17 14:31:58]	[UserID:]	[IP:10.128.130.5]	[Browser:Chrome - 84.0.4147.125]	[Action:GetProgramList ]	[Remarks:"no data"]
[Date: 2020-08-17 14:32:09]	[UserID:17/1257]	[IP:10.128.130.5]	[Browser:Chrome - 84.0.4147.125]	[Action:Making connection to server]	[Remarks:Successful connection to server: S3]
[Date: 2020-08-17 14:32:09]	[UserID:17/1257]	[IP:10.128.130.5]	[Browser:Chrome - 84.0.4147.125]	[Action:User 17/1257]	[Remarks:Success]
[Date: 2020-08-17 14:32:09]	[UserID:17/1257]	[IP:10.128.130.5]	[Browser:Chrome - 84.0.4147.125]	[Action:Filtering User : MasterData Username : 17/1257]	[Remarks:Successful filter row count: 0]
[Date: 2020-08-17 14:32:09]	[UserID:17/1257]	[IP:10.128.130.5]	[Browser:Chrome - 84.0.4147.125]	[Action:Filtering User : MasterData Username : 17/1257]	[Remarks:Successful filter row count: 0]
[Date: 2020-08-17 14:32:09]	[UserID:17/1257]	[IP:10.128.130.5]	[Browser:Chrome - 84.0.4147.125]	[Action:Filtering User : MasterData Username : 17/1257]	[Remarks:Success]
[Date: 2020-08-17 14:32:09]	[UserID:17/1257]	[IP:10.128.130.5]	[Browser:Chrome - 84.0.4147.125]	[Action:Closing mssql connection]	[Remarks:Success]
[Date: 2020-08-17 14:32:09]	[UserID:17/1257]	[IP:10.128.130.5]	[Browser:Chrome - 84.0.4147.125]	[Action:Making connection to server]	[Remarks:Successful connection to server: S3]
[Date: 2020-08-17 14:32:09]	[UserID:17/1257]	[IP:10.128.130.5]	[Browser:Chrome - 84.0.4147.125]	[Action:GetProgramList 17/1257]	[Remarks:[{"ID":"1","ProgramIndex":"GST","ProgramName":"GST"}]]
[Date: 2020-08-17 14:32:09]	[UserID:17/1257]	[IP:10.128.130.5]	[Browser:Chrome - 84.0.4147.125]	[Action:Making connection to server]	[Remarks:Successful connection to server: S3]
[Date: 2020-08-17 14:32:09]	[UserID:17/1257]	[IP:10.128.130.5]	[Browser:Chrome - 84.0.4147.125]	[Action:GetProgramList 17/1257]	[Remarks:[{"ID":"1","ProgramIndex":"GST","ProgramName":"GST"}]]
[Date: 2020-08-17 14:32:09]	[UserID:17/1257]	[IP:10.128.130.5]	[Browser:Chrome - 84.0.4147.125]	[Action:Making connection to server]	[Remarks:Successful connection to server: S3]
[Date: 2020-08-17 14:32:09]	[UserID:17/1257]	[IP:10.128.130.5]	[Browser:Chrome - 84.0.4147.125]	[Action:Filtering User : MasterData Username : 17/1257]	[Remarks:Successful filter row count: 1]
[Date: 2020-08-17 14:32:10]	[UserID:17/1257]	[IP:10.128.130.5]	[Browser:Chrome - 84.0.4147.125]	[Action:Making connection to server]	[Remarks:Successful connection to server: S3]
[Date: 2020-08-17 14:32:10]	[UserID:17/1257]	[IP:10.128.130.5]	[Browser:Chrome - 84.0.4147.125]	[Action:GetGSTModules 17/1257,1]	[Remarks:Successful filter row count: 5]
[Date: 2020-08-17 14:32:10]	[UserID:17/1257]	[IP:10.128.130.5]	[Browser:Chrome - 84.0.4147.125]	[Action:Closing mssql connection]	[Remarks:Success]
[Date: 2020-08-17 14:36:00]	[UserID:]	[IP:10.128.130.5]	[Browser:Chrome - 84.0.4147.125]	[Action:Making connection to server]	[Remarks:Successful connection to server: S3]
[Date: 2020-08-17 14:36:00]	[UserID:]	[IP:10.128.130.5]	[Browser:Chrome - 84.0.4147.125]	[Action:GetProgramList ]	[Remarks:"no data"]
[Date: 2020-08-17 14:36:14]	[UserID:17/1257]	[IP:10.128.130.5]	[Browser:Chrome - 84.0.4147.125]	[Action:Making connection to server]	[Remarks:Successful connection to server: S3]
[Date: 2020-08-17 14:36:14]	[UserID:17/1257]	[IP:10.128.130.5]	[Browser:Chrome - 84.0.4147.125]	[Action:User 17/1257]	[Remarks:Success]
[Date: 2020-08-17 14:36:14]	[UserID:17/1257]	[IP:10.128.130.5]	[Browser:Chrome - 84.0.4147.125]	[Action:Filtering User : MasterData Username : 17/1257]	[Remarks:Successful filter row count: 0]
[Date: 2020-08-17 14:36:14]	[UserID:17/1257]	[IP:10.128.130.5]	[Browser:Chrome - 84.0.4147.125]	[Action:Filtering User : MasterData Username : 17/1257]	[Remarks:Successful filter row count: 0]
[Date: 2020-08-17 14:36:14]	[UserID:17/1257]	[IP:10.128.130.5]	[Browser:Chrome - 84.0.4147.125]	[Action:Filtering User : MasterData Username : 17/1257]	[Remarks:Success]
[Date: 2020-08-17 14:36:14]	[UserID:17/1257]	[IP:10.128.130.5]	[Browser:Chrome - 84.0.4147.125]	[Action:Closing mssql connection]	[Remarks:Success]
[Date: 2020-08-17 14:36:14]	[UserID:17/1257]	[IP:10.128.130.5]	[Browser:Chrome - 84.0.4147.125]	[Action:Making connection to server]	[Remarks:Successful connection to server: S3]
[Date: 2020-08-17 14:36:14]	[UserID:17/1257]	[IP:10.128.130.5]	[Browser:Chrome - 84.0.4147.125]	[Action:GetProgramList 17/1257]	[Remarks:[{"ID":"1","ProgramIndex":"GST","ProgramName":"GST"}]]
[Date: 2020-08-17 14:36:14]	[UserID:17/1257]	[IP:10.128.130.5]	[Browser:Chrome - 84.0.4147.125]	[Action:Making connection to server]	[Remarks:Successful connection to server: S3]
[Date: 2020-08-17 14:36:14]	[UserID:17/1257]	[IP:10.128.130.5]	[Browser:Chrome - 84.0.4147.125]	[Action:GetProgramList 17/1257]	[Remarks:[{"ID":"1","ProgramIndex":"GST","ProgramName":"GST"}]]
[Date: 2020-08-17 14:36:14]	[UserID:17/1257]	[IP:10.128.130.5]	[Browser:Chrome - 84.0.4147.125]	[Action:Making connection to server]	[Remarks:Successful connection to server: S3]
[Date: 2020-08-17 14:36:14]	[UserID:17/1257]	[IP:10.128.130.5]	[Browser:Chrome - 84.0.4147.125]	[Action:Filtering User : MasterData Username : 17/1257]	[Remarks:Successful filter row count: 1]
[Date: 2020-08-17 14:36:15]	[UserID:17/1257]	[IP:10.128.130.5]	[Browser:Chrome - 84.0.4147.125]	[Action:Making connection to server]	[Remarks:Successful connection to server: S3]
[Date: 2020-08-17 14:36:15]	[UserID:17/1257]	[IP:10.128.130.5]	[Browser:Chrome - 84.0.4147.125]	[Action:GetGSTModules 17/1257,1]	[Remarks:Successful filter row count: 5]
[Date: 2020-08-17 14:36:15]	[UserID:17/1257]	[IP:10.128.130.5]	[Browser:Chrome - 84.0.4147.125]	[Action:Closing mssql connection]	[Remarks:Success]
[Date: 2020-08-17 14:47:43]	[UserID:17/1257]	[IP:10.128.130.5]	[Browser:Chrome - 84.0.4147.125]	[Action:Making connection to server]	[Remarks:Successful connection to server: S3]
[Date: 2020-08-17 14:47:43]	[UserID:17/1257]	[IP:10.128.130.5]	[Browser:Chrome - 84.0.4147.125]	[Action:GetGSTModules 17/1257,1]	[Remarks:Successful filter row count: 5]
[Date: 2020-08-17 14:47:43]	[UserID:17/1257]	[IP:10.128.130.5]	[Browser:Chrome - 84.0.4147.125]	[Action:Closing mssql connection]	[Remarks:Success]
[Date: 2020-08-17 14:48:23]	[UserID:17/1257]	[IP:10.128.130.5]	[Browser:Chrome - 84.0.4147.125]	[Action:Making connection to server]	[Remarks:Successful connection to server: S3]
[Date: 2020-08-17 14:48:23]	[UserID:17/1257]	[IP:10.128.130.5]	[Browser:Chrome - 84.0.4147.125]	[Action:GetGSTModules 17/1257,1]	[Remarks:Successful filter row count: 5]
[Date: 2020-08-17 14:48:23]	[UserID:17/1257]	[IP:10.128.130.5]	[Browser:Chrome - 84.0.4147.125]	[Action:Closing mssql connection]	[Remarks:Success]
[Date: 2020-08-17 14:49:59]	[UserID:17/1257]	[IP:10.128.130.5]	[Browser:Chrome - 84.0.4147.125]	[Action:Making connection to server]	[Remarks:Successful connection to server: S3]
[Date: 2020-08-17 14:49:59]	[UserID:17/1257]	[IP:10.128.130.5]	[Browser:Chrome - 84.0.4147.125]	[Action:GetGSTModules 17/1257,1]	[Remarks:Successful filter row count: 5]
[Date: 2020-08-17 14:49:59]	[UserID:17/1257]	[IP:10.128.130.5]	[Browser:Chrome - 84.0.4147.125]	[Action:Closing mssql connection]	[Remarks:Success]
[Date: 2020-08-17 14:57:57]	[UserID:17/1257]	[IP:10.128.130.5]	[Browser:Chrome - 84.0.4147.125]	[Action:Making connection to server]	[Remarks:Successful connection to server: S3]
[Date: 2020-08-17 14:57:57]	[UserID:17/1257]	[IP:10.128.130.5]	[Browser:Chrome - 84.0.4147.125]	[Action:GetGSTModules 17/1257,1]	[Remarks:Successful filter row count: 5]
[Date: 2020-08-17 14:57:57]	[UserID:17/1257]	[IP:10.128.130.5]	[Browser:Chrome - 84.0.4147.125]	[Action:Closing mssql connection]	[Remarks:Success]
[Date: 2020-08-17 15:02:59]	[UserID:17/1257]	[IP:10.128.130.5]	[Browser:Chrome - 84.0.4147.125]	[Action:Making connection to server]	[Remarks:Successful connection to server: S3]
[Date: 2020-08-17 15:02:59]	[UserID:17/1257]	[IP:10.128.130.5]	[Browser:Chrome - 84.0.4147.125]	[Action:GetGSTModules 17/1257,1]	[Remarks:Successful filter row count: 5]
[Date: 2020-08-17 15:02:59]	[UserID:17/1257]	[IP:10.128.130.5]	[Browser:Chrome - 84.0.4147.125]	[Action:Closing mssql connection]	[Remarks:Success]
[Date: 2020-08-17 15:08:35]	[UserID:17/1257]	[IP:10.128.130.5]	[Browser:Chrome - 84.0.4147.125]	[Action:Making connection to server]	[Remarks:Successful connection to server: S3]
[Date: 2020-08-17 15:08:35]	[UserID:17/1257]	[IP:10.128.130.5]	[Browser:Chrome - 84.0.4147.125]	[Action:GetGSTModules 17/1257,1]	[Remarks:Successful filter row count: 5]
[Date: 2020-08-17 15:08:35]	[UserID:17/1257]	[IP:10.128.130.5]	[Browser:Chrome - 84.0.4147.125]	[Action:Closing mssql connection]	[Remarks:Success]
[Date: 2020-08-17 15:28:41]	[UserID:17/1257]	[IP:10.128.130.5]	[Browser:Chrome - 84.0.4147.125]	[Action:Making connection to server]	[Remarks:Successful connection to server: S3]
[Date: 2020-08-17 15:28:41]	[UserID:17/1257]	[IP:10.128.130.5]	[Browser:Chrome - 84.0.4147.125]	[Action:GetProgramList 17/1257]	[Remarks:[{"ID":"1","ProgramIndex":"GST","ProgramName":"GST"}]]
[Date: 2020-08-17 15:28:41]	[UserID:17/1257]	[IP:10.128.130.5]	[Browser:Chrome - 84.0.4147.125]	[Action:Making connection to server]	[Remarks:Successful connection to server: S3]
[Date: 2020-08-17 15:28:41]	[UserID:17/1257]	[IP:10.128.130.5]	[Browser:Chrome - 84.0.4147.125]	[Action:GetProgramList 17/1257]	[Remarks:[{"ID":"1","ProgramIndex":"GST","ProgramName":"GST"}]]
[Date: 2020-08-17 15:28:41]	[UserID:17/1257]	[IP:10.128.130.5]	[Browser:Chrome - 84.0.4147.125]	[Action:Making connection to server]	[Remarks:Successful connection to server: S3]
[Date: 2020-08-17 15:28:41]	[UserID:17/1257]	[IP:10.128.130.5]	[Browser:Chrome - 84.0.4147.125]	[Action:Filtering User : MasterData Username : 17/1257]	[Remarks:Successful filter row count: 1]
[Date: 2020-08-17 15:28:42]	[UserID:17/1257]	[IP:10.128.130.5]	[Browser:Chrome - 84.0.4147.125]	[Action:Making connection to server]	[Remarks:Successful connection to server: S3]
[Date: 2020-08-17 15:28:42]	[UserID:17/1257]	[IP:10.128.130.5]	[Browser:Chrome - 84.0.4147.125]	[Action:GetGSTModules 17/1257,1]	[Remarks:Successful filter row count: 5]
[Date: 2020-08-17 15:28:42]	[UserID:17/1257]	[IP:10.128.130.5]	[Browser:Chrome - 84.0.4147.125]	[Action:Closing mssql connection]	[Remarks:Success]
[Date: 2020-08-17 16:05:06]	[UserID:17/1257]	[IP:10.128.130.5]	[Browser:Chrome - 84.0.4147.125]	[Action:Making connection to server]	[Remarks:Successful connection to server: S3]
[Date: 2020-08-17 16:05:06]	[UserID:17/1257]	[IP:10.128.130.5]	[Browser:Chrome - 84.0.4147.125]	[Action:GetGSTModules 17/1257,1]	[Remarks:Successful filter row count: 5]
[Date: 2020-08-17 16:05:06]	[UserID:17/1257]	[IP:10.128.130.5]	[Browser:Chrome - 84.0.4147.125]	[Action:Closing mssql connection]	[Remarks:Success]
[Date: 2020-08-17 16:21:14]	[UserID:]	[IP:10.128.130.5]	[Browser:Chrome - 84.0.4147.125]	[Action:Making connection to server]	[Remarks:Successful connection to server: S3]
[Date: 2020-08-17 16:21:14]	[UserID:]	[IP:10.128.130.5]	[Browser:Chrome - 84.0.4147.125]	[Action:GetProgramList ]	[Remarks:"no data"]
[Date: 2020-08-17 16:21:27]	[UserID:17/1257]	[IP:10.128.130.5]	[Browser:Chrome - 84.0.4147.125]	[Action:Making connection to server]	[Remarks:Successful connection to server: S3]
[Date: 2020-08-17 16:21:27]	[UserID:17/1257]	[IP:10.128.130.5]	[Browser:Chrome - 84.0.4147.125]	[Action:User 17/1257]	[Remarks:Success]
[Date: 2020-08-17 16:21:27]	[UserID:17/1257]	[IP:10.128.130.5]	[Browser:Chrome - 84.0.4147.125]	[Action:Filtering User : MasterData Username : 17/1257]	[Remarks:Successful filter row count: 0]
[Date: 2020-08-17 16:21:27]	[UserID:17/1257]	[IP:10.128.130.5]	[Browser:Chrome - 84.0.4147.125]	[Action:Filtering User : MasterData Username : 17/1257]	[Remarks:Successful filter row count: 0]
[Date: 2020-08-17 16:21:27]	[UserID:17/1257]	[IP:10.128.130.5]	[Browser:Chrome - 84.0.4147.125]	[Action:Filtering User : MasterData Username : 17/1257]	[Remarks:Success]
[Date: 2020-08-17 16:21:27]	[UserID:17/1257]	[IP:10.128.130.5]	[Browser:Chrome - 84.0.4147.125]	[Action:Closing mssql connection]	[Remarks:Success]
[Date: 2020-08-17 16:21:27]	[UserID:17/1257]	[IP:10.128.130.5]	[Browser:Chrome - 84.0.4147.125]	[Action:Making connection to server]	[Remarks:Successful connection to server: S3]
[Date: 2020-08-17 16:21:27]	[UserID:17/1257]	[IP:10.128.130.5]	[Browser:Chrome - 84.0.4147.125]	[Action:GetProgramList 17/1257]	[Remarks:[{"ID":"1","ProgramIndex":"GST","ProgramName":"GST"}]]
[Date: 2020-08-17 16:21:27]	[UserID:17/1257]	[IP:10.128.130.5]	[Browser:Chrome - 84.0.4147.125]	[Action:Making connection to server]	[Remarks:Successful connection to server: S3]
[Date: 2020-08-17 16:21:27]	[UserID:17/1257]	[IP:10.128.130.5]	[Browser:Chrome - 84.0.4147.125]	[Action:GetProgramList 17/1257]	[Remarks:[{"ID":"1","ProgramIndex":"GST","ProgramName":"GST"}]]
[Date: 2020-08-17 16:21:27]	[UserID:17/1257]	[IP:10.128.130.5]	[Browser:Chrome - 84.0.4147.125]	[Action:Making connection to server]	[Remarks:Successful connection to server: S3]
[Date: 2020-08-17 16:21:27]	[UserID:17/1257]	[IP:10.128.130.5]	[Browser:Chrome - 84.0.4147.125]	[Action:Filtering User : MasterData Username : 17/1257]	[Remarks:Successful filter row count: 1]
[Date: 2020-08-17 16:21:28]	[UserID:17/1257]	[IP:10.128.130.5]	[Browser:Chrome - 84.0.4147.125]	[Action:Making connection to server]	[Remarks:Successful connection to server: S3]
[Date: 2020-08-17 16:21:28]	[UserID:17/1257]	[IP:10.128.130.5]	[Browser:Chrome - 84.0.4147.125]	[Action:GetGSTModules 17/1257,1]	[Remarks:Successful filter row count: 5]
[Date: 2020-08-17 16:21:28]	[UserID:17/1257]	[IP:10.128.130.5]	[Browser:Chrome - 84.0.4147.125]	[Action:Closing mssql connection]	[Remarks:Success]
[Date: 2020-08-17 16:21:39]	[UserID:17/1257]	[IP:10.128.130.5]	[Browser:Chrome - 84.0.4147.125]	[Action:Making connection to server]	[Remarks:Successful connection to server: S3]
[Date: 2020-08-17 16:21:39]	[UserID:17/1257]	[IP:10.128.130.5]	[Browser:Chrome - 84.0.4147.125]	[Action:GetGSTModules 17/1257,1]	[Remarks:Successful filter row count: 5]
[Date: 2020-08-17 16:21:39]	[UserID:17/1257]	[IP:10.128.130.5]	[Browser:Chrome - 84.0.4147.125]	[Action:Closing mssql connection]	[Remarks:Success]
[Date: 2020-08-17 16:22:51]	[UserID:17/1257]	[IP:10.128.130.5]	[Browser:Chrome - 84.0.4147.125]	[Action:Making connection to server]	[Remarks:Successful connection to server: S3]
[Date: 2020-08-17 16:22:51]	[UserID:17/1257]	[IP:10.128.130.5]	[Browser:Chrome - 84.0.4147.125]	[Action:GetProgramList 17/1257]	[Remarks:[{"ID":"1","ProgramIndex":"GST","ProgramName":"GST"}]]
[Date: 2020-08-17 16:22:51]	[UserID:17/1257]	[IP:10.128.130.5]	[Browser:Chrome - 84.0.4147.125]	[Action:Making connection to server]	[Remarks:Successful connection to server: S3]
[Date: 2020-08-17 16:22:51]	[UserID:17/1257]	[IP:10.128.130.5]	[Browser:Chrome - 84.0.4147.125]	[Action:GetProgramList 17/1257]	[Remarks:[{"ID":"1","ProgramIndex":"GST","ProgramName":"GST"}]]
[Date: 2020-08-17 16:22:51]	[UserID:17/1257]	[IP:10.128.130.5]	[Browser:Chrome - 84.0.4147.125]	[Action:Making connection to server]	[Remarks:Successful connection to server: S3]
[Date: 2020-08-17 16:22:51]	[UserID:17/1257]	[IP:10.128.130.5]	[Browser:Chrome - 84.0.4147.125]	[Action:Filtering User : MasterData Username : 17/1257]	[Remarks:Successful filter row count: 1]
[Date: 2020-08-17 16:22:52]	[UserID:17/1257]	[IP:10.128.130.5]	[Browser:Chrome - 84.0.4147.125]	[Action:Making connection to server]	[Remarks:Successful connection to server: S3]
[Date: 2020-08-17 16:22:52]	[UserID:17/1257]	[IP:10.128.130.5]	[Browser:Chrome - 84.0.4147.125]	[Action:GetGSTModules 17/1257,1]	[Remarks:Successful filter row count: 5]
[Date: 2020-08-17 16:22:52]	[UserID:17/1257]	[IP:10.128.130.5]	[Browser:Chrome - 84.0.4147.125]	[Action:Closing mssql connection]	[Remarks:Success]
[Date: 2020-08-17 16:23:31]	[UserID:17/1257]	[IP:10.128.130.5]	[Browser:Chrome - 84.0.4147.125]	[Action:Making connection to server]	[Remarks:Successful connection to server: S3]
[Date: 2020-08-17 16:23:31]	[UserID:17/1257]	[IP:10.128.130.5]	[Browser:Chrome - 84.0.4147.125]	[Action:GetGSTModules 17/1257,1]	[Remarks:Successful filter row count: 5]
[Date: 2020-08-17 16:23:31]	[UserID:17/1257]	[IP:10.128.130.5]	[Browser:Chrome - 84.0.4147.125]	[Action:Closing mssql connection]	[Remarks:Success]
[Date: 2020-08-17 16:23:44]	[UserID:17/1257]	[IP:10.128.130.5]	[Browser:Chrome - 84.0.4147.125]	[Action:Making connection to server]	[Remarks:Successful connection to server: S3]
[Date: 2020-08-17 16:23:44]	[UserID:17/1257]	[IP:10.128.130.5]	[Browser:Chrome - 84.0.4147.125]	[Action:GetGSTModules 17/1257,1]	[Remarks:Successful filter row count: 5]
[Date: 2020-08-17 16:23:44]	[UserID:17/1257]	[IP:10.128.130.5]	[Browser:Chrome - 84.0.4147.125]	[Action:Closing mssql connection]	[Remarks:Success]
[Date: 2020-08-17 16:24:58]	[UserID:17/1257]	[IP:10.128.130.5]	[Browser:Chrome - 84.0.4147.125]	[Action:Making connection to server]	[Remarks:Successful connection to server: S3]
[Date: 2020-08-17 16:24:58]	[UserID:17/1257]	[IP:10.128.130.5]	[Browser:Chrome - 84.0.4147.125]	[Action:GetProgramList 17/1257]	[Remarks:[{"ID":"1","ProgramIndex":"GST","ProgramName":"GST"}]]
[Date: 2020-08-17 16:24:58]	[UserID:17/1257]	[IP:10.128.130.5]	[Browser:Chrome - 84.0.4147.125]	[Action:Making connection to server]	[Remarks:Successful connection to server: S3]
[Date: 2020-08-17 16:24:58]	[UserID:17/1257]	[IP:10.128.130.5]	[Browser:Chrome - 84.0.4147.125]	[Action:GetProgramList 17/1257]	[Remarks:[{"ID":"1","ProgramIndex":"GST","ProgramName":"GST"}]]
[Date: 2020-08-17 16:24:58]	[UserID:17/1257]	[IP:10.128.130.5]	[Browser:Chrome - 84.0.4147.125]	[Action:Making connection to server]	[Remarks:Successful connection to server: S3]
[Date: 2020-08-17 16:24:58]	[UserID:17/1257]	[IP:10.128.130.5]	[Browser:Chrome - 84.0.4147.125]	[Action:Filtering User : MasterData Username : 17/1257]	[Remarks:Successful filter row count: 1]
[Date: 2020-08-17 16:25:00]	[UserID:17/1257]	[IP:10.128.130.5]	[Browser:Chrome - 84.0.4147.125]	[Action:Making connection to server]	[Remarks:Successful connection to server: S3]
[Date: 2020-08-17 16:25:00]	[UserID:17/1257]	[IP:10.128.130.5]	[Browser:Chrome - 84.0.4147.125]	[Action:GetGSTModules 17/1257,1]	[Remarks:Successful filter row count: 5]
[Date: 2020-08-17 16:25:00]	[UserID:17/1257]	[IP:10.128.130.5]	[Browser:Chrome - 84.0.4147.125]	[Action:Closing mssql connection]	[Remarks:Success]
[Date: 2020-08-17 16:26:19]	[UserID:17/1257]	[IP:10.128.130.5]	[Browser:Chrome - 84.0.4147.125]	[Action:Making connection to server]	[Remarks:Successful connection to server: S3]
[Date: 2020-08-17 16:26:19]	[UserID:17/1257]	[IP:10.128.130.5]	[Browser:Chrome - 84.0.4147.125]	[Action:GetGSTModules 17/1257,1]	[Remarks:Successful filter row count: 5]
[Date: 2020-08-17 16:26:19]	[UserID:17/1257]	[IP:10.128.130.5]	[Browser:Chrome - 84.0.4147.125]	[Action:Closing mssql connection]	[Remarks:Success]
[Date: 2020-08-17 16:27:58]	[UserID:17/1257]	[IP:10.128.130.5]	[Browser:Chrome - 84.0.4147.125]	[Action:Making connection to server]	[Remarks:Successful connection to server: S3]
[Date: 2020-08-17 16:27:58]	[UserID:17/1257]	[IP:10.128.130.5]	[Browser:Chrome - 84.0.4147.125]	[Action:GetGSTModules 17/1257,1]	[Remarks:Successful filter row count: 5]
[Date: 2020-08-17 16:27:58]	[UserID:17/1257]	[IP:10.128.130.5]	[Browser:Chrome - 84.0.4147.125]	[Action:Closing mssql connection]	[Remarks:Success]
[Date: 2020-08-17 16:30:57]	[UserID:]	[IP:10.128.130.5]	[Browser:Chrome - 84.0.4147.125]	[Action:Making connection to server]	[Remarks:Successful connection to server: S3]
[Date: 2020-08-17 16:30:57]	[UserID:]	[IP:10.128.130.5]	[Browser:Chrome - 84.0.4147.125]	[Action:GetProgramList ]	[Remarks:"no data"]
[Date: 2020-08-17 17:19:50]	[UserID:]	[IP:10.128.12.115]	[Browser:Chrome - 84.0.4147.125]	[Action:Making connection to server]	[Remarks:Successful connection to server: S3]
[Date: 2020-08-17 17:19:50]	[UserID:]	[IP:10.128.12.115]	[Browser:Chrome - 84.0.4147.125]	[Action:GetProgramList ]	[Remarks:"no data"]
[Date: 2020-08-17 17:19:54]	[UserID:17/1248]	[IP:10.128.12.115]	[Browser:Chrome - 84.0.4147.125]	[Action:Making connection to server]	[Remarks:Successful connection to server: S3]
[Date: 2020-08-17 17:19:54]	[UserID:17/1248]	[IP:10.128.12.115]	[Browser:Chrome - 84.0.4147.125]	[Action:User 17/1248]	[Remarks:Success]
[Date: 2020-08-17 17:19:54]	[UserID:17/1248]	[IP:10.128.12.115]	[Browser:Chrome - 84.0.4147.125]	[Action:Filtering User : MasterData Username : 17/1248]	[Remarks:Successful filter row count: 0]
[Date: 2020-08-17 17:19:54]	[UserID:17/1248]	[IP:10.128.12.115]	[Browser:Chrome - 84.0.4147.125]	[Action:Filtering User : MasterData Username : 17/1248]	[Remarks:Successful filter row count: 0]
[Date: 2020-08-17 17:19:54]	[UserID:17/1248]	[IP:10.128.12.115]	[Browser:Chrome - 84.0.4147.125]	[Action:Filtering User : MasterData Username : 17/1248]	[Remarks:Success]
[Date: 2020-08-17 17:19:54]	[UserID:17/1248]	[IP:10.128.12.115]	[Browser:Chrome - 84.0.4147.125]	[Action:Closing mssql connection]	[Remarks:Success]
[Date: 2020-08-17 17:19:54]	[UserID:17/1248]	[IP:10.128.12.115]	[Browser:Chrome - 84.0.4147.125]	[Action:Making connection to server]	[Remarks:Successful connection to server: S3]
[Date: 2020-08-17 17:19:54]	[UserID:17/1248]	[IP:10.128.12.115]	[Browser:Chrome - 84.0.4147.125]	[Action:GetProgramList 17/1248]	[Remarks:[{"ID":"1","ProgramIndex":"GST","ProgramName":"GST"}]]
[Date: 2020-08-17 17:19:54]	[UserID:17/1248]	[IP:10.128.12.115]	[Browser:Chrome - 84.0.4147.125]	[Action:Making connection to server]	[Remarks:Successful connection to server: S3]
[Date: 2020-08-17 17:19:55]	[UserID:17/1248]	[IP:10.128.12.115]	[Browser:Chrome - 84.0.4147.125]	[Action:GetProgramList 17/1248]	[Remarks:[{"ID":"1","ProgramIndex":"GST","ProgramName":"GST"}]]
[Date: 2020-08-17 17:19:55]	[UserID:17/1248]	[IP:10.128.12.115]	[Browser:Chrome - 84.0.4147.125]	[Action:Making connection to server]	[Remarks:Successful connection to server: S3]
[Date: 2020-08-17 17:19:55]	[UserID:17/1248]	[IP:10.128.12.115]	[Browser:Chrome - 84.0.4147.125]	[Action:Filtering User : MasterData Username : 17/1248]	[Remarks:Successful filter row count: 1]
[Date: 2020-08-17 17:19:55]	[UserID:17/1248]	[IP:10.128.12.115]	[Browser:Chrome - 84.0.4147.125]	[Action:Making connection to server]	[Remarks:Successful connection to server: S3]
[Date: 2020-08-17 17:19:55]	[UserID:17/1248]	[IP:10.128.12.115]	[Browser:Chrome - 84.0.4147.125]	[Action:GetGSTModules 17/1248,1]	[Remarks:Successful filter row count: 6]
[Date: 2020-08-17 17:19:55]	[UserID:17/1248]	[IP:10.128.12.115]	[Browser:Chrome - 84.0.4147.125]	[Action:Closing mssql connection]	[Remarks:Success]
[Date: 2020-08-17 17:37:04]	[UserID:17/1248]	[IP:10.128.12.115]	[Browser:Chrome - 84.0.4147.125]	[Action:Making connection to server]	[Remarks:Successful connection to server: S3]
[Date: 2020-08-17 17:37:04]	[UserID:17/1248]	[IP:10.128.12.115]	[Browser:Chrome - 84.0.4147.125]	[Action:GetGSTModules 17/1248,1]	[Remarks:Successful filter row count: 6]
[Date: 2020-08-17 17:37:04]	[UserID:17/1248]	[IP:10.128.12.115]	[Browser:Chrome - 84.0.4147.125]	[Action:Closing mssql connection]	[Remarks:Success]
[Date: 2020-08-17 17:45:59]	[UserID:]	[IP:10.128.12.115]	[Browser:Chrome - 84.0.4147.125]	[Action:Making connection to server]	[Remarks:Successful connection to server: S3]
[Date: 2020-08-17 17:45:59]	[UserID:]	[IP:10.128.12.115]	[Browser:Chrome - 84.0.4147.125]	[Action:GetProgramList ]	[Remarks:"no data"]
[Date: 2020-08-17 17:50:10]	[UserID:]	[IP:10.128.12.115]	[Browser:Chrome - 84.0.4147.125]	[Action:Making connection to server]	[Remarks:Successful connection to server: S3]
[Date: 2020-08-17 17:50:10]	[UserID:]	[IP:10.128.12.115]	[Browser:Chrome - 84.0.4147.125]	[Action:GetProgramList ]	[Remarks:"no data"]
[Date: 2020-08-17 17:50:15]	[UserID:17/1248]	[IP:10.128.12.115]	[Browser:Chrome - 84.0.4147.125]	[Action:Making connection to server]	[Remarks:Successful connection to server: S3]
[Date: 2020-08-17 17:50:15]	[UserID:17/1248]	[IP:10.128.12.115]	[Browser:Chrome - 84.0.4147.125]	[Action:User 17/1248]	[Remarks:Success]
[Date: 2020-08-17 17:50:15]	[UserID:17/1248]	[IP:10.128.12.115]	[Browser:Chrome - 84.0.4147.125]	[Action:Filtering User : MasterData Username : 17/1248]	[Remarks:Successful filter row count: 0]
[Date: 2020-08-17 17:50:15]	[UserID:17/1248]	[IP:10.128.12.115]	[Browser:Chrome - 84.0.4147.125]	[Action:Filtering User : MasterData Username : 17/1248]	[Remarks:Successful filter row count: 0]
[Date: 2020-08-17 17:50:15]	[UserID:17/1248]	[IP:10.128.12.115]	[Browser:Chrome - 84.0.4147.125]	[Action:Filtering User : MasterData Username : 17/1248]	[Remarks:Success]
[Date: 2020-08-17 17:50:15]	[UserID:17/1248]	[IP:10.128.12.115]	[Browser:Chrome - 84.0.4147.125]	[Action:Closing mssql connection]	[Remarks:Success]
[Date: 2020-08-17 17:50:15]	[UserID:17/1248]	[IP:10.128.12.115]	[Browser:Chrome - 84.0.4147.125]	[Action:Making connection to server]	[Remarks:Successful connection to server: S3]
[Date: 2020-08-17 17:50:15]	[UserID:17/1248]	[IP:10.128.12.115]	[Browser:Chrome - 84.0.4147.125]	[Action:GetProgramList 17/1248]	[Remarks:[{"ID":"1","ProgramIndex":"GST","ProgramName":"GST"}]]
[Date: 2020-08-17 17:50:15]	[UserID:17/1248]	[IP:10.128.12.115]	[Browser:Chrome - 84.0.4147.125]	[Action:Making connection to server]	[Remarks:Successful connection to server: S3]
[Date: 2020-08-17 17:50:15]	[UserID:17/1248]	[IP:10.128.12.115]	[Browser:Chrome - 84.0.4147.125]	[Action:GetProgramList 17/1248]	[Remarks:[{"ID":"1","ProgramIndex":"GST","ProgramName":"GST"}]]
[Date: 2020-08-17 17:50:15]	[UserID:17/1248]	[IP:10.128.12.115]	[Browser:Chrome - 84.0.4147.125]	[Action:Making connection to server]	[Remarks:Successful connection to server: S3]
[Date: 2020-08-17 17:50:15]	[UserID:17/1248]	[IP:10.128.12.115]	[Browser:Chrome - 84.0.4147.125]	[Action:Filtering User : MasterData Username : 17/1248]	[Remarks:Successful filter row count: 1]
[Date: 2020-08-17 17:50:15]	[UserID:17/1248]	[IP:10.128.12.115]	[Browser:Chrome - 84.0.4147.125]	[Action:Making connection to server]	[Remarks:Successful connection to server: S3]
[Date: 2020-08-17 17:50:15]	[UserID:17/1248]	[IP:10.128.12.115]	[Browser:Chrome - 84.0.4147.125]	[Action:GetGSTModules 17/1248,1]	[Remarks:Successful filter row count: 6]
[Date: 2020-08-17 17:50:15]	[UserID:17/1248]	[IP:10.128.12.115]	[Browser:Chrome - 84.0.4147.125]	[Action:Closing mssql connection]	[Remarks:Success]
[Date: 2020-08-17 17:51:30]	[UserID:]	[IP:10.128.12.115]	[Browser:Chrome - 84.0.4147.125]	[Action:Making connection to server]	[Remarks:Successful connection to server: S3]
[Date: 2020-08-17 17:51:30]	[UserID:]	[IP:10.128.12.115]	[Browser:Chrome - 84.0.4147.125]	[Action:GetProgramList ]	[Remarks:"no data"]
[Date: 2020-08-17 17:51:35]	[UserID:]	[IP:10.128.12.115]	[Browser:Chrome - 84.0.4147.125]	[Action:Making connection to server]	[Remarks:Successful connection to server: S3]
[Date: 2020-08-17 17:51:35]	[UserID:]	[IP:10.128.12.115]	[Browser:Chrome - 84.0.4147.125]	[Action:GetProgramList ]	[Remarks:"no data"]
[Date: 2020-08-17 17:51:39]	[UserID:17/1248]	[IP:10.128.12.115]	[Browser:Chrome - 84.0.4147.125]	[Action:Making connection to server]	[Remarks:Successful connection to server: S3]
[Date: 2020-08-17 17:51:39]	[UserID:17/1248]	[IP:10.128.12.115]	[Browser:Chrome - 84.0.4147.125]	[Action:User 17/1248]	[Remarks:Success]
[Date: 2020-08-17 17:51:39]	[UserID:17/1248]	[IP:10.128.12.115]	[Browser:Chrome - 84.0.4147.125]	[Action:Filtering User : MasterData Username : 17/1248]	[Remarks:Successful filter row count: 0]
[Date: 2020-08-17 17:51:39]	[UserID:17/1248]	[IP:10.128.12.115]	[Browser:Chrome - 84.0.4147.125]	[Action:Filtering User : MasterData Username : 17/1248]	[Remarks:Successful filter row count: 0]
[Date: 2020-08-17 17:51:39]	[UserID:17/1248]	[IP:10.128.12.115]	[Browser:Chrome - 84.0.4147.125]	[Action:Filtering User : MasterData Username : 17/1248]	[Remarks:Success]
[Date: 2020-08-17 17:51:39]	[UserID:17/1248]	[IP:10.128.12.115]	[Browser:Chrome - 84.0.4147.125]	[Action:Closing mssql connection]	[Remarks:Success]
[Date: 2020-08-17 17:51:39]	[UserID:17/1248]	[IP:10.128.12.115]	[Browser:Chrome - 84.0.4147.125]	[Action:Making connection to server]	[Remarks:Successful connection to server: S3]
[Date: 2020-08-17 17:51:39]	[UserID:17/1248]	[IP:10.128.12.115]	[Browser:Chrome - 84.0.4147.125]	[Action:GetProgramList 17/1248]	[Remarks:[{"ID":"1","ProgramIndex":"GST","ProgramName":"GST"}]]
[Date: 2020-08-17 17:51:39]	[UserID:17/1248]	[IP:10.128.12.115]	[Browser:Chrome - 84.0.4147.125]	[Action:Making connection to server]	[Remarks:Successful connection to server: S3]
[Date: 2020-08-17 17:51:40]	[UserID:17/1248]	[IP:10.128.12.115]	[Browser:Chrome - 84.0.4147.125]	[Action:GetProgramList 17/1248]	[Remarks:[{"ID":"1","ProgramIndex":"GST","ProgramName":"GST"}]]
[Date: 2020-08-17 17:51:40]	[UserID:17/1248]	[IP:10.128.12.115]	[Browser:Chrome - 84.0.4147.125]	[Action:Making connection to server]	[Remarks:Successful connection to server: S3]
[Date: 2020-08-17 17:51:40]	[UserID:17/1248]	[IP:10.128.12.115]	[Browser:Chrome - 84.0.4147.125]	[Action:Filtering User : MasterData Username : 17/1248]	[Remarks:Successful filter row count: 1]
[Date: 2020-08-17 17:51:40]	[UserID:17/1248]	[IP:10.128.12.115]	[Browser:Chrome - 84.0.4147.125]	[Action:Making connection to server]	[Remarks:Successful connection to server: S3]
[Date: 2020-08-17 17:51:40]	[UserID:17/1248]	[IP:10.128.12.115]	[Browser:Chrome - 84.0.4147.125]	[Action:GetGSTModules 17/1248,1]	[Remarks:Successful filter row count: 6]
[Date: 2020-08-17 17:51:40]	[UserID:17/1248]	[IP:10.128.12.115]	[Browser:Chrome - 84.0.4147.125]	[Action:Closing mssql connection]	[Remarks:Success]
[Date: 2020-08-17 18:12:55]	[UserID:]	[IP:10.128.12.114]	[Browser:Chrome - 84.0.4147.125]	[Action:Making connection to server]	[Remarks:Successful connection to server: S3]
[Date: 2020-08-17 18:12:55]	[UserID:]	[IP:10.128.12.114]	[Browser:Chrome - 84.0.4147.125]	[Action:GetProgramList ]	[Remarks:"no data"]
[Date: 2020-08-17 18:13:07]	[UserID:14/1082]	[IP:10.128.12.114]	[Browser:Chrome - 84.0.4147.125]	[Action:Making connection to server]	[Remarks:Successful connection to server: S3]
[Date: 2020-08-17 18:13:07]	[UserID:14/1082]	[IP:10.128.12.114]	[Browser:Chrome - 84.0.4147.125]	[Action:User 14/1082]	[Remarks:Success]
[Date: 2020-08-17 18:13:07]	[UserID:14/1082]	[IP:10.128.12.114]	[Browser:Chrome - 84.0.4147.125]	[Action:Filtering User : MasterData Username : 14/1082]	[Remarks:Successful filter row count: 0]
[Date: 2020-08-17 18:13:07]	[UserID:14/1082]	[IP:10.128.12.114]	[Browser:Chrome - 84.0.4147.125]	[Action:Filtering User : MasterData Username : 14/1082]	[Remarks:Successful filter row count: 0]
[Date: 2020-08-17 18:13:07]	[UserID:14/1082]	[IP:10.128.12.114]	[Browser:Chrome - 84.0.4147.125]	[Action:Filtering User : MasterData Username : 14/1082]	[Remarks:Success]
[Date: 2020-08-17 18:13:07]	[UserID:14/1082]	[IP:10.128.12.114]	[Browser:Chrome - 84.0.4147.125]	[Action:Closing mssql connection]	[Remarks:Success]
[Date: 2020-08-17 18:13:08]	[UserID:14/1082]	[IP:10.128.12.114]	[Browser:Chrome - 84.0.4147.125]	[Action:Making connection to server]	[Remarks:Successful connection to server: S3]
[Date: 2020-08-17 18:13:08]	[UserID:14/1082]	[IP:10.128.12.114]	[Browser:Chrome - 84.0.4147.125]	[Action:GetProgramList 14/1082]	[Remarks:[{"ID":"1","ProgramIndex":"GST","ProgramName":"GST"}]]
[Date: 2020-08-17 18:13:08]	[UserID:14/1082]	[IP:10.128.12.114]	[Browser:Chrome - 84.0.4147.125]	[Action:Making connection to server]	[Remarks:Successful connection to server: S3]
[Date: 2020-08-17 18:13:08]	[UserID:14/1082]	[IP:10.128.12.114]	[Browser:Chrome - 84.0.4147.125]	[Action:GetProgramList 14/1082]	[Remarks:[{"ID":"1","ProgramIndex":"GST","ProgramName":"GST"}]]
[Date: 2020-08-17 18:13:08]	[UserID:14/1082]	[IP:10.128.12.114]	[Browser:Chrome - 84.0.4147.125]	[Action:Making connection to server]	[Remarks:Successful connection to server: S3]
[Date: 2020-08-17 18:13:08]	[UserID:14/1082]	[IP:10.128.12.114]	[Browser:Chrome - 84.0.4147.125]	[Action:Filtering User : MasterData Username : 14/1082]	[Remarks:Successful filter row count: 1]
[Date: 2020-08-17 18:13:08]	[UserID:14/1082]	[IP:10.128.12.114]	[Browser:Chrome - 84.0.4147.125]	[Action:Making connection to server]	[Remarks:Successful connection to server: S3]
[Date: 2020-08-17 18:13:08]	[UserID:14/1082]	[IP:10.128.12.114]	[Browser:Chrome - 84.0.4147.125]	[Action:GetGSTModules 14/1082,1]	[Remarks:Successful filter row count: 8]
[Date: 2020-08-17 18:13:08]	[UserID:14/1082]	[IP:10.128.12.114]	[Browser:Chrome - 84.0.4147.125]	[Action:Closing mssql connection]	[Remarks:Success]
[Date: 2020-08-17 18:22:09]	[UserID:17/1248]	[IP:10.128.12.115]	[Browser:Chrome - 84.0.4147.125]	[Action:Making connection to server]	[Remarks:Successful connection to server: S3]
[Date: 2020-08-17 18:22:09]	[UserID:17/1248]	[IP:10.128.12.115]	[Browser:Chrome - 84.0.4147.125]	[Action:GetGSTModules 17/1248,1]	[Remarks:Successful filter row count: 6]
[Date: 2020-08-17 18:22:09]	[UserID:17/1248]	[IP:10.128.12.115]	[Browser:Chrome - 84.0.4147.125]	[Action:Closing mssql connection]	[Remarks:Success]
[Date: 2020-08-17 18:22:37]	[UserID:]	[IP:10.128.12.115]	[Browser:Chrome - 84.0.4147.125]	[Action:Making connection to server]	[Remarks:Successful connection to server: S3]
[Date: 2020-08-17 18:22:37]	[UserID:]	[IP:10.128.12.115]	[Browser:Chrome - 84.0.4147.125]	[Action:GetProgramList ]	[Remarks:"no data"]
[Date: 2020-08-17 18:37:22]	[UserID:]	[IP:10.128.12.115]	[Browser:Chrome - 84.0.4147.125]	[Action:Making connection to server]	[Remarks:Successful connection to server: S3]
[Date: 2020-08-17 18:37:22]	[UserID:]	[IP:10.128.12.115]	[Browser:Chrome - 84.0.4147.125]	[Action:GetProgramList ]	[Remarks:"no data"]
[Date: 2020-08-17 18:38:11]	[UserID:]	[IP:10.128.12.115]	[Browser:Chrome - 84.0.4147.125]	[Action:Making connection to server]	[Remarks:Successful connection to server: S3]
[Date: 2020-08-17 18:38:11]	[UserID:]	[IP:10.128.12.115]	[Browser:Chrome - 84.0.4147.125]	[Action:GetProgramList ]	[Remarks:"no data"]
[Date: 2020-08-17 18:38:16]	[UserID:17/1248]	[IP:10.128.12.115]	[Browser:Chrome - 84.0.4147.125]	[Action:Making connection to server]	[Remarks:Successful connection to server: S3]
[Date: 2020-08-17 18:38:16]	[UserID:17/1248]	[IP:10.128.12.115]	[Browser:Chrome - 84.0.4147.125]	[Action:User 17/1248]	[Remarks:Success]
[Date: 2020-08-17 18:38:16]	[UserID:17/1248]	[IP:10.128.12.115]	[Browser:Chrome - 84.0.4147.125]	[Action:Filtering User : MasterData Username : 17/1248]	[Remarks:Successful filter row count: 0]
[Date: 2020-08-17 18:38:16]	[UserID:17/1248]	[IP:10.128.12.115]	[Browser:Chrome - 84.0.4147.125]	[Action:Filtering User : MasterData Username : 17/1248]	[Remarks:Successful filter row count: 0]
[Date: 2020-08-17 18:38:16]	[UserID:17/1248]	[IP:10.128.12.115]	[Browser:Chrome - 84.0.4147.125]	[Action:Filtering User : MasterData Username : 17/1248]	[Remarks:Success]
[Date: 2020-08-17 18:38:16]	[UserID:17/1248]	[IP:10.128.12.115]	[Browser:Chrome - 84.0.4147.125]	[Action:Closing mssql connection]	[Remarks:Success]
[Date: 2020-08-17 18:38:16]	[UserID:17/1248]	[IP:10.128.12.115]	[Browser:Chrome - 84.0.4147.125]	[Action:Making connection to server]	[Remarks:Successful connection to server: S3]
[Date: 2020-08-17 18:38:16]	[UserID:17/1248]	[IP:10.128.12.115]	[Browser:Chrome - 84.0.4147.125]	[Action:GetProgramList 17/1248]	[Remarks:[{"ID":"1","ProgramIndex":"GST","ProgramName":"GST"}]]
[Date: 2020-08-17 18:38:16]	[UserID:17/1248]	[IP:10.128.12.115]	[Browser:Chrome - 84.0.4147.125]	[Action:Making connection to server]	[Remarks:Successful connection to server: S3]
[Date: 2020-08-17 18:38:16]	[UserID:17/1248]	[IP:10.128.12.115]	[Browser:Chrome - 84.0.4147.125]	[Action:GetProgramList 17/1248]	[Remarks:[{"ID":"1","ProgramIndex":"GST","ProgramName":"GST"}]]
[Date: 2020-08-17 18:38:16]	[UserID:17/1248]	[IP:10.128.12.115]	[Browser:Chrome - 84.0.4147.125]	[Action:Making connection to server]	[Remarks:Successful connection to server: S3]
[Date: 2020-08-17 18:38:16]	[UserID:17/1248]	[IP:10.128.12.115]	[Browser:Chrome - 84.0.4147.125]	[Action:Filtering User : MasterData Username : 17/1248]	[Remarks:Successful filter row count: 1]
[Date: 2020-08-17 18:38:17]	[UserID:17/1248]	[IP:10.128.12.115]	[Browser:Chrome - 84.0.4147.125]	[Action:Making connection to server]	[Remarks:Successful connection to server: S3]
[Date: 2020-08-17 18:38:17]	[UserID:17/1248]	[IP:10.128.12.115]	[Browser:Chrome - 84.0.4147.125]	[Action:GetGSTModules 17/1248,1]	[Remarks:Successful filter row count: 6]
[Date: 2020-08-17 18:38:17]	[UserID:17/1248]	[IP:10.128.12.115]	[Browser:Chrome - 84.0.4147.125]	[Action:Closing mssql connection]	[Remarks:Success]
[Date: 2020-08-17 18:42:03]	[UserID:]	[IP:10.128.12.114]	[Browser:Chrome - 84.0.4147.125]	[Action:Making connection to server]	[Remarks:Successful connection to server: S3]
[Date: 2020-08-17 18:42:03]	[UserID:]	[IP:10.128.12.114]	[Browser:Chrome - 84.0.4147.125]	[Action:GetProgramList ]	[Remarks:"no data"]
[Date: 2020-08-17 18:43:13]	[UserID:17/1248]	[IP:10.128.12.115]	[Browser:Chrome - 84.0.4147.125]	[Action:Making connection to server]	[Remarks:Successful connection to server: S3]
[Date: 2020-08-17 18:43:13]	[UserID:17/1248]	[IP:10.128.12.115]	[Browser:Chrome - 84.0.4147.125]	[Action:GetGSTModules 17/1248,1]	[Remarks:Successful filter row count: 6]
[Date: 2020-08-17 18:43:13]	[UserID:17/1248]	[IP:10.128.12.115]	[Browser:Chrome - 84.0.4147.125]	[Action:Closing mssql connection]	[Remarks:Success]
[Date: 2020-08-17 18:44:46]	[UserID:]	[IP:10.128.12.115]	[Browser:Chrome - 84.0.4147.125]	[Action:Making connection to server]	[Remarks:Successful connection to server: S3]
[Date: 2020-08-17 18:44:46]	[UserID:]	[IP:10.128.12.115]	[Browser:Chrome - 84.0.4147.125]	[Action:GetProgramList ]	[Remarks:"no data"]
[Date: 2020-08-17 23:30:48]	[UserID:]	[IP:10.128.130.5]	[Browser:Firefox - 79.0]	[Action:Making connection to server]	[Remarks:Successful connection to server: S3]
[Date: 2020-08-17 23:30:48]	[UserID:]	[IP:10.128.130.5]	[Browser:Firefox - 79.0]	[Action:GetProgramList ]	[Remarks:"no data"]
