[Date: 2015-12-30 07:26:09]	[UserID:]	[IP:10.10.11.1]	[Browser:Chrome - 47.0.2526.106]	[Action:Making connection to server]	[Remarks:Successful connection to server: S3]
[Date: 2015-12-30 07:26:09]	[UserID:]	[IP:10.10.11.1]	[Browser:Chrome - 47.0.2526.106]	[Action:GetProgramList ]	[Remarks:"no data"]
[Date: 2015-12-30 07:26:15]	[UserID:06/343]	[IP:10.10.11.1]	[Browser:Chrome - 47.0.2526.106]	[Action:Making connection to server]	[Remarks:Successful connection to server: S3]
[Date: 2015-12-30 07:26:15]	[UserID:06/343]	[IP:10.10.11.1]	[Browser:Chrome - 47.0.2526.106]	[Action:User 06/343]	[Remarks:Success]
[Date: 2015-12-30 07:26:16]	[UserID:06/343]	[IP:10.10.11.1]	[Browser:Chrome - 47.0.2526.106]	[Action:Filtering User : MasterData Username : 06/343]	[Remarks:Successful filter row count: 0]
[Date: 2015-12-30 07:26:16]	[UserID:06/343]	[IP:10.10.11.1]	[Browser:Chrome - 47.0.2526.106]	[Action:Filtering User : MasterData Username : 06/343]	[Remarks:Successful filter row count: 0]
[Date: 2015-12-30 07:26:16]	[UserID:06/343]	[IP:10.10.11.1]	[Browser:Chrome - 47.0.2526.106]	[Action:Filtering User : MasterData Username : 06/343]	[Remarks:Success]
[Date: 2015-12-30 07:26:16]	[UserID:06/343]	[IP:10.10.11.1]	[Browser:Chrome - 47.0.2526.106]	[Action:Closing mssql connection]	[Remarks:Success]
[Date: 2015-12-30 07:26:16]	[UserID:06/343]	[IP:10.10.11.1]	[Browser:Chrome - 47.0.2526.106]	[Action:Making connection to server]	[Remarks:Successful connection to server: S3]
[Date: 2015-12-30 07:26:16]	[UserID:06/343]	[IP:10.10.11.1]	[Browser:Chrome - 47.0.2526.106]	[Action:GetProgramList 06/343]	[Remarks:[{"ID":"1","ProgramIndex":"GST","ProgramName":"GST"}]]
[Date: 2015-12-30 07:26:16]	[UserID:06/343]	[IP:10.10.11.1]	[Browser:Chrome - 47.0.2526.106]	[Action:Making connection to server]	[Remarks:Successful connection to server: S3]
[Date: 2015-12-30 07:26:16]	[UserID:06/343]	[IP:10.10.11.1]	[Browser:Chrome - 47.0.2526.106]	[Action:GetProgramList 06/343]	[Remarks:[{"ID":"1","ProgramIndex":"GST","ProgramName":"GST"}]]
[Date: 2015-12-30 07:26:16]	[UserID:06/343]	[IP:10.10.11.1]	[Browser:Chrome - 47.0.2526.106]	[Action:Making connection to server]	[Remarks:Successful connection to server: S3]
[Date: 2015-12-30 07:26:16]	[UserID:06/343]	[IP:10.10.11.1]	[Browser:Chrome - 47.0.2526.106]	[Action:Filtering User : MasterData Username : 06/343]	[Remarks:Successful filter row count: 1]
[Date: 2015-12-30 07:26:16]	[UserID:06/343]	[IP:10.10.11.1]	[Browser:Chrome - 47.0.2526.106]	[Action:Making connection to server]	[Remarks:Successful connection to server: S3]
[Date: 2015-12-30 07:26:16]	[UserID:06/343]	[IP:10.10.11.1]	[Browser:Chrome - 47.0.2526.106]	[Action:GetGSTModules 06/343,1]	[Remarks:Successful filter row count: 5]
[Date: 2015-12-30 07:26:16]	[UserID:06/343]	[IP:10.10.11.1]	[Browser:Chrome - 47.0.2526.106]	[Action:Closing mssql connection]	[Remarks:Success]
[Date: 2015-12-30 07:26:26]	[UserID:06/343]	[IP:10.10.11.1]	[Browser:Chrome - 47.0.2526.106]	[Action:Making connection to server]	[Remarks:Successful connection to server: S3]
[Date: 2015-12-30 07:26:26]	[UserID:06/343]	[IP:10.10.11.1]	[Browser:Chrome - 47.0.2526.106]	[Action:GetGSTModules 06/343,1]	[Remarks:Successful filter row count: 5]
[Date: 2015-12-30 07:26:26]	[UserID:06/343]	[IP:10.10.11.1]	[Browser:Chrome - 47.0.2526.106]	[Action:Closing mssql connection]	[Remarks:Success]
[Date: 2015-12-30 07:34:23]	[UserID:06/343]	[IP:10.10.11.1]	[Browser:Chrome - 47.0.2526.106]	[Action:Making connection to server]	[Remarks:Successful connection to server: S3]
[Date: 2015-12-30 07:34:23]	[UserID:06/343]	[IP:10.10.11.1]	[Browser:Chrome - 47.0.2526.106]	[Action:GetGSTModules 06/343,1]	[Remarks:Successful filter row count: 5]
[Date: 2015-12-30 07:34:23]	[UserID:06/343]	[IP:10.10.11.1]	[Browser:Chrome - 47.0.2526.106]	[Action:Closing mssql connection]	[Remarks:Success]
[Date: 2015-12-30 07:35:18]	[UserID:06/343]	[IP:10.10.11.1]	[Browser:Chrome - 47.0.2526.106]	[Action:Making connection to server]	[Remarks:Successful connection to server: S3]
[Date: 2015-12-30 07:35:19]	[UserID:06/343]	[IP:10.10.11.1]	[Browser:Chrome - 47.0.2526.106]	[Action:GetGSTModules 06/343,1]	[Remarks:Successful filter row count: 5]
[Date: 2015-12-30 07:35:19]	[UserID:06/343]	[IP:10.10.11.1]	[Browser:Chrome - 47.0.2526.106]	[Action:Closing mssql connection]	[Remarks:Success]
[Date: 2015-12-30 07:35:38]	[UserID:06/343]	[IP:10.10.11.1]	[Browser:Chrome - 47.0.2526.106]	[Action:Making connection to server]	[Remarks:Successful connection to server: S3]
[Date: 2015-12-30 07:35:38]	[UserID:06/343]	[IP:10.10.11.1]	[Browser:Chrome - 47.0.2526.106]	[Action:GetGSTModules 06/343,1]	[Remarks:Successful filter row count: 5]
[Date: 2015-12-30 07:35:38]	[UserID:06/343]	[IP:10.10.11.1]	[Browser:Chrome - 47.0.2526.106]	[Action:Closing mssql connection]	[Remarks:Success]
[Date: 2015-12-30 07:55:08]	[UserID:06/343]	[IP:10.10.11.1]	[Browser:Chrome - 47.0.2526.106]	[Action:Making connection to server]	[Remarks:Successful connection to server: S3]
[Date: 2015-12-30 07:55:09]	[UserID:06/343]	[IP:10.10.11.1]	[Browser:Chrome - 47.0.2526.106]	[Action:GetProgramList 06/343]	[Remarks:[{"ID":"1","ProgramIndex":"GST","ProgramName":"GST"}]]
[Date: 2015-12-30 07:55:09]	[UserID:06/343]	[IP:10.10.11.1]	[Browser:Chrome - 47.0.2526.106]	[Action:Making connection to server]	[Remarks:Successful connection to server: S3]
[Date: 2015-12-30 07:55:09]	[UserID:06/343]	[IP:10.10.11.1]	[Browser:Chrome - 47.0.2526.106]	[Action:GetProgramList 06/343]	[Remarks:[{"ID":"1","ProgramIndex":"GST","ProgramName":"GST"}]]
[Date: 2015-12-30 07:55:09]	[UserID:06/343]	[IP:10.10.11.1]	[Browser:Chrome - 47.0.2526.106]	[Action:Making connection to server]	[Remarks:Successful connection to server: S3]
[Date: 2015-12-30 07:55:12]	[UserID:06/343]	[IP:10.10.11.1]	[Browser:Chrome - 47.0.2526.106]	[Action:Filtering User : MasterData Username : 06/343]	[Remarks:Successful filter row count: 1]
[Date: 2015-12-30 07:55:14]	[UserID:06/343]	[IP:10.10.11.1]	[Browser:Chrome - 47.0.2526.106]	[Action:Making connection to server]	[Remarks:Successful connection to server: S3]
[Date: 2015-12-30 07:55:15]	[UserID:06/343]	[IP:10.10.11.1]	[Browser:Chrome - 47.0.2526.106]	[Action:GetGSTModules 06/343,1]	[Remarks:Successful filter row count: 5]
[Date: 2015-12-30 07:55:15]	[UserID:06/343]	[IP:10.10.11.1]	[Browser:Chrome - 47.0.2526.106]	[Action:Closing mssql connection]	[Remarks:Success]
[Date: 2015-12-30 07:55:22]	[UserID:06/343]	[IP:10.10.11.1]	[Browser:Chrome - 47.0.2526.106]	[Action:Making connection to server]	[Remarks:Successful connection to server: S3]
[Date: 2015-12-30 07:55:22]	[UserID:06/343]	[IP:10.10.11.1]	[Browser:Chrome - 47.0.2526.106]	[Action:GetProgramList 06/343]	[Remarks:[{"ID":"1","ProgramIndex":"GST","ProgramName":"GST"}]]
[Date: 2015-12-30 07:55:22]	[UserID:06/343]	[IP:10.10.11.1]	[Browser:Chrome - 47.0.2526.106]	[Action:Making connection to server]	[Remarks:Successful connection to server: S3]
[Date: 2015-12-30 07:55:22]	[UserID:06/343]	[IP:10.10.11.1]	[Browser:Chrome - 47.0.2526.106]	[Action:GetProgramList 06/343]	[Remarks:[{"ID":"1","ProgramIndex":"GST","ProgramName":"GST"}]]
[Date: 2015-12-30 07:55:22]	[UserID:06/343]	[IP:10.10.11.1]	[Browser:Chrome - 47.0.2526.106]	[Action:Making connection to server]	[Remarks:Successful connection to server: S3]
[Date: 2015-12-30 07:55:22]	[UserID:06/343]	[IP:10.10.11.1]	[Browser:Chrome - 47.0.2526.106]	[Action:Filtering User : MasterData Username : 06/343]	[Remarks:Successful filter row count: 1]
[Date: 2015-12-30 07:55:23]	[UserID:06/343]	[IP:10.10.11.1]	[Browser:Chrome - 47.0.2526.106]	[Action:Making connection to server]	[Remarks:Successful connection to server: S3]
[Date: 2015-12-30 07:55:23]	[UserID:06/343]	[IP:10.10.11.1]	[Browser:Chrome - 47.0.2526.106]	[Action:GetGSTModules 06/343,1]	[Remarks:Successful filter row count: 5]
[Date: 2015-12-30 07:55:23]	[UserID:06/343]	[IP:10.10.11.1]	[Browser:Chrome - 47.0.2526.106]	[Action:Closing mssql connection]	[Remarks:Success]
[Date: 2015-12-30 07:55:41]	[UserID:06/343]	[IP:10.10.11.1]	[Browser:Chrome - 47.0.2526.106]	[Action:Making connection to server]	[Remarks:Successful connection to server: S3]
[Date: 2015-12-30 07:55:41]	[UserID:06/343]	[IP:10.10.11.1]	[Browser:Chrome - 47.0.2526.106]	[Action:GetProgramList 06/343]	[Remarks:[{"ID":"1","ProgramIndex":"GST","ProgramName":"GST"}]]
[Date: 2015-12-30 07:55:41]	[UserID:06/343]	[IP:10.10.11.1]	[Browser:Chrome - 47.0.2526.106]	[Action:Making connection to server]	[Remarks:Successful connection to server: S3]
[Date: 2015-12-30 07:55:41]	[UserID:06/343]	[IP:10.10.11.1]	[Browser:Chrome - 47.0.2526.106]	[Action:GetProgramList 06/343]	[Remarks:[{"ID":"1","ProgramIndex":"GST","ProgramName":"GST"}]]
[Date: 2015-12-30 07:55:41]	[UserID:06/343]	[IP:10.10.11.1]	[Browser:Chrome - 47.0.2526.106]	[Action:Making connection to server]	[Remarks:Successful connection to server: S3]
[Date: 2015-12-30 07:55:41]	[UserID:06/343]	[IP:10.10.11.1]	[Browser:Chrome - 47.0.2526.106]	[Action:Filtering User : MasterData Username : 06/343]	[Remarks:Successful filter row count: 1]
[Date: 2015-12-30 07:55:41]	[UserID:06/343]	[IP:10.10.11.1]	[Browser:Chrome - 47.0.2526.106]	[Action:Making connection to server]	[Remarks:Successful connection to server: S3]
[Date: 2015-12-30 07:55:41]	[UserID:06/343]	[IP:10.10.11.1]	[Browser:Chrome - 47.0.2526.106]	[Action:GetGSTModules 06/343,1]	[Remarks:Successful filter row count: 5]
[Date: 2015-12-30 07:55:41]	[UserID:06/343]	[IP:10.10.11.1]	[Browser:Chrome - 47.0.2526.106]	[Action:Closing mssql connection]	[Remarks:Success]
[Date: 2015-12-30 07:55:54]	[UserID:]	[IP:10.10.11.1]	[Browser:Chrome - 47.0.2526.106]	[Action:Making connection to server]	[Remarks:Successful connection to server: S3]
[Date: 2015-12-30 07:55:54]	[UserID:]	[IP:10.10.11.1]	[Browser:Chrome - 47.0.2526.106]	[Action:GetProgramList ]	[Remarks:"no data"]
[Date: 2015-12-30 07:58:15]	[UserID:]	[IP:10.10.11.1]	[Browser:Chrome - 47.0.2526.106]	[Action:Making connection to server]	[Remarks:Successful connection to server: S3]
[Date: 2015-12-30 07:58:16]	[UserID:]	[IP:10.10.11.1]	[Browser:Chrome - 47.0.2526.106]	[Action:GetProgramList ]	[Remarks:"no data"]
[Date: 2015-12-30 07:58:17]	[UserID:15/1125]	[IP:10.10.11.1]	[Browser:Chrome - 47.0.2526.106]	[Action:Making connection to server]	[Remarks:Successful connection to server: S3]
[Date: 2015-12-30 07:58:17]	[UserID:15/1125]	[IP:10.10.11.1]	[Browser:Chrome - 47.0.2526.106]	[Action:User 15/1125]	[Remarks:Success]
[Date: 2015-12-30 07:58:17]	[UserID:15/1125]	[IP:10.10.11.1]	[Browser:Chrome - 47.0.2526.106]	[Action:User 15/1125]	[Remarks:Success]
[Date: 2015-12-30 07:58:17]	[UserID:15/1125]	[IP:10.10.11.1]	[Browser:Chrome - 47.0.2526.106]	[Action:Closing mssql connection]	[Remarks:Success]
[Date: 2015-12-30 07:59:04]	[UserID:15/1125]	[IP:10.10.11.1]	[Browser:Chrome - 47.0.2526.106]	[Action:Making connection to server]	[Remarks:Successful connection to server: S3]
[Date: 2015-12-30 07:59:04]	[UserID:15/1125]	[IP:10.10.11.1]	[Browser:Chrome - 47.0.2526.106]	[Action:User 15/1125]	[Remarks:Username [15/1125] exists]
[Date: 2015-12-30 07:59:04]	[UserID:15/1125]	[IP:10.10.11.1]	[Browser:Chrome - 47.0.2526.106]	[Action:User 15/1125]	[Remarks:No matching record found]
[Date: 2015-12-30 07:59:04]	[UserID:15/1125]	[IP:10.10.11.1]	[Browser:Chrome - 47.0.2526.106]	[Action:User 15/1125]	[Remarks:Invalid current password]
[Date: 2015-12-30 07:59:04]	[UserID:15/1125]	[IP:10.10.11.1]	[Browser:Chrome - 47.0.2526.106]	[Action:Closing mssql connection]	[Remarks:Success]
[Date: 2015-12-30 07:59:17]	[UserID:15/1125]	[IP:10.10.11.1]	[Browser:Chrome - 47.0.2526.106]	[Action:Making connection to server]	[Remarks:Successful connection to server: S3]
[Date: 2015-12-30 07:59:17]	[UserID:15/1125]	[IP:10.10.11.1]	[Browser:Chrome - 47.0.2526.106]	[Action:User 15/1125]	[Remarks:Username [15/1125] exists]
[Date: 2015-12-30 07:59:17]	[UserID:15/1125]	[IP:10.10.11.1]	[Browser:Chrome - 47.0.2526.106]	[Action:User 15/1125]	[Remarks:Successful filter row count.0]
[Date: 2015-12-30 07:59:17]	[UserID:15/1125]	[IP:10.10.11.1]	[Browser:Chrome - 47.0.2526.106]	[Action:User 15/1125]	[Remarks:Success]
[Date: 2015-12-30 07:59:17]	[UserID:15/1125]	[IP:10.10.11.1]	[Browser:Chrome - 47.0.2526.106]	[Action:Filtering User : MasterData Username : 15/1125]	[Remarks:Successful filter row count: 0]
[Date: 2015-12-30 07:59:17]	[UserID:15/1125]	[IP:10.10.11.1]	[Browser:Chrome - 47.0.2526.106]	[Action:Filtering User : MasterData Username : 15/1125]	[Remarks:Successful filter row count: 0]
[Date: 2015-12-30 07:59:17]	[UserID:15/1125]	[IP:10.10.11.1]	[Browser:Chrome - 47.0.2526.106]	[Action:Filtering User : MasterData Username : 15/1125]	[Remarks:Success]
[Date: 2015-12-30 07:59:23]	[UserID:15/1125]	[IP:10.10.11.1]	[Browser:Chrome - 47.0.2526.106]	[Action:Sending Message. To:sltan@jsilogistics.com, from: sg-alert@jsilogistics.com]	[Remarks:Successful filter row count: 1]
[Date: 2015-12-30 07:59:23]	[UserID:15/1125]	[IP:10.10.11.1]	[Browser:Chrome - 47.0.2526.106]	[Action:Closing mssql connection]	[Remarks:Success]
[Date: 2015-12-30 07:59:24]	[UserID:15/1125]	[IP:10.10.11.1]	[Browser:Chrome - 47.0.2526.106]	[Action:Making connection to server]	[Remarks:Successful connection to server: S3]
[Date: 2015-12-30 07:59:24]	[UserID:15/1125]	[IP:10.10.11.1]	[Browser:Chrome - 47.0.2526.106]	[Action:GetProgramList 15/1125]	[Remarks:[{"ID":"1","ProgramIndex":"GST","ProgramName":"GST"}]]
[Date: 2015-12-30 07:59:24]	[UserID:15/1125]	[IP:10.10.11.1]	[Browser:Chrome - 47.0.2526.106]	[Action:Making connection to server]	[Remarks:Successful connection to server: S3]
[Date: 2015-12-30 07:59:24]	[UserID:15/1125]	[IP:10.10.11.1]	[Browser:Chrome - 47.0.2526.106]	[Action:GetProgramList 15/1125]	[Remarks:[{"ID":"1","ProgramIndex":"GST","ProgramName":"GST"}]]
[Date: 2015-12-30 07:59:24]	[UserID:15/1125]	[IP:10.10.11.1]	[Browser:Chrome - 47.0.2526.106]	[Action:Making connection to server]	[Remarks:Successful connection to server: S3]
[Date: 2015-12-30 07:59:24]	[UserID:15/1125]	[IP:10.10.11.1]	[Browser:Chrome - 47.0.2526.106]	[Action:Filtering User : MasterData Username : 15/1125]	[Remarks:Successful filter row count: 1]
[Date: 2015-12-30 07:59:24]	[UserID:15/1125]	[IP:10.10.11.1]	[Browser:Chrome - 47.0.2526.106]	[Action:Making connection to server]	[Remarks:Successful connection to server: S3]
[Date: 2015-12-30 07:59:24]	[UserID:15/1125]	[IP:10.10.11.1]	[Browser:Chrome - 47.0.2526.106]	[Action:GetGSTModules 15/1125,1]	[Remarks:Successful filter row count: 6]
[Date: 2015-12-30 07:59:24]	[UserID:15/1125]	[IP:10.10.11.1]	[Browser:Chrome - 47.0.2526.106]	[Action:Closing mssql connection]	[Remarks:Success]
[Date: 2015-12-30 08:00:11]	[UserID:]	[IP:10.10.11.1]	[Browser:Chrome - 47.0.2526.106]	[Action:Making connection to server]	[Remarks:Successful connection to server: S3]
[Date: 2015-12-30 08:00:11]	[UserID:]	[IP:10.10.11.1]	[Browser:Chrome - 47.0.2526.106]	[Action:GetProgramList ]	[Remarks:"no data"]
[Date: 2015-12-30 08:32:00]	[UserID:]	[IP:10.10.11.1]	[Browser:Chrome - 47.0.2526.106]	[Action:Making connection to server]	[Remarks:Successful connection to server: S3]
[Date: 2015-12-30 08:32:01]	[UserID:]	[IP:10.10.11.1]	[Browser:Chrome - 47.0.2526.106]	[Action:GetProgramList ]	[Remarks:"no data"]
[Date: 2015-12-30 08:32:04]	[UserID:10/660]	[IP:10.10.11.1]	[Browser:Chrome - 47.0.2526.106]	[Action:Making connection to server]	[Remarks:Successful connection to server: S3]
[Date: 2015-12-30 08:32:04]	[UserID:10/660]	[IP:10.10.11.1]	[Browser:Chrome - 47.0.2526.106]	[Action:User 10/660]	[Remarks:Success]
[Date: 2015-12-30 08:32:04]	[UserID:10/660]	[IP:10.10.11.1]	[Browser:Chrome - 47.0.2526.106]	[Action:Filtering User : MasterData Username : 10/660]	[Remarks:Successful filter row count: 0]
[Date: 2015-12-30 08:32:04]	[UserID:10/660]	[IP:10.10.11.1]	[Browser:Chrome - 47.0.2526.106]	[Action:Filtering User : MasterData Username : 10/660]	[Remarks:Successful filter row count: 0]
[Date: 2015-12-30 08:32:04]	[UserID:10/660]	[IP:10.10.11.1]	[Browser:Chrome - 47.0.2526.106]	[Action:Filtering User : MasterData Username : 10/660]	[Remarks:Success]
[Date: 2015-12-30 08:32:04]	[UserID:10/660]	[IP:10.10.11.1]	[Browser:Chrome - 47.0.2526.106]	[Action:Closing mssql connection]	[Remarks:Success]
[Date: 2015-12-30 08:32:04]	[UserID:10/660]	[IP:10.10.11.1]	[Browser:Chrome - 47.0.2526.106]	[Action:Making connection to server]	[Remarks:Successful connection to server: S3]
[Date: 2015-12-30 08:32:04]	[UserID:10/660]	[IP:10.10.11.1]	[Browser:Chrome - 47.0.2526.106]	[Action:GetProgramList 10/660]	[Remarks:[{"ID":"1","ProgramIndex":"GST","ProgramName":"GST"}]]
[Date: 2015-12-30 08:32:04]	[UserID:10/660]	[IP:10.10.11.1]	[Browser:Chrome - 47.0.2526.106]	[Action:Making connection to server]	[Remarks:Successful connection to server: S3]
[Date: 2015-12-30 08:32:04]	[UserID:10/660]	[IP:10.10.11.1]	[Browser:Chrome - 47.0.2526.106]	[Action:GetProgramList 10/660]	[Remarks:[{"ID":"1","ProgramIndex":"GST","ProgramName":"GST"}]]
[Date: 2015-12-30 08:32:04]	[UserID:10/660]	[IP:10.10.11.1]	[Browser:Chrome - 47.0.2526.106]	[Action:Making connection to server]	[Remarks:Successful connection to server: S3]
[Date: 2015-12-30 08:32:04]	[UserID:10/660]	[IP:10.10.11.1]	[Browser:Chrome - 47.0.2526.106]	[Action:Filtering User : MasterData Username : 10/660]	[Remarks:Successful filter row count: 1]
[Date: 2015-12-30 08:32:05]	[UserID:10/660]	[IP:10.10.11.1]	[Browser:Chrome - 47.0.2526.106]	[Action:Making connection to server]	[Remarks:Successful connection to server: S3]
[Date: 2015-12-30 08:32:05]	[UserID:10/660]	[IP:10.10.11.1]	[Browser:Chrome - 47.0.2526.106]	[Action:GetGSTModules 10/660,1]	[Remarks:Successful filter row count: 3]
[Date: 2015-12-30 08:32:05]	[UserID:10/660]	[IP:10.10.11.1]	[Browser:Chrome - 47.0.2526.106]	[Action:Closing mssql connection]	[Remarks:Success]
[Date: 2015-12-30 08:36:58]	[UserID:10/660]	[IP:10.10.11.1]	[Browser:Chrome - 47.0.2526.106]	[Action:Making connection to server]	[Remarks:Successful connection to server: S3]
[Date: 2015-12-30 08:36:58]	[UserID:10/660]	[IP:10.10.11.1]	[Browser:Chrome - 47.0.2526.106]	[Action:GetGSTModules 10/660,1]	[Remarks:Successful filter row count: 3]
[Date: 2015-12-30 08:36:58]	[UserID:10/660]	[IP:10.10.11.1]	[Browser:Chrome - 47.0.2526.106]	[Action:Closing mssql connection]	[Remarks:Success]
[Date: 2015-12-30 08:37:34]	[UserID:]	[IP:10.10.11.1]	[Browser:Chrome - 47.0.2526.106]	[Action:Making connection to server]	[Remarks:Successful connection to server: S3]
[Date: 2015-12-30 08:37:34]	[UserID:]	[IP:10.10.11.1]	[Browser:Chrome - 47.0.2526.106]	[Action:GetProgramList ]	[Remarks:"no data"]
[Date: 2015-12-30 10:04:59]	[UserID:]	[IP:10.10.11.1]	[Browser:Chrome - 47.0.2526.106]	[Action:Making connection to server]	[Remarks:Successful connection to server: S3]
[Date: 2015-12-30 10:04:59]	[UserID:]	[IP:10.10.11.1]	[Browser:Chrome - 47.0.2526.106]	[Action:GetProgramList ]	[Remarks:"no data"]
[Date: 2015-12-30 10:05:02]	[UserID:06/371]	[IP:10.10.11.1]	[Browser:Chrome - 47.0.2526.106]	[Action:Making connection to server]	[Remarks:Successful connection to server: S3]
[Date: 2015-12-30 10:05:02]	[UserID:06/371]	[IP:10.10.11.1]	[Browser:Chrome - 47.0.2526.106]	[Action:User 06/371]	[Remarks:Success]
[Date: 2015-12-30 10:05:02]	[UserID:06/371]	[IP:10.10.11.1]	[Browser:Chrome - 47.0.2526.106]	[Action:Filtering User : MasterData Username : 06/371]	[Remarks:Successful filter row count: 0]
[Date: 2015-12-30 10:05:02]	[UserID:06/371]	[IP:10.10.11.1]	[Browser:Chrome - 47.0.2526.106]	[Action:Filtering User : MasterData Username : 06/371]	[Remarks:Successful filter row count: 0]
[Date: 2015-12-30 10:05:02]	[UserID:06/371]	[IP:10.10.11.1]	[Browser:Chrome - 47.0.2526.106]	[Action:Filtering User : MasterData Username : 06/371]	[Remarks:Success]
[Date: 2015-12-30 10:05:02]	[UserID:06/371]	[IP:10.10.11.1]	[Browser:Chrome - 47.0.2526.106]	[Action:Closing mssql connection]	[Remarks:Success]
[Date: 2015-12-30 10:05:02]	[UserID:06/371]	[IP:10.10.11.1]	[Browser:Chrome - 47.0.2526.106]	[Action:Making connection to server]	[Remarks:Successful connection to server: S3]
[Date: 2015-12-30 10:05:02]	[UserID:06/371]	[IP:10.10.11.1]	[Browser:Chrome - 47.0.2526.106]	[Action:GetProgramList 06/371]	[Remarks:[{"ID":"1","ProgramIndex":"GST","ProgramName":"GST"}]]
[Date: 2015-12-30 10:05:02]	[UserID:06/371]	[IP:10.10.11.1]	[Browser:Chrome - 47.0.2526.106]	[Action:Making connection to server]	[Remarks:Successful connection to server: S3]
[Date: 2015-12-30 10:05:02]	[UserID:06/371]	[IP:10.10.11.1]	[Browser:Chrome - 47.0.2526.106]	[Action:GetProgramList 06/371]	[Remarks:[{"ID":"1","ProgramIndex":"GST","ProgramName":"GST"}]]
[Date: 2015-12-30 10:05:02]	[UserID:06/371]	[IP:10.10.11.1]	[Browser:Chrome - 47.0.2526.106]	[Action:Making connection to server]	[Remarks:Successful connection to server: S3]
[Date: 2015-12-30 10:05:02]	[UserID:06/371]	[IP:10.10.11.1]	[Browser:Chrome - 47.0.2526.106]	[Action:Filtering User : MasterData Username : 06/371]	[Remarks:Successful filter row count: 1]
[Date: 2015-12-30 10:05:03]	[UserID:06/371]	[IP:10.10.11.1]	[Browser:Chrome - 47.0.2526.106]	[Action:Making connection to server]	[Remarks:Successful connection to server: S3]
[Date: 2015-12-30 10:05:03]	[UserID:06/371]	[IP:10.10.11.1]	[Browser:Chrome - 47.0.2526.106]	[Action:GetGSTModules 06/371,1]	[Remarks:Successful filter row count: 5]
[Date: 2015-12-30 10:05:03]	[UserID:06/371]	[IP:10.10.11.1]	[Browser:Chrome - 47.0.2526.106]	[Action:Closing mssql connection]	[Remarks:Success]
[Date: 2015-12-30 10:13:01]	[UserID:06/371]	[IP:10.10.11.1]	[Browser:Chrome - 47.0.2526.106]	[Action:Making connection to server]	[Remarks:Successful connection to server: S3]
[Date: 2015-12-30 10:13:01]	[UserID:06/371]	[IP:10.10.11.1]	[Browser:Chrome - 47.0.2526.106]	[Action:GetGSTModules 06/371,1]	[Remarks:Successful filter row count: 5]
[Date: 2015-12-30 10:13:01]	[UserID:06/371]	[IP:10.10.11.1]	[Browser:Chrome - 47.0.2526.106]	[Action:Closing mssql connection]	[Remarks:Success]
[Date: 2015-12-30 10:15:09]	[UserID:06/371]	[IP:10.10.11.1]	[Browser:Chrome - 47.0.2526.106]	[Action:Making connection to server]	[Remarks:Successful connection to server: S3]
[Date: 2015-12-30 10:15:09]	[UserID:06/371]	[IP:10.10.11.1]	[Browser:Chrome - 47.0.2526.106]	[Action:GetGSTModules 06/371,1]	[Remarks:Successful filter row count: 5]
[Date: 2015-12-30 10:15:09]	[UserID:06/371]	[IP:10.10.11.1]	[Browser:Chrome - 47.0.2526.106]	[Action:Closing mssql connection]	[Remarks:Success]
[Date: 2015-12-30 10:22:12]	[UserID:06/371]	[IP:10.10.11.1]	[Browser:Chrome - 47.0.2526.106]	[Action:Making connection to server]	[Remarks:Successful connection to server: S3]
[Date: 2015-12-30 10:22:13]	[UserID:06/371]	[IP:10.10.11.1]	[Browser:Chrome - 47.0.2526.106]	[Action:GetGSTModules 06/371,1]	[Remarks:Successful filter row count: 5]
[Date: 2015-12-30 10:22:13]	[UserID:06/371]	[IP:10.10.11.1]	[Browser:Chrome - 47.0.2526.106]	[Action:Closing mssql connection]	[Remarks:Success]
[Date: 2015-12-30 10:31:01]	[UserID:06/343]	[IP:10.10.11.1]	[Browser:Chrome - 47.0.2526.106]	[Action:Making connection to server]	[Remarks:Successful connection to server: S3]
[Date: 2015-12-30 10:31:01]	[UserID:06/343]	[IP:10.10.11.1]	[Browser:Chrome - 47.0.2526.106]	[Action:GetGSTModules 06/343,1]	[Remarks:Successful filter row count: 5]
[Date: 2015-12-30 10:31:01]	[UserID:06/343]	[IP:10.10.11.1]	[Browser:Chrome - 47.0.2526.106]	[Action:Closing mssql connection]	[Remarks:Success]
[Date: 2015-12-30 10:32:26]	[UserID:06/343]	[IP:10.10.11.1]	[Browser:Chrome - 47.0.2526.106]	[Action:Making connection to server]	[Remarks:Successful connection to server: S3]
[Date: 2015-12-30 10:32:26]	[UserID:06/343]	[IP:10.10.11.1]	[Browser:Chrome - 47.0.2526.106]	[Action:GetGSTModules 06/343,1]	[Remarks:Successful filter row count: 5]
[Date: 2015-12-30 10:32:26]	[UserID:06/343]	[IP:10.10.11.1]	[Browser:Chrome - 47.0.2526.106]	[Action:Closing mssql connection]	[Remarks:Success]
[Date: 2015-12-30 10:45:37]	[UserID:06/371]	[IP:10.10.11.1]	[Browser:Chrome - 47.0.2526.106]	[Action:Making connection to server]	[Remarks:Successful connection to server: S3]
[Date: 2015-12-30 10:45:37]	[UserID:06/371]	[IP:10.10.11.1]	[Browser:Chrome - 47.0.2526.106]	[Action:GetGSTModules 06/371,1]	[Remarks:Successful filter row count: 5]
[Date: 2015-12-30 10:45:37]	[UserID:06/371]	[IP:10.10.11.1]	[Browser:Chrome - 47.0.2526.106]	[Action:Closing mssql connection]	[Remarks:Success]
[Date: 2015-12-30 11:38:02]	[UserID:]	[IP:10.10.11.1]	[Browser:Firefox - 6.0]	[Action:Making connection to server]	[Remarks:Successful connection to server: S3]
[Date: 2015-12-30 11:38:02]	[UserID:]	[IP:10.10.11.1]	[Browser:Firefox - 6.0]	[Action:GetProgramList ]	[Remarks:"no data"]
[Date: 2015-12-30 13:02:02]	[UserID:]	[IP:10.10.11.1]	[Browser:Chrome - 47.0.2526.106]	[Action:Making connection to server]	[Remarks:Successful connection to server: S3]
[Date: 2015-12-30 13:02:03]	[UserID:]	[IP:10.10.11.1]	[Browser:Chrome - 47.0.2526.106]	[Action:GetProgramList ]	[Remarks:"no data"]
[Date: 2015-12-30 13:02:05]	[UserID:10/660]	[IP:10.10.11.1]	[Browser:Chrome - 47.0.2526.106]	[Action:Making connection to server]	[Remarks:Successful connection to server: S3]
[Date: 2015-12-30 13:02:05]	[UserID:10/660]	[IP:10.10.11.1]	[Browser:Chrome - 47.0.2526.106]	[Action:User 10/660]	[Remarks:Success]
[Date: 2015-12-30 13:02:05]	[UserID:10/660]	[IP:10.10.11.1]	[Browser:Chrome - 47.0.2526.106]	[Action:Filtering User : MasterData Username : 10/660]	[Remarks:Successful filter row count: 0]
[Date: 2015-12-30 13:02:05]	[UserID:10/660]	[IP:10.10.11.1]	[Browser:Chrome - 47.0.2526.106]	[Action:Filtering User : MasterData Username : 10/660]	[Remarks:Successful filter row count: 0]
[Date: 2015-12-30 13:02:05]	[UserID:10/660]	[IP:10.10.11.1]	[Browser:Chrome - 47.0.2526.106]	[Action:Filtering User : MasterData Username : 10/660]	[Remarks:Success]
[Date: 2015-12-30 13:02:05]	[UserID:10/660]	[IP:10.10.11.1]	[Browser:Chrome - 47.0.2526.106]	[Action:Closing mssql connection]	[Remarks:Success]
[Date: 2015-12-30 13:02:05]	[UserID:10/660]	[IP:10.10.11.1]	[Browser:Chrome - 47.0.2526.106]	[Action:Making connection to server]	[Remarks:Successful connection to server: S3]
[Date: 2015-12-30 13:02:05]	[UserID:10/660]	[IP:10.10.11.1]	[Browser:Chrome - 47.0.2526.106]	[Action:GetProgramList 10/660]	[Remarks:[{"ID":"1","ProgramIndex":"GST","ProgramName":"GST"}]]
[Date: 2015-12-30 13:02:05]	[UserID:10/660]	[IP:10.10.11.1]	[Browser:Chrome - 47.0.2526.106]	[Action:Making connection to server]	[Remarks:Successful connection to server: S3]
[Date: 2015-12-30 13:02:05]	[UserID:10/660]	[IP:10.10.11.1]	[Browser:Chrome - 47.0.2526.106]	[Action:GetProgramList 10/660]	[Remarks:[{"ID":"1","ProgramIndex":"GST","ProgramName":"GST"}]]
[Date: 2015-12-30 13:02:05]	[UserID:10/660]	[IP:10.10.11.1]	[Browser:Chrome - 47.0.2526.106]	[Action:Making connection to server]	[Remarks:Successful connection to server: S3]
[Date: 2015-12-30 13:02:05]	[UserID:10/660]	[IP:10.10.11.1]	[Browser:Chrome - 47.0.2526.106]	[Action:Filtering User : MasterData Username : 10/660]	[Remarks:Successful filter row count: 1]
[Date: 2015-12-30 13:02:06]	[UserID:10/660]	[IP:10.10.11.1]	[Browser:Chrome - 47.0.2526.106]	[Action:Making connection to server]	[Remarks:Successful connection to server: S3]
[Date: 2015-12-30 13:02:06]	[UserID:10/660]	[IP:10.10.11.1]	[Browser:Chrome - 47.0.2526.106]	[Action:GetGSTModules 10/660,1]	[Remarks:Successful filter row count: 3]
[Date: 2015-12-30 13:02:06]	[UserID:10/660]	[IP:10.10.11.1]	[Browser:Chrome - 47.0.2526.106]	[Action:Closing mssql connection]	[Remarks:Success]
[Date: 2015-12-30 13:02:38]	[UserID:]	[IP:10.10.11.1]	[Browser:Chrome - 47.0.2526.106]	[Action:Making connection to server]	[Remarks:Successful connection to server: S3]
[Date: 2015-12-30 13:02:38]	[UserID:]	[IP:10.10.11.1]	[Browser:Chrome - 47.0.2526.106]	[Action:GetProgramList ]	[Remarks:"no data"]
[Date: 2015-12-30 13:26:53]	[UserID:06/343]	[IP:10.10.11.1]	[Browser:Chrome - 47.0.2526.106]	[Action:Making connection to server]	[Remarks:Successful connection to server: S3]
[Date: 2015-12-30 13:27:00]	[UserID:06/343]	[IP:10.10.11.1]	[Browser:Chrome - 47.0.2526.106]	[Action:GetGSTModules 06/343,1]	[Remarks:Successful filter row count: 5]
[Date: 2015-12-30 13:27:00]	[UserID:06/343]	[IP:10.10.11.1]	[Browser:Chrome - 47.0.2526.106]	[Action:Closing mssql connection]	[Remarks:Success]
[Date: 2015-12-30 13:50:57]	[UserID:06/343]	[IP:10.10.11.1]	[Browser:Chrome - 47.0.2526.106]	[Action:Making connection to server]	[Remarks:Successful connection to server: S3]
[Date: 2015-12-30 13:50:58]	[UserID:06/343]	[IP:10.10.11.1]	[Browser:Chrome - 47.0.2526.106]	[Action:GetGSTModules 06/343,1]	[Remarks:Successful filter row count: 5]
[Date: 2015-12-30 13:50:58]	[UserID:06/343]	[IP:10.10.11.1]	[Browser:Chrome - 47.0.2526.106]	[Action:Closing mssql connection]	[Remarks:Success]
[Date: 2015-12-30 13:52:13]	[UserID:06/343]	[IP:10.10.11.1]	[Browser:Chrome - 47.0.2526.106]	[Action:Making connection to server]	[Remarks:Successful connection to server: S3]
[Date: 2015-12-30 13:52:13]	[UserID:06/343]	[IP:10.10.11.1]	[Browser:Chrome - 47.0.2526.106]	[Action:GetGSTModules 06/343,1]	[Remarks:Successful filter row count: 5]
[Date: 2015-12-30 13:52:13]	[UserID:06/343]	[IP:10.10.11.1]	[Browser:Chrome - 47.0.2526.106]	[Action:Closing mssql connection]	[Remarks:Success]
[Date: 2015-12-30 13:55:13]	[UserID:06/343]	[IP:10.10.11.1]	[Browser:Chrome - 47.0.2526.106]	[Action:Making connection to server]	[Remarks:Successful connection to server: S3]
[Date: 2015-12-30 13:55:13]	[UserID:06/343]	[IP:10.10.11.1]	[Browser:Chrome - 47.0.2526.106]	[Action:GetGSTModules 06/343,1]	[Remarks:Successful filter row count: 5]
[Date: 2015-12-30 13:55:13]	[UserID:06/343]	[IP:10.10.11.1]	[Browser:Chrome - 47.0.2526.106]	[Action:Closing mssql connection]	[Remarks:Success]
[Date: 2015-12-30 14:21:04]	[UserID:]	[IP:10.10.11.1]	[Browser:Firefox - 6.0]	[Action:Making connection to server]	[Remarks:Successful connection to server: S3]
[Date: 2015-12-30 14:21:04]	[UserID:]	[IP:10.10.11.1]	[Browser:Chrome - 47.0.2526.106]	[Action:Making connection to server]	[Remarks:Successful connection to server: S3]
[Date: 2015-12-30 14:21:05]	[UserID:]	[IP:10.10.11.1]	[Browser:Firefox - 6.0]	[Action:GetProgramList ]	[Remarks:"no data"]
[Date: 2015-12-30 14:21:05]	[UserID:]	[IP:10.10.11.1]	[Browser:Chrome - 47.0.2526.106]	[Action:GetProgramList ]	[Remarks:"no data"]
[Date: 2015-12-30 14:21:07]	[UserID:14/1082]	[IP:10.10.11.1]	[Browser:Chrome - 47.0.2526.106]	[Action:Making connection to server]	[Remarks:Successful connection to server: S3]
[Date: 2015-12-30 14:21:07]	[UserID:14/1082]	[IP:10.10.11.1]	[Browser:Chrome - 47.0.2526.106]	[Action:User 14/1082]	[Remarks:Success]
[Date: 2015-12-30 14:21:09]	[UserID:14/1082]	[IP:10.10.11.1]	[Browser:Chrome - 47.0.2526.106]	[Action:Filtering User : MasterData Username : 14/1082]	[Remarks:Successful filter row count: 0]
[Date: 2015-12-30 14:21:09]	[UserID:14/1082]	[IP:10.10.11.1]	[Browser:Chrome - 47.0.2526.106]	[Action:Filtering User : MasterData Username : 14/1082]	[Remarks:Successful filter row count: 0]
[Date: 2015-12-30 14:21:09]	[UserID:14/1082]	[IP:10.10.11.1]	[Browser:Chrome - 47.0.2526.106]	[Action:Filtering User : MasterData Username : 14/1082]	[Remarks:Success]
[Date: 2015-12-30 14:21:09]	[UserID:14/1082]	[IP:10.10.11.1]	[Browser:Chrome - 47.0.2526.106]	[Action:Closing mssql connection]	[Remarks:Success]
[Date: 2015-12-30 14:21:13]	[UserID:14/1082]	[IP:10.10.11.1]	[Browser:Chrome - 47.0.2526.106]	[Action:Making connection to server]	[Remarks:Successful connection to server: S3]
[Date: 2015-12-30 14:21:13]	[UserID:14/1082]	[IP:10.10.11.1]	[Browser:Chrome - 47.0.2526.106]	[Action:GetProgramList 14/1082]	[Remarks:[{"ID":"1","ProgramIndex":"GST","ProgramName":"GST"}]]
[Date: 2015-12-30 14:21:13]	[UserID:14/1082]	[IP:10.10.11.1]	[Browser:Chrome - 47.0.2526.106]	[Action:Making connection to server]	[Remarks:Successful connection to server: S3]
[Date: 2015-12-30 14:21:13]	[UserID:14/1082]	[IP:10.10.11.1]	[Browser:Chrome - 47.0.2526.106]	[Action:GetProgramList 14/1082]	[Remarks:[{"ID":"1","ProgramIndex":"GST","ProgramName":"GST"}]]
[Date: 2015-12-30 14:21:13]	[UserID:14/1082]	[IP:10.10.11.1]	[Browser:Chrome - 47.0.2526.106]	[Action:Making connection to server]	[Remarks:Successful connection to server: S3]
[Date: 2015-12-30 14:21:13]	[UserID:14/1082]	[IP:10.10.11.1]	[Browser:Chrome - 47.0.2526.106]	[Action:Filtering User : MasterData Username : 14/1082]	[Remarks:Successful filter row count: 1]
[Date: 2015-12-30 14:21:13]	[UserID:14/1082]	[IP:10.10.11.1]	[Browser:Chrome - 47.0.2526.106]	[Action:Making connection to server]	[Remarks:Successful connection to server: S3]
[Date: 2015-12-30 14:21:14]	[UserID:14/1082]	[IP:10.10.11.1]	[Browser:Chrome - 47.0.2526.106]	[Action:GetGSTModules 14/1082,1]	[Remarks:Successful filter row count: 7]
[Date: 2015-12-30 14:21:14]	[UserID:14/1082]	[IP:10.10.11.1]	[Browser:Chrome - 47.0.2526.106]	[Action:Closing mssql connection]	[Remarks:Success]
[Date: 2015-12-30 14:22:09]	[UserID:06/343]	[IP:10.10.11.1]	[Browser:Chrome - 47.0.2526.106]	[Action:Making connection to server]	[Remarks:Successful connection to server: S3]
[Date: 2015-12-30 14:22:10]	[UserID:06/343]	[IP:10.10.11.1]	[Browser:Chrome - 47.0.2526.106]	[Action:GetGSTModules 06/343,1]	[Remarks:Successful filter row count: 5]
[Date: 2015-12-30 14:22:10]	[UserID:06/343]	[IP:10.10.11.1]	[Browser:Chrome - 47.0.2526.106]	[Action:Closing mssql connection]	[Remarks:Success]
[Date: 2015-12-30 14:30:06]	[UserID:06/343]	[IP:10.10.11.1]	[Browser:Chrome - 47.0.2526.106]	[Action:Making connection to server]	[Remarks:Successful connection to server: S3]
[Date: 2015-12-30 14:30:06]	[UserID:06/343]	[IP:10.10.11.1]	[Browser:Chrome - 47.0.2526.106]	[Action:GetGSTModules 06/343,1]	[Remarks:Successful filter row count: 5]
[Date: 2015-12-30 14:30:06]	[UserID:06/343]	[IP:10.10.11.1]	[Browser:Chrome - 47.0.2526.106]	[Action:Closing mssql connection]	[Remarks:Success]
[Date: 2015-12-30 14:33:26]	[UserID:14/1082]	[IP:10.10.11.1]	[Browser:Chrome - 47.0.2526.106]	[Action:Making connection to server]	[Remarks:Successful connection to server: S3]
[Date: 2015-12-30 14:33:28]	[UserID:14/1082]	[IP:10.10.11.1]	[Browser:Chrome - 47.0.2526.106]	[Action:GetGSTModules 14/1082,1]	[Remarks:Successful filter row count: 7]
[Date: 2015-12-30 14:33:28]	[UserID:14/1082]	[IP:10.10.11.1]	[Browser:Chrome - 47.0.2526.106]	[Action:Closing mssql connection]	[Remarks:Success]
[Date: 2015-12-30 14:42:52]	[UserID:14/1082]	[IP:10.10.11.1]	[Browser:Chrome - 47.0.2526.106]	[Action:Making connection to server]	[Remarks:Successful connection to server: S3]
[Date: 2015-12-30 14:42:52]	[UserID:14/1082]	[IP:10.10.11.1]	[Browser:Chrome - 47.0.2526.106]	[Action:GetGSTModules 14/1082,1]	[Remarks:Successful filter row count: 7]
[Date: 2015-12-30 14:42:52]	[UserID:14/1082]	[IP:10.10.11.1]	[Browser:Chrome - 47.0.2526.106]	[Action:Closing mssql connection]	[Remarks:Success]
[Date: 2015-12-30 15:17:18]	[UserID:14/1082]	[IP:10.10.11.1]	[Browser:Chrome - 47.0.2526.106]	[Action:Making connection to server]	[Remarks:Successful connection to server: S3]
[Date: 2015-12-30 15:17:21]	[UserID:14/1082]	[IP:10.10.11.1]	[Browser:Chrome - 47.0.2526.106]	[Action:GetGSTModules 14/1082,1]	[Remarks:Successful filter row count: 7]
[Date: 2015-12-30 15:17:21]	[UserID:14/1082]	[IP:10.10.11.1]	[Browser:Chrome - 47.0.2526.106]	[Action:Closing mssql connection]	[Remarks:Success]
[Date: 2015-12-30 15:24:15]	[UserID:14/1082]	[IP:10.10.11.1]	[Browser:Chrome - 47.0.2526.106]	[Action:Making connection to server]	[Remarks:Successful connection to server: S3]
[Date: 2015-12-30 15:24:16]	[UserID:14/1082]	[IP:10.10.11.1]	[Browser:Chrome - 47.0.2526.106]	[Action:GetGSTModules 14/1082,1]	[Remarks:Successful filter row count: 7]
[Date: 2015-12-30 15:24:16]	[UserID:14/1082]	[IP:10.10.11.1]	[Browser:Chrome - 47.0.2526.106]	[Action:Closing mssql connection]	[Remarks:Success]
[Date: 2015-12-30 15:30:55]	[UserID:14/1082]	[IP:10.10.11.1]	[Browser:Chrome - 47.0.2526.106]	[Action:Making connection to server]	[Remarks:Successful connection to server: S3]
[Date: 2015-12-30 15:30:55]	[UserID:14/1082]	[IP:10.10.11.1]	[Browser:Chrome - 47.0.2526.106]	[Action:GetGSTModules 14/1082,1]	[Remarks:Successful filter row count: 7]
[Date: 2015-12-30 15:30:55]	[UserID:14/1082]	[IP:10.10.11.1]	[Browser:Chrome - 47.0.2526.106]	[Action:Closing mssql connection]	[Remarks:Success]
[Date: 2015-12-30 15:50:39]	[UserID:14/1082]	[IP:10.10.11.1]	[Browser:Chrome - 47.0.2526.106]	[Action:Making connection to server]	[Remarks:Successful connection to server: S3]
[Date: 2015-12-30 15:50:44]	[UserID:14/1082]	[IP:10.10.11.1]	[Browser:Chrome - 47.0.2526.106]	[Action:GetGSTModules 14/1082,1]	[Remarks:Successful filter row count: 7]
[Date: 2015-12-30 15:50:44]	[UserID:14/1082]	[IP:10.10.11.1]	[Browser:Chrome - 47.0.2526.106]	[Action:Closing mssql connection]	[Remarks:Success]
[Date: 2015-12-30 15:54:39]	[UserID:14/1082]	[IP:10.10.11.1]	[Browser:Chrome - 47.0.2526.106]	[Action:Making connection to server]	[Remarks:Successful connection to server: S3]
[Date: 2015-12-30 15:54:39]	[UserID:14/1082]	[IP:10.10.11.1]	[Browser:Chrome - 47.0.2526.106]	[Action:GetGSTModules 14/1082,1]	[Remarks:Successful filter row count: 7]
[Date: 2015-12-30 15:54:39]	[UserID:14/1082]	[IP:10.10.11.1]	[Browser:Chrome - 47.0.2526.106]	[Action:Closing mssql connection]	[Remarks:Success]
[Date: 2015-12-30 16:00:39]	[UserID:]	[IP:10.10.11.1]	[Browser:Chrome - 47.0.2526.106]	[Action:Making connection to server]	[Remarks:Successful connection to server: S3]
[Date: 2015-12-30 16:00:39]	[UserID:]	[IP:10.10.11.1]	[Browser:Chrome - 47.0.2526.106]	[Action:GetProgramList ]	[Remarks:"no data"]
[Date: 2015-12-30 16:00:41]	[UserID:06/371]	[IP:10.10.11.1]	[Browser:Chrome - 47.0.2526.106]	[Action:Making connection to server]	[Remarks:Successful connection to server: S3]
[Date: 2015-12-30 16:00:41]	[UserID:06/371]	[IP:10.10.11.1]	[Browser:Chrome - 47.0.2526.106]	[Action:User 06/371]	[Remarks:Success]
[Date: 2015-12-30 16:00:41]	[UserID:06/371]	[IP:10.10.11.1]	[Browser:Chrome - 47.0.2526.106]	[Action:Filtering User : MasterData Username : 06/371]	[Remarks:Successful filter row count: 0]
[Date: 2015-12-30 16:00:41]	[UserID:06/371]	[IP:10.10.11.1]	[Browser:Chrome - 47.0.2526.106]	[Action:Filtering User : MasterData Username : 06/371]	[Remarks:Successful filter row count: 0]
[Date: 2015-12-30 16:00:41]	[UserID:06/371]	[IP:10.10.11.1]	[Browser:Chrome - 47.0.2526.106]	[Action:Filtering User : MasterData Username : 06/371]	[Remarks:Success]
[Date: 2015-12-30 16:00:41]	[UserID:06/371]	[IP:10.10.11.1]	[Browser:Chrome - 47.0.2526.106]	[Action:Closing mssql connection]	[Remarks:Success]
[Date: 2015-12-30 16:00:41]	[UserID:06/371]	[IP:10.10.11.1]	[Browser:Chrome - 47.0.2526.106]	[Action:Making connection to server]	[Remarks:Successful connection to server: S3]
[Date: 2015-12-30 16:00:41]	[UserID:06/371]	[IP:10.10.11.1]	[Browser:Chrome - 47.0.2526.106]	[Action:GetProgramList 06/371]	[Remarks:[{"ID":"1","ProgramIndex":"GST","ProgramName":"GST"}]]
[Date: 2015-12-30 16:00:41]	[UserID:06/371]	[IP:10.10.11.1]	[Browser:Chrome - 47.0.2526.106]	[Action:Making connection to server]	[Remarks:Successful connection to server: S3]
[Date: 2015-12-30 16:00:41]	[UserID:06/371]	[IP:10.10.11.1]	[Browser:Chrome - 47.0.2526.106]	[Action:GetProgramList 06/371]	[Remarks:[{"ID":"1","ProgramIndex":"GST","ProgramName":"GST"}]]
[Date: 2015-12-30 16:00:41]	[UserID:06/371]	[IP:10.10.11.1]	[Browser:Chrome - 47.0.2526.106]	[Action:Making connection to server]	[Remarks:Successful connection to server: S3]
[Date: 2015-12-30 16:00:41]	[UserID:06/371]	[IP:10.10.11.1]	[Browser:Chrome - 47.0.2526.106]	[Action:Filtering User : MasterData Username : 06/371]	[Remarks:Successful filter row count: 1]
[Date: 2015-12-30 16:00:42]	[UserID:06/371]	[IP:10.10.11.1]	[Browser:Chrome - 47.0.2526.106]	[Action:Making connection to server]	[Remarks:Successful connection to server: S3]
[Date: 2015-12-30 16:00:42]	[UserID:06/371]	[IP:10.10.11.1]	[Browser:Chrome - 47.0.2526.106]	[Action:GetGSTModules 06/371,1]	[Remarks:Successful filter row count: 5]
[Date: 2015-12-30 16:00:42]	[UserID:06/371]	[IP:10.10.11.1]	[Browser:Chrome - 47.0.2526.106]	[Action:Closing mssql connection]	[Remarks:Success]
[Date: 2015-12-30 16:04:04]	[UserID:06/371]	[IP:10.10.11.1]	[Browser:Chrome - 47.0.2526.106]	[Action:Making connection to server]	[Remarks:Successful connection to server: S3]
[Date: 2015-12-30 16:04:04]	[UserID:06/371]	[IP:10.10.11.1]	[Browser:Chrome - 47.0.2526.106]	[Action:GetGSTModules 06/371,1]	[Remarks:Successful filter row count: 5]
[Date: 2015-12-30 16:04:04]	[UserID:06/371]	[IP:10.10.11.1]	[Browser:Chrome - 47.0.2526.106]	[Action:Closing mssql connection]	[Remarks:Success]
[Date: 2015-12-30 16:09:42]	[UserID:06/371]	[IP:10.10.11.1]	[Browser:Chrome - 47.0.2526.106]	[Action:Making connection to server]	[Remarks:Successful connection to server: S3]
[Date: 2015-12-30 16:09:42]	[UserID:06/371]	[IP:10.10.11.1]	[Browser:Chrome - 47.0.2526.106]	[Action:GetGSTModules 06/371,1]	[Remarks:Successful filter row count: 5]
[Date: 2015-12-30 16:09:42]	[UserID:06/371]	[IP:10.10.11.1]	[Browser:Chrome - 47.0.2526.106]	[Action:Closing mssql connection]	[Remarks:Success]
[Date: 2015-12-30 16:11:45]	[UserID:14/1082]	[IP:10.10.11.1]	[Browser:Chrome - 47.0.2526.106]	[Action:Making connection to server]	[Remarks:Successful connection to server: S3]
[Date: 2015-12-30 16:11:45]	[UserID:14/1082]	[IP:10.10.11.1]	[Browser:Chrome - 47.0.2526.106]	[Action:GetGSTModules 14/1082,1]	[Remarks:Successful filter row count: 7]
[Date: 2015-12-30 16:11:45]	[UserID:14/1082]	[IP:10.10.11.1]	[Browser:Chrome - 47.0.2526.106]	[Action:Closing mssql connection]	[Remarks:Success]
[Date: 2015-12-30 16:11:50]	[UserID:14/1082]	[IP:10.10.11.1]	[Browser:Chrome - 47.0.2526.106]	[Action:Making connection to server]	[Remarks:Successful connection to server: S3]
[Date: 2015-12-30 16:11:50]	[UserID:14/1082]	[IP:10.10.11.1]	[Browser:Chrome - 47.0.2526.106]	[Action:GetGSTModules 14/1082,1]	[Remarks:Successful filter row count: 7]
[Date: 2015-12-30 16:11:50]	[UserID:14/1082]	[IP:10.10.11.1]	[Browser:Chrome - 47.0.2526.106]	[Action:Closing mssql connection]	[Remarks:Success]
[Date: 2015-12-30 16:22:35]	[UserID:06/343]	[IP:10.10.11.1]	[Browser:Chrome - 47.0.2526.106]	[Action:Making connection to server]	[Remarks:Successful connection to server: S3]
[Date: 2015-12-30 16:22:36]	[UserID:06/343]	[IP:10.10.11.1]	[Browser:Chrome - 47.0.2526.106]	[Action:GetGSTModules 06/343,1]	[Remarks:Successful filter row count: 5]
[Date: 2015-12-30 16:22:36]	[UserID:06/343]	[IP:10.10.11.1]	[Browser:Chrome - 47.0.2526.106]	[Action:Closing mssql connection]	[Remarks:Success]
[Date: 2015-12-30 16:24:22]	[UserID:06/343]	[IP:10.10.11.1]	[Browser:Chrome - 47.0.2526.106]	[Action:Making connection to server]	[Remarks:Successful connection to server: S3]
[Date: 2015-12-30 16:24:22]	[UserID:06/343]	[IP:10.10.11.1]	[Browser:Chrome - 47.0.2526.106]	[Action:GetGSTModules 06/343,1]	[Remarks:Successful filter row count: 5]
[Date: 2015-12-30 16:24:22]	[UserID:06/343]	[IP:10.10.11.1]	[Browser:Chrome - 47.0.2526.106]	[Action:Closing mssql connection]	[Remarks:Success]
[Date: 2015-12-30 17:02:52]	[UserID:14/1082]	[IP:10.10.11.1]	[Browser:Chrome - 47.0.2526.106]	[Action:Making connection to server]	[Remarks:Successful connection to server: S3]
[Date: 2015-12-30 17:02:53]	[UserID:14/1082]	[IP:10.10.11.1]	[Browser:Chrome - 47.0.2526.106]	[Action:GetGSTModules 14/1082,1]	[Remarks:Successful filter row count: 7]
[Date: 2015-12-30 17:02:53]	[UserID:14/1082]	[IP:10.10.11.1]	[Browser:Chrome - 47.0.2526.106]	[Action:Closing mssql connection]	[Remarks:Success]
[Date: 2015-12-30 17:03:55]	[UserID:14/1082]	[IP:10.10.11.1]	[Browser:Chrome - 47.0.2526.106]	[Action:Making connection to server]	[Remarks:Successful connection to server: S3]
[Date: 2015-12-30 17:03:55]	[UserID:14/1082]	[IP:10.10.11.1]	[Browser:Chrome - 47.0.2526.106]	[Action:GetGSTModules 14/1082,1]	[Remarks:Successful filter row count: 7]
[Date: 2015-12-30 17:03:55]	[UserID:14/1082]	[IP:10.10.11.1]	[Browser:Chrome - 47.0.2526.106]	[Action:Closing mssql connection]	[Remarks:Success]
[Date: 2015-12-30 17:23:40]	[UserID:]	[IP:10.10.11.1]	[Browser:Chrome - 47.0.2526.106]	[Action:Making connection to server]	[Remarks:Successful connection to server: S3]
[Date: 2015-12-30 17:23:40]	[UserID:]	[IP:10.10.11.1]	[Browser:Chrome - 47.0.2526.106]	[Action:GetProgramList ]	[Remarks:"no data"]
[Date: 2015-12-30 17:23:45]	[UserID:10/660]	[IP:10.10.11.1]	[Browser:Chrome - 47.0.2526.106]	[Action:Making connection to server]	[Remarks:Successful connection to server: S3]
[Date: 2015-12-30 17:23:45]	[UserID:10/660]	[IP:10.10.11.1]	[Browser:Chrome - 47.0.2526.106]	[Action:User 10/660]	[Remarks:Success]
[Date: 2015-12-30 17:23:45]	[UserID:10/660]	[IP:10.10.11.1]	[Browser:Chrome - 47.0.2526.106]	[Action:Filtering User : MasterData Username : 10/660]	[Remarks:Successful filter row count: 0]
[Date: 2015-12-30 17:23:45]	[UserID:10/660]	[IP:10.10.11.1]	[Browser:Chrome - 47.0.2526.106]	[Action:Filtering User : MasterData Username : 10/660]	[Remarks:Successful filter row count: 0]
[Date: 2015-12-30 17:23:45]	[UserID:10/660]	[IP:10.10.11.1]	[Browser:Chrome - 47.0.2526.106]	[Action:Filtering User : MasterData Username : 10/660]	[Remarks:Success]
[Date: 2015-12-30 17:23:45]	[UserID:10/660]	[IP:10.10.11.1]	[Browser:Chrome - 47.0.2526.106]	[Action:Closing mssql connection]	[Remarks:Success]
[Date: 2015-12-30 17:23:46]	[UserID:10/660]	[IP:10.10.11.1]	[Browser:Chrome - 47.0.2526.106]	[Action:Making connection to server]	[Remarks:Successful connection to server: S3]
[Date: 2015-12-30 17:23:46]	[UserID:10/660]	[IP:10.10.11.1]	[Browser:Chrome - 47.0.2526.106]	[Action:GetProgramList 10/660]	[Remarks:[{"ID":"1","ProgramIndex":"GST","ProgramName":"GST"}]]
[Date: 2015-12-30 17:23:46]	[UserID:10/660]	[IP:10.10.11.1]	[Browser:Chrome - 47.0.2526.106]	[Action:Making connection to server]	[Remarks:Successful connection to server: S3]
[Date: 2015-12-30 17:23:46]	[UserID:10/660]	[IP:10.10.11.1]	[Browser:Chrome - 47.0.2526.106]	[Action:GetProgramList 10/660]	[Remarks:[{"ID":"1","ProgramIndex":"GST","ProgramName":"GST"}]]
[Date: 2015-12-30 17:23:46]	[UserID:10/660]	[IP:10.10.11.1]	[Browser:Chrome - 47.0.2526.106]	[Action:Making connection to server]	[Remarks:Successful connection to server: S3]
[Date: 2015-12-30 17:23:46]	[UserID:10/660]	[IP:10.10.11.1]	[Browser:Chrome - 47.0.2526.106]	[Action:Filtering User : MasterData Username : 10/660]	[Remarks:Successful filter row count: 1]
[Date: 2015-12-30 17:23:46]	[UserID:10/660]	[IP:10.10.11.1]	[Browser:Chrome - 47.0.2526.106]	[Action:Making connection to server]	[Remarks:Successful connection to server: S3]
[Date: 2015-12-30 17:23:46]	[UserID:10/660]	[IP:10.10.11.1]	[Browser:Chrome - 47.0.2526.106]	[Action:GetGSTModules 10/660,1]	[Remarks:Successful filter row count: 3]
[Date: 2015-12-30 17:23:46]	[UserID:10/660]	[IP:10.10.11.1]	[Browser:Chrome - 47.0.2526.106]	[Action:Closing mssql connection]	[Remarks:Success]
[Date: 2015-12-30 17:26:01]	[UserID:10/660]	[IP:10.10.11.1]	[Browser:Chrome - 47.0.2526.106]	[Action:Making connection to server]	[Remarks:Successful connection to server: S3]
[Date: 2015-12-30 17:26:01]	[UserID:10/660]	[IP:10.10.11.1]	[Browser:Chrome - 47.0.2526.106]	[Action:GetGSTModules 10/660,1]	[Remarks:Successful filter row count: 3]
[Date: 2015-12-30 17:26:01]	[UserID:10/660]	[IP:10.10.11.1]	[Browser:Chrome - 47.0.2526.106]	[Action:Closing mssql connection]	[Remarks:Success]
[Date: 2015-12-30 17:27:06]	[UserID:]	[IP:10.10.11.1]	[Browser:Chrome - 47.0.2526.106]	[Action:Making connection to server]	[Remarks:Successful connection to server: S3]
[Date: 2015-12-30 17:27:06]	[UserID:]	[IP:10.10.11.1]	[Browser:Chrome - 47.0.2526.106]	[Action:GetProgramList ]	[Remarks:"no data"]
[Date: 2015-12-30 17:30:42]	[UserID:14/1082]	[IP:10.10.11.1]	[Browser:Chrome - 47.0.2526.106]	[Action:Making connection to server]	[Remarks:Successful connection to server: S3]
[Date: 2015-12-30 17:30:42]	[UserID:14/1082]	[IP:10.10.11.1]	[Browser:Chrome - 47.0.2526.106]	[Action:GetGSTModules 14/1082,1]	[Remarks:Successful filter row count: 7]
[Date: 2015-12-30 17:30:42]	[UserID:14/1082]	[IP:10.10.11.1]	[Browser:Chrome - 47.0.2526.106]	[Action:Closing mssql connection]	[Remarks:Success]
[Date: 2015-12-30 17:32:57]	[UserID:14/1082]	[IP:10.10.11.1]	[Browser:Chrome - 47.0.2526.106]	[Action:Making connection to server]	[Remarks:Successful connection to server: S3]
[Date: 2015-12-30 17:32:57]	[UserID:14/1082]	[IP:10.10.11.1]	[Browser:Chrome - 47.0.2526.106]	[Action:GetGSTModules 14/1082,1]	[Remarks:Successful filter row count: 7]
[Date: 2015-12-30 17:32:57]	[UserID:14/1082]	[IP:10.10.11.1]	[Browser:Chrome - 47.0.2526.106]	[Action:Closing mssql connection]	[Remarks:Success]
[Date: 2015-12-30 17:35:59]	[UserID:]	[IP:10.10.11.1]	[Browser:Chrome - 47.0.2526.106]	[Action:Making connection to server]	[Remarks:Successful connection to server: S3]
[Date: 2015-12-30 17:35:59]	[UserID:]	[IP:10.10.11.1]	[Browser:Chrome - 47.0.2526.106]	[Action:GetProgramList ]	[Remarks:"no data"]
[Date: 2015-12-30 17:36:13]	[UserID:10/660]	[IP:10.10.11.1]	[Browser:Chrome - 47.0.2526.106]	[Action:Making connection to server]	[Remarks:Successful connection to server: S3]
[Date: 2015-12-30 17:36:13]	[UserID:10/660]	[IP:10.10.11.1]	[Browser:Chrome - 47.0.2526.106]	[Action:User 10/660]	[Remarks:Success]
[Date: 2015-12-30 17:36:13]	[UserID:10/660]	[IP:10.10.11.1]	[Browser:Chrome - 47.0.2526.106]	[Action:Filtering User : MasterData Username : 10/660]	[Remarks:Successful filter row count: 0]
[Date: 2015-12-30 17:36:13]	[UserID:10/660]	[IP:10.10.11.1]	[Browser:Chrome - 47.0.2526.106]	[Action:Filtering User : MasterData Username : 10/660]	[Remarks:Successful filter row count: 0]
[Date: 2015-12-30 17:36:13]	[UserID:10/660]	[IP:10.10.11.1]	[Browser:Chrome - 47.0.2526.106]	[Action:Filtering User : MasterData Username : 10/660]	[Remarks:Success]
[Date: 2015-12-30 17:36:13]	[UserID:10/660]	[IP:10.10.11.1]	[Browser:Chrome - 47.0.2526.106]	[Action:Closing mssql connection]	[Remarks:Success]
[Date: 2015-12-30 17:36:13]	[UserID:10/660]	[IP:10.10.11.1]	[Browser:Chrome - 47.0.2526.106]	[Action:Making connection to server]	[Remarks:Successful connection to server: S3]
[Date: 2015-12-30 17:36:13]	[UserID:10/660]	[IP:10.10.11.1]	[Browser:Chrome - 47.0.2526.106]	[Action:GetProgramList 10/660]	[Remarks:[{"ID":"1","ProgramIndex":"GST","ProgramName":"GST"}]]
[Date: 2015-12-30 17:36:13]	[UserID:10/660]	[IP:10.10.11.1]	[Browser:Chrome - 47.0.2526.106]	[Action:Making connection to server]	[Remarks:Successful connection to server: S3]
[Date: 2015-12-30 17:36:13]	[UserID:10/660]	[IP:10.10.11.1]	[Browser:Chrome - 47.0.2526.106]	[Action:GetProgramList 10/660]	[Remarks:[{"ID":"1","ProgramIndex":"GST","ProgramName":"GST"}]]
[Date: 2015-12-30 17:36:13]	[UserID:10/660]	[IP:10.10.11.1]	[Browser:Chrome - 47.0.2526.106]	[Action:Making connection to server]	[Remarks:Successful connection to server: S3]
[Date: 2015-12-30 17:36:13]	[UserID:10/660]	[IP:10.10.11.1]	[Browser:Chrome - 47.0.2526.106]	[Action:Filtering User : MasterData Username : 10/660]	[Remarks:Successful filter row count: 1]
[Date: 2015-12-30 17:36:14]	[UserID:10/660]	[IP:10.10.11.1]	[Browser:Chrome - 47.0.2526.106]	[Action:Making connection to server]	[Remarks:Successful connection to server: S3]
[Date: 2015-12-30 17:36:14]	[UserID:10/660]	[IP:10.10.11.1]	[Browser:Chrome - 47.0.2526.106]	[Action:GetGSTModules 10/660,1]	[Remarks:Successful filter row count: 3]
[Date: 2015-12-30 17:36:14]	[UserID:10/660]	[IP:10.10.11.1]	[Browser:Chrome - 47.0.2526.106]	[Action:Closing mssql connection]	[Remarks:Success]
[Date: 2015-12-30 17:38:11]	[UserID:14/1082]	[IP:10.10.11.1]	[Browser:Chrome - 47.0.2526.106]	[Action:Making connection to server]	[Remarks:Successful connection to server: S3]
[Date: 2015-12-30 17:38:11]	[UserID:14/1082]	[IP:10.10.11.1]	[Browser:Chrome - 47.0.2526.106]	[Action:GetGSTModules 14/1082,1]	[Remarks:Successful filter row count: 7]
[Date: 2015-12-30 17:38:11]	[UserID:14/1082]	[IP:10.10.11.1]	[Browser:Chrome - 47.0.2526.106]	[Action:Closing mssql connection]	[Remarks:Success]
[Date: 2015-12-30 17:38:20]	[UserID:]	[IP:10.10.11.1]	[Browser:Chrome - 47.0.2526.106]	[Action:Making connection to server]	[Remarks:Successful connection to server: S3]
[Date: 2015-12-30 17:38:20]	[UserID:]	[IP:10.10.11.1]	[Browser:Chrome - 47.0.2526.106]	[Action:GetProgramList ]	[Remarks:"no data"]
[Date: 2015-12-30 18:00:31]	[UserID:]	[IP:10.10.11.1]	[Browser:Chrome - 47.0.2526.106]	[Action:Making connection to server]	[Remarks:Successful connection to server: S3]
[Date: 2015-12-30 18:00:32]	[UserID:]	[IP:10.10.11.1]	[Browser:Chrome - 47.0.2526.106]	[Action:GetProgramList ]	[Remarks:"no data"]
