[Date: 2015-03-27 09:43:50]	[UserID:]	[IP:10.10.11.1]	[Browser:Chrome - 41.0.2272.101]	[Action:Making connection to server]	[Remarks:Successful connection to server: S3]
[Date: 2015-03-27 09:43:50]	[UserID:]	[IP:10.10.11.1]	[Browser:Chrome - 41.0.2272.101]	[Action:GetProgramList ]	[Remarks:"no data"]
[Date: 2015-03-27 09:44:02]	[UserID:andrew]	[IP:10.10.11.1]	[Browser:Chrome - 41.0.2272.101]	[Action:Making connection to server]	[Remarks:Successful connection to server: S3]
[Date: 2015-03-27 09:44:02]	[UserID:andrew]	[IP:10.10.11.1]	[Browser:Chrome - 41.0.2272.101]	[Action:User andrew]	[Remarks:Success]
[Date: 2015-03-27 09:44:02]	[UserID:andrew]	[IP:10.10.11.1]	[Browser:Chrome - 41.0.2272.101]	[Action:Filtering User : MasterData Username : andrew]	[Remarks:Successful filter row count: 0]
[Date: 2015-03-27 09:44:02]	[UserID:andrew]	[IP:10.10.11.1]	[Browser:Chrome - 41.0.2272.101]	[Action:Filtering User : MasterData Username : andrew]	[Remarks:Successful filter row count: 0]
[Date: 2015-03-27 09:44:02]	[UserID:andrew]	[IP:10.10.11.1]	[Browser:Chrome - 41.0.2272.101]	[Action:Filtering User : MasterData Username : andrew]	[Remarks:Success]
[Date: 2015-03-27 09:44:02]	[UserID:andrew]	[IP:10.10.11.1]	[Browser:Chrome - 41.0.2272.101]	[Action:Closing mssql connection]	[Remarks:Success]
[Date: 2015-03-27 09:44:03]	[UserID:andrew]	[IP:10.10.11.1]	[Browser:Chrome - 41.0.2272.101]	[Action:Making connection to server]	[Remarks:Successful connection to server: S3]
[Date: 2015-03-27 09:44:03]	[UserID:andrew]	[IP:10.10.11.1]	[Browser:Chrome - 41.0.2272.101]	[Action:GetProgramList andrew]	[Remarks:[{"ID":"1","ProgramIndex":"GST","ProgramName":"GST"}]]
[Date: 2015-03-27 09:44:03]	[UserID:andrew]	[IP:10.10.11.1]	[Browser:Chrome - 41.0.2272.101]	[Action:Making connection to server]	[Remarks:Successful connection to server: S3]
[Date: 2015-03-27 09:44:03]	[UserID:andrew]	[IP:10.10.11.1]	[Browser:Chrome - 41.0.2272.101]	[Action:GetProgramList andrew]	[Remarks:[{"ID":"1","ProgramIndex":"GST","ProgramName":"GST"}]]
[Date: 2015-03-27 09:44:03]	[UserID:andrew]	[IP:10.10.11.1]	[Browser:Chrome - 41.0.2272.101]	[Action:Making connection to server]	[Remarks:Successful connection to server: S3]
[Date: 2015-03-27 09:44:03]	[UserID:andrew]	[IP:10.10.11.1]	[Browser:Chrome - 41.0.2272.101]	[Action:Filtering User : MasterData Username : andrew]	[Remarks:Successful filter row count: 1]
[Date: 2015-03-27 09:44:03]	[UserID:andrew]	[IP:10.10.11.1]	[Browser:Chrome - 41.0.2272.101]	[Action:Making connection to server]	[Remarks:Successful connection to server: S3]
[Date: 2015-03-27 09:44:03]	[UserID:andrew]	[IP:10.10.11.1]	[Browser:Chrome - 41.0.2272.101]	[Action:GetGSTModules andrew,1]	[Remarks:Successful filter row count: 5]
[Date: 2015-03-27 09:44:03]	[UserID:andrew]	[IP:10.10.11.1]	[Browser:Chrome - 41.0.2272.101]	[Action:Closing mssql connection]	[Remarks:Success]
