[Date: 2016-06-10 07:37:11]	[UserID:]	[IP:10.10.11.1]	[Browser:Chrome - 51.0.2704.84]	[Action:Making connection to server]	[Remarks:Successful connection to server: S3]
[Date: 2016-06-10 07:37:12]	[UserID:]	[IP:10.10.11.1]	[Browser:Chrome - 51.0.2704.84]	[Action:GetProgramList ]	[Remarks:"no data"]
[Date: 2016-06-10 08:30:08]	[UserID:]	[IP:10.10.11.1]	[Browser:Chrome - 51.0.2704.84]	[Action:Making connection to server]	[Remarks:Successful connection to server: S3]
[Date: 2016-06-10 08:30:08]	[UserID:]	[IP:10.10.11.1]	[Browser:Chrome - 51.0.2704.84]	[Action:GetProgramList ]	[Remarks:"no data"]
[Date: 2016-06-10 08:30:11]	[UserID:06/343]	[IP:10.10.11.1]	[Browser:Chrome - 51.0.2704.84]	[Action:Making connection to server]	[Remarks:Successful connection to server: S3]
[Date: 2016-06-10 08:30:11]	[UserID:06/343]	[IP:10.10.11.1]	[Browser:Chrome - 51.0.2704.84]	[Action:User 06/343]	[Remarks:Success]
[Date: 2016-06-10 08:30:11]	[UserID:06/343]	[IP:10.10.11.1]	[Browser:Chrome - 51.0.2704.84]	[Action:Filtering User : MasterData Username : 06/343]	[Remarks:Successful filter row count: 0]
[Date: 2016-06-10 08:30:11]	[UserID:06/343]	[IP:10.10.11.1]	[Browser:Chrome - 51.0.2704.84]	[Action:Filtering User : MasterData Username : 06/343]	[Remarks:Successful filter row count: 0]
[Date: 2016-06-10 08:30:11]	[UserID:06/343]	[IP:10.10.11.1]	[Browser:Chrome - 51.0.2704.84]	[Action:Filtering User : MasterData Username : 06/343]	[Remarks:Success]
[Date: 2016-06-10 08:30:11]	[UserID:06/343]	[IP:10.10.11.1]	[Browser:Chrome - 51.0.2704.84]	[Action:Closing mssql connection]	[Remarks:Success]
[Date: 2016-06-10 08:30:11]	[UserID:06/343]	[IP:10.10.11.1]	[Browser:Chrome - 51.0.2704.84]	[Action:Making connection to server]	[Remarks:Successful connection to server: S3]
[Date: 2016-06-10 08:30:11]	[UserID:11/715]	[IP:10.10.11.1]	[Browser:Chrome - 51.0.2704.84]	[Action:Making connection to server]	[Remarks:Successful connection to server: S3]
[Date: 2016-06-10 08:30:11]	[UserID:11/715]	[IP:10.10.11.1]	[Browser:Chrome - 51.0.2704.84]	[Action:User 11/715]	[Remarks:Success]
[Date: 2016-06-10 08:30:11]	[UserID:11/715]	[IP:10.10.11.1]	[Browser:Chrome - 51.0.2704.84]	[Action:Filtering User : MasterData Username : 11/715]	[Remarks:Successful filter row count: 0]
[Date: 2016-06-10 08:30:11]	[UserID:11/715]	[IP:10.10.11.1]	[Browser:Chrome - 51.0.2704.84]	[Action:Filtering User : MasterData Username : 11/715]	[Remarks:Successful filter row count: 0]
[Date: 2016-06-10 08:30:11]	[UserID:11/715]	[IP:10.10.11.1]	[Browser:Chrome - 51.0.2704.84]	[Action:Filtering User : MasterData Username : 11/715]	[Remarks:Success]
[Date: 2016-06-10 08:30:11]	[UserID:11/715]	[IP:10.10.11.1]	[Browser:Chrome - 51.0.2704.84]	[Action:Closing mssql connection]	[Remarks:Success]
[Date: 2016-06-10 08:30:11]	[UserID:06/343]	[IP:10.10.11.1]	[Browser:Chrome - 51.0.2704.84]	[Action:GetProgramList 06/343]	[Remarks:[{"ID":"1","ProgramIndex":"GST","ProgramName":"GST"}]]
[Date: 2016-06-10 08:30:11]	[UserID:06/343]	[IP:10.10.11.1]	[Browser:Chrome - 51.0.2704.84]	[Action:Making connection to server]	[Remarks:Successful connection to server: S3]
[Date: 2016-06-10 08:30:11]	[UserID:06/343]	[IP:10.10.11.1]	[Browser:Chrome - 51.0.2704.84]	[Action:GetProgramList 06/343]	[Remarks:[{"ID":"1","ProgramIndex":"GST","ProgramName":"GST"}]]
[Date: 2016-06-10 08:30:11]	[UserID:06/343]	[IP:10.10.11.1]	[Browser:Chrome - 51.0.2704.84]	[Action:Making connection to server]	[Remarks:Successful connection to server: S3]
[Date: 2016-06-10 08:30:11]	[UserID:06/343]	[IP:10.10.11.1]	[Browser:Chrome - 51.0.2704.84]	[Action:Filtering User : MasterData Username : 06/343]	[Remarks:Successful filter row count: 1]
[Date: 2016-06-10 08:30:12]	[UserID:11/715]	[IP:10.10.11.1]	[Browser:Chrome - 51.0.2704.84]	[Action:Making connection to server]	[Remarks:Successful connection to server: S3]
[Date: 2016-06-10 08:30:12]	[UserID:11/715]	[IP:10.10.11.1]	[Browser:Chrome - 51.0.2704.84]	[Action:GetProgramList 11/715]	[Remarks:[{"ID":"1","ProgramIndex":"GST","ProgramName":"GST"}]]
[Date: 2016-06-10 08:30:12]	[UserID:11/715]	[IP:10.10.11.1]	[Browser:Chrome - 51.0.2704.84]	[Action:Making connection to server]	[Remarks:Successful connection to server: S3]
[Date: 2016-06-10 08:30:12]	[UserID:11/715]	[IP:10.10.11.1]	[Browser:Chrome - 51.0.2704.84]	[Action:GetProgramList 11/715]	[Remarks:[{"ID":"1","ProgramIndex":"GST","ProgramName":"GST"}]]
[Date: 2016-06-10 08:30:12]	[UserID:11/715]	[IP:10.10.11.1]	[Browser:Chrome - 51.0.2704.84]	[Action:Making connection to server]	[Remarks:Successful connection to server: S3]
[Date: 2016-06-10 08:30:12]	[UserID:11/715]	[IP:10.10.11.1]	[Browser:Chrome - 51.0.2704.84]	[Action:Filtering User : MasterData Username : 11/715]	[Remarks:Successful filter row count: 1]
[Date: 2016-06-10 08:30:12]	[UserID:06/343]	[IP:10.10.11.1]	[Browser:Chrome - 51.0.2704.84]	[Action:Making connection to server]	[Remarks:Successful connection to server: S3]
[Date: 2016-06-10 08:30:12]	[UserID:06/343]	[IP:10.10.11.1]	[Browser:Chrome - 51.0.2704.84]	[Action:GetGSTModules 06/343,1]	[Remarks:Successful filter row count: 5]
[Date: 2016-06-10 08:30:12]	[UserID:06/343]	[IP:10.10.11.1]	[Browser:Chrome - 51.0.2704.84]	[Action:Closing mssql connection]	[Remarks:Success]
[Date: 2016-06-10 08:30:12]	[UserID:11/715]	[IP:10.10.11.1]	[Browser:Chrome - 51.0.2704.84]	[Action:Making connection to server]	[Remarks:Successful connection to server: S3]
[Date: 2016-06-10 08:30:12]	[UserID:11/715]	[IP:10.10.11.1]	[Browser:Chrome - 51.0.2704.84]	[Action:GetGSTModules 11/715,1]	[Remarks:Successful filter row count: 3]
[Date: 2016-06-10 08:30:12]	[UserID:11/715]	[IP:10.10.11.1]	[Browser:Chrome - 51.0.2704.84]	[Action:Closing mssql connection]	[Remarks:Success]
[Date: 2016-06-10 08:32:40]	[UserID:11/715]	[IP:10.10.11.1]	[Browser:Chrome - 51.0.2704.84]	[Action:Making connection to server]	[Remarks:Successful connection to server: S3]
[Date: 2016-06-10 08:32:40]	[UserID:11/715]	[IP:10.10.11.1]	[Browser:Chrome - 51.0.2704.84]	[Action:GetGSTModules 11/715,1]	[Remarks:Successful filter row count: 3]
[Date: 2016-06-10 08:32:40]	[UserID:11/715]	[IP:10.10.11.1]	[Browser:Chrome - 51.0.2704.84]	[Action:Closing mssql connection]	[Remarks:Success]
[Date: 2016-06-10 08:33:43]	[UserID:11/715]	[IP:10.10.11.1]	[Browser:Chrome - 51.0.2704.84]	[Action:Making connection to server]	[Remarks:Successful connection to server: S3]
[Date: 2016-06-10 08:33:43]	[UserID:11/715]	[IP:10.10.11.1]	[Browser:Chrome - 51.0.2704.84]	[Action:GetGSTModules 11/715,1]	[Remarks:Successful filter row count: 3]
[Date: 2016-06-10 08:33:43]	[UserID:11/715]	[IP:10.10.11.1]	[Browser:Chrome - 51.0.2704.84]	[Action:Closing mssql connection]	[Remarks:Success]
[Date: 2016-06-10 08:33:46]	[UserID:06/343]	[IP:10.10.11.1]	[Browser:Chrome - 51.0.2704.84]	[Action:Making connection to server]	[Remarks:Successful connection to server: S3]
[Date: 2016-06-10 08:33:46]	[UserID:06/343]	[IP:10.10.11.1]	[Browser:Chrome - 51.0.2704.84]	[Action:GetGSTModules 06/343,1]	[Remarks:Successful filter row count: 5]
[Date: 2016-06-10 08:33:46]	[UserID:06/343]	[IP:10.10.11.1]	[Browser:Chrome - 51.0.2704.84]	[Action:Closing mssql connection]	[Remarks:Success]
[Date: 2016-06-10 08:34:13]	[UserID:11/715]	[IP:10.10.11.1]	[Browser:Chrome - 51.0.2704.84]	[Action:Making connection to server]	[Remarks:Successful connection to server: S3]
[Date: 2016-06-10 08:34:13]	[UserID:11/715]	[IP:10.10.11.1]	[Browser:Chrome - 51.0.2704.84]	[Action:GetGSTModules 11/715,1]	[Remarks:Successful filter row count: 3]
[Date: 2016-06-10 08:34:13]	[UserID:11/715]	[IP:10.10.11.1]	[Browser:Chrome - 51.0.2704.84]	[Action:Closing mssql connection]	[Remarks:Success]
[Date: 2016-06-10 08:35:06]	[UserID:06/343]	[IP:10.10.11.1]	[Browser:Chrome - 51.0.2704.84]	[Action:Making connection to server]	[Remarks:Successful connection to server: S3]
[Date: 2016-06-10 08:35:06]	[UserID:06/343]	[IP:10.10.11.1]	[Browser:Chrome - 51.0.2704.84]	[Action:GetProgramList 06/343]	[Remarks:[{"ID":"1","ProgramIndex":"GST","ProgramName":"GST"}]]
[Date: 2016-06-10 08:35:06]	[UserID:06/343]	[IP:10.10.11.1]	[Browser:Chrome - 51.0.2704.84]	[Action:Making connection to server]	[Remarks:Successful connection to server: S3]
[Date: 2016-06-10 08:35:06]	[UserID:06/343]	[IP:10.10.11.1]	[Browser:Chrome - 51.0.2704.84]	[Action:GetProgramList 06/343]	[Remarks:[{"ID":"1","ProgramIndex":"GST","ProgramName":"GST"}]]
[Date: 2016-06-10 08:35:06]	[UserID:06/343]	[IP:10.10.11.1]	[Browser:Chrome - 51.0.2704.84]	[Action:Making connection to server]	[Remarks:Successful connection to server: S3]
[Date: 2016-06-10 08:35:06]	[UserID:06/343]	[IP:10.10.11.1]	[Browser:Chrome - 51.0.2704.84]	[Action:Filtering User : MasterData Username : 06/343]	[Remarks:Successful filter row count: 1]
[Date: 2016-06-10 08:35:06]	[UserID:06/343]	[IP:10.10.11.1]	[Browser:Chrome - 51.0.2704.84]	[Action:Making connection to server]	[Remarks:Successful connection to server: S3]
[Date: 2016-06-10 08:35:06]	[UserID:06/343]	[IP:10.10.11.1]	[Browser:Chrome - 51.0.2704.84]	[Action:GetGSTModules 06/343,1]	[Remarks:Successful filter row count: 5]
[Date: 2016-06-10 08:35:06]	[UserID:06/343]	[IP:10.10.11.1]	[Browser:Chrome - 51.0.2704.84]	[Action:Closing mssql connection]	[Remarks:Success]
[Date: 2016-06-10 08:40:06]	[UserID:06/343]	[IP:10.10.11.1]	[Browser:Chrome - 51.0.2704.84]	[Action:Making connection to server]	[Remarks:Successful connection to server: S3]
[Date: 2016-06-10 08:40:06]	[UserID:06/343]	[IP:10.10.11.1]	[Browser:Chrome - 51.0.2704.84]	[Action:GetGSTModules 06/343,1]	[Remarks:Successful filter row count: 5]
[Date: 2016-06-10 08:40:06]	[UserID:06/343]	[IP:10.10.11.1]	[Browser:Chrome - 51.0.2704.84]	[Action:Closing mssql connection]	[Remarks:Success]
[Date: 2016-06-10 08:46:02]	[UserID:06/343]	[IP:10.10.11.1]	[Browser:Chrome - 51.0.2704.84]	[Action:Making connection to server]	[Remarks:Successful connection to server: S3]
[Date: 2016-06-10 08:46:03]	[UserID:06/343]	[IP:10.10.11.1]	[Browser:Chrome - 51.0.2704.84]	[Action:GetGSTModules 06/343,1]	[Remarks:Successful filter row count: 5]
[Date: 2016-06-10 08:46:03]	[UserID:06/343]	[IP:10.10.11.1]	[Browser:Chrome - 51.0.2704.84]	[Action:Closing mssql connection]	[Remarks:Success]
[Date: 2016-06-10 09:22:33]	[UserID:]	[IP:10.10.11.1]	[Browser:Chrome - 51.0.2704.84]	[Action:Making connection to server]	[Remarks:Successful connection to server: S3]
[Date: 2016-06-10 09:22:34]	[UserID:]	[IP:10.10.11.1]	[Browser:Chrome - 51.0.2704.84]	[Action:GetProgramList ]	[Remarks:"no data"]
[Date: 2016-06-10 10:03:27]	[UserID:]	[IP:10.10.11.1]	[Browser:Chrome - 51.0.2704.84]	[Action:Making connection to server]	[Remarks:Successful connection to server: S3]
[Date: 2016-06-10 10:03:27]	[UserID:]	[IP:10.10.11.1]	[Browser:Chrome - 51.0.2704.84]	[Action:GetProgramList ]	[Remarks:"no data"]
[Date: 2016-06-10 10:03:32]	[UserID:10/660]	[IP:10.10.11.1]	[Browser:Chrome - 51.0.2704.84]	[Action:Making connection to server]	[Remarks:Successful connection to server: S3]
[Date: 2016-06-10 10:03:32]	[UserID:10/660]	[IP:10.10.11.1]	[Browser:Chrome - 51.0.2704.84]	[Action:User 10/660]	[Remarks:Success]
[Date: 2016-06-10 10:03:32]	[UserID:10/660]	[IP:10.10.11.1]	[Browser:Chrome - 51.0.2704.84]	[Action:Filtering User : MasterData Username : 10/660]	[Remarks:Successful filter row count: 0]
[Date: 2016-06-10 10:03:32]	[UserID:10/660]	[IP:10.10.11.1]	[Browser:Chrome - 51.0.2704.84]	[Action:Filtering User : MasterData Username : 10/660]	[Remarks:Successful filter row count: 0]
[Date: 2016-06-10 10:03:32]	[UserID:10/660]	[IP:10.10.11.1]	[Browser:Chrome - 51.0.2704.84]	[Action:Filtering User : MasterData Username : 10/660]	[Remarks:Success]
[Date: 2016-06-10 10:03:32]	[UserID:10/660]	[IP:10.10.11.1]	[Browser:Chrome - 51.0.2704.84]	[Action:Closing mssql connection]	[Remarks:Success]
[Date: 2016-06-10 10:03:33]	[UserID:10/660]	[IP:10.10.11.1]	[Browser:Chrome - 51.0.2704.84]	[Action:Making connection to server]	[Remarks:Successful connection to server: S3]
[Date: 2016-06-10 10:03:33]	[UserID:10/660]	[IP:10.10.11.1]	[Browser:Chrome - 51.0.2704.84]	[Action:GetProgramList 10/660]	[Remarks:[{"ID":"1","ProgramIndex":"GST","ProgramName":"GST"}]]
[Date: 2016-06-10 10:03:33]	[UserID:10/660]	[IP:10.10.11.1]	[Browser:Chrome - 51.0.2704.84]	[Action:Making connection to server]	[Remarks:Successful connection to server: S3]
[Date: 2016-06-10 10:03:33]	[UserID:10/660]	[IP:10.10.11.1]	[Browser:Chrome - 51.0.2704.84]	[Action:GetProgramList 10/660]	[Remarks:[{"ID":"1","ProgramIndex":"GST","ProgramName":"GST"}]]
[Date: 2016-06-10 10:03:33]	[UserID:10/660]	[IP:10.10.11.1]	[Browser:Chrome - 51.0.2704.84]	[Action:Making connection to server]	[Remarks:Successful connection to server: S3]
[Date: 2016-06-10 10:03:33]	[UserID:10/660]	[IP:10.10.11.1]	[Browser:Chrome - 51.0.2704.84]	[Action:Filtering User : MasterData Username : 10/660]	[Remarks:Successful filter row count: 1]
[Date: 2016-06-10 10:03:33]	[UserID:10/660]	[IP:10.10.11.1]	[Browser:Chrome - 51.0.2704.84]	[Action:Making connection to server]	[Remarks:Successful connection to server: S3]
[Date: 2016-06-10 10:03:33]	[UserID:10/660]	[IP:10.10.11.1]	[Browser:Chrome - 51.0.2704.84]	[Action:GetGSTModules 10/660,1]	[Remarks:Successful filter row count: 3]
[Date: 2016-06-10 10:03:33]	[UserID:10/660]	[IP:10.10.11.1]	[Browser:Chrome - 51.0.2704.84]	[Action:Closing mssql connection]	[Remarks:Success]
[Date: 2016-06-10 10:10:34]	[UserID:10/660]	[IP:10.10.11.1]	[Browser:Chrome - 51.0.2704.84]	[Action:Making connection to server]	[Remarks:Successful connection to server: S3]
[Date: 2016-06-10 10:10:34]	[UserID:10/660]	[IP:10.10.11.1]	[Browser:Chrome - 51.0.2704.84]	[Action:GetGSTModules 10/660,1]	[Remarks:Successful filter row count: 3]
[Date: 2016-06-10 10:10:34]	[UserID:10/660]	[IP:10.10.11.1]	[Browser:Chrome - 51.0.2704.84]	[Action:Closing mssql connection]	[Remarks:Success]
[Date: 2016-06-10 10:20:12]	[UserID:10/660]	[IP:10.10.11.1]	[Browser:Chrome - 51.0.2704.84]	[Action:Making connection to server]	[Remarks:Successful connection to server: S3]
[Date: 2016-06-10 10:20:12]	[UserID:10/660]	[IP:10.10.11.1]	[Browser:Chrome - 51.0.2704.84]	[Action:GetGSTModules 10/660,1]	[Remarks:Successful filter row count: 3]
[Date: 2016-06-10 10:20:12]	[UserID:10/660]	[IP:10.10.11.1]	[Browser:Chrome - 51.0.2704.84]	[Action:Closing mssql connection]	[Remarks:Success]
[Date: 2016-06-10 10:20:39]	[UserID:]	[IP:10.10.11.1]	[Browser:Chrome - 51.0.2704.84]	[Action:Making connection to server]	[Remarks:Successful connection to server: S3]
[Date: 2016-06-10 10:20:39]	[UserID:]	[IP:10.10.11.1]	[Browser:Chrome - 51.0.2704.84]	[Action:GetProgramList ]	[Remarks:"no data"]
[Date: 2016-06-10 10:35:01]	[UserID:08/504]	[IP:10.10.11.1]	[Browser:Chrome - 51.0.2704.84]	[Action:Making connection to server]	[Remarks:Successful connection to server: S3]
[Date: 2016-06-10 10:35:01]	[UserID:08/504]	[IP:10.10.11.1]	[Browser:Chrome - 51.0.2704.84]	[Action:User 08/504]	[Remarks:Success]
[Date: 2016-06-10 10:35:01]	[UserID:08/504]	[IP:10.10.11.1]	[Browser:Chrome - 51.0.2704.84]	[Action:Filtering User : MasterData Username : 08/504]	[Remarks:Successful filter row count: 0]
[Date: 2016-06-10 10:35:01]	[UserID:08/504]	[IP:10.10.11.1]	[Browser:Chrome - 51.0.2704.84]	[Action:Filtering User : MasterData Username : 08/504]	[Remarks:Successful filter row count: 0]
[Date: 2016-06-10 10:35:01]	[UserID:08/504]	[IP:10.10.11.1]	[Browser:Chrome - 51.0.2704.84]	[Action:Filtering User : MasterData Username : 08/504]	[Remarks:Success]
[Date: 2016-06-10 10:35:01]	[UserID:08/504]	[IP:10.10.11.1]	[Browser:Chrome - 51.0.2704.84]	[Action:Closing mssql connection]	[Remarks:Success]
[Date: 2016-06-10 10:35:01]	[UserID:08/504]	[IP:10.10.11.1]	[Browser:Chrome - 51.0.2704.84]	[Action:Making connection to server]	[Remarks:Successful connection to server: S3]
[Date: 2016-06-10 10:35:01]	[UserID:08/504]	[IP:10.10.11.1]	[Browser:Chrome - 51.0.2704.84]	[Action:GetProgramList 08/504]	[Remarks:[{"ID":"1","ProgramIndex":"GST","ProgramName":"GST"}]]
[Date: 2016-06-10 10:35:01]	[UserID:08/504]	[IP:10.10.11.1]	[Browser:Chrome - 51.0.2704.84]	[Action:Making connection to server]	[Remarks:Successful connection to server: S3]
[Date: 2016-06-10 10:35:01]	[UserID:08/504]	[IP:10.10.11.1]	[Browser:Chrome - 51.0.2704.84]	[Action:GetProgramList 08/504]	[Remarks:[{"ID":"1","ProgramIndex":"GST","ProgramName":"GST"}]]
[Date: 2016-06-10 10:35:01]	[UserID:08/504]	[IP:10.10.11.1]	[Browser:Chrome - 51.0.2704.84]	[Action:Making connection to server]	[Remarks:Successful connection to server: S3]
[Date: 2016-06-10 10:35:01]	[UserID:08/504]	[IP:10.10.11.1]	[Browser:Chrome - 51.0.2704.84]	[Action:Filtering User : MasterData Username : 08/504]	[Remarks:Successful filter row count: 1]
[Date: 2016-06-10 10:35:02]	[UserID:08/504]	[IP:10.10.11.1]	[Browser:Chrome - 51.0.2704.84]	[Action:Making connection to server]	[Remarks:Successful connection to server: S3]
[Date: 2016-06-10 10:35:02]	[UserID:08/504]	[IP:10.10.11.1]	[Browser:Chrome - 51.0.2704.84]	[Action:GetGSTModules 08/504,1]	[Remarks:Successful filter row count: 5]
[Date: 2016-06-10 10:35:02]	[UserID:08/504]	[IP:10.10.11.1]	[Browser:Chrome - 51.0.2704.84]	[Action:Closing mssql connection]	[Remarks:Success]
[Date: 2016-06-10 11:31:56]	[UserID:08/504]	[IP:10.10.11.1]	[Browser:Chrome - 51.0.2704.84]	[Action:Making connection to server]	[Remarks:Successful connection to server: S3]
[Date: 2016-06-10 11:31:57]	[UserID:08/504]	[IP:10.10.11.1]	[Browser:Chrome - 51.0.2704.84]	[Action:GetGSTModules 08/504,1]	[Remarks:Successful filter row count: 5]
[Date: 2016-06-10 11:31:57]	[UserID:08/504]	[IP:10.10.11.1]	[Browser:Chrome - 51.0.2704.84]	[Action:Closing mssql connection]	[Remarks:Success]
[Date: 2016-06-10 11:37:48]	[UserID:06/343]	[IP:10.10.11.1]	[Browser:Chrome - 51.0.2704.84]	[Action:Making connection to server]	[Remarks:Successful connection to server: S3]
[Date: 2016-06-10 11:37:48]	[UserID:06/343]	[IP:10.10.11.1]	[Browser:Chrome - 51.0.2704.84]	[Action:GetGSTModules 06/343,1]	[Remarks:Successful filter row count: 5]
[Date: 2016-06-10 11:37:48]	[UserID:06/343]	[IP:10.10.11.1]	[Browser:Chrome - 51.0.2704.84]	[Action:Closing mssql connection]	[Remarks:Success]
[Date: 2016-06-10 11:53:32]	[UserID:]	[IP:10.10.11.1]	[Browser:Firefox - 46.0]	[Action:Making connection to server]	[Remarks:Successful connection to server: S3]
[Date: 2016-06-10 11:53:32]	[UserID:]	[IP:10.10.11.1]	[Browser:Firefox - 46.0]	[Action:GetProgramList ]	[Remarks:"no data"]
[Date: 2016-06-10 11:53:40]	[UserID:jefferson]	[IP:10.10.11.1]	[Browser:Firefox - 46.0]	[Action:Making connection to server]	[Remarks:Successful connection to server: S3]
[Date: 2016-06-10 11:53:40]	[UserID:jefferson]	[IP:10.10.11.1]	[Browser:Firefox - 46.0]	[Action:User jefferson]	[Remarks:Success]
[Date: 2016-06-10 11:53:40]	[UserID:jefferson]	[IP:10.10.11.1]	[Browser:Firefox - 46.0]	[Action:Filtering User : MasterData Username : jefferson]	[Remarks:Successful filter row count: 0]
[Date: 2016-06-10 11:53:40]	[UserID:jefferson]	[IP:10.10.11.1]	[Browser:Firefox - 46.0]	[Action:Filtering User : MasterData Username : jefferson]	[Remarks:Successful filter row count: 0]
[Date: 2016-06-10 11:53:40]	[UserID:jefferson]	[IP:10.10.11.1]	[Browser:Firefox - 46.0]	[Action:Filtering User : MasterData Username : jefferson]	[Remarks:Success]
[Date: 2016-06-10 11:53:40]	[UserID:jefferson]	[IP:10.10.11.1]	[Browser:Firefox - 46.0]	[Action:Closing mssql connection]	[Remarks:Success]
[Date: 2016-06-10 11:53:41]	[UserID:jefferson]	[IP:10.10.11.1]	[Browser:Firefox - 46.0]	[Action:Making connection to server]	[Remarks:Successful connection to server: S3]
[Date: 2016-06-10 11:53:41]	[UserID:jefferson]	[IP:10.10.11.1]	[Browser:Firefox - 46.0]	[Action:GetProgramList jefferson]	[Remarks:[{"ID":"1","ProgramIndex":"GST","ProgramName":"GST"},{"ID":"3","ProgramIndex":"PRD","ProgramName":"PRD"}]]
[Date: 2016-06-10 11:53:41]	[UserID:jefferson]	[IP:10.10.11.1]	[Browser:Firefox - 46.0]	[Action:Making connection to server]	[Remarks:Successful connection to server: S3]
[Date: 2016-06-10 11:53:41]	[UserID:jefferson]	[IP:10.10.11.1]	[Browser:Firefox - 46.0]	[Action:GetProgramList jefferson]	[Remarks:[{"ID":"1","ProgramIndex":"GST","ProgramName":"GST"},{"ID":"3","ProgramIndex":"PRD","ProgramName":"PRD"}]]
[Date: 2016-06-10 11:53:41]	[UserID:jefferson]	[IP:10.10.11.1]	[Browser:Firefox - 46.0]	[Action:Making connection to server]	[Remarks:Successful connection to server: S3]
[Date: 2016-06-10 11:53:41]	[UserID:jefferson]	[IP:10.10.11.1]	[Browser:Firefox - 46.0]	[Action:Filtering User : MasterData Username : jefferson]	[Remarks:Successful filter row count: 1]
[Date: 2016-06-10 11:53:43]	[UserID:jefferson]	[IP:10.10.11.1]	[Browser:Firefox - 46.0]	[Action:Making connection to server]	[Remarks:Successful connection to server: S3]
[Date: 2016-06-10 11:53:43]	[UserID:jefferson]	[IP:10.10.11.1]	[Browser:Firefox - 46.0]	[Action:GetGSTModules jefferson,1]	[Remarks:Successful filter row count: 7]
[Date: 2016-06-10 11:53:43]	[UserID:jefferson]	[IP:10.10.11.1]	[Browser:Firefox - 46.0]	[Action:Closing mssql connection]	[Remarks:Success]
[Date: 2016-06-10 12:02:03]	[UserID:jefferson]	[IP:10.10.11.1]	[Browser:Firefox - 46.0]	[Action:Making connection to server]	[Remarks:Successful connection to server: S3]
[Date: 2016-06-10 12:02:03]	[UserID:jefferson]	[IP:10.10.11.1]	[Browser:Firefox - 46.0]	[Action:GetGSTModules jefferson,1]	[Remarks:Successful filter row count: 7]
[Date: 2016-06-10 12:02:03]	[UserID:jefferson]	[IP:10.10.11.1]	[Browser:Firefox - 46.0]	[Action:Closing mssql connection]	[Remarks:Success]
[Date: 2016-06-10 12:13:34]	[UserID:jefferson]	[IP:10.10.11.1]	[Browser:Firefox - 46.0]	[Action:Making connection to server]	[Remarks:Successful connection to server: S3]
[Date: 2016-06-10 12:13:34]	[UserID:jefferson]	[IP:10.10.11.1]	[Browser:Firefox - 46.0]	[Action:GetGSTModules jefferson,1]	[Remarks:Successful filter row count: 7]
[Date: 2016-06-10 12:13:34]	[UserID:jefferson]	[IP:10.10.11.1]	[Browser:Firefox - 46.0]	[Action:Closing mssql connection]	[Remarks:Success]
[Date: 2016-06-10 14:02:13]	[UserID:08/504]	[IP:10.10.11.1]	[Browser:Chrome - 51.0.2704.84]	[Action:Making connection to server]	[Remarks:Successful connection to server: S3]
[Date: 2016-06-10 14:02:13]	[UserID:08/504]	[IP:10.10.11.1]	[Browser:Chrome - 51.0.2704.84]	[Action:GetGSTModules 08/504,1]	[Remarks:Successful filter row count: 5]
[Date: 2016-06-10 14:02:13]	[UserID:08/504]	[IP:10.10.11.1]	[Browser:Chrome - 51.0.2704.84]	[Action:Closing mssql connection]	[Remarks:Success]
[Date: 2016-06-10 14:13:02]	[UserID:08/504]	[IP:10.10.11.1]	[Browser:Chrome - 51.0.2704.84]	[Action:Making connection to server]	[Remarks:Successful connection to server: S3]
[Date: 2016-06-10 14:13:02]	[UserID:08/504]	[IP:10.10.11.1]	[Browser:Chrome - 51.0.2704.84]	[Action:GetGSTModules 08/504,1]	[Remarks:Successful filter row count: 5]
[Date: 2016-06-10 14:13:02]	[UserID:08/504]	[IP:10.10.11.1]	[Browser:Chrome - 51.0.2704.84]	[Action:Closing mssql connection]	[Remarks:Success]
[Date: 2016-06-10 14:13:28]	[UserID:08/504]	[IP:10.10.11.1]	[Browser:Chrome - 51.0.2704.84]	[Action:Making connection to server]	[Remarks:Successful connection to server: S3]
[Date: 2016-06-10 14:13:28]	[UserID:08/504]	[IP:10.10.11.1]	[Browser:Chrome - 51.0.2704.84]	[Action:GetGSTModules 08/504,1]	[Remarks:Successful filter row count: 5]
[Date: 2016-06-10 14:13:28]	[UserID:08/504]	[IP:10.10.11.1]	[Browser:Chrome - 51.0.2704.84]	[Action:Closing mssql connection]	[Remarks:Success]
[Date: 2016-06-10 14:15:52]	[UserID:08/504]	[IP:10.10.11.1]	[Browser:Chrome - 51.0.2704.84]	[Action:Making connection to server]	[Remarks:Successful connection to server: S3]
[Date: 2016-06-10 14:16:01]	[UserID:08/504]	[IP:10.10.11.1]	[Browser:Chrome - 51.0.2704.84]	[Action:GetGSTModules 08/504,1]	[Remarks:Successful filter row count: 5]
[Date: 2016-06-10 14:16:01]	[UserID:08/504]	[IP:10.10.11.1]	[Browser:Chrome - 51.0.2704.84]	[Action:Closing mssql connection]	[Remarks:Success]
[Date: 2016-06-10 14:18:47]	[UserID:08/504]	[IP:10.10.11.1]	[Browser:Chrome - 51.0.2704.84]	[Action:Making connection to server]	[Remarks:Successful connection to server: S3]
[Date: 2016-06-10 14:18:47]	[UserID:08/504]	[IP:10.10.11.1]	[Browser:Chrome - 51.0.2704.84]	[Action:GetGSTModules 08/504,1]	[Remarks:Successful filter row count: 5]
[Date: 2016-06-10 14:18:47]	[UserID:08/504]	[IP:10.10.11.1]	[Browser:Chrome - 51.0.2704.84]	[Action:Closing mssql connection]	[Remarks:Success]
[Date: 2016-06-10 14:19:26]	[UserID:08/504]	[IP:10.10.11.1]	[Browser:Chrome - 51.0.2704.84]	[Action:Making connection to server]	[Remarks:Successful connection to server: S3]
[Date: 2016-06-10 14:19:26]	[UserID:08/504]	[IP:10.10.11.1]	[Browser:Chrome - 51.0.2704.84]	[Action:GetGSTModules 08/504,1]	[Remarks:Successful filter row count: 5]
[Date: 2016-06-10 14:19:26]	[UserID:08/504]	[IP:10.10.11.1]	[Browser:Chrome - 51.0.2704.84]	[Action:Closing mssql connection]	[Remarks:Success]
[Date: 2016-06-10 17:34:13]	[UserID:]	[IP:10.10.11.1]	[Browser:Chrome - 49.0.2623.75]	[Action:Making connection to server]	[Remarks:Successful connection to server: S3]
[Date: 2016-06-10 17:34:14]	[UserID:]	[IP:10.10.11.1]	[Browser:Chrome - 49.0.2623.75]	[Action:GetProgramList ]	[Remarks:"no data"]
