[Date: 2018-02-02 10:40:21]	[UserID:]	[IP:10.128.12.210]	[Browser:Chrome - 63.0.3239.132]	[Action:Making connection to server]	[Remarks:Successful connection to server: S3]
[Date: 2018-02-02 10:40:21]	[UserID:]	[IP:10.128.12.210]	[Browser:Chrome - 63.0.3239.132]	[Action:GetProgramList ]	[Remarks:"no data"]
[Date: 2018-02-02 10:40:31]	[UserID:10/660]	[IP:10.128.12.210]	[Browser:Chrome - 63.0.3239.132]	[Action:Making connection to server]	[Remarks:Successful connection to server: S3]
[Date: 2018-02-02 10:40:31]	[UserID:10/660]	[IP:10.128.12.210]	[Browser:Chrome - 63.0.3239.132]	[Action:User 10/660]	[Remarks:Success]
[Date: 2018-02-02 10:40:31]	[UserID:10/660]	[IP:10.128.12.210]	[Browser:Chrome - 63.0.3239.132]	[Action:Filtering User : MasterData Username : 10/660]	[Remarks:Successful filter row count: 0]
[Date: 2018-02-02 10:40:31]	[UserID:10/660]	[IP:10.128.12.210]	[Browser:Chrome - 63.0.3239.132]	[Action:Filtering User : MasterData Username : 10/660]	[Remarks:Successful filter row count: 0]
[Date: 2018-02-02 10:40:31]	[UserID:10/660]	[IP:10.128.12.210]	[Browser:Chrome - 63.0.3239.132]	[Action:Filtering User : MasterData Username : 10/660]	[Remarks:Success]
[Date: 2018-02-02 10:40:31]	[UserID:10/660]	[IP:10.128.12.210]	[Browser:Chrome - 63.0.3239.132]	[Action:Closing mssql connection]	[Remarks:Success]
[Date: 2018-02-02 10:40:32]	[UserID:10/660]	[IP:10.128.12.210]	[Browser:Chrome - 63.0.3239.132]	[Action:Making connection to server]	[Remarks:Successful connection to server: S3]
[Date: 2018-02-02 10:40:32]	[UserID:10/660]	[IP:10.128.12.210]	[Browser:Chrome - 63.0.3239.132]	[Action:GetProgramList 10/660]	[Remarks:[{"ID":"1","ProgramIndex":"GST","ProgramName":"GST"}]]
[Date: 2018-02-02 10:40:32]	[UserID:10/660]	[IP:10.128.12.210]	[Browser:Chrome - 63.0.3239.132]	[Action:Making connection to server]	[Remarks:Successful connection to server: S3]
[Date: 2018-02-02 10:40:32]	[UserID:10/660]	[IP:10.128.12.210]	[Browser:Chrome - 63.0.3239.132]	[Action:GetProgramList 10/660]	[Remarks:[{"ID":"1","ProgramIndex":"GST","ProgramName":"GST"}]]
[Date: 2018-02-02 10:40:32]	[UserID:10/660]	[IP:10.128.12.210]	[Browser:Chrome - 63.0.3239.132]	[Action:Making connection to server]	[Remarks:Successful connection to server: S3]
[Date: 2018-02-02 10:40:32]	[UserID:10/660]	[IP:10.128.12.210]	[Browser:Chrome - 63.0.3239.132]	[Action:Filtering User : MasterData Username : 10/660]	[Remarks:Successful filter row count: 1]
[Date: 2018-02-02 10:40:33]	[UserID:10/660]	[IP:10.128.12.210]	[Browser:Chrome - 63.0.3239.132]	[Action:Making connection to server]	[Remarks:Successful connection to server: S3]
[Date: 2018-02-02 10:40:33]	[UserID:10/660]	[IP:10.128.12.210]	[Browser:Chrome - 63.0.3239.132]	[Action:GetGSTModules 10/660,1]	[Remarks:Successful filter row count: 5]
[Date: 2018-02-02 10:40:33]	[UserID:10/660]	[IP:10.128.12.210]	[Browser:Chrome - 63.0.3239.132]	[Action:Closing mssql connection]	[Remarks:Success]
[Date: 2018-02-02 10:46:51]	[UserID:10/660]	[IP:10.128.12.210]	[Browser:Chrome - 63.0.3239.132]	[Action:Making connection to server]	[Remarks:Successful connection to server: S3]
[Date: 2018-02-02 10:46:51]	[UserID:10/660]	[IP:10.128.12.210]	[Browser:Chrome - 63.0.3239.132]	[Action:GetGSTModules 10/660,1]	[Remarks:Successful filter row count: 5]
[Date: 2018-02-02 10:46:51]	[UserID:10/660]	[IP:10.128.12.210]	[Browser:Chrome - 63.0.3239.132]	[Action:Closing mssql connection]	[Remarks:Success]
[Date: 2018-02-02 10:48:56]	[UserID:]	[IP:10.128.12.210]	[Browser:Chrome - 63.0.3239.132]	[Action:Making connection to server]	[Remarks:Successful connection to server: S3]
[Date: 2018-02-02 10:48:56]	[UserID:]	[IP:10.128.12.210]	[Browser:Chrome - 63.0.3239.132]	[Action:GetProgramList ]	[Remarks:"no data"]
[Date: 2018-02-02 15:56:30]	[UserID:]	[IP:10.128.12.113]	[Browser:Chrome - 63.0.3239.132]	[Action:Making connection to server]	[Remarks:Successful connection to server: S3]
[Date: 2018-02-02 15:56:30]	[UserID:]	[IP:10.128.12.113]	[Browser:Chrome - 63.0.3239.132]	[Action:GetProgramList ]	[Remarks:"no data"]
[Date: 2018-02-02 15:56:30]	[UserID:]	[IP:10.128.12.113]	[Browser:Chrome - 63.0.3239.132]	[Action:Making connection to server]	[Remarks:Successful connection to server: S3]
[Date: 2018-02-02 15:56:30]	[UserID:]	[IP:10.128.12.113]	[Browser:Chrome - 63.0.3239.132]	[Action:GetProgramList ]	[Remarks:"no data"]
[Date: 2018-02-02 15:56:32]	[UserID:06/343]	[IP:10.128.12.113]	[Browser:Chrome - 63.0.3239.132]	[Action:Making connection to server]	[Remarks:Successful connection to server: S3]
[Date: 2018-02-02 15:56:32]	[UserID:06/343]	[IP:10.128.12.113]	[Browser:Chrome - 63.0.3239.132]	[Action:User 06/343]	[Remarks:Success]
[Date: 2018-02-02 15:56:32]	[UserID:06/343]	[IP:10.128.12.113]	[Browser:Chrome - 63.0.3239.132]	[Action:Filtering User : MasterData Username : 06/343]	[Remarks:Successful filter row count: 0]
[Date: 2018-02-02 15:56:32]	[UserID:06/343]	[IP:10.128.12.113]	[Browser:Chrome - 63.0.3239.132]	[Action:Filtering User : MasterData Username : 06/343]	[Remarks:Successful filter row count: 0]
[Date: 2018-02-02 15:56:32]	[UserID:06/343]	[IP:10.128.12.113]	[Browser:Chrome - 63.0.3239.132]	[Action:Filtering User : MasterData Username : 06/343]	[Remarks:Success]
[Date: 2018-02-02 15:56:32]	[UserID:06/343]	[IP:10.128.12.113]	[Browser:Chrome - 63.0.3239.132]	[Action:Closing mssql connection]	[Remarks:Success]
[Date: 2018-02-02 15:56:32]	[UserID:06/343]	[IP:10.128.12.113]	[Browser:Chrome - 63.0.3239.132]	[Action:Making connection to server]	[Remarks:Successful connection to server: S3]
[Date: 2018-02-02 15:56:32]	[UserID:06/343]	[IP:10.128.12.113]	[Browser:Chrome - 63.0.3239.132]	[Action:GetProgramList 06/343]	[Remarks:[{"ID":"1","ProgramIndex":"GST","ProgramName":"GST"}]]
[Date: 2018-02-02 15:56:32]	[UserID:06/343]	[IP:10.128.12.113]	[Browser:Chrome - 63.0.3239.132]	[Action:Making connection to server]	[Remarks:Successful connection to server: S3]
[Date: 2018-02-02 15:56:32]	[UserID:06/343]	[IP:10.128.12.113]	[Browser:Chrome - 63.0.3239.132]	[Action:GetProgramList 06/343]	[Remarks:[{"ID":"1","ProgramIndex":"GST","ProgramName":"GST"}]]
[Date: 2018-02-02 15:56:32]	[UserID:06/343]	[IP:10.128.12.113]	[Browser:Chrome - 63.0.3239.132]	[Action:Making connection to server]	[Remarks:Successful connection to server: S3]
[Date: 2018-02-02 15:56:32]	[UserID:06/343]	[IP:10.128.12.113]	[Browser:Chrome - 63.0.3239.132]	[Action:Filtering User : MasterData Username : 06/343]	[Remarks:Successful filter row count: 1]
[Date: 2018-02-02 15:56:33]	[UserID:06/343]	[IP:10.128.12.113]	[Browser:Chrome - 63.0.3239.132]	[Action:Making connection to server]	[Remarks:Successful connection to server: S3]
[Date: 2018-02-02 15:56:33]	[UserID:06/343]	[IP:10.128.12.113]	[Browser:Chrome - 63.0.3239.132]	[Action:GetGSTModules 06/343,1]	[Remarks:Successful filter row count: 5]
[Date: 2018-02-02 15:56:33]	[UserID:06/343]	[IP:10.128.12.113]	[Browser:Chrome - 63.0.3239.132]	[Action:Closing mssql connection]	[Remarks:Success]
[Date: 2018-02-02 15:59:50]	[UserID:06/343]	[IP:10.128.12.113]	[Browser:Chrome - 63.0.3239.132]	[Action:Making connection to server]	[Remarks:Successful connection to server: S3]
[Date: 2018-02-02 15:59:50]	[UserID:06/343]	[IP:10.128.12.113]	[Browser:Chrome - 63.0.3239.132]	[Action:GetGSTModules 06/343,1]	[Remarks:Successful filter row count: 5]
[Date: 2018-02-02 15:59:50]	[UserID:06/343]	[IP:10.128.12.113]	[Browser:Chrome - 63.0.3239.132]	[Action:Closing mssql connection]	[Remarks:Success]
