[Date: 2015-07-13 07:45:09]	[UserID:]	[IP:10.10.11.1]	[Browser:Firefox - 6.0]	[Action:Making connection to server]	[Remarks:Successful connection to server: S3]
[Date: 2015-07-13 07:45:09]	[UserID:]	[IP:10.10.11.1]	[Browser:Firefox - 6.0]	[Action:GetProgramList ]	[Remarks:"no data"]
[Date: 2015-07-13 08:29:32]	[UserID:]	[IP:10.10.11.1]	[Browser:Chrome - 43.0.2357.132]	[Action:Making connection to server]	[Remarks:Successful connection to server: S3]
[Date: 2015-07-13 08:29:32]	[UserID:]	[IP:10.10.11.1]	[Browser:Chrome - 43.0.2357.132]	[Action:GetProgramList ]	[Remarks:"no data"]
[Date: 2015-07-13 08:29:46]	[UserID:11/715]	[IP:10.10.11.1]	[Browser:Chrome - 43.0.2357.132]	[Action:Making connection to server]	[Remarks:Successful connection to server: S3]
[Date: 2015-07-13 08:29:46]	[UserID:11/715]	[IP:10.10.11.1]	[Browser:Chrome - 43.0.2357.132]	[Action:User 11/715]	[Remarks:Success]
[Date: 2015-07-13 08:29:46]	[UserID:11/715]	[IP:10.10.11.1]	[Browser:Chrome - 43.0.2357.132]	[Action:Filtering User : MasterData Username : 11/715]	[Remarks:Successful filter row count: 0]
[Date: 2015-07-13 08:29:46]	[UserID:11/715]	[IP:10.10.11.1]	[Browser:Chrome - 43.0.2357.132]	[Action:Filtering User : MasterData Username : 11/715]	[Remarks:Successful filter row count: 0]
[Date: 2015-07-13 08:29:46]	[UserID:11/715]	[IP:10.10.11.1]	[Browser:Chrome - 43.0.2357.132]	[Action:Filtering User : MasterData Username : 11/715]	[Remarks:Success]
[Date: 2015-07-13 08:29:46]	[UserID:11/715]	[IP:10.10.11.1]	[Browser:Chrome - 43.0.2357.132]	[Action:Closing mssql connection]	[Remarks:Success]
[Date: 2015-07-13 08:29:46]	[UserID:11/715]	[IP:10.10.11.1]	[Browser:Chrome - 43.0.2357.132]	[Action:Making connection to server]	[Remarks:Successful connection to server: S3]
[Date: 2015-07-13 08:29:46]	[UserID:11/715]	[IP:10.10.11.1]	[Browser:Chrome - 43.0.2357.132]	[Action:GetProgramList 11/715]	[Remarks:[{"ID":"1","ProgramIndex":"GST","ProgramName":"GST"}]]
[Date: 2015-07-13 08:29:46]	[UserID:11/715]	[IP:10.10.11.1]	[Browser:Chrome - 43.0.2357.132]	[Action:Making connection to server]	[Remarks:Successful connection to server: S3]
[Date: 2015-07-13 08:29:46]	[UserID:11/715]	[IP:10.10.11.1]	[Browser:Chrome - 43.0.2357.132]	[Action:GetProgramList 11/715]	[Remarks:[{"ID":"1","ProgramIndex":"GST","ProgramName":"GST"}]]
[Date: 2015-07-13 08:29:46]	[UserID:11/715]	[IP:10.10.11.1]	[Browser:Chrome - 43.0.2357.132]	[Action:Making connection to server]	[Remarks:Successful connection to server: S3]
[Date: 2015-07-13 08:29:46]	[UserID:11/715]	[IP:10.10.11.1]	[Browser:Chrome - 43.0.2357.132]	[Action:Filtering User : MasterData Username : 11/715]	[Remarks:Successful filter row count: 1]
[Date: 2015-07-13 08:29:47]	[UserID:11/715]	[IP:10.10.11.1]	[Browser:Chrome - 43.0.2357.132]	[Action:Making connection to server]	[Remarks:Successful connection to server: S3]
[Date: 2015-07-13 08:29:47]	[UserID:11/715]	[IP:10.10.11.1]	[Browser:Chrome - 43.0.2357.132]	[Action:GetGSTModules 11/715,1]	[Remarks:Successful filter row count: 3]
[Date: 2015-07-13 08:29:47]	[UserID:11/715]	[IP:10.10.11.1]	[Browser:Chrome - 43.0.2357.132]	[Action:Closing mssql connection]	[Remarks:Success]
[Date: 2015-07-13 08:30:56]	[UserID:11/715]	[IP:10.10.11.1]	[Browser:Chrome - 43.0.2357.132]	[Action:Making connection to server]	[Remarks:Successful connection to server: S3]
[Date: 2015-07-13 08:30:56]	[UserID:11/715]	[IP:10.10.11.1]	[Browser:Chrome - 43.0.2357.132]	[Action:GetGSTModules 11/715,1]	[Remarks:Successful filter row count: 3]
[Date: 2015-07-13 08:30:56]	[UserID:11/715]	[IP:10.10.11.1]	[Browser:Chrome - 43.0.2357.132]	[Action:Closing mssql connection]	[Remarks:Success]
[Date: 2015-07-13 08:32:32]	[UserID:11/715]	[IP:10.10.11.1]	[Browser:Chrome - 43.0.2357.132]	[Action:Making connection to server]	[Remarks:Successful connection to server: S3]
[Date: 2015-07-13 08:32:32]	[UserID:11/715]	[IP:10.10.11.1]	[Browser:Chrome - 43.0.2357.132]	[Action:GetGSTModules 11/715,1]	[Remarks:Successful filter row count: 3]
[Date: 2015-07-13 08:32:32]	[UserID:11/715]	[IP:10.10.11.1]	[Browser:Chrome - 43.0.2357.132]	[Action:Closing mssql connection]	[Remarks:Success]
[Date: 2015-07-13 08:42:10]	[UserID:]	[IP:10.10.11.1]	[Browser:Chrome - 43.0.2357.132]	[Action:Making connection to server]	[Remarks:Successful connection to server: S3]
[Date: 2015-07-13 08:42:10]	[UserID:]	[IP:10.10.11.1]	[Browser:Chrome - 43.0.2357.132]	[Action:GetProgramList ]	[Remarks:"no data"]
[Date: 2015-07-13 08:42:13]	[UserID:06/371]	[IP:10.10.11.1]	[Browser:Chrome - 43.0.2357.132]	[Action:Making connection to server]	[Remarks:Successful connection to server: S3]
[Date: 2015-07-13 08:42:13]	[UserID:06/371]	[IP:10.10.11.1]	[Browser:Chrome - 43.0.2357.132]	[Action:User 06/371]	[Remarks:Success]
[Date: 2015-07-13 08:42:13]	[UserID:06/371]	[IP:10.10.11.1]	[Browser:Chrome - 43.0.2357.132]	[Action:Filtering User : MasterData Username : 06/371]	[Remarks:Successful filter row count: 0]
[Date: 2015-07-13 08:42:13]	[UserID:06/371]	[IP:10.10.11.1]	[Browser:Chrome - 43.0.2357.132]	[Action:Filtering User : MasterData Username : 06/371]	[Remarks:Successful filter row count: 0]
[Date: 2015-07-13 08:42:13]	[UserID:06/371]	[IP:10.10.11.1]	[Browser:Chrome - 43.0.2357.132]	[Action:Filtering User : MasterData Username : 06/371]	[Remarks:Success]
[Date: 2015-07-13 08:42:13]	[UserID:06/371]	[IP:10.10.11.1]	[Browser:Chrome - 43.0.2357.132]	[Action:Closing mssql connection]	[Remarks:Success]
[Date: 2015-07-13 08:42:13]	[UserID:06/371]	[IP:10.10.11.1]	[Browser:Chrome - 43.0.2357.132]	[Action:Making connection to server]	[Remarks:Successful connection to server: S3]
[Date: 2015-07-13 08:42:13]	[UserID:06/371]	[IP:10.10.11.1]	[Browser:Chrome - 43.0.2357.132]	[Action:GetProgramList 06/371]	[Remarks:[{"ID":"1","ProgramIndex":"GST","ProgramName":"GST"}]]
[Date: 2015-07-13 08:42:13]	[UserID:06/371]	[IP:10.10.11.1]	[Browser:Chrome - 43.0.2357.132]	[Action:Making connection to server]	[Remarks:Successful connection to server: S3]
[Date: 2015-07-13 08:42:13]	[UserID:06/371]	[IP:10.10.11.1]	[Browser:Chrome - 43.0.2357.132]	[Action:GetProgramList 06/371]	[Remarks:[{"ID":"1","ProgramIndex":"GST","ProgramName":"GST"}]]
[Date: 2015-07-13 08:42:13]	[UserID:06/371]	[IP:10.10.11.1]	[Browser:Chrome - 43.0.2357.132]	[Action:Making connection to server]	[Remarks:Successful connection to server: S3]
[Date: 2015-07-13 08:42:13]	[UserID:06/371]	[IP:10.10.11.1]	[Browser:Chrome - 43.0.2357.132]	[Action:Filtering User : MasterData Username : 06/371]	[Remarks:Successful filter row count: 1]
[Date: 2015-07-13 08:42:14]	[UserID:06/371]	[IP:10.10.11.1]	[Browser:Chrome - 43.0.2357.132]	[Action:Making connection to server]	[Remarks:Successful connection to server: S3]
[Date: 2015-07-13 08:42:14]	[UserID:06/371]	[IP:10.10.11.1]	[Browser:Chrome - 43.0.2357.132]	[Action:GetGSTModules 06/371,1]	[Remarks:Successful filter row count: 5]
[Date: 2015-07-13 08:42:14]	[UserID:06/371]	[IP:10.10.11.1]	[Browser:Chrome - 43.0.2357.132]	[Action:Closing mssql connection]	[Remarks:Success]
[Date: 2015-07-13 08:45:49]	[UserID:06/371]	[IP:10.10.11.1]	[Browser:Chrome - 43.0.2357.132]	[Action:Making connection to server]	[Remarks:Successful connection to server: S3]
[Date: 2015-07-13 08:45:49]	[UserID:06/371]	[IP:10.10.11.1]	[Browser:Chrome - 43.0.2357.132]	[Action:GetGSTModules 06/371,1]	[Remarks:Successful filter row count: 5]
[Date: 2015-07-13 08:45:49]	[UserID:06/371]	[IP:10.10.11.1]	[Browser:Chrome - 43.0.2357.132]	[Action:Closing mssql connection]	[Remarks:Success]
[Date: 2015-07-13 08:57:19]	[UserID:06/371]	[IP:10.10.11.1]	[Browser:Chrome - 43.0.2357.132]	[Action:Making connection to server]	[Remarks:Successful connection to server: S3]
[Date: 2015-07-13 08:57:19]	[UserID:06/371]	[IP:10.10.11.1]	[Browser:Chrome - 43.0.2357.132]	[Action:GetGSTModules 06/371,1]	[Remarks:Successful filter row count: 5]
[Date: 2015-07-13 08:57:19]	[UserID:06/371]	[IP:10.10.11.1]	[Browser:Chrome - 43.0.2357.132]	[Action:Closing mssql connection]	[Remarks:Success]
[Date: 2015-07-13 09:15:43]	[UserID:06/371]	[IP:10.10.11.1]	[Browser:Chrome - 43.0.2357.132]	[Action:Making connection to server]	[Remarks:Successful connection to server: S3]
[Date: 2015-07-13 09:15:43]	[UserID:06/371]	[IP:10.10.11.1]	[Browser:Chrome - 43.0.2357.132]	[Action:GetGSTModules 06/371,1]	[Remarks:Successful filter row count: 5]
[Date: 2015-07-13 09:15:43]	[UserID:06/371]	[IP:10.10.11.1]	[Browser:Chrome - 43.0.2357.132]	[Action:Closing mssql connection]	[Remarks:Success]
[Date: 2015-07-13 09:30:35]	[UserID:06/371]	[IP:10.10.11.1]	[Browser:Chrome - 43.0.2357.132]	[Action:Making connection to server]	[Remarks:Successful connection to server: S3]
[Date: 2015-07-13 09:30:35]	[UserID:06/371]	[IP:10.10.11.1]	[Browser:Chrome - 43.0.2357.132]	[Action:GetProgramList 06/371]	[Remarks:[{"ID":"1","ProgramIndex":"GST","ProgramName":"GST"}]]
[Date: 2015-07-13 09:30:35]	[UserID:06/371]	[IP:10.10.11.1]	[Browser:Chrome - 43.0.2357.132]	[Action:Making connection to server]	[Remarks:Successful connection to server: S3]
[Date: 2015-07-13 09:30:36]	[UserID:06/371]	[IP:10.10.11.1]	[Browser:Chrome - 43.0.2357.132]	[Action:GetProgramList 06/371]	[Remarks:[{"ID":"1","ProgramIndex":"GST","ProgramName":"GST"}]]
[Date: 2015-07-13 09:30:36]	[UserID:06/371]	[IP:10.10.11.1]	[Browser:Chrome - 43.0.2357.132]	[Action:Making connection to server]	[Remarks:Successful connection to server: S3]
[Date: 2015-07-13 09:30:36]	[UserID:06/371]	[IP:10.10.11.1]	[Browser:Chrome - 43.0.2357.132]	[Action:Filtering User : MasterData Username : 06/371]	[Remarks:Successful filter row count: 1]
[Date: 2015-07-13 09:30:36]	[UserID:06/371]	[IP:10.10.11.1]	[Browser:Chrome - 43.0.2357.132]	[Action:Making connection to server]	[Remarks:Successful connection to server: S3]
[Date: 2015-07-13 09:30:36]	[UserID:06/371]	[IP:10.10.11.1]	[Browser:Chrome - 43.0.2357.132]	[Action:GetGSTModules 06/371,1]	[Remarks:Successful filter row count: 5]
[Date: 2015-07-13 09:30:36]	[UserID:06/371]	[IP:10.10.11.1]	[Browser:Chrome - 43.0.2357.132]	[Action:Closing mssql connection]	[Remarks:Success]
[Date: 2015-07-13 09:31:02]	[UserID:06/371]	[IP:10.10.11.1]	[Browser:Chrome - 43.0.2357.132]	[Action:Making connection to server]	[Remarks:Successful connection to server: S3]
[Date: 2015-07-13 09:31:02]	[UserID:06/371]	[IP:10.10.11.1]	[Browser:Chrome - 43.0.2357.132]	[Action:GetGSTModules 06/371,1]	[Remarks:Successful filter row count: 5]
[Date: 2015-07-13 09:31:02]	[UserID:06/371]	[IP:10.10.11.1]	[Browser:Chrome - 43.0.2357.132]	[Action:Closing mssql connection]	[Remarks:Success]
[Date: 2015-07-13 10:00:00]	[UserID:]	[IP:10.10.11.1]	[Browser:Chrome - 43.0.2357.132]	[Action:Making connection to server]	[Remarks:Successful connection to server: S3]
[Date: 2015-07-13 10:00:00]	[UserID:]	[IP:10.10.11.1]	[Browser:Chrome - 43.0.2357.132]	[Action:GetProgramList ]	[Remarks:"no data"]
[Date: 2015-07-13 10:00:09]	[UserID:06/343]	[IP:10.10.11.1]	[Browser:Chrome - 43.0.2357.132]	[Action:Making connection to server]	[Remarks:Successful connection to server: S3]
[Date: 2015-07-13 10:00:09]	[UserID:06/343]	[IP:10.10.11.1]	[Browser:Chrome - 43.0.2357.132]	[Action:User 06/343]	[Remarks:Success]
[Date: 2015-07-13 10:00:09]	[UserID:06/343]	[IP:10.10.11.1]	[Browser:Chrome - 43.0.2357.132]	[Action:Filtering User : MasterData Username : 06/343]	[Remarks:Successful filter row count: 0]
[Date: 2015-07-13 10:00:09]	[UserID:06/343]	[IP:10.10.11.1]	[Browser:Chrome - 43.0.2357.132]	[Action:Filtering User : MasterData Username : 06/343]	[Remarks:Successful filter row count: 0]
[Date: 2015-07-13 10:00:09]	[UserID:06/343]	[IP:10.10.11.1]	[Browser:Chrome - 43.0.2357.132]	[Action:Filtering User : MasterData Username : 06/343]	[Remarks:Success]
[Date: 2015-07-13 10:00:09]	[UserID:06/343]	[IP:10.10.11.1]	[Browser:Chrome - 43.0.2357.132]	[Action:Closing mssql connection]	[Remarks:Success]
[Date: 2015-07-13 10:00:09]	[UserID:06/343]	[IP:10.10.11.1]	[Browser:Chrome - 43.0.2357.132]	[Action:Making connection to server]	[Remarks:Successful connection to server: S3]
[Date: 2015-07-13 10:00:09]	[UserID:06/343]	[IP:10.10.11.1]	[Browser:Chrome - 43.0.2357.132]	[Action:GetProgramList 06/343]	[Remarks:[{"ID":"1","ProgramIndex":"GST","ProgramName":"GST"}]]
[Date: 2015-07-13 10:00:09]	[UserID:06/343]	[IP:10.10.11.1]	[Browser:Chrome - 43.0.2357.132]	[Action:Making connection to server]	[Remarks:Successful connection to server: S3]
[Date: 2015-07-13 10:00:09]	[UserID:06/343]	[IP:10.10.11.1]	[Browser:Chrome - 43.0.2357.132]	[Action:GetProgramList 06/343]	[Remarks:[{"ID":"1","ProgramIndex":"GST","ProgramName":"GST"}]]
[Date: 2015-07-13 10:00:09]	[UserID:06/343]	[IP:10.10.11.1]	[Browser:Chrome - 43.0.2357.132]	[Action:Making connection to server]	[Remarks:Successful connection to server: S3]
[Date: 2015-07-13 10:00:09]	[UserID:06/343]	[IP:10.10.11.1]	[Browser:Chrome - 43.0.2357.132]	[Action:Filtering User : MasterData Username : 06/343]	[Remarks:Successful filter row count: 1]
[Date: 2015-07-13 10:00:09]	[UserID:06/343]	[IP:10.10.11.1]	[Browser:Chrome - 43.0.2357.132]	[Action:Making connection to server]	[Remarks:Successful connection to server: S3]
[Date: 2015-07-13 10:00:09]	[UserID:06/343]	[IP:10.10.11.1]	[Browser:Chrome - 43.0.2357.132]	[Action:GetGSTModules 06/343,1]	[Remarks:Successful filter row count: 5]
[Date: 2015-07-13 10:00:09]	[UserID:06/343]	[IP:10.10.11.1]	[Browser:Chrome - 43.0.2357.132]	[Action:Closing mssql connection]	[Remarks:Success]
[Date: 2015-07-13 10:04:47]	[UserID:06/343]	[IP:10.10.11.1]	[Browser:Chrome - 43.0.2357.132]	[Action:Making connection to server]	[Remarks:Successful connection to server: S3]
[Date: 2015-07-13 10:04:47]	[UserID:06/343]	[IP:10.10.11.1]	[Browser:Chrome - 43.0.2357.132]	[Action:GetGSTModules 06/343,1]	[Remarks:Successful filter row count: 5]
[Date: 2015-07-13 10:04:47]	[UserID:06/343]	[IP:10.10.11.1]	[Browser:Chrome - 43.0.2357.132]	[Action:Closing mssql connection]	[Remarks:Success]
[Date: 2015-07-13 10:12:52]	[UserID:06/343]	[IP:10.10.11.1]	[Browser:Chrome - 43.0.2357.132]	[Action:Making connection to server]	[Remarks:Successful connection to server: S3]
[Date: 2015-07-13 10:12:52]	[UserID:06/343]	[IP:10.10.11.1]	[Browser:Chrome - 43.0.2357.132]	[Action:GetGSTModules 06/343,1]	[Remarks:Successful filter row count: 5]
[Date: 2015-07-13 10:12:52]	[UserID:06/343]	[IP:10.10.11.1]	[Browser:Chrome - 43.0.2357.132]	[Action:Closing mssql connection]	[Remarks:Success]
[Date: 2015-07-13 10:25:49]	[UserID:06/343]	[IP:10.10.11.1]	[Browser:Chrome - 43.0.2357.132]	[Action:Making connection to server]	[Remarks:Successful connection to server: S3]
[Date: 2015-07-13 10:25:49]	[UserID:06/343]	[IP:10.10.11.1]	[Browser:Chrome - 43.0.2357.132]	[Action:GetGSTModules 06/343,1]	[Remarks:Successful filter row count: 5]
[Date: 2015-07-13 10:25:49]	[UserID:06/343]	[IP:10.10.11.1]	[Browser:Chrome - 43.0.2357.132]	[Action:Closing mssql connection]	[Remarks:Success]
[Date: 2015-07-13 11:01:04]	[UserID:]	[IP:10.10.11.1]	[Browser:Chrome - 43.0.2357.132]	[Action:Making connection to server]	[Remarks:Successful connection to server: S3]
[Date: 2015-07-13 11:01:04]	[UserID:]	[IP:10.10.11.1]	[Browser:Chrome - 43.0.2357.132]	[Action:GetProgramList ]	[Remarks:"no data"]
[Date: 2015-07-13 11:01:08]	[UserID:10/660]	[IP:10.10.11.1]	[Browser:Chrome - 43.0.2357.132]	[Action:Making connection to server]	[Remarks:Successful connection to server: S3]
[Date: 2015-07-13 11:01:08]	[UserID:10/660]	[IP:10.10.11.1]	[Browser:Chrome - 43.0.2357.132]	[Action:User 10/660]	[Remarks:Success]
[Date: 2015-07-13 11:01:08]	[UserID:10/660]	[IP:10.10.11.1]	[Browser:Chrome - 43.0.2357.132]	[Action:Filtering User : MasterData Username : 10/660]	[Remarks:Successful filter row count: 0]
[Date: 2015-07-13 11:01:08]	[UserID:10/660]	[IP:10.10.11.1]	[Browser:Chrome - 43.0.2357.132]	[Action:Filtering User : MasterData Username : 10/660]	[Remarks:Successful filter row count: 0]
[Date: 2015-07-13 11:01:08]	[UserID:10/660]	[IP:10.10.11.1]	[Browser:Chrome - 43.0.2357.132]	[Action:Filtering User : MasterData Username : 10/660]	[Remarks:Success]
[Date: 2015-07-13 11:01:08]	[UserID:10/660]	[IP:10.10.11.1]	[Browser:Chrome - 43.0.2357.132]	[Action:Closing mssql connection]	[Remarks:Success]
[Date: 2015-07-13 11:01:09]	[UserID:10/660]	[IP:10.10.11.1]	[Browser:Chrome - 43.0.2357.132]	[Action:Making connection to server]	[Remarks:Successful connection to server: S3]
[Date: 2015-07-13 11:01:09]	[UserID:10/660]	[IP:10.10.11.1]	[Browser:Chrome - 43.0.2357.132]	[Action:GetProgramList 10/660]	[Remarks:[{"ID":"1","ProgramIndex":"GST","ProgramName":"GST"}]]
[Date: 2015-07-13 11:01:09]	[UserID:10/660]	[IP:10.10.11.1]	[Browser:Chrome - 43.0.2357.132]	[Action:Making connection to server]	[Remarks:Successful connection to server: S3]
[Date: 2015-07-13 11:01:09]	[UserID:10/660]	[IP:10.10.11.1]	[Browser:Chrome - 43.0.2357.132]	[Action:GetProgramList 10/660]	[Remarks:[{"ID":"1","ProgramIndex":"GST","ProgramName":"GST"}]]
[Date: 2015-07-13 11:01:09]	[UserID:10/660]	[IP:10.10.11.1]	[Browser:Chrome - 43.0.2357.132]	[Action:Making connection to server]	[Remarks:Successful connection to server: S3]
[Date: 2015-07-13 11:01:09]	[UserID:10/660]	[IP:10.10.11.1]	[Browser:Chrome - 43.0.2357.132]	[Action:Filtering User : MasterData Username : 10/660]	[Remarks:Successful filter row count: 1]
[Date: 2015-07-13 11:01:10]	[UserID:10/660]	[IP:10.10.11.1]	[Browser:Chrome - 43.0.2357.132]	[Action:Making connection to server]	[Remarks:Successful connection to server: S3]
[Date: 2015-07-13 11:01:10]	[UserID:10/660]	[IP:10.10.11.1]	[Browser:Chrome - 43.0.2357.132]	[Action:GetGSTModules 10/660,1]	[Remarks:Successful filter row count: 3]
[Date: 2015-07-13 11:01:10]	[UserID:10/660]	[IP:10.10.11.1]	[Browser:Chrome - 43.0.2357.132]	[Action:Closing mssql connection]	[Remarks:Success]
[Date: 2015-07-13 11:07:47]	[UserID:10/660]	[IP:10.10.11.1]	[Browser:Chrome - 43.0.2357.132]	[Action:Making connection to server]	[Remarks:Successful connection to server: S3]
[Date: 2015-07-13 11:07:48]	[UserID:10/660]	[IP:10.10.11.1]	[Browser:Chrome - 43.0.2357.132]	[Action:GetGSTModules 10/660,1]	[Remarks:Successful filter row count: 3]
[Date: 2015-07-13 11:07:48]	[UserID:10/660]	[IP:10.10.11.1]	[Browser:Chrome - 43.0.2357.132]	[Action:Closing mssql connection]	[Remarks:Success]
[Date: 2015-07-13 11:17:42]	[UserID:06/343]	[IP:10.10.11.1]	[Browser:Chrome - 43.0.2357.132]	[Action:Making connection to server]	[Remarks:Successful connection to server: S3]
[Date: 2015-07-13 11:17:42]	[UserID:06/343]	[IP:10.10.11.1]	[Browser:Chrome - 43.0.2357.132]	[Action:GetGSTModules 06/343,1]	[Remarks:Successful filter row count: 5]
[Date: 2015-07-13 11:17:42]	[UserID:06/343]	[IP:10.10.11.1]	[Browser:Chrome - 43.0.2357.132]	[Action:Closing mssql connection]	[Remarks:Success]
[Date: 2015-07-13 11:34:15]	[UserID:10/660]	[IP:10.10.11.1]	[Browser:Chrome - 43.0.2357.132]	[Action:Making connection to server]	[Remarks:Successful connection to server: S3]
[Date: 2015-07-13 11:34:15]	[UserID:10/660]	[IP:10.10.11.1]	[Browser:Chrome - 43.0.2357.132]	[Action:GetGSTModules 10/660,1]	[Remarks:Successful filter row count: 3]
[Date: 2015-07-13 11:34:15]	[UserID:10/660]	[IP:10.10.11.1]	[Browser:Chrome - 43.0.2357.132]	[Action:Closing mssql connection]	[Remarks:Success]
[Date: 2015-07-13 11:35:03]	[UserID:]	[IP:10.10.11.1]	[Browser:Chrome - 43.0.2357.132]	[Action:Making connection to server]	[Remarks:Successful connection to server: S3]
[Date: 2015-07-13 11:35:03]	[UserID:]	[IP:10.10.11.1]	[Browser:Chrome - 43.0.2357.132]	[Action:GetProgramList ]	[Remarks:"no data"]
[Date: 2015-07-13 17:09:01]	[UserID:]	[IP:10.10.11.1]	[Browser:Chrome - 43.0.2357.132]	[Action:Making connection to server]	[Remarks:Successful connection to server: S3]
[Date: 2015-07-13 17:09:01]	[UserID:]	[IP:10.10.11.1]	[Browser:Chrome - 43.0.2357.132]	[Action:GetProgramList ]	[Remarks:"no data"]
[Date: 2015-07-13 17:09:03]	[UserID:06/371]	[IP:10.10.11.1]	[Browser:Chrome - 43.0.2357.132]	[Action:Making connection to server]	[Remarks:Successful connection to server: S3]
[Date: 2015-07-13 17:09:03]	[UserID:06/371]	[IP:10.10.11.1]	[Browser:Chrome - 43.0.2357.132]	[Action:User 06/371]	[Remarks:Success]
[Date: 2015-07-13 17:09:03]	[UserID:06/371]	[IP:10.10.11.1]	[Browser:Chrome - 43.0.2357.132]	[Action:Filtering User : MasterData Username : 06/371]	[Remarks:Successful filter row count: 0]
[Date: 2015-07-13 17:09:03]	[UserID:06/371]	[IP:10.10.11.1]	[Browser:Chrome - 43.0.2357.132]	[Action:Filtering User : MasterData Username : 06/371]	[Remarks:Successful filter row count: 0]
[Date: 2015-07-13 17:09:03]	[UserID:06/371]	[IP:10.10.11.1]	[Browser:Chrome - 43.0.2357.132]	[Action:Filtering User : MasterData Username : 06/371]	[Remarks:Success]
[Date: 2015-07-13 17:09:03]	[UserID:06/371]	[IP:10.10.11.1]	[Browser:Chrome - 43.0.2357.132]	[Action:Closing mssql connection]	[Remarks:Success]
[Date: 2015-07-13 17:09:03]	[UserID:06/371]	[IP:10.10.11.1]	[Browser:Chrome - 43.0.2357.132]	[Action:Making connection to server]	[Remarks:Successful connection to server: S3]
[Date: 2015-07-13 17:09:03]	[UserID:06/371]	[IP:10.10.11.1]	[Browser:Chrome - 43.0.2357.132]	[Action:GetProgramList 06/371]	[Remarks:[{"ID":"1","ProgramIndex":"GST","ProgramName":"GST"}]]
[Date: 2015-07-13 17:09:03]	[UserID:06/371]	[IP:10.10.11.1]	[Browser:Chrome - 43.0.2357.132]	[Action:Making connection to server]	[Remarks:Successful connection to server: S3]
[Date: 2015-07-13 17:09:03]	[UserID:06/371]	[IP:10.10.11.1]	[Browser:Chrome - 43.0.2357.132]	[Action:GetProgramList 06/371]	[Remarks:[{"ID":"1","ProgramIndex":"GST","ProgramName":"GST"}]]
[Date: 2015-07-13 17:09:03]	[UserID:06/371]	[IP:10.10.11.1]	[Browser:Chrome - 43.0.2357.132]	[Action:Making connection to server]	[Remarks:Successful connection to server: S3]
[Date: 2015-07-13 17:09:03]	[UserID:06/371]	[IP:10.10.11.1]	[Browser:Chrome - 43.0.2357.132]	[Action:Filtering User : MasterData Username : 06/371]	[Remarks:Successful filter row count: 1]
[Date: 2015-07-13 17:09:03]	[UserID:06/371]	[IP:10.10.11.1]	[Browser:Chrome - 43.0.2357.132]	[Action:Making connection to server]	[Remarks:Successful connection to server: S3]
[Date: 2015-07-13 17:09:03]	[UserID:06/371]	[IP:10.10.11.1]	[Browser:Chrome - 43.0.2357.132]	[Action:GetGSTModules 06/371,1]	[Remarks:Successful filter row count: 5]
[Date: 2015-07-13 17:09:03]	[UserID:06/371]	[IP:10.10.11.1]	[Browser:Chrome - 43.0.2357.132]	[Action:Closing mssql connection]	[Remarks:Success]
[Date: 2015-07-13 17:10:12]	[UserID:06/371]	[IP:10.10.11.1]	[Browser:Chrome - 43.0.2357.132]	[Action:Making connection to server]	[Remarks:Successful connection to server: S3]
[Date: 2015-07-13 17:10:12]	[UserID:06/371]	[IP:10.10.11.1]	[Browser:Chrome - 43.0.2357.132]	[Action:GetGSTModules 06/371,1]	[Remarks:Successful filter row count: 5]
[Date: 2015-07-13 17:10:12]	[UserID:06/371]	[IP:10.10.11.1]	[Browser:Chrome - 43.0.2357.132]	[Action:Closing mssql connection]	[Remarks:Success]
