[Date: 2019-09-04 01:39:23]	[UserID:]	[IP:10.139.5.105]	[Browser:Firefox - 69.0]	[Action:Making connection to server]	[Remarks:Successful connection to server: S3]
[Date: 2019-09-04 01:39:23]	[UserID:]	[IP:10.139.5.105]	[Browser:Firefox - 69.0]	[Action:GetProgramList ]	[Remarks:"no data"]
[Date: 2019-09-04 01:40:59]	[UserID:]	[IP:10.139.5.105]	[Browser:Firefox - 69.0]	[Action:Making connection to server]	[Remarks:Successful connection to server: S3]
[Date: 2019-09-04 01:40:59]	[UserID:]	[IP:10.139.5.105]	[Browser:Firefox - 69.0]	[Action:GetProgramList ]	[Remarks:"no data"]
[Date: 2019-09-04 01:42:11]	[UserID:]	[IP:10.139.5.105]	[Browser:Firefox - 69.0]	[Action:Making connection to server]	[Remarks:Successful connection to server: S3]
[Date: 2019-09-04 01:42:11]	[UserID:]	[IP:10.139.5.105]	[Browser:Firefox - 69.0]	[Action:GetProgramList ]	[Remarks:"no data"]
[Date: 2019-09-04 01:42:43]	[UserID:]	[IP:10.139.5.105]	[Browser:Firefox - 69.0]	[Action:Making connection to server]	[Remarks:Successful connection to server: S3]
[Date: 2019-09-04 01:42:43]	[UserID:]	[IP:10.139.5.105]	[Browser:Firefox - 69.0]	[Action:GetProgramList ]	[Remarks:"no data"]
[Date: 2019-09-04 04:42:11]	[UserID:]	[IP:10.139.5.105]	[Browser:Firefox - 69.0]	[Action:Making connection to server]	[Remarks:Successful connection to server: S3]
[Date: 2019-09-04 04:42:11]	[UserID:]	[IP:10.139.5.105]	[Browser:Firefox - 69.0]	[Action:GetProgramList ]	[Remarks:"no data"]
[Date: 2019-09-04 08:14:02]	[UserID:]	[IP:10.139.5.115]	[Browser:Firefox - 60.0]	[Action:Making connection to server]	[Remarks:Successful connection to server: S3]
[Date: 2019-09-04 08:14:02]	[UserID:]	[IP:10.139.5.115]	[Browser:Firefox - 60.0]	[Action:GetProgramList ]	[Remarks:"no data"]
[Date: 2019-09-04 08:17:45]	[UserID:]	[IP:10.139.5.115]	[Browser:Firefox - 60.0]	[Action:Making connection to server]	[Remarks:Successful connection to server: S3]
[Date: 2019-09-04 08:17:45]	[UserID:]	[IP:10.139.5.115]	[Browser:Firefox - 60.0]	[Action:GetProgramList ]	[Remarks:"no data"]
[Date: 2019-09-04 08:23:39]	[UserID:]	[IP:10.128.12.120]	[Browser:Chrome - 76.0.3809.132]	[Action:Making connection to server]	[Remarks:Successful connection to server: S3]
[Date: 2019-09-04 08:23:39]	[UserID:]	[IP:10.128.12.120]	[Browser:Chrome - 76.0.3809.132]	[Action:GetProgramList ]	[Remarks:"no data"]
[Date: 2019-09-04 08:24:15]	[UserID:14/1082]	[IP:10.128.12.120]	[Browser:Chrome - 76.0.3809.132]	[Action:Making connection to server]	[Remarks:Successful connection to server: S3]
[Date: 2019-09-04 08:24:15]	[UserID:14/1082]	[IP:10.128.12.120]	[Browser:Chrome - 76.0.3809.132]	[Action:User 14/1082]	[Remarks:Success]
[Date: 2019-09-04 08:24:15]	[UserID:14/1082]	[IP:10.128.12.120]	[Browser:Chrome - 76.0.3809.132]	[Action:Filtering User : MasterData Username : 14/1082]	[Remarks:Successful filter row count: 0]
[Date: 2019-09-04 08:24:15]	[UserID:14/1082]	[IP:10.128.12.120]	[Browser:Chrome - 76.0.3809.132]	[Action:Filtering User : MasterData Username : 14/1082]	[Remarks:Successful filter row count: 0]
[Date: 2019-09-04 08:24:15]	[UserID:14/1082]	[IP:10.128.12.120]	[Browser:Chrome - 76.0.3809.132]	[Action:Filtering User : MasterData Username : 14/1082]	[Remarks:Success]
[Date: 2019-09-04 08:24:15]	[UserID:14/1082]	[IP:10.128.12.120]	[Browser:Chrome - 76.0.3809.132]	[Action:Closing mssql connection]	[Remarks:Success]
[Date: 2019-09-04 08:24:15]	[UserID:14/1082]	[IP:10.128.12.120]	[Browser:Chrome - 76.0.3809.132]	[Action:Making connection to server]	[Remarks:Successful connection to server: S3]
[Date: 2019-09-04 08:24:15]	[UserID:14/1082]	[IP:10.128.12.120]	[Browser:Chrome - 76.0.3809.132]	[Action:GetProgramList 14/1082]	[Remarks:[{"ID":"1","ProgramIndex":"GST","ProgramName":"GST"}]]
[Date: 2019-09-04 08:24:15]	[UserID:14/1082]	[IP:10.128.12.120]	[Browser:Chrome - 76.0.3809.132]	[Action:Making connection to server]	[Remarks:Successful connection to server: S3]
[Date: 2019-09-04 08:24:15]	[UserID:14/1082]	[IP:10.128.12.120]	[Browser:Chrome - 76.0.3809.132]	[Action:GetProgramList 14/1082]	[Remarks:[{"ID":"1","ProgramIndex":"GST","ProgramName":"GST"}]]
[Date: 2019-09-04 08:24:15]	[UserID:14/1082]	[IP:10.128.12.120]	[Browser:Chrome - 76.0.3809.132]	[Action:Making connection to server]	[Remarks:Successful connection to server: S3]
[Date: 2019-09-04 08:24:15]	[UserID:14/1082]	[IP:10.128.12.120]	[Browser:Chrome - 76.0.3809.132]	[Action:Filtering User : MasterData Username : 14/1082]	[Remarks:Successful filter row count: 1]
[Date: 2019-09-04 08:24:15]	[UserID:14/1082]	[IP:10.128.12.120]	[Browser:Chrome - 76.0.3809.132]	[Action:Making connection to server]	[Remarks:Successful connection to server: S3]
[Date: 2019-09-04 08:24:15]	[UserID:14/1082]	[IP:10.128.12.120]	[Browser:Chrome - 76.0.3809.132]	[Action:GetGSTModules 14/1082,1]	[Remarks:Successful filter row count: 8]
[Date: 2019-09-04 08:24:15]	[UserID:14/1082]	[IP:10.128.12.120]	[Browser:Chrome - 76.0.3809.132]	[Action:Closing mssql connection]	[Remarks:Success]
[Date: 2019-09-04 08:33:05]	[UserID:]	[IP:10.139.5.115]	[Browser:Firefox - 60.0]	[Action:Making connection to server]	[Remarks:Successful connection to server: S3]
[Date: 2019-09-04 08:33:05]	[UserID:]	[IP:10.139.5.115]	[Browser:Firefox - 60.0]	[Action:GetProgramList ]	[Remarks:"no data"]
[Date: 2019-09-04 08:34:34]	[UserID:]	[IP:10.139.5.115]	[Browser:Firefox - 60.0]	[Action:Making connection to server]	[Remarks:Successful connection to server: S3]
[Date: 2019-09-04 08:34:34]	[UserID:]	[IP:10.139.5.115]	[Browser:Firefox - 60.0]	[Action:GetProgramList ]	[Remarks:"no data"]
[Date: 2019-09-04 09:39:31]	[UserID:]	[IP:10.139.5.115]	[Browser:Firefox - 60.0]	[Action:Making connection to server]	[Remarks:Successful connection to server: S3]
[Date: 2019-09-04 09:39:31]	[UserID:]	[IP:10.139.5.115]	[Browser:Firefox - 60.0]	[Action:GetProgramList ]	[Remarks:"no data"]
[Date: 2019-09-04 09:46:11]	[UserID:14/1082]	[IP:10.128.12.120]	[Browser:Chrome - 76.0.3809.132]	[Action:Making connection to server]	[Remarks:Successful connection to server: S3]
[Date: 2019-09-04 09:46:11]	[UserID:14/1082]	[IP:10.128.12.120]	[Browser:Chrome - 76.0.3809.132]	[Action:GetProgramList 14/1082]	[Remarks:[{"ID":"1","ProgramIndex":"GST","ProgramName":"GST"}]]
[Date: 2019-09-04 09:46:11]	[UserID:14/1082]	[IP:10.128.12.120]	[Browser:Chrome - 76.0.3809.132]	[Action:Making connection to server]	[Remarks:Successful connection to server: S3]
[Date: 2019-09-04 09:46:12]	[UserID:14/1082]	[IP:10.128.12.120]	[Browser:Chrome - 76.0.3809.132]	[Action:GetProgramList 14/1082]	[Remarks:[{"ID":"1","ProgramIndex":"GST","ProgramName":"GST"}]]
[Date: 2019-09-04 09:46:12]	[UserID:14/1082]	[IP:10.128.12.120]	[Browser:Chrome - 76.0.3809.132]	[Action:Making connection to server]	[Remarks:Successful connection to server: S3]
[Date: 2019-09-04 09:46:12]	[UserID:14/1082]	[IP:10.128.12.120]	[Browser:Chrome - 76.0.3809.132]	[Action:Filtering User : MasterData Username : 14/1082]	[Remarks:Successful filter row count: 1]
[Date: 2019-09-04 09:46:13]	[UserID:14/1082]	[IP:10.128.12.120]	[Browser:Chrome - 76.0.3809.132]	[Action:Making connection to server]	[Remarks:Successful connection to server: S3]
[Date: 2019-09-04 09:46:14]	[UserID:14/1082]	[IP:10.128.12.120]	[Browser:Chrome - 76.0.3809.132]	[Action:GetGSTModules 14/1082,1]	[Remarks:Successful filter row count: 8]
[Date: 2019-09-04 09:46:14]	[UserID:14/1082]	[IP:10.128.12.120]	[Browser:Chrome - 76.0.3809.132]	[Action:Closing mssql connection]	[Remarks:Success]
[Date: 2019-09-04 09:58:14]	[UserID:]	[IP:10.139.5.115]	[Browser:Firefox - 60.0]	[Action:Making connection to server]	[Remarks:Successful connection to server: S3]
[Date: 2019-09-04 09:58:14]	[UserID:]	[IP:10.139.5.115]	[Browser:Firefox - 60.0]	[Action:GetProgramList ]	[Remarks:"no data"]
[Date: 2019-09-04 10:04:37]	[UserID:]	[IP:10.139.5.115]	[Browser:Firefox - 60.0]	[Action:Making connection to server]	[Remarks:Successful connection to server: S3]
[Date: 2019-09-04 10:04:37]	[UserID:]	[IP:10.139.5.115]	[Browser:Firefox - 60.0]	[Action:GetProgramList ]	[Remarks:"no data"]
[Date: 2019-09-04 10:05:42]	[UserID:14/1082]	[IP:10.128.12.120]	[Browser:Chrome - 76.0.3809.132]	[Action:Making connection to server]	[Remarks:Successful connection to server: S3]
[Date: 2019-09-04 10:05:42]	[UserID:14/1082]	[IP:10.128.12.120]	[Browser:Chrome - 76.0.3809.132]	[Action:GetGSTModules 14/1082,1]	[Remarks:Successful filter row count: 8]
[Date: 2019-09-04 10:05:42]	[UserID:14/1082]	[IP:10.128.12.120]	[Browser:Chrome - 76.0.3809.132]	[Action:Closing mssql connection]	[Remarks:Success]
[Date: 2019-09-04 10:09:42]	[UserID:]	[IP:10.139.5.115]	[Browser:Firefox - 60.0]	[Action:Making connection to server]	[Remarks:Successful connection to server: S3]
[Date: 2019-09-04 10:09:42]	[UserID:]	[IP:10.139.5.115]	[Browser:Firefox - 60.0]	[Action:GetProgramList ]	[Remarks:"no data"]
[Date: 2019-09-04 10:13:40]	[UserID:14/1082]	[IP:10.128.12.120]	[Browser:Chrome - 76.0.3809.132]	[Action:Making connection to server]	[Remarks:Successful connection to server: S3]
[Date: 2019-09-04 10:13:40]	[UserID:14/1082]	[IP:10.128.12.120]	[Browser:Chrome - 76.0.3809.132]	[Action:GetGSTModules 14/1082,1]	[Remarks:Successful filter row count: 8]
[Date: 2019-09-04 10:13:40]	[UserID:14/1082]	[IP:10.128.12.120]	[Browser:Chrome - 76.0.3809.132]	[Action:Closing mssql connection]	[Remarks:Success]
[Date: 2019-09-04 10:19:51]	[UserID:]	[IP:10.128.12.113]	[Browser:Chrome - 76.0.3809.132]	[Action:Making connection to server]	[Remarks:Successful connection to server: S3]
[Date: 2019-09-04 10:19:51]	[UserID:]	[IP:10.128.12.113]	[Browser:Chrome - 76.0.3809.132]	[Action:GetProgramList ]	[Remarks:"no data"]
[Date: 2019-09-04 10:19:59]	[UserID:06/343]	[IP:10.128.12.113]	[Browser:Chrome - 76.0.3809.132]	[Action:Making connection to server]	[Remarks:Successful connection to server: S3]
[Date: 2019-09-04 10:19:59]	[UserID:06/343]	[IP:10.128.12.113]	[Browser:Chrome - 76.0.3809.132]	[Action:User 06/343]	[Remarks:Success]
[Date: 2019-09-04 10:19:59]	[UserID:06/343]	[IP:10.128.12.113]	[Browser:Chrome - 76.0.3809.132]	[Action:Filtering User : MasterData Username : 06/343]	[Remarks:Successful filter row count: 0]
[Date: 2019-09-04 10:19:59]	[UserID:06/343]	[IP:10.128.12.113]	[Browser:Chrome - 76.0.3809.132]	[Action:Filtering User : MasterData Username : 06/343]	[Remarks:Successful filter row count: 0]
[Date: 2019-09-04 10:19:59]	[UserID:06/343]	[IP:10.128.12.113]	[Browser:Chrome - 76.0.3809.132]	[Action:Filtering User : MasterData Username : 06/343]	[Remarks:Success]
[Date: 2019-09-04 10:19:59]	[UserID:06/343]	[IP:10.128.12.113]	[Browser:Chrome - 76.0.3809.132]	[Action:Closing mssql connection]	[Remarks:Success]
[Date: 2019-09-04 10:19:59]	[UserID:06/343]	[IP:10.128.12.113]	[Browser:Chrome - 76.0.3809.132]	[Action:Making connection to server]	[Remarks:Successful connection to server: S3]
[Date: 2019-09-04 10:19:59]	[UserID:06/343]	[IP:10.128.12.113]	[Browser:Chrome - 76.0.3809.132]	[Action:GetProgramList 06/343]	[Remarks:[{"ID":"1","ProgramIndex":"GST","ProgramName":"GST"}]]
[Date: 2019-09-04 10:19:59]	[UserID:06/343]	[IP:10.128.12.113]	[Browser:Chrome - 76.0.3809.132]	[Action:Making connection to server]	[Remarks:Successful connection to server: S3]
[Date: 2019-09-04 10:19:59]	[UserID:06/343]	[IP:10.128.12.113]	[Browser:Chrome - 76.0.3809.132]	[Action:GetProgramList 06/343]	[Remarks:[{"ID":"1","ProgramIndex":"GST","ProgramName":"GST"}]]
[Date: 2019-09-04 10:19:59]	[UserID:06/343]	[IP:10.128.12.113]	[Browser:Chrome - 76.0.3809.132]	[Action:Making connection to server]	[Remarks:Successful connection to server: S3]
[Date: 2019-09-04 10:19:59]	[UserID:06/343]	[IP:10.128.12.113]	[Browser:Chrome - 76.0.3809.132]	[Action:Filtering User : MasterData Username : 06/343]	[Remarks:Successful filter row count: 1]
[Date: 2019-09-04 10:20:00]	[UserID:06/343]	[IP:10.128.12.113]	[Browser:Chrome - 76.0.3809.132]	[Action:Making connection to server]	[Remarks:Successful connection to server: S3]
[Date: 2019-09-04 10:20:00]	[UserID:06/343]	[IP:10.128.12.113]	[Browser:Chrome - 76.0.3809.132]	[Action:GetGSTModules 06/343,1]	[Remarks:Successful filter row count: 7]
[Date: 2019-09-04 10:20:00]	[UserID:06/343]	[IP:10.128.12.113]	[Browser:Chrome - 76.0.3809.132]	[Action:Closing mssql connection]	[Remarks:Success]
[Date: 2019-09-04 10:43:53]	[UserID:14/1082]	[IP:10.128.12.120]	[Browser:Chrome - 76.0.3809.132]	[Action:Making connection to server]	[Remarks:Successful connection to server: S3]
[Date: 2019-09-04 10:43:53]	[UserID:14/1082]	[IP:10.128.12.120]	[Browser:Chrome - 76.0.3809.132]	[Action:GetGSTModules 14/1082,1]	[Remarks:Successful filter row count: 8]
[Date: 2019-09-04 10:43:53]	[UserID:14/1082]	[IP:10.128.12.120]	[Browser:Chrome - 76.0.3809.132]	[Action:Closing mssql connection]	[Remarks:Success]
[Date: 2019-09-04 10:44:06]	[UserID:14/1082]	[IP:10.128.12.120]	[Browser:Chrome - 76.0.3809.132]	[Action:Making connection to server]	[Remarks:Successful connection to server: S3]
[Date: 2019-09-04 10:44:06]	[UserID:14/1082]	[IP:10.128.12.120]	[Browser:Chrome - 76.0.3809.132]	[Action:GetGSTModules 14/1082,1]	[Remarks:Successful filter row count: 8]
[Date: 2019-09-04 10:44:06]	[UserID:14/1082]	[IP:10.128.12.120]	[Browser:Chrome - 76.0.3809.132]	[Action:Closing mssql connection]	[Remarks:Success]
[Date: 2019-09-04 11:07:35]	[UserID:]	[IP:10.128.12.115]	[Browser:Chrome - 76.0.3809.132]	[Action:Making connection to server]	[Remarks:Successful connection to server: S3]
[Date: 2019-09-04 11:07:35]	[UserID:]	[IP:10.128.12.115]	[Browser:Chrome - 76.0.3809.132]	[Action:GetProgramList ]	[Remarks:"no data"]
[Date: 2019-09-04 11:07:41]	[UserID:17/1248]	[IP:10.128.12.115]	[Browser:Chrome - 76.0.3809.132]	[Action:Making connection to server]	[Remarks:Successful connection to server: S3]
[Date: 2019-09-04 11:07:41]	[UserID:17/1248]	[IP:10.128.12.115]	[Browser:Chrome - 76.0.3809.132]	[Action:User 17/1248]	[Remarks:Success]
[Date: 2019-09-04 11:07:41]	[UserID:17/1248]	[IP:10.128.12.115]	[Browser:Chrome - 76.0.3809.132]	[Action:Filtering User : MasterData Username : 17/1248]	[Remarks:Successful filter row count: 0]
[Date: 2019-09-04 11:07:41]	[UserID:17/1248]	[IP:10.128.12.115]	[Browser:Chrome - 76.0.3809.132]	[Action:Filtering User : MasterData Username : 17/1248]	[Remarks:Successful filter row count: 0]
[Date: 2019-09-04 11:07:41]	[UserID:17/1248]	[IP:10.128.12.115]	[Browser:Chrome - 76.0.3809.132]	[Action:Filtering User : MasterData Username : 17/1248]	[Remarks:Success]
[Date: 2019-09-04 11:07:41]	[UserID:17/1248]	[IP:10.128.12.115]	[Browser:Chrome - 76.0.3809.132]	[Action:Closing mssql connection]	[Remarks:Success]
[Date: 2019-09-04 11:07:41]	[UserID:17/1248]	[IP:10.128.12.115]	[Browser:Chrome - 76.0.3809.132]	[Action:Making connection to server]	[Remarks:Successful connection to server: S3]
[Date: 2019-09-04 11:07:41]	[UserID:17/1248]	[IP:10.128.12.115]	[Browser:Chrome - 76.0.3809.132]	[Action:GetProgramList 17/1248]	[Remarks:[{"ID":"1","ProgramIndex":"GST","ProgramName":"GST"}]]
[Date: 2019-09-04 11:07:41]	[UserID:17/1248]	[IP:10.128.12.115]	[Browser:Chrome - 76.0.3809.132]	[Action:Making connection to server]	[Remarks:Successful connection to server: S3]
[Date: 2019-09-04 11:07:41]	[UserID:17/1248]	[IP:10.128.12.115]	[Browser:Chrome - 76.0.3809.132]	[Action:GetProgramList 17/1248]	[Remarks:[{"ID":"1","ProgramIndex":"GST","ProgramName":"GST"}]]
[Date: 2019-09-04 11:07:41]	[UserID:17/1248]	[IP:10.128.12.115]	[Browser:Chrome - 76.0.3809.132]	[Action:Making connection to server]	[Remarks:Successful connection to server: S3]
[Date: 2019-09-04 11:07:41]	[UserID:17/1248]	[IP:10.128.12.115]	[Browser:Chrome - 76.0.3809.132]	[Action:Filtering User : MasterData Username : 17/1248]	[Remarks:Successful filter row count: 1]
[Date: 2019-09-04 11:07:41]	[UserID:17/1248]	[IP:10.128.12.115]	[Browser:Chrome - 76.0.3809.132]	[Action:Making connection to server]	[Remarks:Successful connection to server: S3]
[Date: 2019-09-04 11:07:42]	[UserID:17/1248]	[IP:10.128.12.115]	[Browser:Chrome - 76.0.3809.132]	[Action:GetGSTModules 17/1248,1]	[Remarks:Successful filter row count: 6]
[Date: 2019-09-04 11:07:42]	[UserID:17/1248]	[IP:10.128.12.115]	[Browser:Chrome - 76.0.3809.132]	[Action:Closing mssql connection]	[Remarks:Success]
[Date: 2019-09-04 11:10:55]	[UserID:17/1248]	[IP:10.128.12.115]	[Browser:Chrome - 76.0.3809.132]	[Action:Making connection to server]	[Remarks:Successful connection to server: S3]
[Date: 2019-09-04 11:10:55]	[UserID:17/1248]	[IP:10.128.12.115]	[Browser:Chrome - 76.0.3809.132]	[Action:GetGSTModules 17/1248,1]	[Remarks:Successful filter row count: 6]
[Date: 2019-09-04 11:10:55]	[UserID:17/1248]	[IP:10.128.12.115]	[Browser:Chrome - 76.0.3809.132]	[Action:Closing mssql connection]	[Remarks:Success]
[Date: 2019-09-04 11:14:31]	[UserID:]	[IP:10.128.12.115]	[Browser:Chrome - 76.0.3809.132]	[Action:Making connection to server]	[Remarks:Successful connection to server: S3]
[Date: 2019-09-04 11:14:31]	[UserID:]	[IP:10.128.12.115]	[Browser:Chrome - 76.0.3809.132]	[Action:GetProgramList ]	[Remarks:"no data"]
[Date: 2019-09-04 13:43:21]	[UserID:14/1082]	[IP:10.128.12.120]	[Browser:Chrome - 76.0.3809.132]	[Action:Making connection to server]	[Remarks:Successful connection to server: S3]
[Date: 2019-09-04 13:43:22]	[UserID:14/1082]	[IP:10.128.12.120]	[Browser:Chrome - 76.0.3809.132]	[Action:GetGSTModules 14/1082,1]	[Remarks:Successful filter row count: 8]
[Date: 2019-09-04 13:43:22]	[UserID:14/1082]	[IP:10.128.12.120]	[Browser:Chrome - 76.0.3809.132]	[Action:Closing mssql connection]	[Remarks:Success]
[Date: 2019-09-04 13:43:26]	[UserID:14/1082]	[IP:10.128.12.120]	[Browser:Chrome - 76.0.3809.132]	[Action:Making connection to server]	[Remarks:Successful connection to server: S3]
[Date: 2019-09-04 13:43:26]	[UserID:14/1082]	[IP:10.128.12.120]	[Browser:Chrome - 76.0.3809.132]	[Action:GetProgramList 14/1082]	[Remarks:[{"ID":"1","ProgramIndex":"GST","ProgramName":"GST"}]]
[Date: 2019-09-04 13:43:26]	[UserID:14/1082]	[IP:10.128.12.120]	[Browser:Chrome - 76.0.3809.132]	[Action:Making connection to server]	[Remarks:Successful connection to server: S3]
[Date: 2019-09-04 13:43:26]	[UserID:14/1082]	[IP:10.128.12.120]	[Browser:Chrome - 76.0.3809.132]	[Action:GetProgramList 14/1082]	[Remarks:[{"ID":"1","ProgramIndex":"GST","ProgramName":"GST"}]]
[Date: 2019-09-04 13:43:26]	[UserID:14/1082]	[IP:10.128.12.120]	[Browser:Chrome - 76.0.3809.132]	[Action:Making connection to server]	[Remarks:Successful connection to server: S3]
[Date: 2019-09-04 13:43:26]	[UserID:14/1082]	[IP:10.128.12.120]	[Browser:Chrome - 76.0.3809.132]	[Action:Filtering User : MasterData Username : 14/1082]	[Remarks:Successful filter row count: 1]
[Date: 2019-09-04 13:43:27]	[UserID:14/1082]	[IP:10.128.12.120]	[Browser:Chrome - 76.0.3809.132]	[Action:Making connection to server]	[Remarks:Successful connection to server: S3]
[Date: 2019-09-04 13:43:27]	[UserID:14/1082]	[IP:10.128.12.120]	[Browser:Chrome - 76.0.3809.132]	[Action:GetGSTModules 14/1082,1]	[Remarks:Successful filter row count: 8]
[Date: 2019-09-04 13:43:27]	[UserID:14/1082]	[IP:10.128.12.120]	[Browser:Chrome - 76.0.3809.132]	[Action:Closing mssql connection]	[Remarks:Success]
[Date: 2019-09-04 13:45:42]	[UserID:06/343]	[IP:10.128.12.113]	[Browser:Chrome - 76.0.3809.132]	[Action:Making connection to server]	[Remarks:Successful connection to server: S3]
[Date: 2019-09-04 13:45:42]	[UserID:06/343]	[IP:10.128.12.113]	[Browser:Chrome - 76.0.3809.132]	[Action:GetGSTModules 06/343,1]	[Remarks:Successful filter row count: 7]
[Date: 2019-09-04 13:45:42]	[UserID:06/343]	[IP:10.128.12.113]	[Browser:Chrome - 76.0.3809.132]	[Action:Closing mssql connection]	[Remarks:Success]
[Date: 2019-09-04 13:45:47]	[UserID:06/343]	[IP:10.128.12.113]	[Browser:Chrome - 76.0.3809.132]	[Action:Making connection to server]	[Remarks:Successful connection to server: S3]
[Date: 2019-09-04 13:45:47]	[UserID:06/343]	[IP:10.128.12.113]	[Browser:Chrome - 76.0.3809.132]	[Action:GetGSTModules 06/343,1]	[Remarks:Successful filter row count: 7]
[Date: 2019-09-04 13:45:47]	[UserID:06/343]	[IP:10.128.12.113]	[Browser:Chrome - 76.0.3809.132]	[Action:Closing mssql connection]	[Remarks:Success]
[Date: 2019-09-04 13:48:55]	[UserID:06/343]	[IP:10.128.12.113]	[Browser:Chrome - 76.0.3809.132]	[Action:Making connection to server]	[Remarks:Successful connection to server: S3]
[Date: 2019-09-04 13:48:55]	[UserID:06/343]	[IP:10.128.12.113]	[Browser:Chrome - 76.0.3809.132]	[Action:GetGSTModules 06/343,1]	[Remarks:Successful filter row count: 7]
[Date: 2019-09-04 13:48:55]	[UserID:06/343]	[IP:10.128.12.113]	[Browser:Chrome - 76.0.3809.132]	[Action:Closing mssql connection]	[Remarks:Success]
[Date: 2019-09-04 13:50:24]	[UserID:14/1082]	[IP:10.128.12.120]	[Browser:Chrome - 76.0.3809.132]	[Action:Making connection to server]	[Remarks:Successful connection to server: S3]
[Date: 2019-09-04 13:50:24]	[UserID:14/1082]	[IP:10.128.12.120]	[Browser:Chrome - 76.0.3809.132]	[Action:GetGSTModules 14/1082,1]	[Remarks:Successful filter row count: 8]
[Date: 2019-09-04 13:50:24]	[UserID:14/1082]	[IP:10.128.12.120]	[Browser:Chrome - 76.0.3809.132]	[Action:Closing mssql connection]	[Remarks:Success]
[Date: 2019-09-04 14:25:29]	[UserID:06/343]	[IP:10.128.12.113]	[Browser:Chrome - 76.0.3809.132]	[Action:Making connection to server]	[Remarks:Successful connection to server: S3]
[Date: 2019-09-04 14:25:29]	[UserID:06/343]	[IP:10.128.12.113]	[Browser:Chrome - 76.0.3809.132]	[Action:GetGSTModules 06/343,1]	[Remarks:Successful filter row count: 7]
[Date: 2019-09-04 14:25:29]	[UserID:06/343]	[IP:10.128.12.113]	[Browser:Chrome - 76.0.3809.132]	[Action:Closing mssql connection]	[Remarks:Success]
[Date: 2019-09-04 14:32:01]	[UserID:06/343]	[IP:10.128.12.113]	[Browser:Chrome - 76.0.3809.132]	[Action:Making connection to server]	[Remarks:Successful connection to server: S3]
[Date: 2019-09-04 14:32:01]	[UserID:06/343]	[IP:10.128.12.113]	[Browser:Chrome - 76.0.3809.132]	[Action:GetGSTModules 06/343,1]	[Remarks:Successful filter row count: 7]
[Date: 2019-09-04 14:32:01]	[UserID:06/343]	[IP:10.128.12.113]	[Browser:Chrome - 76.0.3809.132]	[Action:Closing mssql connection]	[Remarks:Success]
[Date: 2019-09-04 14:33:38]	[UserID:06/343]	[IP:10.128.12.113]	[Browser:Chrome - 76.0.3809.132]	[Action:Making connection to server]	[Remarks:Successful connection to server: S3]
[Date: 2019-09-04 14:33:38]	[UserID:06/343]	[IP:10.128.12.113]	[Browser:Chrome - 76.0.3809.132]	[Action:GetGSTModules 06/343,1]	[Remarks:Successful filter row count: 7]
[Date: 2019-09-04 14:33:38]	[UserID:06/343]	[IP:10.128.12.113]	[Browser:Chrome - 76.0.3809.132]	[Action:Closing mssql connection]	[Remarks:Success]
[Date: 2019-09-04 14:49:37]	[UserID:14/1082]	[IP:10.128.12.120]	[Browser:Chrome - 76.0.3809.132]	[Action:Making connection to server]	[Remarks:Successful connection to server: S3]
[Date: 2019-09-04 14:49:37]	[UserID:14/1082]	[IP:10.128.12.120]	[Browser:Chrome - 76.0.3809.132]	[Action:GetGSTModules 14/1082,1]	[Remarks:Successful filter row count: 8]
[Date: 2019-09-04 14:49:37]	[UserID:14/1082]	[IP:10.128.12.120]	[Browser:Chrome - 76.0.3809.132]	[Action:Closing mssql connection]	[Remarks:Success]
[Date: 2019-09-04 14:55:53]	[UserID:14/1082]	[IP:10.128.12.120]	[Browser:Chrome - 76.0.3809.132]	[Action:Making connection to server]	[Remarks:Successful connection to server: S3]
[Date: 2019-09-04 14:55:53]	[UserID:14/1082]	[IP:10.128.12.120]	[Browser:Chrome - 76.0.3809.132]	[Action:GetGSTModules 14/1082,1]	[Remarks:Successful filter row count: 8]
[Date: 2019-09-04 14:55:53]	[UserID:14/1082]	[IP:10.128.12.120]	[Browser:Chrome - 76.0.3809.132]	[Action:Closing mssql connection]	[Remarks:Success]
[Date: 2019-09-04 16:03:41]	[UserID:14/1082]	[IP:10.128.12.120]	[Browser:Chrome - 76.0.3809.132]	[Action:Making connection to server]	[Remarks:Successful connection to server: S3]
[Date: 2019-09-04 16:03:42]	[UserID:14/1082]	[IP:10.128.12.120]	[Browser:Chrome - 76.0.3809.132]	[Action:GetGSTModules 14/1082,1]	[Remarks:Successful filter row count: 8]
[Date: 2019-09-04 16:03:42]	[UserID:14/1082]	[IP:10.128.12.120]	[Browser:Chrome - 76.0.3809.132]	[Action:Closing mssql connection]	[Remarks:Success]
[Date: 2019-09-04 16:09:10]	[UserID:]	[IP:10.128.81.157]	[Browser:Chrome - 76.0.3809.132]	[Action:Making connection to server]	[Remarks:Successful connection to server: S3]
[Date: 2019-09-04 16:09:10]	[UserID:]	[IP:10.128.81.157]	[Browser:Chrome - 76.0.3809.132]	[Action:GetProgramList ]	[Remarks:"no data"]
[Date: 2019-09-04 16:09:30]	[UserID:17/1257]	[IP:10.128.81.157]	[Browser:Chrome - 76.0.3809.132]	[Action:Making connection to server]	[Remarks:Successful connection to server: S3]
[Date: 2019-09-04 16:09:30]	[UserID:17/1257]	[IP:10.128.81.157]	[Browser:Chrome - 76.0.3809.132]	[Action:User 17/1257]	[Remarks:Success]
[Date: 2019-09-04 16:09:30]	[UserID:17/1257]	[IP:10.128.81.157]	[Browser:Chrome - 76.0.3809.132]	[Action:Filtering User : MasterData Username : 17/1257]	[Remarks:Successful filter row count: 0]
[Date: 2019-09-04 16:09:30]	[UserID:17/1257]	[IP:10.128.81.157]	[Browser:Chrome - 76.0.3809.132]	[Action:Filtering User : MasterData Username : 17/1257]	[Remarks:Successful filter row count: 0]
[Date: 2019-09-04 16:09:30]	[UserID:17/1257]	[IP:10.128.81.157]	[Browser:Chrome - 76.0.3809.132]	[Action:Filtering User : MasterData Username : 17/1257]	[Remarks:Success]
[Date: 2019-09-04 16:09:30]	[UserID:17/1257]	[IP:10.128.81.157]	[Browser:Chrome - 76.0.3809.132]	[Action:Closing mssql connection]	[Remarks:Success]
[Date: 2019-09-04 16:09:30]	[UserID:17/1257]	[IP:10.128.81.157]	[Browser:Chrome - 76.0.3809.132]	[Action:Making connection to server]	[Remarks:Successful connection to server: S3]
[Date: 2019-09-04 16:09:30]	[UserID:17/1257]	[IP:10.128.81.157]	[Browser:Chrome - 76.0.3809.132]	[Action:GetProgramList 17/1257]	[Remarks:[{"ID":"1","ProgramIndex":"GST","ProgramName":"GST"}]]
[Date: 2019-09-04 16:09:30]	[UserID:17/1257]	[IP:10.128.81.157]	[Browser:Chrome - 76.0.3809.132]	[Action:Making connection to server]	[Remarks:Successful connection to server: S3]
[Date: 2019-09-04 16:09:30]	[UserID:17/1257]	[IP:10.128.81.157]	[Browser:Chrome - 76.0.3809.132]	[Action:GetProgramList 17/1257]	[Remarks:[{"ID":"1","ProgramIndex":"GST","ProgramName":"GST"}]]
[Date: 2019-09-04 16:09:30]	[UserID:17/1257]	[IP:10.128.81.157]	[Browser:Chrome - 76.0.3809.132]	[Action:Making connection to server]	[Remarks:Successful connection to server: S3]
[Date: 2019-09-04 16:09:30]	[UserID:17/1257]	[IP:10.128.81.157]	[Browser:Chrome - 76.0.3809.132]	[Action:Filtering User : MasterData Username : 17/1257]	[Remarks:Successful filter row count: 1]
[Date: 2019-09-04 16:09:31]	[UserID:17/1257]	[IP:10.128.81.157]	[Browser:Chrome - 76.0.3809.132]	[Action:Making connection to server]	[Remarks:Successful connection to server: S3]
[Date: 2019-09-04 16:09:31]	[UserID:17/1257]	[IP:10.128.81.157]	[Browser:Chrome - 76.0.3809.132]	[Action:GetGSTModules 17/1257,1]	[Remarks:Successful filter row count: 5]
[Date: 2019-09-04 16:09:31]	[UserID:17/1257]	[IP:10.128.81.157]	[Browser:Chrome - 76.0.3809.132]	[Action:Closing mssql connection]	[Remarks:Success]
[Date: 2019-09-04 16:11:38]	[UserID:17/1257]	[IP:10.128.81.157]	[Browser:Chrome - 76.0.3809.132]	[Action:Making connection to server]	[Remarks:Successful connection to server: S3]
[Date: 2019-09-04 16:11:38]	[UserID:17/1257]	[IP:10.128.81.157]	[Browser:Chrome - 76.0.3809.132]	[Action:GetGSTModules 17/1257,1]	[Remarks:Successful filter row count: 5]
[Date: 2019-09-04 16:11:38]	[UserID:17/1257]	[IP:10.128.81.157]	[Browser:Chrome - 76.0.3809.132]	[Action:Closing mssql connection]	[Remarks:Success]
[Date: 2019-09-04 16:13:58]	[UserID:17/1257]	[IP:10.128.81.157]	[Browser:Chrome - 76.0.3809.132]	[Action:Making connection to server]	[Remarks:Successful connection to server: S3]
[Date: 2019-09-04 16:13:58]	[UserID:17/1257]	[IP:10.128.81.157]	[Browser:Chrome - 76.0.3809.132]	[Action:GetGSTModules 17/1257,1]	[Remarks:Successful filter row count: 5]
[Date: 2019-09-04 16:13:58]	[UserID:17/1257]	[IP:10.128.81.157]	[Browser:Chrome - 76.0.3809.132]	[Action:Closing mssql connection]	[Remarks:Success]
[Date: 2019-09-04 16:15:32]	[UserID:14/1082]	[IP:10.128.12.120]	[Browser:Chrome - 76.0.3809.132]	[Action:Making connection to server]	[Remarks:Successful connection to server: S3]
[Date: 2019-09-04 16:15:32]	[UserID:14/1082]	[IP:10.128.12.120]	[Browser:Chrome - 76.0.3809.132]	[Action:GetGSTModules 14/1082,1]	[Remarks:Successful filter row count: 8]
[Date: 2019-09-04 16:15:32]	[UserID:14/1082]	[IP:10.128.12.120]	[Browser:Chrome - 76.0.3809.132]	[Action:Closing mssql connection]	[Remarks:Success]
[Date: 2019-09-04 16:39:17]	[UserID:14/1082]	[IP:10.128.12.120]	[Browser:Chrome - 76.0.3809.132]	[Action:Making connection to server]	[Remarks:Successful connection to server: S3]
[Date: 2019-09-04 16:39:17]	[UserID:14/1082]	[IP:10.128.12.120]	[Browser:Chrome - 76.0.3809.132]	[Action:GetGSTModules 14/1082,1]	[Remarks:Successful filter row count: 8]
[Date: 2019-09-04 16:39:17]	[UserID:14/1082]	[IP:10.128.12.120]	[Browser:Chrome - 76.0.3809.132]	[Action:Closing mssql connection]	[Remarks:Success]
[Date: 2019-09-04 16:39:59]	[UserID:14/1082]	[IP:10.128.12.120]	[Browser:Chrome - 76.0.3809.132]	[Action:Making connection to server]	[Remarks:Successful connection to server: S3]
[Date: 2019-09-04 16:39:59]	[UserID:14/1082]	[IP:10.128.12.120]	[Browser:Chrome - 76.0.3809.132]	[Action:GetProgramList 14/1082]	[Remarks:[{"ID":"1","ProgramIndex":"GST","ProgramName":"GST"}]]
[Date: 2019-09-04 16:39:59]	[UserID:14/1082]	[IP:10.128.12.120]	[Browser:Chrome - 76.0.3809.132]	[Action:Making connection to server]	[Remarks:Successful connection to server: S3]
[Date: 2019-09-04 16:39:59]	[UserID:14/1082]	[IP:10.128.12.120]	[Browser:Chrome - 76.0.3809.132]	[Action:GetProgramList 14/1082]	[Remarks:[{"ID":"1","ProgramIndex":"GST","ProgramName":"GST"}]]
[Date: 2019-09-04 16:39:59]	[UserID:14/1082]	[IP:10.128.12.120]	[Browser:Chrome - 76.0.3809.132]	[Action:Making connection to server]	[Remarks:Successful connection to server: S3]
[Date: 2019-09-04 16:39:59]	[UserID:14/1082]	[IP:10.128.12.120]	[Browser:Chrome - 76.0.3809.132]	[Action:Filtering User : MasterData Username : 14/1082]	[Remarks:Successful filter row count: 1]
[Date: 2019-09-04 16:40:04]	[UserID:14/1082]	[IP:10.128.12.120]	[Browser:Chrome - 76.0.3809.132]	[Action:Making connection to server]	[Remarks:Successful connection to server: S3]
[Date: 2019-09-04 16:40:04]	[UserID:14/1082]	[IP:10.128.12.120]	[Browser:Chrome - 76.0.3809.132]	[Action:GetGSTModules 14/1082,1]	[Remarks:Successful filter row count: 8]
[Date: 2019-09-04 16:40:04]	[UserID:14/1082]	[IP:10.128.12.120]	[Browser:Chrome - 76.0.3809.132]	[Action:Closing mssql connection]	[Remarks:Success]
[Date: 2019-09-04 17:04:06]	[UserID:]	[IP:10.128.12.113]	[Browser:Chrome - 76.0.3809.132]	[Action:Making connection to server]	[Remarks:Successful connection to server: S3]
[Date: 2019-09-04 17:04:06]	[UserID:]	[IP:10.128.12.113]	[Browser:Chrome - 76.0.3809.132]	[Action:GetProgramList ]	[Remarks:"no data"]
[Date: 2019-09-04 17:04:13]	[UserID:06/343]	[IP:10.128.12.113]	[Browser:Chrome - 76.0.3809.132]	[Action:Making connection to server]	[Remarks:Successful connection to server: S3]
[Date: 2019-09-04 17:04:13]	[UserID:06/343]	[IP:10.128.12.113]	[Browser:Chrome - 76.0.3809.132]	[Action:User 06/343]	[Remarks:Success]
[Date: 2019-09-04 17:04:13]	[UserID:06/343]	[IP:10.128.12.113]	[Browser:Chrome - 76.0.3809.132]	[Action:Filtering User : MasterData Username : 06/343]	[Remarks:Successful filter row count: 0]
[Date: 2019-09-04 17:04:13]	[UserID:06/343]	[IP:10.128.12.113]	[Browser:Chrome - 76.0.3809.132]	[Action:Filtering User : MasterData Username : 06/343]	[Remarks:Successful filter row count: 0]
[Date: 2019-09-04 17:04:13]	[UserID:06/343]	[IP:10.128.12.113]	[Browser:Chrome - 76.0.3809.132]	[Action:Filtering User : MasterData Username : 06/343]	[Remarks:Success]
[Date: 2019-09-04 17:04:13]	[UserID:06/343]	[IP:10.128.12.113]	[Browser:Chrome - 76.0.3809.132]	[Action:Closing mssql connection]	[Remarks:Success]
[Date: 2019-09-04 17:04:13]	[UserID:06/343]	[IP:10.128.12.113]	[Browser:Chrome - 76.0.3809.132]	[Action:Making connection to server]	[Remarks:Successful connection to server: S3]
[Date: 2019-09-04 17:04:13]	[UserID:06/343]	[IP:10.128.12.113]	[Browser:Chrome - 76.0.3809.132]	[Action:GetProgramList 06/343]	[Remarks:[{"ID":"1","ProgramIndex":"GST","ProgramName":"GST"}]]
[Date: 2019-09-04 17:04:13]	[UserID:06/343]	[IP:10.128.12.113]	[Browser:Chrome - 76.0.3809.132]	[Action:Making connection to server]	[Remarks:Successful connection to server: S3]
[Date: 2019-09-04 17:04:13]	[UserID:06/343]	[IP:10.128.12.113]	[Browser:Chrome - 76.0.3809.132]	[Action:GetProgramList 06/343]	[Remarks:[{"ID":"1","ProgramIndex":"GST","ProgramName":"GST"}]]
[Date: 2019-09-04 17:04:13]	[UserID:06/343]	[IP:10.128.12.113]	[Browser:Chrome - 76.0.3809.132]	[Action:Making connection to server]	[Remarks:Successful connection to server: S3]
[Date: 2019-09-04 17:04:13]	[UserID:06/343]	[IP:10.128.12.113]	[Browser:Chrome - 76.0.3809.132]	[Action:Filtering User : MasterData Username : 06/343]	[Remarks:Successful filter row count: 1]
[Date: 2019-09-04 17:04:13]	[UserID:06/343]	[IP:10.128.12.113]	[Browser:Chrome - 76.0.3809.132]	[Action:Making connection to server]	[Remarks:Successful connection to server: S3]
[Date: 2019-09-04 17:04:13]	[UserID:06/343]	[IP:10.128.12.113]	[Browser:Chrome - 76.0.3809.132]	[Action:GetGSTModules 06/343,1]	[Remarks:Successful filter row count: 7]
[Date: 2019-09-04 17:04:13]	[UserID:06/343]	[IP:10.128.12.113]	[Browser:Chrome - 76.0.3809.132]	[Action:Closing mssql connection]	[Remarks:Success]
[Date: 2019-09-04 17:05:03]	[UserID:06/343]	[IP:10.128.12.113]	[Browser:Chrome - 76.0.3809.132]	[Action:Making connection to server]	[Remarks:Successful connection to server: S3]
[Date: 2019-09-04 17:05:03]	[UserID:06/343]	[IP:10.128.12.113]	[Browser:Chrome - 76.0.3809.132]	[Action:GetGSTModules 06/343,1]	[Remarks:Successful filter row count: 7]
[Date: 2019-09-04 17:05:03]	[UserID:06/343]	[IP:10.128.12.113]	[Browser:Chrome - 76.0.3809.132]	[Action:Closing mssql connection]	[Remarks:Success]
[Date: 2019-09-04 17:10:42]	[UserID:06/343]	[IP:10.128.12.113]	[Browser:Chrome - 76.0.3809.132]	[Action:Making connection to server]	[Remarks:Successful connection to server: S3]
[Date: 2019-09-04 17:10:42]	[UserID:06/343]	[IP:10.128.12.113]	[Browser:Chrome - 76.0.3809.132]	[Action:GetGSTModules 06/343,1]	[Remarks:Successful filter row count: 7]
[Date: 2019-09-04 17:10:42]	[UserID:06/343]	[IP:10.128.12.113]	[Browser:Chrome - 76.0.3809.132]	[Action:Closing mssql connection]	[Remarks:Success]
[Date: 2019-09-04 21:45:17]	[UserID:]	[IP:10.139.5.105]	[Browser:Firefox - 69.0]	[Action:Making connection to server]	[Remarks:Successful connection to server: S3]
[Date: 2019-09-04 21:45:17]	[UserID:]	[IP:10.139.5.105]	[Browser:Firefox - 69.0]	[Action:GetProgramList ]	[Remarks:"no data"]
