[Date: 2018-05-21 09:10:52]	[UserID:dev/jagustin]	[IP:10.128.80.223]	[Browser:Chrome - 66.0.3359.139]	[Action:Making connection to server]	[Remarks:Successful connection to server: S3]
[Date: 2018-05-21 09:10:52]	[UserID:dev/jagustin]	[IP:10.128.80.223]	[Browser:Chrome - 66.0.3359.139]	[Action:GetGSTModules dev/jagustin,1]	[Remarks:Successful filter row count: 9]
[Date: 2018-05-21 09:10:52]	[UserID:dev/jagustin]	[IP:10.128.80.223]	[Browser:Chrome - 66.0.3359.139]	[Action:Closing mssql connection]	[Remarks:Success]
[Date: 2018-05-21 09:33:31]	[UserID:]	[IP:10.128.12.113]	[Browser:Chrome - 66.0.3359.181]	[Action:Making connection to server]	[Remarks:Successful connection to server: S3]
[Date: 2018-05-21 09:33:32]	[UserID:]	[IP:10.128.12.113]	[Browser:Chrome - 66.0.3359.181]	[Action:GetProgramList ]	[Remarks:"no data"]
[Date: 2018-05-21 09:36:43]	[UserID:06/343]	[IP:10.128.12.113]	[Browser:Chrome - 66.0.3359.181]	[Action:Making connection to server]	[Remarks:Successful connection to server: S3]
[Date: 2018-05-21 09:36:43]	[UserID:06/343]	[IP:10.128.12.113]	[Browser:Chrome - 66.0.3359.181]	[Action:User 06/343]	[Remarks:Success]
[Date: 2018-05-21 09:36:43]	[UserID:06/343]	[IP:10.128.12.113]	[Browser:Chrome - 66.0.3359.181]	[Action:Filtering User : MasterData Username : 06/343]	[Remarks:Successful filter row count: 0]
[Date: 2018-05-21 09:36:43]	[UserID:06/343]	[IP:10.128.12.113]	[Browser:Chrome - 66.0.3359.181]	[Action:Filtering User : MasterData Username : 06/343]	[Remarks:Successful filter row count: 0]
[Date: 2018-05-21 09:36:43]	[UserID:06/343]	[IP:10.128.12.113]	[Browser:Chrome - 66.0.3359.181]	[Action:Filtering User : MasterData Username : 06/343]	[Remarks:Success]
[Date: 2018-05-21 09:36:43]	[UserID:06/343]	[IP:10.128.12.113]	[Browser:Chrome - 66.0.3359.181]	[Action:Closing mssql connection]	[Remarks:Success]
[Date: 2018-05-21 09:36:43]	[UserID:06/343]	[IP:10.128.12.113]	[Browser:Chrome - 66.0.3359.181]	[Action:Making connection to server]	[Remarks:Successful connection to server: S3]
[Date: 2018-05-21 09:36:43]	[UserID:06/343]	[IP:10.128.12.113]	[Browser:Chrome - 66.0.3359.181]	[Action:GetProgramList 06/343]	[Remarks:[{"ID":"1","ProgramIndex":"GST","ProgramName":"GST"}]]
[Date: 2018-05-21 09:36:43]	[UserID:06/343]	[IP:10.128.12.113]	[Browser:Chrome - 66.0.3359.181]	[Action:Making connection to server]	[Remarks:Successful connection to server: S3]
[Date: 2018-05-21 09:36:43]	[UserID:06/343]	[IP:10.128.12.113]	[Browser:Chrome - 66.0.3359.181]	[Action:GetProgramList 06/343]	[Remarks:[{"ID":"1","ProgramIndex":"GST","ProgramName":"GST"}]]
[Date: 2018-05-21 09:36:43]	[UserID:06/343]	[IP:10.128.12.113]	[Browser:Chrome - 66.0.3359.181]	[Action:Making connection to server]	[Remarks:Successful connection to server: S3]
[Date: 2018-05-21 09:36:43]	[UserID:06/343]	[IP:10.128.12.113]	[Browser:Chrome - 66.0.3359.181]	[Action:Filtering User : MasterData Username : 06/343]	[Remarks:Successful filter row count: 1]
[Date: 2018-05-21 09:36:44]	[UserID:06/343]	[IP:10.128.12.113]	[Browser:Chrome - 66.0.3359.181]	[Action:Making connection to server]	[Remarks:Successful connection to server: S3]
[Date: 2018-05-21 09:36:44]	[UserID:06/343]	[IP:10.128.12.113]	[Browser:Chrome - 66.0.3359.181]	[Action:GetGSTModules 06/343,1]	[Remarks:Successful filter row count: 6]
[Date: 2018-05-21 09:36:44]	[UserID:06/343]	[IP:10.128.12.113]	[Browser:Chrome - 66.0.3359.181]	[Action:Closing mssql connection]	[Remarks:Success]
[Date: 2018-05-21 09:37:28]	[UserID:06/343]	[IP:10.128.12.113]	[Browser:Chrome - 66.0.3359.181]	[Action:Making connection to server]	[Remarks:Successful connection to server: S3]
[Date: 2018-05-21 09:37:28]	[UserID:06/343]	[IP:10.128.12.113]	[Browser:Chrome - 66.0.3359.181]	[Action:GetGSTModules 06/343,1]	[Remarks:Successful filter row count: 6]
[Date: 2018-05-21 09:37:28]	[UserID:06/343]	[IP:10.128.12.113]	[Browser:Chrome - 66.0.3359.181]	[Action:Closing mssql connection]	[Remarks:Success]
[Date: 2018-05-21 09:56:35]	[UserID:06/343]	[IP:10.128.12.113]	[Browser:Chrome - 66.0.3359.181]	[Action:Making connection to server]	[Remarks:Successful connection to server: S3]
[Date: 2018-05-21 09:56:35]	[UserID:06/343]	[IP:10.128.12.113]	[Browser:Chrome - 66.0.3359.181]	[Action:GetProgramList 06/343]	[Remarks:[{"ID":"1","ProgramIndex":"GST","ProgramName":"GST"}]]
[Date: 2018-05-21 09:56:35]	[UserID:06/343]	[IP:10.128.12.113]	[Browser:Chrome - 66.0.3359.181]	[Action:Making connection to server]	[Remarks:Successful connection to server: S3]
[Date: 2018-05-21 09:56:35]	[UserID:06/343]	[IP:10.128.12.113]	[Browser:Chrome - 66.0.3359.181]	[Action:GetProgramList 06/343]	[Remarks:[{"ID":"1","ProgramIndex":"GST","ProgramName":"GST"}]]
[Date: 2018-05-21 09:56:35]	[UserID:06/343]	[IP:10.128.12.113]	[Browser:Chrome - 66.0.3359.181]	[Action:Making connection to server]	[Remarks:Successful connection to server: S3]
[Date: 2018-05-21 09:56:35]	[UserID:06/343]	[IP:10.128.12.113]	[Browser:Chrome - 66.0.3359.181]	[Action:Filtering User : MasterData Username : 06/343]	[Remarks:Successful filter row count: 1]
[Date: 2018-05-21 09:56:45]	[UserID:06/343]	[IP:10.128.12.113]	[Browser:Chrome - 66.0.3359.181]	[Action:Making connection to server]	[Remarks:Successful connection to server: S3]
[Date: 2018-05-21 09:56:45]	[UserID:06/343]	[IP:10.128.12.113]	[Browser:Chrome - 66.0.3359.181]	[Action:GetGSTModules 06/343,1]	[Remarks:Successful filter row count: 6]
[Date: 2018-05-21 09:56:45]	[UserID:06/343]	[IP:10.128.12.113]	[Browser:Chrome - 66.0.3359.181]	[Action:Closing mssql connection]	[Remarks:Success]
[Date: 2018-05-21 09:59:47]	[UserID:]	[IP:10.128.80.132]	[Browser:Chrome - 66.0.3359.181]	[Action:Making connection to server]	[Remarks:Successful connection to server: S3]
[Date: 2018-05-21 09:59:47]	[UserID:]	[IP:10.128.80.132]	[Browser:Chrome - 66.0.3359.181]	[Action:GetProgramList ]	[Remarks:"no data"]
[Date: 2018-05-21 09:59:58]	[UserID:17/1257]	[IP:10.128.80.132]	[Browser:Chrome - 66.0.3359.181]	[Action:Making connection to server]	[Remarks:Successful connection to server: S3]
[Date: 2018-05-21 09:59:58]	[UserID:17/1257]	[IP:10.128.80.132]	[Browser:Chrome - 66.0.3359.181]	[Action:LogMeIn 17/1257,123456]	[Remarks:Failed]
[Date: 2018-05-21 09:59:58]	[UserID:17/1257]	[IP:10.128.80.132]	[Browser:Chrome - 66.0.3359.181]	[Action:Closing mssql connection]	[Remarks:Success]
[Date: 2018-05-21 11:18:21]	[UserID:06/343]	[IP:10.128.12.113]	[Browser:Chrome - 66.0.3359.181]	[Action:Making connection to server]	[Remarks:Successful connection to server: S3]
[Date: 2018-05-21 11:18:21]	[UserID:06/343]	[IP:10.128.12.113]	[Browser:Chrome - 66.0.3359.181]	[Action:GetProgramList 06/343]	[Remarks:[{"ID":"1","ProgramIndex":"GST","ProgramName":"GST"}]]
[Date: 2018-05-21 11:18:21]	[UserID:06/343]	[IP:10.128.12.113]	[Browser:Chrome - 66.0.3359.181]	[Action:Making connection to server]	[Remarks:Successful connection to server: S3]
[Date: 2018-05-21 11:18:21]	[UserID:06/343]	[IP:10.128.12.113]	[Browser:Chrome - 66.0.3359.181]	[Action:GetProgramList 06/343]	[Remarks:[{"ID":"1","ProgramIndex":"GST","ProgramName":"GST"}]]
[Date: 2018-05-21 11:18:21]	[UserID:06/343]	[IP:10.128.12.113]	[Browser:Chrome - 66.0.3359.181]	[Action:Making connection to server]	[Remarks:Successful connection to server: S3]
[Date: 2018-05-21 11:18:21]	[UserID:06/343]	[IP:10.128.12.113]	[Browser:Chrome - 66.0.3359.181]	[Action:Filtering User : MasterData Username : 06/343]	[Remarks:Successful filter row count: 1]
[Date: 2018-05-21 11:18:22]	[UserID:06/343]	[IP:10.128.12.113]	[Browser:Chrome - 66.0.3359.181]	[Action:Making connection to server]	[Remarks:Successful connection to server: S3]
[Date: 2018-05-21 11:18:22]	[UserID:06/343]	[IP:10.128.12.113]	[Browser:Chrome - 66.0.3359.181]	[Action:GetGSTModules 06/343,1]	[Remarks:Successful filter row count: 6]
[Date: 2018-05-21 11:18:22]	[UserID:06/343]	[IP:10.128.12.113]	[Browser:Chrome - 66.0.3359.181]	[Action:Closing mssql connection]	[Remarks:Success]
[Date: 2018-05-21 11:26:08]	[UserID:06/343]	[IP:10.128.12.113]	[Browser:Chrome - 66.0.3359.181]	[Action:Making connection to server]	[Remarks:Successful connection to server: S3]
[Date: 2018-05-21 11:26:08]	[UserID:06/343]	[IP:10.128.12.113]	[Browser:Chrome - 66.0.3359.181]	[Action:GetGSTModules 06/343,1]	[Remarks:Successful filter row count: 6]
[Date: 2018-05-21 11:26:08]	[UserID:06/343]	[IP:10.128.12.113]	[Browser:Chrome - 66.0.3359.181]	[Action:Closing mssql connection]	[Remarks:Success]
[Date: 2018-05-21 11:33:34]	[UserID:06/343]	[IP:10.128.12.113]	[Browser:Chrome - 66.0.3359.181]	[Action:Making connection to server]	[Remarks:Successful connection to server: S3]
[Date: 2018-05-21 11:33:34]	[UserID:06/343]	[IP:10.128.12.113]	[Browser:Chrome - 66.0.3359.181]	[Action:GetGSTModules 06/343,1]	[Remarks:Successful filter row count: 6]
[Date: 2018-05-21 11:33:34]	[UserID:06/343]	[IP:10.128.12.113]	[Browser:Chrome - 66.0.3359.181]	[Action:Closing mssql connection]	[Remarks:Success]
[Date: 2018-05-21 11:42:18]	[UserID:06/343]	[IP:10.128.12.113]	[Browser:Chrome - 66.0.3359.181]	[Action:Making connection to server]	[Remarks:Successful connection to server: S3]
[Date: 2018-05-21 11:42:18]	[UserID:06/343]	[IP:10.128.12.113]	[Browser:Chrome - 66.0.3359.181]	[Action:GetGSTModules 06/343,1]	[Remarks:Successful filter row count: 6]
[Date: 2018-05-21 11:42:18]	[UserID:06/343]	[IP:10.128.12.113]	[Browser:Chrome - 66.0.3359.181]	[Action:Closing mssql connection]	[Remarks:Success]
[Date: 2018-05-21 11:48:44]	[UserID:06/343]	[IP:10.128.12.113]	[Browser:Chrome - 66.0.3359.181]	[Action:Making connection to server]	[Remarks:Successful connection to server: S3]
[Date: 2018-05-21 11:48:44]	[UserID:06/343]	[IP:10.128.12.113]	[Browser:Chrome - 66.0.3359.181]	[Action:GetGSTModules 06/343,1]	[Remarks:Successful filter row count: 6]
[Date: 2018-05-21 11:48:44]	[UserID:06/343]	[IP:10.128.12.113]	[Browser:Chrome - 66.0.3359.181]	[Action:Closing mssql connection]	[Remarks:Success]
[Date: 2018-05-21 16:23:08]	[UserID:]	[IP:10.128.12.113]	[Browser:Chrome - 66.0.3359.181]	[Action:Making connection to server]	[Remarks:Successful connection to server: S3]
[Date: 2018-05-21 16:23:08]	[UserID:]	[IP:10.128.12.113]	[Browser:Chrome - 66.0.3359.181]	[Action:GetProgramList ]	[Remarks:"no data"]
[Date: 2018-05-21 16:23:11]	[UserID:06/343]	[IP:10.128.12.113]	[Browser:Chrome - 66.0.3359.181]	[Action:Making connection to server]	[Remarks:Successful connection to server: S3]
[Date: 2018-05-21 16:23:11]	[UserID:06/343]	[IP:10.128.12.113]	[Browser:Chrome - 66.0.3359.181]	[Action:User 06/343]	[Remarks:Success]
[Date: 2018-05-21 16:23:11]	[UserID:06/343]	[IP:10.128.12.113]	[Browser:Chrome - 66.0.3359.181]	[Action:Filtering User : MasterData Username : 06/343]	[Remarks:Successful filter row count: 0]
[Date: 2018-05-21 16:23:11]	[UserID:06/343]	[IP:10.128.12.113]	[Browser:Chrome - 66.0.3359.181]	[Action:Filtering User : MasterData Username : 06/343]	[Remarks:Successful filter row count: 0]
[Date: 2018-05-21 16:23:11]	[UserID:06/343]	[IP:10.128.12.113]	[Browser:Chrome - 66.0.3359.181]	[Action:Filtering User : MasterData Username : 06/343]	[Remarks:Success]
[Date: 2018-05-21 16:23:11]	[UserID:06/343]	[IP:10.128.12.113]	[Browser:Chrome - 66.0.3359.181]	[Action:Closing mssql connection]	[Remarks:Success]
[Date: 2018-05-21 16:23:11]	[UserID:06/343]	[IP:10.128.12.113]	[Browser:Chrome - 66.0.3359.181]	[Action:Making connection to server]	[Remarks:Successful connection to server: S3]
[Date: 2018-05-21 16:23:11]	[UserID:06/343]	[IP:10.128.12.113]	[Browser:Chrome - 66.0.3359.181]	[Action:GetProgramList 06/343]	[Remarks:[{"ID":"1","ProgramIndex":"GST","ProgramName":"GST"}]]
[Date: 2018-05-21 16:23:12]	[UserID:06/343]	[IP:10.128.12.113]	[Browser:Chrome - 66.0.3359.181]	[Action:Making connection to server]	[Remarks:Successful connection to server: S3]
[Date: 2018-05-21 16:23:12]	[UserID:06/343]	[IP:10.128.12.113]	[Browser:Chrome - 66.0.3359.181]	[Action:GetProgramList 06/343]	[Remarks:[{"ID":"1","ProgramIndex":"GST","ProgramName":"GST"}]]
[Date: 2018-05-21 16:23:12]	[UserID:06/343]	[IP:10.128.12.113]	[Browser:Chrome - 66.0.3359.181]	[Action:Making connection to server]	[Remarks:Successful connection to server: S3]
[Date: 2018-05-21 16:23:12]	[UserID:06/343]	[IP:10.128.12.113]	[Browser:Chrome - 66.0.3359.181]	[Action:Filtering User : MasterData Username : 06/343]	[Remarks:Successful filter row count: 1]
[Date: 2018-05-21 16:23:12]	[UserID:06/343]	[IP:10.128.12.113]	[Browser:Chrome - 66.0.3359.181]	[Action:Making connection to server]	[Remarks:Successful connection to server: S3]
[Date: 2018-05-21 16:23:12]	[UserID:06/343]	[IP:10.128.12.113]	[Browser:Chrome - 66.0.3359.181]	[Action:GetGSTModules 06/343,1]	[Remarks:Successful filter row count: 6]
[Date: 2018-05-21 16:23:12]	[UserID:06/343]	[IP:10.128.12.113]	[Browser:Chrome - 66.0.3359.181]	[Action:Closing mssql connection]	[Remarks:Success]
[Date: 2018-05-21 18:50:09]	[UserID:]	[IP:10.128.12.210]	[Browser:Chrome - 66.0.3359.181]	[Action:Making connection to server]	[Remarks:Successful connection to server: S3]
[Date: 2018-05-21 18:50:09]	[UserID:]	[IP:10.128.12.210]	[Browser:Chrome - 66.0.3359.181]	[Action:GetProgramList ]	[Remarks:"no data"]
[Date: 2018-05-21 18:50:16]	[UserID:10/660]	[IP:10.128.12.210]	[Browser:Chrome - 66.0.3359.181]	[Action:Making connection to server]	[Remarks:Successful connection to server: S3]
[Date: 2018-05-21 18:50:16]	[UserID:10/660]	[IP:10.128.12.210]	[Browser:Chrome - 66.0.3359.181]	[Action:User 10/660]	[Remarks:Success]
[Date: 2018-05-21 18:50:16]	[UserID:10/660]	[IP:10.128.12.210]	[Browser:Chrome - 66.0.3359.181]	[Action:Filtering User : MasterData Username : 10/660]	[Remarks:Successful filter row count: 0]
[Date: 2018-05-21 18:50:16]	[UserID:10/660]	[IP:10.128.12.210]	[Browser:Chrome - 66.0.3359.181]	[Action:Filtering User : MasterData Username : 10/660]	[Remarks:Successful filter row count: 0]
[Date: 2018-05-21 18:50:16]	[UserID:10/660]	[IP:10.128.12.210]	[Browser:Chrome - 66.0.3359.181]	[Action:Filtering User : MasterData Username : 10/660]	[Remarks:Success]
[Date: 2018-05-21 18:50:16]	[UserID:10/660]	[IP:10.128.12.210]	[Browser:Chrome - 66.0.3359.181]	[Action:Closing mssql connection]	[Remarks:Success]
[Date: 2018-05-21 18:50:16]	[UserID:10/660]	[IP:10.128.12.210]	[Browser:Chrome - 66.0.3359.181]	[Action:Making connection to server]	[Remarks:Successful connection to server: S3]
[Date: 2018-05-21 18:50:16]	[UserID:10/660]	[IP:10.128.12.210]	[Browser:Chrome - 66.0.3359.181]	[Action:GetProgramList 10/660]	[Remarks:[{"ID":"1","ProgramIndex":"GST","ProgramName":"GST"}]]
[Date: 2018-05-21 18:50:16]	[UserID:10/660]	[IP:10.128.12.210]	[Browser:Chrome - 66.0.3359.181]	[Action:Making connection to server]	[Remarks:Successful connection to server: S3]
[Date: 2018-05-21 18:50:16]	[UserID:10/660]	[IP:10.128.12.210]	[Browser:Chrome - 66.0.3359.181]	[Action:GetProgramList 10/660]	[Remarks:[{"ID":"1","ProgramIndex":"GST","ProgramName":"GST"}]]
[Date: 2018-05-21 18:50:16]	[UserID:10/660]	[IP:10.128.12.210]	[Browser:Chrome - 66.0.3359.181]	[Action:Making connection to server]	[Remarks:Successful connection to server: S3]
[Date: 2018-05-21 18:50:16]	[UserID:10/660]	[IP:10.128.12.210]	[Browser:Chrome - 66.0.3359.181]	[Action:Filtering User : MasterData Username : 10/660]	[Remarks:Successful filter row count: 1]
[Date: 2018-05-21 18:50:17]	[UserID:10/660]	[IP:10.128.12.210]	[Browser:Chrome - 66.0.3359.181]	[Action:Making connection to server]	[Remarks:Successful connection to server: S3]
[Date: 2018-05-21 18:50:17]	[UserID:10/660]	[IP:10.128.12.210]	[Browser:Chrome - 66.0.3359.181]	[Action:GetGSTModules 10/660,1]	[Remarks:Successful filter row count: 5]
[Date: 2018-05-21 18:50:17]	[UserID:10/660]	[IP:10.128.12.210]	[Browser:Chrome - 66.0.3359.181]	[Action:Closing mssql connection]	[Remarks:Success]
[Date: 2018-05-21 18:53:01]	[UserID:10/660]	[IP:10.128.12.210]	[Browser:Chrome - 66.0.3359.181]	[Action:Making connection to server]	[Remarks:Successful connection to server: S3]
[Date: 2018-05-21 18:53:01]	[UserID:10/660]	[IP:10.128.12.210]	[Browser:Chrome - 66.0.3359.181]	[Action:GetGSTModules 10/660,1]	[Remarks:Successful filter row count: 5]
[Date: 2018-05-21 18:53:01]	[UserID:10/660]	[IP:10.128.12.210]	[Browser:Chrome - 66.0.3359.181]	[Action:Closing mssql connection]	[Remarks:Success]
[Date: 2018-05-21 18:53:21]	[UserID:]	[IP:10.128.12.210]	[Browser:Chrome - 66.0.3359.181]	[Action:Making connection to server]	[Remarks:Successful connection to server: S3]
[Date: 2018-05-21 18:53:21]	[UserID:]	[IP:10.128.12.210]	[Browser:Chrome - 66.0.3359.181]	[Action:GetProgramList ]	[Remarks:"no data"]
