[Date: 2019-08-13 08:23:08]	[UserID:]	[IP:10.139.5.112]	[Browser:Chrome - 76.0.3809.100]	[Action:Making connection to server]	[Remarks:Successful connection to server: S3]
[Date: 2019-08-13 08:23:08]	[UserID:]	[IP:10.139.5.112]	[Browser:Chrome - 76.0.3809.100]	[Action:GetProgramList ]	[Remarks:"no data"]
[Date: 2019-08-13 08:33:27]	[UserID:]	[IP:10.128.12.120]	[Browser:Chrome - 75.0.3770.142]	[Action:Making connection to server]	[Remarks:Successful connection to server: S3]
[Date: 2019-08-13 08:33:27]	[UserID:]	[IP:10.128.12.120]	[Browser:Chrome - 75.0.3770.142]	[Action:GetProgramList ]	[Remarks:"no data"]
[Date: 2019-08-13 08:35:17]	[UserID:14/1082]	[IP:10.128.12.120]	[Browser:Chrome - 75.0.3770.142]	[Action:Making connection to server]	[Remarks:Successful connection to server: S3]
[Date: 2019-08-13 08:35:17]	[UserID:14/1082]	[IP:10.128.12.120]	[Browser:Chrome - 75.0.3770.142]	[Action:User 14/1082]	[Remarks:Success]
[Date: 2019-08-13 08:35:17]	[UserID:14/1082]	[IP:10.128.12.120]	[Browser:Chrome - 75.0.3770.142]	[Action:Filtering User : MasterData Username : 14/1082]	[Remarks:Successful filter row count: 0]
[Date: 2019-08-13 08:35:17]	[UserID:14/1082]	[IP:10.128.12.120]	[Browser:Chrome - 75.0.3770.142]	[Action:Filtering User : MasterData Username : 14/1082]	[Remarks:Successful filter row count: 0]
[Date: 2019-08-13 08:35:17]	[UserID:14/1082]	[IP:10.128.12.120]	[Browser:Chrome - 75.0.3770.142]	[Action:Filtering User : MasterData Username : 14/1082]	[Remarks:Success]
[Date: 2019-08-13 08:35:17]	[UserID:14/1082]	[IP:10.128.12.120]	[Browser:Chrome - 75.0.3770.142]	[Action:Closing mssql connection]	[Remarks:Success]
[Date: 2019-08-13 08:35:17]	[UserID:14/1082]	[IP:10.128.12.120]	[Browser:Chrome - 75.0.3770.142]	[Action:Making connection to server]	[Remarks:Successful connection to server: S3]
[Date: 2019-08-13 08:35:17]	[UserID:14/1082]	[IP:10.128.12.120]	[Browser:Chrome - 75.0.3770.142]	[Action:GetProgramList 14/1082]	[Remarks:[{"ID":"1","ProgramIndex":"GST","ProgramName":"GST"}]]
[Date: 2019-08-13 08:35:17]	[UserID:14/1082]	[IP:10.128.12.120]	[Browser:Chrome - 75.0.3770.142]	[Action:Making connection to server]	[Remarks:Successful connection to server: S3]
[Date: 2019-08-13 08:35:17]	[UserID:14/1082]	[IP:10.128.12.120]	[Browser:Chrome - 75.0.3770.142]	[Action:GetProgramList 14/1082]	[Remarks:[{"ID":"1","ProgramIndex":"GST","ProgramName":"GST"}]]
[Date: 2019-08-13 08:35:17]	[UserID:14/1082]	[IP:10.128.12.120]	[Browser:Chrome - 75.0.3770.142]	[Action:Making connection to server]	[Remarks:Successful connection to server: S3]
[Date: 2019-08-13 08:35:17]	[UserID:14/1082]	[IP:10.128.12.120]	[Browser:Chrome - 75.0.3770.142]	[Action:Filtering User : MasterData Username : 14/1082]	[Remarks:Successful filter row count: 1]
[Date: 2019-08-13 08:35:18]	[UserID:14/1082]	[IP:10.128.12.120]	[Browser:Chrome - 75.0.3770.142]	[Action:Making connection to server]	[Remarks:Successful connection to server: S3]
[Date: 2019-08-13 08:35:18]	[UserID:14/1082]	[IP:10.128.12.120]	[Browser:Chrome - 75.0.3770.142]	[Action:GetGSTModules 14/1082,1]	[Remarks:Successful filter row count: 8]
[Date: 2019-08-13 08:35:18]	[UserID:14/1082]	[IP:10.128.12.120]	[Browser:Chrome - 75.0.3770.142]	[Action:Closing mssql connection]	[Remarks:Success]
[Date: 2019-08-13 08:46:16]	[UserID:]	[IP:10.128.12.113]	[Browser:Chrome - 76.0.3809.100]	[Action:Making connection to server]	[Remarks:Successful connection to server: S3]
[Date: 2019-08-13 08:46:16]	[UserID:]	[IP:10.128.12.113]	[Browser:Chrome - 76.0.3809.100]	[Action:GetProgramList ]	[Remarks:"no data"]
[Date: 2019-08-13 08:46:34]	[UserID:06/343]	[IP:10.128.12.113]	[Browser:Chrome - 76.0.3809.100]	[Action:Making connection to server]	[Remarks:Successful connection to server: S3]
[Date: 2019-08-13 08:46:34]	[UserID:06/343]	[IP:10.128.12.113]	[Browser:Chrome - 76.0.3809.100]	[Action:User 06/343]	[Remarks:Success]
[Date: 2019-08-13 08:46:34]	[UserID:06/343]	[IP:10.128.12.113]	[Browser:Chrome - 76.0.3809.100]	[Action:Filtering User : MasterData Username : 06/343]	[Remarks:Successful filter row count: 0]
[Date: 2019-08-13 08:46:34]	[UserID:06/343]	[IP:10.128.12.113]	[Browser:Chrome - 76.0.3809.100]	[Action:Filtering User : MasterData Username : 06/343]	[Remarks:Successful filter row count: 0]
[Date: 2019-08-13 08:46:34]	[UserID:06/343]	[IP:10.128.12.113]	[Browser:Chrome - 76.0.3809.100]	[Action:Filtering User : MasterData Username : 06/343]	[Remarks:Success]
[Date: 2019-08-13 08:46:34]	[UserID:06/343]	[IP:10.128.12.113]	[Browser:Chrome - 76.0.3809.100]	[Action:Closing mssql connection]	[Remarks:Success]
[Date: 2019-08-13 08:46:35]	[UserID:06/343]	[IP:10.128.12.113]	[Browser:Chrome - 76.0.3809.100]	[Action:Making connection to server]	[Remarks:Successful connection to server: S3]
[Date: 2019-08-13 08:46:35]	[UserID:06/343]	[IP:10.128.12.113]	[Browser:Chrome - 76.0.3809.100]	[Action:GetProgramList 06/343]	[Remarks:[{"ID":"1","ProgramIndex":"GST","ProgramName":"GST"}]]
[Date: 2019-08-13 08:46:35]	[UserID:06/343]	[IP:10.128.12.113]	[Browser:Chrome - 76.0.3809.100]	[Action:Making connection to server]	[Remarks:Successful connection to server: S3]
[Date: 2019-08-13 08:46:35]	[UserID:06/343]	[IP:10.128.12.113]	[Browser:Chrome - 76.0.3809.100]	[Action:GetProgramList 06/343]	[Remarks:[{"ID":"1","ProgramIndex":"GST","ProgramName":"GST"}]]
[Date: 2019-08-13 08:46:35]	[UserID:06/343]	[IP:10.128.12.113]	[Browser:Chrome - 76.0.3809.100]	[Action:Making connection to server]	[Remarks:Successful connection to server: S3]
[Date: 2019-08-13 08:46:35]	[UserID:06/343]	[IP:10.128.12.113]	[Browser:Chrome - 76.0.3809.100]	[Action:Filtering User : MasterData Username : 06/343]	[Remarks:Successful filter row count: 1]
[Date: 2019-08-13 08:46:35]	[UserID:06/343]	[IP:10.128.12.113]	[Browser:Chrome - 76.0.3809.100]	[Action:Making connection to server]	[Remarks:Successful connection to server: S3]
[Date: 2019-08-13 08:46:35]	[UserID:06/343]	[IP:10.128.12.113]	[Browser:Chrome - 76.0.3809.100]	[Action:GetGSTModules 06/343,1]	[Remarks:Successful filter row count: 7]
[Date: 2019-08-13 08:46:35]	[UserID:06/343]	[IP:10.128.12.113]	[Browser:Chrome - 76.0.3809.100]	[Action:Closing mssql connection]	[Remarks:Success]
[Date: 2019-08-13 09:20:32]	[UserID:06/343]	[IP:10.128.12.113]	[Browser:Chrome - 76.0.3809.100]	[Action:Making connection to server]	[Remarks:Successful connection to server: S3]
[Date: 2019-08-13 09:20:32]	[UserID:06/343]	[IP:10.128.12.113]	[Browser:Chrome - 76.0.3809.100]	[Action:GetGSTModules 06/343,1]	[Remarks:Successful filter row count: 7]
[Date: 2019-08-13 09:20:32]	[UserID:06/343]	[IP:10.128.12.113]	[Browser:Chrome - 76.0.3809.100]	[Action:Closing mssql connection]	[Remarks:Success]
[Date: 2019-08-13 10:13:28]	[UserID:06/343]	[IP:10.128.12.113]	[Browser:Chrome - 76.0.3809.100]	[Action:Making connection to server]	[Remarks:Successful connection to server: S3]
[Date: 2019-08-13 10:13:28]	[UserID:06/343]	[IP:10.128.12.113]	[Browser:Chrome - 76.0.3809.100]	[Action:GetGSTModules 06/343,1]	[Remarks:Successful filter row count: 7]
[Date: 2019-08-13 10:13:28]	[UserID:06/343]	[IP:10.128.12.113]	[Browser:Chrome - 76.0.3809.100]	[Action:Closing mssql connection]	[Remarks:Success]
[Date: 2019-08-13 10:14:54]	[UserID:06/343]	[IP:10.128.12.113]	[Browser:Chrome - 76.0.3809.100]	[Action:Making connection to server]	[Remarks:Successful connection to server: S3]
[Date: 2019-08-13 10:14:54]	[UserID:06/343]	[IP:10.128.12.113]	[Browser:Chrome - 76.0.3809.100]	[Action:GetGSTModules 06/343,1]	[Remarks:Successful filter row count: 7]
[Date: 2019-08-13 10:14:54]	[UserID:06/343]	[IP:10.128.12.113]	[Browser:Chrome - 76.0.3809.100]	[Action:Closing mssql connection]	[Remarks:Success]
[Date: 2019-08-13 10:18:01]	[UserID:06/343]	[IP:10.128.12.113]	[Browser:Chrome - 76.0.3809.100]	[Action:Making connection to server]	[Remarks:Successful connection to server: S3]
[Date: 2019-08-13 10:18:01]	[UserID:06/343]	[IP:10.128.12.113]	[Browser:Chrome - 76.0.3809.100]	[Action:GetGSTModules 06/343,1]	[Remarks:Successful filter row count: 7]
[Date: 2019-08-13 10:18:01]	[UserID:06/343]	[IP:10.128.12.113]	[Browser:Chrome - 76.0.3809.100]	[Action:Closing mssql connection]	[Remarks:Success]
[Date: 2019-08-13 10:19:58]	[UserID:06/343]	[IP:10.128.12.113]	[Browser:Chrome - 76.0.3809.100]	[Action:Making connection to server]	[Remarks:Successful connection to server: S3]
[Date: 2019-08-13 10:19:58]	[UserID:06/343]	[IP:10.128.12.113]	[Browser:Chrome - 76.0.3809.100]	[Action:GetGSTModules 06/343,1]	[Remarks:Successful filter row count: 7]
[Date: 2019-08-13 10:19:58]	[UserID:06/343]	[IP:10.128.12.113]	[Browser:Chrome - 76.0.3809.100]	[Action:Closing mssql connection]	[Remarks:Success]
[Date: 2019-08-13 11:14:36]	[UserID:14/1082]	[IP:10.128.12.120]	[Browser:Chrome - 75.0.3770.142]	[Action:Making connection to server]	[Remarks:Successful connection to server: S3]
[Date: 2019-08-13 11:14:36]	[UserID:14/1082]	[IP:10.128.12.120]	[Browser:Chrome - 75.0.3770.142]	[Action:GetGSTModules 14/1082,1]	[Remarks:Successful filter row count: 8]
[Date: 2019-08-13 11:14:36]	[UserID:14/1082]	[IP:10.128.12.120]	[Browser:Chrome - 75.0.3770.142]	[Action:Closing mssql connection]	[Remarks:Success]
[Date: 2019-08-13 11:17:41]	[UserID:14/1082]	[IP:10.128.12.120]	[Browser:Chrome - 75.0.3770.142]	[Action:Making connection to server]	[Remarks:Successful connection to server: S3]
[Date: 2019-08-13 11:17:41]	[UserID:14/1082]	[IP:10.128.12.120]	[Browser:Chrome - 75.0.3770.142]	[Action:GetGSTModules 14/1082,1]	[Remarks:Successful filter row count: 8]
[Date: 2019-08-13 11:17:41]	[UserID:14/1082]	[IP:10.128.12.120]	[Browser:Chrome - 75.0.3770.142]	[Action:Closing mssql connection]	[Remarks:Success]
[Date: 2019-08-13 16:26:37]	[UserID:]	[IP:10.128.12.113]	[Browser:Chrome - 76.0.3809.100]	[Action:Making connection to server]	[Remarks:Successful connection to server: S3]
[Date: 2019-08-13 16:26:37]	[UserID:]	[IP:10.128.12.113]	[Browser:Chrome - 76.0.3809.100]	[Action:GetProgramList ]	[Remarks:"no data"]
[Date: 2019-08-13 16:27:14]	[UserID:]	[IP:10.128.12.120]	[Browser:Chrome - 75.0.3770.142]	[Action:Making connection to server]	[Remarks:Successful connection to server: S3]
[Date: 2019-08-13 16:27:14]	[UserID:]	[IP:10.128.12.120]	[Browser:Chrome - 75.0.3770.142]	[Action:GetProgramList ]	[Remarks:"no data"]
[Date: 2019-08-13 16:27:19]	[UserID:14/1082]	[IP:10.128.12.120]	[Browser:Chrome - 75.0.3770.142]	[Action:Making connection to server]	[Remarks:Successful connection to server: S3]
[Date: 2019-08-13 16:27:19]	[UserID:14/1082]	[IP:10.128.12.120]	[Browser:Chrome - 75.0.3770.142]	[Action:User 14/1082]	[Remarks:Success]
[Date: 2019-08-13 16:27:19]	[UserID:14/1082]	[IP:10.128.12.120]	[Browser:Chrome - 75.0.3770.142]	[Action:Filtering User : MasterData Username : 14/1082]	[Remarks:Successful filter row count: 0]
[Date: 2019-08-13 16:27:19]	[UserID:14/1082]	[IP:10.128.12.120]	[Browser:Chrome - 75.0.3770.142]	[Action:Filtering User : MasterData Username : 14/1082]	[Remarks:Successful filter row count: 0]
[Date: 2019-08-13 16:27:19]	[UserID:14/1082]	[IP:10.128.12.120]	[Browser:Chrome - 75.0.3770.142]	[Action:Filtering User : MasterData Username : 14/1082]	[Remarks:Success]
[Date: 2019-08-13 16:27:19]	[UserID:14/1082]	[IP:10.128.12.120]	[Browser:Chrome - 75.0.3770.142]	[Action:Closing mssql connection]	[Remarks:Success]
[Date: 2019-08-13 16:27:19]	[UserID:14/1082]	[IP:10.128.12.120]	[Browser:Chrome - 75.0.3770.142]	[Action:Making connection to server]	[Remarks:Successful connection to server: S3]
[Date: 2019-08-13 16:27:19]	[UserID:14/1082]	[IP:10.128.12.120]	[Browser:Chrome - 75.0.3770.142]	[Action:GetProgramList 14/1082]	[Remarks:[{"ID":"1","ProgramIndex":"GST","ProgramName":"GST"}]]
[Date: 2019-08-13 16:27:19]	[UserID:14/1082]	[IP:10.128.12.120]	[Browser:Chrome - 75.0.3770.142]	[Action:Making connection to server]	[Remarks:Successful connection to server: S3]
[Date: 2019-08-13 16:27:19]	[UserID:14/1082]	[IP:10.128.12.120]	[Browser:Chrome - 75.0.3770.142]	[Action:GetProgramList 14/1082]	[Remarks:[{"ID":"1","ProgramIndex":"GST","ProgramName":"GST"}]]
[Date: 2019-08-13 16:27:19]	[UserID:14/1082]	[IP:10.128.12.120]	[Browser:Chrome - 75.0.3770.142]	[Action:Making connection to server]	[Remarks:Successful connection to server: S3]
[Date: 2019-08-13 16:27:19]	[UserID:14/1082]	[IP:10.128.12.120]	[Browser:Chrome - 75.0.3770.142]	[Action:Filtering User : MasterData Username : 14/1082]	[Remarks:Successful filter row count: 1]
[Date: 2019-08-13 16:27:20]	[UserID:14/1082]	[IP:10.128.12.120]	[Browser:Chrome - 75.0.3770.142]	[Action:Making connection to server]	[Remarks:Successful connection to server: S3]
[Date: 2019-08-13 16:27:20]	[UserID:14/1082]	[IP:10.128.12.120]	[Browser:Chrome - 75.0.3770.142]	[Action:GetGSTModules 14/1082,1]	[Remarks:Successful filter row count: 8]
[Date: 2019-08-13 16:27:20]	[UserID:14/1082]	[IP:10.128.12.120]	[Browser:Chrome - 75.0.3770.142]	[Action:Closing mssql connection]	[Remarks:Success]
[Date: 2019-08-13 16:27:23]	[UserID:14/1082]	[IP:10.128.12.120]	[Browser:Chrome - 75.0.3770.142]	[Action:Making connection to server]	[Remarks:Successful connection to server: S3]
[Date: 2019-08-13 16:27:23]	[UserID:14/1082]	[IP:10.128.12.120]	[Browser:Chrome - 75.0.3770.142]	[Action:GetGSTModules 14/1082,1]	[Remarks:Successful filter row count: 8]
[Date: 2019-08-13 16:27:23]	[UserID:14/1082]	[IP:10.128.12.120]	[Browser:Chrome - 75.0.3770.142]	[Action:Closing mssql connection]	[Remarks:Success]
[Date: 2019-08-13 16:33:40]	[UserID:]	[IP:10.128.12.113]	[Browser:Chrome - 76.0.3809.100]	[Action:Making connection to server]	[Remarks:Successful connection to server: S3]
[Date: 2019-08-13 16:33:40]	[UserID:]	[IP:10.128.12.113]	[Browser:Chrome - 76.0.3809.100]	[Action:GetProgramList ]	[Remarks:"no data"]
[Date: 2019-08-13 16:33:47]	[UserID:06/343]	[IP:10.128.12.113]	[Browser:Chrome - 76.0.3809.100]	[Action:Making connection to server]	[Remarks:Successful connection to server: S3]
[Date: 2019-08-13 16:33:47]	[UserID:06/343]	[IP:10.128.12.113]	[Browser:Chrome - 76.0.3809.100]	[Action:User 06/343]	[Remarks:Success]
[Date: 2019-08-13 16:33:47]	[UserID:06/343]	[IP:10.128.12.113]	[Browser:Chrome - 76.0.3809.100]	[Action:Filtering User : MasterData Username : 06/343]	[Remarks:Successful filter row count: 0]
[Date: 2019-08-13 16:33:47]	[UserID:06/343]	[IP:10.128.12.113]	[Browser:Chrome - 76.0.3809.100]	[Action:Filtering User : MasterData Username : 06/343]	[Remarks:Successful filter row count: 0]
[Date: 2019-08-13 16:33:47]	[UserID:06/343]	[IP:10.128.12.113]	[Browser:Chrome - 76.0.3809.100]	[Action:Filtering User : MasterData Username : 06/343]	[Remarks:Success]
[Date: 2019-08-13 16:33:47]	[UserID:06/343]	[IP:10.128.12.113]	[Browser:Chrome - 76.0.3809.100]	[Action:Closing mssql connection]	[Remarks:Success]
[Date: 2019-08-13 16:33:47]	[UserID:06/343]	[IP:10.128.12.113]	[Browser:Chrome - 76.0.3809.100]	[Action:Making connection to server]	[Remarks:Successful connection to server: S3]
[Date: 2019-08-13 16:33:48]	[UserID:06/343]	[IP:10.128.12.113]	[Browser:Chrome - 76.0.3809.100]	[Action:GetProgramList 06/343]	[Remarks:[{"ID":"1","ProgramIndex":"GST","ProgramName":"GST"}]]
[Date: 2019-08-13 16:33:48]	[UserID:06/343]	[IP:10.128.12.113]	[Browser:Chrome - 76.0.3809.100]	[Action:Making connection to server]	[Remarks:Successful connection to server: S3]
[Date: 2019-08-13 16:33:48]	[UserID:06/343]	[IP:10.128.12.113]	[Browser:Chrome - 76.0.3809.100]	[Action:GetProgramList 06/343]	[Remarks:[{"ID":"1","ProgramIndex":"GST","ProgramName":"GST"}]]
[Date: 2019-08-13 16:33:48]	[UserID:06/343]	[IP:10.128.12.113]	[Browser:Chrome - 76.0.3809.100]	[Action:Making connection to server]	[Remarks:Successful connection to server: S3]
[Date: 2019-08-13 16:33:48]	[UserID:06/343]	[IP:10.128.12.113]	[Browser:Chrome - 76.0.3809.100]	[Action:Filtering User : MasterData Username : 06/343]	[Remarks:Successful filter row count: 1]
[Date: 2019-08-13 16:33:48]	[UserID:06/343]	[IP:10.128.12.113]	[Browser:Chrome - 76.0.3809.100]	[Action:Making connection to server]	[Remarks:Successful connection to server: S3]
[Date: 2019-08-13 16:33:48]	[UserID:06/343]	[IP:10.128.12.113]	[Browser:Chrome - 76.0.3809.100]	[Action:GetGSTModules 06/343,1]	[Remarks:Successful filter row count: 7]
[Date: 2019-08-13 16:33:48]	[UserID:06/343]	[IP:10.128.12.113]	[Browser:Chrome - 76.0.3809.100]	[Action:Closing mssql connection]	[Remarks:Success]
[Date: 2019-08-13 16:33:52]	[UserID:06/343]	[IP:10.128.12.113]	[Browser:Chrome - 76.0.3809.100]	[Action:Making connection to server]	[Remarks:Successful connection to server: S3]
[Date: 2019-08-13 16:33:52]	[UserID:06/343]	[IP:10.128.12.113]	[Browser:Chrome - 76.0.3809.100]	[Action:GetGSTModules 06/343,1]	[Remarks:Successful filter row count: 7]
[Date: 2019-08-13 16:33:52]	[UserID:06/343]	[IP:10.128.12.113]	[Browser:Chrome - 76.0.3809.100]	[Action:Closing mssql connection]	[Remarks:Success]
[Date: 2019-08-13 16:36:46]	[UserID:06/343]	[IP:10.128.12.113]	[Browser:Chrome - 76.0.3809.100]	[Action:Making connection to server]	[Remarks:Successful connection to server: S3]
[Date: 2019-08-13 16:36:46]	[UserID:06/343]	[IP:10.128.12.113]	[Browser:Chrome - 76.0.3809.100]	[Action:GetGSTModules 06/343,1]	[Remarks:Successful filter row count: 7]
[Date: 2019-08-13 16:36:46]	[UserID:06/343]	[IP:10.128.12.113]	[Browser:Chrome - 76.0.3809.100]	[Action:Closing mssql connection]	[Remarks:Success]
[Date: 2019-08-13 16:37:56]	[UserID:06/343]	[IP:10.128.12.113]	[Browser:Chrome - 76.0.3809.100]	[Action:Making connection to server]	[Remarks:Successful connection to server: S3]
[Date: 2019-08-13 16:37:56]	[UserID:06/343]	[IP:10.128.12.113]	[Browser:Chrome - 76.0.3809.100]	[Action:GetGSTModules 06/343,1]	[Remarks:Successful filter row count: 7]
[Date: 2019-08-13 16:37:56]	[UserID:06/343]	[IP:10.128.12.113]	[Browser:Chrome - 76.0.3809.100]	[Action:Closing mssql connection]	[Remarks:Success]
