[Date: 2016-11-21 07:38:31]	[UserID:]	[IP:10.10.11.1]	[Browser:Chrome - 54.0.2840.99]	[Action:Making connection to server]	[Remarks:Successful connection to server: S3]
[Date: 2016-11-21 07:38:33]	[UserID:]	[IP:10.10.11.1]	[Browser:Chrome - 54.0.2840.99]	[Action:GetProgramList ]	[Remarks:"no data"]
[Date: 2016-11-21 08:38:40]	[UserID:06/343]	[IP:10.10.11.1]	[Browser:Chrome - 54.0.2840.99]	[Action:Making connection to server]	[Remarks:Successful connection to server: S3]
[Date: 2016-11-21 08:38:40]	[UserID:06/343]	[IP:10.10.11.1]	[Browser:Chrome - 54.0.2840.99]	[Action:User 06/343]	[Remarks:Success]
[Date: 2016-11-21 08:38:40]	[UserID:06/343]	[IP:10.10.11.1]	[Browser:Chrome - 54.0.2840.99]	[Action:Filtering User : MasterData Username : 06/343]	[Remarks:Successful filter row count: 0]
[Date: 2016-11-21 08:38:40]	[UserID:06/343]	[IP:10.10.11.1]	[Browser:Chrome - 54.0.2840.99]	[Action:Filtering User : MasterData Username : 06/343]	[Remarks:Successful filter row count: 0]
[Date: 2016-11-21 08:38:40]	[UserID:06/343]	[IP:10.10.11.1]	[Browser:Chrome - 54.0.2840.99]	[Action:Filtering User : MasterData Username : 06/343]	[Remarks:Success]
[Date: 2016-11-21 08:38:40]	[UserID:06/343]	[IP:10.10.11.1]	[Browser:Chrome - 54.0.2840.99]	[Action:Closing mssql connection]	[Remarks:Success]
[Date: 2016-11-21 08:38:40]	[UserID:06/343]	[IP:10.10.11.1]	[Browser:Chrome - 54.0.2840.99]	[Action:Making connection to server]	[Remarks:Successful connection to server: S3]
[Date: 2016-11-21 08:38:40]	[UserID:06/343]	[IP:10.10.11.1]	[Browser:Chrome - 54.0.2840.99]	[Action:GetProgramList 06/343]	[Remarks:[{"ID":"1","ProgramIndex":"GST","ProgramName":"GST"}]]
[Date: 2016-11-21 08:38:40]	[UserID:06/343]	[IP:10.10.11.1]	[Browser:Chrome - 54.0.2840.99]	[Action:Making connection to server]	[Remarks:Successful connection to server: S3]
[Date: 2016-11-21 08:38:40]	[UserID:06/343]	[IP:10.10.11.1]	[Browser:Chrome - 54.0.2840.99]	[Action:GetProgramList 06/343]	[Remarks:[{"ID":"1","ProgramIndex":"GST","ProgramName":"GST"}]]
[Date: 2016-11-21 08:38:40]	[UserID:06/343]	[IP:10.10.11.1]	[Browser:Chrome - 54.0.2840.99]	[Action:Making connection to server]	[Remarks:Successful connection to server: S3]
[Date: 2016-11-21 08:38:40]	[UserID:06/343]	[IP:10.10.11.1]	[Browser:Chrome - 54.0.2840.99]	[Action:Filtering User : MasterData Username : 06/343]	[Remarks:Successful filter row count: 1]
[Date: 2016-11-21 08:38:41]	[UserID:06/343]	[IP:10.10.11.1]	[Browser:Chrome - 54.0.2840.99]	[Action:Making connection to server]	[Remarks:Successful connection to server: S3]
[Date: 2016-11-21 08:38:41]	[UserID:06/343]	[IP:10.10.11.1]	[Browser:Chrome - 54.0.2840.99]	[Action:GetGSTModules 06/343,1]	[Remarks:Successful filter row count: 5]
[Date: 2016-11-21 08:38:41]	[UserID:06/343]	[IP:10.10.11.1]	[Browser:Chrome - 54.0.2840.99]	[Action:Closing mssql connection]	[Remarks:Success]
[Date: 2016-11-21 08:41:25]	[UserID:06/343]	[IP:10.10.11.1]	[Browser:Chrome - 54.0.2840.99]	[Action:Making connection to server]	[Remarks:Successful connection to server: S3]
[Date: 2016-11-21 08:41:25]	[UserID:06/343]	[IP:10.10.11.1]	[Browser:Chrome - 54.0.2840.99]	[Action:GetGSTModules 06/343,1]	[Remarks:Successful filter row count: 5]
[Date: 2016-11-21 08:41:25]	[UserID:06/343]	[IP:10.10.11.1]	[Browser:Chrome - 54.0.2840.99]	[Action:Closing mssql connection]	[Remarks:Success]
[Date: 2016-11-21 08:42:55]	[UserID:06/343]	[IP:10.10.11.1]	[Browser:Chrome - 54.0.2840.99]	[Action:Making connection to server]	[Remarks:Successful connection to server: S3]
[Date: 2016-11-21 08:42:55]	[UserID:06/343]	[IP:10.10.11.1]	[Browser:Chrome - 54.0.2840.99]	[Action:GetGSTModules 06/343,1]	[Remarks:Successful filter row count: 5]
[Date: 2016-11-21 08:42:55]	[UserID:06/343]	[IP:10.10.11.1]	[Browser:Chrome - 54.0.2840.99]	[Action:Closing mssql connection]	[Remarks:Success]
[Date: 2016-11-21 08:45:04]	[UserID:06/343]	[IP:10.10.11.1]	[Browser:Chrome - 54.0.2840.99]	[Action:Making connection to server]	[Remarks:Successful connection to server: S3]
[Date: 2016-11-21 08:45:04]	[UserID:06/343]	[IP:10.10.11.1]	[Browser:Chrome - 54.0.2840.99]	[Action:GetGSTModules 06/343,1]	[Remarks:Successful filter row count: 5]
[Date: 2016-11-21 08:45:04]	[UserID:06/343]	[IP:10.10.11.1]	[Browser:Chrome - 54.0.2840.99]	[Action:Closing mssql connection]	[Remarks:Success]
[Date: 2016-11-21 08:45:28]	[UserID:06/343]	[IP:10.10.11.1]	[Browser:Chrome - 54.0.2840.99]	[Action:Making connection to server]	[Remarks:Successful connection to server: S3]
[Date: 2016-11-21 08:45:28]	[UserID:06/343]	[IP:10.10.11.1]	[Browser:Chrome - 54.0.2840.99]	[Action:GetGSTModules 06/343,1]	[Remarks:Successful filter row count: 5]
[Date: 2016-11-21 08:45:28]	[UserID:06/343]	[IP:10.10.11.1]	[Browser:Chrome - 54.0.2840.99]	[Action:Closing mssql connection]	[Remarks:Success]
[Date: 2016-11-21 08:47:50]	[UserID:06/343]	[IP:10.10.11.1]	[Browser:Chrome - 54.0.2840.99]	[Action:Making connection to server]	[Remarks:Successful connection to server: S3]
[Date: 2016-11-21 08:47:50]	[UserID:06/343]	[IP:10.10.11.1]	[Browser:Chrome - 54.0.2840.99]	[Action:GetGSTModules 06/343,1]	[Remarks:Successful filter row count: 5]
[Date: 2016-11-21 08:47:50]	[UserID:06/343]	[IP:10.10.11.1]	[Browser:Chrome - 54.0.2840.99]	[Action:Closing mssql connection]	[Remarks:Success]
[Date: 2016-11-21 08:47:53]	[UserID:06/343]	[IP:10.10.11.1]	[Browser:Chrome - 54.0.2840.99]	[Action:Making connection to server]	[Remarks:Successful connection to server: S3]
[Date: 2016-11-21 08:47:53]	[UserID:06/343]	[IP:10.10.11.1]	[Browser:Chrome - 54.0.2840.99]	[Action:GetGSTModules 06/343,1]	[Remarks:Successful filter row count: 5]
[Date: 2016-11-21 08:47:53]	[UserID:06/343]	[IP:10.10.11.1]	[Browser:Chrome - 54.0.2840.99]	[Action:Closing mssql connection]	[Remarks:Success]
[Date: 2016-11-21 08:52:34]	[UserID:]	[IP:10.10.11.1]	[Browser:Chrome - 54.0.2840.99]	[Action:Making connection to server]	[Remarks:Successful connection to server: S3]
[Date: 2016-11-21 08:52:35]	[UserID:]	[IP:10.10.11.1]	[Browser:Chrome - 54.0.2840.99]	[Action:GetProgramList ]	[Remarks:"no data"]
[Date: 2016-11-21 08:54:18]	[UserID:]	[IP:10.10.11.1]	[Browser:Chrome - 49.0.2623.75]	[Action:Making connection to server]	[Remarks:Successful connection to server: S3]
[Date: 2016-11-21 08:54:18]	[UserID:]	[IP:10.10.11.1]	[Browser:Chrome - 49.0.2623.75]	[Action:GetProgramList ]	[Remarks:"no data"]
[Date: 2016-11-21 08:54:20]	[UserID:08/504]	[IP:10.10.11.1]	[Browser:Chrome - 54.0.2840.99]	[Action:Making connection to server]	[Remarks:Successful connection to server: S3]
[Date: 2016-11-21 08:54:20]	[UserID:08/504]	[IP:10.10.11.1]	[Browser:Chrome - 54.0.2840.99]	[Action:User 08/504]	[Remarks:Success]
[Date: 2016-11-21 08:54:20]	[UserID:08/504]	[IP:10.10.11.1]	[Browser:Chrome - 54.0.2840.99]	[Action:Filtering User : MasterData Username : 08/504]	[Remarks:Successful filter row count: 0]
[Date: 2016-11-21 08:54:20]	[UserID:08/504]	[IP:10.10.11.1]	[Browser:Chrome - 54.0.2840.99]	[Action:Filtering User : MasterData Username : 08/504]	[Remarks:Successful filter row count: 0]
[Date: 2016-11-21 08:54:20]	[UserID:08/504]	[IP:10.10.11.1]	[Browser:Chrome - 54.0.2840.99]	[Action:Filtering User : MasterData Username : 08/504]	[Remarks:Success]
[Date: 2016-11-21 08:54:20]	[UserID:08/504]	[IP:10.10.11.1]	[Browser:Chrome - 54.0.2840.99]	[Action:Closing mssql connection]	[Remarks:Success]
[Date: 2016-11-21 08:54:21]	[UserID:08/504]	[IP:10.10.11.1]	[Browser:Chrome - 54.0.2840.99]	[Action:Making connection to server]	[Remarks:Successful connection to server: S3]
[Date: 2016-11-21 08:54:21]	[UserID:08/504]	[IP:10.10.11.1]	[Browser:Chrome - 54.0.2840.99]	[Action:GetProgramList 08/504]	[Remarks:[{"ID":"1","ProgramIndex":"GST","ProgramName":"GST"}]]
[Date: 2016-11-21 08:54:21]	[UserID:08/504]	[IP:10.10.11.1]	[Browser:Chrome - 54.0.2840.99]	[Action:Making connection to server]	[Remarks:Successful connection to server: S3]
[Date: 2016-11-21 08:54:21]	[UserID:08/504]	[IP:10.10.11.1]	[Browser:Chrome - 54.0.2840.99]	[Action:GetProgramList 08/504]	[Remarks:[{"ID":"1","ProgramIndex":"GST","ProgramName":"GST"}]]
[Date: 2016-11-21 08:54:21]	[UserID:08/504]	[IP:10.10.11.1]	[Browser:Chrome - 54.0.2840.99]	[Action:Making connection to server]	[Remarks:Successful connection to server: S3]
[Date: 2016-11-21 08:54:21]	[UserID:08/504]	[IP:10.10.11.1]	[Browser:Chrome - 54.0.2840.99]	[Action:Filtering User : MasterData Username : 08/504]	[Remarks:Successful filter row count: 1]
[Date: 2016-11-21 08:54:21]	[UserID:08/504]	[IP:10.10.11.1]	[Browser:Chrome - 54.0.2840.99]	[Action:Making connection to server]	[Remarks:Successful connection to server: S3]
[Date: 2016-11-21 08:54:21]	[UserID:08/504]	[IP:10.10.11.1]	[Browser:Chrome - 54.0.2840.99]	[Action:GetGSTModules 08/504,1]	[Remarks:Successful filter row count: 5]
[Date: 2016-11-21 08:54:21]	[UserID:08/504]	[IP:10.10.11.1]	[Browser:Chrome - 54.0.2840.99]	[Action:Closing mssql connection]	[Remarks:Success]
[Date: 2016-11-21 08:57:58]	[UserID:08/504]	[IP:10.10.11.1]	[Browser:Chrome - 54.0.2840.99]	[Action:Making connection to server]	[Remarks:Successful connection to server: S3]
[Date: 2016-11-21 08:57:58]	[UserID:08/504]	[IP:10.10.11.1]	[Browser:Chrome - 54.0.2840.99]	[Action:GetGSTModules 08/504,1]	[Remarks:Successful filter row count: 5]
[Date: 2016-11-21 08:57:58]	[UserID:08/504]	[IP:10.10.11.1]	[Browser:Chrome - 54.0.2840.99]	[Action:Closing mssql connection]	[Remarks:Success]
[Date: 2016-11-21 09:01:51]	[UserID:08/504]	[IP:10.10.11.1]	[Browser:Chrome - 54.0.2840.99]	[Action:Making connection to server]	[Remarks:Successful connection to server: S3]
[Date: 2016-11-21 09:01:51]	[UserID:08/504]	[IP:10.10.11.1]	[Browser:Chrome - 54.0.2840.99]	[Action:GetGSTModules 08/504,1]	[Remarks:Successful filter row count: 5]
[Date: 2016-11-21 09:01:51]	[UserID:08/504]	[IP:10.10.11.1]	[Browser:Chrome - 54.0.2840.99]	[Action:Closing mssql connection]	[Remarks:Success]
[Date: 2016-11-21 09:15:06]	[UserID:06/343]	[IP:10.10.11.1]	[Browser:Chrome - 54.0.2840.99]	[Action:Making connection to server]	[Remarks:Successful connection to server: S3]
[Date: 2016-11-21 09:15:06]	[UserID:06/343]	[IP:10.10.11.1]	[Browser:Chrome - 54.0.2840.99]	[Action:GetGSTModules 06/343,1]	[Remarks:Successful filter row count: 5]
[Date: 2016-11-21 09:15:06]	[UserID:06/343]	[IP:10.10.11.1]	[Browser:Chrome - 54.0.2840.99]	[Action:Closing mssql connection]	[Remarks:Success]
[Date: 2016-11-21 09:15:10]	[UserID:06/343]	[IP:10.10.11.1]	[Browser:Chrome - 54.0.2840.99]	[Action:Making connection to server]	[Remarks:Successful connection to server: S3]
[Date: 2016-11-21 09:15:10]	[UserID:06/343]	[IP:10.10.11.1]	[Browser:Chrome - 54.0.2840.99]	[Action:GetGSTModules 06/343,1]	[Remarks:Successful filter row count: 5]
[Date: 2016-11-21 09:15:10]	[UserID:06/343]	[IP:10.10.11.1]	[Browser:Chrome - 54.0.2840.99]	[Action:Closing mssql connection]	[Remarks:Success]
[Date: 2016-11-21 09:18:06]	[UserID:06/343]	[IP:10.10.11.1]	[Browser:Chrome - 54.0.2840.99]	[Action:Making connection to server]	[Remarks:Successful connection to server: S3]
[Date: 2016-11-21 09:18:06]	[UserID:06/343]	[IP:10.10.11.1]	[Browser:Chrome - 54.0.2840.99]	[Action:GetGSTModules 06/343,1]	[Remarks:Successful filter row count: 5]
[Date: 2016-11-21 09:18:06]	[UserID:06/343]	[IP:10.10.11.1]	[Browser:Chrome - 54.0.2840.99]	[Action:Closing mssql connection]	[Remarks:Success]
[Date: 2016-11-21 09:24:43]	[UserID:]	[IP:10.10.11.1]	[Browser:Chrome - 54.0.2840.99]	[Action:Making connection to server]	[Remarks:Successful connection to server: S3]
[Date: 2016-11-21 09:24:43]	[UserID:]	[IP:10.10.11.1]	[Browser:Chrome - 54.0.2840.99]	[Action:GetProgramList ]	[Remarks:"no data"]
[Date: 2016-11-21 09:24:45]	[UserID:11/715]	[IP:10.10.11.1]	[Browser:Chrome - 54.0.2840.99]	[Action:Making connection to server]	[Remarks:Successful connection to server: S3]
[Date: 2016-11-21 09:24:45]	[UserID:11/715]	[IP:10.10.11.1]	[Browser:Chrome - 54.0.2840.99]	[Action:User 11/715]	[Remarks:Success]
[Date: 2016-11-21 09:24:45]	[UserID:11/715]	[IP:10.10.11.1]	[Browser:Chrome - 54.0.2840.99]	[Action:Filtering User : MasterData Username : 11/715]	[Remarks:Successful filter row count: 0]
[Date: 2016-11-21 09:24:45]	[UserID:11/715]	[IP:10.10.11.1]	[Browser:Chrome - 54.0.2840.99]	[Action:Filtering User : MasterData Username : 11/715]	[Remarks:Successful filter row count: 0]
[Date: 2016-11-21 09:24:45]	[UserID:11/715]	[IP:10.10.11.1]	[Browser:Chrome - 54.0.2840.99]	[Action:Filtering User : MasterData Username : 11/715]	[Remarks:Success]
[Date: 2016-11-21 09:24:45]	[UserID:11/715]	[IP:10.10.11.1]	[Browser:Chrome - 54.0.2840.99]	[Action:Closing mssql connection]	[Remarks:Success]
[Date: 2016-11-21 09:24:45]	[UserID:11/715]	[IP:10.10.11.1]	[Browser:Chrome - 54.0.2840.99]	[Action:Making connection to server]	[Remarks:Successful connection to server: S3]
[Date: 2016-11-21 09:24:45]	[UserID:11/715]	[IP:10.10.11.1]	[Browser:Chrome - 54.0.2840.99]	[Action:GetProgramList 11/715]	[Remarks:[{"ID":"1","ProgramIndex":"GST","ProgramName":"GST"}]]
[Date: 2016-11-21 09:24:45]	[UserID:11/715]	[IP:10.10.11.1]	[Browser:Chrome - 54.0.2840.99]	[Action:Making connection to server]	[Remarks:Successful connection to server: S3]
[Date: 2016-11-21 09:24:45]	[UserID:11/715]	[IP:10.10.11.1]	[Browser:Chrome - 54.0.2840.99]	[Action:GetProgramList 11/715]	[Remarks:[{"ID":"1","ProgramIndex":"GST","ProgramName":"GST"}]]
[Date: 2016-11-21 09:24:45]	[UserID:11/715]	[IP:10.10.11.1]	[Browser:Chrome - 54.0.2840.99]	[Action:Making connection to server]	[Remarks:Successful connection to server: S3]
[Date: 2016-11-21 09:24:45]	[UserID:11/715]	[IP:10.10.11.1]	[Browser:Chrome - 54.0.2840.99]	[Action:Filtering User : MasterData Username : 11/715]	[Remarks:Successful filter row count: 1]
[Date: 2016-11-21 09:24:46]	[UserID:11/715]	[IP:10.10.11.1]	[Browser:Chrome - 54.0.2840.99]	[Action:Making connection to server]	[Remarks:Successful connection to server: S3]
[Date: 2016-11-21 09:24:46]	[UserID:11/715]	[IP:10.10.11.1]	[Browser:Chrome - 54.0.2840.99]	[Action:GetGSTModules 11/715,1]	[Remarks:Successful filter row count: 3]
[Date: 2016-11-21 09:24:46]	[UserID:11/715]	[IP:10.10.11.1]	[Browser:Chrome - 54.0.2840.99]	[Action:Closing mssql connection]	[Remarks:Success]
[Date: 2016-11-21 09:33:00]	[UserID:11/715]	[IP:10.10.11.1]	[Browser:Chrome - 54.0.2840.99]	[Action:Making connection to server]	[Remarks:Successful connection to server: S3]
[Date: 2016-11-21 09:33:00]	[UserID:11/715]	[IP:10.10.11.1]	[Browser:Chrome - 54.0.2840.99]	[Action:GetGSTModules 11/715,1]	[Remarks:Successful filter row count: 3]
[Date: 2016-11-21 09:33:00]	[UserID:11/715]	[IP:10.10.11.1]	[Browser:Chrome - 54.0.2840.99]	[Action:Closing mssql connection]	[Remarks:Success]
[Date: 2016-11-21 09:34:59]	[UserID:11/715]	[IP:10.10.11.1]	[Browser:Chrome - 54.0.2840.99]	[Action:Making connection to server]	[Remarks:Successful connection to server: S3]
[Date: 2016-11-21 09:34:59]	[UserID:11/715]	[IP:10.10.11.1]	[Browser:Chrome - 54.0.2840.99]	[Action:GetGSTModules 11/715,1]	[Remarks:Successful filter row count: 3]
[Date: 2016-11-21 09:34:59]	[UserID:11/715]	[IP:10.10.11.1]	[Browser:Chrome - 54.0.2840.99]	[Action:Closing mssql connection]	[Remarks:Success]
[Date: 2016-11-21 09:43:09]	[UserID:08/504]	[IP:10.10.11.1]	[Browser:Chrome - 54.0.2840.99]	[Action:Making connection to server]	[Remarks:Successful connection to server: S3]
[Date: 2016-11-21 09:43:09]	[UserID:08/504]	[IP:10.10.11.1]	[Browser:Chrome - 54.0.2840.99]	[Action:GetGSTModules 08/504,1]	[Remarks:Successful filter row count: 5]
[Date: 2016-11-21 09:43:09]	[UserID:08/504]	[IP:10.10.11.1]	[Browser:Chrome - 54.0.2840.99]	[Action:Closing mssql connection]	[Remarks:Success]
[Date: 2016-11-21 09:47:44]	[UserID:08/504]	[IP:10.10.11.1]	[Browser:Chrome - 54.0.2840.99]	[Action:Making connection to server]	[Remarks:Successful connection to server: S3]
[Date: 2016-11-21 09:47:44]	[UserID:08/504]	[IP:10.10.11.1]	[Browser:Chrome - 54.0.2840.99]	[Action:GetGSTModules 08/504,1]	[Remarks:Successful filter row count: 5]
[Date: 2016-11-21 09:47:44]	[UserID:08/504]	[IP:10.10.11.1]	[Browser:Chrome - 54.0.2840.99]	[Action:Closing mssql connection]	[Remarks:Success]
[Date: 2016-11-21 10:04:05]	[UserID:08/504]	[IP:10.10.11.1]	[Browser:Chrome - 54.0.2840.99]	[Action:Making connection to server]	[Remarks:Successful connection to server: S3]
[Date: 2016-11-21 10:04:05]	[UserID:08/504]	[IP:10.10.11.1]	[Browser:Chrome - 54.0.2840.99]	[Action:GetGSTModules 08/504,1]	[Remarks:Successful filter row count: 5]
[Date: 2016-11-21 10:04:05]	[UserID:08/504]	[IP:10.10.11.1]	[Browser:Chrome - 54.0.2840.99]	[Action:Closing mssql connection]	[Remarks:Success]
[Date: 2016-11-21 10:07:55]	[UserID:08/504]	[IP:10.10.11.1]	[Browser:Chrome - 54.0.2840.99]	[Action:Making connection to server]	[Remarks:Successful connection to server: S3]
[Date: 2016-11-21 10:07:56]	[UserID:08/504]	[IP:10.10.11.1]	[Browser:Chrome - 54.0.2840.99]	[Action:GetGSTModules 08/504,1]	[Remarks:Successful filter row count: 5]
[Date: 2016-11-21 10:07:56]	[UserID:08/504]	[IP:10.10.11.1]	[Browser:Chrome - 54.0.2840.99]	[Action:Closing mssql connection]	[Remarks:Success]
[Date: 2016-11-21 10:11:03]	[UserID:08/504]	[IP:10.10.11.1]	[Browser:Chrome - 54.0.2840.99]	[Action:Making connection to server]	[Remarks:Successful connection to server: S3]
[Date: 2016-11-21 10:11:03]	[UserID:08/504]	[IP:10.10.11.1]	[Browser:Chrome - 54.0.2840.99]	[Action:GetGSTModules 08/504,1]	[Remarks:Successful filter row count: 5]
[Date: 2016-11-21 10:11:03]	[UserID:08/504]	[IP:10.10.11.1]	[Browser:Chrome - 54.0.2840.99]	[Action:Closing mssql connection]	[Remarks:Success]
[Date: 2016-11-21 10:12:12]	[UserID:08/504]	[IP:10.10.11.1]	[Browser:Chrome - 54.0.2840.99]	[Action:Making connection to server]	[Remarks:Successful connection to server: S3]
[Date: 2016-11-21 10:12:12]	[UserID:08/504]	[IP:10.10.11.1]	[Browser:Chrome - 54.0.2840.99]	[Action:GetGSTModules 08/504,1]	[Remarks:Successful filter row count: 5]
[Date: 2016-11-21 10:12:12]	[UserID:08/504]	[IP:10.10.11.1]	[Browser:Chrome - 54.0.2840.99]	[Action:Closing mssql connection]	[Remarks:Success]
[Date: 2016-11-21 10:12:27]	[UserID:08/504]	[IP:10.10.11.1]	[Browser:Chrome - 54.0.2840.99]	[Action:Making connection to server]	[Remarks:Successful connection to server: S3]
[Date: 2016-11-21 10:12:27]	[UserID:08/504]	[IP:10.10.11.1]	[Browser:Chrome - 54.0.2840.99]	[Action:GetGSTModules 08/504,1]	[Remarks:Successful filter row count: 5]
[Date: 2016-11-21 10:12:27]	[UserID:08/504]	[IP:10.10.11.1]	[Browser:Chrome - 54.0.2840.99]	[Action:Closing mssql connection]	[Remarks:Success]
[Date: 2016-11-21 10:41:25]	[UserID:]	[IP:10.10.11.1]	[Browser:Chrome - 54.0.2840.99]	[Action:Making connection to server]	[Remarks:Successful connection to server: S3]
[Date: 2016-11-21 10:41:25]	[UserID:]	[IP:10.10.11.1]	[Browser:Chrome - 54.0.2840.99]	[Action:GetProgramList ]	[Remarks:"no data"]
[Date: 2016-11-21 10:41:27]	[UserID:10/660]	[IP:10.10.11.1]	[Browser:Chrome - 54.0.2840.99]	[Action:Making connection to server]	[Remarks:Successful connection to server: S3]
[Date: 2016-11-21 10:41:27]	[UserID:10/660]	[IP:10.10.11.1]	[Browser:Chrome - 54.0.2840.99]	[Action:User 10/660]	[Remarks:Success]
[Date: 2016-11-21 10:41:27]	[UserID:10/660]	[IP:10.10.11.1]	[Browser:Chrome - 54.0.2840.99]	[Action:Filtering User : MasterData Username : 10/660]	[Remarks:Successful filter row count: 0]
[Date: 2016-11-21 10:41:27]	[UserID:10/660]	[IP:10.10.11.1]	[Browser:Chrome - 54.0.2840.99]	[Action:Filtering User : MasterData Username : 10/660]	[Remarks:Successful filter row count: 0]
[Date: 2016-11-21 10:41:27]	[UserID:10/660]	[IP:10.10.11.1]	[Browser:Chrome - 54.0.2840.99]	[Action:Filtering User : MasterData Username : 10/660]	[Remarks:Success]
[Date: 2016-11-21 10:41:27]	[UserID:10/660]	[IP:10.10.11.1]	[Browser:Chrome - 54.0.2840.99]	[Action:Closing mssql connection]	[Remarks:Success]
[Date: 2016-11-21 10:41:28]	[UserID:10/660]	[IP:10.10.11.1]	[Browser:Chrome - 54.0.2840.99]	[Action:Making connection to server]	[Remarks:Successful connection to server: S3]
[Date: 2016-11-21 10:41:28]	[UserID:10/660]	[IP:10.10.11.1]	[Browser:Chrome - 54.0.2840.99]	[Action:GetProgramList 10/660]	[Remarks:[{"ID":"1","ProgramIndex":"GST","ProgramName":"GST"}]]
[Date: 2016-11-21 10:41:28]	[UserID:10/660]	[IP:10.10.11.1]	[Browser:Chrome - 54.0.2840.99]	[Action:Making connection to server]	[Remarks:Successful connection to server: S3]
[Date: 2016-11-21 10:41:28]	[UserID:10/660]	[IP:10.10.11.1]	[Browser:Chrome - 54.0.2840.99]	[Action:GetProgramList 10/660]	[Remarks:[{"ID":"1","ProgramIndex":"GST","ProgramName":"GST"}]]
[Date: 2016-11-21 10:41:28]	[UserID:10/660]	[IP:10.10.11.1]	[Browser:Chrome - 54.0.2840.99]	[Action:Making connection to server]	[Remarks:Successful connection to server: S3]
[Date: 2016-11-21 10:41:28]	[UserID:10/660]	[IP:10.10.11.1]	[Browser:Chrome - 54.0.2840.99]	[Action:Filtering User : MasterData Username : 10/660]	[Remarks:Successful filter row count: 1]
[Date: 2016-11-21 10:41:28]	[UserID:10/660]	[IP:10.10.11.1]	[Browser:Chrome - 54.0.2840.99]	[Action:Making connection to server]	[Remarks:Successful connection to server: S3]
[Date: 2016-11-21 10:41:28]	[UserID:10/660]	[IP:10.10.11.1]	[Browser:Chrome - 54.0.2840.99]	[Action:GetGSTModules 10/660,1]	[Remarks:Successful filter row count: 3]
[Date: 2016-11-21 10:41:28]	[UserID:10/660]	[IP:10.10.11.1]	[Browser:Chrome - 54.0.2840.99]	[Action:Closing mssql connection]	[Remarks:Success]
[Date: 2016-11-21 10:43:28]	[UserID:10/660]	[IP:10.10.11.1]	[Browser:Chrome - 54.0.2840.99]	[Action:Making connection to server]	[Remarks:Successful connection to server: S3]
[Date: 2016-11-21 10:43:28]	[UserID:10/660]	[IP:10.10.11.1]	[Browser:Chrome - 54.0.2840.99]	[Action:GetGSTModules 10/660,1]	[Remarks:Successful filter row count: 3]
[Date: 2016-11-21 10:43:28]	[UserID:10/660]	[IP:10.10.11.1]	[Browser:Chrome - 54.0.2840.99]	[Action:Closing mssql connection]	[Remarks:Success]
[Date: 2016-11-21 11:05:48]	[UserID:08/504]	[IP:10.10.11.1]	[Browser:Chrome - 54.0.2840.99]	[Action:Making connection to server]	[Remarks:Successful connection to server: S3]
[Date: 2016-11-21 11:05:49]	[UserID:08/504]	[IP:10.10.11.1]	[Browser:Chrome - 54.0.2840.99]	[Action:GetGSTModules 08/504,1]	[Remarks:Successful filter row count: 5]
[Date: 2016-11-21 11:05:49]	[UserID:08/504]	[IP:10.10.11.1]	[Browser:Chrome - 54.0.2840.99]	[Action:Closing mssql connection]	[Remarks:Success]
[Date: 2016-11-21 11:08:30]	[UserID:10/660]	[IP:10.10.11.1]	[Browser:Chrome - 54.0.2840.99]	[Action:Making connection to server]	[Remarks:Successful connection to server: S3]
[Date: 2016-11-21 11:08:31]	[UserID:10/660]	[IP:10.10.11.1]	[Browser:Chrome - 54.0.2840.99]	[Action:GetGSTModules 10/660,1]	[Remarks:Successful filter row count: 3]
[Date: 2016-11-21 11:08:31]	[UserID:10/660]	[IP:10.10.11.1]	[Browser:Chrome - 54.0.2840.99]	[Action:Closing mssql connection]	[Remarks:Success]
[Date: 2016-11-21 11:08:58]	[UserID:]	[IP:10.10.11.1]	[Browser:Chrome - 54.0.2840.99]	[Action:Making connection to server]	[Remarks:Successful connection to server: S3]
[Date: 2016-11-21 11:08:58]	[UserID:]	[IP:10.10.11.1]	[Browser:Chrome - 54.0.2840.99]	[Action:GetProgramList ]	[Remarks:"no data"]
[Date: 2016-11-21 11:11:11]	[UserID:08/504]	[IP:10.10.11.1]	[Browser:Chrome - 54.0.2840.99]	[Action:Making connection to server]	[Remarks:Successful connection to server: S3]
[Date: 2016-11-21 11:11:11]	[UserID:08/504]	[IP:10.10.11.1]	[Browser:Chrome - 54.0.2840.99]	[Action:GetGSTModules 08/504,1]	[Remarks:Successful filter row count: 5]
[Date: 2016-11-21 11:11:11]	[UserID:08/504]	[IP:10.10.11.1]	[Browser:Chrome - 54.0.2840.99]	[Action:Closing mssql connection]	[Remarks:Success]
[Date: 2016-11-21 11:17:53]	[UserID:08/504]	[IP:10.10.11.1]	[Browser:Chrome - 54.0.2840.99]	[Action:Making connection to server]	[Remarks:Successful connection to server: S3]
[Date: 2016-11-21 11:17:53]	[UserID:08/504]	[IP:10.10.11.1]	[Browser:Chrome - 54.0.2840.99]	[Action:GetGSTModules 08/504,1]	[Remarks:Successful filter row count: 5]
[Date: 2016-11-21 11:17:53]	[UserID:08/504]	[IP:10.10.11.1]	[Browser:Chrome - 54.0.2840.99]	[Action:Closing mssql connection]	[Remarks:Success]
[Date: 2016-11-21 11:27:47]	[UserID:08/504]	[IP:10.10.11.1]	[Browser:Chrome - 54.0.2840.99]	[Action:Making connection to server]	[Remarks:Successful connection to server: S3]
[Date: 2016-11-21 11:27:47]	[UserID:08/504]	[IP:10.10.11.1]	[Browser:Chrome - 54.0.2840.99]	[Action:GetGSTModules 08/504,1]	[Remarks:Successful filter row count: 5]
[Date: 2016-11-21 11:27:47]	[UserID:08/504]	[IP:10.10.11.1]	[Browser:Chrome - 54.0.2840.99]	[Action:Closing mssql connection]	[Remarks:Success]
[Date: 2016-11-21 11:28:07]	[UserID:08/504]	[IP:10.10.11.1]	[Browser:Chrome - 54.0.2840.99]	[Action:Making connection to server]	[Remarks:Successful connection to server: S3]
[Date: 2016-11-21 11:28:07]	[UserID:08/504]	[IP:10.10.11.1]	[Browser:Chrome - 54.0.2840.99]	[Action:GetGSTModules 08/504,1]	[Remarks:Successful filter row count: 5]
[Date: 2016-11-21 11:28:07]	[UserID:08/504]	[IP:10.10.11.1]	[Browser:Chrome - 54.0.2840.99]	[Action:Closing mssql connection]	[Remarks:Success]
[Date: 2016-11-21 11:28:25]	[UserID:08/504]	[IP:10.10.11.1]	[Browser:Chrome - 54.0.2840.99]	[Action:Making connection to server]	[Remarks:Successful connection to server: S3]
[Date: 2016-11-21 11:28:25]	[UserID:08/504]	[IP:10.10.11.1]	[Browser:Chrome - 54.0.2840.99]	[Action:GetGSTModules 08/504,1]	[Remarks:Successful filter row count: 5]
[Date: 2016-11-21 11:28:25]	[UserID:08/504]	[IP:10.10.11.1]	[Browser:Chrome - 54.0.2840.99]	[Action:Closing mssql connection]	[Remarks:Success]
[Date: 2016-11-21 11:32:26]	[UserID:08/504]	[IP:10.10.11.1]	[Browser:Chrome - 54.0.2840.99]	[Action:Making connection to server]	[Remarks:Successful connection to server: S3]
[Date: 2016-11-21 11:32:26]	[UserID:08/504]	[IP:10.10.11.1]	[Browser:Chrome - 54.0.2840.99]	[Action:GetGSTModules 08/504,1]	[Remarks:Successful filter row count: 5]
[Date: 2016-11-21 11:32:26]	[UserID:08/504]	[IP:10.10.11.1]	[Browser:Chrome - 54.0.2840.99]	[Action:Closing mssql connection]	[Remarks:Success]
[Date: 2016-11-21 11:32:29]	[UserID:]	[IP:10.10.11.1]	[Browser:Chrome - 54.0.2840.99]	[Action:Making connection to server]	[Remarks:Successful connection to server: S3]
[Date: 2016-11-21 11:32:29]	[UserID:]	[IP:10.10.11.1]	[Browser:Chrome - 54.0.2840.99]	[Action:GetProgramList ]	[Remarks:"no data"]
[Date: 2016-11-21 13:26:07]	[UserID:]	[IP:10.10.11.1]	[Browser:Chrome - 54.0.2840.99]	[Action:Making connection to server]	[Remarks:Successful connection to server: S3]
[Date: 2016-11-21 13:26:07]	[UserID:]	[IP:10.10.11.1]	[Browser:Chrome - 54.0.2840.99]	[Action:GetProgramList ]	[Remarks:"no data"]
[Date: 2016-11-21 13:26:09]	[UserID:08/504]	[IP:10.10.11.1]	[Browser:Chrome - 54.0.2840.99]	[Action:Making connection to server]	[Remarks:Successful connection to server: S3]
[Date: 2016-11-21 13:26:09]	[UserID:08/504]	[IP:10.10.11.1]	[Browser:Chrome - 54.0.2840.99]	[Action:User 08/504]	[Remarks:Success]
[Date: 2016-11-21 13:26:09]	[UserID:08/504]	[IP:10.10.11.1]	[Browser:Chrome - 54.0.2840.99]	[Action:Filtering User : MasterData Username : 08/504]	[Remarks:Successful filter row count: 0]
[Date: 2016-11-21 13:26:09]	[UserID:08/504]	[IP:10.10.11.1]	[Browser:Chrome - 54.0.2840.99]	[Action:Filtering User : MasterData Username : 08/504]	[Remarks:Successful filter row count: 0]
[Date: 2016-11-21 13:26:09]	[UserID:08/504]	[IP:10.10.11.1]	[Browser:Chrome - 54.0.2840.99]	[Action:Filtering User : MasterData Username : 08/504]	[Remarks:Success]
[Date: 2016-11-21 13:26:09]	[UserID:08/504]	[IP:10.10.11.1]	[Browser:Chrome - 54.0.2840.99]	[Action:Closing mssql connection]	[Remarks:Success]
[Date: 2016-11-21 13:26:09]	[UserID:08/504]	[IP:10.10.11.1]	[Browser:Chrome - 54.0.2840.99]	[Action:Making connection to server]	[Remarks:Successful connection to server: S3]
[Date: 2016-11-21 13:26:09]	[UserID:08/504]	[IP:10.10.11.1]	[Browser:Chrome - 54.0.2840.99]	[Action:GetProgramList 08/504]	[Remarks:[{"ID":"1","ProgramIndex":"GST","ProgramName":"GST"}]]
[Date: 2016-11-21 13:26:09]	[UserID:08/504]	[IP:10.10.11.1]	[Browser:Chrome - 54.0.2840.99]	[Action:Making connection to server]	[Remarks:Successful connection to server: S3]
[Date: 2016-11-21 13:26:09]	[UserID:08/504]	[IP:10.10.11.1]	[Browser:Chrome - 54.0.2840.99]	[Action:GetProgramList 08/504]	[Remarks:[{"ID":"1","ProgramIndex":"GST","ProgramName":"GST"}]]
[Date: 2016-11-21 13:26:09]	[UserID:08/504]	[IP:10.10.11.1]	[Browser:Chrome - 54.0.2840.99]	[Action:Making connection to server]	[Remarks:Successful connection to server: S3]
[Date: 2016-11-21 13:26:09]	[UserID:08/504]	[IP:10.10.11.1]	[Browser:Chrome - 54.0.2840.99]	[Action:Filtering User : MasterData Username : 08/504]	[Remarks:Successful filter row count: 1]
[Date: 2016-11-21 13:26:09]	[UserID:08/504]	[IP:10.10.11.1]	[Browser:Chrome - 54.0.2840.99]	[Action:Making connection to server]	[Remarks:Successful connection to server: S3]
[Date: 2016-11-21 13:26:09]	[UserID:08/504]	[IP:10.10.11.1]	[Browser:Chrome - 54.0.2840.99]	[Action:GetGSTModules 08/504,1]	[Remarks:Successful filter row count: 5]
[Date: 2016-11-21 13:26:09]	[UserID:08/504]	[IP:10.10.11.1]	[Browser:Chrome - 54.0.2840.99]	[Action:Closing mssql connection]	[Remarks:Success]
[Date: 2016-11-21 13:31:46]	[UserID:08/504]	[IP:10.10.11.1]	[Browser:Chrome - 54.0.2840.99]	[Action:Making connection to server]	[Remarks:Successful connection to server: S3]
[Date: 2016-11-21 13:31:46]	[UserID:08/504]	[IP:10.10.11.1]	[Browser:Chrome - 54.0.2840.99]	[Action:GetGSTModules 08/504,1]	[Remarks:Successful filter row count: 5]
[Date: 2016-11-21 13:31:46]	[UserID:08/504]	[IP:10.10.11.1]	[Browser:Chrome - 54.0.2840.99]	[Action:Closing mssql connection]	[Remarks:Success]
[Date: 2016-11-21 13:32:15]	[UserID:08/504]	[IP:10.10.11.1]	[Browser:Chrome - 54.0.2840.99]	[Action:Making connection to server]	[Remarks:Successful connection to server: S3]
[Date: 2016-11-21 13:32:15]	[UserID:08/504]	[IP:10.10.11.1]	[Browser:Chrome - 54.0.2840.99]	[Action:GetGSTModules 08/504,1]	[Remarks:Successful filter row count: 5]
[Date: 2016-11-21 13:32:15]	[UserID:08/504]	[IP:10.10.11.1]	[Browser:Chrome - 54.0.2840.99]	[Action:Closing mssql connection]	[Remarks:Success]
[Date: 2016-11-21 13:32:36]	[UserID:08/504]	[IP:10.10.11.1]	[Browser:Chrome - 54.0.2840.99]	[Action:Making connection to server]	[Remarks:Successful connection to server: S3]
[Date: 2016-11-21 13:32:36]	[UserID:08/504]	[IP:10.10.11.1]	[Browser:Chrome - 54.0.2840.99]	[Action:GetGSTModules 08/504,1]	[Remarks:Successful filter row count: 5]
[Date: 2016-11-21 13:32:36]	[UserID:08/504]	[IP:10.10.11.1]	[Browser:Chrome - 54.0.2840.99]	[Action:Closing mssql connection]	[Remarks:Success]
[Date: 2016-11-21 13:36:25]	[UserID:08/504]	[IP:10.10.11.1]	[Browser:Chrome - 54.0.2840.99]	[Action:Making connection to server]	[Remarks:Successful connection to server: S3]
[Date: 2016-11-21 13:36:26]	[UserID:08/504]	[IP:10.10.11.1]	[Browser:Chrome - 54.0.2840.99]	[Action:GetGSTModules 08/504,1]	[Remarks:Successful filter row count: 5]
[Date: 2016-11-21 13:36:26]	[UserID:08/504]	[IP:10.10.11.1]	[Browser:Chrome - 54.0.2840.99]	[Action:Closing mssql connection]	[Remarks:Success]
[Date: 2016-11-21 13:40:09]	[UserID:08/504]	[IP:10.10.11.1]	[Browser:Chrome - 54.0.2840.99]	[Action:Making connection to server]	[Remarks:Successful connection to server: S3]
[Date: 2016-11-21 13:40:09]	[UserID:08/504]	[IP:10.10.11.1]	[Browser:Chrome - 54.0.2840.99]	[Action:GetGSTModules 08/504,1]	[Remarks:Successful filter row count: 5]
[Date: 2016-11-21 13:40:09]	[UserID:08/504]	[IP:10.10.11.1]	[Browser:Chrome - 54.0.2840.99]	[Action:Closing mssql connection]	[Remarks:Success]
[Date: 2016-11-21 13:42:07]	[UserID:08/504]	[IP:10.10.11.1]	[Browser:Chrome - 54.0.2840.99]	[Action:Making connection to server]	[Remarks:Successful connection to server: S3]
[Date: 2016-11-21 13:42:07]	[UserID:08/504]	[IP:10.10.11.1]	[Browser:Chrome - 54.0.2840.99]	[Action:GetGSTModules 08/504,1]	[Remarks:Successful filter row count: 5]
[Date: 2016-11-21 13:42:07]	[UserID:08/504]	[IP:10.10.11.1]	[Browser:Chrome - 54.0.2840.99]	[Action:Closing mssql connection]	[Remarks:Success]
[Date: 2016-11-21 13:47:49]	[UserID:08/504]	[IP:10.10.11.1]	[Browser:Chrome - 54.0.2840.99]	[Action:Making connection to server]	[Remarks:Successful connection to server: S3]
[Date: 2016-11-21 13:47:49]	[UserID:08/504]	[IP:10.10.11.1]	[Browser:Chrome - 54.0.2840.99]	[Action:GetGSTModules 08/504,1]	[Remarks:Successful filter row count: 5]
[Date: 2016-11-21 13:47:49]	[UserID:08/504]	[IP:10.10.11.1]	[Browser:Chrome - 54.0.2840.99]	[Action:Closing mssql connection]	[Remarks:Success]
[Date: 2016-11-21 13:47:50]	[UserID:]	[IP:10.10.11.1]	[Browser:Chrome - 54.0.2840.99]	[Action:Making connection to server]	[Remarks:Successful connection to server: S3]
[Date: 2016-11-21 13:47:50]	[UserID:]	[IP:10.10.11.1]	[Browser:Chrome - 54.0.2840.99]	[Action:GetProgramList ]	[Remarks:"no data"]
[Date: 2016-11-21 15:11:03]	[UserID:]	[IP:10.10.11.1]	[Browser:Chrome - 52.0.2743.116]	[Action:Making connection to server]	[Remarks:Successful connection to server: S3]
[Date: 2016-11-21 15:11:03]	[UserID:]	[IP:10.10.11.1]	[Browser:Chrome - 52.0.2743.116]	[Action:GetProgramList ]	[Remarks:"no data"]
[Date: 2016-11-21 15:11:06]	[UserID:parboleda]	[IP:10.10.11.1]	[Browser:Chrome - 52.0.2743.116]	[Action:Making connection to server]	[Remarks:Successful connection to server: S3]
[Date: 2016-11-21 15:11:06]	[UserID:parboleda]	[IP:10.10.11.1]	[Browser:Chrome - 52.0.2743.116]	[Action:User parboleda]	[Remarks:Success]
[Date: 2016-11-21 15:11:06]	[UserID:parboleda]	[IP:10.10.11.1]	[Browser:Chrome - 52.0.2743.116]	[Action:Filtering User : MasterData Username : parboleda]	[Remarks:Successful filter row count: 0]
[Date: 2016-11-21 15:11:06]	[UserID:parboleda]	[IP:10.10.11.1]	[Browser:Chrome - 52.0.2743.116]	[Action:Filtering User : MasterData Username : parboleda]	[Remarks:Successful filter row count: 0]
[Date: 2016-11-21 15:11:06]	[UserID:parboleda]	[IP:10.10.11.1]	[Browser:Chrome - 52.0.2743.116]	[Action:Filtering User : MasterData Username : parboleda]	[Remarks:Success]
[Date: 2016-11-21 15:11:06]	[UserID:parboleda]	[IP:10.10.11.1]	[Browser:Chrome - 52.0.2743.116]	[Action:Closing mssql connection]	[Remarks:Success]
[Date: 2016-11-21 15:11:07]	[UserID:parboleda]	[IP:10.10.11.1]	[Browser:Chrome - 52.0.2743.116]	[Action:Making connection to server]	[Remarks:Successful connection to server: S3]
[Date: 2016-11-21 15:11:07]	[UserID:parboleda]	[IP:10.10.11.1]	[Browser:Chrome - 52.0.2743.116]	[Action:GetProgramList parboleda]	[Remarks:[{"ID":"1","ProgramIndex":"GST","ProgramName":"GST"}]]
[Date: 2016-11-21 15:11:07]	[UserID:parboleda]	[IP:10.10.11.1]	[Browser:Chrome - 52.0.2743.116]	[Action:Making connection to server]	[Remarks:Successful connection to server: S3]
[Date: 2016-11-21 15:11:07]	[UserID:parboleda]	[IP:10.10.11.1]	[Browser:Chrome - 52.0.2743.116]	[Action:GetProgramList parboleda]	[Remarks:[{"ID":"1","ProgramIndex":"GST","ProgramName":"GST"}]]
[Date: 2016-11-21 15:11:07]	[UserID:parboleda]	[IP:10.10.11.1]	[Browser:Chrome - 52.0.2743.116]	[Action:Making connection to server]	[Remarks:Successful connection to server: S3]
[Date: 2016-11-21 15:11:07]	[UserID:parboleda]	[IP:10.10.11.1]	[Browser:Chrome - 52.0.2743.116]	[Action:Filtering User : MasterData Username : parboleda]	[Remarks:Successful filter row count: 1]
[Date: 2016-11-21 15:11:08]	[UserID:parboleda]	[IP:10.10.11.1]	[Browser:Chrome - 52.0.2743.116]	[Action:Making connection to server]	[Remarks:Successful connection to server: S3]
[Date: 2016-11-21 15:11:08]	[UserID:parboleda]	[IP:10.10.11.1]	[Browser:Chrome - 52.0.2743.116]	[Action:GetGSTModules parboleda,1]	[Remarks:Successful filter row count: 7]
[Date: 2016-11-21 15:11:08]	[UserID:parboleda]	[IP:10.10.11.1]	[Browser:Chrome - 52.0.2743.116]	[Action:Closing mssql connection]	[Remarks:Success]
