[Date: 2017-04-17 11:31:49]	[UserID:]	[IP:10.128.12.113]	[Browser:Chrome - 57.0.2987.133]	[Action:Making connection to server]	[Remarks:Successful connection to server: S3]
[Date: 2017-04-17 11:31:49]	[UserID:]	[IP:10.128.12.113]	[Browser:Chrome - 57.0.2987.133]	[Action:GetProgramList ]	[Remarks:"no data"]
[Date: 2017-04-17 11:31:51]	[UserID:06/343]	[IP:10.128.12.113]	[Browser:Chrome - 57.0.2987.133]	[Action:Making connection to server]	[Remarks:Successful connection to server: S3]
[Date: 2017-04-17 11:31:51]	[UserID:06/343]	[IP:10.128.12.113]	[Browser:Chrome - 57.0.2987.133]	[Action:User 06/343]	[Remarks:Success]
[Date: 2017-04-17 11:31:51]	[UserID:06/343]	[IP:10.128.12.113]	[Browser:Chrome - 57.0.2987.133]	[Action:Filtering User : MasterData Username : 06/343]	[Remarks:Successful filter row count: 0]
[Date: 2017-04-17 11:31:51]	[UserID:06/343]	[IP:10.128.12.113]	[Browser:Chrome - 57.0.2987.133]	[Action:Filtering User : MasterData Username : 06/343]	[Remarks:Successful filter row count: 0]
[Date: 2017-04-17 11:31:51]	[UserID:06/343]	[IP:10.128.12.113]	[Browser:Chrome - 57.0.2987.133]	[Action:Filtering User : MasterData Username : 06/343]	[Remarks:Success]
[Date: 2017-04-17 11:31:51]	[UserID:06/343]	[IP:10.128.12.113]	[Browser:Chrome - 57.0.2987.133]	[Action:Closing mssql connection]	[Remarks:Success]
[Date: 2017-04-17 11:32:12]	[UserID:06/343]	[IP:10.128.12.113]	[Browser:Chrome - 57.0.2987.133]	[Action:Making connection to server]	[Remarks:Successful connection to server: S3]
[Date: 2017-04-17 11:32:12]	[UserID:06/343]	[IP:10.128.12.113]	[Browser:Chrome - 57.0.2987.133]	[Action:User 06/343]	[Remarks:Username [06/343] exists]
[Date: 2017-04-17 11:32:12]	[UserID:06/343]	[IP:10.128.12.113]	[Browser:Chrome - 57.0.2987.133]	[Action:User 06/343]	[Remarks:Successful filter row count.0]
[Date: 2017-04-17 11:32:12]	[UserID:06/343]	[IP:10.128.12.113]	[Browser:Chrome - 57.0.2987.133]	[Action:User 06/343]	[Remarks:Success]
[Date: 2017-04-17 11:32:12]	[UserID:06/343]	[IP:10.128.12.113]	[Browser:Chrome - 57.0.2987.133]	[Action:Filtering User : MasterData Username : 06/343]	[Remarks:Successful filter row count: 0]
[Date: 2017-04-17 11:32:12]	[UserID:06/343]	[IP:10.128.12.113]	[Browser:Chrome - 57.0.2987.133]	[Action:Filtering User : MasterData Username : 06/343]	[Remarks:Successful filter row count: 0]
[Date: 2017-04-17 11:32:12]	[UserID:06/343]	[IP:10.128.12.113]	[Browser:Chrome - 57.0.2987.133]	[Action:Filtering User : MasterData Username : 06/343]	[Remarks:Success]
[Date: 2017-04-17 11:32:16]	[UserID:06/343]	[IP:10.128.12.113]	[Browser:Chrome - 57.0.2987.133]	[Action:Sending Message. To:sltan@jsilogistics.com, from: sg-alert@jsilogistics.com]	[Remarks:Successful filter row count: 1]
[Date: 2017-04-17 11:32:16]	[UserID:06/343]	[IP:10.128.12.113]	[Browser:Chrome - 57.0.2987.133]	[Action:Closing mssql connection]	[Remarks:Success]
[Date: 2017-04-17 11:32:16]	[UserID:06/343]	[IP:10.128.12.113]	[Browser:Chrome - 57.0.2987.133]	[Action:Making connection to server]	[Remarks:Successful connection to server: S3]
[Date: 2017-04-17 11:32:16]	[UserID:06/343]	[IP:10.128.12.113]	[Browser:Chrome - 57.0.2987.133]	[Action:GetProgramList 06/343]	[Remarks:[{"ID":"1","ProgramIndex":"GST","ProgramName":"GST"}]]
[Date: 2017-04-17 11:32:16]	[UserID:06/343]	[IP:10.128.12.113]	[Browser:Chrome - 57.0.2987.133]	[Action:Making connection to server]	[Remarks:Successful connection to server: S3]
[Date: 2017-04-17 11:32:16]	[UserID:06/343]	[IP:10.128.12.113]	[Browser:Chrome - 57.0.2987.133]	[Action:GetProgramList 06/343]	[Remarks:[{"ID":"1","ProgramIndex":"GST","ProgramName":"GST"}]]
[Date: 2017-04-17 11:32:16]	[UserID:06/343]	[IP:10.128.12.113]	[Browser:Chrome - 57.0.2987.133]	[Action:Making connection to server]	[Remarks:Successful connection to server: S3]
[Date: 2017-04-17 11:32:16]	[UserID:06/343]	[IP:10.128.12.113]	[Browser:Chrome - 57.0.2987.133]	[Action:Filtering User : MasterData Username : 06/343]	[Remarks:Successful filter row count: 1]
[Date: 2017-04-17 11:32:16]	[UserID:06/343]	[IP:10.128.12.113]	[Browser:Chrome - 57.0.2987.133]	[Action:Making connection to server]	[Remarks:Successful connection to server: S3]
[Date: 2017-04-17 11:32:16]	[UserID:06/343]	[IP:10.128.12.113]	[Browser:Chrome - 57.0.2987.133]	[Action:GetGSTModules 06/343,1]	[Remarks:Successful filter row count: 5]
[Date: 2017-04-17 11:32:17]	[UserID:06/343]	[IP:10.128.12.113]	[Browser:Chrome - 57.0.2987.133]	[Action:Closing mssql connection]	[Remarks:Success]
[Date: 2017-04-17 11:32:41]	[UserID:]	[IP:10.128.12.113]	[Browser:Chrome - 57.0.2987.133]	[Action:Making connection to server]	[Remarks:Successful connection to server: S3]
[Date: 2017-04-17 11:32:41]	[UserID:]	[IP:10.128.12.113]	[Browser:Chrome - 57.0.2987.133]	[Action:GetProgramList ]	[Remarks:"no data"]
