[Date: 2020-08-24 07:51:09]	[UserID:]	[IP:10.128.130.5]	[Browser:Chrome - 84.0.4147.135]	[Action:Making connection to server]	[Remarks:Successful connection to server: S3]
[Date: 2020-08-24 07:51:09]	[UserID:]	[IP:10.128.130.5]	[Browser:Chrome - 84.0.4147.135]	[Action:GetProgramList ]	[Remarks:"no data"]
[Date: 2020-08-24 12:59:25]	[UserID:]	[IP:10.128.130.5]	[Browser:Chrome - 84.0.4147.135]	[Action:Making connection to server]	[Remarks:Successful connection to server: S3]
[Date: 2020-08-24 12:59:25]	[UserID:]	[IP:10.128.130.5]	[Browser:Chrome - 84.0.4147.135]	[Action:GetProgramList ]	[Remarks:"no data"]
[Date: 2020-08-24 13:47:02]	[UserID:06/343]	[IP:10.128.130.5]	[Browser:Chrome - 84.0.4147.135]	[Action:Making connection to server]	[Remarks:Successful connection to server: S3]
[Date: 2020-08-24 13:47:02]	[UserID:06/343]	[IP:10.128.130.5]	[Browser:Chrome - 84.0.4147.135]	[Action:User 06/343]	[Remarks:Success]
[Date: 2020-08-24 13:47:02]	[UserID:06/343]	[IP:10.128.130.5]	[Browser:Chrome - 84.0.4147.135]	[Action:Filtering User : MasterData Username : 06/343]	[Remarks:Successful filter row count: 0]
[Date: 2020-08-24 13:47:02]	[UserID:06/343]	[IP:10.128.130.5]	[Browser:Chrome - 84.0.4147.135]	[Action:Filtering User : MasterData Username : 06/343]	[Remarks:Successful filter row count: 0]
[Date: 2020-08-24 13:47:02]	[UserID:06/343]	[IP:10.128.130.5]	[Browser:Chrome - 84.0.4147.135]	[Action:Filtering User : MasterData Username : 06/343]	[Remarks:Success]
[Date: 2020-08-24 13:47:02]	[UserID:06/343]	[IP:10.128.130.5]	[Browser:Chrome - 84.0.4147.135]	[Action:Closing mssql connection]	[Remarks:Success]
[Date: 2020-08-24 13:47:03]	[UserID:06/343]	[IP:10.128.130.5]	[Browser:Chrome - 84.0.4147.135]	[Action:Making connection to server]	[Remarks:Successful connection to server: S3]
[Date: 2020-08-24 13:47:03]	[UserID:06/343]	[IP:10.128.130.5]	[Browser:Chrome - 84.0.4147.135]	[Action:GetProgramList 06/343]	[Remarks:[{"ID":"1","ProgramIndex":"GST","ProgramName":"GST"}]]
[Date: 2020-08-24 13:47:03]	[UserID:06/343]	[IP:10.128.130.5]	[Browser:Chrome - 84.0.4147.135]	[Action:Making connection to server]	[Remarks:Successful connection to server: S3]
[Date: 2020-08-24 13:47:03]	[UserID:06/343]	[IP:10.128.130.5]	[Browser:Chrome - 84.0.4147.135]	[Action:GetProgramList 06/343]	[Remarks:[{"ID":"1","ProgramIndex":"GST","ProgramName":"GST"}]]
[Date: 2020-08-24 13:47:03]	[UserID:06/343]	[IP:10.128.130.5]	[Browser:Chrome - 84.0.4147.135]	[Action:Making connection to server]	[Remarks:Successful connection to server: S3]
[Date: 2020-08-24 13:47:03]	[UserID:06/343]	[IP:10.128.130.5]	[Browser:Chrome - 84.0.4147.135]	[Action:Filtering User : MasterData Username : 06/343]	[Remarks:Successful filter row count: 1]
[Date: 2020-08-24 13:47:03]	[UserID:06/343]	[IP:10.128.130.5]	[Browser:Chrome - 84.0.4147.135]	[Action:Making connection to server]	[Remarks:Successful connection to server: S3]
[Date: 2020-08-24 13:47:04]	[UserID:06/343]	[IP:10.128.130.5]	[Browser:Chrome - 84.0.4147.135]	[Action:GetGSTModules 06/343,1]	[Remarks:Successful filter row count: 7]
[Date: 2020-08-24 13:47:04]	[UserID:06/343]	[IP:10.128.130.5]	[Browser:Chrome - 84.0.4147.135]	[Action:Closing mssql connection]	[Remarks:Success]
[Date: 2020-08-24 13:56:37]	[UserID:06/343]	[IP:10.128.130.5]	[Browser:Chrome - 84.0.4147.135]	[Action:Making connection to server]	[Remarks:Successful connection to server: S3]
[Date: 2020-08-24 13:56:37]	[UserID:06/343]	[IP:10.128.130.5]	[Browser:Chrome - 84.0.4147.135]	[Action:GetGSTModules 06/343,1]	[Remarks:Successful filter row count: 7]
[Date: 2020-08-24 13:56:37]	[UserID:06/343]	[IP:10.128.130.5]	[Browser:Chrome - 84.0.4147.135]	[Action:Closing mssql connection]	[Remarks:Success]
[Date: 2020-08-24 13:57:13]	[UserID:06/343]	[IP:10.128.130.5]	[Browser:Chrome - 84.0.4147.135]	[Action:Making connection to server]	[Remarks:Successful connection to server: S3]
[Date: 2020-08-24 13:57:13]	[UserID:06/343]	[IP:10.128.130.5]	[Browser:Chrome - 84.0.4147.135]	[Action:GetGSTModules 06/343,1]	[Remarks:Successful filter row count: 7]
[Date: 2020-08-24 13:57:13]	[UserID:06/343]	[IP:10.128.130.5]	[Browser:Chrome - 84.0.4147.135]	[Action:Closing mssql connection]	[Remarks:Success]
[Date: 2020-08-24 13:57:32]	[UserID:06/343]	[IP:10.128.130.5]	[Browser:Chrome - 84.0.4147.135]	[Action:Making connection to server]	[Remarks:Successful connection to server: S3]
[Date: 2020-08-24 13:57:32]	[UserID:06/343]	[IP:10.128.130.5]	[Browser:Chrome - 84.0.4147.135]	[Action:GetGSTModules 06/343,1]	[Remarks:Successful filter row count: 7]
[Date: 2020-08-24 13:57:32]	[UserID:06/343]	[IP:10.128.130.5]	[Browser:Chrome - 84.0.4147.135]	[Action:Closing mssql connection]	[Remarks:Success]
[Date: 2020-08-24 14:02:17]	[UserID:06/343]	[IP:10.128.130.5]	[Browser:Chrome - 84.0.4147.135]	[Action:Making connection to server]	[Remarks:Successful connection to server: S3]
[Date: 2020-08-24 14:02:17]	[UserID:06/343]	[IP:10.128.130.5]	[Browser:Chrome - 84.0.4147.135]	[Action:GetGSTModules 06/343,1]	[Remarks:Successful filter row count: 7]
[Date: 2020-08-24 14:02:17]	[UserID:06/343]	[IP:10.128.130.5]	[Browser:Chrome - 84.0.4147.135]	[Action:Closing mssql connection]	[Remarks:Success]
[Date: 2020-08-24 14:10:02]	[UserID:06/343]	[IP:10.128.130.5]	[Browser:Chrome - 84.0.4147.135]	[Action:Making connection to server]	[Remarks:Successful connection to server: S3]
[Date: 2020-08-24 14:10:02]	[UserID:06/343]	[IP:10.128.130.5]	[Browser:Chrome - 84.0.4147.135]	[Action:GetGSTModules 06/343,1]	[Remarks:Successful filter row count: 7]
[Date: 2020-08-24 14:10:02]	[UserID:06/343]	[IP:10.128.130.5]	[Browser:Chrome - 84.0.4147.135]	[Action:Closing mssql connection]	[Remarks:Success]
[Date: 2020-08-24 14:22:18]	[UserID:06/343]	[IP:10.128.130.5]	[Browser:Chrome - 84.0.4147.135]	[Action:Making connection to server]	[Remarks:Successful connection to server: S3]
[Date: 2020-08-24 14:22:18]	[UserID:06/343]	[IP:10.128.130.5]	[Browser:Chrome - 84.0.4147.135]	[Action:GetGSTModules 06/343,1]	[Remarks:Successful filter row count: 7]
[Date: 2020-08-24 14:22:18]	[UserID:06/343]	[IP:10.128.130.5]	[Browser:Chrome - 84.0.4147.135]	[Action:Closing mssql connection]	[Remarks:Success]
[Date: 2020-08-24 23:31:34]	[UserID:]	[IP:10.128.130.5]	[Browser:Firefox - 79.0]	[Action:Making connection to server]	[Remarks:Successful connection to server: S3]
[Date: 2020-08-24 23:31:34]	[UserID:]	[IP:10.128.130.5]	[Browser:Firefox - 79.0]	[Action:GetProgramList ]	[Remarks:"no data"]
