[Date: 2015-11-09 07:52:57]	[UserID:]	[IP:10.10.11.1]	[Browser:Chrome - 46.0.2490.80]	[Action:Making connection to server]	[Remarks:Successful connection to server: S3]
[Date: 2015-11-09 07:52:58]	[UserID:]	[IP:10.10.11.1]	[Browser:Chrome - 46.0.2490.80]	[Action:Making connection to server]	[Remarks:Successful connection to server: S3]
[Date: 2015-11-09 07:52:59]	[UserID:]	[IP:10.10.11.1]	[Browser:Chrome - 46.0.2490.80]	[Action:GetProgramList ]	[Remarks:"no data"]
[Date: 2015-11-09 07:52:59]	[UserID:]	[IP:10.10.11.1]	[Browser:Chrome - 46.0.2490.80]	[Action:GetProgramList ]	[Remarks:"no data"]
[Date: 2015-11-09 07:53:13]	[UserID:06/343]	[IP:10.10.11.1]	[Browser:Chrome - 46.0.2490.80]	[Action:Making connection to server]	[Remarks:Successful connection to server: S3]
[Date: 2015-11-09 07:53:13]	[UserID:06/343]	[IP:10.10.11.1]	[Browser:Chrome - 46.0.2490.80]	[Action:User 06/343]	[Remarks:Success]
[Date: 2015-11-09 07:53:13]	[UserID:06/343]	[IP:10.10.11.1]	[Browser:Chrome - 46.0.2490.80]	[Action:Filtering User : MasterData Username : 06/343]	[Remarks:Successful filter row count: 0]
[Date: 2015-11-09 07:53:13]	[UserID:06/343]	[IP:10.10.11.1]	[Browser:Chrome - 46.0.2490.80]	[Action:Filtering User : MasterData Username : 06/343]	[Remarks:Successful filter row count: 0]
[Date: 2015-11-09 07:53:13]	[UserID:06/343]	[IP:10.10.11.1]	[Browser:Chrome - 46.0.2490.80]	[Action:Filtering User : MasterData Username : 06/343]	[Remarks:Success]
[Date: 2015-11-09 07:53:13]	[UserID:06/343]	[IP:10.10.11.1]	[Browser:Chrome - 46.0.2490.80]	[Action:Closing mssql connection]	[Remarks:Success]
[Date: 2015-11-09 07:53:13]	[UserID:06/343]	[IP:10.10.11.1]	[Browser:Chrome - 46.0.2490.80]	[Action:Making connection to server]	[Remarks:Successful connection to server: S3]
[Date: 2015-11-09 07:53:13]	[UserID:06/343]	[IP:10.10.11.1]	[Browser:Chrome - 46.0.2490.80]	[Action:GetProgramList 06/343]	[Remarks:[{"ID":"1","ProgramIndex":"GST","ProgramName":"GST"}]]
[Date: 2015-11-09 07:53:13]	[UserID:06/343]	[IP:10.10.11.1]	[Browser:Chrome - 46.0.2490.80]	[Action:Making connection to server]	[Remarks:Successful connection to server: S3]
[Date: 2015-11-09 07:53:14]	[UserID:06/343]	[IP:10.10.11.1]	[Browser:Chrome - 46.0.2490.80]	[Action:GetProgramList 06/343]	[Remarks:[{"ID":"1","ProgramIndex":"GST","ProgramName":"GST"}]]
[Date: 2015-11-09 07:53:14]	[UserID:06/343]	[IP:10.10.11.1]	[Browser:Chrome - 46.0.2490.80]	[Action:Making connection to server]	[Remarks:Successful connection to server: S3]
[Date: 2015-11-09 07:53:14]	[UserID:06/343]	[IP:10.10.11.1]	[Browser:Chrome - 46.0.2490.80]	[Action:Filtering User : MasterData Username : 06/343]	[Remarks:Successful filter row count: 1]
[Date: 2015-11-09 07:53:14]	[UserID:06/343]	[IP:10.10.11.1]	[Browser:Chrome - 46.0.2490.80]	[Action:Making connection to server]	[Remarks:Successful connection to server: S3]
[Date: 2015-11-09 07:53:14]	[UserID:06/343]	[IP:10.10.11.1]	[Browser:Chrome - 46.0.2490.80]	[Action:GetGSTModules 06/343,1]	[Remarks:Successful filter row count: 5]
[Date: 2015-11-09 07:53:14]	[UserID:06/343]	[IP:10.10.11.1]	[Browser:Chrome - 46.0.2490.80]	[Action:Closing mssql connection]	[Remarks:Success]
[Date: 2015-11-09 07:57:14]	[UserID:06/343]	[IP:10.10.11.1]	[Browser:Chrome - 46.0.2490.80]	[Action:Making connection to server]	[Remarks:Successful connection to server: S3]
[Date: 2015-11-09 07:57:14]	[UserID:06/343]	[IP:10.10.11.1]	[Browser:Chrome - 46.0.2490.80]	[Action:GetGSTModules 06/343,1]	[Remarks:Successful filter row count: 5]
[Date: 2015-11-09 07:57:14]	[UserID:06/343]	[IP:10.10.11.1]	[Browser:Chrome - 46.0.2490.80]	[Action:Closing mssql connection]	[Remarks:Success]
[Date: 2015-11-09 07:58:51]	[UserID:06/343]	[IP:10.10.11.1]	[Browser:Chrome - 46.0.2490.80]	[Action:Making connection to server]	[Remarks:Successful connection to server: S3]
[Date: 2015-11-09 07:58:51]	[UserID:06/343]	[IP:10.10.11.1]	[Browser:Chrome - 46.0.2490.80]	[Action:GetGSTModules 06/343,1]	[Remarks:Successful filter row count: 5]
[Date: 2015-11-09 07:58:51]	[UserID:06/343]	[IP:10.10.11.1]	[Browser:Chrome - 46.0.2490.80]	[Action:Closing mssql connection]	[Remarks:Success]
[Date: 2015-11-09 08:06:28]	[UserID:06/343]	[IP:10.10.11.1]	[Browser:Chrome - 46.0.2490.80]	[Action:Making connection to server]	[Remarks:Successful connection to server: S3]
[Date: 2015-11-09 08:06:28]	[UserID:06/343]	[IP:10.10.11.1]	[Browser:Chrome - 46.0.2490.80]	[Action:GetGSTModules 06/343,1]	[Remarks:Successful filter row count: 5]
[Date: 2015-11-09 08:06:28]	[UserID:06/343]	[IP:10.10.11.1]	[Browser:Chrome - 46.0.2490.80]	[Action:Closing mssql connection]	[Remarks:Success]
[Date: 2015-11-09 08:09:37]	[UserID:06/343]	[IP:10.10.11.1]	[Browser:Chrome - 46.0.2490.80]	[Action:Making connection to server]	[Remarks:Successful connection to server: S3]
[Date: 2015-11-09 08:09:37]	[UserID:06/343]	[IP:10.10.11.1]	[Browser:Chrome - 46.0.2490.80]	[Action:GetGSTModules 06/343,1]	[Remarks:Successful filter row count: 5]
[Date: 2015-11-09 08:09:37]	[UserID:06/343]	[IP:10.10.11.1]	[Browser:Chrome - 46.0.2490.80]	[Action:Closing mssql connection]	[Remarks:Success]
[Date: 2015-11-09 08:14:43]	[UserID:06/343]	[IP:10.10.11.1]	[Browser:Chrome - 46.0.2490.80]	[Action:Making connection to server]	[Remarks:Successful connection to server: S3]
[Date: 2015-11-09 08:14:43]	[UserID:06/343]	[IP:10.10.11.1]	[Browser:Chrome - 46.0.2490.80]	[Action:GetGSTModules 06/343,1]	[Remarks:Successful filter row count: 5]
[Date: 2015-11-09 08:14:43]	[UserID:06/343]	[IP:10.10.11.1]	[Browser:Chrome - 46.0.2490.80]	[Action:Closing mssql connection]	[Remarks:Success]
[Date: 2015-11-09 08:19:14]	[UserID:06/343]	[IP:10.10.11.1]	[Browser:Chrome - 46.0.2490.80]	[Action:Making connection to server]	[Remarks:Successful connection to server: S3]
[Date: 2015-11-09 08:19:14]	[UserID:06/343]	[IP:10.10.11.1]	[Browser:Chrome - 46.0.2490.80]	[Action:GetGSTModules 06/343,1]	[Remarks:Successful filter row count: 5]
[Date: 2015-11-09 08:19:14]	[UserID:06/343]	[IP:10.10.11.1]	[Browser:Chrome - 46.0.2490.80]	[Action:Closing mssql connection]	[Remarks:Success]
[Date: 2015-11-09 08:23:07]	[UserID:06/343]	[IP:10.10.11.1]	[Browser:Chrome - 46.0.2490.80]	[Action:Making connection to server]	[Remarks:Successful connection to server: S3]
[Date: 2015-11-09 08:23:07]	[UserID:06/343]	[IP:10.10.11.1]	[Browser:Chrome - 46.0.2490.80]	[Action:GetGSTModules 06/343,1]	[Remarks:Successful filter row count: 5]
[Date: 2015-11-09 08:23:07]	[UserID:06/343]	[IP:10.10.11.1]	[Browser:Chrome - 46.0.2490.80]	[Action:Closing mssql connection]	[Remarks:Success]
[Date: 2015-11-09 08:25:04]	[UserID:06/343]	[IP:10.10.11.1]	[Browser:Chrome - 46.0.2490.80]	[Action:Making connection to server]	[Remarks:Successful connection to server: S3]
[Date: 2015-11-09 08:25:04]	[UserID:06/343]	[IP:10.10.11.1]	[Browser:Chrome - 46.0.2490.80]	[Action:GetGSTModules 06/343,1]	[Remarks:Successful filter row count: 5]
[Date: 2015-11-09 08:25:04]	[UserID:06/343]	[IP:10.10.11.1]	[Browser:Chrome - 46.0.2490.80]	[Action:Closing mssql connection]	[Remarks:Success]
[Date: 2015-11-09 08:27:26]	[UserID:06/343]	[IP:10.10.11.1]	[Browser:Chrome - 46.0.2490.80]	[Action:Making connection to server]	[Remarks:Successful connection to server: S3]
[Date: 2015-11-09 08:27:26]	[UserID:06/343]	[IP:10.10.11.1]	[Browser:Chrome - 46.0.2490.80]	[Action:GetGSTModules 06/343,1]	[Remarks:Successful filter row count: 5]
[Date: 2015-11-09 08:27:26]	[UserID:06/343]	[IP:10.10.11.1]	[Browser:Chrome - 46.0.2490.80]	[Action:Closing mssql connection]	[Remarks:Success]
[Date: 2015-11-09 09:46:58]	[UserID:06/343]	[IP:10.10.11.1]	[Browser:Chrome - 46.0.2490.80]	[Action:Making connection to server]	[Remarks:Successful connection to server: S3]
[Date: 2015-11-09 09:46:58]	[UserID:06/343]	[IP:10.10.11.1]	[Browser:Chrome - 46.0.2490.80]	[Action:GetGSTModules 06/343,1]	[Remarks:Successful filter row count: 5]
[Date: 2015-11-09 09:46:58]	[UserID:06/343]	[IP:10.10.11.1]	[Browser:Chrome - 46.0.2490.80]	[Action:Closing mssql connection]	[Remarks:Success]
[Date: 2015-11-09 09:53:19]	[UserID:06/343]	[IP:10.10.11.1]	[Browser:Chrome - 46.0.2490.80]	[Action:Making connection to server]	[Remarks:Successful connection to server: S3]
[Date: 2015-11-09 09:53:20]	[UserID:06/343]	[IP:10.10.11.1]	[Browser:Chrome - 46.0.2490.80]	[Action:GetGSTModules 06/343,1]	[Remarks:Successful filter row count: 5]
[Date: 2015-11-09 09:53:20]	[UserID:06/343]	[IP:10.10.11.1]	[Browser:Chrome - 46.0.2490.80]	[Action:Closing mssql connection]	[Remarks:Success]
[Date: 2015-11-09 10:51:23]	[UserID:]	[IP:10.10.11.1]	[Browser:Chrome - 46.0.2490.80]	[Action:Making connection to server]	[Remarks:Successful connection to server: S3]
[Date: 2015-11-09 10:51:23]	[UserID:]	[IP:10.10.11.1]	[Browser:Chrome - 46.0.2490.80]	[Action:GetProgramList ]	[Remarks:"no data"]
[Date: 2015-11-09 10:51:27]	[UserID:10/660]	[IP:10.10.11.1]	[Browser:Chrome - 46.0.2490.80]	[Action:Making connection to server]	[Remarks:Successful connection to server: S3]
[Date: 2015-11-09 10:51:27]	[UserID:10/660]	[IP:10.10.11.1]	[Browser:Chrome - 46.0.2490.80]	[Action:User 10/660]	[Remarks:Success]
[Date: 2015-11-09 10:51:27]	[UserID:10/660]	[IP:10.10.11.1]	[Browser:Chrome - 46.0.2490.80]	[Action:Filtering User : MasterData Username : 10/660]	[Remarks:Successful filter row count: 0]
[Date: 2015-11-09 10:51:27]	[UserID:10/660]	[IP:10.10.11.1]	[Browser:Chrome - 46.0.2490.80]	[Action:Filtering User : MasterData Username : 10/660]	[Remarks:Successful filter row count: 0]
[Date: 2015-11-09 10:51:27]	[UserID:10/660]	[IP:10.10.11.1]	[Browser:Chrome - 46.0.2490.80]	[Action:Filtering User : MasterData Username : 10/660]	[Remarks:Success]
[Date: 2015-11-09 10:51:27]	[UserID:10/660]	[IP:10.10.11.1]	[Browser:Chrome - 46.0.2490.80]	[Action:Closing mssql connection]	[Remarks:Success]
[Date: 2015-11-09 10:51:27]	[UserID:10/660]	[IP:10.10.11.1]	[Browser:Chrome - 46.0.2490.80]	[Action:Making connection to server]	[Remarks:Successful connection to server: S3]
[Date: 2015-11-09 10:51:27]	[UserID:10/660]	[IP:10.10.11.1]	[Browser:Chrome - 46.0.2490.80]	[Action:GetProgramList 10/660]	[Remarks:[{"ID":"1","ProgramIndex":"GST","ProgramName":"GST"}]]
[Date: 2015-11-09 10:51:27]	[UserID:10/660]	[IP:10.10.11.1]	[Browser:Chrome - 46.0.2490.80]	[Action:Making connection to server]	[Remarks:Successful connection to server: S3]
[Date: 2015-11-09 10:51:27]	[UserID:10/660]	[IP:10.10.11.1]	[Browser:Chrome - 46.0.2490.80]	[Action:GetProgramList 10/660]	[Remarks:[{"ID":"1","ProgramIndex":"GST","ProgramName":"GST"}]]
[Date: 2015-11-09 10:51:27]	[UserID:10/660]	[IP:10.10.11.1]	[Browser:Chrome - 46.0.2490.80]	[Action:Making connection to server]	[Remarks:Successful connection to server: S3]
[Date: 2015-11-09 10:51:27]	[UserID:10/660]	[IP:10.10.11.1]	[Browser:Chrome - 46.0.2490.80]	[Action:Filtering User : MasterData Username : 10/660]	[Remarks:Successful filter row count: 1]
[Date: 2015-11-09 10:51:28]	[UserID:10/660]	[IP:10.10.11.1]	[Browser:Chrome - 46.0.2490.80]	[Action:Making connection to server]	[Remarks:Successful connection to server: S3]
[Date: 2015-11-09 10:51:28]	[UserID:10/660]	[IP:10.10.11.1]	[Browser:Chrome - 46.0.2490.80]	[Action:GetGSTModules 10/660,1]	[Remarks:Successful filter row count: 3]
[Date: 2015-11-09 10:51:28]	[UserID:10/660]	[IP:10.10.11.1]	[Browser:Chrome - 46.0.2490.80]	[Action:Closing mssql connection]	[Remarks:Success]
[Date: 2015-11-09 11:07:33]	[UserID:10/660]	[IP:10.10.11.1]	[Browser:Chrome - 46.0.2490.80]	[Action:Making connection to server]	[Remarks:Successful connection to server: S3]
[Date: 2015-11-09 11:07:33]	[UserID:10/660]	[IP:10.10.11.1]	[Browser:Chrome - 46.0.2490.80]	[Action:GetGSTModules 10/660,1]	[Remarks:Successful filter row count: 3]
[Date: 2015-11-09 11:07:33]	[UserID:10/660]	[IP:10.10.11.1]	[Browser:Chrome - 46.0.2490.80]	[Action:Closing mssql connection]	[Remarks:Success]
[Date: 2015-11-09 11:07:52]	[UserID:]	[IP:10.10.11.1]	[Browser:Chrome - 46.0.2490.80]	[Action:Making connection to server]	[Remarks:Successful connection to server: S3]
[Date: 2015-11-09 11:07:52]	[UserID:]	[IP:10.10.11.1]	[Browser:Chrome - 46.0.2490.80]	[Action:GetProgramList ]	[Remarks:"no data"]
[Date: 2015-11-09 11:15:43]	[UserID:]	[IP:10.10.11.1]	[Browser:Chrome - 46.0.2490.80]	[Action:Making connection to server]	[Remarks:Successful connection to server: S3]
[Date: 2015-11-09 11:15:43]	[UserID:]	[IP:10.10.11.1]	[Browser:Chrome - 46.0.2490.80]	[Action:GetProgramList ]	[Remarks:"no data"]
[Date: 2015-11-09 11:15:45]	[UserID:10/660]	[IP:10.10.11.1]	[Browser:Chrome - 46.0.2490.80]	[Action:Making connection to server]	[Remarks:Successful connection to server: S3]
[Date: 2015-11-09 11:15:45]	[UserID:10/660]	[IP:10.10.11.1]	[Browser:Chrome - 46.0.2490.80]	[Action:User 10/660]	[Remarks:Success]
[Date: 2015-11-09 11:15:45]	[UserID:10/660]	[IP:10.10.11.1]	[Browser:Chrome - 46.0.2490.80]	[Action:Filtering User : MasterData Username : 10/660]	[Remarks:Successful filter row count: 0]
[Date: 2015-11-09 11:15:45]	[UserID:10/660]	[IP:10.10.11.1]	[Browser:Chrome - 46.0.2490.80]	[Action:Filtering User : MasterData Username : 10/660]	[Remarks:Successful filter row count: 0]
[Date: 2015-11-09 11:15:45]	[UserID:10/660]	[IP:10.10.11.1]	[Browser:Chrome - 46.0.2490.80]	[Action:Filtering User : MasterData Username : 10/660]	[Remarks:Success]
[Date: 2015-11-09 11:15:45]	[UserID:10/660]	[IP:10.10.11.1]	[Browser:Chrome - 46.0.2490.80]	[Action:Closing mssql connection]	[Remarks:Success]
[Date: 2015-11-09 11:15:45]	[UserID:10/660]	[IP:10.10.11.1]	[Browser:Chrome - 46.0.2490.80]	[Action:Making connection to server]	[Remarks:Successful connection to server: S3]
[Date: 2015-11-09 11:15:45]	[UserID:10/660]	[IP:10.10.11.1]	[Browser:Chrome - 46.0.2490.80]	[Action:GetProgramList 10/660]	[Remarks:[{"ID":"1","ProgramIndex":"GST","ProgramName":"GST"}]]
[Date: 2015-11-09 11:15:45]	[UserID:10/660]	[IP:10.10.11.1]	[Browser:Chrome - 46.0.2490.80]	[Action:Making connection to server]	[Remarks:Successful connection to server: S3]
[Date: 2015-11-09 11:15:45]	[UserID:10/660]	[IP:10.10.11.1]	[Browser:Chrome - 46.0.2490.80]	[Action:GetProgramList 10/660]	[Remarks:[{"ID":"1","ProgramIndex":"GST","ProgramName":"GST"}]]
[Date: 2015-11-09 11:15:45]	[UserID:10/660]	[IP:10.10.11.1]	[Browser:Chrome - 46.0.2490.80]	[Action:Making connection to server]	[Remarks:Successful connection to server: S3]
[Date: 2015-11-09 11:15:45]	[UserID:10/660]	[IP:10.10.11.1]	[Browser:Chrome - 46.0.2490.80]	[Action:Filtering User : MasterData Username : 10/660]	[Remarks:Successful filter row count: 1]
[Date: 2015-11-09 11:15:46]	[UserID:10/660]	[IP:10.10.11.1]	[Browser:Chrome - 46.0.2490.80]	[Action:Making connection to server]	[Remarks:Successful connection to server: S3]
[Date: 2015-11-09 11:15:46]	[UserID:10/660]	[IP:10.10.11.1]	[Browser:Chrome - 46.0.2490.80]	[Action:GetGSTModules 10/660,1]	[Remarks:Successful filter row count: 3]
[Date: 2015-11-09 11:15:46]	[UserID:10/660]	[IP:10.10.11.1]	[Browser:Chrome - 46.0.2490.80]	[Action:Closing mssql connection]	[Remarks:Success]
[Date: 2015-11-09 11:16:11]	[UserID:]	[IP:10.10.11.1]	[Browser:Chrome - 46.0.2490.80]	[Action:Making connection to server]	[Remarks:Successful connection to server: S3]
[Date: 2015-11-09 11:16:11]	[UserID:]	[IP:10.10.11.1]	[Browser:Chrome - 46.0.2490.80]	[Action:GetProgramList ]	[Remarks:"no data"]
[Date: 2015-11-09 13:44:00]	[UserID:]	[IP:10.10.11.1]	[Browser:Chrome - 46.0.2490.80]	[Action:Making connection to server]	[Remarks:Successful connection to server: S3]
[Date: 2015-11-09 13:44:00]	[UserID:]	[IP:10.10.11.1]	[Browser:Chrome - 46.0.2490.80]	[Action:GetProgramList ]	[Remarks:"no data"]
[Date: 2015-11-09 13:44:06]	[UserID:06/343]	[IP:10.10.11.1]	[Browser:Chrome - 46.0.2490.80]	[Action:Making connection to server]	[Remarks:Successful connection to server: S3]
[Date: 2015-11-09 13:44:06]	[UserID:06/343]	[IP:10.10.11.1]	[Browser:Chrome - 46.0.2490.80]	[Action:User 06/343]	[Remarks:Success]
[Date: 2015-11-09 13:44:06]	[UserID:06/343]	[IP:10.10.11.1]	[Browser:Chrome - 46.0.2490.80]	[Action:Filtering User : MasterData Username : 06/343]	[Remarks:Successful filter row count: 0]
[Date: 2015-11-09 13:44:06]	[UserID:06/343]	[IP:10.10.11.1]	[Browser:Chrome - 46.0.2490.80]	[Action:Filtering User : MasterData Username : 06/343]	[Remarks:Successful filter row count: 0]
[Date: 2015-11-09 13:44:06]	[UserID:06/343]	[IP:10.10.11.1]	[Browser:Chrome - 46.0.2490.80]	[Action:Filtering User : MasterData Username : 06/343]	[Remarks:Success]
[Date: 2015-11-09 13:44:06]	[UserID:06/343]	[IP:10.10.11.1]	[Browser:Chrome - 46.0.2490.80]	[Action:Closing mssql connection]	[Remarks:Success]
[Date: 2015-11-09 13:44:06]	[UserID:06/343]	[IP:10.10.11.1]	[Browser:Chrome - 46.0.2490.80]	[Action:Making connection to server]	[Remarks:Successful connection to server: S3]
[Date: 2015-11-09 13:44:06]	[UserID:06/343]	[IP:10.10.11.1]	[Browser:Chrome - 46.0.2490.80]	[Action:GetProgramList 06/343]	[Remarks:[{"ID":"1","ProgramIndex":"GST","ProgramName":"GST"}]]
[Date: 2015-11-09 13:44:07]	[UserID:06/343]	[IP:10.10.11.1]	[Browser:Chrome - 46.0.2490.80]	[Action:Making connection to server]	[Remarks:Successful connection to server: S3]
[Date: 2015-11-09 13:44:07]	[UserID:06/343]	[IP:10.10.11.1]	[Browser:Chrome - 46.0.2490.80]	[Action:GetProgramList 06/343]	[Remarks:[{"ID":"1","ProgramIndex":"GST","ProgramName":"GST"}]]
[Date: 2015-11-09 13:44:07]	[UserID:06/343]	[IP:10.10.11.1]	[Browser:Chrome - 46.0.2490.80]	[Action:Making connection to server]	[Remarks:Successful connection to server: S3]
[Date: 2015-11-09 13:44:07]	[UserID:06/343]	[IP:10.10.11.1]	[Browser:Chrome - 46.0.2490.80]	[Action:Filtering User : MasterData Username : 06/343]	[Remarks:Successful filter row count: 1]
[Date: 2015-11-09 13:44:07]	[UserID:06/343]	[IP:10.10.11.1]	[Browser:Chrome - 46.0.2490.80]	[Action:Making connection to server]	[Remarks:Successful connection to server: S3]
[Date: 2015-11-09 13:44:07]	[UserID:06/343]	[IP:10.10.11.1]	[Browser:Chrome - 46.0.2490.80]	[Action:GetGSTModules 06/343,1]	[Remarks:Successful filter row count: 5]
[Date: 2015-11-09 13:44:07]	[UserID:06/343]	[IP:10.10.11.1]	[Browser:Chrome - 46.0.2490.80]	[Action:Closing mssql connection]	[Remarks:Success]
