[Date: 2017-08-24 09:35:28]	[UserID:]	[IP:10.128.12.210]	[Browser:Chrome - 60.0.3112.101]	[Action:Making connection to server]	[Remarks:Successful connection to server: S3]
[Date: 2017-08-24 09:35:28]	[UserID:]	[IP:10.128.12.210]	[Browser:Chrome - 60.0.3112.101]	[Action:GetProgramList ]	[Remarks:"no data"]
[Date: 2017-08-24 09:35:38]	[UserID:10/660]	[IP:10.128.12.210]	[Browser:Chrome - 60.0.3112.101]	[Action:Making connection to server]	[Remarks:Successful connection to server: S3]
[Date: 2017-08-24 09:35:38]	[UserID:10/660]	[IP:10.128.12.210]	[Browser:Chrome - 60.0.3112.101]	[Action:User 10/660]	[Remarks:Success]
[Date: 2017-08-24 09:35:38]	[UserID:10/660]	[IP:10.128.12.210]	[Browser:Chrome - 60.0.3112.101]	[Action:Filtering User : MasterData Username : 10/660]	[Remarks:Successful filter row count: 0]
[Date: 2017-08-24 09:35:38]	[UserID:10/660]	[IP:10.128.12.210]	[Browser:Chrome - 60.0.3112.101]	[Action:Filtering User : MasterData Username : 10/660]	[Remarks:Successful filter row count: 0]
[Date: 2017-08-24 09:35:38]	[UserID:10/660]	[IP:10.128.12.210]	[Browser:Chrome - 60.0.3112.101]	[Action:Filtering User : MasterData Username : 10/660]	[Remarks:Success]
[Date: 2017-08-24 09:35:38]	[UserID:10/660]	[IP:10.128.12.210]	[Browser:Chrome - 60.0.3112.101]	[Action:Closing mssql connection]	[Remarks:Success]
[Date: 2017-08-24 09:35:38]	[UserID:10/660]	[IP:10.128.12.210]	[Browser:Chrome - 60.0.3112.101]	[Action:Making connection to server]	[Remarks:Successful connection to server: S3]
[Date: 2017-08-24 09:35:38]	[UserID:10/660]	[IP:10.128.12.210]	[Browser:Chrome - 60.0.3112.101]	[Action:GetProgramList 10/660]	[Remarks:[{"ID":"1","ProgramIndex":"GST","ProgramName":"GST"}]]
[Date: 2017-08-24 09:35:38]	[UserID:10/660]	[IP:10.128.12.210]	[Browser:Chrome - 60.0.3112.101]	[Action:Making connection to server]	[Remarks:Successful connection to server: S3]
[Date: 2017-08-24 09:35:38]	[UserID:10/660]	[IP:10.128.12.210]	[Browser:Chrome - 60.0.3112.101]	[Action:GetProgramList 10/660]	[Remarks:[{"ID":"1","ProgramIndex":"GST","ProgramName":"GST"}]]
[Date: 2017-08-24 09:35:38]	[UserID:10/660]	[IP:10.128.12.210]	[Browser:Chrome - 60.0.3112.101]	[Action:Making connection to server]	[Remarks:Successful connection to server: S3]
[Date: 2017-08-24 09:35:38]	[UserID:10/660]	[IP:10.128.12.210]	[Browser:Chrome - 60.0.3112.101]	[Action:Filtering User : MasterData Username : 10/660]	[Remarks:Successful filter row count: 1]
[Date: 2017-08-24 09:35:38]	[UserID:10/660]	[IP:10.128.12.210]	[Browser:Chrome - 60.0.3112.101]	[Action:Making connection to server]	[Remarks:Successful connection to server: S3]
[Date: 2017-08-24 09:35:38]	[UserID:10/660]	[IP:10.128.12.210]	[Browser:Chrome - 60.0.3112.101]	[Action:GetGSTModules 10/660,1]	[Remarks:Successful filter row count: 3]
[Date: 2017-08-24 09:35:38]	[UserID:10/660]	[IP:10.128.12.210]	[Browser:Chrome - 60.0.3112.101]	[Action:Closing mssql connection]	[Remarks:Success]
[Date: 2017-08-24 09:36:08]	[UserID:]	[IP:10.128.12.210]	[Browser:Chrome - 60.0.3112.101]	[Action:Making connection to server]	[Remarks:Successful connection to server: S3]
[Date: 2017-08-24 09:36:08]	[UserID:]	[IP:10.128.12.210]	[Browser:Chrome - 60.0.3112.101]	[Action:GetProgramList ]	[Remarks:"no data"]
[Date: 2017-08-24 09:36:21]	[UserID:10/660]	[IP:10.128.12.210]	[Browser:Chrome - 60.0.3112.101]	[Action:Making connection to server]	[Remarks:Successful connection to server: S3]
[Date: 2017-08-24 09:36:21]	[UserID:10/660]	[IP:10.128.12.210]	[Browser:Chrome - 60.0.3112.101]	[Action:User 10/660]	[Remarks:Success]
[Date: 2017-08-24 09:36:21]	[UserID:10/660]	[IP:10.128.12.210]	[Browser:Chrome - 60.0.3112.101]	[Action:Filtering User : MasterData Username : 10/660]	[Remarks:Successful filter row count: 0]
[Date: 2017-08-24 09:36:21]	[UserID:10/660]	[IP:10.128.12.210]	[Browser:Chrome - 60.0.3112.101]	[Action:Filtering User : MasterData Username : 10/660]	[Remarks:Successful filter row count: 0]
[Date: 2017-08-24 09:36:21]	[UserID:10/660]	[IP:10.128.12.210]	[Browser:Chrome - 60.0.3112.101]	[Action:Filtering User : MasterData Username : 10/660]	[Remarks:Success]
[Date: 2017-08-24 09:36:21]	[UserID:10/660]	[IP:10.128.12.210]	[Browser:Chrome - 60.0.3112.101]	[Action:Closing mssql connection]	[Remarks:Success]
[Date: 2017-08-24 09:36:21]	[UserID:10/660]	[IP:10.128.12.210]	[Browser:Chrome - 60.0.3112.101]	[Action:Making connection to server]	[Remarks:Successful connection to server: S3]
[Date: 2017-08-24 09:36:21]	[UserID:10/660]	[IP:10.128.12.210]	[Browser:Chrome - 60.0.3112.101]	[Action:GetProgramList 10/660]	[Remarks:[{"ID":"1","ProgramIndex":"GST","ProgramName":"GST"}]]
[Date: 2017-08-24 09:36:21]	[UserID:10/660]	[IP:10.128.12.210]	[Browser:Chrome - 60.0.3112.101]	[Action:Making connection to server]	[Remarks:Successful connection to server: S3]
[Date: 2017-08-24 09:36:21]	[UserID:10/660]	[IP:10.128.12.210]	[Browser:Chrome - 60.0.3112.101]	[Action:GetProgramList 10/660]	[Remarks:[{"ID":"1","ProgramIndex":"GST","ProgramName":"GST"}]]
[Date: 2017-08-24 09:36:21]	[UserID:10/660]	[IP:10.128.12.210]	[Browser:Chrome - 60.0.3112.101]	[Action:Making connection to server]	[Remarks:Successful connection to server: S3]
[Date: 2017-08-24 09:36:21]	[UserID:10/660]	[IP:10.128.12.210]	[Browser:Chrome - 60.0.3112.101]	[Action:Filtering User : MasterData Username : 10/660]	[Remarks:Successful filter row count: 1]
[Date: 2017-08-24 09:36:21]	[UserID:10/660]	[IP:10.128.12.210]	[Browser:Chrome - 60.0.3112.101]	[Action:Making connection to server]	[Remarks:Successful connection to server: S3]
[Date: 2017-08-24 09:36:21]	[UserID:10/660]	[IP:10.128.12.210]	[Browser:Chrome - 60.0.3112.101]	[Action:GetGSTModules 10/660,1]	[Remarks:Successful filter row count: 3]
[Date: 2017-08-24 09:36:21]	[UserID:10/660]	[IP:10.128.12.210]	[Browser:Chrome - 60.0.3112.101]	[Action:Closing mssql connection]	[Remarks:Success]
[Date: 2017-08-24 09:38:51]	[UserID:10/660]	[IP:10.128.12.210]	[Browser:Chrome - 60.0.3112.101]	[Action:Making connection to server]	[Remarks:Successful connection to server: S3]
[Date: 2017-08-24 09:38:51]	[UserID:10/660]	[IP:10.128.12.210]	[Browser:Chrome - 60.0.3112.101]	[Action:GetProgramList 10/660]	[Remarks:[{"ID":"1","ProgramIndex":"GST","ProgramName":"GST"}]]
[Date: 2017-08-24 09:38:51]	[UserID:10/660]	[IP:10.128.12.210]	[Browser:Chrome - 60.0.3112.101]	[Action:Making connection to server]	[Remarks:Successful connection to server: S3]
[Date: 2017-08-24 09:38:51]	[UserID:10/660]	[IP:10.128.12.210]	[Browser:Chrome - 60.0.3112.101]	[Action:GetProgramList 10/660]	[Remarks:[{"ID":"1","ProgramIndex":"GST","ProgramName":"GST"}]]
[Date: 2017-08-24 09:38:51]	[UserID:10/660]	[IP:10.128.12.210]	[Browser:Chrome - 60.0.3112.101]	[Action:Making connection to server]	[Remarks:Successful connection to server: S3]
[Date: 2017-08-24 09:38:51]	[UserID:10/660]	[IP:10.128.12.210]	[Browser:Chrome - 60.0.3112.101]	[Action:Filtering User : MasterData Username : 10/660]	[Remarks:Successful filter row count: 1]
[Date: 2017-08-24 09:38:51]	[UserID:10/660]	[IP:10.128.12.210]	[Browser:Chrome - 60.0.3112.101]	[Action:Making connection to server]	[Remarks:Successful connection to server: S3]
[Date: 2017-08-24 09:38:51]	[UserID:10/660]	[IP:10.128.12.210]	[Browser:Chrome - 60.0.3112.101]	[Action:GetGSTModules 10/660,1]	[Remarks:Successful filter row count: 3]
[Date: 2017-08-24 09:38:51]	[UserID:10/660]	[IP:10.128.12.210]	[Browser:Chrome - 60.0.3112.101]	[Action:Closing mssql connection]	[Remarks:Success]
[Date: 2017-08-24 09:39:21]	[UserID:10/660]	[IP:10.128.12.210]	[Browser:Chrome - 60.0.3112.101]	[Action:Making connection to server]	[Remarks:Successful connection to server: S3]
[Date: 2017-08-24 09:39:21]	[UserID:10/660]	[IP:10.128.12.210]	[Browser:Chrome - 60.0.3112.101]	[Action:GetGSTModules 10/660,1]	[Remarks:Successful filter row count: 3]
[Date: 2017-08-24 09:39:21]	[UserID:10/660]	[IP:10.128.12.210]	[Browser:Chrome - 60.0.3112.101]	[Action:Closing mssql connection]	[Remarks:Success]
[Date: 2017-08-24 10:08:50]	[UserID:]	[IP:10.128.12.113]	[Browser:Chrome - 60.0.3112.101]	[Action:Making connection to server]	[Remarks:Successful connection to server: S3]
[Date: 2017-08-24 10:08:50]	[UserID:]	[IP:10.128.12.113]	[Browser:Chrome - 60.0.3112.101]	[Action:GetProgramList ]	[Remarks:"no data"]
[Date: 2017-08-24 10:08:52]	[UserID:06/343]	[IP:10.128.12.113]	[Browser:Chrome - 60.0.3112.101]	[Action:Making connection to server]	[Remarks:Successful connection to server: S3]
[Date: 2017-08-24 10:08:52]	[UserID:06/343]	[IP:10.128.12.113]	[Browser:Chrome - 60.0.3112.101]	[Action:User 06/343]	[Remarks:Success]
[Date: 2017-08-24 10:08:52]	[UserID:06/343]	[IP:10.128.12.113]	[Browser:Chrome - 60.0.3112.101]	[Action:Filtering User : MasterData Username : 06/343]	[Remarks:Successful filter row count: 0]
[Date: 2017-08-24 10:08:52]	[UserID:06/343]	[IP:10.128.12.113]	[Browser:Chrome - 60.0.3112.101]	[Action:Filtering User : MasterData Username : 06/343]	[Remarks:Successful filter row count: 0]
[Date: 2017-08-24 10:08:52]	[UserID:06/343]	[IP:10.128.12.113]	[Browser:Chrome - 60.0.3112.101]	[Action:Filtering User : MasterData Username : 06/343]	[Remarks:Success]
[Date: 2017-08-24 10:08:52]	[UserID:06/343]	[IP:10.128.12.113]	[Browser:Chrome - 60.0.3112.101]	[Action:Closing mssql connection]	[Remarks:Success]
[Date: 2017-08-24 10:08:52]	[UserID:06/343]	[IP:10.128.12.113]	[Browser:Chrome - 60.0.3112.101]	[Action:Making connection to server]	[Remarks:Successful connection to server: S3]
[Date: 2017-08-24 10:08:52]	[UserID:06/343]	[IP:10.128.12.113]	[Browser:Chrome - 60.0.3112.101]	[Action:GetProgramList 06/343]	[Remarks:[{"ID":"1","ProgramIndex":"GST","ProgramName":"GST"}]]
[Date: 2017-08-24 10:08:52]	[UserID:06/343]	[IP:10.128.12.113]	[Browser:Chrome - 60.0.3112.101]	[Action:Making connection to server]	[Remarks:Successful connection to server: S3]
[Date: 2017-08-24 10:08:52]	[UserID:06/343]	[IP:10.128.12.113]	[Browser:Chrome - 60.0.3112.101]	[Action:GetProgramList 06/343]	[Remarks:[{"ID":"1","ProgramIndex":"GST","ProgramName":"GST"}]]
[Date: 2017-08-24 10:08:52]	[UserID:06/343]	[IP:10.128.12.113]	[Browser:Chrome - 60.0.3112.101]	[Action:Making connection to server]	[Remarks:Successful connection to server: S3]
[Date: 2017-08-24 10:08:52]	[UserID:06/343]	[IP:10.128.12.113]	[Browser:Chrome - 60.0.3112.101]	[Action:Filtering User : MasterData Username : 06/343]	[Remarks:Successful filter row count: 1]
[Date: 2017-08-24 10:08:52]	[UserID:06/343]	[IP:10.128.12.113]	[Browser:Chrome - 60.0.3112.101]	[Action:Making connection to server]	[Remarks:Successful connection to server: S3]
[Date: 2017-08-24 10:08:52]	[UserID:06/343]	[IP:10.128.12.113]	[Browser:Chrome - 60.0.3112.101]	[Action:GetGSTModules 06/343,1]	[Remarks:Successful filter row count: 5]
[Date: 2017-08-24 10:08:52]	[UserID:06/343]	[IP:10.128.12.113]	[Browser:Chrome - 60.0.3112.101]	[Action:Closing mssql connection]	[Remarks:Success]
[Date: 2017-08-24 10:17:19]	[UserID:06/343]	[IP:10.128.12.113]	[Browser:Chrome - 60.0.3112.101]	[Action:Making connection to server]	[Remarks:Successful connection to server: S3]
[Date: 2017-08-24 10:17:19]	[UserID:06/343]	[IP:10.128.12.113]	[Browser:Chrome - 60.0.3112.101]	[Action:GetGSTModules 06/343,1]	[Remarks:Successful filter row count: 5]
[Date: 2017-08-24 10:17:19]	[UserID:06/343]	[IP:10.128.12.113]	[Browser:Chrome - 60.0.3112.101]	[Action:Closing mssql connection]	[Remarks:Success]
[Date: 2017-08-24 10:37:07]	[UserID:10/660]	[IP:10.128.12.210]	[Browser:Chrome - 60.0.3112.101]	[Action:Making connection to server]	[Remarks:Successful connection to server: S3]
[Date: 2017-08-24 10:37:07]	[UserID:10/660]	[IP:10.128.12.210]	[Browser:Chrome - 60.0.3112.101]	[Action:GetProgramList 10/660]	[Remarks:[{"ID":"1","ProgramIndex":"GST","ProgramName":"GST"}]]
[Date: 2017-08-24 10:37:07]	[UserID:10/660]	[IP:10.128.12.210]	[Browser:Chrome - 60.0.3112.101]	[Action:Making connection to server]	[Remarks:Successful connection to server: S3]
[Date: 2017-08-24 10:37:07]	[UserID:10/660]	[IP:10.128.12.210]	[Browser:Chrome - 60.0.3112.101]	[Action:GetProgramList 10/660]	[Remarks:[{"ID":"1","ProgramIndex":"GST","ProgramName":"GST"}]]
[Date: 2017-08-24 10:37:07]	[UserID:10/660]	[IP:10.128.12.210]	[Browser:Chrome - 60.0.3112.101]	[Action:Making connection to server]	[Remarks:Successful connection to server: S3]
[Date: 2017-08-24 10:37:07]	[UserID:10/660]	[IP:10.128.12.210]	[Browser:Chrome - 60.0.3112.101]	[Action:Filtering User : MasterData Username : 10/660]	[Remarks:Successful filter row count: 1]
[Date: 2017-08-24 10:37:07]	[UserID:10/660]	[IP:10.128.12.210]	[Browser:Chrome - 60.0.3112.101]	[Action:Making connection to server]	[Remarks:Successful connection to server: S3]
[Date: 2017-08-24 10:37:07]	[UserID:10/660]	[IP:10.128.12.210]	[Browser:Chrome - 60.0.3112.101]	[Action:GetGSTModules 10/660,1]	[Remarks:Successful filter row count: 3]
[Date: 2017-08-24 10:37:07]	[UserID:10/660]	[IP:10.128.12.210]	[Browser:Chrome - 60.0.3112.101]	[Action:Closing mssql connection]	[Remarks:Success]
[Date: 2017-08-24 10:40:06]	[UserID:10/660]	[IP:10.128.12.210]	[Browser:Chrome - 60.0.3112.101]	[Action:Making connection to server]	[Remarks:Successful connection to server: S3]
[Date: 2017-08-24 10:40:06]	[UserID:10/660]	[IP:10.128.12.210]	[Browser:Chrome - 60.0.3112.101]	[Action:GetGSTModules 10/660,1]	[Remarks:Successful filter row count: 3]
[Date: 2017-08-24 10:40:06]	[UserID:10/660]	[IP:10.128.12.210]	[Browser:Chrome - 60.0.3112.101]	[Action:Closing mssql connection]	[Remarks:Success]
[Date: 2017-08-24 10:44:10]	[UserID:10/660]	[IP:10.128.12.210]	[Browser:Chrome - 60.0.3112.101]	[Action:Making connection to server]	[Remarks:Successful connection to server: S3]
[Date: 2017-08-24 10:44:10]	[UserID:10/660]	[IP:10.128.12.210]	[Browser:Chrome - 60.0.3112.101]	[Action:GetGSTModules 10/660,1]	[Remarks:Successful filter row count: 3]
[Date: 2017-08-24 10:44:10]	[UserID:10/660]	[IP:10.128.12.210]	[Browser:Chrome - 60.0.3112.101]	[Action:Closing mssql connection]	[Remarks:Success]
[Date: 2017-08-24 10:44:30]	[UserID:10/660]	[IP:10.128.12.210]	[Browser:Chrome - 60.0.3112.101]	[Action:Making connection to server]	[Remarks:Successful connection to server: S3]
[Date: 2017-08-24 10:44:30]	[UserID:10/660]	[IP:10.128.12.210]	[Browser:Chrome - 60.0.3112.101]	[Action:GetGSTModules 10/660,1]	[Remarks:Successful filter row count: 3]
[Date: 2017-08-24 10:44:30]	[UserID:10/660]	[IP:10.128.12.210]	[Browser:Chrome - 60.0.3112.101]	[Action:Closing mssql connection]	[Remarks:Success]
[Date: 2017-08-24 10:55:56]	[UserID:06/343]	[IP:10.128.12.113]	[Browser:Chrome - 60.0.3112.101]	[Action:Making connection to server]	[Remarks:Successful connection to server: S3]
[Date: 2017-08-24 10:55:56]	[UserID:06/343]	[IP:10.128.12.113]	[Browser:Chrome - 60.0.3112.101]	[Action:GetGSTModules 06/343,1]	[Remarks:Successful filter row count: 5]
[Date: 2017-08-24 10:55:56]	[UserID:06/343]	[IP:10.128.12.113]	[Browser:Chrome - 60.0.3112.101]	[Action:Closing mssql connection]	[Remarks:Success]
[Date: 2017-08-24 10:57:50]	[UserID:06/343]	[IP:10.128.12.113]	[Browser:Chrome - 60.0.3112.101]	[Action:Making connection to server]	[Remarks:Successful connection to server: S3]
[Date: 2017-08-24 10:57:50]	[UserID:06/343]	[IP:10.128.12.113]	[Browser:Chrome - 60.0.3112.101]	[Action:GetGSTModules 06/343,1]	[Remarks:Successful filter row count: 5]
[Date: 2017-08-24 10:57:50]	[UserID:06/343]	[IP:10.128.12.113]	[Browser:Chrome - 60.0.3112.101]	[Action:Closing mssql connection]	[Remarks:Success]
[Date: 2017-08-24 10:58:10]	[UserID:06/343]	[IP:10.128.12.113]	[Browser:Chrome - 60.0.3112.101]	[Action:Making connection to server]	[Remarks:Successful connection to server: S3]
[Date: 2017-08-24 10:58:10]	[UserID:06/343]	[IP:10.128.12.113]	[Browser:Chrome - 60.0.3112.101]	[Action:GetGSTModules 06/343,1]	[Remarks:Successful filter row count: 5]
[Date: 2017-08-24 10:58:10]	[UserID:06/343]	[IP:10.128.12.113]	[Browser:Chrome - 60.0.3112.101]	[Action:Closing mssql connection]	[Remarks:Success]
[Date: 2017-08-24 11:06:14]	[UserID:06/343]	[IP:10.128.12.113]	[Browser:Chrome - 60.0.3112.101]	[Action:Making connection to server]	[Remarks:Successful connection to server: S3]
[Date: 2017-08-24 11:06:14]	[UserID:06/343]	[IP:10.128.12.113]	[Browser:Chrome - 60.0.3112.101]	[Action:GetGSTModules 06/343,1]	[Remarks:Successful filter row count: 5]
[Date: 2017-08-24 11:06:14]	[UserID:06/343]	[IP:10.128.12.113]	[Browser:Chrome - 60.0.3112.101]	[Action:Closing mssql connection]	[Remarks:Success]
[Date: 2017-08-24 11:14:15]	[UserID:06/343]	[IP:10.128.12.113]	[Browser:Chrome - 60.0.3112.101]	[Action:Making connection to server]	[Remarks:Successful connection to server: S3]
[Date: 2017-08-24 11:14:15]	[UserID:06/343]	[IP:10.128.12.113]	[Browser:Chrome - 60.0.3112.101]	[Action:GetGSTModules 06/343,1]	[Remarks:Successful filter row count: 5]
[Date: 2017-08-24 11:14:15]	[UserID:06/343]	[IP:10.128.12.113]	[Browser:Chrome - 60.0.3112.101]	[Action:Closing mssql connection]	[Remarks:Success]
[Date: 2017-08-24 13:19:32]	[UserID:06/343]	[IP:10.128.12.113]	[Browser:Chrome - 60.0.3112.101]	[Action:Making connection to server]	[Remarks:Successful connection to server: S3]
[Date: 2017-08-24 13:19:32]	[UserID:06/343]	[IP:10.128.12.113]	[Browser:Chrome - 60.0.3112.101]	[Action:GetProgramList 06/343]	[Remarks:[{"ID":"1","ProgramIndex":"GST","ProgramName":"GST"}]]
[Date: 2017-08-24 13:19:32]	[UserID:06/343]	[IP:10.128.12.113]	[Browser:Chrome - 60.0.3112.101]	[Action:Making connection to server]	[Remarks:Successful connection to server: S3]
[Date: 2017-08-24 13:19:32]	[UserID:06/343]	[IP:10.128.12.113]	[Browser:Chrome - 60.0.3112.101]	[Action:GetProgramList 06/343]	[Remarks:[{"ID":"1","ProgramIndex":"GST","ProgramName":"GST"}]]
[Date: 2017-08-24 13:19:32]	[UserID:06/343]	[IP:10.128.12.113]	[Browser:Chrome - 60.0.3112.101]	[Action:Making connection to server]	[Remarks:Successful connection to server: S3]
[Date: 2017-08-24 13:19:32]	[UserID:06/343]	[IP:10.128.12.113]	[Browser:Chrome - 60.0.3112.101]	[Action:Filtering User : MasterData Username : 06/343]	[Remarks:Successful filter row count: 1]
[Date: 2017-08-24 13:19:32]	[UserID:06/343]	[IP:10.128.12.113]	[Browser:Chrome - 60.0.3112.101]	[Action:Making connection to server]	[Remarks:Successful connection to server: S3]
[Date: 2017-08-24 13:19:32]	[UserID:06/343]	[IP:10.128.12.113]	[Browser:Chrome - 60.0.3112.101]	[Action:GetGSTModules 06/343,1]	[Remarks:Successful filter row count: 5]
[Date: 2017-08-24 13:19:32]	[UserID:06/343]	[IP:10.128.12.113]	[Browser:Chrome - 60.0.3112.101]	[Action:Closing mssql connection]	[Remarks:Success]
