[Date: 2020-08-27 08:03:00]	[UserID:]	[IP:10.128.130.5]	[Browser:Chrome - 84.0.4147.125]	[Action:Making connection to server]	[Remarks:Successful connection to server: S3]
[Date: 2020-08-27 08:03:00]	[UserID:]	[IP:10.128.130.5]	[Browser:Chrome - 84.0.4147.125]	[Action:GetProgramList ]	[Remarks:"no data"]
[Date: 2020-08-27 08:35:21]	[UserID:]	[IP:10.128.12.114]	[Browser:Chrome - 84.0.4147.135]	[Action:Making connection to server]	[Remarks:Successful connection to server: S3]
[Date: 2020-08-27 08:35:21]	[UserID:]	[IP:10.128.12.114]	[Browser:Chrome - 84.0.4147.135]	[Action:GetProgramList ]	[Remarks:"no data"]
[Date: 2020-08-27 08:37:40]	[UserID:14/1082]	[IP:10.128.12.114]	[Browser:Chrome - 84.0.4147.135]	[Action:Making connection to server]	[Remarks:Successful connection to server: S3]
[Date: 2020-08-27 08:37:40]	[UserID:14/1082]	[IP:10.128.12.114]	[Browser:Chrome - 84.0.4147.135]	[Action:User 14/1082]	[Remarks:Success]
[Date: 2020-08-27 08:37:40]	[UserID:14/1082]	[IP:10.128.12.114]	[Browser:Chrome - 84.0.4147.135]	[Action:Filtering User : MasterData Username : 14/1082]	[Remarks:Successful filter row count: 0]
[Date: 2020-08-27 08:37:40]	[UserID:14/1082]	[IP:10.128.12.114]	[Browser:Chrome - 84.0.4147.135]	[Action:Filtering User : MasterData Username : 14/1082]	[Remarks:Successful filter row count: 0]
[Date: 2020-08-27 08:37:40]	[UserID:14/1082]	[IP:10.128.12.114]	[Browser:Chrome - 84.0.4147.135]	[Action:Filtering User : MasterData Username : 14/1082]	[Remarks:Success]
[Date: 2020-08-27 08:37:40]	[UserID:14/1082]	[IP:10.128.12.114]	[Browser:Chrome - 84.0.4147.135]	[Action:Closing mssql connection]	[Remarks:Success]
[Date: 2020-08-27 08:37:40]	[UserID:14/1082]	[IP:10.128.12.114]	[Browser:Chrome - 84.0.4147.135]	[Action:Making connection to server]	[Remarks:Successful connection to server: S3]
[Date: 2020-08-27 08:37:40]	[UserID:14/1082]	[IP:10.128.12.114]	[Browser:Chrome - 84.0.4147.135]	[Action:GetProgramList 14/1082]	[Remarks:[{"ID":"1","ProgramIndex":"GST","ProgramName":"GST"}]]
[Date: 2020-08-27 08:37:40]	[UserID:14/1082]	[IP:10.128.12.114]	[Browser:Chrome - 84.0.4147.135]	[Action:Making connection to server]	[Remarks:Successful connection to server: S3]
[Date: 2020-08-27 08:37:40]	[UserID:14/1082]	[IP:10.128.12.114]	[Browser:Chrome - 84.0.4147.135]	[Action:GetProgramList 14/1082]	[Remarks:[{"ID":"1","ProgramIndex":"GST","ProgramName":"GST"}]]
[Date: 2020-08-27 08:37:40]	[UserID:14/1082]	[IP:10.128.12.114]	[Browser:Chrome - 84.0.4147.135]	[Action:Making connection to server]	[Remarks:Successful connection to server: S3]
[Date: 2020-08-27 08:37:40]	[UserID:14/1082]	[IP:10.128.12.114]	[Browser:Chrome - 84.0.4147.135]	[Action:Filtering User : MasterData Username : 14/1082]	[Remarks:Successful filter row count: 1]
[Date: 2020-08-27 08:37:42]	[UserID:14/1082]	[IP:10.128.12.114]	[Browser:Chrome - 84.0.4147.135]	[Action:Making connection to server]	[Remarks:Successful connection to server: S3]
[Date: 2020-08-27 08:37:42]	[UserID:14/1082]	[IP:10.128.12.114]	[Browser:Chrome - 84.0.4147.135]	[Action:GetGSTModules 14/1082,1]	[Remarks:Successful filter row count: 8]
[Date: 2020-08-27 08:37:42]	[UserID:14/1082]	[IP:10.128.12.114]	[Browser:Chrome - 84.0.4147.135]	[Action:Closing mssql connection]	[Remarks:Success]
[Date: 2020-08-27 09:12:38]	[UserID:14/1082]	[IP:10.128.12.114]	[Browser:Chrome - 84.0.4147.135]	[Action:Making connection to server]	[Remarks:Successful connection to server: S3]
[Date: 2020-08-27 09:12:38]	[UserID:14/1082]	[IP:10.128.12.114]	[Browser:Chrome - 84.0.4147.135]	[Action:GetGSTModules 14/1082,1]	[Remarks:Successful filter row count: 8]
[Date: 2020-08-27 09:12:38]	[UserID:14/1082]	[IP:10.128.12.114]	[Browser:Chrome - 84.0.4147.135]	[Action:Closing mssql connection]	[Remarks:Success]
[Date: 2020-08-27 09:33:40]	[UserID:]	[IP:10.128.130.5]	[Browser:Chrome - 84.0.4147.135]	[Action:Making connection to server]	[Remarks:Successful connection to server: S3]
[Date: 2020-08-27 09:33:40]	[UserID:]	[IP:10.128.130.5]	[Browser:Chrome - 84.0.4147.135]	[Action:GetProgramList ]	[Remarks:"no data"]
[Date: 2020-08-27 09:33:56]	[UserID:06/343]	[IP:10.128.130.5]	[Browser:Chrome - 84.0.4147.135]	[Action:Making connection to server]	[Remarks:Successful connection to server: S3]
[Date: 2020-08-27 09:33:56]	[UserID:06/343]	[IP:10.128.130.5]	[Browser:Chrome - 84.0.4147.135]	[Action:User 06/343]	[Remarks:Success]
[Date: 2020-08-27 09:33:56]	[UserID:06/343]	[IP:10.128.130.5]	[Browser:Chrome - 84.0.4147.135]	[Action:Filtering User : MasterData Username : 06/343]	[Remarks:Successful filter row count: 0]
[Date: 2020-08-27 09:33:56]	[UserID:06/343]	[IP:10.128.130.5]	[Browser:Chrome - 84.0.4147.135]	[Action:Filtering User : MasterData Username : 06/343]	[Remarks:Successful filter row count: 0]
[Date: 2020-08-27 09:33:56]	[UserID:06/343]	[IP:10.128.130.5]	[Browser:Chrome - 84.0.4147.135]	[Action:Filtering User : MasterData Username : 06/343]	[Remarks:Success]
[Date: 2020-08-27 09:33:56]	[UserID:06/343]	[IP:10.128.130.5]	[Browser:Chrome - 84.0.4147.135]	[Action:Closing mssql connection]	[Remarks:Success]
[Date: 2020-08-27 09:33:57]	[UserID:06/343]	[IP:10.128.130.5]	[Browser:Chrome - 84.0.4147.135]	[Action:Making connection to server]	[Remarks:Successful connection to server: S3]
[Date: 2020-08-27 09:33:57]	[UserID:06/343]	[IP:10.128.130.5]	[Browser:Chrome - 84.0.4147.135]	[Action:GetProgramList 06/343]	[Remarks:[{"ID":"1","ProgramIndex":"GST","ProgramName":"GST"}]]
[Date: 2020-08-27 09:33:57]	[UserID:06/343]	[IP:10.128.130.5]	[Browser:Chrome - 84.0.4147.135]	[Action:Making connection to server]	[Remarks:Successful connection to server: S3]
[Date: 2020-08-27 09:33:57]	[UserID:06/343]	[IP:10.128.130.5]	[Browser:Chrome - 84.0.4147.135]	[Action:GetProgramList 06/343]	[Remarks:[{"ID":"1","ProgramIndex":"GST","ProgramName":"GST"}]]
[Date: 2020-08-27 09:33:57]	[UserID:06/343]	[IP:10.128.130.5]	[Browser:Chrome - 84.0.4147.135]	[Action:Making connection to server]	[Remarks:Successful connection to server: S3]
[Date: 2020-08-27 09:33:57]	[UserID:06/343]	[IP:10.128.130.5]	[Browser:Chrome - 84.0.4147.135]	[Action:Filtering User : MasterData Username : 06/343]	[Remarks:Successful filter row count: 1]
[Date: 2020-08-27 09:33:57]	[UserID:06/343]	[IP:10.128.130.5]	[Browser:Chrome - 84.0.4147.135]	[Action:Making connection to server]	[Remarks:Successful connection to server: S3]
[Date: 2020-08-27 09:33:57]	[UserID:06/343]	[IP:10.128.130.5]	[Browser:Chrome - 84.0.4147.135]	[Action:GetGSTModules 06/343,1]	[Remarks:Successful filter row count: 7]
[Date: 2020-08-27 09:33:57]	[UserID:06/343]	[IP:10.128.130.5]	[Browser:Chrome - 84.0.4147.135]	[Action:Closing mssql connection]	[Remarks:Success]
[Date: 2020-08-27 09:43:41]	[UserID:]	[IP:10.128.12.114]	[Browser:Chrome - 84.0.4147.135]	[Action:Making connection to server]	[Remarks:Successful connection to server: S3]
[Date: 2020-08-27 09:43:41]	[UserID:]	[IP:10.128.12.114]	[Browser:Chrome - 84.0.4147.135]	[Action:GetProgramList ]	[Remarks:"no data"]
[Date: 2020-08-27 11:53:25]	[UserID:06/343]	[IP:10.128.130.5]	[Browser:Chrome - 84.0.4147.135]	[Action:Making connection to server]	[Remarks:Successful connection to server: S3]
[Date: 2020-08-27 11:53:26]	[UserID:06/343]	[IP:10.128.130.5]	[Browser:Chrome - 84.0.4147.135]	[Action:GetGSTModules 06/343,1]	[Remarks:Successful filter row count: 7]
[Date: 2020-08-27 11:53:26]	[UserID:06/343]	[IP:10.128.130.5]	[Browser:Chrome - 84.0.4147.135]	[Action:Closing mssql connection]	[Remarks:Success]
[Date: 2020-08-27 12:43:31]	[UserID:06/343]	[IP:10.128.130.5]	[Browser:Chrome - 84.0.4147.135]	[Action:Making connection to server]	[Remarks:Successful connection to server: S3]
[Date: 2020-08-27 12:43:31]	[UserID:06/343]	[IP:10.128.130.5]	[Browser:Chrome - 84.0.4147.135]	[Action:GetProgramList 06/343]	[Remarks:[{"ID":"1","ProgramIndex":"GST","ProgramName":"GST"}]]
[Date: 2020-08-27 12:43:31]	[UserID:06/343]	[IP:10.128.130.5]	[Browser:Chrome - 84.0.4147.135]	[Action:Making connection to server]	[Remarks:Successful connection to server: S3]
[Date: 2020-08-27 12:43:31]	[UserID:06/343]	[IP:10.128.130.5]	[Browser:Chrome - 84.0.4147.135]	[Action:GetProgramList 06/343]	[Remarks:[{"ID":"1","ProgramIndex":"GST","ProgramName":"GST"}]]
[Date: 2020-08-27 12:43:31]	[UserID:06/343]	[IP:10.128.130.5]	[Browser:Chrome - 84.0.4147.135]	[Action:Making connection to server]	[Remarks:Successful connection to server: S3]
[Date: 2020-08-27 12:43:31]	[UserID:06/343]	[IP:10.128.130.5]	[Browser:Chrome - 84.0.4147.135]	[Action:Filtering User : MasterData Username : 06/343]	[Remarks:Successful filter row count: 1]
[Date: 2020-08-27 12:43:32]	[UserID:06/343]	[IP:10.128.130.5]	[Browser:Chrome - 84.0.4147.135]	[Action:Making connection to server]	[Remarks:Successful connection to server: S3]
[Date: 2020-08-27 12:43:32]	[UserID:06/343]	[IP:10.128.130.5]	[Browser:Chrome - 84.0.4147.135]	[Action:GetGSTModules 06/343,1]	[Remarks:Successful filter row count: 7]
[Date: 2020-08-27 12:43:32]	[UserID:06/343]	[IP:10.128.130.5]	[Browser:Chrome - 84.0.4147.135]	[Action:Closing mssql connection]	[Remarks:Success]
[Date: 2020-08-27 12:45:16]	[UserID:06/343]	[IP:10.128.130.5]	[Browser:Chrome - 84.0.4147.135]	[Action:Making connection to server]	[Remarks:Successful connection to server: S3]
[Date: 2020-08-27 12:45:16]	[UserID:06/343]	[IP:10.128.130.5]	[Browser:Chrome - 84.0.4147.135]	[Action:GetGSTModules 06/343,1]	[Remarks:Successful filter row count: 7]
[Date: 2020-08-27 12:45:16]	[UserID:06/343]	[IP:10.128.130.5]	[Browser:Chrome - 84.0.4147.135]	[Action:Closing mssql connection]	[Remarks:Success]
[Date: 2020-08-27 12:51:03]	[UserID:06/343]	[IP:10.128.130.5]	[Browser:Chrome - 84.0.4147.135]	[Action:Making connection to server]	[Remarks:Successful connection to server: S3]
[Date: 2020-08-27 12:51:03]	[UserID:06/343]	[IP:10.128.130.5]	[Browser:Chrome - 84.0.4147.135]	[Action:GetGSTModules 06/343,1]	[Remarks:Successful filter row count: 7]
[Date: 2020-08-27 12:51:03]	[UserID:06/343]	[IP:10.128.130.5]	[Browser:Chrome - 84.0.4147.135]	[Action:Closing mssql connection]	[Remarks:Success]
[Date: 2020-08-27 12:51:53]	[UserID:06/343]	[IP:10.128.130.5]	[Browser:Chrome - 84.0.4147.135]	[Action:Making connection to server]	[Remarks:Successful connection to server: S3]
[Date: 2020-08-27 12:51:53]	[UserID:06/343]	[IP:10.128.130.5]	[Browser:Chrome - 84.0.4147.135]	[Action:GetProgramList 06/343]	[Remarks:[{"ID":"1","ProgramIndex":"GST","ProgramName":"GST"}]]
[Date: 2020-08-27 12:51:53]	[UserID:06/343]	[IP:10.128.130.5]	[Browser:Chrome - 84.0.4147.135]	[Action:Making connection to server]	[Remarks:Successful connection to server: S3]
[Date: 2020-08-27 12:51:53]	[UserID:06/343]	[IP:10.128.130.5]	[Browser:Chrome - 84.0.4147.135]	[Action:GetProgramList 06/343]	[Remarks:[{"ID":"1","ProgramIndex":"GST","ProgramName":"GST"}]]
[Date: 2020-08-27 12:51:53]	[UserID:06/343]	[IP:10.128.130.5]	[Browser:Chrome - 84.0.4147.135]	[Action:Making connection to server]	[Remarks:Successful connection to server: S3]
[Date: 2020-08-27 12:51:53]	[UserID:06/343]	[IP:10.128.130.5]	[Browser:Chrome - 84.0.4147.135]	[Action:Filtering User : MasterData Username : 06/343]	[Remarks:Successful filter row count: 1]
[Date: 2020-08-27 12:51:54]	[UserID:06/343]	[IP:10.128.130.5]	[Browser:Chrome - 84.0.4147.135]	[Action:Making connection to server]	[Remarks:Successful connection to server: S3]
[Date: 2020-08-27 12:51:54]	[UserID:06/343]	[IP:10.128.130.5]	[Browser:Chrome - 84.0.4147.135]	[Action:GetGSTModules 06/343,1]	[Remarks:Successful filter row count: 7]
[Date: 2020-08-27 12:51:54]	[UserID:06/343]	[IP:10.128.130.5]	[Browser:Chrome - 84.0.4147.135]	[Action:Closing mssql connection]	[Remarks:Success]
[Date: 2020-08-27 14:11:27]	[UserID:]	[IP:10.128.12.114]	[Browser:Chrome - 84.0.4147.135]	[Action:Making connection to server]	[Remarks:Successful connection to server: S3]
[Date: 2020-08-27 14:11:27]	[UserID:]	[IP:10.128.12.114]	[Browser:Chrome - 84.0.4147.135]	[Action:GetProgramList ]	[Remarks:"no data"]
[Date: 2020-08-27 14:12:55]	[UserID:14/1082]	[IP:10.128.12.114]	[Browser:Chrome - 84.0.4147.135]	[Action:Making connection to server]	[Remarks:Successful connection to server: S3]
[Date: 2020-08-27 14:12:55]	[UserID:14/1082]	[IP:10.128.12.114]	[Browser:Chrome - 84.0.4147.135]	[Action:User 14/1082]	[Remarks:Success]
[Date: 2020-08-27 14:12:55]	[UserID:14/1082]	[IP:10.128.12.114]	[Browser:Chrome - 84.0.4147.135]	[Action:Filtering User : MasterData Username : 14/1082]	[Remarks:Successful filter row count: 0]
[Date: 2020-08-27 14:12:55]	[UserID:14/1082]	[IP:10.128.12.114]	[Browser:Chrome - 84.0.4147.135]	[Action:Filtering User : MasterData Username : 14/1082]	[Remarks:Successful filter row count: 0]
[Date: 2020-08-27 14:12:55]	[UserID:14/1082]	[IP:10.128.12.114]	[Browser:Chrome - 84.0.4147.135]	[Action:Filtering User : MasterData Username : 14/1082]	[Remarks:Success]
[Date: 2020-08-27 14:12:55]	[UserID:14/1082]	[IP:10.128.12.114]	[Browser:Chrome - 84.0.4147.135]	[Action:Closing mssql connection]	[Remarks:Success]
[Date: 2020-08-27 14:12:55]	[UserID:14/1082]	[IP:10.128.12.114]	[Browser:Chrome - 84.0.4147.135]	[Action:Making connection to server]	[Remarks:Successful connection to server: S3]
[Date: 2020-08-27 14:12:55]	[UserID:14/1082]	[IP:10.128.12.114]	[Browser:Chrome - 84.0.4147.135]	[Action:GetProgramList 14/1082]	[Remarks:[{"ID":"1","ProgramIndex":"GST","ProgramName":"GST"}]]
[Date: 2020-08-27 14:12:55]	[UserID:14/1082]	[IP:10.128.12.114]	[Browser:Chrome - 84.0.4147.135]	[Action:Making connection to server]	[Remarks:Successful connection to server: S3]
[Date: 2020-08-27 14:12:55]	[UserID:14/1082]	[IP:10.128.12.114]	[Browser:Chrome - 84.0.4147.135]	[Action:GetProgramList 14/1082]	[Remarks:[{"ID":"1","ProgramIndex":"GST","ProgramName":"GST"}]]
[Date: 2020-08-27 14:12:55]	[UserID:14/1082]	[IP:10.128.12.114]	[Browser:Chrome - 84.0.4147.135]	[Action:Making connection to server]	[Remarks:Successful connection to server: S3]
[Date: 2020-08-27 14:12:55]	[UserID:14/1082]	[IP:10.128.12.114]	[Browser:Chrome - 84.0.4147.135]	[Action:Filtering User : MasterData Username : 14/1082]	[Remarks:Successful filter row count: 1]
[Date: 2020-08-27 14:12:56]	[UserID:14/1082]	[IP:10.128.12.114]	[Browser:Chrome - 84.0.4147.135]	[Action:Making connection to server]	[Remarks:Successful connection to server: S3]
[Date: 2020-08-27 14:12:56]	[UserID:14/1082]	[IP:10.128.12.114]	[Browser:Chrome - 84.0.4147.135]	[Action:GetGSTModules 14/1082,1]	[Remarks:Successful filter row count: 8]
[Date: 2020-08-27 14:12:56]	[UserID:14/1082]	[IP:10.128.12.114]	[Browser:Chrome - 84.0.4147.135]	[Action:Closing mssql connection]	[Remarks:Success]
[Date: 2020-08-27 18:20:17]	[UserID:14/1082]	[IP:10.128.12.114]	[Browser:Chrome - 84.0.4147.135]	[Action:Making connection to server]	[Remarks:Successful connection to server: S3]
[Date: 2020-08-27 18:20:17]	[UserID:14/1082]	[IP:10.128.12.114]	[Browser:Chrome - 84.0.4147.135]	[Action:GetGSTModules 14/1082,1]	[Remarks:Successful filter row count: 8]
[Date: 2020-08-27 18:20:17]	[UserID:14/1082]	[IP:10.128.12.114]	[Browser:Chrome - 84.0.4147.135]	[Action:Closing mssql connection]	[Remarks:Success]
[Date: 2020-08-27 18:20:25]	[UserID:]	[IP:10.128.12.114]	[Browser:Chrome - 84.0.4147.135]	[Action:Making connection to server]	[Remarks:Successful connection to server: S3]
[Date: 2020-08-27 18:20:25]	[UserID:]	[IP:10.128.12.114]	[Browser:Chrome - 84.0.4147.135]	[Action:GetProgramList ]	[Remarks:"no data"]
[Date: 2020-08-27 19:29:57]	[UserID:]	[IP:10.128.130.5]	[Browser:Chrome - 84.0.4147.135]	[Action:Making connection to server]	[Remarks:Successful connection to server: S3]
[Date: 2020-08-27 19:29:57]	[UserID:]	[IP:10.128.130.5]	[Browser:Chrome - 84.0.4147.135]	[Action:GetProgramList ]	[Remarks:"no data"]
[Date: 2020-08-27 19:30:07]	[UserID:17/1257]	[IP:10.128.130.5]	[Browser:Chrome - 84.0.4147.135]	[Action:Making connection to server]	[Remarks:Successful connection to server: S3]
[Date: 2020-08-27 19:30:07]	[UserID:17/1257]	[IP:10.128.130.5]	[Browser:Chrome - 84.0.4147.135]	[Action:User 17/1257]	[Remarks:Success]
[Date: 2020-08-27 19:30:07]	[UserID:17/1257]	[IP:10.128.130.5]	[Browser:Chrome - 84.0.4147.135]	[Action:Filtering User : MasterData Username : 17/1257]	[Remarks:Successful filter row count: 0]
[Date: 2020-08-27 19:30:07]	[UserID:17/1257]	[IP:10.128.130.5]	[Browser:Chrome - 84.0.4147.135]	[Action:Filtering User : MasterData Username : 17/1257]	[Remarks:Successful filter row count: 0]
[Date: 2020-08-27 19:30:07]	[UserID:17/1257]	[IP:10.128.130.5]	[Browser:Chrome - 84.0.4147.135]	[Action:Filtering User : MasterData Username : 17/1257]	[Remarks:Success]
[Date: 2020-08-27 19:30:07]	[UserID:17/1257]	[IP:10.128.130.5]	[Browser:Chrome - 84.0.4147.135]	[Action:Closing mssql connection]	[Remarks:Success]
[Date: 2020-08-27 19:30:07]	[UserID:17/1257]	[IP:10.128.130.5]	[Browser:Chrome - 84.0.4147.135]	[Action:Making connection to server]	[Remarks:Successful connection to server: S3]
[Date: 2020-08-27 19:30:07]	[UserID:17/1257]	[IP:10.128.130.5]	[Browser:Chrome - 84.0.4147.135]	[Action:GetProgramList 17/1257]	[Remarks:[{"ID":"1","ProgramIndex":"GST","ProgramName":"GST"}]]
[Date: 2020-08-27 19:30:07]	[UserID:17/1257]	[IP:10.128.130.5]	[Browser:Chrome - 84.0.4147.135]	[Action:Making connection to server]	[Remarks:Successful connection to server: S3]
[Date: 2020-08-27 19:30:07]	[UserID:17/1257]	[IP:10.128.130.5]	[Browser:Chrome - 84.0.4147.135]	[Action:GetProgramList 17/1257]	[Remarks:[{"ID":"1","ProgramIndex":"GST","ProgramName":"GST"}]]
[Date: 2020-08-27 19:30:07]	[UserID:17/1257]	[IP:10.128.130.5]	[Browser:Chrome - 84.0.4147.135]	[Action:Making connection to server]	[Remarks:Successful connection to server: S3]
[Date: 2020-08-27 19:30:08]	[UserID:17/1257]	[IP:10.128.130.5]	[Browser:Chrome - 84.0.4147.135]	[Action:Filtering User : MasterData Username : 17/1257]	[Remarks:Successful filter row count: 1]
[Date: 2020-08-27 19:30:08]	[UserID:17/1257]	[IP:10.128.130.5]	[Browser:Chrome - 84.0.4147.135]	[Action:Making connection to server]	[Remarks:Successful connection to server: S3]
[Date: 2020-08-27 19:30:08]	[UserID:17/1257]	[IP:10.128.130.5]	[Browser:Chrome - 84.0.4147.135]	[Action:GetGSTModules 17/1257,1]	[Remarks:Successful filter row count: 5]
[Date: 2020-08-27 19:30:08]	[UserID:17/1257]	[IP:10.128.130.5]	[Browser:Chrome - 84.0.4147.135]	[Action:Closing mssql connection]	[Remarks:Success]
[Date: 2020-08-27 19:36:15]	[UserID:17/1257]	[IP:10.128.130.5]	[Browser:Chrome - 84.0.4147.135]	[Action:Making connection to server]	[Remarks:Successful connection to server: S3]
[Date: 2020-08-27 19:36:15]	[UserID:17/1257]	[IP:10.128.130.5]	[Browser:Chrome - 84.0.4147.135]	[Action:GetGSTModules 17/1257,1]	[Remarks:Successful filter row count: 5]
[Date: 2020-08-27 19:36:15]	[UserID:17/1257]	[IP:10.128.130.5]	[Browser:Chrome - 84.0.4147.135]	[Action:Closing mssql connection]	[Remarks:Success]
[Date: 2020-08-27 20:13:03]	[UserID:]	[IP:10.128.130.5]	[Browser:Chrome - 84.0.4147.135]	[Action:Making connection to server]	[Remarks:Successful connection to server: S3]
[Date: 2020-08-27 20:13:03]	[UserID:]	[IP:10.128.130.5]	[Browser:Chrome - 84.0.4147.135]	[Action:GetProgramList ]	[Remarks:"no data"]
[Date: 2020-08-27 23:10:12]	[UserID:]	[IP:10.128.130.5]	[Browser:Chrome - 85.0.4183.83]	[Action:Making connection to server]	[Remarks:Successful connection to server: S3]
[Date: 2020-08-27 23:10:12]	[UserID:]	[IP:10.128.130.5]	[Browser:Chrome - 85.0.4183.83]	[Action:GetProgramList ]	[Remarks:"no data"]
