[Date: 2015-12-03 08:00:52]	[UserID:]	[IP:10.10.11.1]	[Browser:Google favicon]	[Action:Making connection to server]	[Remarks:Successful connection to server: S3]
[Date: 2015-12-03 08:00:52]	[UserID:]	[IP:10.10.11.1]	[Browser:Google favicon]	[Action:GetProgramList ]	[Remarks:"no data"]
[Date: 2015-12-03 08:17:56]	[UserID:]	[IP:10.10.11.1]	[Browser:Chrome - 46.0.2490.86]	[Action:Making connection to server]	[Remarks:Successful connection to server: S3]
[Date: 2015-12-03 08:17:57]	[UserID:]	[IP:10.10.11.1]	[Browser:Chrome - 46.0.2490.86]	[Action:GetProgramList ]	[Remarks:"no data"]
[Date: 2015-12-03 08:18:00]	[UserID:10/660]	[IP:10.10.11.1]	[Browser:Chrome - 46.0.2490.86]	[Action:Making connection to server]	[Remarks:Successful connection to server: S3]
[Date: 2015-12-03 08:18:00]	[UserID:10/660]	[IP:10.10.11.1]	[Browser:Chrome - 46.0.2490.86]	[Action:User 10/660]	[Remarks:Success]
[Date: 2015-12-03 08:18:00]	[UserID:10/660]	[IP:10.10.11.1]	[Browser:Chrome - 46.0.2490.86]	[Action:Filtering User : MasterData Username : 10/660]	[Remarks:Successful filter row count: 0]
[Date: 2015-12-03 08:18:00]	[UserID:10/660]	[IP:10.10.11.1]	[Browser:Chrome - 46.0.2490.86]	[Action:Filtering User : MasterData Username : 10/660]	[Remarks:Successful filter row count: 0]
[Date: 2015-12-03 08:18:00]	[UserID:10/660]	[IP:10.10.11.1]	[Browser:Chrome - 46.0.2490.86]	[Action:Filtering User : MasterData Username : 10/660]	[Remarks:Success]
[Date: 2015-12-03 08:18:00]	[UserID:10/660]	[IP:10.10.11.1]	[Browser:Chrome - 46.0.2490.86]	[Action:Closing mssql connection]	[Remarks:Success]
[Date: 2015-12-03 08:18:00]	[UserID:10/660]	[IP:10.10.11.1]	[Browser:Chrome - 46.0.2490.86]	[Action:Making connection to server]	[Remarks:Successful connection to server: S3]
[Date: 2015-12-03 08:18:00]	[UserID:10/660]	[IP:10.10.11.1]	[Browser:Chrome - 46.0.2490.86]	[Action:GetProgramList 10/660]	[Remarks:[{"ID":"1","ProgramIndex":"GST","ProgramName":"GST"}]]
[Date: 2015-12-03 08:18:00]	[UserID:10/660]	[IP:10.10.11.1]	[Browser:Chrome - 46.0.2490.86]	[Action:Making connection to server]	[Remarks:Successful connection to server: S3]
[Date: 2015-12-03 08:18:00]	[UserID:10/660]	[IP:10.10.11.1]	[Browser:Chrome - 46.0.2490.86]	[Action:GetProgramList 10/660]	[Remarks:[{"ID":"1","ProgramIndex":"GST","ProgramName":"GST"}]]
[Date: 2015-12-03 08:18:00]	[UserID:10/660]	[IP:10.10.11.1]	[Browser:Chrome - 46.0.2490.86]	[Action:Making connection to server]	[Remarks:Successful connection to server: S3]
[Date: 2015-12-03 08:18:00]	[UserID:10/660]	[IP:10.10.11.1]	[Browser:Chrome - 46.0.2490.86]	[Action:Filtering User : MasterData Username : 10/660]	[Remarks:Successful filter row count: 1]
[Date: 2015-12-03 08:18:01]	[UserID:10/660]	[IP:10.10.11.1]	[Browser:Chrome - 46.0.2490.86]	[Action:Making connection to server]	[Remarks:Successful connection to server: S3]
[Date: 2015-12-03 08:18:01]	[UserID:10/660]	[IP:10.10.11.1]	[Browser:Chrome - 46.0.2490.86]	[Action:GetGSTModules 10/660,1]	[Remarks:Successful filter row count: 3]
[Date: 2015-12-03 08:18:01]	[UserID:10/660]	[IP:10.10.11.1]	[Browser:Chrome - 46.0.2490.86]	[Action:Closing mssql connection]	[Remarks:Success]
[Date: 2015-12-03 08:29:55]	[UserID:]	[IP:10.10.11.1]	[Browser:Chrome - 46.0.2490.86]	[Action:Making connection to server]	[Remarks:Successful connection to server: S3]
[Date: 2015-12-03 08:29:55]	[UserID:]	[IP:10.10.11.1]	[Browser:Chrome - 46.0.2490.86]	[Action:GetProgramList ]	[Remarks:"no data"]
[Date: 2015-12-03 08:30:05]	[UserID:06/371]	[IP:10.10.11.1]	[Browser:Chrome - 46.0.2490.86]	[Action:Making connection to server]	[Remarks:Successful connection to server: S3]
[Date: 2015-12-03 08:30:05]	[UserID:06/371]	[IP:10.10.11.1]	[Browser:Chrome - 46.0.2490.86]	[Action:User 06/371]	[Remarks:Success]
[Date: 2015-12-03 08:30:05]	[UserID:06/371]	[IP:10.10.11.1]	[Browser:Chrome - 46.0.2490.86]	[Action:Filtering User : MasterData Username : 06/371]	[Remarks:Successful filter row count: 0]
[Date: 2015-12-03 08:30:05]	[UserID:06/371]	[IP:10.10.11.1]	[Browser:Chrome - 46.0.2490.86]	[Action:Filtering User : MasterData Username : 06/371]	[Remarks:Successful filter row count: 0]
[Date: 2015-12-03 08:30:05]	[UserID:06/371]	[IP:10.10.11.1]	[Browser:Chrome - 46.0.2490.86]	[Action:Filtering User : MasterData Username : 06/371]	[Remarks:Success]
[Date: 2015-12-03 08:30:05]	[UserID:06/371]	[IP:10.10.11.1]	[Browser:Chrome - 46.0.2490.86]	[Action:Closing mssql connection]	[Remarks:Success]
[Date: 2015-12-03 08:30:05]	[UserID:06/371]	[IP:10.10.11.1]	[Browser:Chrome - 46.0.2490.86]	[Action:Making connection to server]	[Remarks:Successful connection to server: S3]
[Date: 2015-12-03 08:30:05]	[UserID:06/371]	[IP:10.10.11.1]	[Browser:Chrome - 46.0.2490.86]	[Action:GetProgramList 06/371]	[Remarks:[{"ID":"1","ProgramIndex":"GST","ProgramName":"GST"}]]
[Date: 2015-12-03 08:30:05]	[UserID:06/371]	[IP:10.10.11.1]	[Browser:Chrome - 46.0.2490.86]	[Action:Making connection to server]	[Remarks:Successful connection to server: S3]
[Date: 2015-12-03 08:30:05]	[UserID:06/371]	[IP:10.10.11.1]	[Browser:Chrome - 46.0.2490.86]	[Action:GetProgramList 06/371]	[Remarks:[{"ID":"1","ProgramIndex":"GST","ProgramName":"GST"}]]
[Date: 2015-12-03 08:30:05]	[UserID:06/371]	[IP:10.10.11.1]	[Browser:Chrome - 46.0.2490.86]	[Action:Making connection to server]	[Remarks:Successful connection to server: S3]
[Date: 2015-12-03 08:30:05]	[UserID:06/371]	[IP:10.10.11.1]	[Browser:Chrome - 46.0.2490.86]	[Action:Filtering User : MasterData Username : 06/371]	[Remarks:Successful filter row count: 1]
[Date: 2015-12-03 08:30:06]	[UserID:06/371]	[IP:10.10.11.1]	[Browser:Chrome - 46.0.2490.86]	[Action:Making connection to server]	[Remarks:Successful connection to server: S3]
[Date: 2015-12-03 08:30:06]	[UserID:06/371]	[IP:10.10.11.1]	[Browser:Chrome - 46.0.2490.86]	[Action:GetGSTModules 06/371,1]	[Remarks:Successful filter row count: 5]
[Date: 2015-12-03 08:30:06]	[UserID:06/371]	[IP:10.10.11.1]	[Browser:Chrome - 46.0.2490.86]	[Action:Closing mssql connection]	[Remarks:Success]
[Date: 2015-12-03 08:31:08]	[UserID:10/660]	[IP:10.10.11.1]	[Browser:Chrome - 46.0.2490.86]	[Action:Making connection to server]	[Remarks:Successful connection to server: S3]
[Date: 2015-12-03 08:31:08]	[UserID:10/660]	[IP:10.10.11.1]	[Browser:Chrome - 46.0.2490.86]	[Action:GetGSTModules 10/660,1]	[Remarks:Successful filter row count: 3]
[Date: 2015-12-03 08:31:08]	[UserID:10/660]	[IP:10.10.11.1]	[Browser:Chrome - 46.0.2490.86]	[Action:Closing mssql connection]	[Remarks:Success]
[Date: 2015-12-03 08:32:49]	[UserID:10/660]	[IP:10.10.11.1]	[Browser:Chrome - 46.0.2490.86]	[Action:Making connection to server]	[Remarks:Successful connection to server: S3]
[Date: 2015-12-03 08:32:49]	[UserID:10/660]	[IP:10.10.11.1]	[Browser:Chrome - 46.0.2490.86]	[Action:GetGSTModules 10/660,1]	[Remarks:Successful filter row count: 3]
[Date: 2015-12-03 08:32:49]	[UserID:10/660]	[IP:10.10.11.1]	[Browser:Chrome - 46.0.2490.86]	[Action:Closing mssql connection]	[Remarks:Success]
[Date: 2015-12-03 08:33:08]	[UserID:06/371]	[IP:10.10.11.1]	[Browser:Chrome - 46.0.2490.86]	[Action:Making connection to server]	[Remarks:Successful connection to server: S3]
[Date: 2015-12-03 08:33:08]	[UserID:06/371]	[IP:10.10.11.1]	[Browser:Chrome - 46.0.2490.86]	[Action:GetGSTModules 06/371,1]	[Remarks:Successful filter row count: 5]
[Date: 2015-12-03 08:33:08]	[UserID:06/371]	[IP:10.10.11.1]	[Browser:Chrome - 46.0.2490.86]	[Action:Closing mssql connection]	[Remarks:Success]
[Date: 2015-12-03 08:33:13]	[UserID:]	[IP:10.10.11.1]	[Browser:Chrome - 46.0.2490.86]	[Action:Making connection to server]	[Remarks:Successful connection to server: S3]
[Date: 2015-12-03 08:33:13]	[UserID:]	[IP:10.10.11.1]	[Browser:Chrome - 46.0.2490.86]	[Action:GetProgramList ]	[Remarks:"no data"]
[Date: 2015-12-03 08:45:27]	[UserID:06/371]	[IP:10.10.11.1]	[Browser:Chrome - 46.0.2490.86]	[Action:Making connection to server]	[Remarks:Successful connection to server: S3]
[Date: 2015-12-03 08:45:27]	[UserID:06/371]	[IP:10.10.11.1]	[Browser:Chrome - 46.0.2490.86]	[Action:GetGSTModules 06/371,1]	[Remarks:Successful filter row count: 5]
[Date: 2015-12-03 08:45:27]	[UserID:06/371]	[IP:10.10.11.1]	[Browser:Chrome - 46.0.2490.86]	[Action:Closing mssql connection]	[Remarks:Success]
[Date: 2015-12-03 08:46:36]	[UserID:06/371]	[IP:10.10.11.1]	[Browser:Chrome - 46.0.2490.86]	[Action:Making connection to server]	[Remarks:Successful connection to server: S3]
[Date: 2015-12-03 08:46:36]	[UserID:06/371]	[IP:10.10.11.1]	[Browser:Chrome - 46.0.2490.86]	[Action:GetGSTModules 06/371,1]	[Remarks:Successful filter row count: 5]
[Date: 2015-12-03 08:46:36]	[UserID:06/371]	[IP:10.10.11.1]	[Browser:Chrome - 46.0.2490.86]	[Action:Closing mssql connection]	[Remarks:Success]
[Date: 2015-12-03 08:54:25]	[UserID:06/371]	[IP:10.10.11.1]	[Browser:Chrome - 46.0.2490.86]	[Action:Making connection to server]	[Remarks:Successful connection to server: S3]
[Date: 2015-12-03 08:54:25]	[UserID:06/371]	[IP:10.10.11.1]	[Browser:Chrome - 46.0.2490.86]	[Action:GetGSTModules 06/371,1]	[Remarks:Successful filter row count: 5]
[Date: 2015-12-03 08:54:25]	[UserID:06/371]	[IP:10.10.11.1]	[Browser:Chrome - 46.0.2490.86]	[Action:Closing mssql connection]	[Remarks:Success]
[Date: 2015-12-03 09:37:54]	[UserID:]	[IP:10.10.11.1]	[Browser:Chrome - 46.0.2490.86]	[Action:Making connection to server]	[Remarks:Successful connection to server: S3]
[Date: 2015-12-03 09:37:54]	[UserID:]	[IP:10.10.11.1]	[Browser:Chrome - 46.0.2490.86]	[Action:GetProgramList ]	[Remarks:"no data"]
[Date: 2015-12-03 09:38:12]	[UserID:10/660]	[IP:10.10.11.1]	[Browser:Chrome - 46.0.2490.86]	[Action:Making connection to server]	[Remarks:Successful connection to server: S3]
[Date: 2015-12-03 09:38:12]	[UserID:10/660]	[IP:10.10.11.1]	[Browser:Chrome - 46.0.2490.86]	[Action:User 10/660]	[Remarks:Success]
[Date: 2015-12-03 09:38:12]	[UserID:10/660]	[IP:10.10.11.1]	[Browser:Chrome - 46.0.2490.86]	[Action:Filtering User : MasterData Username : 10/660]	[Remarks:Successful filter row count: 0]
[Date: 2015-12-03 09:38:12]	[UserID:10/660]	[IP:10.10.11.1]	[Browser:Chrome - 46.0.2490.86]	[Action:Filtering User : MasterData Username : 10/660]	[Remarks:Successful filter row count: 0]
[Date: 2015-12-03 09:38:12]	[UserID:10/660]	[IP:10.10.11.1]	[Browser:Chrome - 46.0.2490.86]	[Action:Filtering User : MasterData Username : 10/660]	[Remarks:Success]
[Date: 2015-12-03 09:38:12]	[UserID:10/660]	[IP:10.10.11.1]	[Browser:Chrome - 46.0.2490.86]	[Action:Closing mssql connection]	[Remarks:Success]
[Date: 2015-12-03 09:38:13]	[UserID:10/660]	[IP:10.10.11.1]	[Browser:Chrome - 46.0.2490.86]	[Action:Making connection to server]	[Remarks:Successful connection to server: S3]
[Date: 2015-12-03 09:38:13]	[UserID:10/660]	[IP:10.10.11.1]	[Browser:Chrome - 46.0.2490.86]	[Action:GetProgramList 10/660]	[Remarks:[{"ID":"1","ProgramIndex":"GST","ProgramName":"GST"}]]
[Date: 2015-12-03 09:38:13]	[UserID:10/660]	[IP:10.10.11.1]	[Browser:Chrome - 46.0.2490.86]	[Action:Making connection to server]	[Remarks:Successful connection to server: S3]
[Date: 2015-12-03 09:38:13]	[UserID:10/660]	[IP:10.10.11.1]	[Browser:Chrome - 46.0.2490.86]	[Action:GetProgramList 10/660]	[Remarks:[{"ID":"1","ProgramIndex":"GST","ProgramName":"GST"}]]
[Date: 2015-12-03 09:38:13]	[UserID:10/660]	[IP:10.10.11.1]	[Browser:Chrome - 46.0.2490.86]	[Action:Making connection to server]	[Remarks:Successful connection to server: S3]
[Date: 2015-12-03 09:38:13]	[UserID:10/660]	[IP:10.10.11.1]	[Browser:Chrome - 46.0.2490.86]	[Action:Filtering User : MasterData Username : 10/660]	[Remarks:Successful filter row count: 1]
[Date: 2015-12-03 09:38:14]	[UserID:10/660]	[IP:10.10.11.1]	[Browser:Chrome - 46.0.2490.86]	[Action:Making connection to server]	[Remarks:Successful connection to server: S3]
[Date: 2015-12-03 09:38:14]	[UserID:10/660]	[IP:10.10.11.1]	[Browser:Chrome - 46.0.2490.86]	[Action:GetGSTModules 10/660,1]	[Remarks:Successful filter row count: 3]
[Date: 2015-12-03 09:38:14]	[UserID:10/660]	[IP:10.10.11.1]	[Browser:Chrome - 46.0.2490.86]	[Action:Closing mssql connection]	[Remarks:Success]
[Date: 2015-12-03 09:51:23]	[UserID:10/660]	[IP:10.10.11.1]	[Browser:Chrome - 46.0.2490.86]	[Action:Making connection to server]	[Remarks:Successful connection to server: S3]
[Date: 2015-12-03 09:51:23]	[UserID:10/660]	[IP:10.10.11.1]	[Browser:Chrome - 46.0.2490.86]	[Action:GetGSTModules 10/660,1]	[Remarks:Successful filter row count: 3]
[Date: 2015-12-03 09:51:23]	[UserID:10/660]	[IP:10.10.11.1]	[Browser:Chrome - 46.0.2490.86]	[Action:Closing mssql connection]	[Remarks:Success]
[Date: 2015-12-03 09:52:33]	[UserID:]	[IP:10.10.11.1]	[Browser:Chrome - 46.0.2490.86]	[Action:Making connection to server]	[Remarks:Successful connection to server: S3]
[Date: 2015-12-03 09:52:33]	[UserID:]	[IP:10.10.11.1]	[Browser:Chrome - 46.0.2490.86]	[Action:GetProgramList ]	[Remarks:"no data"]
[Date: 2015-12-03 10:33:31]	[UserID:]	[IP:10.10.11.1]	[Browser:Chrome - 47.0.2526.73]	[Action:Making connection to server]	[Remarks:Successful connection to server: S3]
[Date: 2015-12-03 10:33:32]	[UserID:]	[IP:10.10.11.1]	[Browser:Chrome - 47.0.2526.73]	[Action:GetProgramList ]	[Remarks:"no data"]
[Date: 2015-12-03 10:33:38]	[UserID:14/1082]	[IP:10.10.11.1]	[Browser:Chrome - 47.0.2526.73]	[Action:Making connection to server]	[Remarks:Successful connection to server: S3]
[Date: 2015-12-03 10:33:39]	[UserID:14/1082]	[IP:10.10.11.1]	[Browser:Chrome - 47.0.2526.73]	[Action:User 14/1082]	[Remarks:Success]
[Date: 2015-12-03 10:33:39]	[UserID:14/1082]	[IP:10.10.11.1]	[Browser:Chrome - 47.0.2526.73]	[Action:Filtering User : MasterData Username : 14/1082]	[Remarks:Successful filter row count: 0]
[Date: 2015-12-03 10:33:39]	[UserID:14/1082]	[IP:10.10.11.1]	[Browser:Chrome - 47.0.2526.73]	[Action:Filtering User : MasterData Username : 14/1082]	[Remarks:Successful filter row count: 0]
[Date: 2015-12-03 10:33:39]	[UserID:14/1082]	[IP:10.10.11.1]	[Browser:Chrome - 47.0.2526.73]	[Action:Filtering User : MasterData Username : 14/1082]	[Remarks:Success]
[Date: 2015-12-03 10:33:39]	[UserID:14/1082]	[IP:10.10.11.1]	[Browser:Chrome - 47.0.2526.73]	[Action:Closing mssql connection]	[Remarks:Success]
[Date: 2015-12-03 10:33:39]	[UserID:14/1082]	[IP:10.10.11.1]	[Browser:Chrome - 47.0.2526.73]	[Action:Making connection to server]	[Remarks:Successful connection to server: S3]
[Date: 2015-12-03 10:33:39]	[UserID:14/1082]	[IP:10.10.11.1]	[Browser:Chrome - 47.0.2526.73]	[Action:GetProgramList 14/1082]	[Remarks:[{"ID":"1","ProgramIndex":"GST","ProgramName":"GST"}]]
[Date: 2015-12-03 10:33:39]	[UserID:14/1082]	[IP:10.10.11.1]	[Browser:Chrome - 47.0.2526.73]	[Action:Making connection to server]	[Remarks:Successful connection to server: S3]
[Date: 2015-12-03 10:33:39]	[UserID:14/1082]	[IP:10.10.11.1]	[Browser:Chrome - 47.0.2526.73]	[Action:GetProgramList 14/1082]	[Remarks:[{"ID":"1","ProgramIndex":"GST","ProgramName":"GST"}]]
[Date: 2015-12-03 10:33:39]	[UserID:14/1082]	[IP:10.10.11.1]	[Browser:Chrome - 47.0.2526.73]	[Action:Making connection to server]	[Remarks:Successful connection to server: S3]
[Date: 2015-12-03 10:33:39]	[UserID:14/1082]	[IP:10.10.11.1]	[Browser:Chrome - 47.0.2526.73]	[Action:Filtering User : MasterData Username : 14/1082]	[Remarks:Successful filter row count: 1]
[Date: 2015-12-03 10:33:40]	[UserID:14/1082]	[IP:10.10.11.1]	[Browser:Chrome - 47.0.2526.73]	[Action:Making connection to server]	[Remarks:Successful connection to server: S3]
[Date: 2015-12-03 10:33:40]	[UserID:14/1082]	[IP:10.10.11.1]	[Browser:Chrome - 47.0.2526.73]	[Action:GetGSTModules 14/1082,1]	[Remarks:Successful filter row count: 7]
[Date: 2015-12-03 10:33:40]	[UserID:14/1082]	[IP:10.10.11.1]	[Browser:Chrome - 47.0.2526.73]	[Action:Closing mssql connection]	[Remarks:Success]
[Date: 2015-12-03 11:04:17]	[UserID:14/1082]	[IP:10.10.11.1]	[Browser:Chrome - 47.0.2526.73]	[Action:Making connection to server]	[Remarks:Successful connection to server: S3]
[Date: 2015-12-03 11:04:19]	[UserID:14/1082]	[IP:10.10.11.1]	[Browser:Chrome - 47.0.2526.73]	[Action:GetGSTModules 14/1082,1]	[Remarks:Successful filter row count: 7]
[Date: 2015-12-03 11:04:19]	[UserID:14/1082]	[IP:10.10.11.1]	[Browser:Chrome - 47.0.2526.73]	[Action:Closing mssql connection]	[Remarks:Success]
[Date: 2015-12-03 11:28:22]	[UserID:14/1082]	[IP:10.10.11.1]	[Browser:Chrome - 47.0.2526.73]	[Action:Making connection to server]	[Remarks:Successful connection to server: S3]
[Date: 2015-12-03 11:28:22]	[UserID:14/1082]	[IP:10.10.11.1]	[Browser:Chrome - 47.0.2526.73]	[Action:GetGSTModules 14/1082,1]	[Remarks:Successful filter row count: 7]
[Date: 2015-12-03 11:28:22]	[UserID:14/1082]	[IP:10.10.11.1]	[Browser:Chrome - 47.0.2526.73]	[Action:Closing mssql connection]	[Remarks:Success]
[Date: 2015-12-03 14:15:02]	[UserID:14/1082]	[IP:10.10.11.1]	[Browser:Chrome - 47.0.2526.73]	[Action:Making connection to server]	[Remarks:Successful connection to server: S3]
[Date: 2015-12-03 14:15:02]	[UserID:14/1082]	[IP:10.10.11.1]	[Browser:Chrome - 47.0.2526.73]	[Action:GetGSTModules 14/1082,1]	[Remarks:Successful filter row count: 7]
[Date: 2015-12-03 14:15:02]	[UserID:14/1082]	[IP:10.10.11.1]	[Browser:Chrome - 47.0.2526.73]	[Action:Closing mssql connection]	[Remarks:Success]
[Date: 2015-12-03 14:16:09]	[UserID:14/1082]	[IP:10.10.11.1]	[Browser:Chrome - 47.0.2526.73]	[Action:Making connection to server]	[Remarks:Successful connection to server: S3]
[Date: 2015-12-03 14:16:10]	[UserID:14/1082]	[IP:10.10.11.1]	[Browser:Chrome - 47.0.2526.73]	[Action:GetGSTModules 14/1082,1]	[Remarks:Successful filter row count: 7]
[Date: 2015-12-03 14:16:10]	[UserID:14/1082]	[IP:10.10.11.1]	[Browser:Chrome - 47.0.2526.73]	[Action:Closing mssql connection]	[Remarks:Success]
[Date: 2015-12-03 15:01:21]	[UserID:]	[IP:10.10.11.1]	[Browser:Chrome - 47.0.2526.73]	[Action:Making connection to server]	[Remarks:Successful connection to server: S3]
[Date: 2015-12-03 15:01:21]	[UserID:]	[IP:10.10.11.1]	[Browser:Chrome - 47.0.2526.73]	[Action:GetProgramList ]	[Remarks:"no data"]
