[Date: 2019-10-05 08:25:42]	[UserID:]	[IP:10.139.5.105]	[Browser:Firefox - 69.0]	[Action:Making connection to server]	[Remarks:Successful connection to server: S3]
[Date: 2019-10-05 08:25:42]	[UserID:]	[IP:10.139.5.105]	[Browser:Firefox - 69.0]	[Action:GetProgramList ]	[Remarks:"no data"]
[Date: 2019-10-05 09:11:18]	[UserID:]	[IP:10.128.12.114]	[Browser:Chrome - 77.0.3865.90]	[Action:Making connection to server]	[Remarks:Successful connection to server: S3]
[Date: 2019-10-05 09:11:19]	[UserID:]	[IP:10.128.12.114]	[Browser:Chrome - 77.0.3865.90]	[Action:GetProgramList ]	[Remarks:"no data"]
[Date: 2019-10-05 09:11:24]	[UserID:14/1082]	[IP:10.128.12.114]	[Browser:Chrome - 77.0.3865.90]	[Action:Making connection to server]	[Remarks:Successful connection to server: S3]
[Date: 2019-10-05 09:11:24]	[UserID:14/1082]	[IP:10.128.12.114]	[Browser:Chrome - 77.0.3865.90]	[Action:User 14/1082]	[Remarks:Success]
[Date: 2019-10-05 09:11:24]	[UserID:14/1082]	[IP:10.128.12.114]	[Browser:Chrome - 77.0.3865.90]	[Action:Filtering User : MasterData Username : 14/1082]	[Remarks:Successful filter row count: 0]
[Date: 2019-10-05 09:11:24]	[UserID:14/1082]	[IP:10.128.12.114]	[Browser:Chrome - 77.0.3865.90]	[Action:Filtering User : MasterData Username : 14/1082]	[Remarks:Successful filter row count: 0]
[Date: 2019-10-05 09:11:24]	[UserID:14/1082]	[IP:10.128.12.114]	[Browser:Chrome - 77.0.3865.90]	[Action:Filtering User : MasterData Username : 14/1082]	[Remarks:Success]
[Date: 2019-10-05 09:11:24]	[UserID:14/1082]	[IP:10.128.12.114]	[Browser:Chrome - 77.0.3865.90]	[Action:Closing mssql connection]	[Remarks:Success]
[Date: 2019-10-05 09:11:24]	[UserID:14/1082]	[IP:10.128.12.114]	[Browser:Chrome - 77.0.3865.90]	[Action:Making connection to server]	[Remarks:Successful connection to server: S3]
[Date: 2019-10-05 09:11:25]	[UserID:14/1082]	[IP:10.128.12.114]	[Browser:Chrome - 77.0.3865.90]	[Action:GetProgramList 14/1082]	[Remarks:[{"ID":"1","ProgramIndex":"GST","ProgramName":"GST"}]]
[Date: 2019-10-05 09:11:25]	[UserID:14/1082]	[IP:10.128.12.114]	[Browser:Chrome - 77.0.3865.90]	[Action:Making connection to server]	[Remarks:Successful connection to server: S3]
[Date: 2019-10-05 09:11:25]	[UserID:14/1082]	[IP:10.128.12.114]	[Browser:Chrome - 77.0.3865.90]	[Action:GetProgramList 14/1082]	[Remarks:[{"ID":"1","ProgramIndex":"GST","ProgramName":"GST"}]]
[Date: 2019-10-05 09:11:25]	[UserID:14/1082]	[IP:10.128.12.114]	[Browser:Chrome - 77.0.3865.90]	[Action:Making connection to server]	[Remarks:Successful connection to server: S3]
[Date: 2019-10-05 09:11:25]	[UserID:14/1082]	[IP:10.128.12.114]	[Browser:Chrome - 77.0.3865.90]	[Action:Filtering User : MasterData Username : 14/1082]	[Remarks:Successful filter row count: 1]
[Date: 2019-10-05 09:11:25]	[UserID:14/1082]	[IP:10.128.12.114]	[Browser:Chrome - 77.0.3865.90]	[Action:Making connection to server]	[Remarks:Successful connection to server: S3]
[Date: 2019-10-05 09:11:25]	[UserID:14/1082]	[IP:10.128.12.114]	[Browser:Chrome - 77.0.3865.90]	[Action:GetGSTModules 14/1082,1]	[Remarks:Successful filter row count: 8]
[Date: 2019-10-05 09:11:25]	[UserID:14/1082]	[IP:10.128.12.114]	[Browser:Chrome - 77.0.3865.90]	[Action:Closing mssql connection]	[Remarks:Success]
[Date: 2019-10-05 09:47:52]	[UserID:14/1082]	[IP:10.128.12.114]	[Browser:Chrome - 77.0.3865.90]	[Action:Making connection to server]	[Remarks:Successful connection to server: S3]
[Date: 2019-10-05 09:47:53]	[UserID:14/1082]	[IP:10.128.12.114]	[Browser:Chrome - 77.0.3865.90]	[Action:GetProgramList 14/1082]	[Remarks:[{"ID":"1","ProgramIndex":"GST","ProgramName":"GST"}]]
[Date: 2019-10-05 09:47:53]	[UserID:14/1082]	[IP:10.128.12.114]	[Browser:Chrome - 77.0.3865.90]	[Action:Making connection to server]	[Remarks:Successful connection to server: S3]
[Date: 2019-10-05 09:47:53]	[UserID:14/1082]	[IP:10.128.12.114]	[Browser:Chrome - 77.0.3865.90]	[Action:GetProgramList 14/1082]	[Remarks:[{"ID":"1","ProgramIndex":"GST","ProgramName":"GST"}]]
[Date: 2019-10-05 09:47:53]	[UserID:14/1082]	[IP:10.128.12.114]	[Browser:Chrome - 77.0.3865.90]	[Action:Making connection to server]	[Remarks:Successful connection to server: S3]
[Date: 2019-10-05 09:47:53]	[UserID:14/1082]	[IP:10.128.12.114]	[Browser:Chrome - 77.0.3865.90]	[Action:Filtering User : MasterData Username : 14/1082]	[Remarks:Successful filter row count: 1]
[Date: 2019-10-05 09:47:53]	[UserID:14/1082]	[IP:10.128.12.114]	[Browser:Chrome - 77.0.3865.90]	[Action:Making connection to server]	[Remarks:Successful connection to server: S3]
[Date: 2019-10-05 09:47:53]	[UserID:14/1082]	[IP:10.128.12.114]	[Browser:Chrome - 77.0.3865.90]	[Action:GetGSTModules 14/1082,1]	[Remarks:Successful filter row count: 8]
[Date: 2019-10-05 09:47:53]	[UserID:14/1082]	[IP:10.128.12.114]	[Browser:Chrome - 77.0.3865.90]	[Action:Closing mssql connection]	[Remarks:Success]
[Date: 2019-10-05 11:07:12]	[UserID:14/1082]	[IP:10.128.12.114]	[Browser:Chrome - 77.0.3865.90]	[Action:Making connection to server]	[Remarks:Successful connection to server: S3]
[Date: 2019-10-05 11:07:12]	[UserID:14/1082]	[IP:10.128.12.114]	[Browser:Chrome - 77.0.3865.90]	[Action:GetGSTModules 14/1082,1]	[Remarks:Successful filter row count: 8]
[Date: 2019-10-05 11:07:12]	[UserID:14/1082]	[IP:10.128.12.114]	[Browser:Chrome - 77.0.3865.90]	[Action:Closing mssql connection]	[Remarks:Success]
[Date: 2019-10-05 13:44:02]	[UserID:]	[IP:10.128.12.114]	[Browser:Chrome - 77.0.3865.90]	[Action:Making connection to server]	[Remarks:Successful connection to server: S3]
[Date: 2019-10-05 13:44:02]	[UserID:]	[IP:10.128.12.114]	[Browser:Chrome - 77.0.3865.90]	[Action:GetProgramList ]	[Remarks:"no data"]
[Date: 2019-10-05 13:44:10]	[UserID:]	[IP:10.128.12.114]	[Browser:Chrome - 77.0.3865.90]	[Action:Making connection to server]	[Remarks:Successful connection to server: S3]
[Date: 2019-10-05 13:44:10]	[UserID:]	[IP:10.128.12.114]	[Browser:Chrome - 77.0.3865.90]	[Action:GetProgramList ]	[Remarks:"no data"]
[Date: 2019-10-05 23:05:59]	[UserID:]	[IP:10.139.5.101]	[Browser:Chrome - 77.0.3865.90]	[Action:Making connection to server]	[Remarks:Successful connection to server: S3]
[Date: 2019-10-05 23:05:59]	[UserID:]	[IP:10.139.5.101]	[Browser:Chrome - 77.0.3865.90]	[Action:GetProgramList ]	[Remarks:"no data"]
[Date: 2019-10-05 23:29:34]	[UserID:]	[IP:10.139.5.101]	[Browser:Chrome - 77.0.3865.90]	[Action:Making connection to server]	[Remarks:Successful connection to server: S3]
[Date: 2019-10-05 23:29:34]	[UserID:]	[IP:10.139.5.101]	[Browser:Chrome - 77.0.3865.90]	[Action:GetProgramList ]	[Remarks:"no data"]
