[Date: 2018-02-09 18:36:15]	[UserID:]	[IP:10.128.12.210]	[Browser:Chrome - 64.0.3282.140]	[Action:Making connection to server]	[Remarks:Successful connection to server: S3]
[Date: 2018-02-09 18:36:15]	[UserID:]	[IP:10.128.12.210]	[Browser:Chrome - 64.0.3282.140]	[Action:GetProgramList ]	[Remarks:"no data"]
[Date: 2018-02-09 18:36:26]	[UserID:10/660]	[IP:10.128.12.210]	[Browser:Chrome - 64.0.3282.140]	[Action:Making connection to server]	[Remarks:Successful connection to server: S3]
[Date: 2018-02-09 18:36:26]	[UserID:10/660]	[IP:10.128.12.210]	[Browser:Chrome - 64.0.3282.140]	[Action:User 10/660]	[Remarks:Success]
[Date: 2018-02-09 18:36:26]	[UserID:10/660]	[IP:10.128.12.210]	[Browser:Chrome - 64.0.3282.140]	[Action:Filtering User : MasterData Username : 10/660]	[Remarks:Successful filter row count: 0]
[Date: 2018-02-09 18:36:26]	[UserID:10/660]	[IP:10.128.12.210]	[Browser:Chrome - 64.0.3282.140]	[Action:Filtering User : MasterData Username : 10/660]	[Remarks:Successful filter row count: 0]
[Date: 2018-02-09 18:36:26]	[UserID:10/660]	[IP:10.128.12.210]	[Browser:Chrome - 64.0.3282.140]	[Action:Filtering User : MasterData Username : 10/660]	[Remarks:Success]
[Date: 2018-02-09 18:36:26]	[UserID:10/660]	[IP:10.128.12.210]	[Browser:Chrome - 64.0.3282.140]	[Action:Closing mssql connection]	[Remarks:Success]
[Date: 2018-02-09 18:36:26]	[UserID:10/660]	[IP:10.128.12.210]	[Browser:Chrome - 64.0.3282.140]	[Action:Making connection to server]	[Remarks:Successful connection to server: S3]
[Date: 2018-02-09 18:36:26]	[UserID:10/660]	[IP:10.128.12.210]	[Browser:Chrome - 64.0.3282.140]	[Action:GetProgramList 10/660]	[Remarks:[{"ID":"1","ProgramIndex":"GST","ProgramName":"GST"}]]
[Date: 2018-02-09 18:36:26]	[UserID:10/660]	[IP:10.128.12.210]	[Browser:Chrome - 64.0.3282.140]	[Action:Making connection to server]	[Remarks:Successful connection to server: S3]
[Date: 2018-02-09 18:36:26]	[UserID:10/660]	[IP:10.128.12.210]	[Browser:Chrome - 64.0.3282.140]	[Action:GetProgramList 10/660]	[Remarks:[{"ID":"1","ProgramIndex":"GST","ProgramName":"GST"}]]
[Date: 2018-02-09 18:36:26]	[UserID:10/660]	[IP:10.128.12.210]	[Browser:Chrome - 64.0.3282.140]	[Action:Making connection to server]	[Remarks:Successful connection to server: S3]
[Date: 2018-02-09 18:36:26]	[UserID:10/660]	[IP:10.128.12.210]	[Browser:Chrome - 64.0.3282.140]	[Action:Filtering User : MasterData Username : 10/660]	[Remarks:Successful filter row count: 1]
[Date: 2018-02-09 18:36:26]	[UserID:10/660]	[IP:10.128.12.210]	[Browser:Chrome - 64.0.3282.140]	[Action:Making connection to server]	[Remarks:Successful connection to server: S3]
[Date: 2018-02-09 18:36:26]	[UserID:10/660]	[IP:10.128.12.210]	[Browser:Chrome - 64.0.3282.140]	[Action:GetGSTModules 10/660,1]	[Remarks:Successful filter row count: 5]
[Date: 2018-02-09 18:36:26]	[UserID:10/660]	[IP:10.128.12.210]	[Browser:Chrome - 64.0.3282.140]	[Action:Closing mssql connection]	[Remarks:Success]
[Date: 2018-02-09 18:41:11]	[UserID:10/660]	[IP:10.128.12.210]	[Browser:Chrome - 64.0.3282.140]	[Action:Making connection to server]	[Remarks:Successful connection to server: S3]
[Date: 2018-02-09 18:41:11]	[UserID:10/660]	[IP:10.128.12.210]	[Browser:Chrome - 64.0.3282.140]	[Action:GetGSTModules 10/660,1]	[Remarks:Successful filter row count: 5]
[Date: 2018-02-09 18:41:11]	[UserID:10/660]	[IP:10.128.12.210]	[Browser:Chrome - 64.0.3282.140]	[Action:Closing mssql connection]	[Remarks:Success]
[Date: 2018-02-09 18:59:50]	[UserID:10/660]	[IP:10.128.12.210]	[Browser:Chrome - 64.0.3282.140]	[Action:Making connection to server]	[Remarks:Successful connection to server: S3]
[Date: 2018-02-09 18:59:50]	[UserID:10/660]	[IP:10.128.12.210]	[Browser:Chrome - 64.0.3282.140]	[Action:GetGSTModules 10/660,1]	[Remarks:Successful filter row count: 5]
[Date: 2018-02-09 18:59:50]	[UserID:10/660]	[IP:10.128.12.210]	[Browser:Chrome - 64.0.3282.140]	[Action:Closing mssql connection]	[Remarks:Success]
[Date: 2018-02-09 19:00:26]	[UserID:]	[IP:10.128.12.210]	[Browser:Chrome - 64.0.3282.140]	[Action:Making connection to server]	[Remarks:Successful connection to server: S3]
[Date: 2018-02-09 19:00:26]	[UserID:]	[IP:10.128.12.210]	[Browser:Chrome - 64.0.3282.140]	[Action:GetProgramList ]	[Remarks:"no data"]
