[Date: 2019-06-11 08:01:20]	[UserID:]	[IP:10.128.12.120]	[Browser:Chrome - 74.0.3729.169]	[Action:Making connection to server]	[Remarks:Successful connection to server: S3]
[Date: 2019-06-11 08:01:20]	[UserID:]	[IP:10.128.12.120]	[Browser:Chrome - 74.0.3729.169]	[Action:GetProgramList ]	[Remarks:"no data"]
[Date: 2019-06-11 08:01:28]	[UserID:14/1082]	[IP:10.128.12.120]	[Browser:Chrome - 74.0.3729.169]	[Action:Making connection to server]	[Remarks:Successful connection to server: S3]
[Date: 2019-06-11 08:01:28]	[UserID:14/1082]	[IP:10.128.12.120]	[Browser:Chrome - 74.0.3729.169]	[Action:User 14/1082]	[Remarks:Success]
[Date: 2019-06-11 08:01:28]	[UserID:14/1082]	[IP:10.128.12.120]	[Browser:Chrome - 74.0.3729.169]	[Action:Filtering User : MasterData Username : 14/1082]	[Remarks:Successful filter row count: 0]
[Date: 2019-06-11 08:01:28]	[UserID:14/1082]	[IP:10.128.12.120]	[Browser:Chrome - 74.0.3729.169]	[Action:Filtering User : MasterData Username : 14/1082]	[Remarks:Successful filter row count: 0]
[Date: 2019-06-11 08:01:28]	[UserID:14/1082]	[IP:10.128.12.120]	[Browser:Chrome - 74.0.3729.169]	[Action:Filtering User : MasterData Username : 14/1082]	[Remarks:Success]
[Date: 2019-06-11 08:01:28]	[UserID:14/1082]	[IP:10.128.12.120]	[Browser:Chrome - 74.0.3729.169]	[Action:Closing mssql connection]	[Remarks:Success]
[Date: 2019-06-11 08:01:28]	[UserID:14/1082]	[IP:10.128.12.120]	[Browser:Chrome - 74.0.3729.169]	[Action:Making connection to server]	[Remarks:Successful connection to server: S3]
[Date: 2019-06-11 08:01:28]	[UserID:14/1082]	[IP:10.128.12.120]	[Browser:Chrome - 74.0.3729.169]	[Action:GetProgramList 14/1082]	[Remarks:[{"ID":"1","ProgramIndex":"GST","ProgramName":"GST"}]]
[Date: 2019-06-11 08:01:28]	[UserID:14/1082]	[IP:10.128.12.120]	[Browser:Chrome - 74.0.3729.169]	[Action:Making connection to server]	[Remarks:Successful connection to server: S3]
[Date: 2019-06-11 08:01:28]	[UserID:14/1082]	[IP:10.128.12.120]	[Browser:Chrome - 74.0.3729.169]	[Action:GetProgramList 14/1082]	[Remarks:[{"ID":"1","ProgramIndex":"GST","ProgramName":"GST"}]]
[Date: 2019-06-11 08:01:28]	[UserID:14/1082]	[IP:10.128.12.120]	[Browser:Chrome - 74.0.3729.169]	[Action:Making connection to server]	[Remarks:Successful connection to server: S3]
[Date: 2019-06-11 08:01:28]	[UserID:14/1082]	[IP:10.128.12.120]	[Browser:Chrome - 74.0.3729.169]	[Action:Filtering User : MasterData Username : 14/1082]	[Remarks:Successful filter row count: 1]
[Date: 2019-06-11 08:01:28]	[UserID:14/1082]	[IP:10.128.12.120]	[Browser:Chrome - 74.0.3729.169]	[Action:Making connection to server]	[Remarks:Successful connection to server: S3]
[Date: 2019-06-11 08:01:28]	[UserID:14/1082]	[IP:10.128.12.120]	[Browser:Chrome - 74.0.3729.169]	[Action:GetGSTModules 14/1082,1]	[Remarks:Successful filter row count: 7]
[Date: 2019-06-11 08:01:28]	[UserID:14/1082]	[IP:10.128.12.120]	[Browser:Chrome - 74.0.3729.169]	[Action:Closing mssql connection]	[Remarks:Success]
[Date: 2019-06-11 09:22:35]	[UserID:]	[IP:10.128.12.115]	[Browser:Chrome - 74.0.3729.169]	[Action:Making connection to server]	[Remarks:Successful connection to server: S3]
[Date: 2019-06-11 09:22:35]	[UserID:]	[IP:10.128.12.115]	[Browser:Chrome - 74.0.3729.169]	[Action:GetProgramList ]	[Remarks:"no data"]
[Date: 2019-06-11 09:22:41]	[UserID:17/1248]	[IP:10.128.12.115]	[Browser:Chrome - 74.0.3729.169]	[Action:Making connection to server]	[Remarks:Successful connection to server: S3]
[Date: 2019-06-11 09:22:41]	[UserID:17/1248]	[IP:10.128.12.115]	[Browser:Chrome - 74.0.3729.169]	[Action:User 17/1248]	[Remarks:Success]
[Date: 2019-06-11 09:22:41]	[UserID:17/1248]	[IP:10.128.12.115]	[Browser:Chrome - 74.0.3729.169]	[Action:Filtering User : MasterData Username : 17/1248]	[Remarks:Successful filter row count: 0]
[Date: 2019-06-11 09:22:41]	[UserID:17/1248]	[IP:10.128.12.115]	[Browser:Chrome - 74.0.3729.169]	[Action:Filtering User : MasterData Username : 17/1248]	[Remarks:Successful filter row count: 0]
[Date: 2019-06-11 09:22:41]	[UserID:17/1248]	[IP:10.128.12.115]	[Browser:Chrome - 74.0.3729.169]	[Action:Filtering User : MasterData Username : 17/1248]	[Remarks:Success]
[Date: 2019-06-11 09:22:41]	[UserID:17/1248]	[IP:10.128.12.115]	[Browser:Chrome - 74.0.3729.169]	[Action:Closing mssql connection]	[Remarks:Success]
[Date: 2019-06-11 09:22:41]	[UserID:17/1248]	[IP:10.128.12.115]	[Browser:Chrome - 74.0.3729.169]	[Action:Making connection to server]	[Remarks:Successful connection to server: S3]
[Date: 2019-06-11 09:22:41]	[UserID:17/1248]	[IP:10.128.12.115]	[Browser:Chrome - 74.0.3729.169]	[Action:GetProgramList 17/1248]	[Remarks:[{"ID":"1","ProgramIndex":"GST","ProgramName":"GST"}]]
[Date: 2019-06-11 09:22:41]	[UserID:17/1248]	[IP:10.128.12.115]	[Browser:Chrome - 74.0.3729.169]	[Action:Making connection to server]	[Remarks:Successful connection to server: S3]
[Date: 2019-06-11 09:22:41]	[UserID:17/1248]	[IP:10.128.12.115]	[Browser:Chrome - 74.0.3729.169]	[Action:GetProgramList 17/1248]	[Remarks:[{"ID":"1","ProgramIndex":"GST","ProgramName":"GST"}]]
[Date: 2019-06-11 09:22:41]	[UserID:17/1248]	[IP:10.128.12.115]	[Browser:Chrome - 74.0.3729.169]	[Action:Making connection to server]	[Remarks:Successful connection to server: S3]
[Date: 2019-06-11 09:22:41]	[UserID:17/1248]	[IP:10.128.12.115]	[Browser:Chrome - 74.0.3729.169]	[Action:Filtering User : MasterData Username : 17/1248]	[Remarks:Successful filter row count: 1]
[Date: 2019-06-11 09:22:41]	[UserID:17/1248]	[IP:10.128.12.115]	[Browser:Chrome - 74.0.3729.169]	[Action:Making connection to server]	[Remarks:Successful connection to server: S3]
[Date: 2019-06-11 09:22:41]	[UserID:17/1248]	[IP:10.128.12.115]	[Browser:Chrome - 74.0.3729.169]	[Action:GetGSTModules 17/1248,1]	[Remarks:Successful filter row count: 5]
[Date: 2019-06-11 09:22:41]	[UserID:17/1248]	[IP:10.128.12.115]	[Browser:Chrome - 74.0.3729.169]	[Action:Closing mssql connection]	[Remarks:Success]
[Date: 2019-06-11 09:44:16]	[UserID:]	[IP:10.128.12.115]	[Browser:Chrome - 74.0.3729.169]	[Action:Making connection to server]	[Remarks:Successful connection to server: S3]
[Date: 2019-06-11 09:44:16]	[UserID:]	[IP:10.128.12.115]	[Browser:Chrome - 74.0.3729.169]	[Action:GetProgramList ]	[Remarks:"no data"]
[Date: 2019-06-11 10:01:22]	[UserID:14/1082]	[IP:10.128.12.120]	[Browser:Chrome - 74.0.3729.169]	[Action:Making connection to server]	[Remarks:Successful connection to server: S3]
[Date: 2019-06-11 10:01:22]	[UserID:14/1082]	[IP:10.128.12.120]	[Browser:Chrome - 74.0.3729.169]	[Action:GetProgramList 14/1082]	[Remarks:[{"ID":"1","ProgramIndex":"GST","ProgramName":"GST"}]]
[Date: 2019-06-11 10:01:22]	[UserID:14/1082]	[IP:10.128.12.120]	[Browser:Chrome - 74.0.3729.169]	[Action:Making connection to server]	[Remarks:Successful connection to server: S3]
[Date: 2019-06-11 10:01:23]	[UserID:14/1082]	[IP:10.128.12.120]	[Browser:Chrome - 74.0.3729.169]	[Action:GetProgramList 14/1082]	[Remarks:[{"ID":"1","ProgramIndex":"GST","ProgramName":"GST"}]]
[Date: 2019-06-11 10:01:23]	[UserID:14/1082]	[IP:10.128.12.120]	[Browser:Chrome - 74.0.3729.169]	[Action:Making connection to server]	[Remarks:Successful connection to server: S3]
[Date: 2019-06-11 10:01:24]	[UserID:14/1082]	[IP:10.128.12.120]	[Browser:Chrome - 74.0.3729.169]	[Action:Filtering User : MasterData Username : 14/1082]	[Remarks:Successful filter row count: 1]
[Date: 2019-06-11 10:01:24]	[UserID:14/1082]	[IP:10.128.12.120]	[Browser:Chrome - 74.0.3729.169]	[Action:Making connection to server]	[Remarks:Successful connection to server: S3]
[Date: 2019-06-11 10:01:25]	[UserID:14/1082]	[IP:10.128.12.120]	[Browser:Chrome - 74.0.3729.169]	[Action:GetGSTModules 14/1082,1]	[Remarks:Successful filter row count: 7]
[Date: 2019-06-11 10:01:25]	[UserID:14/1082]	[IP:10.128.12.120]	[Browser:Chrome - 74.0.3729.169]	[Action:Closing mssql connection]	[Remarks:Success]
[Date: 2019-06-11 10:02:49]	[UserID:]	[IP:10.128.12.114]	[Browser:Chrome - 74.0.3729.169]	[Action:Making connection to server]	[Remarks:Successful connection to server: S3]
[Date: 2019-06-11 10:02:49]	[UserID:]	[IP:10.128.12.114]	[Browser:Chrome - 74.0.3729.169]	[Action:GetProgramList ]	[Remarks:"no data"]
[Date: 2019-06-11 10:02:56]	[UserID:14/1082]	[IP:10.128.12.114]	[Browser:Chrome - 74.0.3729.169]	[Action:Making connection to server]	[Remarks:Successful connection to server: S3]
[Date: 2019-06-11 10:02:56]	[UserID:14/1082]	[IP:10.128.12.114]	[Browser:Chrome - 74.0.3729.169]	[Action:User 14/1082]	[Remarks:Success]
[Date: 2019-06-11 10:02:56]	[UserID:14/1082]	[IP:10.128.12.114]	[Browser:Chrome - 74.0.3729.169]	[Action:Filtering User : MasterData Username : 14/1082]	[Remarks:Successful filter row count: 0]
[Date: 2019-06-11 10:02:56]	[UserID:14/1082]	[IP:10.128.12.114]	[Browser:Chrome - 74.0.3729.169]	[Action:Filtering User : MasterData Username : 14/1082]	[Remarks:Successful filter row count: 0]
[Date: 2019-06-11 10:02:56]	[UserID:14/1082]	[IP:10.128.12.114]	[Browser:Chrome - 74.0.3729.169]	[Action:Filtering User : MasterData Username : 14/1082]	[Remarks:Success]
[Date: 2019-06-11 10:02:56]	[UserID:14/1082]	[IP:10.128.12.114]	[Browser:Chrome - 74.0.3729.169]	[Action:Closing mssql connection]	[Remarks:Success]
[Date: 2019-06-11 10:02:56]	[UserID:14/1082]	[IP:10.128.12.114]	[Browser:Chrome - 74.0.3729.169]	[Action:Making connection to server]	[Remarks:Successful connection to server: S3]
[Date: 2019-06-11 10:02:56]	[UserID:14/1082]	[IP:10.128.12.114]	[Browser:Chrome - 74.0.3729.169]	[Action:GetProgramList 14/1082]	[Remarks:[{"ID":"1","ProgramIndex":"GST","ProgramName":"GST"}]]
[Date: 2019-06-11 10:02:56]	[UserID:14/1082]	[IP:10.128.12.114]	[Browser:Chrome - 74.0.3729.169]	[Action:Making connection to server]	[Remarks:Successful connection to server: S3]
[Date: 2019-06-11 10:02:56]	[UserID:14/1082]	[IP:10.128.12.114]	[Browser:Chrome - 74.0.3729.169]	[Action:GetProgramList 14/1082]	[Remarks:[{"ID":"1","ProgramIndex":"GST","ProgramName":"GST"}]]
[Date: 2019-06-11 10:02:56]	[UserID:14/1082]	[IP:10.128.12.114]	[Browser:Chrome - 74.0.3729.169]	[Action:Making connection to server]	[Remarks:Successful connection to server: S3]
[Date: 2019-06-11 10:02:56]	[UserID:14/1082]	[IP:10.128.12.114]	[Browser:Chrome - 74.0.3729.169]	[Action:Filtering User : MasterData Username : 14/1082]	[Remarks:Successful filter row count: 1]
[Date: 2019-06-11 10:02:56]	[UserID:14/1082]	[IP:10.128.12.114]	[Browser:Chrome - 74.0.3729.169]	[Action:Making connection to server]	[Remarks:Successful connection to server: S3]
[Date: 2019-06-11 10:02:56]	[UserID:14/1082]	[IP:10.128.12.114]	[Browser:Chrome - 74.0.3729.169]	[Action:GetGSTModules 14/1082,1]	[Remarks:Successful filter row count: 7]
[Date: 2019-06-11 10:02:56]	[UserID:14/1082]	[IP:10.128.12.114]	[Browser:Chrome - 74.0.3729.169]	[Action:Closing mssql connection]	[Remarks:Success]
[Date: 2019-06-11 10:06:45]	[UserID:]	[IP:10.128.12.120]	[Browser:Chrome - 74.0.3729.169]	[Action:Making connection to server]	[Remarks:Successful connection to server: S3]
[Date: 2019-06-11 10:06:45]	[UserID:]	[IP:10.128.12.120]	[Browser:Chrome - 74.0.3729.169]	[Action:GetProgramList ]	[Remarks:"no data"]
[Date: 2019-06-11 10:06:52]	[UserID:14/1082]	[IP:10.128.12.120]	[Browser:Chrome - 74.0.3729.169]	[Action:Making connection to server]	[Remarks:Successful connection to server: S3]
[Date: 2019-06-11 10:06:52]	[UserID:14/1082]	[IP:10.128.12.120]	[Browser:Chrome - 74.0.3729.169]	[Action:User 14/1082]	[Remarks:Success]
[Date: 2019-06-11 10:06:52]	[UserID:14/1082]	[IP:10.128.12.120]	[Browser:Chrome - 74.0.3729.169]	[Action:Filtering User : MasterData Username : 14/1082]	[Remarks:Successful filter row count: 0]
[Date: 2019-06-11 10:06:52]	[UserID:14/1082]	[IP:10.128.12.120]	[Browser:Chrome - 74.0.3729.169]	[Action:Filtering User : MasterData Username : 14/1082]	[Remarks:Successful filter row count: 0]
[Date: 2019-06-11 10:06:52]	[UserID:14/1082]	[IP:10.128.12.120]	[Browser:Chrome - 74.0.3729.169]	[Action:Filtering User : MasterData Username : 14/1082]	[Remarks:Success]
[Date: 2019-06-11 10:06:52]	[UserID:14/1082]	[IP:10.128.12.120]	[Browser:Chrome - 74.0.3729.169]	[Action:Closing mssql connection]	[Remarks:Success]
[Date: 2019-06-11 10:06:52]	[UserID:14/1082]	[IP:10.128.12.120]	[Browser:Chrome - 74.0.3729.169]	[Action:Making connection to server]	[Remarks:Successful connection to server: S3]
[Date: 2019-06-11 10:06:52]	[UserID:14/1082]	[IP:10.128.12.120]	[Browser:Chrome - 74.0.3729.169]	[Action:GetProgramList 14/1082]	[Remarks:[{"ID":"1","ProgramIndex":"GST","ProgramName":"GST"}]]
[Date: 2019-06-11 10:06:52]	[UserID:14/1082]	[IP:10.128.12.120]	[Browser:Chrome - 74.0.3729.169]	[Action:Making connection to server]	[Remarks:Successful connection to server: S3]
[Date: 2019-06-11 10:06:52]	[UserID:14/1082]	[IP:10.128.12.120]	[Browser:Chrome - 74.0.3729.169]	[Action:GetProgramList 14/1082]	[Remarks:[{"ID":"1","ProgramIndex":"GST","ProgramName":"GST"}]]
[Date: 2019-06-11 10:06:52]	[UserID:14/1082]	[IP:10.128.12.120]	[Browser:Chrome - 74.0.3729.169]	[Action:Making connection to server]	[Remarks:Successful connection to server: S3]
[Date: 2019-06-11 10:06:52]	[UserID:14/1082]	[IP:10.128.12.120]	[Browser:Chrome - 74.0.3729.169]	[Action:Filtering User : MasterData Username : 14/1082]	[Remarks:Successful filter row count: 1]
[Date: 2019-06-11 10:06:53]	[UserID:14/1082]	[IP:10.128.12.120]	[Browser:Chrome - 74.0.3729.169]	[Action:Making connection to server]	[Remarks:Successful connection to server: S3]
[Date: 2019-06-11 10:06:53]	[UserID:14/1082]	[IP:10.128.12.120]	[Browser:Chrome - 74.0.3729.169]	[Action:GetGSTModules 14/1082,1]	[Remarks:Successful filter row count: 7]
[Date: 2019-06-11 10:06:53]	[UserID:14/1082]	[IP:10.128.12.120]	[Browser:Chrome - 74.0.3729.169]	[Action:Closing mssql connection]	[Remarks:Success]
[Date: 2019-06-11 10:49:44]	[UserID:]	[IP:10.128.81.9]	[Browser:Chrome - 75.0.3770.80]	[Action:Making connection to server]	[Remarks:Successful connection to server: S3]
[Date: 2019-06-11 10:49:44]	[UserID:]	[IP:10.128.81.9]	[Browser:Chrome - 75.0.3770.80]	[Action:GetProgramList ]	[Remarks:"no data"]
[Date: 2019-06-11 10:49:54]	[UserID:17/1257]	[IP:10.128.81.9]	[Browser:Chrome - 75.0.3770.80]	[Action:Making connection to server]	[Remarks:Successful connection to server: S3]
[Date: 2019-06-11 10:49:54]	[UserID:17/1257]	[IP:10.128.81.9]	[Browser:Chrome - 75.0.3770.80]	[Action:User 17/1257]	[Remarks:Success]
[Date: 2019-06-11 10:49:54]	[UserID:17/1257]	[IP:10.128.81.9]	[Browser:Chrome - 75.0.3770.80]	[Action:Filtering User : MasterData Username : 17/1257]	[Remarks:Successful filter row count: 0]
[Date: 2019-06-11 10:49:54]	[UserID:17/1257]	[IP:10.128.81.9]	[Browser:Chrome - 75.0.3770.80]	[Action:Filtering User : MasterData Username : 17/1257]	[Remarks:Successful filter row count: 0]
[Date: 2019-06-11 10:49:54]	[UserID:17/1257]	[IP:10.128.81.9]	[Browser:Chrome - 75.0.3770.80]	[Action:Filtering User : MasterData Username : 17/1257]	[Remarks:Success]
[Date: 2019-06-11 10:49:54]	[UserID:17/1257]	[IP:10.128.81.9]	[Browser:Chrome - 75.0.3770.80]	[Action:Closing mssql connection]	[Remarks:Success]
[Date: 2019-06-11 10:49:54]	[UserID:17/1257]	[IP:10.128.81.9]	[Browser:Chrome - 75.0.3770.80]	[Action:Making connection to server]	[Remarks:Successful connection to server: S3]
[Date: 2019-06-11 10:49:54]	[UserID:17/1257]	[IP:10.128.81.9]	[Browser:Chrome - 75.0.3770.80]	[Action:GetProgramList 17/1257]	[Remarks:[{"ID":"1","ProgramIndex":"GST","ProgramName":"GST"}]]
[Date: 2019-06-11 10:49:54]	[UserID:17/1257]	[IP:10.128.81.9]	[Browser:Chrome - 75.0.3770.80]	[Action:Making connection to server]	[Remarks:Successful connection to server: S3]
[Date: 2019-06-11 10:49:54]	[UserID:17/1257]	[IP:10.128.81.9]	[Browser:Chrome - 75.0.3770.80]	[Action:GetProgramList 17/1257]	[Remarks:[{"ID":"1","ProgramIndex":"GST","ProgramName":"GST"}]]
[Date: 2019-06-11 10:49:54]	[UserID:17/1257]	[IP:10.128.81.9]	[Browser:Chrome - 75.0.3770.80]	[Action:Making connection to server]	[Remarks:Successful connection to server: S3]
[Date: 2019-06-11 10:49:54]	[UserID:17/1257]	[IP:10.128.81.9]	[Browser:Chrome - 75.0.3770.80]	[Action:Filtering User : MasterData Username : 17/1257]	[Remarks:Successful filter row count: 1]
[Date: 2019-06-11 10:49:54]	[UserID:17/1257]	[IP:10.128.81.9]	[Browser:Chrome - 75.0.3770.80]	[Action:Making connection to server]	[Remarks:Successful connection to server: S3]
[Date: 2019-06-11 10:49:54]	[UserID:17/1257]	[IP:10.128.81.9]	[Browser:Chrome - 75.0.3770.80]	[Action:GetGSTModules 17/1257,1]	[Remarks:Successful filter row count: 4]
[Date: 2019-06-11 10:49:54]	[UserID:17/1257]	[IP:10.128.81.9]	[Browser:Chrome - 75.0.3770.80]	[Action:Closing mssql connection]	[Remarks:Success]
[Date: 2019-06-11 19:53:37]	[UserID:14/1082]	[IP:10.128.12.114]	[Browser:Chrome - 74.0.3729.169]	[Action:Making connection to server]	[Remarks:Successful connection to server: S3]
[Date: 2019-06-11 19:53:37]	[UserID:14/1082]	[IP:10.128.12.114]	[Browser:Chrome - 74.0.3729.169]	[Action:GetGSTModules 14/1082,1]	[Remarks:Successful filter row count: 7]
[Date: 2019-06-11 19:53:37]	[UserID:14/1082]	[IP:10.128.12.114]	[Browser:Chrome - 74.0.3729.169]	[Action:Closing mssql connection]	[Remarks:Success]
[Date: 2019-06-11 19:53:38]	[UserID:]	[IP:10.128.12.114]	[Browser:Chrome - 74.0.3729.169]	[Action:Making connection to server]	[Remarks:Successful connection to server: S3]
[Date: 2019-06-11 19:53:38]	[UserID:]	[IP:10.128.12.114]	[Browser:Chrome - 74.0.3729.169]	[Action:GetProgramList ]	[Remarks:"no data"]
