[Date: 2018-06-20 08:14:52]	[UserID:]	[IP:10.128.12.113]	[Browser:Chrome - 67.0.3396.87]	[Action:Making connection to server]	[Remarks:Successful connection to server: S3]
[Date: 2018-06-20 08:14:52]	[UserID:]	[IP:10.128.12.113]	[Browser:Chrome - 67.0.3396.87]	[Action:GetProgramList ]	[Remarks:"no data"]
[Date: 2018-06-20 08:14:54]	[UserID:06/343]	[IP:10.128.12.113]	[Browser:Chrome - 67.0.3396.87]	[Action:Making connection to server]	[Remarks:Successful connection to server: S3]
[Date: 2018-06-20 08:14:54]	[UserID:06/343]	[IP:10.128.12.113]	[Browser:Chrome - 67.0.3396.87]	[Action:User 06/343]	[Remarks:Success]
[Date: 2018-06-20 08:14:54]	[UserID:06/343]	[IP:10.128.12.113]	[Browser:Chrome - 67.0.3396.87]	[Action:Filtering User : MasterData Username : 06/343]	[Remarks:Successful filter row count: 0]
[Date: 2018-06-20 08:14:54]	[UserID:06/343]	[IP:10.128.12.113]	[Browser:Chrome - 67.0.3396.87]	[Action:Filtering User : MasterData Username : 06/343]	[Remarks:Successful filter row count: 0]
[Date: 2018-06-20 08:14:54]	[UserID:06/343]	[IP:10.128.12.113]	[Browser:Chrome - 67.0.3396.87]	[Action:Filtering User : MasterData Username : 06/343]	[Remarks:Success]
[Date: 2018-06-20 08:14:54]	[UserID:06/343]	[IP:10.128.12.113]	[Browser:Chrome - 67.0.3396.87]	[Action:Closing mssql connection]	[Remarks:Success]
[Date: 2018-06-20 08:14:54]	[UserID:06/343]	[IP:10.128.12.113]	[Browser:Chrome - 67.0.3396.87]	[Action:Making connection to server]	[Remarks:Successful connection to server: S3]
[Date: 2018-06-20 08:14:54]	[UserID:06/343]	[IP:10.128.12.113]	[Browser:Chrome - 67.0.3396.87]	[Action:GetProgramList 06/343]	[Remarks:[{"ID":"1","ProgramIndex":"GST","ProgramName":"GST"}]]
[Date: 2018-06-20 08:14:54]	[UserID:06/343]	[IP:10.128.12.113]	[Browser:Chrome - 67.0.3396.87]	[Action:Making connection to server]	[Remarks:Successful connection to server: S3]
[Date: 2018-06-20 08:14:54]	[UserID:06/343]	[IP:10.128.12.113]	[Browser:Chrome - 67.0.3396.87]	[Action:GetProgramList 06/343]	[Remarks:[{"ID":"1","ProgramIndex":"GST","ProgramName":"GST"}]]
[Date: 2018-06-20 08:14:54]	[UserID:06/343]	[IP:10.128.12.113]	[Browser:Chrome - 67.0.3396.87]	[Action:Making connection to server]	[Remarks:Successful connection to server: S3]
[Date: 2018-06-20 08:14:54]	[UserID:06/343]	[IP:10.128.12.113]	[Browser:Chrome - 67.0.3396.87]	[Action:Filtering User : MasterData Username : 06/343]	[Remarks:Successful filter row count: 1]
[Date: 2018-06-20 08:14:54]	[UserID:06/343]	[IP:10.128.12.113]	[Browser:Chrome - 67.0.3396.87]	[Action:Making connection to server]	[Remarks:Successful connection to server: S3]
[Date: 2018-06-20 08:14:54]	[UserID:06/343]	[IP:10.128.12.113]	[Browser:Chrome - 67.0.3396.87]	[Action:GetGSTModules 06/343,1]	[Remarks:Successful filter row count: 6]
[Date: 2018-06-20 08:14:54]	[UserID:06/343]	[IP:10.128.12.113]	[Browser:Chrome - 67.0.3396.87]	[Action:Closing mssql connection]	[Remarks:Success]
[Date: 2018-06-20 08:15:55]	[UserID:06/343]	[IP:10.128.12.113]	[Browser:Chrome - 67.0.3396.87]	[Action:Making connection to server]	[Remarks:Successful connection to server: S3]
[Date: 2018-06-20 08:15:55]	[UserID:06/343]	[IP:10.128.12.113]	[Browser:Chrome - 67.0.3396.87]	[Action:GetGSTModules 06/343,1]	[Remarks:Successful filter row count: 6]
[Date: 2018-06-20 08:15:55]	[UserID:06/343]	[IP:10.128.12.113]	[Browser:Chrome - 67.0.3396.87]	[Action:Closing mssql connection]	[Remarks:Success]
[Date: 2018-06-20 08:17:59]	[UserID:06/343]	[IP:10.128.12.113]	[Browser:Chrome - 67.0.3396.87]	[Action:Making connection to server]	[Remarks:Successful connection to server: S3]
[Date: 2018-06-20 08:17:59]	[UserID:06/343]	[IP:10.128.12.113]	[Browser:Chrome - 67.0.3396.87]	[Action:GetGSTModules 06/343,1]	[Remarks:Successful filter row count: 6]
[Date: 2018-06-20 08:17:59]	[UserID:06/343]	[IP:10.128.12.113]	[Browser:Chrome - 67.0.3396.87]	[Action:Closing mssql connection]	[Remarks:Success]
[Date: 2018-06-20 09:33:04]	[UserID:]	[IP:10.128.12.210]	[Browser:Chrome - 67.0.3396.87]	[Action:Making connection to server]	[Remarks:Successful connection to server: S3]
[Date: 2018-06-20 09:33:04]	[UserID:]	[IP:10.128.12.210]	[Browser:Chrome - 67.0.3396.87]	[Action:GetProgramList ]	[Remarks:"no data"]
[Date: 2018-06-20 09:33:10]	[UserID:10/660]	[IP:10.128.12.210]	[Browser:Chrome - 67.0.3396.87]	[Action:Making connection to server]	[Remarks:Successful connection to server: S3]
[Date: 2018-06-20 09:33:10]	[UserID:10/660]	[IP:10.128.12.210]	[Browser:Chrome - 67.0.3396.87]	[Action:User 10/660]	[Remarks:Success]
[Date: 2018-06-20 09:33:10]	[UserID:10/660]	[IP:10.128.12.210]	[Browser:Chrome - 67.0.3396.87]	[Action:Filtering User : MasterData Username : 10/660]	[Remarks:Successful filter row count: 0]
[Date: 2018-06-20 09:33:10]	[UserID:10/660]	[IP:10.128.12.210]	[Browser:Chrome - 67.0.3396.87]	[Action:Filtering User : MasterData Username : 10/660]	[Remarks:Successful filter row count: 0]
[Date: 2018-06-20 09:33:10]	[UserID:10/660]	[IP:10.128.12.210]	[Browser:Chrome - 67.0.3396.87]	[Action:Filtering User : MasterData Username : 10/660]	[Remarks:Success]
[Date: 2018-06-20 09:33:10]	[UserID:10/660]	[IP:10.128.12.210]	[Browser:Chrome - 67.0.3396.87]	[Action:Closing mssql connection]	[Remarks:Success]
[Date: 2018-06-20 09:33:10]	[UserID:10/660]	[IP:10.128.12.210]	[Browser:Chrome - 67.0.3396.87]	[Action:Making connection to server]	[Remarks:Successful connection to server: S3]
[Date: 2018-06-20 09:33:11]	[UserID:10/660]	[IP:10.128.12.210]	[Browser:Chrome - 67.0.3396.87]	[Action:GetProgramList 10/660]	[Remarks:[{"ID":"1","ProgramIndex":"GST","ProgramName":"GST"}]]
[Date: 2018-06-20 09:33:11]	[UserID:10/660]	[IP:10.128.12.210]	[Browser:Chrome - 67.0.3396.87]	[Action:Making connection to server]	[Remarks:Successful connection to server: S3]
[Date: 2018-06-20 09:33:11]	[UserID:10/660]	[IP:10.128.12.210]	[Browser:Chrome - 67.0.3396.87]	[Action:GetProgramList 10/660]	[Remarks:[{"ID":"1","ProgramIndex":"GST","ProgramName":"GST"}]]
[Date: 2018-06-20 09:33:11]	[UserID:10/660]	[IP:10.128.12.210]	[Browser:Chrome - 67.0.3396.87]	[Action:Making connection to server]	[Remarks:Successful connection to server: S3]
[Date: 2018-06-20 09:33:11]	[UserID:10/660]	[IP:10.128.12.210]	[Browser:Chrome - 67.0.3396.87]	[Action:Filtering User : MasterData Username : 10/660]	[Remarks:Successful filter row count: 1]
[Date: 2018-06-20 09:33:11]	[UserID:10/660]	[IP:10.128.12.210]	[Browser:Chrome - 67.0.3396.87]	[Action:Making connection to server]	[Remarks:Successful connection to server: S3]
[Date: 2018-06-20 09:33:11]	[UserID:10/660]	[IP:10.128.12.210]	[Browser:Chrome - 67.0.3396.87]	[Action:GetGSTModules 10/660,1]	[Remarks:Successful filter row count: 5]
[Date: 2018-06-20 09:33:11]	[UserID:10/660]	[IP:10.128.12.210]	[Browser:Chrome - 67.0.3396.87]	[Action:Closing mssql connection]	[Remarks:Success]
