[Date: 2016-06-08 08:02:46]	[UserID:]	[IP:10.10.11.1]	[Browser:Chrome - 50.0.2661.102]	[Action:Making connection to server]	[Remarks:Successful connection to server: S3]
[Date: 2016-06-08 08:02:46]	[UserID:]	[IP:10.10.11.1]	[Browser:Chrome - 50.0.2661.102]	[Action:GetProgramList ]	[Remarks:"no data"]
[Date: 2016-06-08 08:07:58]	[UserID:]	[IP:10.10.11.1]	[Browser:Chrome - 50.0.2661.102]	[Action:Making connection to server]	[Remarks:Successful connection to server: S3]
[Date: 2016-06-08 08:07:58]	[UserID:]	[IP:10.10.11.1]	[Browser:Chrome - 50.0.2661.102]	[Action:GetProgramList ]	[Remarks:"no data"]
[Date: 2016-06-08 08:08:02]	[UserID:11/715]	[IP:10.10.11.1]	[Browser:Chrome - 50.0.2661.102]	[Action:Making connection to server]	[Remarks:Successful connection to server: S3]
[Date: 2016-06-08 08:08:02]	[UserID:11/715]	[IP:10.10.11.1]	[Browser:Chrome - 50.0.2661.102]	[Action:User 11/715]	[Remarks:Success]
[Date: 2016-06-08 08:08:02]	[UserID:11/715]	[IP:10.10.11.1]	[Browser:Chrome - 50.0.2661.102]	[Action:Filtering User : MasterData Username : 11/715]	[Remarks:Successful filter row count: 0]
[Date: 2016-06-08 08:08:02]	[UserID:11/715]	[IP:10.10.11.1]	[Browser:Chrome - 50.0.2661.102]	[Action:Filtering User : MasterData Username : 11/715]	[Remarks:Successful filter row count: 0]
[Date: 2016-06-08 08:08:02]	[UserID:11/715]	[IP:10.10.11.1]	[Browser:Chrome - 50.0.2661.102]	[Action:Filtering User : MasterData Username : 11/715]	[Remarks:Success]
[Date: 2016-06-08 08:08:02]	[UserID:11/715]	[IP:10.10.11.1]	[Browser:Chrome - 50.0.2661.102]	[Action:Closing mssql connection]	[Remarks:Success]
[Date: 2016-06-08 08:08:02]	[UserID:11/715]	[IP:10.10.11.1]	[Browser:Chrome - 50.0.2661.102]	[Action:Making connection to server]	[Remarks:Successful connection to server: S3]
[Date: 2016-06-08 08:08:02]	[UserID:11/715]	[IP:10.10.11.1]	[Browser:Chrome - 50.0.2661.102]	[Action:GetProgramList 11/715]	[Remarks:[{"ID":"1","ProgramIndex":"GST","ProgramName":"GST"}]]
[Date: 2016-06-08 08:08:02]	[UserID:11/715]	[IP:10.10.11.1]	[Browser:Chrome - 50.0.2661.102]	[Action:Making connection to server]	[Remarks:Successful connection to server: S3]
[Date: 2016-06-08 08:08:02]	[UserID:11/715]	[IP:10.10.11.1]	[Browser:Chrome - 50.0.2661.102]	[Action:GetProgramList 11/715]	[Remarks:[{"ID":"1","ProgramIndex":"GST","ProgramName":"GST"}]]
[Date: 2016-06-08 08:08:02]	[UserID:11/715]	[IP:10.10.11.1]	[Browser:Chrome - 50.0.2661.102]	[Action:Making connection to server]	[Remarks:Successful connection to server: S3]
[Date: 2016-06-08 08:08:02]	[UserID:11/715]	[IP:10.10.11.1]	[Browser:Chrome - 50.0.2661.102]	[Action:Filtering User : MasterData Username : 11/715]	[Remarks:Successful filter row count: 1]
[Date: 2016-06-08 08:08:03]	[UserID:11/715]	[IP:10.10.11.1]	[Browser:Chrome - 50.0.2661.102]	[Action:Making connection to server]	[Remarks:Successful connection to server: S3]
[Date: 2016-06-08 08:08:03]	[UserID:11/715]	[IP:10.10.11.1]	[Browser:Chrome - 50.0.2661.102]	[Action:GetGSTModules 11/715,1]	[Remarks:Successful filter row count: 3]
[Date: 2016-06-08 08:08:03]	[UserID:11/715]	[IP:10.10.11.1]	[Browser:Chrome - 50.0.2661.102]	[Action:Closing mssql connection]	[Remarks:Success]
[Date: 2016-06-08 08:08:31]	[UserID:11/715]	[IP:10.10.11.1]	[Browser:Chrome - 50.0.2661.102]	[Action:Making connection to server]	[Remarks:Successful connection to server: S3]
[Date: 2016-06-08 08:08:31]	[UserID:11/715]	[IP:10.10.11.1]	[Browser:Chrome - 50.0.2661.102]	[Action:GetProgramList 11/715]	[Remarks:[{"ID":"1","ProgramIndex":"GST","ProgramName":"GST"}]]
[Date: 2016-06-08 08:08:31]	[UserID:11/715]	[IP:10.10.11.1]	[Browser:Chrome - 50.0.2661.102]	[Action:Making connection to server]	[Remarks:Successful connection to server: S3]
[Date: 2016-06-08 08:08:31]	[UserID:11/715]	[IP:10.10.11.1]	[Browser:Chrome - 50.0.2661.102]	[Action:GetProgramList 11/715]	[Remarks:[{"ID":"1","ProgramIndex":"GST","ProgramName":"GST"}]]
[Date: 2016-06-08 08:08:31]	[UserID:11/715]	[IP:10.10.11.1]	[Browser:Chrome - 50.0.2661.102]	[Action:Making connection to server]	[Remarks:Successful connection to server: S3]
[Date: 2016-06-08 08:08:31]	[UserID:11/715]	[IP:10.10.11.1]	[Browser:Chrome - 50.0.2661.102]	[Action:Filtering User : MasterData Username : 11/715]	[Remarks:Successful filter row count: 1]
[Date: 2016-06-08 08:08:32]	[UserID:11/715]	[IP:10.10.11.1]	[Browser:Chrome - 50.0.2661.102]	[Action:Making connection to server]	[Remarks:Successful connection to server: S3]
[Date: 2016-06-08 08:08:32]	[UserID:11/715]	[IP:10.10.11.1]	[Browser:Chrome - 50.0.2661.102]	[Action:GetGSTModules 11/715,1]	[Remarks:Successful filter row count: 3]
[Date: 2016-06-08 08:08:32]	[UserID:11/715]	[IP:10.10.11.1]	[Browser:Chrome - 50.0.2661.102]	[Action:Closing mssql connection]	[Remarks:Success]
[Date: 2016-06-08 08:10:42]	[UserID:11/715]	[IP:10.10.11.1]	[Browser:Chrome - 50.0.2661.102]	[Action:Making connection to server]	[Remarks:Successful connection to server: S3]
[Date: 2016-06-08 08:10:43]	[UserID:11/715]	[IP:10.10.11.1]	[Browser:Chrome - 50.0.2661.102]	[Action:GetGSTModules 11/715,1]	[Remarks:Successful filter row count: 3]
[Date: 2016-06-08 08:10:43]	[UserID:11/715]	[IP:10.10.11.1]	[Browser:Chrome - 50.0.2661.102]	[Action:Closing mssql connection]	[Remarks:Success]
[Date: 2016-06-08 08:16:45]	[UserID:06/343]	[IP:10.10.11.1]	[Browser:Chrome - 50.0.2661.102]	[Action:Making connection to server]	[Remarks:Successful connection to server: S3]
[Date: 2016-06-08 08:16:45]	[UserID:06/343]	[IP:10.10.11.1]	[Browser:Chrome - 50.0.2661.102]	[Action:User 06/343]	[Remarks:Success]
[Date: 2016-06-08 08:16:45]	[UserID:06/343]	[IP:10.10.11.1]	[Browser:Chrome - 50.0.2661.102]	[Action:Filtering User : MasterData Username : 06/343]	[Remarks:Successful filter row count: 0]
[Date: 2016-06-08 08:16:45]	[UserID:06/343]	[IP:10.10.11.1]	[Browser:Chrome - 50.0.2661.102]	[Action:Filtering User : MasterData Username : 06/343]	[Remarks:Successful filter row count: 0]
[Date: 2016-06-08 08:16:45]	[UserID:06/343]	[IP:10.10.11.1]	[Browser:Chrome - 50.0.2661.102]	[Action:Filtering User : MasterData Username : 06/343]	[Remarks:Success]
[Date: 2016-06-08 08:16:45]	[UserID:06/343]	[IP:10.10.11.1]	[Browser:Chrome - 50.0.2661.102]	[Action:Closing mssql connection]	[Remarks:Success]
[Date: 2016-06-08 08:16:45]	[UserID:06/343]	[IP:10.10.11.1]	[Browser:Chrome - 50.0.2661.102]	[Action:Making connection to server]	[Remarks:Successful connection to server: S3]
[Date: 2016-06-08 08:16:45]	[UserID:06/343]	[IP:10.10.11.1]	[Browser:Chrome - 50.0.2661.102]	[Action:GetProgramList 06/343]	[Remarks:[{"ID":"1","ProgramIndex":"GST","ProgramName":"GST"}]]
[Date: 2016-06-08 08:16:45]	[UserID:06/343]	[IP:10.10.11.1]	[Browser:Chrome - 50.0.2661.102]	[Action:Making connection to server]	[Remarks:Successful connection to server: S3]
[Date: 2016-06-08 08:16:45]	[UserID:06/343]	[IP:10.10.11.1]	[Browser:Chrome - 50.0.2661.102]	[Action:GetProgramList 06/343]	[Remarks:[{"ID":"1","ProgramIndex":"GST","ProgramName":"GST"}]]
[Date: 2016-06-08 08:16:45]	[UserID:06/343]	[IP:10.10.11.1]	[Browser:Chrome - 50.0.2661.102]	[Action:Making connection to server]	[Remarks:Successful connection to server: S3]
[Date: 2016-06-08 08:16:45]	[UserID:06/343]	[IP:10.10.11.1]	[Browser:Chrome - 50.0.2661.102]	[Action:Filtering User : MasterData Username : 06/343]	[Remarks:Successful filter row count: 1]
[Date: 2016-06-08 08:16:46]	[UserID:06/343]	[IP:10.10.11.1]	[Browser:Chrome - 50.0.2661.102]	[Action:Making connection to server]	[Remarks:Successful connection to server: S3]
[Date: 2016-06-08 08:16:46]	[UserID:06/343]	[IP:10.10.11.1]	[Browser:Chrome - 50.0.2661.102]	[Action:GetGSTModules 06/343,1]	[Remarks:Successful filter row count: 5]
[Date: 2016-06-08 08:16:46]	[UserID:06/343]	[IP:10.10.11.1]	[Browser:Chrome - 50.0.2661.102]	[Action:Closing mssql connection]	[Remarks:Success]
[Date: 2016-06-08 08:22:17]	[UserID:06/343]	[IP:10.10.11.1]	[Browser:Chrome - 50.0.2661.102]	[Action:Making connection to server]	[Remarks:Successful connection to server: S3]
[Date: 2016-06-08 08:22:17]	[UserID:06/343]	[IP:10.10.11.1]	[Browser:Chrome - 50.0.2661.102]	[Action:GetGSTModules 06/343,1]	[Remarks:Successful filter row count: 5]
[Date: 2016-06-08 08:22:17]	[UserID:06/343]	[IP:10.10.11.1]	[Browser:Chrome - 50.0.2661.102]	[Action:Closing mssql connection]	[Remarks:Success]
[Date: 2016-06-08 08:27:06]	[UserID:06/343]	[IP:10.10.11.1]	[Browser:Chrome - 50.0.2661.102]	[Action:Making connection to server]	[Remarks:Successful connection to server: S3]
[Date: 2016-06-08 08:27:06]	[UserID:06/343]	[IP:10.10.11.1]	[Browser:Chrome - 50.0.2661.102]	[Action:GetGSTModules 06/343,1]	[Remarks:Successful filter row count: 5]
[Date: 2016-06-08 08:27:06]	[UserID:06/343]	[IP:10.10.11.1]	[Browser:Chrome - 50.0.2661.102]	[Action:Closing mssql connection]	[Remarks:Success]
[Date: 2016-06-08 09:11:03]	[UserID:06/343]	[IP:10.10.11.1]	[Browser:Chrome - 50.0.2661.102]	[Action:Making connection to server]	[Remarks:Successful connection to server: S3]
[Date: 2016-06-08 09:11:04]	[UserID:06/343]	[IP:10.10.11.1]	[Browser:Chrome - 50.0.2661.102]	[Action:GetGSTModules 06/343,1]	[Remarks:Successful filter row count: 5]
[Date: 2016-06-08 09:11:04]	[UserID:06/343]	[IP:10.10.11.1]	[Browser:Chrome - 50.0.2661.102]	[Action:Closing mssql connection]	[Remarks:Success]
[Date: 2016-06-08 09:13:21]	[UserID:06/343]	[IP:10.10.11.1]	[Browser:Chrome - 50.0.2661.102]	[Action:Making connection to server]	[Remarks:Successful connection to server: S3]
[Date: 2016-06-08 09:13:21]	[UserID:06/343]	[IP:10.10.11.1]	[Browser:Chrome - 50.0.2661.102]	[Action:GetGSTModules 06/343,1]	[Remarks:Successful filter row count: 5]
[Date: 2016-06-08 09:13:21]	[UserID:06/343]	[IP:10.10.11.1]	[Browser:Chrome - 50.0.2661.102]	[Action:Closing mssql connection]	[Remarks:Success]
[Date: 2016-06-08 09:13:25]	[UserID:06/343]	[IP:10.10.11.1]	[Browser:Chrome - 50.0.2661.102]	[Action:Making connection to server]	[Remarks:Successful connection to server: S3]
[Date: 2016-06-08 09:13:25]	[UserID:06/343]	[IP:10.10.11.1]	[Browser:Chrome - 50.0.2661.102]	[Action:GetGSTModules 06/343,1]	[Remarks:Successful filter row count: 5]
[Date: 2016-06-08 09:13:25]	[UserID:06/343]	[IP:10.10.11.1]	[Browser:Chrome - 50.0.2661.102]	[Action:Closing mssql connection]	[Remarks:Success]
[Date: 2016-06-08 09:21:06]	[UserID:06/343]	[IP:10.10.11.1]	[Browser:Chrome - 50.0.2661.102]	[Action:Making connection to server]	[Remarks:Successful connection to server: S3]
[Date: 2016-06-08 09:21:06]	[UserID:06/343]	[IP:10.10.11.1]	[Browser:Chrome - 50.0.2661.102]	[Action:GetGSTModules 06/343,1]	[Remarks:Successful filter row count: 5]
[Date: 2016-06-08 09:21:06]	[UserID:06/343]	[IP:10.10.11.1]	[Browser:Chrome - 50.0.2661.102]	[Action:Closing mssql connection]	[Remarks:Success]
[Date: 2016-06-08 09:21:22]	[UserID:06/343]	[IP:10.10.11.1]	[Browser:Chrome - 50.0.2661.102]	[Action:Making connection to server]	[Remarks:Successful connection to server: S3]
[Date: 2016-06-08 09:21:22]	[UserID:06/343]	[IP:10.10.11.1]	[Browser:Chrome - 50.0.2661.102]	[Action:GetGSTModules 06/343,1]	[Remarks:Successful filter row count: 5]
[Date: 2016-06-08 09:21:22]	[UserID:06/343]	[IP:10.10.11.1]	[Browser:Chrome - 50.0.2661.102]	[Action:Closing mssql connection]	[Remarks:Success]
[Date: 2016-06-08 09:44:09]	[UserID:]	[IP:10.10.11.1]	[Browser:Chrome - 50.0.2661.102]	[Action:Making connection to server]	[Remarks:Successful connection to server: S3]
[Date: 2016-06-08 09:44:09]	[UserID:]	[IP:10.10.11.1]	[Browser:Chrome - 50.0.2661.102]	[Action:GetProgramList ]	[Remarks:"no data"]
[Date: 2016-06-08 09:44:11]	[UserID:10/660]	[IP:10.10.11.1]	[Browser:Chrome - 50.0.2661.102]	[Action:Making connection to server]	[Remarks:Successful connection to server: S3]
[Date: 2016-06-08 09:44:11]	[UserID:10/660]	[IP:10.10.11.1]	[Browser:Chrome - 50.0.2661.102]	[Action:User 10/660]	[Remarks:Success]
[Date: 2016-06-08 09:44:11]	[UserID:10/660]	[IP:10.10.11.1]	[Browser:Chrome - 50.0.2661.102]	[Action:Filtering User : MasterData Username : 10/660]	[Remarks:Successful filter row count: 0]
[Date: 2016-06-08 09:44:11]	[UserID:10/660]	[IP:10.10.11.1]	[Browser:Chrome - 50.0.2661.102]	[Action:Filtering User : MasterData Username : 10/660]	[Remarks:Successful filter row count: 0]
[Date: 2016-06-08 09:44:11]	[UserID:10/660]	[IP:10.10.11.1]	[Browser:Chrome - 50.0.2661.102]	[Action:Filtering User : MasterData Username : 10/660]	[Remarks:Success]
[Date: 2016-06-08 09:44:11]	[UserID:10/660]	[IP:10.10.11.1]	[Browser:Chrome - 50.0.2661.102]	[Action:Closing mssql connection]	[Remarks:Success]
[Date: 2016-06-08 09:44:11]	[UserID:10/660]	[IP:10.10.11.1]	[Browser:Chrome - 50.0.2661.102]	[Action:Making connection to server]	[Remarks:Successful connection to server: S3]
[Date: 2016-06-08 09:44:11]	[UserID:10/660]	[IP:10.10.11.1]	[Browser:Chrome - 50.0.2661.102]	[Action:GetProgramList 10/660]	[Remarks:[{"ID":"1","ProgramIndex":"GST","ProgramName":"GST"}]]
[Date: 2016-06-08 09:44:11]	[UserID:10/660]	[IP:10.10.11.1]	[Browser:Chrome - 50.0.2661.102]	[Action:Making connection to server]	[Remarks:Successful connection to server: S3]
[Date: 2016-06-08 09:44:11]	[UserID:10/660]	[IP:10.10.11.1]	[Browser:Chrome - 50.0.2661.102]	[Action:GetProgramList 10/660]	[Remarks:[{"ID":"1","ProgramIndex":"GST","ProgramName":"GST"}]]
[Date: 2016-06-08 09:44:11]	[UserID:10/660]	[IP:10.10.11.1]	[Browser:Chrome - 50.0.2661.102]	[Action:Making connection to server]	[Remarks:Successful connection to server: S3]
[Date: 2016-06-08 09:44:11]	[UserID:10/660]	[IP:10.10.11.1]	[Browser:Chrome - 50.0.2661.102]	[Action:Filtering User : MasterData Username : 10/660]	[Remarks:Successful filter row count: 1]
[Date: 2016-06-08 09:44:12]	[UserID:10/660]	[IP:10.10.11.1]	[Browser:Chrome - 50.0.2661.102]	[Action:Making connection to server]	[Remarks:Successful connection to server: S3]
[Date: 2016-06-08 09:44:12]	[UserID:10/660]	[IP:10.10.11.1]	[Browser:Chrome - 50.0.2661.102]	[Action:GetGSTModules 10/660,1]	[Remarks:Successful filter row count: 3]
[Date: 2016-06-08 09:44:12]	[UserID:10/660]	[IP:10.10.11.1]	[Browser:Chrome - 50.0.2661.102]	[Action:Closing mssql connection]	[Remarks:Success]
[Date: 2016-06-08 09:46:55]	[UserID:10/660]	[IP:10.10.11.1]	[Browser:Chrome - 50.0.2661.102]	[Action:Making connection to server]	[Remarks:Successful connection to server: S3]
[Date: 2016-06-08 09:46:55]	[UserID:10/660]	[IP:10.10.11.1]	[Browser:Chrome - 50.0.2661.102]	[Action:GetGSTModules 10/660,1]	[Remarks:Successful filter row count: 3]
[Date: 2016-06-08 09:46:55]	[UserID:10/660]	[IP:10.10.11.1]	[Browser:Chrome - 50.0.2661.102]	[Action:Closing mssql connection]	[Remarks:Success]
[Date: 2016-06-08 09:51:10]	[UserID:10/660]	[IP:10.10.11.1]	[Browser:Chrome - 50.0.2661.102]	[Action:Making connection to server]	[Remarks:Successful connection to server: S3]
[Date: 2016-06-08 09:51:12]	[UserID:10/660]	[IP:10.10.11.1]	[Browser:Chrome - 50.0.2661.102]	[Action:GetGSTModules 10/660,1]	[Remarks:Successful filter row count: 3]
[Date: 2016-06-08 09:51:12]	[UserID:10/660]	[IP:10.10.11.1]	[Browser:Chrome - 50.0.2661.102]	[Action:Closing mssql connection]	[Remarks:Success]
[Date: 2016-06-08 09:51:35]	[UserID:]	[IP:10.10.11.1]	[Browser:Chrome - 50.0.2661.102]	[Action:Making connection to server]	[Remarks:Successful connection to server: S3]
[Date: 2016-06-08 09:51:35]	[UserID:]	[IP:10.10.11.1]	[Browser:Chrome - 50.0.2661.102]	[Action:GetProgramList ]	[Remarks:"no data"]
[Date: 2016-06-08 10:15:03]	[UserID:]	[IP:10.10.11.1]	[Browser:Chrome - 50.0.2661.102]	[Action:Making connection to server]	[Remarks:Successful connection to server: S3]
[Date: 2016-06-08 10:15:03]	[UserID:]	[IP:10.10.11.1]	[Browser:Chrome - 50.0.2661.102]	[Action:GetProgramList ]	[Remarks:"no data"]
[Date: 2016-06-08 10:15:08]	[UserID:08/504]	[IP:10.10.11.1]	[Browser:Chrome - 50.0.2661.102]	[Action:Making connection to server]	[Remarks:Successful connection to server: S3]
[Date: 2016-06-08 10:15:08]	[UserID:08/504]	[IP:10.10.11.1]	[Browser:Chrome - 50.0.2661.102]	[Action:User 08/504]	[Remarks:Success]
[Date: 2016-06-08 10:15:08]	[UserID:08/504]	[IP:10.10.11.1]	[Browser:Chrome - 50.0.2661.102]	[Action:Filtering User : MasterData Username : 08/504]	[Remarks:Successful filter row count: 0]
[Date: 2016-06-08 10:15:08]	[UserID:08/504]	[IP:10.10.11.1]	[Browser:Chrome - 50.0.2661.102]	[Action:Filtering User : MasterData Username : 08/504]	[Remarks:Successful filter row count: 0]
[Date: 2016-06-08 10:15:08]	[UserID:08/504]	[IP:10.10.11.1]	[Browser:Chrome - 50.0.2661.102]	[Action:Filtering User : MasterData Username : 08/504]	[Remarks:Success]
[Date: 2016-06-08 10:15:08]	[UserID:08/504]	[IP:10.10.11.1]	[Browser:Chrome - 50.0.2661.102]	[Action:Closing mssql connection]	[Remarks:Success]
[Date: 2016-06-08 10:15:08]	[UserID:08/504]	[IP:10.10.11.1]	[Browser:Chrome - 50.0.2661.102]	[Action:Making connection to server]	[Remarks:Successful connection to server: S3]
[Date: 2016-06-08 10:15:08]	[UserID:08/504]	[IP:10.10.11.1]	[Browser:Chrome - 50.0.2661.102]	[Action:GetProgramList 08/504]	[Remarks:[{"ID":"1","ProgramIndex":"GST","ProgramName":"GST"}]]
[Date: 2016-06-08 10:15:08]	[UserID:08/504]	[IP:10.10.11.1]	[Browser:Chrome - 50.0.2661.102]	[Action:Making connection to server]	[Remarks:Successful connection to server: S3]
[Date: 2016-06-08 10:15:08]	[UserID:08/504]	[IP:10.10.11.1]	[Browser:Chrome - 50.0.2661.102]	[Action:GetProgramList 08/504]	[Remarks:[{"ID":"1","ProgramIndex":"GST","ProgramName":"GST"}]]
[Date: 2016-06-08 10:15:08]	[UserID:08/504]	[IP:10.10.11.1]	[Browser:Chrome - 50.0.2661.102]	[Action:Making connection to server]	[Remarks:Successful connection to server: S3]
[Date: 2016-06-08 10:15:08]	[UserID:08/504]	[IP:10.10.11.1]	[Browser:Chrome - 50.0.2661.102]	[Action:Filtering User : MasterData Username : 08/504]	[Remarks:Successful filter row count: 1]
[Date: 2016-06-08 10:15:09]	[UserID:08/504]	[IP:10.10.11.1]	[Browser:Chrome - 50.0.2661.102]	[Action:Making connection to server]	[Remarks:Successful connection to server: S3]
[Date: 2016-06-08 10:15:09]	[UserID:08/504]	[IP:10.10.11.1]	[Browser:Chrome - 50.0.2661.102]	[Action:GetGSTModules 08/504,1]	[Remarks:Successful filter row count: 5]
[Date: 2016-06-08 10:15:09]	[UserID:08/504]	[IP:10.10.11.1]	[Browser:Chrome - 50.0.2661.102]	[Action:Closing mssql connection]	[Remarks:Success]
[Date: 2016-06-08 10:16:21]	[UserID:08/504]	[IP:10.10.11.1]	[Browser:Chrome - 50.0.2661.102]	[Action:Making connection to server]	[Remarks:Successful connection to server: S3]
[Date: 2016-06-08 10:16:21]	[UserID:08/504]	[IP:10.10.11.1]	[Browser:Chrome - 50.0.2661.102]	[Action:GetGSTModules 08/504,1]	[Remarks:Successful filter row count: 5]
[Date: 2016-06-08 10:16:21]	[UserID:08/504]	[IP:10.10.11.1]	[Browser:Chrome - 50.0.2661.102]	[Action:Closing mssql connection]	[Remarks:Success]
[Date: 2016-06-08 10:25:50]	[UserID:08/504]	[IP:10.10.11.1]	[Browser:Chrome - 50.0.2661.102]	[Action:Making connection to server]	[Remarks:Successful connection to server: S3]
[Date: 2016-06-08 10:25:50]	[UserID:08/504]	[IP:10.10.11.1]	[Browser:Chrome - 50.0.2661.102]	[Action:GetGSTModules 08/504,1]	[Remarks:Successful filter row count: 5]
[Date: 2016-06-08 10:25:50]	[UserID:08/504]	[IP:10.10.11.1]	[Browser:Chrome - 50.0.2661.102]	[Action:Closing mssql connection]	[Remarks:Success]
[Date: 2016-06-08 10:51:15]	[UserID:08/504]	[IP:10.10.11.1]	[Browser:Chrome - 50.0.2661.102]	[Action:Making connection to server]	[Remarks:Successful connection to server: S3]
[Date: 2016-06-08 10:51:16]	[UserID:08/504]	[IP:10.10.11.1]	[Browser:Chrome - 50.0.2661.102]	[Action:GetGSTModules 08/504,1]	[Remarks:Successful filter row count: 5]
[Date: 2016-06-08 10:51:16]	[UserID:08/504]	[IP:10.10.11.1]	[Browser:Chrome - 50.0.2661.102]	[Action:Closing mssql connection]	[Remarks:Success]
[Date: 2016-06-08 10:55:42]	[UserID:08/504]	[IP:10.10.11.1]	[Browser:Chrome - 50.0.2661.102]	[Action:Making connection to server]	[Remarks:Successful connection to server: S3]
[Date: 2016-06-08 10:55:42]	[UserID:08/504]	[IP:10.10.11.1]	[Browser:Chrome - 50.0.2661.102]	[Action:GetGSTModules 08/504,1]	[Remarks:Successful filter row count: 5]
[Date: 2016-06-08 10:55:42]	[UserID:08/504]	[IP:10.10.11.1]	[Browser:Chrome - 50.0.2661.102]	[Action:Closing mssql connection]	[Remarks:Success]
[Date: 2016-06-08 13:55:53]	[UserID:08/504]	[IP:10.10.11.1]	[Browser:Chrome - 50.0.2661.102]	[Action:Making connection to server]	[Remarks:Successful connection to server: S3]
[Date: 2016-06-08 13:55:53]	[UserID:08/504]	[IP:10.10.11.1]	[Browser:Chrome - 50.0.2661.102]	[Action:GetProgramList 08/504]	[Remarks:[{"ID":"1","ProgramIndex":"GST","ProgramName":"GST"}]]
[Date: 2016-06-08 13:55:53]	[UserID:08/504]	[IP:10.10.11.1]	[Browser:Chrome - 50.0.2661.102]	[Action:Making connection to server]	[Remarks:Successful connection to server: S3]
[Date: 2016-06-08 13:55:53]	[UserID:08/504]	[IP:10.10.11.1]	[Browser:Chrome - 50.0.2661.102]	[Action:GetProgramList 08/504]	[Remarks:[{"ID":"1","ProgramIndex":"GST","ProgramName":"GST"}]]
[Date: 2016-06-08 13:55:53]	[UserID:08/504]	[IP:10.10.11.1]	[Browser:Chrome - 50.0.2661.102]	[Action:Making connection to server]	[Remarks:Successful connection to server: S3]
[Date: 2016-06-08 13:55:53]	[UserID:08/504]	[IP:10.10.11.1]	[Browser:Chrome - 50.0.2661.102]	[Action:Filtering User : MasterData Username : 08/504]	[Remarks:Successful filter row count: 1]
[Date: 2016-06-08 13:55:54]	[UserID:08/504]	[IP:10.10.11.1]	[Browser:Chrome - 50.0.2661.102]	[Action:Making connection to server]	[Remarks:Successful connection to server: S3]
[Date: 2016-06-08 13:55:54]	[UserID:08/504]	[IP:10.10.11.1]	[Browser:Chrome - 50.0.2661.102]	[Action:GetGSTModules 08/504,1]	[Remarks:Successful filter row count: 5]
[Date: 2016-06-08 13:55:54]	[UserID:08/504]	[IP:10.10.11.1]	[Browser:Chrome - 50.0.2661.102]	[Action:Closing mssql connection]	[Remarks:Success]
[Date: 2016-06-08 14:42:17]	[UserID:08/504]	[IP:10.10.11.1]	[Browser:Chrome - 50.0.2661.102]	[Action:Making connection to server]	[Remarks:Successful connection to server: S3]
[Date: 2016-06-08 14:42:18]	[UserID:08/504]	[IP:10.10.11.1]	[Browser:Chrome - 50.0.2661.102]	[Action:GetProgramList 08/504]	[Remarks:[{"ID":"1","ProgramIndex":"GST","ProgramName":"GST"}]]
[Date: 2016-06-08 14:42:18]	[UserID:08/504]	[IP:10.10.11.1]	[Browser:Chrome - 50.0.2661.102]	[Action:Making connection to server]	[Remarks:Successful connection to server: S3]
[Date: 2016-06-08 14:42:18]	[UserID:08/504]	[IP:10.10.11.1]	[Browser:Chrome - 50.0.2661.102]	[Action:GetProgramList 08/504]	[Remarks:[{"ID":"1","ProgramIndex":"GST","ProgramName":"GST"}]]
[Date: 2016-06-08 14:42:18]	[UserID:08/504]	[IP:10.10.11.1]	[Browser:Chrome - 50.0.2661.102]	[Action:Making connection to server]	[Remarks:Successful connection to server: S3]
[Date: 2016-06-08 14:42:20]	[UserID:08/504]	[IP:10.10.11.1]	[Browser:Chrome - 50.0.2661.102]	[Action:Filtering User : MasterData Username : 08/504]	[Remarks:Successful filter row count: 1]
[Date: 2016-06-08 14:42:20]	[UserID:08/504]	[IP:10.10.11.1]	[Browser:Chrome - 50.0.2661.102]	[Action:Making connection to server]	[Remarks:Successful connection to server: S3]
[Date: 2016-06-08 14:42:21]	[UserID:08/504]	[IP:10.10.11.1]	[Browser:Chrome - 50.0.2661.102]	[Action:GetGSTModules 08/504,1]	[Remarks:Successful filter row count: 5]
[Date: 2016-06-08 14:42:21]	[UserID:08/504]	[IP:10.10.11.1]	[Browser:Chrome - 50.0.2661.102]	[Action:Closing mssql connection]	[Remarks:Success]
[Date: 2016-06-08 15:44:54]	[UserID:]	[IP:10.10.11.1]	[Browser:Chrome - 49.0.2623.75]	[Action:Making connection to server]	[Remarks:Successful connection to server: S3]
[Date: 2016-06-08 15:44:58]	[UserID:]	[IP:10.10.11.1]	[Browser:Chrome - 49.0.2623.75]	[Action:GetProgramList ]	[Remarks:"no data"]
[Date: 2016-06-08 17:07:35]	[UserID:]	[IP:10.10.11.1]	[Browser:Chrome - 50.0.2661.102]	[Action:Making connection to server]	[Remarks:Successful connection to server: S3]
[Date: 2016-06-08 17:07:35]	[UserID:]	[IP:10.10.11.1]	[Browser:Chrome - 50.0.2661.102]	[Action:GetProgramList ]	[Remarks:"no data"]
[Date: 2016-06-08 17:07:43]	[UserID:06/343]	[IP:10.10.11.1]	[Browser:Chrome - 50.0.2661.102]	[Action:Making connection to server]	[Remarks:Successful connection to server: S3]
[Date: 2016-06-08 17:07:43]	[UserID:06/343]	[IP:10.10.11.1]	[Browser:Chrome - 50.0.2661.102]	[Action:User 06/343]	[Remarks:Success]
[Date: 2016-06-08 17:07:43]	[UserID:06/343]	[IP:10.10.11.1]	[Browser:Chrome - 50.0.2661.102]	[Action:Filtering User : MasterData Username : 06/343]	[Remarks:Successful filter row count: 0]
[Date: 2016-06-08 17:07:43]	[UserID:06/343]	[IP:10.10.11.1]	[Browser:Chrome - 50.0.2661.102]	[Action:Filtering User : MasterData Username : 06/343]	[Remarks:Successful filter row count: 0]
[Date: 2016-06-08 17:07:43]	[UserID:06/343]	[IP:10.10.11.1]	[Browser:Chrome - 50.0.2661.102]	[Action:Filtering User : MasterData Username : 06/343]	[Remarks:Success]
[Date: 2016-06-08 17:07:43]	[UserID:06/343]	[IP:10.10.11.1]	[Browser:Chrome - 50.0.2661.102]	[Action:Closing mssql connection]	[Remarks:Success]
[Date: 2016-06-08 17:07:43]	[UserID:06/343]	[IP:10.10.11.1]	[Browser:Chrome - 50.0.2661.102]	[Action:Making connection to server]	[Remarks:Successful connection to server: S3]
[Date: 2016-06-08 17:07:43]	[UserID:06/343]	[IP:10.10.11.1]	[Browser:Chrome - 50.0.2661.102]	[Action:GetProgramList 06/343]	[Remarks:[{"ID":"1","ProgramIndex":"GST","ProgramName":"GST"}]]
[Date: 2016-06-08 17:07:43]	[UserID:06/343]	[IP:10.10.11.1]	[Browser:Chrome - 50.0.2661.102]	[Action:Making connection to server]	[Remarks:Successful connection to server: S3]
[Date: 2016-06-08 17:07:43]	[UserID:06/343]	[IP:10.10.11.1]	[Browser:Chrome - 50.0.2661.102]	[Action:GetProgramList 06/343]	[Remarks:[{"ID":"1","ProgramIndex":"GST","ProgramName":"GST"}]]
[Date: 2016-06-08 17:07:43]	[UserID:06/343]	[IP:10.10.11.1]	[Browser:Chrome - 50.0.2661.102]	[Action:Making connection to server]	[Remarks:Successful connection to server: S3]
[Date: 2016-06-08 17:07:43]	[UserID:06/343]	[IP:10.10.11.1]	[Browser:Chrome - 50.0.2661.102]	[Action:Filtering User : MasterData Username : 06/343]	[Remarks:Successful filter row count: 1]
[Date: 2016-06-08 17:07:44]	[UserID:06/343]	[IP:10.10.11.1]	[Browser:Chrome - 50.0.2661.102]	[Action:Making connection to server]	[Remarks:Successful connection to server: S3]
[Date: 2016-06-08 17:07:44]	[UserID:06/343]	[IP:10.10.11.1]	[Browser:Chrome - 50.0.2661.102]	[Action:GetGSTModules 06/343,1]	[Remarks:Successful filter row count: 5]
[Date: 2016-06-08 17:07:44]	[UserID:06/343]	[IP:10.10.11.1]	[Browser:Chrome - 50.0.2661.102]	[Action:Closing mssql connection]	[Remarks:Success]
[Date: 2016-06-08 17:09:19]	[UserID:06/343]	[IP:10.10.11.1]	[Browser:Chrome - 50.0.2661.102]	[Action:Making connection to server]	[Remarks:Successful connection to server: S3]
[Date: 2016-06-08 17:09:19]	[UserID:06/343]	[IP:10.10.11.1]	[Browser:Chrome - 50.0.2661.102]	[Action:GetGSTModules 06/343,1]	[Remarks:Successful filter row count: 5]
[Date: 2016-06-08 17:09:19]	[UserID:06/343]	[IP:10.10.11.1]	[Browser:Chrome - 50.0.2661.102]	[Action:Closing mssql connection]	[Remarks:Success]
