[Date: 2019-11-05 08:25:33]	[UserID:]	[IP:10.128.12.120]	[Browser:Chrome - 77.0.3865.120]	[Action:Making connection to server]	[Remarks:Successful connection to server: S3]
[Date: 2019-11-05 08:25:33]	[UserID:]	[IP:10.128.12.120]	[Browser:Chrome - 77.0.3865.120]	[Action:GetProgramList ]	[Remarks:"no data"]
[Date: 2019-11-05 08:25:38]	[UserID:14/1082]	[IP:10.128.12.120]	[Browser:Chrome - 77.0.3865.120]	[Action:Making connection to server]	[Remarks:Successful connection to server: S3]
[Date: 2019-11-05 08:25:38]	[UserID:14/1082]	[IP:10.128.12.120]	[Browser:Chrome - 77.0.3865.120]	[Action:User 14/1082]	[Remarks:Success]
[Date: 2019-11-05 08:25:38]	[UserID:14/1082]	[IP:10.128.12.120]	[Browser:Chrome - 77.0.3865.120]	[Action:Filtering User : MasterData Username : 14/1082]	[Remarks:Successful filter row count: 0]
[Date: 2019-11-05 08:25:38]	[UserID:14/1082]	[IP:10.128.12.120]	[Browser:Chrome - 77.0.3865.120]	[Action:Filtering User : MasterData Username : 14/1082]	[Remarks:Successful filter row count: 0]
[Date: 2019-11-05 08:25:38]	[UserID:14/1082]	[IP:10.128.12.120]	[Browser:Chrome - 77.0.3865.120]	[Action:Filtering User : MasterData Username : 14/1082]	[Remarks:Success]
[Date: 2019-11-05 08:25:38]	[UserID:14/1082]	[IP:10.128.12.120]	[Browser:Chrome - 77.0.3865.120]	[Action:Closing mssql connection]	[Remarks:Success]
[Date: 2019-11-05 08:25:38]	[UserID:14/1082]	[IP:10.128.12.120]	[Browser:Chrome - 77.0.3865.120]	[Action:Making connection to server]	[Remarks:Successful connection to server: S3]
[Date: 2019-11-05 08:25:38]	[UserID:14/1082]	[IP:10.128.12.120]	[Browser:Chrome - 77.0.3865.120]	[Action:GetProgramList 14/1082]	[Remarks:[{"ID":"1","ProgramIndex":"GST","ProgramName":"GST"}]]
[Date: 2019-11-05 08:25:38]	[UserID:14/1082]	[IP:10.128.12.120]	[Browser:Chrome - 77.0.3865.120]	[Action:Making connection to server]	[Remarks:Successful connection to server: S3]
[Date: 2019-11-05 08:25:38]	[UserID:14/1082]	[IP:10.128.12.120]	[Browser:Chrome - 77.0.3865.120]	[Action:GetProgramList 14/1082]	[Remarks:[{"ID":"1","ProgramIndex":"GST","ProgramName":"GST"}]]
[Date: 2019-11-05 08:25:38]	[UserID:14/1082]	[IP:10.128.12.120]	[Browser:Chrome - 77.0.3865.120]	[Action:Making connection to server]	[Remarks:Successful connection to server: S3]
[Date: 2019-11-05 08:25:38]	[UserID:14/1082]	[IP:10.128.12.120]	[Browser:Chrome - 77.0.3865.120]	[Action:Filtering User : MasterData Username : 14/1082]	[Remarks:Successful filter row count: 1]
[Date: 2019-11-05 08:25:39]	[UserID:14/1082]	[IP:10.128.12.120]	[Browser:Chrome - 77.0.3865.120]	[Action:Making connection to server]	[Remarks:Successful connection to server: S3]
[Date: 2019-11-05 08:25:39]	[UserID:14/1082]	[IP:10.128.12.120]	[Browser:Chrome - 77.0.3865.120]	[Action:GetGSTModules 14/1082,1]	[Remarks:Successful filter row count: 8]
[Date: 2019-11-05 08:25:39]	[UserID:14/1082]	[IP:10.128.12.120]	[Browser:Chrome - 77.0.3865.120]	[Action:Closing mssql connection]	[Remarks:Success]
[Date: 2019-11-05 08:37:12]	[UserID:]	[IP:10.128.12.113]	[Browser:Chrome - 77.0.3865.120]	[Action:Making connection to server]	[Remarks:Successful connection to server: S3]
[Date: 2019-11-05 08:37:12]	[UserID:]	[IP:10.128.12.113]	[Browser:Chrome - 77.0.3865.120]	[Action:GetProgramList ]	[Remarks:"no data"]
[Date: 2019-11-05 08:38:58]	[UserID:06/343]	[IP:10.128.12.113]	[Browser:Chrome - 77.0.3865.120]	[Action:Making connection to server]	[Remarks:Successful connection to server: S3]
[Date: 2019-11-05 08:38:58]	[UserID:06/343]	[IP:10.128.12.113]	[Browser:Chrome - 77.0.3865.120]	[Action:LogMeIn 06/343,plant123]	[Remarks:Failed]
[Date: 2019-11-05 08:38:58]	[UserID:06/343]	[IP:10.128.12.113]	[Browser:Chrome - 77.0.3865.120]	[Action:Closing mssql connection]	[Remarks:Success]
[Date: 2019-11-05 08:39:06]	[UserID:06/343]	[IP:10.128.12.113]	[Browser:Chrome - 77.0.3865.120]	[Action:Making connection to server]	[Remarks:Successful connection to server: S3]
[Date: 2019-11-05 08:39:06]	[UserID:06/343]	[IP:10.128.12.113]	[Browser:Chrome - 77.0.3865.120]	[Action:User 06/343]	[Remarks:Success]
[Date: 2019-11-05 08:39:06]	[UserID:06/343]	[IP:10.128.12.113]	[Browser:Chrome - 77.0.3865.120]	[Action:Filtering User : MasterData Username : 06/343]	[Remarks:Successful filter row count: 0]
[Date: 2019-11-05 08:39:06]	[UserID:06/343]	[IP:10.128.12.113]	[Browser:Chrome - 77.0.3865.120]	[Action:Filtering User : MasterData Username : 06/343]	[Remarks:Successful filter row count: 0]
[Date: 2019-11-05 08:39:06]	[UserID:06/343]	[IP:10.128.12.113]	[Browser:Chrome - 77.0.3865.120]	[Action:Filtering User : MasterData Username : 06/343]	[Remarks:Success]
[Date: 2019-11-05 08:39:06]	[UserID:06/343]	[IP:10.128.12.113]	[Browser:Chrome - 77.0.3865.120]	[Action:Closing mssql connection]	[Remarks:Success]
[Date: 2019-11-05 08:39:06]	[UserID:]	[IP:10.128.12.113]	[Browser:Chrome - 77.0.3865.120]	[Action:Making connection to server]	[Remarks:Successful connection to server: S3]
[Date: 2019-11-05 08:39:06]	[UserID:]	[IP:10.128.12.113]	[Browser:Chrome - 77.0.3865.120]	[Action:GetProgramList ]	[Remarks:"no data"]
[Date: 2019-11-05 08:39:12]	[UserID:06/343]	[IP:10.128.12.113]	[Browser:Chrome - 77.0.3865.120]	[Action:Making connection to server]	[Remarks:Successful connection to server: S3]
[Date: 2019-11-05 08:39:12]	[UserID:06/343]	[IP:10.128.12.113]	[Browser:Chrome - 77.0.3865.120]	[Action:User 06/343]	[Remarks:Success]
[Date: 2019-11-05 08:39:12]	[UserID:06/343]	[IP:10.128.12.113]	[Browser:Chrome - 77.0.3865.120]	[Action:Filtering User : MasterData Username : 06/343]	[Remarks:Successful filter row count: 0]
[Date: 2019-11-05 08:39:12]	[UserID:06/343]	[IP:10.128.12.113]	[Browser:Chrome - 77.0.3865.120]	[Action:Filtering User : MasterData Username : 06/343]	[Remarks:Successful filter row count: 0]
[Date: 2019-11-05 08:39:12]	[UserID:06/343]	[IP:10.128.12.113]	[Browser:Chrome - 77.0.3865.120]	[Action:Filtering User : MasterData Username : 06/343]	[Remarks:Success]
[Date: 2019-11-05 08:39:12]	[UserID:06/343]	[IP:10.128.12.113]	[Browser:Chrome - 77.0.3865.120]	[Action:Closing mssql connection]	[Remarks:Success]
[Date: 2019-11-05 08:39:12]	[UserID:06/343]	[IP:10.128.12.113]	[Browser:Chrome - 77.0.3865.120]	[Action:Making connection to server]	[Remarks:Successful connection to server: S3]
[Date: 2019-11-05 08:39:12]	[UserID:06/343]	[IP:10.128.12.113]	[Browser:Chrome - 77.0.3865.120]	[Action:GetProgramList 06/343]	[Remarks:[{"ID":"1","ProgramIndex":"GST","ProgramName":"GST"}]]
[Date: 2019-11-05 08:39:12]	[UserID:06/343]	[IP:10.128.12.113]	[Browser:Chrome - 77.0.3865.120]	[Action:Making connection to server]	[Remarks:Successful connection to server: S3]
[Date: 2019-11-05 08:39:12]	[UserID:06/343]	[IP:10.128.12.113]	[Browser:Chrome - 77.0.3865.120]	[Action:GetProgramList 06/343]	[Remarks:[{"ID":"1","ProgramIndex":"GST","ProgramName":"GST"}]]
[Date: 2019-11-05 08:39:12]	[UserID:06/343]	[IP:10.128.12.113]	[Browser:Chrome - 77.0.3865.120]	[Action:Making connection to server]	[Remarks:Successful connection to server: S3]
[Date: 2019-11-05 08:39:12]	[UserID:06/343]	[IP:10.128.12.113]	[Browser:Chrome - 77.0.3865.120]	[Action:Filtering User : MasterData Username : 06/343]	[Remarks:Successful filter row count: 1]
[Date: 2019-11-05 08:39:12]	[UserID:06/343]	[IP:10.128.12.113]	[Browser:Chrome - 77.0.3865.120]	[Action:Making connection to server]	[Remarks:Successful connection to server: S3]
[Date: 2019-11-05 08:39:12]	[UserID:06/343]	[IP:10.128.12.113]	[Browser:Chrome - 77.0.3865.120]	[Action:GetGSTModules 06/343,1]	[Remarks:Successful filter row count: 7]
[Date: 2019-11-05 08:39:12]	[UserID:06/343]	[IP:10.128.12.113]	[Browser:Chrome - 77.0.3865.120]	[Action:Closing mssql connection]	[Remarks:Success]
[Date: 2019-11-05 08:42:30]	[UserID:06/343]	[IP:10.128.12.113]	[Browser:Chrome - 77.0.3865.120]	[Action:Making connection to server]	[Remarks:Successful connection to server: S3]
[Date: 2019-11-05 08:42:30]	[UserID:06/343]	[IP:10.128.12.113]	[Browser:Chrome - 77.0.3865.120]	[Action:GetGSTModules 06/343,1]	[Remarks:Successful filter row count: 7]
[Date: 2019-11-05 08:42:30]	[UserID:06/343]	[IP:10.128.12.113]	[Browser:Chrome - 77.0.3865.120]	[Action:Closing mssql connection]	[Remarks:Success]
[Date: 2019-11-05 08:49:58]	[UserID:]	[IP:10.130.25.202]	[Browser:Firefox - 60.0]	[Action:Making connection to server]	[Remarks:Successful connection to server: S3]
[Date: 2019-11-05 08:49:58]	[UserID:]	[IP:10.130.25.202]	[Browser:Firefox - 60.0]	[Action:GetProgramList ]	[Remarks:"no data"]
[Date: 2019-11-05 08:50:27]	[UserID:06/343]	[IP:10.128.12.113]	[Browser:Chrome - 77.0.3865.120]	[Action:Making connection to server]	[Remarks:Successful connection to server: S3]
[Date: 2019-11-05 08:50:27]	[UserID:06/343]	[IP:10.128.12.113]	[Browser:Chrome - 77.0.3865.120]	[Action:GetGSTModules 06/343,1]	[Remarks:Successful filter row count: 7]
[Date: 2019-11-05 08:50:27]	[UserID:06/343]	[IP:10.128.12.113]	[Browser:Chrome - 77.0.3865.120]	[Action:Closing mssql connection]	[Remarks:Success]
[Date: 2019-11-05 08:52:11]	[UserID:]	[IP:10.130.25.206]	[Browser:Chrome - 77.0.3865.120]	[Action:Making connection to server]	[Remarks:Successful connection to server: S3]
[Date: 2019-11-05 08:52:11]	[UserID:]	[IP:10.130.25.206]	[Browser:Chrome - 77.0.3865.120]	[Action:GetProgramList ]	[Remarks:"no data"]
[Date: 2019-11-05 09:10:36]	[UserID:06/343]	[IP:10.128.12.113]	[Browser:Chrome - 77.0.3865.120]	[Action:Making connection to server]	[Remarks:Successful connection to server: S3]
[Date: 2019-11-05 09:10:36]	[UserID:06/343]	[IP:10.128.12.113]	[Browser:Chrome - 77.0.3865.120]	[Action:GetProgramList 06/343]	[Remarks:[{"ID":"1","ProgramIndex":"GST","ProgramName":"GST"}]]
[Date: 2019-11-05 09:10:36]	[UserID:06/343]	[IP:10.128.12.113]	[Browser:Chrome - 77.0.3865.120]	[Action:Making connection to server]	[Remarks:Successful connection to server: S3]
[Date: 2019-11-05 09:10:36]	[UserID:06/343]	[IP:10.128.12.113]	[Browser:Chrome - 77.0.3865.120]	[Action:GetProgramList 06/343]	[Remarks:[{"ID":"1","ProgramIndex":"GST","ProgramName":"GST"}]]
[Date: 2019-11-05 09:10:36]	[UserID:06/343]	[IP:10.128.12.113]	[Browser:Chrome - 77.0.3865.120]	[Action:Making connection to server]	[Remarks:Successful connection to server: S3]
[Date: 2019-11-05 09:10:36]	[UserID:06/343]	[IP:10.128.12.113]	[Browser:Chrome - 77.0.3865.120]	[Action:Filtering User : MasterData Username : 06/343]	[Remarks:Successful filter row count: 1]
[Date: 2019-11-05 09:10:36]	[UserID:06/343]	[IP:10.128.12.113]	[Browser:Chrome - 77.0.3865.120]	[Action:Making connection to server]	[Remarks:Successful connection to server: S3]
[Date: 2019-11-05 09:10:36]	[UserID:06/343]	[IP:10.128.12.113]	[Browser:Chrome - 77.0.3865.120]	[Action:GetGSTModules 06/343,1]	[Remarks:Successful filter row count: 7]
[Date: 2019-11-05 09:10:36]	[UserID:06/343]	[IP:10.128.12.113]	[Browser:Chrome - 77.0.3865.120]	[Action:Closing mssql connection]	[Remarks:Success]
[Date: 2019-11-05 10:32:37]	[UserID:14/1082]	[IP:10.128.12.120]	[Browser:Chrome - 77.0.3865.120]	[Action:Making connection to server]	[Remarks:Successful connection to server: S3]
[Date: 2019-11-05 10:32:37]	[UserID:14/1082]	[IP:10.128.12.120]	[Browser:Chrome - 77.0.3865.120]	[Action:GetGSTModules 14/1082,1]	[Remarks:Successful filter row count: 8]
[Date: 2019-11-05 10:32:37]	[UserID:14/1082]	[IP:10.128.12.120]	[Browser:Chrome - 77.0.3865.120]	[Action:Closing mssql connection]	[Remarks:Success]
[Date: 2019-11-05 10:32:40]	[UserID:14/1082]	[IP:10.128.12.120]	[Browser:Chrome - 77.0.3865.120]	[Action:Making connection to server]	[Remarks:Successful connection to server: S3]
[Date: 2019-11-05 10:32:40]	[UserID:14/1082]	[IP:10.128.12.120]	[Browser:Chrome - 77.0.3865.120]	[Action:GetGSTModules 14/1082,1]	[Remarks:Successful filter row count: 8]
[Date: 2019-11-05 10:32:40]	[UserID:14/1082]	[IP:10.128.12.120]	[Browser:Chrome - 77.0.3865.120]	[Action:Closing mssql connection]	[Remarks:Success]
[Date: 2019-11-05 10:32:45]	[UserID:14/1082]	[IP:10.128.12.120]	[Browser:Chrome - 77.0.3865.120]	[Action:Making connection to server]	[Remarks:Successful connection to server: S3]
[Date: 2019-11-05 10:32:45]	[UserID:14/1082]	[IP:10.128.12.120]	[Browser:Chrome - 77.0.3865.120]	[Action:GetGSTModules 14/1082,1]	[Remarks:Successful filter row count: 8]
[Date: 2019-11-05 10:32:45]	[UserID:14/1082]	[IP:10.128.12.120]	[Browser:Chrome - 77.0.3865.120]	[Action:Closing mssql connection]	[Remarks:Success]
[Date: 2019-11-05 10:35:05]	[UserID:14/1082]	[IP:10.128.12.120]	[Browser:Chrome - 77.0.3865.120]	[Action:Making connection to server]	[Remarks:Successful connection to server: S3]
[Date: 2019-11-05 10:35:05]	[UserID:14/1082]	[IP:10.128.12.120]	[Browser:Chrome - 77.0.3865.120]	[Action:GetProgramList 14/1082]	[Remarks:[{"ID":"1","ProgramIndex":"GST","ProgramName":"GST"}]]
[Date: 2019-11-05 10:35:05]	[UserID:14/1082]	[IP:10.128.12.120]	[Browser:Chrome - 77.0.3865.120]	[Action:Making connection to server]	[Remarks:Successful connection to server: S3]
[Date: 2019-11-05 10:35:05]	[UserID:14/1082]	[IP:10.128.12.120]	[Browser:Chrome - 77.0.3865.120]	[Action:GetProgramList 14/1082]	[Remarks:[{"ID":"1","ProgramIndex":"GST","ProgramName":"GST"}]]
[Date: 2019-11-05 10:35:05]	[UserID:14/1082]	[IP:10.128.12.120]	[Browser:Chrome - 77.0.3865.120]	[Action:Making connection to server]	[Remarks:Successful connection to server: S3]
[Date: 2019-11-05 10:35:05]	[UserID:14/1082]	[IP:10.128.12.120]	[Browser:Chrome - 77.0.3865.120]	[Action:Filtering User : MasterData Username : 14/1082]	[Remarks:Successful filter row count: 1]
[Date: 2019-11-05 10:35:05]	[UserID:14/1082]	[IP:10.128.12.120]	[Browser:Chrome - 77.0.3865.120]	[Action:Making connection to server]	[Remarks:Successful connection to server: S3]
[Date: 2019-11-05 10:35:05]	[UserID:14/1082]	[IP:10.128.12.120]	[Browser:Chrome - 77.0.3865.120]	[Action:GetGSTModules 14/1082,1]	[Remarks:Successful filter row count: 8]
[Date: 2019-11-05 10:35:05]	[UserID:14/1082]	[IP:10.128.12.120]	[Browser:Chrome - 77.0.3865.120]	[Action:Closing mssql connection]	[Remarks:Success]
[Date: 2019-11-05 10:35:31]	[UserID:14/1082]	[IP:10.128.12.120]	[Browser:Chrome - 77.0.3865.120]	[Action:Making connection to server]	[Remarks:Successful connection to server: S3]
[Date: 2019-11-05 10:35:31]	[UserID:14/1082]	[IP:10.128.12.120]	[Browser:Chrome - 77.0.3865.120]	[Action:GetGSTModules 14/1082,1]	[Remarks:Successful filter row count: 8]
[Date: 2019-11-05 10:35:31]	[UserID:14/1082]	[IP:10.128.12.120]	[Browser:Chrome - 77.0.3865.120]	[Action:Closing mssql connection]	[Remarks:Success]
[Date: 2019-11-05 11:09:02]	[UserID:06/343]	[IP:10.128.12.113]	[Browser:Chrome - 77.0.3865.120]	[Action:Making connection to server]	[Remarks:Successful connection to server: S3]
[Date: 2019-11-05 11:09:03]	[UserID:06/343]	[IP:10.128.12.113]	[Browser:Chrome - 77.0.3865.120]	[Action:GetGSTModules 06/343,1]	[Remarks:Successful filter row count: 7]
[Date: 2019-11-05 11:09:03]	[UserID:06/343]	[IP:10.128.12.113]	[Browser:Chrome - 77.0.3865.120]	[Action:Closing mssql connection]	[Remarks:Success]
[Date: 2019-11-05 11:14:36]	[UserID:06/343]	[IP:10.128.12.113]	[Browser:Chrome - 77.0.3865.120]	[Action:Making connection to server]	[Remarks:Successful connection to server: S3]
[Date: 2019-11-05 11:14:36]	[UserID:06/343]	[IP:10.128.12.113]	[Browser:Chrome - 77.0.3865.120]	[Action:GetGSTModules 06/343,1]	[Remarks:Successful filter row count: 7]
[Date: 2019-11-05 11:14:36]	[UserID:06/343]	[IP:10.128.12.113]	[Browser:Chrome - 77.0.3865.120]	[Action:Closing mssql connection]	[Remarks:Success]
[Date: 2019-11-05 11:20:11]	[UserID:]	[IP:10.128.81.219]	[Browser:Chrome - 78.0.3904.70]	[Action:Making connection to server]	[Remarks:Successful connection to server: S3]
[Date: 2019-11-05 11:20:11]	[UserID:]	[IP:10.128.81.219]	[Browser:Chrome - 78.0.3904.70]	[Action:GetProgramList ]	[Remarks:"no data"]
[Date: 2019-11-05 11:20:20]	[UserID:17/1257]	[IP:10.128.81.219]	[Browser:Chrome - 78.0.3904.70]	[Action:Making connection to server]	[Remarks:Successful connection to server: S3]
[Date: 2019-11-05 11:20:20]	[UserID:17/1257]	[IP:10.128.81.219]	[Browser:Chrome - 78.0.3904.70]	[Action:LogMeIn 17/1257,jsi1257]	[Remarks:Failed]
[Date: 2019-11-05 11:20:20]	[UserID:17/1257]	[IP:10.128.81.219]	[Browser:Chrome - 78.0.3904.70]	[Action:Closing mssql connection]	[Remarks:Success]
[Date: 2019-11-05 11:20:32]	[UserID:17/1257]	[IP:10.128.81.219]	[Browser:Chrome - 78.0.3904.70]	[Action:Making connection to server]	[Remarks:Successful connection to server: S3]
[Date: 2019-11-05 11:20:32]	[UserID:17/1257]	[IP:10.128.81.219]	[Browser:Chrome - 78.0.3904.70]	[Action:User 17/1257]	[Remarks:Success]
[Date: 2019-11-05 11:20:32]	[UserID:17/1257]	[IP:10.128.81.219]	[Browser:Chrome - 78.0.3904.70]	[Action:Filtering User : MasterData Username : 17/1257]	[Remarks:Successful filter row count: 0]
[Date: 2019-11-05 11:20:32]	[UserID:17/1257]	[IP:10.128.81.219]	[Browser:Chrome - 78.0.3904.70]	[Action:Filtering User : MasterData Username : 17/1257]	[Remarks:Successful filter row count: 0]
[Date: 2019-11-05 11:20:32]	[UserID:17/1257]	[IP:10.128.81.219]	[Browser:Chrome - 78.0.3904.70]	[Action:Filtering User : MasterData Username : 17/1257]	[Remarks:Success]
[Date: 2019-11-05 11:20:32]	[UserID:17/1257]	[IP:10.128.81.219]	[Browser:Chrome - 78.0.3904.70]	[Action:Closing mssql connection]	[Remarks:Success]
[Date: 2019-11-05 11:20:32]	[UserID:]	[IP:10.128.81.219]	[Browser:Chrome - 78.0.3904.70]	[Action:Making connection to server]	[Remarks:Successful connection to server: S3]
[Date: 2019-11-05 11:20:32]	[UserID:]	[IP:10.128.81.219]	[Browser:Chrome - 78.0.3904.70]	[Action:GetProgramList ]	[Remarks:"no data"]
[Date: 2019-11-05 11:20:41]	[UserID:17/1257]	[IP:10.128.81.219]	[Browser:Chrome - 78.0.3904.70]	[Action:Making connection to server]	[Remarks:Successful connection to server: S3]
[Date: 2019-11-05 11:20:41]	[UserID:17/1257]	[IP:10.128.81.219]	[Browser:Chrome - 78.0.3904.70]	[Action:User 17/1257]	[Remarks:Success]
[Date: 2019-11-05 11:20:41]	[UserID:17/1257]	[IP:10.128.81.219]	[Browser:Chrome - 78.0.3904.70]	[Action:Filtering User : MasterData Username : 17/1257]	[Remarks:Successful filter row count: 0]
[Date: 2019-11-05 11:20:41]	[UserID:17/1257]	[IP:10.128.81.219]	[Browser:Chrome - 78.0.3904.70]	[Action:Filtering User : MasterData Username : 17/1257]	[Remarks:Successful filter row count: 0]
[Date: 2019-11-05 11:20:41]	[UserID:17/1257]	[IP:10.128.81.219]	[Browser:Chrome - 78.0.3904.70]	[Action:Filtering User : MasterData Username : 17/1257]	[Remarks:Success]
[Date: 2019-11-05 11:20:41]	[UserID:17/1257]	[IP:10.128.81.219]	[Browser:Chrome - 78.0.3904.70]	[Action:Closing mssql connection]	[Remarks:Success]
[Date: 2019-11-05 11:20:41]	[UserID:17/1257]	[IP:10.128.81.219]	[Browser:Chrome - 78.0.3904.70]	[Action:Making connection to server]	[Remarks:Successful connection to server: S3]
[Date: 2019-11-05 11:20:41]	[UserID:17/1257]	[IP:10.128.81.219]	[Browser:Chrome - 78.0.3904.70]	[Action:GetProgramList 17/1257]	[Remarks:[{"ID":"1","ProgramIndex":"GST","ProgramName":"GST"}]]
[Date: 2019-11-05 11:20:41]	[UserID:17/1257]	[IP:10.128.81.219]	[Browser:Chrome - 78.0.3904.70]	[Action:Making connection to server]	[Remarks:Successful connection to server: S3]
[Date: 2019-11-05 11:20:41]	[UserID:17/1257]	[IP:10.128.81.219]	[Browser:Chrome - 78.0.3904.70]	[Action:GetProgramList 17/1257]	[Remarks:[{"ID":"1","ProgramIndex":"GST","ProgramName":"GST"}]]
[Date: 2019-11-05 11:20:41]	[UserID:17/1257]	[IP:10.128.81.219]	[Browser:Chrome - 78.0.3904.70]	[Action:Making connection to server]	[Remarks:Successful connection to server: S3]
[Date: 2019-11-05 11:20:41]	[UserID:17/1257]	[IP:10.128.81.219]	[Browser:Chrome - 78.0.3904.70]	[Action:Filtering User : MasterData Username : 17/1257]	[Remarks:Successful filter row count: 1]
[Date: 2019-11-05 11:20:41]	[UserID:17/1257]	[IP:10.128.81.219]	[Browser:Chrome - 78.0.3904.70]	[Action:Making connection to server]	[Remarks:Successful connection to server: S3]
[Date: 2019-11-05 11:20:41]	[UserID:17/1257]	[IP:10.128.81.219]	[Browser:Chrome - 78.0.3904.70]	[Action:GetGSTModules 17/1257,1]	[Remarks:Successful filter row count: 5]
[Date: 2019-11-05 11:20:41]	[UserID:17/1257]	[IP:10.128.81.219]	[Browser:Chrome - 78.0.3904.70]	[Action:Closing mssql connection]	[Remarks:Success]
[Date: 2019-11-05 11:56:27]	[UserID:06/343]	[IP:10.128.12.113]	[Browser:Chrome - 77.0.3865.120]	[Action:Making connection to server]	[Remarks:Successful connection to server: S3]
[Date: 2019-11-05 11:56:27]	[UserID:06/343]	[IP:10.128.12.113]	[Browser:Chrome - 77.0.3865.120]	[Action:GetGSTModules 06/343,1]	[Remarks:Successful filter row count: 7]
[Date: 2019-11-05 11:56:27]	[UserID:06/343]	[IP:10.128.12.113]	[Browser:Chrome - 77.0.3865.120]	[Action:Closing mssql connection]	[Remarks:Success]
[Date: 2019-11-05 11:59:56]	[UserID:06/343]	[IP:10.128.12.113]	[Browser:Chrome - 77.0.3865.120]	[Action:Making connection to server]	[Remarks:Successful connection to server: S3]
[Date: 2019-11-05 11:59:56]	[UserID:06/343]	[IP:10.128.12.113]	[Browser:Chrome - 77.0.3865.120]	[Action:GetGSTModules 06/343,1]	[Remarks:Successful filter row count: 7]
[Date: 2019-11-05 11:59:56]	[UserID:06/343]	[IP:10.128.12.113]	[Browser:Chrome - 77.0.3865.120]	[Action:Closing mssql connection]	[Remarks:Success]
[Date: 2019-11-05 12:01:06]	[UserID:06/343]	[IP:10.128.12.113]	[Browser:Chrome - 77.0.3865.120]	[Action:Making connection to server]	[Remarks:Successful connection to server: S3]
[Date: 2019-11-05 12:01:06]	[UserID:06/343]	[IP:10.128.12.113]	[Browser:Chrome - 77.0.3865.120]	[Action:GetGSTModules 06/343,1]	[Remarks:Successful filter row count: 7]
[Date: 2019-11-05 12:01:06]	[UserID:06/343]	[IP:10.128.12.113]	[Browser:Chrome - 77.0.3865.120]	[Action:Closing mssql connection]	[Remarks:Success]
[Date: 2019-11-05 13:50:36]	[UserID:]	[IP:10.128.12.115]	[Browser:Chrome - 78.0.3904.70]	[Action:Making connection to server]	[Remarks:Successful connection to server: S3]
[Date: 2019-11-05 13:50:36]	[UserID:]	[IP:10.128.12.115]	[Browser:Chrome - 78.0.3904.70]	[Action:GetProgramList ]	[Remarks:"no data"]
[Date: 2019-11-05 13:50:41]	[UserID:17/1248]	[IP:10.128.12.115]	[Browser:Chrome - 78.0.3904.70]	[Action:Making connection to server]	[Remarks:Successful connection to server: S3]
[Date: 2019-11-05 13:50:41]	[UserID:17/1248]	[IP:10.128.12.115]	[Browser:Chrome - 78.0.3904.70]	[Action:User 17/1248]	[Remarks:Success]
[Date: 2019-11-05 13:50:41]	[UserID:17/1248]	[IP:10.128.12.115]	[Browser:Chrome - 78.0.3904.70]	[Action:Filtering User : MasterData Username : 17/1248]	[Remarks:Successful filter row count: 0]
[Date: 2019-11-05 13:50:42]	[UserID:17/1248]	[IP:10.128.12.115]	[Browser:Chrome - 78.0.3904.70]	[Action:Filtering User : MasterData Username : 17/1248]	[Remarks:Successful filter row count: 0]
[Date: 2019-11-05 13:50:42]	[UserID:17/1248]	[IP:10.128.12.115]	[Browser:Chrome - 78.0.3904.70]	[Action:Filtering User : MasterData Username : 17/1248]	[Remarks:Success]
[Date: 2019-11-05 13:50:42]	[UserID:17/1248]	[IP:10.128.12.115]	[Browser:Chrome - 78.0.3904.70]	[Action:Closing mssql connection]	[Remarks:Success]
[Date: 2019-11-05 13:50:42]	[UserID:17/1248]	[IP:10.128.12.115]	[Browser:Chrome - 78.0.3904.70]	[Action:Making connection to server]	[Remarks:Successful connection to server: S3]
[Date: 2019-11-05 13:50:42]	[UserID:17/1248]	[IP:10.128.12.115]	[Browser:Chrome - 78.0.3904.70]	[Action:GetProgramList 17/1248]	[Remarks:[{"ID":"1","ProgramIndex":"GST","ProgramName":"GST"}]]
[Date: 2019-11-05 13:50:42]	[UserID:17/1248]	[IP:10.128.12.115]	[Browser:Chrome - 78.0.3904.70]	[Action:Making connection to server]	[Remarks:Successful connection to server: S3]
[Date: 2019-11-05 13:50:43]	[UserID:17/1248]	[IP:10.128.12.115]	[Browser:Chrome - 78.0.3904.70]	[Action:GetProgramList 17/1248]	[Remarks:[{"ID":"1","ProgramIndex":"GST","ProgramName":"GST"}]]
[Date: 2019-11-05 13:50:43]	[UserID:17/1248]	[IP:10.128.12.115]	[Browser:Chrome - 78.0.3904.70]	[Action:Making connection to server]	[Remarks:Successful connection to server: S3]
[Date: 2019-11-05 13:50:43]	[UserID:17/1248]	[IP:10.128.12.115]	[Browser:Chrome - 78.0.3904.70]	[Action:Filtering User : MasterData Username : 17/1248]	[Remarks:Successful filter row count: 1]
[Date: 2019-11-05 13:50:43]	[UserID:17/1248]	[IP:10.128.12.115]	[Browser:Chrome - 78.0.3904.70]	[Action:Making connection to server]	[Remarks:Successful connection to server: S3]
[Date: 2019-11-05 13:50:44]	[UserID:17/1248]	[IP:10.128.12.115]	[Browser:Chrome - 78.0.3904.70]	[Action:GetGSTModules 17/1248,1]	[Remarks:Successful filter row count: 6]
[Date: 2019-11-05 13:50:44]	[UserID:17/1248]	[IP:10.128.12.115]	[Browser:Chrome - 78.0.3904.70]	[Action:Closing mssql connection]	[Remarks:Success]
[Date: 2019-11-05 14:16:47]	[UserID:14/1082]	[IP:10.128.12.120]	[Browser:Chrome - 77.0.3865.120]	[Action:Making connection to server]	[Remarks:Successful connection to server: S3]
[Date: 2019-11-05 14:16:47]	[UserID:14/1082]	[IP:10.128.12.120]	[Browser:Chrome - 77.0.3865.120]	[Action:GetGSTModules 14/1082,1]	[Remarks:Successful filter row count: 8]
[Date: 2019-11-05 14:16:47]	[UserID:14/1082]	[IP:10.128.12.120]	[Browser:Chrome - 77.0.3865.120]	[Action:Closing mssql connection]	[Remarks:Success]
[Date: 2019-11-05 14:39:42]	[UserID:14/1082]	[IP:10.128.12.120]	[Browser:Chrome - 77.0.3865.120]	[Action:Making connection to server]	[Remarks:Successful connection to server: S3]
[Date: 2019-11-05 14:39:42]	[UserID:14/1082]	[IP:10.128.12.120]	[Browser:Chrome - 77.0.3865.120]	[Action:GetGSTModules 14/1082,1]	[Remarks:Successful filter row count: 8]
[Date: 2019-11-05 14:39:42]	[UserID:14/1082]	[IP:10.128.12.120]	[Browser:Chrome - 77.0.3865.120]	[Action:Closing mssql connection]	[Remarks:Success]
[Date: 2019-11-05 14:43:41]	[UserID:17/1248]	[IP:10.128.12.115]	[Browser:Chrome - 78.0.3904.70]	[Action:Making connection to server]	[Remarks:Successful connection to server: S3]
[Date: 2019-11-05 14:43:41]	[UserID:17/1248]	[IP:10.128.12.115]	[Browser:Chrome - 78.0.3904.70]	[Action:GetGSTModules 17/1248,1]	[Remarks:Successful filter row count: 6]
[Date: 2019-11-05 14:43:41]	[UserID:17/1248]	[IP:10.128.12.115]	[Browser:Chrome - 78.0.3904.70]	[Action:Closing mssql connection]	[Remarks:Success]
[Date: 2019-11-05 14:47:37]	[UserID:]	[IP:10.128.12.115]	[Browser:Chrome - 78.0.3904.70]	[Action:Making connection to server]	[Remarks:Successful connection to server: S3]
[Date: 2019-11-05 14:47:37]	[UserID:]	[IP:10.128.12.115]	[Browser:Chrome - 78.0.3904.70]	[Action:GetProgramList ]	[Remarks:"no data"]
[Date: 2019-11-05 14:51:24]	[UserID:14/1082]	[IP:10.128.12.120]	[Browser:Chrome - 77.0.3865.120]	[Action:Making connection to server]	[Remarks:Successful connection to server: S3]
[Date: 2019-11-05 14:51:24]	[UserID:14/1082]	[IP:10.128.12.120]	[Browser:Chrome - 77.0.3865.120]	[Action:GetGSTModules 14/1082,1]	[Remarks:Successful filter row count: 8]
[Date: 2019-11-05 14:51:24]	[UserID:14/1082]	[IP:10.128.12.120]	[Browser:Chrome - 77.0.3865.120]	[Action:Closing mssql connection]	[Remarks:Success]
[Date: 2019-11-05 15:26:36]	[UserID:14/1082]	[IP:10.128.12.120]	[Browser:Chrome - 77.0.3865.120]	[Action:Making connection to server]	[Remarks:Successful connection to server: S3]
[Date: 2019-11-05 15:26:37]	[UserID:14/1082]	[IP:10.128.12.120]	[Browser:Chrome - 77.0.3865.120]	[Action:GetProgramList 14/1082]	[Remarks:[{"ID":"1","ProgramIndex":"GST","ProgramName":"GST"}]]
[Date: 2019-11-05 15:26:37]	[UserID:14/1082]	[IP:10.128.12.120]	[Browser:Chrome - 77.0.3865.120]	[Action:Making connection to server]	[Remarks:Successful connection to server: S3]
[Date: 2019-11-05 15:26:37]	[UserID:14/1082]	[IP:10.128.12.120]	[Browser:Chrome - 77.0.3865.120]	[Action:GetProgramList 14/1082]	[Remarks:[{"ID":"1","ProgramIndex":"GST","ProgramName":"GST"}]]
[Date: 2019-11-05 15:26:37]	[UserID:14/1082]	[IP:10.128.12.120]	[Browser:Chrome - 77.0.3865.120]	[Action:Making connection to server]	[Remarks:Successful connection to server: S3]
[Date: 2019-11-05 15:26:38]	[UserID:14/1082]	[IP:10.128.12.120]	[Browser:Chrome - 77.0.3865.120]	[Action:Filtering User : MasterData Username : 14/1082]	[Remarks:Successful filter row count: 1]
[Date: 2019-11-05 15:26:38]	[UserID:14/1082]	[IP:10.128.12.120]	[Browser:Chrome - 77.0.3865.120]	[Action:Making connection to server]	[Remarks:Successful connection to server: S3]
[Date: 2019-11-05 15:26:38]	[UserID:14/1082]	[IP:10.128.12.120]	[Browser:Chrome - 77.0.3865.120]	[Action:GetGSTModules 14/1082,1]	[Remarks:Successful filter row count: 8]
[Date: 2019-11-05 15:26:38]	[UserID:14/1082]	[IP:10.128.12.120]	[Browser:Chrome - 77.0.3865.120]	[Action:Closing mssql connection]	[Remarks:Success]
[Date: 2019-11-05 16:26:04]	[UserID:]	[IP:10.128.12.113]	[Browser:Chrome - 77.0.3865.120]	[Action:Making connection to server]	[Remarks:Successful connection to server: S3]
[Date: 2019-11-05 16:26:04]	[UserID:]	[IP:10.128.12.113]	[Browser:Chrome - 77.0.3865.120]	[Action:GetProgramList ]	[Remarks:"no data"]
[Date: 2019-11-05 16:26:11]	[UserID:06/343]	[IP:10.128.12.113]	[Browser:Chrome - 77.0.3865.120]	[Action:Making connection to server]	[Remarks:Successful connection to server: S3]
[Date: 2019-11-05 16:26:11]	[UserID:06/343]	[IP:10.128.12.113]	[Browser:Chrome - 77.0.3865.120]	[Action:User 06/343]	[Remarks:Success]
[Date: 2019-11-05 16:26:11]	[UserID:06/343]	[IP:10.128.12.113]	[Browser:Chrome - 77.0.3865.120]	[Action:Filtering User : MasterData Username : 06/343]	[Remarks:Successful filter row count: 0]
[Date: 2019-11-05 16:26:11]	[UserID:06/343]	[IP:10.128.12.113]	[Browser:Chrome - 77.0.3865.120]	[Action:Filtering User : MasterData Username : 06/343]	[Remarks:Successful filter row count: 0]
[Date: 2019-11-05 16:26:11]	[UserID:06/343]	[IP:10.128.12.113]	[Browser:Chrome - 77.0.3865.120]	[Action:Filtering User : MasterData Username : 06/343]	[Remarks:Success]
[Date: 2019-11-05 16:26:11]	[UserID:06/343]	[IP:10.128.12.113]	[Browser:Chrome - 77.0.3865.120]	[Action:Closing mssql connection]	[Remarks:Success]
[Date: 2019-11-05 16:26:12]	[UserID:06/343]	[IP:10.128.12.113]	[Browser:Chrome - 77.0.3865.120]	[Action:Making connection to server]	[Remarks:Successful connection to server: S3]
[Date: 2019-11-05 16:26:12]	[UserID:06/343]	[IP:10.128.12.113]	[Browser:Chrome - 77.0.3865.120]	[Action:GetProgramList 06/343]	[Remarks:[{"ID":"1","ProgramIndex":"GST","ProgramName":"GST"}]]
[Date: 2019-11-05 16:26:12]	[UserID:06/343]	[IP:10.128.12.113]	[Browser:Chrome - 77.0.3865.120]	[Action:Making connection to server]	[Remarks:Successful connection to server: S3]
[Date: 2019-11-05 16:26:12]	[UserID:06/343]	[IP:10.128.12.113]	[Browser:Chrome - 77.0.3865.120]	[Action:GetProgramList 06/343]	[Remarks:[{"ID":"1","ProgramIndex":"GST","ProgramName":"GST"}]]
[Date: 2019-11-05 16:26:12]	[UserID:06/343]	[IP:10.128.12.113]	[Browser:Chrome - 77.0.3865.120]	[Action:Making connection to server]	[Remarks:Successful connection to server: S3]
[Date: 2019-11-05 16:26:12]	[UserID:06/343]	[IP:10.128.12.113]	[Browser:Chrome - 77.0.3865.120]	[Action:Filtering User : MasterData Username : 06/343]	[Remarks:Successful filter row count: 1]
[Date: 2019-11-05 16:26:12]	[UserID:06/343]	[IP:10.128.12.113]	[Browser:Chrome - 77.0.3865.120]	[Action:Making connection to server]	[Remarks:Successful connection to server: S3]
[Date: 2019-11-05 16:26:12]	[UserID:06/343]	[IP:10.128.12.113]	[Browser:Chrome - 77.0.3865.120]	[Action:GetGSTModules 06/343,1]	[Remarks:Successful filter row count: 7]
[Date: 2019-11-05 16:26:12]	[UserID:06/343]	[IP:10.128.12.113]	[Browser:Chrome - 77.0.3865.120]	[Action:Closing mssql connection]	[Remarks:Success]
[Date: 2019-11-05 16:31:14]	[UserID:06/343]	[IP:10.128.12.113]	[Browser:Chrome - 77.0.3865.120]	[Action:Making connection to server]	[Remarks:Successful connection to server: S3]
[Date: 2019-11-05 16:31:14]	[UserID:06/343]	[IP:10.128.12.113]	[Browser:Chrome - 77.0.3865.120]	[Action:GetGSTModules 06/343,1]	[Remarks:Successful filter row count: 7]
[Date: 2019-11-05 16:31:14]	[UserID:06/343]	[IP:10.128.12.113]	[Browser:Chrome - 77.0.3865.120]	[Action:Closing mssql connection]	[Remarks:Success]
[Date: 2019-11-05 16:52:43]	[UserID:06/343]	[IP:10.128.12.113]	[Browser:Chrome - 77.0.3865.120]	[Action:Making connection to server]	[Remarks:Successful connection to server: S3]
[Date: 2019-11-05 16:52:43]	[UserID:06/343]	[IP:10.128.12.113]	[Browser:Chrome - 77.0.3865.120]	[Action:GetGSTModules 06/343,1]	[Remarks:Successful filter row count: 7]
[Date: 2019-11-05 16:52:43]	[UserID:06/343]	[IP:10.128.12.113]	[Browser:Chrome - 77.0.3865.120]	[Action:Closing mssql connection]	[Remarks:Success]
[Date: 2019-11-05 16:53:27]	[UserID:06/343]	[IP:10.128.12.113]	[Browser:Chrome - 77.0.3865.120]	[Action:Making connection to server]	[Remarks:Successful connection to server: S3]
[Date: 2019-11-05 16:53:27]	[UserID:06/343]	[IP:10.128.12.113]	[Browser:Chrome - 77.0.3865.120]	[Action:GetGSTModules 06/343,1]	[Remarks:Successful filter row count: 7]
[Date: 2019-11-05 16:53:28]	[UserID:06/343]	[IP:10.128.12.113]	[Browser:Chrome - 77.0.3865.120]	[Action:Closing mssql connection]	[Remarks:Success]
[Date: 2019-11-05 16:56:28]	[UserID:06/343]	[IP:10.128.12.113]	[Browser:Chrome - 77.0.3865.120]	[Action:Making connection to server]	[Remarks:Successful connection to server: S3]
[Date: 2019-11-05 16:56:28]	[UserID:06/343]	[IP:10.128.12.113]	[Browser:Chrome - 77.0.3865.120]	[Action:GetGSTModules 06/343,1]	[Remarks:Successful filter row count: 7]
[Date: 2019-11-05 16:56:28]	[UserID:06/343]	[IP:10.128.12.113]	[Browser:Chrome - 77.0.3865.120]	[Action:Closing mssql connection]	[Remarks:Success]
[Date: 2019-11-05 18:24:00]	[UserID:T042]	[IP:10.128.12.120]	[Browser:Chrome - 77.0.3865.120]	[Action:Making connection to server]	[Remarks:Successful connection to server: S3]
[Date: 2019-11-05 18:24:00]	[UserID:T042]	[IP:10.128.12.120]	[Browser:Chrome - 77.0.3865.120]	[Action:GetGSTModules T042,1]	[Remarks:Successful filter row count: 5]
[Date: 2019-11-05 18:24:00]	[UserID:T042]	[IP:10.128.12.120]	[Browser:Chrome - 77.0.3865.120]	[Action:Closing mssql connection]	[Remarks:Success]
[Date: 2019-11-05 18:24:02]	[UserID:]	[IP:10.128.12.120]	[Browser:Chrome - 77.0.3865.120]	[Action:Making connection to server]	[Remarks:Successful connection to server: S3]
[Date: 2019-11-05 18:24:02]	[UserID:]	[IP:10.128.12.120]	[Browser:Chrome - 77.0.3865.120]	[Action:GetProgramList ]	[Remarks:"no data"]
[Date: 2019-11-05 18:24:08]	[UserID:14/1082]	[IP:10.128.12.120]	[Browser:Chrome - 77.0.3865.120]	[Action:Making connection to server]	[Remarks:Successful connection to server: S3]
[Date: 2019-11-05 18:24:08]	[UserID:14/1082]	[IP:10.128.12.120]	[Browser:Chrome - 77.0.3865.120]	[Action:User 14/1082]	[Remarks:Success]
[Date: 2019-11-05 18:24:08]	[UserID:14/1082]	[IP:10.128.12.120]	[Browser:Chrome - 77.0.3865.120]	[Action:Filtering User : MasterData Username : 14/1082]	[Remarks:Successful filter row count: 0]
[Date: 2019-11-05 18:24:08]	[UserID:14/1082]	[IP:10.128.12.120]	[Browser:Chrome - 77.0.3865.120]	[Action:Filtering User : MasterData Username : 14/1082]	[Remarks:Successful filter row count: 0]
[Date: 2019-11-05 18:24:08]	[UserID:14/1082]	[IP:10.128.12.120]	[Browser:Chrome - 77.0.3865.120]	[Action:Filtering User : MasterData Username : 14/1082]	[Remarks:Success]
[Date: 2019-11-05 18:24:08]	[UserID:14/1082]	[IP:10.128.12.120]	[Browser:Chrome - 77.0.3865.120]	[Action:Closing mssql connection]	[Remarks:Success]
[Date: 2019-11-05 18:24:08]	[UserID:14/1082]	[IP:10.128.12.120]	[Browser:Chrome - 77.0.3865.120]	[Action:Making connection to server]	[Remarks:Successful connection to server: S3]
[Date: 2019-11-05 18:24:08]	[UserID:14/1082]	[IP:10.128.12.120]	[Browser:Chrome - 77.0.3865.120]	[Action:GetProgramList 14/1082]	[Remarks:[{"ID":"1","ProgramIndex":"GST","ProgramName":"GST"}]]
[Date: 2019-11-05 18:24:08]	[UserID:14/1082]	[IP:10.128.12.120]	[Browser:Chrome - 77.0.3865.120]	[Action:Making connection to server]	[Remarks:Successful connection to server: S3]
[Date: 2019-11-05 18:24:08]	[UserID:14/1082]	[IP:10.128.12.120]	[Browser:Chrome - 77.0.3865.120]	[Action:GetProgramList 14/1082]	[Remarks:[{"ID":"1","ProgramIndex":"GST","ProgramName":"GST"}]]
[Date: 2019-11-05 18:24:08]	[UserID:14/1082]	[IP:10.128.12.120]	[Browser:Chrome - 77.0.3865.120]	[Action:Making connection to server]	[Remarks:Successful connection to server: S3]
[Date: 2019-11-05 18:24:08]	[UserID:14/1082]	[IP:10.128.12.120]	[Browser:Chrome - 77.0.3865.120]	[Action:Filtering User : MasterData Username : 14/1082]	[Remarks:Successful filter row count: 1]
[Date: 2019-11-05 18:24:09]	[UserID:14/1082]	[IP:10.128.12.120]	[Browser:Chrome - 77.0.3865.120]	[Action:Making connection to server]	[Remarks:Successful connection to server: S3]
[Date: 2019-11-05 18:24:09]	[UserID:14/1082]	[IP:10.128.12.120]	[Browser:Chrome - 77.0.3865.120]	[Action:GetGSTModules 14/1082,1]	[Remarks:Successful filter row count: 8]
[Date: 2019-11-05 18:24:09]	[UserID:14/1082]	[IP:10.128.12.120]	[Browser:Chrome - 77.0.3865.120]	[Action:Closing mssql connection]	[Remarks:Success]
[Date: 2019-11-05 22:44:01]	[UserID:]	[IP:10.130.25.203]	[Browser:Firefox - 70.0]	[Action:Making connection to server]	[Remarks:Successful connection to server: S3]
[Date: 2019-11-05 22:44:01]	[UserID:]	[IP:10.130.25.203]	[Browser:Firefox - 70.0]	[Action:GetProgramList ]	[Remarks:"no data"]
