[Date: 2016-09-26 07:34:43]	[UserID:]	[IP:10.10.11.1]	[Browser:Chrome - 53.0.2785.116]	[Action:Making connection to server]	[Remarks:Successful connection to server: S3]
[Date: 2016-09-26 07:34:44]	[UserID:]	[IP:10.10.11.1]	[Browser:Chrome - 53.0.2785.116]	[Action:GetProgramList ]	[Remarks:"no data"]
[Date: 2016-09-26 08:10:49]	[UserID:06/343]	[IP:10.10.11.1]	[Browser:Chrome - 53.0.2785.116]	[Action:Making connection to server]	[Remarks:Successful connection to server: S3]
[Date: 2016-09-26 08:10:49]	[UserID:06/343]	[IP:10.10.11.1]	[Browser:Chrome - 53.0.2785.116]	[Action:User 06/343]	[Remarks:Success]
[Date: 2016-09-26 08:10:49]	[UserID:06/343]	[IP:10.10.11.1]	[Browser:Chrome - 53.0.2785.116]	[Action:Filtering User : MasterData Username : 06/343]	[Remarks:Successful filter row count: 0]
[Date: 2016-09-26 08:10:49]	[UserID:06/343]	[IP:10.10.11.1]	[Browser:Chrome - 53.0.2785.116]	[Action:Filtering User : MasterData Username : 06/343]	[Remarks:Successful filter row count: 0]
[Date: 2016-09-26 08:10:49]	[UserID:06/343]	[IP:10.10.11.1]	[Browser:Chrome - 53.0.2785.116]	[Action:Filtering User : MasterData Username : 06/343]	[Remarks:Success]
[Date: 2016-09-26 08:10:49]	[UserID:06/343]	[IP:10.10.11.1]	[Browser:Chrome - 53.0.2785.116]	[Action:Closing mssql connection]	[Remarks:Success]
[Date: 2016-09-26 08:10:49]	[UserID:06/343]	[IP:10.10.11.1]	[Browser:Chrome - 53.0.2785.116]	[Action:Making connection to server]	[Remarks:Successful connection to server: S3]
[Date: 2016-09-26 08:10:49]	[UserID:06/343]	[IP:10.10.11.1]	[Browser:Chrome - 53.0.2785.116]	[Action:GetProgramList 06/343]	[Remarks:[{"ID":"1","ProgramIndex":"GST","ProgramName":"GST"}]]
[Date: 2016-09-26 08:10:49]	[UserID:06/343]	[IP:10.10.11.1]	[Browser:Chrome - 53.0.2785.116]	[Action:Making connection to server]	[Remarks:Successful connection to server: S3]
[Date: 2016-09-26 08:10:49]	[UserID:06/343]	[IP:10.10.11.1]	[Browser:Chrome - 53.0.2785.116]	[Action:GetProgramList 06/343]	[Remarks:[{"ID":"1","ProgramIndex":"GST","ProgramName":"GST"}]]
[Date: 2016-09-26 08:10:49]	[UserID:06/343]	[IP:10.10.11.1]	[Browser:Chrome - 53.0.2785.116]	[Action:Making connection to server]	[Remarks:Successful connection to server: S3]
[Date: 2016-09-26 08:10:49]	[UserID:06/343]	[IP:10.10.11.1]	[Browser:Chrome - 53.0.2785.116]	[Action:Filtering User : MasterData Username : 06/343]	[Remarks:Successful filter row count: 1]
[Date: 2016-09-26 08:10:50]	[UserID:06/343]	[IP:10.10.11.1]	[Browser:Chrome - 53.0.2785.116]	[Action:Making connection to server]	[Remarks:Successful connection to server: S3]
[Date: 2016-09-26 08:10:50]	[UserID:06/343]	[IP:10.10.11.1]	[Browser:Chrome - 53.0.2785.116]	[Action:GetGSTModules 06/343,1]	[Remarks:Successful filter row count: 5]
[Date: 2016-09-26 08:10:50]	[UserID:06/343]	[IP:10.10.11.1]	[Browser:Chrome - 53.0.2785.116]	[Action:Closing mssql connection]	[Remarks:Success]
[Date: 2016-09-26 08:18:22]	[UserID:06/343]	[IP:10.10.11.1]	[Browser:Chrome - 53.0.2785.116]	[Action:Making connection to server]	[Remarks:Successful connection to server: S3]
[Date: 2016-09-26 08:18:22]	[UserID:06/343]	[IP:10.10.11.1]	[Browser:Chrome - 53.0.2785.116]	[Action:GetGSTModules 06/343,1]	[Remarks:Successful filter row count: 5]
[Date: 2016-09-26 08:18:22]	[UserID:06/343]	[IP:10.10.11.1]	[Browser:Chrome - 53.0.2785.116]	[Action:Closing mssql connection]	[Remarks:Success]
[Date: 2016-09-26 08:27:00]	[UserID:06/343]	[IP:10.10.11.1]	[Browser:Chrome - 53.0.2785.116]	[Action:Making connection to server]	[Remarks:Successful connection to server: S3]
[Date: 2016-09-26 08:27:00]	[UserID:06/343]	[IP:10.10.11.1]	[Browser:Chrome - 53.0.2785.116]	[Action:GetGSTModules 06/343,1]	[Remarks:Successful filter row count: 5]
[Date: 2016-09-26 08:27:00]	[UserID:06/343]	[IP:10.10.11.1]	[Browser:Chrome - 53.0.2785.116]	[Action:Closing mssql connection]	[Remarks:Success]
[Date: 2016-09-26 08:29:47]	[UserID:06/343]	[IP:10.10.11.1]	[Browser:Chrome - 53.0.2785.116]	[Action:Making connection to server]	[Remarks:Successful connection to server: S3]
[Date: 2016-09-26 08:29:47]	[UserID:06/343]	[IP:10.10.11.1]	[Browser:Chrome - 53.0.2785.116]	[Action:GetGSTModules 06/343,1]	[Remarks:Successful filter row count: 5]
[Date: 2016-09-26 08:29:47]	[UserID:06/343]	[IP:10.10.11.1]	[Browser:Chrome - 53.0.2785.116]	[Action:Closing mssql connection]	[Remarks:Success]
[Date: 2016-09-26 08:31:09]	[UserID:06/343]	[IP:10.10.11.1]	[Browser:Chrome - 53.0.2785.116]	[Action:Making connection to server]	[Remarks:Successful connection to server: S3]
[Date: 2016-09-26 08:31:09]	[UserID:06/343]	[IP:10.10.11.1]	[Browser:Chrome - 53.0.2785.116]	[Action:GetGSTModules 06/343,1]	[Remarks:Successful filter row count: 5]
[Date: 2016-09-26 08:31:09]	[UserID:06/343]	[IP:10.10.11.1]	[Browser:Chrome - 53.0.2785.116]	[Action:Closing mssql connection]	[Remarks:Success]
[Date: 2016-09-26 08:31:14]	[UserID:06/343]	[IP:10.10.11.1]	[Browser:Chrome - 53.0.2785.116]	[Action:Making connection to server]	[Remarks:Successful connection to server: S3]
[Date: 2016-09-26 08:31:14]	[UserID:06/343]	[IP:10.10.11.1]	[Browser:Chrome - 53.0.2785.116]	[Action:GetGSTModules 06/343,1]	[Remarks:Successful filter row count: 5]
[Date: 2016-09-26 08:31:14]	[UserID:06/343]	[IP:10.10.11.1]	[Browser:Chrome - 53.0.2785.116]	[Action:Closing mssql connection]	[Remarks:Success]
[Date: 2016-09-26 08:31:34]	[UserID:06/343]	[IP:10.10.11.1]	[Browser:Chrome - 53.0.2785.116]	[Action:Making connection to server]	[Remarks:Successful connection to server: S3]
[Date: 2016-09-26 08:31:34]	[UserID:06/343]	[IP:10.10.11.1]	[Browser:Chrome - 53.0.2785.116]	[Action:GetGSTModules 06/343,1]	[Remarks:Successful filter row count: 5]
[Date: 2016-09-26 08:31:34]	[UserID:06/343]	[IP:10.10.11.1]	[Browser:Chrome - 53.0.2785.116]	[Action:Closing mssql connection]	[Remarks:Success]
[Date: 2016-09-26 08:38:10]	[UserID:06/343]	[IP:10.10.11.1]	[Browser:Chrome - 53.0.2785.116]	[Action:Making connection to server]	[Remarks:Successful connection to server: S3]
[Date: 2016-09-26 08:38:10]	[UserID:06/343]	[IP:10.10.11.1]	[Browser:Chrome - 53.0.2785.116]	[Action:GetGSTModules 06/343,1]	[Remarks:Successful filter row count: 5]
[Date: 2016-09-26 08:38:10]	[UserID:06/343]	[IP:10.10.11.1]	[Browser:Chrome - 53.0.2785.116]	[Action:Closing mssql connection]	[Remarks:Success]
[Date: 2016-09-26 08:38:58]	[UserID:06/343]	[IP:10.10.11.1]	[Browser:Chrome - 53.0.2785.116]	[Action:Making connection to server]	[Remarks:Successful connection to server: S3]
[Date: 2016-09-26 08:38:58]	[UserID:06/343]	[IP:10.10.11.1]	[Browser:Chrome - 53.0.2785.116]	[Action:GetGSTModules 06/343,1]	[Remarks:Successful filter row count: 5]
[Date: 2016-09-26 08:38:58]	[UserID:06/343]	[IP:10.10.11.1]	[Browser:Chrome - 53.0.2785.116]	[Action:Closing mssql connection]	[Remarks:Success]
[Date: 2016-09-26 08:41:56]	[UserID:06/343]	[IP:10.10.11.1]	[Browser:Chrome - 53.0.2785.116]	[Action:Making connection to server]	[Remarks:Successful connection to server: S3]
[Date: 2016-09-26 08:41:56]	[UserID:06/343]	[IP:10.10.11.1]	[Browser:Chrome - 53.0.2785.116]	[Action:GetGSTModules 06/343,1]	[Remarks:Successful filter row count: 5]
[Date: 2016-09-26 08:41:56]	[UserID:06/343]	[IP:10.10.11.1]	[Browser:Chrome - 53.0.2785.116]	[Action:Closing mssql connection]	[Remarks:Success]
[Date: 2016-09-26 08:43:34]	[UserID:06/343]	[IP:10.10.11.1]	[Browser:Chrome - 53.0.2785.116]	[Action:Making connection to server]	[Remarks:Successful connection to server: S3]
[Date: 2016-09-26 08:43:34]	[UserID:06/343]	[IP:10.10.11.1]	[Browser:Chrome - 53.0.2785.116]	[Action:GetGSTModules 06/343,1]	[Remarks:Successful filter row count: 5]
[Date: 2016-09-26 08:43:34]	[UserID:06/343]	[IP:10.10.11.1]	[Browser:Chrome - 53.0.2785.116]	[Action:Closing mssql connection]	[Remarks:Success]
[Date: 2016-09-26 08:49:54]	[UserID:]	[IP:10.10.11.1]	[Browser:Chrome - 49.0.2623.75]	[Action:Making connection to server]	[Remarks:Successful connection to server: S3]
[Date: 2016-09-26 08:49:54]	[UserID:]	[IP:10.10.11.1]	[Browser:Chrome - 49.0.2623.75]	[Action:GetProgramList ]	[Remarks:"no data"]
[Date: 2016-09-26 08:49:57]	[UserID:]	[IP:10.10.11.1]	[Browser:Chrome - 53.0.2785.116]	[Action:Making connection to server]	[Remarks:Successful connection to server: S3]
[Date: 2016-09-26 08:49:57]	[UserID:]	[IP:10.10.11.1]	[Browser:Chrome - 53.0.2785.116]	[Action:GetProgramList ]	[Remarks:"no data"]
[Date: 2016-09-26 08:52:36]	[UserID:11/715]	[IP:10.10.11.1]	[Browser:Chrome - 53.0.2785.116]	[Action:Making connection to server]	[Remarks:Successful connection to server: S3]
[Date: 2016-09-26 08:52:36]	[UserID:11/715]	[IP:10.10.11.1]	[Browser:Chrome - 53.0.2785.116]	[Action:User 11/715]	[Remarks:Success]
[Date: 2016-09-26 08:52:36]	[UserID:11/715]	[IP:10.10.11.1]	[Browser:Chrome - 53.0.2785.116]	[Action:Filtering User : MasterData Username : 11/715]	[Remarks:Successful filter row count: 0]
[Date: 2016-09-26 08:52:36]	[UserID:11/715]	[IP:10.10.11.1]	[Browser:Chrome - 53.0.2785.116]	[Action:Filtering User : MasterData Username : 11/715]	[Remarks:Successful filter row count: 0]
[Date: 2016-09-26 08:52:36]	[UserID:11/715]	[IP:10.10.11.1]	[Browser:Chrome - 53.0.2785.116]	[Action:Filtering User : MasterData Username : 11/715]	[Remarks:Success]
[Date: 2016-09-26 08:52:36]	[UserID:11/715]	[IP:10.10.11.1]	[Browser:Chrome - 53.0.2785.116]	[Action:Closing mssql connection]	[Remarks:Success]
[Date: 2016-09-26 08:52:36]	[UserID:11/715]	[IP:10.10.11.1]	[Browser:Chrome - 53.0.2785.116]	[Action:Making connection to server]	[Remarks:Successful connection to server: S3]
[Date: 2016-09-26 08:52:36]	[UserID:11/715]	[IP:10.10.11.1]	[Browser:Chrome - 53.0.2785.116]	[Action:GetProgramList 11/715]	[Remarks:[{"ID":"1","ProgramIndex":"GST","ProgramName":"GST"}]]
[Date: 2016-09-26 08:52:36]	[UserID:11/715]	[IP:10.10.11.1]	[Browser:Chrome - 53.0.2785.116]	[Action:Making connection to server]	[Remarks:Successful connection to server: S3]
[Date: 2016-09-26 08:52:36]	[UserID:11/715]	[IP:10.10.11.1]	[Browser:Chrome - 53.0.2785.116]	[Action:GetProgramList 11/715]	[Remarks:[{"ID":"1","ProgramIndex":"GST","ProgramName":"GST"}]]
[Date: 2016-09-26 08:52:36]	[UserID:11/715]	[IP:10.10.11.1]	[Browser:Chrome - 53.0.2785.116]	[Action:Making connection to server]	[Remarks:Successful connection to server: S3]
[Date: 2016-09-26 08:52:36]	[UserID:11/715]	[IP:10.10.11.1]	[Browser:Chrome - 53.0.2785.116]	[Action:Filtering User : MasterData Username : 11/715]	[Remarks:Successful filter row count: 1]
[Date: 2016-09-26 08:52:37]	[UserID:11/715]	[IP:10.10.11.1]	[Browser:Chrome - 53.0.2785.116]	[Action:Making connection to server]	[Remarks:Successful connection to server: S3]
[Date: 2016-09-26 08:52:37]	[UserID:11/715]	[IP:10.10.11.1]	[Browser:Chrome - 53.0.2785.116]	[Action:GetGSTModules 11/715,1]	[Remarks:Successful filter row count: 3]
[Date: 2016-09-26 08:52:37]	[UserID:11/715]	[IP:10.10.11.1]	[Browser:Chrome - 53.0.2785.116]	[Action:Closing mssql connection]	[Remarks:Success]
[Date: 2016-09-26 08:54:36]	[UserID:11/715]	[IP:10.10.11.1]	[Browser:Chrome - 53.0.2785.116]	[Action:Making connection to server]	[Remarks:Successful connection to server: S3]
[Date: 2016-09-26 08:54:36]	[UserID:11/715]	[IP:10.10.11.1]	[Browser:Chrome - 53.0.2785.116]	[Action:GetGSTModules 11/715,1]	[Remarks:Successful filter row count: 3]
[Date: 2016-09-26 08:54:36]	[UserID:11/715]	[IP:10.10.11.1]	[Browser:Chrome - 53.0.2785.116]	[Action:Closing mssql connection]	[Remarks:Success]
