[Date: 2019-04-04 17:06:00]	[UserID:]	[IP:10.128.81.17]	[Browser:Chrome - 73.0.3683.86]	[Action:Making connection to server]	[Remarks:Successful connection to server: S3]
[Date: 2019-04-04 17:06:00]	[UserID:]	[IP:10.128.81.17]	[Browser:Chrome - 73.0.3683.86]	[Action:GetProgramList ]	[Remarks:"no data"]
[Date: 2019-04-04 17:06:16]	[UserID:17/1257]	[IP:10.128.81.17]	[Browser:Chrome - 73.0.3683.86]	[Action:Making connection to server]	[Remarks:Successful connection to server: S3]
[Date: 2019-04-04 17:06:16]	[UserID:17/1257]	[IP:10.128.81.17]	[Browser:Chrome - 73.0.3683.86]	[Action:User 17/1257]	[Remarks:Success]
[Date: 2019-04-04 17:06:16]	[UserID:17/1257]	[IP:10.128.81.17]	[Browser:Chrome - 73.0.3683.86]	[Action:Filtering User : MasterData Username : 17/1257]	[Remarks:Successful filter row count: 0]
[Date: 2019-04-04 17:06:16]	[UserID:17/1257]	[IP:10.128.81.17]	[Browser:Chrome - 73.0.3683.86]	[Action:Filtering User : MasterData Username : 17/1257]	[Remarks:Successful filter row count: 0]
[Date: 2019-04-04 17:06:16]	[UserID:17/1257]	[IP:10.128.81.17]	[Browser:Chrome - 73.0.3683.86]	[Action:Filtering User : MasterData Username : 17/1257]	[Remarks:Success]
[Date: 2019-04-04 17:06:16]	[UserID:17/1257]	[IP:10.128.81.17]	[Browser:Chrome - 73.0.3683.86]	[Action:Closing mssql connection]	[Remarks:Success]
[Date: 2019-04-04 17:06:16]	[UserID:17/1257]	[IP:10.128.81.17]	[Browser:Chrome - 73.0.3683.86]	[Action:Making connection to server]	[Remarks:Successful connection to server: S3]
[Date: 2019-04-04 17:06:16]	[UserID:17/1257]	[IP:10.128.81.17]	[Browser:Chrome - 73.0.3683.86]	[Action:GetProgramList 17/1257]	[Remarks:[{"ID":"1","ProgramIndex":"GST","ProgramName":"GST"}]]
[Date: 2019-04-04 17:06:16]	[UserID:17/1257]	[IP:10.128.81.17]	[Browser:Chrome - 73.0.3683.86]	[Action:Making connection to server]	[Remarks:Successful connection to server: S3]
[Date: 2019-04-04 17:06:16]	[UserID:17/1257]	[IP:10.128.81.17]	[Browser:Chrome - 73.0.3683.86]	[Action:GetProgramList 17/1257]	[Remarks:[{"ID":"1","ProgramIndex":"GST","ProgramName":"GST"}]]
[Date: 2019-04-04 17:06:16]	[UserID:17/1257]	[IP:10.128.81.17]	[Browser:Chrome - 73.0.3683.86]	[Action:Making connection to server]	[Remarks:Successful connection to server: S3]
[Date: 2019-04-04 17:06:16]	[UserID:17/1257]	[IP:10.128.81.17]	[Browser:Chrome - 73.0.3683.86]	[Action:Filtering User : MasterData Username : 17/1257]	[Remarks:Successful filter row count: 1]
[Date: 2019-04-04 17:06:16]	[UserID:17/1257]	[IP:10.128.81.17]	[Browser:Chrome - 73.0.3683.86]	[Action:Making connection to server]	[Remarks:Successful connection to server: S3]
[Date: 2019-04-04 17:06:16]	[UserID:17/1257]	[IP:10.128.81.17]	[Browser:Chrome - 73.0.3683.86]	[Action:GetGSTModules 17/1257,1]	[Remarks:Successful filter row count: 4]
[Date: 2019-04-04 17:06:16]	[UserID:17/1257]	[IP:10.128.81.17]	[Browser:Chrome - 73.0.3683.86]	[Action:Closing mssql connection]	[Remarks:Success]
[Date: 2019-04-04 17:16:06]	[UserID:17/1257]	[IP:10.128.81.17]	[Browser:Chrome - 73.0.3683.86]	[Action:Making connection to server]	[Remarks:Successful connection to server: S3]
[Date: 2019-04-04 17:16:06]	[UserID:17/1257]	[IP:10.128.81.17]	[Browser:Chrome - 73.0.3683.86]	[Action:GetGSTModules 17/1257,1]	[Remarks:Successful filter row count: 4]
[Date: 2019-04-04 17:16:06]	[UserID:17/1257]	[IP:10.128.81.17]	[Browser:Chrome - 73.0.3683.86]	[Action:Closing mssql connection]	[Remarks:Success]
[Date: 2019-04-04 17:16:18]	[UserID:17/1257]	[IP:10.128.81.17]	[Browser:Chrome - 73.0.3683.86]	[Action:Making connection to server]	[Remarks:Successful connection to server: S3]
[Date: 2019-04-04 17:16:18]	[UserID:17/1257]	[IP:10.128.81.17]	[Browser:Chrome - 73.0.3683.86]	[Action:GetGSTModules 17/1257,1]	[Remarks:Successful filter row count: 4]
[Date: 2019-04-04 17:16:18]	[UserID:17/1257]	[IP:10.128.81.17]	[Browser:Chrome - 73.0.3683.86]	[Action:Closing mssql connection]	[Remarks:Success]
[Date: 2019-04-04 17:36:54]	[UserID:]	[IP:10.128.81.17]	[Browser:Chrome - 73.0.3683.86]	[Action:Making connection to server]	[Remarks:Successful connection to server: S3]
[Date: 2019-04-04 17:36:54]	[UserID:]	[IP:10.128.81.17]	[Browser:Chrome - 73.0.3683.86]	[Action:GetProgramList ]	[Remarks:"no data"]
