[Date: 2018-09-03 17:59:33]	[UserID:]	[IP:10.128.12.210]	[Browser:Chrome - 68.0.3440.106]	[Action:Making connection to server]	[Remarks:Successful connection to server: S3]
[Date: 2018-09-03 17:59:33]	[UserID:]	[IP:10.128.12.210]	[Browser:Chrome - 68.0.3440.106]	[Action:GetProgramList ]	[Remarks:"no data"]
[Date: 2018-09-03 18:00:17]	[UserID:10/660]	[IP:10.128.12.210]	[Browser:Chrome - 68.0.3440.106]	[Action:Making connection to server]	[Remarks:Successful connection to server: S3]
[Date: 2018-09-03 18:00:17]	[UserID:10/660]	[IP:10.128.12.210]	[Browser:Chrome - 68.0.3440.106]	[Action:User 10/660]	[Remarks:Success]
[Date: 2018-09-03 18:00:17]	[UserID:10/660]	[IP:10.128.12.210]	[Browser:Chrome - 68.0.3440.106]	[Action:Filtering User : MasterData Username : 10/660]	[Remarks:Successful filter row count: 0]
[Date: 2018-09-03 18:00:17]	[UserID:10/660]	[IP:10.128.12.210]	[Browser:Chrome - 68.0.3440.106]	[Action:Filtering User : MasterData Username : 10/660]	[Remarks:Successful filter row count: 0]
[Date: 2018-09-03 18:00:17]	[UserID:10/660]	[IP:10.128.12.210]	[Browser:Chrome - 68.0.3440.106]	[Action:Filtering User : MasterData Username : 10/660]	[Remarks:Success]
[Date: 2018-09-03 18:00:17]	[UserID:10/660]	[IP:10.128.12.210]	[Browser:Chrome - 68.0.3440.106]	[Action:Closing mssql connection]	[Remarks:Success]
[Date: 2018-09-03 18:00:17]	[UserID:10/660]	[IP:10.128.12.210]	[Browser:Chrome - 68.0.3440.106]	[Action:Making connection to server]	[Remarks:Successful connection to server: S3]
[Date: 2018-09-03 18:00:17]	[UserID:10/660]	[IP:10.128.12.210]	[Browser:Chrome - 68.0.3440.106]	[Action:GetProgramList 10/660]	[Remarks:[{"ID":"1","ProgramIndex":"GST","ProgramName":"GST"}]]
[Date: 2018-09-03 18:00:17]	[UserID:10/660]	[IP:10.128.12.210]	[Browser:Chrome - 68.0.3440.106]	[Action:Making connection to server]	[Remarks:Successful connection to server: S3]
[Date: 2018-09-03 18:00:17]	[UserID:10/660]	[IP:10.128.12.210]	[Browser:Chrome - 68.0.3440.106]	[Action:GetProgramList 10/660]	[Remarks:[{"ID":"1","ProgramIndex":"GST","ProgramName":"GST"}]]
[Date: 2018-09-03 18:00:17]	[UserID:10/660]	[IP:10.128.12.210]	[Browser:Chrome - 68.0.3440.106]	[Action:Making connection to server]	[Remarks:Successful connection to server: S3]
[Date: 2018-09-03 18:00:17]	[UserID:10/660]	[IP:10.128.12.210]	[Browser:Chrome - 68.0.3440.106]	[Action:Filtering User : MasterData Username : 10/660]	[Remarks:Successful filter row count: 1]
[Date: 2018-09-03 18:00:18]	[UserID:10/660]	[IP:10.128.12.210]	[Browser:Chrome - 68.0.3440.106]	[Action:Making connection to server]	[Remarks:Successful connection to server: S3]
[Date: 2018-09-03 18:00:18]	[UserID:10/660]	[IP:10.128.12.210]	[Browser:Chrome - 68.0.3440.106]	[Action:GetGSTModules 10/660,1]	[Remarks:Successful filter row count: 5]
[Date: 2018-09-03 18:00:18]	[UserID:10/660]	[IP:10.128.12.210]	[Browser:Chrome - 68.0.3440.106]	[Action:Closing mssql connection]	[Remarks:Success]
[Date: 2018-09-03 18:13:44]	[UserID:10/660]	[IP:10.128.12.210]	[Browser:Chrome - 68.0.3440.106]	[Action:Making connection to server]	[Remarks:Successful connection to server: S3]
[Date: 2018-09-03 18:13:44]	[UserID:10/660]	[IP:10.128.12.210]	[Browser:Chrome - 68.0.3440.106]	[Action:GetGSTModules 10/660,1]	[Remarks:Successful filter row count: 5]
[Date: 2018-09-03 18:13:44]	[UserID:10/660]	[IP:10.128.12.210]	[Browser:Chrome - 68.0.3440.106]	[Action:Closing mssql connection]	[Remarks:Success]
