[Date: 2021-05-27 10:08:10]	[UserID:]	[IP:10.128.130.5]	[Browser:Chrome - 90.0.4430.212]	[Action:Making connection to server]	[Remarks:Successful connection to server: S3]
[Date: 2021-05-27 10:08:10]	[UserID:]	[IP:10.128.130.5]	[Browser:Chrome - 90.0.4430.212]	[Action:GetProgramList ]	[Remarks:"no data"]
[Date: 2021-05-27 10:08:20]	[UserID:dev/jagustin]	[IP:10.128.130.5]	[Browser:Chrome - 90.0.4430.212]	[Action:Making connection to server]	[Remarks:Successful connection to server: S3]
[Date: 2021-05-27 10:08:20]	[UserID:dev/jagustin]	[IP:10.128.130.5]	[Browser:Chrome - 90.0.4430.212]	[Action:User dev/jagustin]	[Remarks:Success]
[Date: 2021-05-27 10:08:20]	[UserID:dev/jagustin]	[IP:10.128.130.5]	[Browser:Chrome - 90.0.4430.212]	[Action:Filtering User : MasterData Username : dev/jagustin]	[Remarks:Successful filter row count: 0]
[Date: 2021-05-27 10:08:20]	[UserID:dev/jagustin]	[IP:10.128.130.5]	[Browser:Chrome - 90.0.4430.212]	[Action:Filtering User : MasterData Username : dev/jagustin]	[Remarks:Successful filter row count: 0]
[Date: 2021-05-27 10:08:20]	[UserID:dev/jagustin]	[IP:10.128.130.5]	[Browser:Chrome - 90.0.4430.212]	[Action:Filtering User : MasterData Username : dev/jagustin]	[Remarks:Success]
[Date: 2021-05-27 10:08:20]	[UserID:dev/jagustin]	[IP:10.128.130.5]	[Browser:Chrome - 90.0.4430.212]	[Action:Closing mssql connection]	[Remarks:Success]
[Date: 2021-05-27 10:08:20]	[UserID:dev/jagustin]	[IP:10.128.130.5]	[Browser:Chrome - 90.0.4430.212]	[Action:Making connection to server]	[Remarks:Successful connection to server: S3]
[Date: 2021-05-27 10:08:20]	[UserID:dev/jagustin]	[IP:10.128.130.5]	[Browser:Chrome - 90.0.4430.212]	[Action:GetProgramList dev/jagustin]	[Remarks:[{"ID":"1","ProgramIndex":"GST","ProgramName":"GST"},{"ID":"3","ProgramIndex":"PRD","ProgramName":"PRD"}]]
[Date: 2021-05-27 10:08:20]	[UserID:dev/jagustin]	[IP:10.128.130.5]	[Browser:Chrome - 90.0.4430.212]	[Action:Making connection to server]	[Remarks:Successful connection to server: S3]
[Date: 2021-05-27 10:08:20]	[UserID:dev/jagustin]	[IP:10.128.130.5]	[Browser:Chrome - 90.0.4430.212]	[Action:GetProgramList dev/jagustin]	[Remarks:[{"ID":"1","ProgramIndex":"GST","ProgramName":"GST"},{"ID":"3","ProgramIndex":"PRD","ProgramName":"PRD"}]]
[Date: 2021-05-27 10:08:20]	[UserID:dev/jagustin]	[IP:10.128.130.5]	[Browser:Chrome - 90.0.4430.212]	[Action:Making connection to server]	[Remarks:Successful connection to server: S3]
[Date: 2021-05-27 10:08:20]	[UserID:dev/jagustin]	[IP:10.128.130.5]	[Browser:Chrome - 90.0.4430.212]	[Action:Filtering User : MasterData Username : dev/jagustin]	[Remarks:Successful filter row count: 1]
[Date: 2021-05-27 10:08:22]	[UserID:dev/jagustin]	[IP:10.128.130.5]	[Browser:Chrome - 90.0.4430.212]	[Action:Making connection to server]	[Remarks:Successful connection to server: S3]
[Date: 2021-05-27 10:08:22]	[UserID:dev/jagustin]	[IP:10.128.130.5]	[Browser:Chrome - 90.0.4430.212]	[Action:GetGSTModules dev/jagustin,1]	[Remarks:Successful filter row count: 14]
[Date: 2021-05-27 10:08:22]	[UserID:dev/jagustin]	[IP:10.128.130.5]	[Browser:Chrome - 90.0.4430.212]	[Action:Closing mssql connection]	[Remarks:Success]
[Date: 2021-05-27 10:10:51]	[UserID:dev/jagustin]	[IP:10.128.130.5]	[Browser:Chrome - 90.0.4430.212]	[Action:Making connection to server]	[Remarks:Successful connection to server: S3]
[Date: 2021-05-27 10:10:51]	[UserID:dev/jagustin]	[IP:10.128.130.5]	[Browser:Chrome - 90.0.4430.212]	[Action:GetProgramList dev/jagustin]	[Remarks:[{"ID":"1","ProgramIndex":"GST","ProgramName":"GST"},{"ID":"3","ProgramIndex":"PRD","ProgramName":"PRD"}]]
[Date: 2021-05-27 10:10:51]	[UserID:dev/jagustin]	[IP:10.128.130.5]	[Browser:Chrome - 90.0.4430.212]	[Action:Making connection to server]	[Remarks:Successful connection to server: S3]
[Date: 2021-05-27 10:10:51]	[UserID:dev/jagustin]	[IP:10.128.130.5]	[Browser:Chrome - 90.0.4430.212]	[Action:GetProgramList dev/jagustin]	[Remarks:[{"ID":"1","ProgramIndex":"GST","ProgramName":"GST"},{"ID":"3","ProgramIndex":"PRD","ProgramName":"PRD"}]]
[Date: 2021-05-27 10:10:51]	[UserID:dev/jagustin]	[IP:10.128.130.5]	[Browser:Chrome - 90.0.4430.212]	[Action:Making connection to server]	[Remarks:Successful connection to server: S3]
[Date: 2021-05-27 10:10:51]	[UserID:dev/jagustin]	[IP:10.128.130.5]	[Browser:Chrome - 90.0.4430.212]	[Action:Filtering User : MasterData Username : dev/jagustin]	[Remarks:Successful filter row count: 1]
[Date: 2021-05-27 10:10:54]	[UserID:dev/jagustin]	[IP:10.128.130.5]	[Browser:Chrome - 90.0.4430.212]	[Action:Making connection to server]	[Remarks:Successful connection to server: S3]
[Date: 2021-05-27 10:10:54]	[UserID:dev/jagustin]	[IP:10.128.130.5]	[Browser:Chrome - 90.0.4430.212]	[Action:GetGSTModules dev/jagustin,1]	[Remarks:Successful filter row count: 14]
[Date: 2021-05-27 10:10:54]	[UserID:dev/jagustin]	[IP:10.128.130.5]	[Browser:Chrome - 90.0.4430.212]	[Action:Closing mssql connection]	[Remarks:Success]
[Date: 2021-05-27 10:10:59]	[UserID:dev/jagustin]	[IP:10.128.130.5]	[Browser:Chrome - 90.0.4430.212]	[Action:Making connection to server]	[Remarks:Successful connection to server: S3]
[Date: 2021-05-27 10:10:59]	[UserID:dev/jagustin]	[IP:10.128.130.5]	[Browser:Chrome - 90.0.4430.212]	[Action:GetGSTModules dev/jagustin,1]	[Remarks:Successful filter row count: 14]
[Date: 2021-05-27 10:10:59]	[UserID:dev/jagustin]	[IP:10.128.130.5]	[Browser:Chrome - 90.0.4430.212]	[Action:Closing mssql connection]	[Remarks:Success]
[Date: 2021-05-27 15:49:18]	[UserID:dev/jagustin]	[IP:10.128.130.5]	[Browser:Chrome - 90.0.4430.212]	[Action:Making connection to server]	[Remarks:Successful connection to server: S3]
[Date: 2021-05-27 15:49:18]	[UserID:dev/jagustin]	[IP:10.128.130.5]	[Browser:Chrome - 90.0.4430.212]	[Action:GetProgramList dev/jagustin]	[Remarks:[{"ID":"1","ProgramIndex":"GST","ProgramName":"GST"},{"ID":"3","ProgramIndex":"PRD","ProgramName":"PRD"}]]
[Date: 2021-05-27 15:49:18]	[UserID:dev/jagustin]	[IP:10.128.130.5]	[Browser:Chrome - 90.0.4430.212]	[Action:Making connection to server]	[Remarks:Successful connection to server: S3]
[Date: 2021-05-27 15:49:18]	[UserID:dev/jagustin]	[IP:10.128.130.5]	[Browser:Chrome - 90.0.4430.212]	[Action:GetProgramList dev/jagustin]	[Remarks:[{"ID":"1","ProgramIndex":"GST","ProgramName":"GST"},{"ID":"3","ProgramIndex":"PRD","ProgramName":"PRD"}]]
[Date: 2021-05-27 15:49:18]	[UserID:dev/jagustin]	[IP:10.128.130.5]	[Browser:Chrome - 90.0.4430.212]	[Action:Making connection to server]	[Remarks:Successful connection to server: S3]
[Date: 2021-05-27 15:49:18]	[UserID:dev/jagustin]	[IP:10.128.130.5]	[Browser:Chrome - 90.0.4430.212]	[Action:Filtering User : MasterData Username : dev/jagustin]	[Remarks:Successful filter row count: 1]
[Date: 2021-05-27 15:49:19]	[UserID:dev/jagustin]	[IP:10.128.130.5]	[Browser:Chrome - 90.0.4430.212]	[Action:Making connection to server]	[Remarks:Successful connection to server: S3]
[Date: 2021-05-27 15:49:19]	[UserID:dev/jagustin]	[IP:10.128.130.5]	[Browser:Chrome - 90.0.4430.212]	[Action:GetProgramList dev/jagustin]	[Remarks:[{"ID":"1","ProgramIndex":"GST","ProgramName":"GST"},{"ID":"3","ProgramIndex":"PRD","ProgramName":"PRD"}]]
[Date: 2021-05-27 15:49:19]	[UserID:dev/jagustin]	[IP:10.128.130.5]	[Browser:Chrome - 90.0.4430.212]	[Action:Making connection to server]	[Remarks:Successful connection to server: S3]
[Date: 2021-05-27 15:49:19]	[UserID:dev/jagustin]	[IP:10.128.130.5]	[Browser:Chrome - 90.0.4430.212]	[Action:GetProgramList dev/jagustin]	[Remarks:[{"ID":"1","ProgramIndex":"GST","ProgramName":"GST"},{"ID":"3","ProgramIndex":"PRD","ProgramName":"PRD"}]]
[Date: 2021-05-27 15:49:19]	[UserID:dev/jagustin]	[IP:10.128.130.5]	[Browser:Chrome - 90.0.4430.212]	[Action:Making connection to server]	[Remarks:Successful connection to server: S3]
[Date: 2021-05-27 15:49:19]	[UserID:dev/jagustin]	[IP:10.128.130.5]	[Browser:Chrome - 90.0.4430.212]	[Action:Filtering User : MasterData Username : dev/jagustin]	[Remarks:Successful filter row count: 1]
[Date: 2021-05-27 16:31:48]	[UserID:dev/jagustin]	[IP:10.128.130.5]	[Browser:Chrome - 90.0.4430.212]	[Action:Making connection to server]	[Remarks:Successful connection to server: S3]
[Date: 2021-05-27 16:31:48]	[UserID:dev/jagustin]	[IP:10.128.130.5]	[Browser:Chrome - 90.0.4430.212]	[Action:GetGSTModules dev/jagustin,1]	[Remarks:Successful filter row count: 14]
[Date: 2021-05-27 16:31:48]	[UserID:dev/jagustin]	[IP:10.128.130.5]	[Browser:Chrome - 90.0.4430.212]	[Action:Closing mssql connection]	[Remarks:Success]
[Date: 2021-05-27 16:32:48]	[UserID:dev/jagustin]	[IP:10.128.130.5]	[Browser:Chrome - 90.0.4430.212]	[Action:Making connection to server]	[Remarks:Successful connection to server: S3]
[Date: 2021-05-27 16:32:48]	[UserID:dev/jagustin]	[IP:10.128.130.5]	[Browser:Chrome - 90.0.4430.212]	[Action:GetGSTModules dev/jagustin,1]	[Remarks:Successful filter row count: 14]
[Date: 2021-05-27 16:32:48]	[UserID:dev/jagustin]	[IP:10.128.130.5]	[Browser:Chrome - 90.0.4430.212]	[Action:Closing mssql connection]	[Remarks:Success]
[Date: 2021-05-27 16:44:44]	[UserID:dev/jagustin]	[IP:10.128.130.5]	[Browser:Chrome - 90.0.4430.212]	[Action:Making connection to server]	[Remarks:Successful connection to server: S3]
[Date: 2021-05-27 16:44:44]	[UserID:dev/jagustin]	[IP:10.128.130.5]	[Browser:Chrome - 90.0.4430.212]	[Action:GetGSTModules dev/jagustin,1]	[Remarks:Successful filter row count: 14]
[Date: 2021-05-27 16:44:44]	[UserID:dev/jagustin]	[IP:10.128.130.5]	[Browser:Chrome - 90.0.4430.212]	[Action:Closing mssql connection]	[Remarks:Success]
[Date: 2021-05-27 17:15:07]	[UserID:dev/jagustin]	[IP:10.128.130.5]	[Browser:Chrome - 90.0.4430.212]	[Action:Making connection to server]	[Remarks:Successful connection to server: S3]
[Date: 2021-05-27 17:15:07]	[UserID:dev/jagustin]	[IP:10.128.130.5]	[Browser:Chrome - 90.0.4430.212]	[Action:GetGSTModules dev/jagustin,1]	[Remarks:Successful filter row count: 14]
[Date: 2021-05-27 17:15:07]	[UserID:dev/jagustin]	[IP:10.128.130.5]	[Browser:Chrome - 90.0.4430.212]	[Action:Closing mssql connection]	[Remarks:Success]
[Date: 2021-05-27 17:15:12]	[UserID:dev/jagustin]	[IP:10.128.130.5]	[Browser:Chrome - 90.0.4430.212]	[Action:Making connection to server]	[Remarks:Successful connection to server: S3]
[Date: 2021-05-27 17:15:12]	[UserID:dev/jagustin]	[IP:10.128.130.5]	[Browser:Chrome - 90.0.4430.212]	[Action:GetGSTModules dev/jagustin,1]	[Remarks:Successful filter row count: 14]
[Date: 2021-05-27 17:15:12]	[UserID:dev/jagustin]	[IP:10.128.130.5]	[Browser:Chrome - 90.0.4430.212]	[Action:Closing mssql connection]	[Remarks:Success]
[Date: 2021-05-27 20:33:16]	[UserID:]	[IP:10.128.130.5]	[Browser:Chrome - 90.0.4430.212]	[Action:Making connection to server]	[Remarks:Successful connection to server: S3]
[Date: 2021-05-27 20:33:16]	[UserID:]	[IP:10.128.130.5]	[Browser:Chrome - 90.0.4430.212]	[Action:GetProgramList ]	[Remarks:"no data"]
[Date: 2021-05-27 20:33:28]	[UserID:17/1257]	[IP:10.128.130.5]	[Browser:Chrome - 90.0.4430.212]	[Action:Making connection to server]	[Remarks:Successful connection to server: S3]
[Date: 2021-05-27 20:33:28]	[UserID:17/1257]	[IP:10.128.130.5]	[Browser:Chrome - 90.0.4430.212]	[Action:User 17/1257]	[Remarks:Success]
[Date: 2021-05-27 20:33:28]	[UserID:17/1257]	[IP:10.128.130.5]	[Browser:Chrome - 90.0.4430.212]	[Action:Filtering User : MasterData Username : 17/1257]	[Remarks:Successful filter row count: 0]
[Date: 2021-05-27 20:33:28]	[UserID:17/1257]	[IP:10.128.130.5]	[Browser:Chrome - 90.0.4430.212]	[Action:Filtering User : MasterData Username : 17/1257]	[Remarks:Successful filter row count: 0]
[Date: 2021-05-27 20:33:28]	[UserID:17/1257]	[IP:10.128.130.5]	[Browser:Chrome - 90.0.4430.212]	[Action:Filtering User : MasterData Username : 17/1257]	[Remarks:Success]
[Date: 2021-05-27 20:33:28]	[UserID:17/1257]	[IP:10.128.130.5]	[Browser:Chrome - 90.0.4430.212]	[Action:Closing mssql connection]	[Remarks:Success]
[Date: 2021-05-27 20:33:28]	[UserID:17/1257]	[IP:10.128.130.5]	[Browser:Chrome - 90.0.4430.212]	[Action:Making connection to server]	[Remarks:Successful connection to server: S3]
[Date: 2021-05-27 20:33:28]	[UserID:17/1257]	[IP:10.128.130.5]	[Browser:Chrome - 90.0.4430.212]	[Action:GetProgramList 17/1257]	[Remarks:[{"ID":"1","ProgramIndex":"GST","ProgramName":"GST"}]]
[Date: 2021-05-27 20:33:28]	[UserID:17/1257]	[IP:10.128.130.5]	[Browser:Chrome - 90.0.4430.212]	[Action:Making connection to server]	[Remarks:Successful connection to server: S3]
[Date: 2021-05-27 20:33:28]	[UserID:17/1257]	[IP:10.128.130.5]	[Browser:Chrome - 90.0.4430.212]	[Action:GetProgramList 17/1257]	[Remarks:[{"ID":"1","ProgramIndex":"GST","ProgramName":"GST"}]]
[Date: 2021-05-27 20:33:28]	[UserID:17/1257]	[IP:10.128.130.5]	[Browser:Chrome - 90.0.4430.212]	[Action:Making connection to server]	[Remarks:Successful connection to server: S3]
[Date: 2021-05-27 20:33:28]	[UserID:17/1257]	[IP:10.128.130.5]	[Browser:Chrome - 90.0.4430.212]	[Action:Filtering User : MasterData Username : 17/1257]	[Remarks:Successful filter row count: 1]
[Date: 2021-05-27 20:33:29]	[UserID:17/1257]	[IP:10.128.130.5]	[Browser:Chrome - 90.0.4430.212]	[Action:Making connection to server]	[Remarks:Successful connection to server: S3]
[Date: 2021-05-27 20:33:29]	[UserID:17/1257]	[IP:10.128.130.5]	[Browser:Chrome - 90.0.4430.212]	[Action:GetGSTModules 17/1257,1]	[Remarks:Successful filter row count: 6]
[Date: 2021-05-27 20:33:29]	[UserID:17/1257]	[IP:10.128.130.5]	[Browser:Chrome - 90.0.4430.212]	[Action:Closing mssql connection]	[Remarks:Success]
[Date: 2021-05-27 20:33:35]	[UserID:]	[IP:10.128.130.5]	[Browser:Chrome - 90.0.4430.212]	[Action:Making connection to server]	[Remarks:Successful connection to server: S3]
[Date: 2021-05-27 20:33:35]	[UserID:]	[IP:10.128.130.5]	[Browser:Chrome - 90.0.4430.212]	[Action:GetProgramList ]	[Remarks:"no data"]
[Date: 2021-05-27 21:24:26]	[UserID:]	[IP:10.128.130.5]	[Browser:Firefox - 88.0]	[Action:Making connection to server]	[Remarks:Successful connection to server: S3]
[Date: 2021-05-27 21:24:26]	[UserID:]	[IP:10.128.130.5]	[Browser:Firefox - 88.0]	[Action:GetProgramList ]	[Remarks:"no data"]
[Date: 2021-05-27 21:24:36]	[UserID:dev/nsosa]	[IP:10.128.130.5]	[Browser:Firefox - 88.0]	[Action:Making connection to server]	[Remarks:Successful connection to server: S3]
[Date: 2021-05-27 21:24:36]	[UserID:dev/nsosa]	[IP:10.128.130.5]	[Browser:Firefox - 88.0]	[Action:User dev/nsosa]	[Remarks:Success]
[Date: 2021-05-27 21:24:36]	[UserID:dev/nsosa]	[IP:10.128.130.5]	[Browser:Firefox - 88.0]	[Action:Filtering User : MasterData Username : dev/nsosa]	[Remarks:Successful filter row count: 0]
[Date: 2021-05-27 21:24:36]	[UserID:dev/nsosa]	[IP:10.128.130.5]	[Browser:Firefox - 88.0]	[Action:Filtering User : MasterData Username : dev/nsosa]	[Remarks:Successful filter row count: 0]
[Date: 2021-05-27 21:24:36]	[UserID:dev/nsosa]	[IP:10.128.130.5]	[Browser:Firefox - 88.0]	[Action:Filtering User : MasterData Username : dev/nsosa]	[Remarks:Success]
[Date: 2021-05-27 21:24:36]	[UserID:dev/nsosa]	[IP:10.128.130.5]	[Browser:Firefox - 88.0]	[Action:Closing mssql connection]	[Remarks:Success]
[Date: 2021-05-27 21:24:36]	[UserID:dev/nsosa]	[IP:10.128.130.5]	[Browser:Firefox - 88.0]	[Action:Making connection to server]	[Remarks:Successful connection to server: S3]
[Date: 2021-05-27 21:24:36]	[UserID:dev/nsosa]	[IP:10.128.130.5]	[Browser:Firefox - 88.0]	[Action:GetProgramList dev/nsosa]	[Remarks:[{"ID":"1","ProgramIndex":"GST","ProgramName":"GST"}]]
[Date: 2021-05-27 21:24:36]	[UserID:dev/nsosa]	[IP:10.128.130.5]	[Browser:Firefox - 88.0]	[Action:Making connection to server]	[Remarks:Successful connection to server: S3]
[Date: 2021-05-27 21:24:36]	[UserID:dev/nsosa]	[IP:10.128.130.5]	[Browser:Firefox - 88.0]	[Action:GetProgramList dev/nsosa]	[Remarks:[{"ID":"1","ProgramIndex":"GST","ProgramName":"GST"}]]
[Date: 2021-05-27 21:24:36]	[UserID:dev/nsosa]	[IP:10.128.130.5]	[Browser:Firefox - 88.0]	[Action:Making connection to server]	[Remarks:Successful connection to server: S3]
[Date: 2021-05-27 21:24:36]	[UserID:dev/nsosa]	[IP:10.128.130.5]	[Browser:Firefox - 88.0]	[Action:Filtering User : MasterData Username : dev/nsosa]	[Remarks:Successful filter row count: 1]
[Date: 2021-05-27 21:24:37]	[UserID:dev/nsosa]	[IP:10.128.130.5]	[Browser:Firefox - 88.0]	[Action:Making connection to server]	[Remarks:Successful connection to server: S3]
[Date: 2021-05-27 21:24:37]	[UserID:dev/nsosa]	[IP:10.128.130.5]	[Browser:Firefox - 88.0]	[Action:GetGSTModules dev/nsosa,1]	[Remarks:Successful filter row count: 10]
[Date: 2021-05-27 21:24:37]	[UserID:dev/nsosa]	[IP:10.128.130.5]	[Browser:Firefox - 88.0]	[Action:Closing mssql connection]	[Remarks:Success]
[Date: 2021-05-27 21:24:52]	[UserID:dev/nsosa]	[IP:10.128.130.5]	[Browser:Firefox - 88.0]	[Action:Making connection to server]	[Remarks:Successful connection to server: S3]
[Date: 2021-05-27 21:24:52]	[UserID:dev/nsosa]	[IP:10.128.130.5]	[Browser:Firefox - 88.0]	[Action:GetGSTModules dev/nsosa,1]	[Remarks:Successful filter row count: 10]
[Date: 2021-05-27 21:24:52]	[UserID:dev/nsosa]	[IP:10.128.130.5]	[Browser:Firefox - 88.0]	[Action:Closing mssql connection]	[Remarks:Success]
[Date: 2021-05-27 21:25:13]	[UserID:dev/nsosa]	[IP:10.128.130.5]	[Browser:Firefox - 88.0]	[Action:Making connection to server]	[Remarks:Successful connection to server: S3]
[Date: 2021-05-27 21:25:13]	[UserID:dev/nsosa]	[IP:10.128.130.5]	[Browser:Firefox - 88.0]	[Action:GetGSTModules dev/nsosa,1]	[Remarks:Successful filter row count: 10]
[Date: 2021-05-27 21:25:13]	[UserID:dev/nsosa]	[IP:10.128.130.5]	[Browser:Firefox - 88.0]	[Action:Closing mssql connection]	[Remarks:Success]
[Date: 2021-05-27 21:25:20]	[UserID:dev/nsosa]	[IP:10.128.130.5]	[Browser:Firefox - 88.0]	[Action:Making connection to server]	[Remarks:Successful connection to server: S3]
[Date: 2021-05-27 21:25:20]	[UserID:dev/nsosa]	[IP:10.128.130.5]	[Browser:Firefox - 88.0]	[Action:GetGSTModules dev/nsosa,1]	[Remarks:Successful filter row count: 10]
[Date: 2021-05-27 21:25:20]	[UserID:dev/nsosa]	[IP:10.128.130.5]	[Browser:Firefox - 88.0]	[Action:Closing mssql connection]	[Remarks:Success]
[Date: 2021-05-27 21:25:27]	[UserID:dev/nsosa]	[IP:10.128.130.5]	[Browser:Firefox - 88.0]	[Action:Making connection to server]	[Remarks:Successful connection to server: S3]
[Date: 2021-05-27 21:25:27]	[UserID:dev/nsosa]	[IP:10.128.130.5]	[Browser:Firefox - 88.0]	[Action:GetGSTModules dev/nsosa,1]	[Remarks:Successful filter row count: 10]
[Date: 2021-05-27 21:25:27]	[UserID:dev/nsosa]	[IP:10.128.130.5]	[Browser:Firefox - 88.0]	[Action:Closing mssql connection]	[Remarks:Success]
[Date: 2021-05-27 21:25:39]	[UserID:dev/nsosa]	[IP:10.128.130.5]	[Browser:Firefox - 88.0]	[Action:Making connection to server]	[Remarks:Successful connection to server: S3]
[Date: 2021-05-27 21:25:39]	[UserID:dev/nsosa]	[IP:10.128.130.5]	[Browser:Firefox - 88.0]	[Action:GetGSTModules dev/nsosa,1]	[Remarks:Successful filter row count: 10]
[Date: 2021-05-27 21:25:39]	[UserID:dev/nsosa]	[IP:10.128.130.5]	[Browser:Firefox - 88.0]	[Action:Closing mssql connection]	[Remarks:Success]
[Date: 2021-05-27 21:25:46]	[UserID:dev/nsosa]	[IP:10.128.130.5]	[Browser:Firefox - 88.0]	[Action:Making connection to server]	[Remarks:Successful connection to server: S3]
[Date: 2021-05-27 21:25:46]	[UserID:dev/nsosa]	[IP:10.128.130.5]	[Browser:Firefox - 88.0]	[Action:GetGSTModules dev/nsosa,1]	[Remarks:Successful filter row count: 10]
[Date: 2021-05-27 21:25:46]	[UserID:dev/nsosa]	[IP:10.128.130.5]	[Browser:Firefox - 88.0]	[Action:Closing mssql connection]	[Remarks:Success]
[Date: 2021-05-27 21:26:20]	[UserID:dev/nsosa]	[IP:10.128.130.5]	[Browser:Firefox - 88.0]	[Action:Making connection to server]	[Remarks:Successful connection to server: S3]
[Date: 2021-05-27 21:26:20]	[UserID:dev/nsosa]	[IP:10.128.130.5]	[Browser:Firefox - 88.0]	[Action:GetGSTModules dev/nsosa,1]	[Remarks:Successful filter row count: 10]
[Date: 2021-05-27 21:26:20]	[UserID:dev/nsosa]	[IP:10.128.130.5]	[Browser:Firefox - 88.0]	[Action:Closing mssql connection]	[Remarks:Success]
[Date: 2021-05-27 21:26:33]	[UserID:dev/nsosa]	[IP:10.128.130.5]	[Browser:Firefox - 88.0]	[Action:Making connection to server]	[Remarks:Successful connection to server: S3]
[Date: 2021-05-27 21:26:33]	[UserID:dev/nsosa]	[IP:10.128.130.5]	[Browser:Firefox - 88.0]	[Action:GetGSTModules dev/nsosa,1]	[Remarks:Successful filter row count: 10]
[Date: 2021-05-27 21:26:33]	[UserID:dev/nsosa]	[IP:10.128.130.5]	[Browser:Firefox - 88.0]	[Action:Closing mssql connection]	[Remarks:Success]
[Date: 2021-05-27 21:26:42]	[UserID:dev/nsosa]	[IP:10.128.130.5]	[Browser:Firefox - 88.0]	[Action:Making connection to server]	[Remarks:Successful connection to server: S3]
[Date: 2021-05-27 21:26:42]	[UserID:dev/nsosa]	[IP:10.128.130.5]	[Browser:Firefox - 88.0]	[Action:GetGSTModules dev/nsosa,1]	[Remarks:Successful filter row count: 10]
[Date: 2021-05-27 21:26:42]	[UserID:dev/nsosa]	[IP:10.128.130.5]	[Browser:Firefox - 88.0]	[Action:Closing mssql connection]	[Remarks:Success]
[Date: 2021-05-27 21:26:46]	[UserID:dev/nsosa]	[IP:10.128.130.5]	[Browser:Firefox - 88.0]	[Action:Making connection to server]	[Remarks:Successful connection to server: S3]
[Date: 2021-05-27 21:26:46]	[UserID:dev/nsosa]	[IP:10.128.130.5]	[Browser:Firefox - 88.0]	[Action:GetGSTModules dev/nsosa,1]	[Remarks:Successful filter row count: 10]
[Date: 2021-05-27 21:26:46]	[UserID:dev/nsosa]	[IP:10.128.130.5]	[Browser:Firefox - 88.0]	[Action:Closing mssql connection]	[Remarks:Success]
[Date: 2021-05-27 21:27:23]	[UserID:dev/nsosa]	[IP:10.128.130.5]	[Browser:Firefox - 88.0]	[Action:Making connection to server]	[Remarks:Successful connection to server: S3]
[Date: 2021-05-27 21:27:23]	[UserID:dev/nsosa]	[IP:10.128.130.5]	[Browser:Firefox - 88.0]	[Action:GetGSTModules dev/nsosa,1]	[Remarks:Successful filter row count: 10]
[Date: 2021-05-27 21:27:23]	[UserID:dev/nsosa]	[IP:10.128.130.5]	[Browser:Firefox - 88.0]	[Action:Closing mssql connection]	[Remarks:Success]
[Date: 2021-05-27 21:27:27]	[UserID:dev/nsosa]	[IP:10.128.130.5]	[Browser:Firefox - 88.0]	[Action:Making connection to server]	[Remarks:Successful connection to server: S3]
[Date: 2021-05-27 21:27:27]	[UserID:dev/nsosa]	[IP:10.128.130.5]	[Browser:Firefox - 88.0]	[Action:GetGSTModules dev/nsosa,1]	[Remarks:Successful filter row count: 10]
[Date: 2021-05-27 21:27:27]	[UserID:dev/nsosa]	[IP:10.128.130.5]	[Browser:Firefox - 88.0]	[Action:Closing mssql connection]	[Remarks:Success]
[Date: 2021-05-27 21:27:38]	[UserID:dev/nsosa]	[IP:10.128.130.5]	[Browser:Firefox - 88.0]	[Action:Making connection to server]	[Remarks:Successful connection to server: S3]
[Date: 2021-05-27 21:27:38]	[UserID:dev/nsosa]	[IP:10.128.130.5]	[Browser:Firefox - 88.0]	[Action:GetGSTModules dev/nsosa,1]	[Remarks:Successful filter row count: 10]
[Date: 2021-05-27 21:27:38]	[UserID:dev/nsosa]	[IP:10.128.130.5]	[Browser:Firefox - 88.0]	[Action:Closing mssql connection]	[Remarks:Success]
[Date: 2021-05-27 21:27:56]	[UserID:dev/nsosa]	[IP:10.128.130.5]	[Browser:Firefox - 88.0]	[Action:Making connection to server]	[Remarks:Successful connection to server: S3]
[Date: 2021-05-27 21:27:56]	[UserID:dev/nsosa]	[IP:10.128.130.5]	[Browser:Firefox - 88.0]	[Action:GetGSTModules dev/nsosa,1]	[Remarks:Successful filter row count: 10]
[Date: 2021-05-27 21:27:56]	[UserID:dev/nsosa]	[IP:10.128.130.5]	[Browser:Firefox - 88.0]	[Action:Closing mssql connection]	[Remarks:Success]
[Date: 2021-05-27 21:30:35]	[UserID:dev/nsosa]	[IP:10.128.130.5]	[Browser:Firefox - 88.0]	[Action:Making connection to server]	[Remarks:Successful connection to server: S3]
[Date: 2021-05-27 21:30:35]	[UserID:dev/nsosa]	[IP:10.128.130.5]	[Browser:Firefox - 88.0]	[Action:GetGSTModules dev/nsosa,1]	[Remarks:Successful filter row count: 10]
[Date: 2021-05-27 21:30:35]	[UserID:dev/nsosa]	[IP:10.128.130.5]	[Browser:Firefox - 88.0]	[Action:Closing mssql connection]	[Remarks:Success]
[Date: 2021-05-27 21:31:02]	[UserID:dev/nsosa]	[IP:10.128.130.5]	[Browser:Firefox - 88.0]	[Action:Making connection to server]	[Remarks:Successful connection to server: S3]
[Date: 2021-05-27 21:31:02]	[UserID:dev/nsosa]	[IP:10.128.130.5]	[Browser:Firefox - 88.0]	[Action:GetGSTModules dev/nsosa,1]	[Remarks:Successful filter row count: 10]
[Date: 2021-05-27 21:31:02]	[UserID:dev/nsosa]	[IP:10.128.130.5]	[Browser:Firefox - 88.0]	[Action:Closing mssql connection]	[Remarks:Success]
[Date: 2021-05-27 21:31:19]	[UserID:dev/nsosa]	[IP:10.128.130.5]	[Browser:Firefox - 88.0]	[Action:Making connection to server]	[Remarks:Successful connection to server: S3]
[Date: 2021-05-27 21:31:19]	[UserID:dev/nsosa]	[IP:10.128.130.5]	[Browser:Firefox - 88.0]	[Action:GetGSTModules dev/nsosa,1]	[Remarks:Successful filter row count: 10]
[Date: 2021-05-27 21:31:19]	[UserID:dev/nsosa]	[IP:10.128.130.5]	[Browser:Firefox - 88.0]	[Action:Closing mssql connection]	[Remarks:Success]
[Date: 2021-05-27 21:49:27]	[UserID:dev/nsosa]	[IP:10.128.130.5]	[Browser:Firefox - 88.0]	[Action:Making connection to server]	[Remarks:Successful connection to server: S3]
[Date: 2021-05-27 21:49:27]	[UserID:dev/nsosa]	[IP:10.128.130.5]	[Browser:Firefox - 88.0]	[Action:GetProgramList dev/nsosa]	[Remarks:[{"ID":"1","ProgramIndex":"GST","ProgramName":"GST"}]]
[Date: 2021-05-27 21:49:27]	[UserID:dev/nsosa]	[IP:10.128.130.5]	[Browser:Firefox - 88.0]	[Action:Making connection to server]	[Remarks:Successful connection to server: S3]
[Date: 2021-05-27 21:49:27]	[UserID:dev/nsosa]	[IP:10.128.130.5]	[Browser:Firefox - 88.0]	[Action:GetProgramList dev/nsosa]	[Remarks:[{"ID":"1","ProgramIndex":"GST","ProgramName":"GST"}]]
[Date: 2021-05-27 21:49:27]	[UserID:dev/nsosa]	[IP:10.128.130.5]	[Browser:Firefox - 88.0]	[Action:Making connection to server]	[Remarks:Successful connection to server: S3]
[Date: 2021-05-27 21:49:27]	[UserID:dev/nsosa]	[IP:10.128.130.5]	[Browser:Firefox - 88.0]	[Action:Filtering User : MasterData Username : dev/nsosa]	[Remarks:Successful filter row count: 1]
[Date: 2021-05-27 21:49:28]	[UserID:dev/nsosa]	[IP:10.128.130.5]	[Browser:Firefox - 88.0]	[Action:Making connection to server]	[Remarks:Successful connection to server: S3]
[Date: 2021-05-27 21:49:28]	[UserID:dev/nsosa]	[IP:10.128.130.5]	[Browser:Firefox - 88.0]	[Action:GetGSTModules dev/nsosa,1]	[Remarks:Successful filter row count: 10]
[Date: 2021-05-27 21:49:28]	[UserID:dev/nsosa]	[IP:10.128.130.5]	[Browser:Firefox - 88.0]	[Action:Closing mssql connection]	[Remarks:Success]
[Date: 2021-05-27 21:49:37]	[UserID:dev/nsosa]	[IP:10.128.130.5]	[Browser:Firefox - 88.0]	[Action:Making connection to server]	[Remarks:Successful connection to server: S3]
[Date: 2021-05-27 21:49:37]	[UserID:dev/nsosa]	[IP:10.128.130.5]	[Browser:Firefox - 88.0]	[Action:GetGSTModules dev/nsosa,1]	[Remarks:Successful filter row count: 10]
[Date: 2021-05-27 21:49:37]	[UserID:dev/nsosa]	[IP:10.128.130.5]	[Browser:Firefox - 88.0]	[Action:Closing mssql connection]	[Remarks:Success]
[Date: 2021-05-27 21:49:43]	[UserID:dev/nsosa]	[IP:10.128.130.5]	[Browser:Firefox - 88.0]	[Action:Making connection to server]	[Remarks:Successful connection to server: S3]
[Date: 2021-05-27 21:49:43]	[UserID:dev/nsosa]	[IP:10.128.130.5]	[Browser:Firefox - 88.0]	[Action:GetGSTModules dev/nsosa,1]	[Remarks:Successful filter row count: 10]
[Date: 2021-05-27 21:49:43]	[UserID:dev/nsosa]	[IP:10.128.130.5]	[Browser:Firefox - 88.0]	[Action:Closing mssql connection]	[Remarks:Success]
[Date: 2021-05-27 21:49:51]	[UserID:dev/nsosa]	[IP:10.128.130.5]	[Browser:Firefox - 88.0]	[Action:Making connection to server]	[Remarks:Successful connection to server: S3]
[Date: 2021-05-27 21:49:51]	[UserID:dev/nsosa]	[IP:10.128.130.5]	[Browser:Firefox - 88.0]	[Action:GetGSTModules dev/nsosa,1]	[Remarks:Successful filter row count: 10]
[Date: 2021-05-27 21:49:51]	[UserID:dev/nsosa]	[IP:10.128.130.5]	[Browser:Firefox - 88.0]	[Action:Closing mssql connection]	[Remarks:Success]
[Date: 2021-05-27 21:49:57]	[UserID:dev/nsosa]	[IP:10.128.130.5]	[Browser:Firefox - 88.0]	[Action:Making connection to server]	[Remarks:Successful connection to server: S3]
[Date: 2021-05-27 21:49:57]	[UserID:dev/nsosa]	[IP:10.128.130.5]	[Browser:Firefox - 88.0]	[Action:GetGSTModules dev/nsosa,1]	[Remarks:Successful filter row count: 10]
[Date: 2021-05-27 21:49:57]	[UserID:dev/nsosa]	[IP:10.128.130.5]	[Browser:Firefox - 88.0]	[Action:Closing mssql connection]	[Remarks:Success]
[Date: 2021-05-27 21:50:05]	[UserID:dev/nsosa]	[IP:10.128.130.5]	[Browser:Firefox - 88.0]	[Action:Making connection to server]	[Remarks:Successful connection to server: S3]
[Date: 2021-05-27 21:50:05]	[UserID:dev/nsosa]	[IP:10.128.130.5]	[Browser:Firefox - 88.0]	[Action:GetGSTModules dev/nsosa,1]	[Remarks:Successful filter row count: 10]
[Date: 2021-05-27 21:50:05]	[UserID:dev/nsosa]	[IP:10.128.130.5]	[Browser:Firefox - 88.0]	[Action:Closing mssql connection]	[Remarks:Success]
[Date: 2021-05-27 21:55:57]	[UserID:]	[IP:10.128.130.5]	[Browser:Firefox - 88.0]	[Action:Making connection to server]	[Remarks:Successful connection to server: S3]
[Date: 2021-05-27 21:55:57]	[UserID:]	[IP:10.128.130.5]	[Browser:Firefox - 88.0]	[Action:GetProgramList ]	[Remarks:"no data"]
[Date: 2021-05-27 21:56:03]	[UserID:dev/saritha]	[IP:10.128.130.5]	[Browser:Firefox - 88.0]	[Action:Making connection to server]	[Remarks:Successful connection to server: S3]
[Date: 2021-05-27 21:56:03]	[UserID:dev/saritha]	[IP:10.128.130.5]	[Browser:Firefox - 88.0]	[Action:User dev/saritha]	[Remarks:Success]
[Date: 2021-05-27 21:56:03]	[UserID:dev/saritha]	[IP:10.128.130.5]	[Browser:Firefox - 88.0]	[Action:Filtering User : MasterData Username : dev/saritha]	[Remarks:Successful filter row count: 0]
[Date: 2021-05-27 21:56:03]	[UserID:dev/saritha]	[IP:10.128.130.5]	[Browser:Firefox - 88.0]	[Action:Filtering User : MasterData Username : dev/saritha]	[Remarks:Successful filter row count: 0]
[Date: 2021-05-27 21:56:03]	[UserID:dev/saritha]	[IP:10.128.130.5]	[Browser:Firefox - 88.0]	[Action:Filtering User : MasterData Username : dev/saritha]	[Remarks:Success]
[Date: 2021-05-27 21:56:03]	[UserID:dev/saritha]	[IP:10.128.130.5]	[Browser:Firefox - 88.0]	[Action:Closing mssql connection]	[Remarks:Success]
[Date: 2021-05-27 21:56:04]	[UserID:dev/saritha]	[IP:10.128.130.5]	[Browser:Firefox - 88.0]	[Action:Making connection to server]	[Remarks:Successful connection to server: S3]
[Date: 2021-05-27 21:56:04]	[UserID:dev/saritha]	[IP:10.128.130.5]	[Browser:Firefox - 88.0]	[Action:GetProgramList dev/saritha]	[Remarks:[{"ID":"1","ProgramIndex":"GST","ProgramName":"GST"}]]
[Date: 2021-05-27 21:56:04]	[UserID:dev/saritha]	[IP:10.128.130.5]	[Browser:Firefox - 88.0]	[Action:Making connection to server]	[Remarks:Successful connection to server: S3]
[Date: 2021-05-27 21:56:04]	[UserID:dev/saritha]	[IP:10.128.130.5]	[Browser:Firefox - 88.0]	[Action:GetProgramList dev/saritha]	[Remarks:[{"ID":"1","ProgramIndex":"GST","ProgramName":"GST"}]]
[Date: 2021-05-27 21:56:04]	[UserID:dev/saritha]	[IP:10.128.130.5]	[Browser:Firefox - 88.0]	[Action:Making connection to server]	[Remarks:Successful connection to server: S3]
[Date: 2021-05-27 21:56:04]	[UserID:dev/saritha]	[IP:10.128.130.5]	[Browser:Firefox - 88.0]	[Action:Filtering User : MasterData Username : dev/saritha]	[Remarks:Successful filter row count: 1]
[Date: 2021-05-27 21:56:05]	[UserID:dev/saritha]	[IP:10.128.130.5]	[Browser:Firefox - 88.0]	[Action:Making connection to server]	[Remarks:Successful connection to server: S3]
[Date: 2021-05-27 21:56:05]	[UserID:dev/saritha]	[IP:10.128.130.5]	[Browser:Firefox - 88.0]	[Action:GetGSTModules dev/saritha,1]	[Remarks:Successful filter row count: 14]
[Date: 2021-05-27 21:56:05]	[UserID:dev/saritha]	[IP:10.128.130.5]	[Browser:Firefox - 88.0]	[Action:Closing mssql connection]	[Remarks:Success]
[Date: 2021-05-27 21:59:09]	[UserID:dev/saritha]	[IP:10.128.130.5]	[Browser:Firefox - 88.0]	[Action:Making connection to server]	[Remarks:Successful connection to server: S3]
[Date: 2021-05-27 21:59:09]	[UserID:dev/saritha]	[IP:10.128.130.5]	[Browser:Firefox - 88.0]	[Action:GetGSTModules dev/saritha,1]	[Remarks:Successful filter row count: 14]
[Date: 2021-05-27 21:59:09]	[UserID:dev/saritha]	[IP:10.128.130.5]	[Browser:Firefox - 88.0]	[Action:Closing mssql connection]	[Remarks:Success]
[Date: 2021-05-27 22:03:37]	[UserID:dev/saritha]	[IP:10.128.130.5]	[Browser:Firefox - 88.0]	[Action:Making connection to server]	[Remarks:Successful connection to server: S3]
[Date: 2021-05-27 22:03:37]	[UserID:dev/saritha]	[IP:10.128.130.5]	[Browser:Firefox - 88.0]	[Action:GetGSTModules dev/saritha,1]	[Remarks:Successful filter row count: 14]
[Date: 2021-05-27 22:03:37]	[UserID:dev/saritha]	[IP:10.128.130.5]	[Browser:Firefox - 88.0]	[Action:Closing mssql connection]	[Remarks:Success]
[Date: 2021-05-27 22:04:01]	[UserID:dev/saritha]	[IP:10.128.130.5]	[Browser:Firefox - 88.0]	[Action:Making connection to server]	[Remarks:Successful connection to server: S3]
[Date: 2021-05-27 22:04:01]	[UserID:dev/saritha]	[IP:10.128.130.5]	[Browser:Firefox - 88.0]	[Action:GetGSTModules dev/saritha,1]	[Remarks:Successful filter row count: 14]
[Date: 2021-05-27 22:04:01]	[UserID:dev/saritha]	[IP:10.128.130.5]	[Browser:Firefox - 88.0]	[Action:Closing mssql connection]	[Remarks:Success]
[Date: 2021-05-27 22:04:29]	[UserID:dev/saritha]	[IP:10.128.130.5]	[Browser:Firefox - 88.0]	[Action:Making connection to server]	[Remarks:Successful connection to server: S3]
[Date: 2021-05-27 22:04:29]	[UserID:dev/saritha]	[IP:10.128.130.5]	[Browser:Firefox - 88.0]	[Action:GetGSTModules dev/saritha,1]	[Remarks:Successful filter row count: 14]
[Date: 2021-05-27 22:04:29]	[UserID:dev/saritha]	[IP:10.128.130.5]	[Browser:Firefox - 88.0]	[Action:Closing mssql connection]	[Remarks:Success]
[Date: 2021-05-27 22:06:01]	[UserID:dev/saritha]	[IP:10.128.130.5]	[Browser:Firefox - 88.0]	[Action:Making connection to server]	[Remarks:Successful connection to server: S3]
[Date: 2021-05-27 22:06:01]	[UserID:dev/saritha]	[IP:10.128.130.5]	[Browser:Firefox - 88.0]	[Action:GetGSTModules dev/saritha,1]	[Remarks:Successful filter row count: 14]
[Date: 2021-05-27 22:06:01]	[UserID:dev/saritha]	[IP:10.128.130.5]	[Browser:Firefox - 88.0]	[Action:Closing mssql connection]	[Remarks:Success]
[Date: 2021-05-27 22:06:06]	[UserID:dev/saritha]	[IP:10.128.130.5]	[Browser:Firefox - 88.0]	[Action:Making connection to server]	[Remarks:Successful connection to server: S3]
[Date: 2021-05-27 22:06:06]	[UserID:dev/saritha]	[IP:10.128.130.5]	[Browser:Firefox - 88.0]	[Action:GetGSTModules dev/saritha,1]	[Remarks:Successful filter row count: 14]
[Date: 2021-05-27 22:06:06]	[UserID:dev/saritha]	[IP:10.128.130.5]	[Browser:Firefox - 88.0]	[Action:Closing mssql connection]	[Remarks:Success]
[Date: 2021-05-27 22:06:23]	[UserID:dev/saritha]	[IP:10.128.130.5]	[Browser:Firefox - 88.0]	[Action:Making connection to server]	[Remarks:Successful connection to server: S3]
[Date: 2021-05-27 22:06:23]	[UserID:dev/saritha]	[IP:10.128.130.5]	[Browser:Firefox - 88.0]	[Action:GetGSTModules dev/saritha,1]	[Remarks:Successful filter row count: 14]
[Date: 2021-05-27 22:06:23]	[UserID:dev/saritha]	[IP:10.128.130.5]	[Browser:Firefox - 88.0]	[Action:Closing mssql connection]	[Remarks:Success]
[Date: 2021-05-27 22:06:28]	[UserID:dev/saritha]	[IP:10.128.130.5]	[Browser:Firefox - 88.0]	[Action:Making connection to server]	[Remarks:Successful connection to server: S3]
[Date: 2021-05-27 22:06:28]	[UserID:dev/saritha]	[IP:10.128.130.5]	[Browser:Firefox - 88.0]	[Action:GetGSTModules dev/saritha,1]	[Remarks:Successful filter row count: 14]
[Date: 2021-05-27 22:06:28]	[UserID:dev/saritha]	[IP:10.128.130.5]	[Browser:Firefox - 88.0]	[Action:Closing mssql connection]	[Remarks:Success]
[Date: 2021-05-27 22:06:35]	[UserID:dev/saritha]	[IP:10.128.130.5]	[Browser:Firefox - 88.0]	[Action:Making connection to server]	[Remarks:Successful connection to server: S3]
[Date: 2021-05-27 22:06:35]	[UserID:dev/saritha]	[IP:10.128.130.5]	[Browser:Firefox - 88.0]	[Action:GetGSTModules dev/saritha,1]	[Remarks:Successful filter row count: 14]
[Date: 2021-05-27 22:06:35]	[UserID:dev/saritha]	[IP:10.128.130.5]	[Browser:Firefox - 88.0]	[Action:Closing mssql connection]	[Remarks:Success]
[Date: 2021-05-27 22:11:04]	[UserID:dev/saritha]	[IP:10.128.130.5]	[Browser:Firefox - 88.0]	[Action:Making connection to server]	[Remarks:Successful connection to server: S3]
[Date: 2021-05-27 22:11:04]	[UserID:dev/saritha]	[IP:10.128.130.5]	[Browser:Firefox - 88.0]	[Action:GetGSTModules dev/saritha,1]	[Remarks:Successful filter row count: 14]
[Date: 2021-05-27 22:11:04]	[UserID:dev/saritha]	[IP:10.128.130.5]	[Browser:Firefox - 88.0]	[Action:Closing mssql connection]	[Remarks:Success]
[Date: 2021-05-27 22:11:20]	[UserID:dev/saritha]	[IP:10.128.130.5]	[Browser:Firefox - 88.0]	[Action:Making connection to server]	[Remarks:Successful connection to server: S3]
[Date: 2021-05-27 22:11:20]	[UserID:dev/saritha]	[IP:10.128.130.5]	[Browser:Firefox - 88.0]	[Action:GetGSTModules dev/saritha,1]	[Remarks:Successful filter row count: 14]
[Date: 2021-05-27 22:11:20]	[UserID:dev/saritha]	[IP:10.128.130.5]	[Browser:Firefox - 88.0]	[Action:Closing mssql connection]	[Remarks:Success]
[Date: 2021-05-27 22:11:27]	[UserID:dev/saritha]	[IP:10.128.130.5]	[Browser:Firefox - 88.0]	[Action:Making connection to server]	[Remarks:Successful connection to server: S3]
[Date: 2021-05-27 22:11:27]	[UserID:dev/saritha]	[IP:10.128.130.5]	[Browser:Firefox - 88.0]	[Action:GetGSTModules dev/saritha,1]	[Remarks:Successful filter row count: 14]
[Date: 2021-05-27 22:11:27]	[UserID:dev/saritha]	[IP:10.128.130.5]	[Browser:Firefox - 88.0]	[Action:Closing mssql connection]	[Remarks:Success]
[Date: 2021-05-27 22:11:31]	[UserID:dev/saritha]	[IP:10.128.130.5]	[Browser:Firefox - 88.0]	[Action:Making connection to server]	[Remarks:Successful connection to server: S3]
[Date: 2021-05-27 22:11:31]	[UserID:dev/saritha]	[IP:10.128.130.5]	[Browser:Firefox - 88.0]	[Action:GetGSTModules dev/saritha,1]	[Remarks:Successful filter row count: 14]
[Date: 2021-05-27 22:11:31]	[UserID:dev/saritha]	[IP:10.128.130.5]	[Browser:Firefox - 88.0]	[Action:Closing mssql connection]	[Remarks:Success]
[Date: 2021-05-27 22:11:37]	[UserID:dev/saritha]	[IP:10.128.130.5]	[Browser:Firefox - 88.0]	[Action:Making connection to server]	[Remarks:Successful connection to server: S3]
[Date: 2021-05-27 22:11:37]	[UserID:dev/saritha]	[IP:10.128.130.5]	[Browser:Firefox - 88.0]	[Action:GetGSTModules dev/saritha,1]	[Remarks:Successful filter row count: 14]
[Date: 2021-05-27 22:11:37]	[UserID:dev/saritha]	[IP:10.128.130.5]	[Browser:Firefox - 88.0]	[Action:Closing mssql connection]	[Remarks:Success]
[Date: 2021-05-27 22:11:52]	[UserID:dev/saritha]	[IP:10.128.130.5]	[Browser:Firefox - 88.0]	[Action:Making connection to server]	[Remarks:Successful connection to server: S3]
[Date: 2021-05-27 22:11:52]	[UserID:dev/saritha]	[IP:10.128.130.5]	[Browser:Firefox - 88.0]	[Action:GetGSTModules dev/saritha,1]	[Remarks:Successful filter row count: 14]
[Date: 2021-05-27 22:11:52]	[UserID:dev/saritha]	[IP:10.128.130.5]	[Browser:Firefox - 88.0]	[Action:Closing mssql connection]	[Remarks:Success]
[Date: 2021-05-27 22:13:36]	[UserID:dev/saritha]	[IP:10.128.130.5]	[Browser:Firefox - 88.0]	[Action:Making connection to server]	[Remarks:Successful connection to server: S3]
[Date: 2021-05-27 22:13:36]	[UserID:dev/saritha]	[IP:10.128.130.5]	[Browser:Firefox - 88.0]	[Action:GetGSTModules dev/saritha,1]	[Remarks:Successful filter row count: 14]
[Date: 2021-05-27 22:13:36]	[UserID:dev/saritha]	[IP:10.128.130.5]	[Browser:Firefox - 88.0]	[Action:Closing mssql connection]	[Remarks:Success]
[Date: 2021-05-27 22:13:55]	[UserID:dev/saritha]	[IP:10.128.130.5]	[Browser:Firefox - 88.0]	[Action:Making connection to server]	[Remarks:Successful connection to server: S3]
[Date: 2021-05-27 22:13:55]	[UserID:dev/saritha]	[IP:10.128.130.5]	[Browser:Firefox - 88.0]	[Action:GetGSTModules dev/saritha,1]	[Remarks:Successful filter row count: 14]
[Date: 2021-05-27 22:13:55]	[UserID:dev/saritha]	[IP:10.128.130.5]	[Browser:Firefox - 88.0]	[Action:Closing mssql connection]	[Remarks:Success]
[Date: 2021-05-27 22:14:00]	[UserID:dev/saritha]	[IP:10.128.130.5]	[Browser:Firefox - 88.0]	[Action:Making connection to server]	[Remarks:Successful connection to server: S3]
[Date: 2021-05-27 22:14:00]	[UserID:dev/saritha]	[IP:10.128.130.5]	[Browser:Firefox - 88.0]	[Action:GetGSTModules dev/saritha,1]	[Remarks:Successful filter row count: 14]
[Date: 2021-05-27 22:14:00]	[UserID:dev/saritha]	[IP:10.128.130.5]	[Browser:Firefox - 88.0]	[Action:Closing mssql connection]	[Remarks:Success]
[Date: 2021-05-27 22:14:14]	[UserID:dev/saritha]	[IP:10.128.130.5]	[Browser:Firefox - 88.0]	[Action:Making connection to server]	[Remarks:Successful connection to server: S3]
[Date: 2021-05-27 22:14:14]	[UserID:dev/saritha]	[IP:10.128.130.5]	[Browser:Firefox - 88.0]	[Action:GetGSTModules dev/saritha,1]	[Remarks:Successful filter row count: 14]
[Date: 2021-05-27 22:14:14]	[UserID:dev/saritha]	[IP:10.128.130.5]	[Browser:Firefox - 88.0]	[Action:Closing mssql connection]	[Remarks:Success]
