[Date: 2015-07-08 07:49:17]	[UserID:]	[IP:10.10.11.1]	[Browser:Chrome - 43.0.2357.130]	[Action:Making connection to server]	[Remarks:Successful connection to server: S3]
[Date: 2015-07-08 07:49:17]	[UserID:]	[IP:10.10.11.1]	[Browser:Firefox - 6.0]	[Action:Making connection to server]	[Remarks:Successful connection to server: S3]
[Date: 2015-07-08 07:49:17]	[UserID:]	[IP:10.10.11.1]	[Browser:Firefox - 6.0]	[Action:GetProgramList ]	[Remarks:"no data"]
[Date: 2015-07-08 07:49:17]	[UserID:]	[IP:10.10.11.1]	[Browser:Chrome - 43.0.2357.130]	[Action:GetProgramList ]	[Remarks:"no data"]
[Date: 2015-07-08 07:49:17]	[UserID:]	[IP:10.10.11.1]	[Browser:Chrome - 43.0.2357.130]	[Action:Making connection to server]	[Remarks:Successful connection to server: S3]
[Date: 2015-07-08 07:49:17]	[UserID:]	[IP:10.10.11.1]	[Browser:Chrome - 43.0.2357.130]	[Action:GetProgramList ]	[Remarks:"no data"]
[Date: 2015-07-08 07:49:26]	[UserID:06/343]	[IP:10.10.11.1]	[Browser:Chrome - 43.0.2357.130]	[Action:Making connection to server]	[Remarks:Successful connection to server: S3]
[Date: 2015-07-08 07:49:26]	[UserID:06/343]	[IP:10.10.11.1]	[Browser:Chrome - 43.0.2357.130]	[Action:User 06/343]	[Remarks:Success]
[Date: 2015-07-08 07:49:26]	[UserID:06/343]	[IP:10.10.11.1]	[Browser:Chrome - 43.0.2357.130]	[Action:Filtering User : MasterData Username : 06/343]	[Remarks:Successful filter row count: 0]
[Date: 2015-07-08 07:49:26]	[UserID:06/343]	[IP:10.10.11.1]	[Browser:Chrome - 43.0.2357.130]	[Action:Filtering User : MasterData Username : 06/343]	[Remarks:Successful filter row count: 0]
[Date: 2015-07-08 07:49:26]	[UserID:06/343]	[IP:10.10.11.1]	[Browser:Chrome - 43.0.2357.130]	[Action:Filtering User : MasterData Username : 06/343]	[Remarks:Success]
[Date: 2015-07-08 07:49:26]	[UserID:06/343]	[IP:10.10.11.1]	[Browser:Chrome - 43.0.2357.130]	[Action:Closing mssql connection]	[Remarks:Success]
[Date: 2015-07-08 07:49:26]	[UserID:06/343]	[IP:10.10.11.1]	[Browser:Chrome - 43.0.2357.130]	[Action:Making connection to server]	[Remarks:Successful connection to server: S3]
[Date: 2015-07-08 07:49:26]	[UserID:06/343]	[IP:10.10.11.1]	[Browser:Chrome - 43.0.2357.130]	[Action:GetProgramList 06/343]	[Remarks:[{"ID":"1","ProgramIndex":"GST","ProgramName":"GST"}]]
[Date: 2015-07-08 07:49:26]	[UserID:06/343]	[IP:10.10.11.1]	[Browser:Chrome - 43.0.2357.130]	[Action:Making connection to server]	[Remarks:Successful connection to server: S3]
[Date: 2015-07-08 07:49:26]	[UserID:06/343]	[IP:10.10.11.1]	[Browser:Chrome - 43.0.2357.130]	[Action:GetProgramList 06/343]	[Remarks:[{"ID":"1","ProgramIndex":"GST","ProgramName":"GST"}]]
[Date: 2015-07-08 07:49:26]	[UserID:06/343]	[IP:10.10.11.1]	[Browser:Chrome - 43.0.2357.130]	[Action:Making connection to server]	[Remarks:Successful connection to server: S3]
[Date: 2015-07-08 07:49:26]	[UserID:06/343]	[IP:10.10.11.1]	[Browser:Chrome - 43.0.2357.130]	[Action:Filtering User : MasterData Username : 06/343]	[Remarks:Successful filter row count: 1]
[Date: 2015-07-08 07:49:27]	[UserID:06/343]	[IP:10.10.11.1]	[Browser:Chrome - 43.0.2357.130]	[Action:Making connection to server]	[Remarks:Successful connection to server: S3]
[Date: 2015-07-08 07:49:27]	[UserID:06/343]	[IP:10.10.11.1]	[Browser:Chrome - 43.0.2357.130]	[Action:GetGSTModules 06/343,1]	[Remarks:Successful filter row count: 5]
[Date: 2015-07-08 07:49:27]	[UserID:06/343]	[IP:10.10.11.1]	[Browser:Chrome - 43.0.2357.130]	[Action:Closing mssql connection]	[Remarks:Success]
[Date: 2015-07-08 07:51:28]	[UserID:06/343]	[IP:10.10.11.1]	[Browser:Chrome - 43.0.2357.130]	[Action:Making connection to server]	[Remarks:Successful connection to server: S3]
[Date: 2015-07-08 07:51:28]	[UserID:06/343]	[IP:10.10.11.1]	[Browser:Chrome - 43.0.2357.130]	[Action:GetGSTModules 06/343,1]	[Remarks:Successful filter row count: 5]
[Date: 2015-07-08 07:51:28]	[UserID:06/343]	[IP:10.10.11.1]	[Browser:Chrome - 43.0.2357.130]	[Action:Closing mssql connection]	[Remarks:Success]
[Date: 2015-07-08 08:02:09]	[UserID:06/343]	[IP:10.10.11.1]	[Browser:Chrome - 43.0.2357.130]	[Action:Making connection to server]	[Remarks:Successful connection to server: S3]
[Date: 2015-07-08 08:02:09]	[UserID:06/343]	[IP:10.10.11.1]	[Browser:Chrome - 43.0.2357.130]	[Action:GetGSTModules 06/343,1]	[Remarks:Successful filter row count: 5]
[Date: 2015-07-08 08:02:09]	[UserID:06/343]	[IP:10.10.11.1]	[Browser:Chrome - 43.0.2357.130]	[Action:Closing mssql connection]	[Remarks:Success]
[Date: 2015-07-08 08:03:43]	[UserID:06/343]	[IP:10.10.11.1]	[Browser:Chrome - 43.0.2357.130]	[Action:Making connection to server]	[Remarks:Successful connection to server: S3]
[Date: 2015-07-08 08:03:43]	[UserID:06/343]	[IP:10.10.11.1]	[Browser:Chrome - 43.0.2357.130]	[Action:GetGSTModules 06/343,1]	[Remarks:Successful filter row count: 5]
[Date: 2015-07-08 08:03:43]	[UserID:06/343]	[IP:10.10.11.1]	[Browser:Chrome - 43.0.2357.130]	[Action:Closing mssql connection]	[Remarks:Success]
[Date: 2015-07-08 08:24:10]	[UserID:06/343]	[IP:10.10.11.1]	[Browser:Chrome - 43.0.2357.130]	[Action:Making connection to server]	[Remarks:Successful connection to server: S3]
[Date: 2015-07-08 08:24:10]	[UserID:06/343]	[IP:10.10.11.1]	[Browser:Chrome - 43.0.2357.130]	[Action:GetGSTModules 06/343,1]	[Remarks:Successful filter row count: 5]
[Date: 2015-07-08 08:24:10]	[UserID:06/343]	[IP:10.10.11.1]	[Browser:Chrome - 43.0.2357.130]	[Action:Closing mssql connection]	[Remarks:Success]
[Date: 2015-07-08 08:25:35]	[UserID:06/343]	[IP:10.10.11.1]	[Browser:Chrome - 43.0.2357.130]	[Action:Making connection to server]	[Remarks:Successful connection to server: S3]
[Date: 2015-07-08 08:25:35]	[UserID:06/343]	[IP:10.10.11.1]	[Browser:Chrome - 43.0.2357.130]	[Action:GetGSTModules 06/343,1]	[Remarks:Successful filter row count: 5]
[Date: 2015-07-08 08:25:35]	[UserID:06/343]	[IP:10.10.11.1]	[Browser:Chrome - 43.0.2357.130]	[Action:Closing mssql connection]	[Remarks:Success]
[Date: 2015-07-08 08:41:34]	[UserID:]	[IP:10.10.11.1]	[Browser:Chrome - 43.0.2357.130]	[Action:Making connection to server]	[Remarks:Successful connection to server: S3]
[Date: 2015-07-08 08:41:34]	[UserID:]	[IP:10.10.11.1]	[Browser:Chrome - 43.0.2357.130]	[Action:GetProgramList ]	[Remarks:"no data"]
[Date: 2015-07-08 08:41:38]	[UserID:06/371]	[IP:10.10.11.1]	[Browser:Chrome - 43.0.2357.130]	[Action:Making connection to server]	[Remarks:Successful connection to server: S3]
[Date: 2015-07-08 08:41:38]	[UserID:06/371]	[IP:10.10.11.1]	[Browser:Chrome - 43.0.2357.130]	[Action:User 06/371]	[Remarks:Success]
[Date: 2015-07-08 08:41:38]	[UserID:06/371]	[IP:10.10.11.1]	[Browser:Chrome - 43.0.2357.130]	[Action:Filtering User : MasterData Username : 06/371]	[Remarks:Successful filter row count: 0]
[Date: 2015-07-08 08:41:38]	[UserID:06/371]	[IP:10.10.11.1]	[Browser:Chrome - 43.0.2357.130]	[Action:Filtering User : MasterData Username : 06/371]	[Remarks:Successful filter row count: 0]
[Date: 2015-07-08 08:41:38]	[UserID:06/371]	[IP:10.10.11.1]	[Browser:Chrome - 43.0.2357.130]	[Action:Filtering User : MasterData Username : 06/371]	[Remarks:Success]
[Date: 2015-07-08 08:41:38]	[UserID:06/371]	[IP:10.10.11.1]	[Browser:Chrome - 43.0.2357.130]	[Action:Closing mssql connection]	[Remarks:Success]
[Date: 2015-07-08 08:41:39]	[UserID:06/371]	[IP:10.10.11.1]	[Browser:Chrome - 43.0.2357.130]	[Action:Making connection to server]	[Remarks:Successful connection to server: S3]
[Date: 2015-07-08 08:41:39]	[UserID:06/371]	[IP:10.10.11.1]	[Browser:Chrome - 43.0.2357.130]	[Action:GetProgramList 06/371]	[Remarks:[{"ID":"1","ProgramIndex":"GST","ProgramName":"GST"}]]
[Date: 2015-07-08 08:41:39]	[UserID:06/371]	[IP:10.10.11.1]	[Browser:Chrome - 43.0.2357.130]	[Action:Making connection to server]	[Remarks:Successful connection to server: S3]
[Date: 2015-07-08 08:41:39]	[UserID:06/371]	[IP:10.10.11.1]	[Browser:Chrome - 43.0.2357.130]	[Action:GetProgramList 06/371]	[Remarks:[{"ID":"1","ProgramIndex":"GST","ProgramName":"GST"}]]
[Date: 2015-07-08 08:41:39]	[UserID:06/371]	[IP:10.10.11.1]	[Browser:Chrome - 43.0.2357.130]	[Action:Making connection to server]	[Remarks:Successful connection to server: S3]
[Date: 2015-07-08 08:41:39]	[UserID:06/371]	[IP:10.10.11.1]	[Browser:Chrome - 43.0.2357.130]	[Action:Filtering User : MasterData Username : 06/371]	[Remarks:Successful filter row count: 1]
[Date: 2015-07-08 08:41:39]	[UserID:06/371]	[IP:10.10.11.1]	[Browser:Chrome - 43.0.2357.130]	[Action:Making connection to server]	[Remarks:Successful connection to server: S3]
[Date: 2015-07-08 08:41:39]	[UserID:06/371]	[IP:10.10.11.1]	[Browser:Chrome - 43.0.2357.130]	[Action:GetGSTModules 06/371,1]	[Remarks:Successful filter row count: 5]
[Date: 2015-07-08 08:41:39]	[UserID:06/371]	[IP:10.10.11.1]	[Browser:Chrome - 43.0.2357.130]	[Action:Closing mssql connection]	[Remarks:Success]
[Date: 2015-07-08 08:44:14]	[UserID:06/371]	[IP:10.10.11.1]	[Browser:Chrome - 43.0.2357.130]	[Action:Making connection to server]	[Remarks:Successful connection to server: S3]
[Date: 2015-07-08 08:44:14]	[UserID:06/371]	[IP:10.10.11.1]	[Browser:Chrome - 43.0.2357.130]	[Action:GetGSTModules 06/371,1]	[Remarks:Successful filter row count: 5]
[Date: 2015-07-08 08:44:14]	[UserID:06/371]	[IP:10.10.11.1]	[Browser:Chrome - 43.0.2357.130]	[Action:Closing mssql connection]	[Remarks:Success]
[Date: 2015-07-08 09:05:15]	[UserID:]	[IP:10.10.11.1]	[Browser:Chrome - 43.0.2357.132]	[Action:Making connection to server]	[Remarks:Successful connection to server: S3]
[Date: 2015-07-08 09:05:15]	[UserID:]	[IP:10.10.11.1]	[Browser:Chrome - 43.0.2357.132]	[Action:GetProgramList ]	[Remarks:"no data"]
[Date: 2015-07-08 09:05:18]	[UserID:06/371]	[IP:10.10.11.1]	[Browser:Chrome - 43.0.2357.132]	[Action:Making connection to server]	[Remarks:Successful connection to server: S3]
[Date: 2015-07-08 09:05:18]	[UserID:06/371]	[IP:10.10.11.1]	[Browser:Chrome - 43.0.2357.132]	[Action:User 06/371]	[Remarks:Success]
[Date: 2015-07-08 09:05:18]	[UserID:06/371]	[IP:10.10.11.1]	[Browser:Chrome - 43.0.2357.132]	[Action:Filtering User : MasterData Username : 06/371]	[Remarks:Successful filter row count: 0]
[Date: 2015-07-08 09:05:18]	[UserID:06/371]	[IP:10.10.11.1]	[Browser:Chrome - 43.0.2357.132]	[Action:Filtering User : MasterData Username : 06/371]	[Remarks:Successful filter row count: 0]
[Date: 2015-07-08 09:05:18]	[UserID:06/371]	[IP:10.10.11.1]	[Browser:Chrome - 43.0.2357.132]	[Action:Filtering User : MasterData Username : 06/371]	[Remarks:Success]
[Date: 2015-07-08 09:05:18]	[UserID:06/371]	[IP:10.10.11.1]	[Browser:Chrome - 43.0.2357.132]	[Action:Closing mssql connection]	[Remarks:Success]
[Date: 2015-07-08 09:05:18]	[UserID:06/371]	[IP:10.10.11.1]	[Browser:Chrome - 43.0.2357.132]	[Action:Making connection to server]	[Remarks:Successful connection to server: S3]
[Date: 2015-07-08 09:05:18]	[UserID:06/371]	[IP:10.10.11.1]	[Browser:Chrome - 43.0.2357.132]	[Action:GetProgramList 06/371]	[Remarks:[{"ID":"1","ProgramIndex":"GST","ProgramName":"GST"}]]
[Date: 2015-07-08 09:05:18]	[UserID:06/371]	[IP:10.10.11.1]	[Browser:Chrome - 43.0.2357.132]	[Action:Making connection to server]	[Remarks:Successful connection to server: S3]
[Date: 2015-07-08 09:05:18]	[UserID:06/371]	[IP:10.10.11.1]	[Browser:Chrome - 43.0.2357.132]	[Action:GetProgramList 06/371]	[Remarks:[{"ID":"1","ProgramIndex":"GST","ProgramName":"GST"}]]
[Date: 2015-07-08 09:05:18]	[UserID:06/371]	[IP:10.10.11.1]	[Browser:Chrome - 43.0.2357.132]	[Action:Making connection to server]	[Remarks:Successful connection to server: S3]
[Date: 2015-07-08 09:05:18]	[UserID:06/371]	[IP:10.10.11.1]	[Browser:Chrome - 43.0.2357.132]	[Action:Filtering User : MasterData Username : 06/371]	[Remarks:Successful filter row count: 1]
[Date: 2015-07-08 09:05:19]	[UserID:06/371]	[IP:10.10.11.1]	[Browser:Chrome - 43.0.2357.132]	[Action:Making connection to server]	[Remarks:Successful connection to server: S3]
[Date: 2015-07-08 09:05:19]	[UserID:06/371]	[IP:10.10.11.1]	[Browser:Chrome - 43.0.2357.132]	[Action:GetGSTModules 06/371,1]	[Remarks:Successful filter row count: 5]
[Date: 2015-07-08 09:05:19]	[UserID:06/371]	[IP:10.10.11.1]	[Browser:Chrome - 43.0.2357.132]	[Action:Closing mssql connection]	[Remarks:Success]
[Date: 2015-07-08 09:09:37]	[UserID:]	[IP:10.10.11.1]	[Browser:Chrome - 43.0.2357.130]	[Action:Making connection to server]	[Remarks:Successful connection to server: S3]
[Date: 2015-07-08 09:09:37]	[UserID:]	[IP:10.10.11.1]	[Browser:Chrome - 43.0.2357.130]	[Action:GetProgramList ]	[Remarks:"no data"]
[Date: 2015-07-08 09:09:41]	[UserID:eieikhin]	[IP:10.10.11.1]	[Browser:Chrome - 43.0.2357.130]	[Action:Making connection to server]	[Remarks:Successful connection to server: S3]
[Date: 2015-07-08 09:09:41]	[UserID:eieikhin]	[IP:10.10.11.1]	[Browser:Chrome - 43.0.2357.130]	[Action:User eieikhin]	[Remarks:Success]
[Date: 2015-07-08 09:09:41]	[UserID:eieikhin]	[IP:10.10.11.1]	[Browser:Chrome - 43.0.2357.130]	[Action:Filtering User : MasterData Username : eieikhin]	[Remarks:Successful filter row count: 0]
[Date: 2015-07-08 09:09:41]	[UserID:eieikhin]	[IP:10.10.11.1]	[Browser:Chrome - 43.0.2357.130]	[Action:Filtering User : MasterData Username : eieikhin]	[Remarks:Successful filter row count: 0]
[Date: 2015-07-08 09:09:41]	[UserID:eieikhin]	[IP:10.10.11.1]	[Browser:Chrome - 43.0.2357.130]	[Action:Filtering User : MasterData Username : eieikhin]	[Remarks:Success]
[Date: 2015-07-08 09:09:41]	[UserID:eieikhin]	[IP:10.10.11.1]	[Browser:Chrome - 43.0.2357.130]	[Action:Closing mssql connection]	[Remarks:Success]
[Date: 2015-07-08 09:09:41]	[UserID:eieikhin]	[IP:10.10.11.1]	[Browser:Chrome - 43.0.2357.130]	[Action:Making connection to server]	[Remarks:Successful connection to server: S3]
[Date: 2015-07-08 09:09:41]	[UserID:eieikhin]	[IP:10.10.11.1]	[Browser:Chrome - 43.0.2357.130]	[Action:GetProgramList eieikhin]	[Remarks:[{"ID":"1","ProgramIndex":"GST","ProgramName":"GST"},{"ID":"3","ProgramIndex":"PRD","ProgramName":"PRD"}]]
[Date: 2015-07-08 09:09:41]	[UserID:eieikhin]	[IP:10.10.11.1]	[Browser:Chrome - 43.0.2357.130]	[Action:Making connection to server]	[Remarks:Successful connection to server: S3]
[Date: 2015-07-08 09:09:41]	[UserID:eieikhin]	[IP:10.10.11.1]	[Browser:Chrome - 43.0.2357.130]	[Action:GetProgramList eieikhin]	[Remarks:[{"ID":"1","ProgramIndex":"GST","ProgramName":"GST"},{"ID":"3","ProgramIndex":"PRD","ProgramName":"PRD"}]]
[Date: 2015-07-08 09:09:41]	[UserID:eieikhin]	[IP:10.10.11.1]	[Browser:Chrome - 43.0.2357.130]	[Action:Making connection to server]	[Remarks:Successful connection to server: S3]
[Date: 2015-07-08 09:09:41]	[UserID:eieikhin]	[IP:10.10.11.1]	[Browser:Chrome - 43.0.2357.130]	[Action:Filtering User : MasterData Username : eieikhin]	[Remarks:Successful filter row count: 1]
[Date: 2015-07-08 09:10:12]	[UserID:06/371]	[IP:10.10.11.1]	[Browser:Chrome - 43.0.2357.132]	[Action:Making connection to server]	[Remarks:Successful connection to server: S3]
[Date: 2015-07-08 09:10:12]	[UserID:06/371]	[IP:10.10.11.1]	[Browser:Chrome - 43.0.2357.132]	[Action:GetGSTModules 06/371,1]	[Remarks:Successful filter row count: 5]
[Date: 2015-07-08 09:10:12]	[UserID:06/371]	[IP:10.10.11.1]	[Browser:Chrome - 43.0.2357.132]	[Action:Closing mssql connection]	[Remarks:Success]
[Date: 2015-07-08 09:15:44]	[UserID:]	[IP:10.10.11.1]	[Browser:Chrome - 43.0.2357.132]	[Action:Making connection to server]	[Remarks:Successful connection to server: S3]
[Date: 2015-07-08 09:15:44]	[UserID:]	[IP:10.10.11.1]	[Browser:Chrome - 43.0.2357.132]	[Action:GetProgramList ]	[Remarks:"no data"]
[Date: 2015-07-08 09:15:46]	[UserID:11/715]	[IP:10.10.11.1]	[Browser:Chrome - 43.0.2357.132]	[Action:Making connection to server]	[Remarks:Successful connection to server: S3]
[Date: 2015-07-08 09:15:46]	[UserID:11/715]	[IP:10.10.11.1]	[Browser:Chrome - 43.0.2357.132]	[Action:User 11/715]	[Remarks:Success]
[Date: 2015-07-08 09:15:46]	[UserID:11/715]	[IP:10.10.11.1]	[Browser:Chrome - 43.0.2357.132]	[Action:Filtering User : MasterData Username : 11/715]	[Remarks:Successful filter row count: 0]
[Date: 2015-07-08 09:15:46]	[UserID:11/715]	[IP:10.10.11.1]	[Browser:Chrome - 43.0.2357.132]	[Action:Filtering User : MasterData Username : 11/715]	[Remarks:Successful filter row count: 0]
[Date: 2015-07-08 09:15:46]	[UserID:11/715]	[IP:10.10.11.1]	[Browser:Chrome - 43.0.2357.132]	[Action:Filtering User : MasterData Username : 11/715]	[Remarks:Success]
[Date: 2015-07-08 09:15:46]	[UserID:11/715]	[IP:10.10.11.1]	[Browser:Chrome - 43.0.2357.132]	[Action:Closing mssql connection]	[Remarks:Success]
[Date: 2015-07-08 09:15:46]	[UserID:11/715]	[IP:10.10.11.1]	[Browser:Chrome - 43.0.2357.132]	[Action:Making connection to server]	[Remarks:Successful connection to server: S3]
[Date: 2015-07-08 09:15:46]	[UserID:11/715]	[IP:10.10.11.1]	[Browser:Chrome - 43.0.2357.132]	[Action:GetProgramList 11/715]	[Remarks:[{"ID":"1","ProgramIndex":"GST","ProgramName":"GST"}]]
[Date: 2015-07-08 09:15:46]	[UserID:11/715]	[IP:10.10.11.1]	[Browser:Chrome - 43.0.2357.132]	[Action:Making connection to server]	[Remarks:Successful connection to server: S3]
[Date: 2015-07-08 09:15:46]	[UserID:11/715]	[IP:10.10.11.1]	[Browser:Chrome - 43.0.2357.132]	[Action:GetProgramList 11/715]	[Remarks:[{"ID":"1","ProgramIndex":"GST","ProgramName":"GST"}]]
[Date: 2015-07-08 09:15:46]	[UserID:11/715]	[IP:10.10.11.1]	[Browser:Chrome - 43.0.2357.132]	[Action:Making connection to server]	[Remarks:Successful connection to server: S3]
[Date: 2015-07-08 09:15:46]	[UserID:11/715]	[IP:10.10.11.1]	[Browser:Chrome - 43.0.2357.132]	[Action:Filtering User : MasterData Username : 11/715]	[Remarks:Successful filter row count: 1]
[Date: 2015-07-08 09:15:47]	[UserID:11/715]	[IP:10.10.11.1]	[Browser:Chrome - 43.0.2357.132]	[Action:Making connection to server]	[Remarks:Successful connection to server: S3]
[Date: 2015-07-08 09:15:47]	[UserID:11/715]	[IP:10.10.11.1]	[Browser:Chrome - 43.0.2357.132]	[Action:GetGSTModules 11/715,1]	[Remarks:Successful filter row count: 3]
[Date: 2015-07-08 09:15:47]	[UserID:11/715]	[IP:10.10.11.1]	[Browser:Chrome - 43.0.2357.132]	[Action:Closing mssql connection]	[Remarks:Success]
[Date: 2015-07-08 09:17:03]	[UserID:06/343]	[IP:10.10.11.1]	[Browser:Chrome - 43.0.2357.130]	[Action:Making connection to server]	[Remarks:Successful connection to server: S3]
[Date: 2015-07-08 09:17:03]	[UserID:06/343]	[IP:10.10.11.1]	[Browser:Chrome - 43.0.2357.130]	[Action:GetGSTModules 06/343,1]	[Remarks:Successful filter row count: 5]
[Date: 2015-07-08 09:17:03]	[UserID:06/343]	[IP:10.10.11.1]	[Browser:Chrome - 43.0.2357.130]	[Action:Closing mssql connection]	[Remarks:Success]
[Date: 2015-07-08 09:17:05]	[UserID:06/371]	[IP:10.10.11.1]	[Browser:Chrome - 43.0.2357.132]	[Action:Making connection to server]	[Remarks:Successful connection to server: S3]
[Date: 2015-07-08 09:17:05]	[UserID:06/371]	[IP:10.10.11.1]	[Browser:Chrome - 43.0.2357.132]	[Action:GetGSTModules 06/371,1]	[Remarks:Successful filter row count: 5]
[Date: 2015-07-08 09:17:05]	[UserID:06/371]	[IP:10.10.11.1]	[Browser:Chrome - 43.0.2357.132]	[Action:Closing mssql connection]	[Remarks:Success]
[Date: 2015-07-08 09:17:39]	[UserID:]	[IP:10.10.11.1]	[Browser:Chrome - 43.0.2357.130]	[Action:Making connection to server]	[Remarks:Successful connection to server: S3]
[Date: 2015-07-08 09:17:39]	[UserID:]	[IP:10.10.11.1]	[Browser:Chrome - 43.0.2357.130]	[Action:GetProgramList ]	[Remarks:"no data"]
[Date: 2015-07-08 09:17:45]	[UserID:10/660]	[IP:10.10.11.1]	[Browser:Chrome - 43.0.2357.130]	[Action:Making connection to server]	[Remarks:Successful connection to server: S3]
[Date: 2015-07-08 09:17:45]	[UserID:10/660]	[IP:10.10.11.1]	[Browser:Chrome - 43.0.2357.130]	[Action:User 10/660]	[Remarks:Success]
[Date: 2015-07-08 09:17:45]	[UserID:10/660]	[IP:10.10.11.1]	[Browser:Chrome - 43.0.2357.130]	[Action:Filtering User : MasterData Username : 10/660]	[Remarks:Successful filter row count: 0]
[Date: 2015-07-08 09:17:45]	[UserID:10/660]	[IP:10.10.11.1]	[Browser:Chrome - 43.0.2357.130]	[Action:Filtering User : MasterData Username : 10/660]	[Remarks:Successful filter row count: 0]
[Date: 2015-07-08 09:17:45]	[UserID:10/660]	[IP:10.10.11.1]	[Browser:Chrome - 43.0.2357.130]	[Action:Filtering User : MasterData Username : 10/660]	[Remarks:Success]
[Date: 2015-07-08 09:17:45]	[UserID:10/660]	[IP:10.10.11.1]	[Browser:Chrome - 43.0.2357.130]	[Action:Closing mssql connection]	[Remarks:Success]
[Date: 2015-07-08 09:17:45]	[UserID:10/660]	[IP:10.10.11.1]	[Browser:Chrome - 43.0.2357.130]	[Action:Making connection to server]	[Remarks:Successful connection to server: S3]
[Date: 2015-07-08 09:17:45]	[UserID:10/660]	[IP:10.10.11.1]	[Browser:Chrome - 43.0.2357.130]	[Action:GetProgramList 10/660]	[Remarks:[{"ID":"1","ProgramIndex":"GST","ProgramName":"GST"}]]
[Date: 2015-07-08 09:17:45]	[UserID:10/660]	[IP:10.10.11.1]	[Browser:Chrome - 43.0.2357.130]	[Action:Making connection to server]	[Remarks:Successful connection to server: S3]
[Date: 2015-07-08 09:17:45]	[UserID:10/660]	[IP:10.10.11.1]	[Browser:Chrome - 43.0.2357.130]	[Action:GetProgramList 10/660]	[Remarks:[{"ID":"1","ProgramIndex":"GST","ProgramName":"GST"}]]
[Date: 2015-07-08 09:17:45]	[UserID:10/660]	[IP:10.10.11.1]	[Browser:Chrome - 43.0.2357.130]	[Action:Making connection to server]	[Remarks:Successful connection to server: S3]
[Date: 2015-07-08 09:17:45]	[UserID:10/660]	[IP:10.10.11.1]	[Browser:Chrome - 43.0.2357.130]	[Action:Filtering User : MasterData Username : 10/660]	[Remarks:Successful filter row count: 1]
[Date: 2015-07-08 09:17:46]	[UserID:10/660]	[IP:10.10.11.1]	[Browser:Chrome - 43.0.2357.130]	[Action:Making connection to server]	[Remarks:Successful connection to server: S3]
[Date: 2015-07-08 09:17:46]	[UserID:10/660]	[IP:10.10.11.1]	[Browser:Chrome - 43.0.2357.130]	[Action:GetGSTModules 10/660,1]	[Remarks:Successful filter row count: 3]
[Date: 2015-07-08 09:17:46]	[UserID:10/660]	[IP:10.10.11.1]	[Browser:Chrome - 43.0.2357.130]	[Action:Closing mssql connection]	[Remarks:Success]
[Date: 2015-07-08 09:18:55]	[UserID:10/660]	[IP:10.10.11.1]	[Browser:Chrome - 43.0.2357.130]	[Action:Making connection to server]	[Remarks:Successful connection to server: S3]
[Date: 2015-07-08 09:18:55]	[UserID:10/660]	[IP:10.10.11.1]	[Browser:Chrome - 43.0.2357.130]	[Action:GetGSTModules 10/660,1]	[Remarks:Successful filter row count: 3]
[Date: 2015-07-08 09:18:55]	[UserID:10/660]	[IP:10.10.11.1]	[Browser:Chrome - 43.0.2357.130]	[Action:Closing mssql connection]	[Remarks:Success]
[Date: 2015-07-08 09:19:02]	[UserID:10/660]	[IP:10.10.11.1]	[Browser:Chrome - 43.0.2357.130]	[Action:Making connection to server]	[Remarks:Successful connection to server: S3]
[Date: 2015-07-08 09:19:02]	[UserID:10/660]	[IP:10.10.11.1]	[Browser:Chrome - 43.0.2357.130]	[Action:GetGSTModules 10/660,1]	[Remarks:Successful filter row count: 3]
[Date: 2015-07-08 09:19:02]	[UserID:10/660]	[IP:10.10.11.1]	[Browser:Chrome - 43.0.2357.130]	[Action:Closing mssql connection]	[Remarks:Success]
[Date: 2015-07-08 09:20:28]	[UserID:11/715]	[IP:10.10.11.1]	[Browser:Chrome - 43.0.2357.132]	[Action:Making connection to server]	[Remarks:Successful connection to server: S3]
[Date: 2015-07-08 09:20:28]	[UserID:11/715]	[IP:10.10.11.1]	[Browser:Chrome - 43.0.2357.132]	[Action:GetGSTModules 11/715,1]	[Remarks:Successful filter row count: 3]
[Date: 2015-07-08 09:20:28]	[UserID:11/715]	[IP:10.10.11.1]	[Browser:Chrome - 43.0.2357.132]	[Action:Closing mssql connection]	[Remarks:Success]
[Date: 2015-07-08 09:25:14]	[UserID:11/715]	[IP:10.10.11.1]	[Browser:Chrome - 43.0.2357.132]	[Action:Making connection to server]	[Remarks:Successful connection to server: S3]
[Date: 2015-07-08 09:25:14]	[UserID:11/715]	[IP:10.10.11.1]	[Browser:Chrome - 43.0.2357.132]	[Action:GetGSTModules 11/715,1]	[Remarks:Successful filter row count: 3]
[Date: 2015-07-08 09:25:14]	[UserID:11/715]	[IP:10.10.11.1]	[Browser:Chrome - 43.0.2357.132]	[Action:Closing mssql connection]	[Remarks:Success]
[Date: 2015-07-08 09:28:28]	[UserID:10/660]	[IP:10.10.11.1]	[Browser:Chrome - 43.0.2357.130]	[Action:Making connection to server]	[Remarks:Successful connection to server: S3]
[Date: 2015-07-08 09:28:28]	[UserID:10/660]	[IP:10.10.11.1]	[Browser:Chrome - 43.0.2357.130]	[Action:GetGSTModules 10/660,1]	[Remarks:Successful filter row count: 3]
[Date: 2015-07-08 09:28:28]	[UserID:10/660]	[IP:10.10.11.1]	[Browser:Chrome - 43.0.2357.130]	[Action:Closing mssql connection]	[Remarks:Success]
[Date: 2015-07-08 09:36:15]	[UserID:06/371]	[IP:10.10.11.1]	[Browser:Chrome - 43.0.2357.132]	[Action:Making connection to server]	[Remarks:Successful connection to server: S3]
[Date: 2015-07-08 09:36:15]	[UserID:06/371]	[IP:10.10.11.1]	[Browser:Chrome - 43.0.2357.132]	[Action:GetGSTModules 06/371,1]	[Remarks:Successful filter row count: 5]
[Date: 2015-07-08 09:36:15]	[UserID:06/371]	[IP:10.10.11.1]	[Browser:Chrome - 43.0.2357.132]	[Action:Closing mssql connection]	[Remarks:Success]
[Date: 2015-07-08 09:36:34]	[UserID:10/660]	[IP:10.10.11.1]	[Browser:Chrome - 43.0.2357.130]	[Action:Making connection to server]	[Remarks:Successful connection to server: S3]
[Date: 2015-07-08 09:36:34]	[UserID:10/660]	[IP:10.10.11.1]	[Browser:Chrome - 43.0.2357.130]	[Action:GetGSTModules 10/660,1]	[Remarks:Successful filter row count: 3]
[Date: 2015-07-08 09:36:34]	[UserID:10/660]	[IP:10.10.11.1]	[Browser:Chrome - 43.0.2357.130]	[Action:Closing mssql connection]	[Remarks:Success]
[Date: 2015-07-08 09:36:59]	[UserID:]	[IP:10.10.11.1]	[Browser:Chrome - 43.0.2357.130]	[Action:Making connection to server]	[Remarks:Successful connection to server: S3]
[Date: 2015-07-08 09:36:59]	[UserID:]	[IP:10.10.11.1]	[Browser:Chrome - 43.0.2357.130]	[Action:GetProgramList ]	[Remarks:"no data"]
[Date: 2015-07-08 09:56:04]	[UserID:]	[IP:10.10.11.1]	[Browser:Chrome - 43.0.2357.130]	[Action:Making connection to server]	[Remarks:Successful connection to server: S3]
[Date: 2015-07-08 09:56:04]	[UserID:]	[IP:10.10.11.1]	[Browser:Chrome - 43.0.2357.130]	[Action:GetProgramList ]	[Remarks:"no data"]
[Date: 2015-07-08 09:56:05]	[UserID:10/660]	[IP:10.10.11.1]	[Browser:Chrome - 43.0.2357.130]	[Action:Making connection to server]	[Remarks:Successful connection to server: S3]
[Date: 2015-07-08 09:56:05]	[UserID:10/660]	[IP:10.10.11.1]	[Browser:Chrome - 43.0.2357.130]	[Action:User 10/660]	[Remarks:Success]
[Date: 2015-07-08 09:56:05]	[UserID:10/660]	[IP:10.10.11.1]	[Browser:Chrome - 43.0.2357.130]	[Action:Filtering User : MasterData Username : 10/660]	[Remarks:Successful filter row count: 0]
[Date: 2015-07-08 09:56:05]	[UserID:10/660]	[IP:10.10.11.1]	[Browser:Chrome - 43.0.2357.130]	[Action:Filtering User : MasterData Username : 10/660]	[Remarks:Successful filter row count: 0]
[Date: 2015-07-08 09:56:05]	[UserID:10/660]	[IP:10.10.11.1]	[Browser:Chrome - 43.0.2357.130]	[Action:Filtering User : MasterData Username : 10/660]	[Remarks:Success]
[Date: 2015-07-08 09:56:05]	[UserID:10/660]	[IP:10.10.11.1]	[Browser:Chrome - 43.0.2357.130]	[Action:Closing mssql connection]	[Remarks:Success]
[Date: 2015-07-08 09:56:06]	[UserID:10/660]	[IP:10.10.11.1]	[Browser:Chrome - 43.0.2357.130]	[Action:Making connection to server]	[Remarks:Successful connection to server: S3]
[Date: 2015-07-08 09:56:06]	[UserID:10/660]	[IP:10.10.11.1]	[Browser:Chrome - 43.0.2357.130]	[Action:GetProgramList 10/660]	[Remarks:[{"ID":"1","ProgramIndex":"GST","ProgramName":"GST"}]]
[Date: 2015-07-08 09:56:06]	[UserID:10/660]	[IP:10.10.11.1]	[Browser:Chrome - 43.0.2357.130]	[Action:Making connection to server]	[Remarks:Successful connection to server: S3]
[Date: 2015-07-08 09:56:06]	[UserID:10/660]	[IP:10.10.11.1]	[Browser:Chrome - 43.0.2357.130]	[Action:GetProgramList 10/660]	[Remarks:[{"ID":"1","ProgramIndex":"GST","ProgramName":"GST"}]]
[Date: 2015-07-08 09:56:06]	[UserID:10/660]	[IP:10.10.11.1]	[Browser:Chrome - 43.0.2357.130]	[Action:Making connection to server]	[Remarks:Successful connection to server: S3]
[Date: 2015-07-08 09:56:06]	[UserID:10/660]	[IP:10.10.11.1]	[Browser:Chrome - 43.0.2357.130]	[Action:Filtering User : MasterData Username : 10/660]	[Remarks:Successful filter row count: 1]
[Date: 2015-07-08 09:56:06]	[UserID:10/660]	[IP:10.10.11.1]	[Browser:Chrome - 43.0.2357.130]	[Action:Making connection to server]	[Remarks:Successful connection to server: S3]
[Date: 2015-07-08 09:56:06]	[UserID:10/660]	[IP:10.10.11.1]	[Browser:Chrome - 43.0.2357.130]	[Action:GetGSTModules 10/660,1]	[Remarks:Successful filter row count: 3]
[Date: 2015-07-08 09:56:06]	[UserID:10/660]	[IP:10.10.11.1]	[Browser:Chrome - 43.0.2357.130]	[Action:Closing mssql connection]	[Remarks:Success]
[Date: 2015-07-08 09:57:05]	[UserID:]	[IP:10.10.11.1]	[Browser:Chrome - 43.0.2357.130]	[Action:Making connection to server]	[Remarks:Successful connection to server: S3]
[Date: 2015-07-08 09:57:05]	[UserID:]	[IP:10.10.11.1]	[Browser:Chrome - 43.0.2357.130]	[Action:GetProgramList ]	[Remarks:"no data"]
