[Date: 2018-07-11 08:48:51]	[UserID:]	[IP:10.128.12.113]	[Browser:Chrome - 67.0.3396.99]	[Action:Making connection to server]	[Remarks:Successful connection to server: S3]
[Date: 2018-07-11 08:48:51]	[UserID:]	[IP:10.128.12.113]	[Browser:Chrome - 67.0.3396.99]	[Action:GetProgramList ]	[Remarks:"no data"]
[Date: 2018-07-11 08:49:19]	[UserID:06/343]	[IP:10.128.12.113]	[Browser:Chrome - 67.0.3396.99]	[Action:Making connection to server]	[Remarks:Successful connection to server: S3]
[Date: 2018-07-11 08:49:19]	[UserID:06/343]	[IP:10.128.12.113]	[Browser:Chrome - 67.0.3396.99]	[Action:User 06/343]	[Remarks:Success]
[Date: 2018-07-11 08:49:19]	[UserID:06/343]	[IP:10.128.12.113]	[Browser:Chrome - 67.0.3396.99]	[Action:Filtering User : MasterData Username : 06/343]	[Remarks:Successful filter row count: 0]
[Date: 2018-07-11 08:49:19]	[UserID:06/343]	[IP:10.128.12.113]	[Browser:Chrome - 67.0.3396.99]	[Action:Filtering User : MasterData Username : 06/343]	[Remarks:Successful filter row count: 0]
[Date: 2018-07-11 08:49:19]	[UserID:06/343]	[IP:10.128.12.113]	[Browser:Chrome - 67.0.3396.99]	[Action:Filtering User : MasterData Username : 06/343]	[Remarks:Success]
[Date: 2018-07-11 08:49:19]	[UserID:06/343]	[IP:10.128.12.113]	[Browser:Chrome - 67.0.3396.99]	[Action:Closing mssql connection]	[Remarks:Success]
[Date: 2018-07-11 08:49:19]	[UserID:06/343]	[IP:10.128.12.113]	[Browser:Chrome - 67.0.3396.99]	[Action:Making connection to server]	[Remarks:Successful connection to server: S3]
[Date: 2018-07-11 08:49:19]	[UserID:06/343]	[IP:10.128.12.113]	[Browser:Chrome - 67.0.3396.99]	[Action:GetProgramList 06/343]	[Remarks:[{"ID":"1","ProgramIndex":"GST","ProgramName":"GST"}]]
[Date: 2018-07-11 08:49:19]	[UserID:06/343]	[IP:10.128.12.113]	[Browser:Chrome - 67.0.3396.99]	[Action:Making connection to server]	[Remarks:Successful connection to server: S3]
[Date: 2018-07-11 08:49:20]	[UserID:06/343]	[IP:10.128.12.113]	[Browser:Chrome - 67.0.3396.99]	[Action:GetProgramList 06/343]	[Remarks:[{"ID":"1","ProgramIndex":"GST","ProgramName":"GST"}]]
[Date: 2018-07-11 08:49:20]	[UserID:06/343]	[IP:10.128.12.113]	[Browser:Chrome - 67.0.3396.99]	[Action:Making connection to server]	[Remarks:Successful connection to server: S3]
[Date: 2018-07-11 08:49:20]	[UserID:06/343]	[IP:10.128.12.113]	[Browser:Chrome - 67.0.3396.99]	[Action:Filtering User : MasterData Username : 06/343]	[Remarks:Successful filter row count: 1]
[Date: 2018-07-11 08:49:20]	[UserID:06/343]	[IP:10.128.12.113]	[Browser:Chrome - 67.0.3396.99]	[Action:Making connection to server]	[Remarks:Successful connection to server: S3]
[Date: 2018-07-11 08:49:20]	[UserID:06/343]	[IP:10.128.12.113]	[Browser:Chrome - 67.0.3396.99]	[Action:GetGSTModules 06/343,1]	[Remarks:Successful filter row count: 6]
[Date: 2018-07-11 08:49:20]	[UserID:06/343]	[IP:10.128.12.113]	[Browser:Chrome - 67.0.3396.99]	[Action:Closing mssql connection]	[Remarks:Success]
[Date: 2018-07-11 08:52:17]	[UserID:06/343]	[IP:10.128.12.113]	[Browser:Chrome - 67.0.3396.99]	[Action:Making connection to server]	[Remarks:Successful connection to server: S3]
[Date: 2018-07-11 08:52:17]	[UserID:06/343]	[IP:10.128.12.113]	[Browser:Chrome - 67.0.3396.99]	[Action:GetGSTModules 06/343,1]	[Remarks:Successful filter row count: 6]
[Date: 2018-07-11 08:52:17]	[UserID:06/343]	[IP:10.128.12.113]	[Browser:Chrome - 67.0.3396.99]	[Action:Closing mssql connection]	[Remarks:Success]
[Date: 2018-07-11 09:23:38]	[UserID:06/343]	[IP:10.128.12.113]	[Browser:Chrome - 67.0.3396.99]	[Action:Making connection to server]	[Remarks:Successful connection to server: S3]
[Date: 2018-07-11 09:23:38]	[UserID:06/343]	[IP:10.128.12.113]	[Browser:Chrome - 67.0.3396.99]	[Action:GetProgramList 06/343]	[Remarks:[{"ID":"1","ProgramIndex":"GST","ProgramName":"GST"}]]
[Date: 2018-07-11 09:23:38]	[UserID:06/343]	[IP:10.128.12.113]	[Browser:Chrome - 67.0.3396.99]	[Action:Making connection to server]	[Remarks:Successful connection to server: S3]
[Date: 2018-07-11 09:23:38]	[UserID:06/343]	[IP:10.128.12.113]	[Browser:Chrome - 67.0.3396.99]	[Action:GetProgramList 06/343]	[Remarks:[{"ID":"1","ProgramIndex":"GST","ProgramName":"GST"}]]
[Date: 2018-07-11 09:23:38]	[UserID:06/343]	[IP:10.128.12.113]	[Browser:Chrome - 67.0.3396.99]	[Action:Making connection to server]	[Remarks:Successful connection to server: S3]
[Date: 2018-07-11 09:23:38]	[UserID:06/343]	[IP:10.128.12.113]	[Browser:Chrome - 67.0.3396.99]	[Action:Filtering User : MasterData Username : 06/343]	[Remarks:Successful filter row count: 1]
[Date: 2018-07-11 09:23:39]	[UserID:06/343]	[IP:10.128.12.113]	[Browser:Chrome - 67.0.3396.99]	[Action:Making connection to server]	[Remarks:Successful connection to server: S3]
[Date: 2018-07-11 09:23:39]	[UserID:06/343]	[IP:10.128.12.113]	[Browser:Chrome - 67.0.3396.99]	[Action:GetGSTModules 06/343,1]	[Remarks:Successful filter row count: 6]
[Date: 2018-07-11 09:23:39]	[UserID:06/343]	[IP:10.128.12.113]	[Browser:Chrome - 67.0.3396.99]	[Action:Closing mssql connection]	[Remarks:Success]
[Date: 2018-07-11 09:25:48]	[UserID:06/343]	[IP:10.128.12.113]	[Browser:Chrome - 67.0.3396.99]	[Action:Making connection to server]	[Remarks:Successful connection to server: S3]
[Date: 2018-07-11 09:25:48]	[UserID:06/343]	[IP:10.128.12.113]	[Browser:Chrome - 67.0.3396.99]	[Action:GetGSTModules 06/343,1]	[Remarks:Successful filter row count: 6]
[Date: 2018-07-11 09:25:48]	[UserID:06/343]	[IP:10.128.12.113]	[Browser:Chrome - 67.0.3396.99]	[Action:Closing mssql connection]	[Remarks:Success]
[Date: 2018-07-11 11:05:14]	[UserID:]	[IP:10.128.12.210]	[Browser:Chrome - 67.0.3396.99]	[Action:Making connection to server]	[Remarks:Successful connection to server: S3]
[Date: 2018-07-11 11:05:14]	[UserID:]	[IP:10.128.12.210]	[Browser:Chrome - 67.0.3396.99]	[Action:GetProgramList ]	[Remarks:"no data"]
[Date: 2018-07-11 11:05:22]	[UserID:10/660]	[IP:10.128.12.210]	[Browser:Chrome - 67.0.3396.99]	[Action:Making connection to server]	[Remarks:Successful connection to server: S3]
[Date: 2018-07-11 11:05:22]	[UserID:10/660]	[IP:10.128.12.210]	[Browser:Chrome - 67.0.3396.99]	[Action:User 10/660]	[Remarks:Success]
[Date: 2018-07-11 11:05:22]	[UserID:10/660]	[IP:10.128.12.210]	[Browser:Chrome - 67.0.3396.99]	[Action:Filtering User : MasterData Username : 10/660]	[Remarks:Successful filter row count: 0]
[Date: 2018-07-11 11:05:22]	[UserID:10/660]	[IP:10.128.12.210]	[Browser:Chrome - 67.0.3396.99]	[Action:Filtering User : MasterData Username : 10/660]	[Remarks:Successful filter row count: 0]
[Date: 2018-07-11 11:05:22]	[UserID:10/660]	[IP:10.128.12.210]	[Browser:Chrome - 67.0.3396.99]	[Action:Filtering User : MasterData Username : 10/660]	[Remarks:Success]
[Date: 2018-07-11 11:05:22]	[UserID:10/660]	[IP:10.128.12.210]	[Browser:Chrome - 67.0.3396.99]	[Action:Closing mssql connection]	[Remarks:Success]
[Date: 2018-07-11 11:05:22]	[UserID:10/660]	[IP:10.128.12.210]	[Browser:Chrome - 67.0.3396.99]	[Action:Making connection to server]	[Remarks:Successful connection to server: S3]
[Date: 2018-07-11 11:05:22]	[UserID:10/660]	[IP:10.128.12.210]	[Browser:Chrome - 67.0.3396.99]	[Action:GetProgramList 10/660]	[Remarks:[{"ID":"1","ProgramIndex":"GST","ProgramName":"GST"}]]
[Date: 2018-07-11 11:05:22]	[UserID:10/660]	[IP:10.128.12.210]	[Browser:Chrome - 67.0.3396.99]	[Action:Making connection to server]	[Remarks:Successful connection to server: S3]
[Date: 2018-07-11 11:05:23]	[UserID:10/660]	[IP:10.128.12.210]	[Browser:Chrome - 67.0.3396.99]	[Action:GetProgramList 10/660]	[Remarks:[{"ID":"1","ProgramIndex":"GST","ProgramName":"GST"}]]
[Date: 2018-07-11 11:05:23]	[UserID:10/660]	[IP:10.128.12.210]	[Browser:Chrome - 67.0.3396.99]	[Action:Making connection to server]	[Remarks:Successful connection to server: S3]
[Date: 2018-07-11 11:05:23]	[UserID:10/660]	[IP:10.128.12.210]	[Browser:Chrome - 67.0.3396.99]	[Action:Filtering User : MasterData Username : 10/660]	[Remarks:Successful filter row count: 1]
[Date: 2018-07-11 11:05:23]	[UserID:10/660]	[IP:10.128.12.210]	[Browser:Chrome - 67.0.3396.99]	[Action:Making connection to server]	[Remarks:Successful connection to server: S3]
[Date: 2018-07-11 11:05:23]	[UserID:10/660]	[IP:10.128.12.210]	[Browser:Chrome - 67.0.3396.99]	[Action:GetGSTModules 10/660,1]	[Remarks:Successful filter row count: 5]
[Date: 2018-07-11 11:05:23]	[UserID:10/660]	[IP:10.128.12.210]	[Browser:Chrome - 67.0.3396.99]	[Action:Closing mssql connection]	[Remarks:Success]
[Date: 2018-07-11 11:20:30]	[UserID:10/660]	[IP:10.128.12.210]	[Browser:Chrome - 67.0.3396.99]	[Action:Making connection to server]	[Remarks:Successful connection to server: S3]
[Date: 2018-07-11 11:20:30]	[UserID:10/660]	[IP:10.128.12.210]	[Browser:Chrome - 67.0.3396.99]	[Action:GetGSTModules 10/660,1]	[Remarks:Successful filter row count: 5]
[Date: 2018-07-11 11:20:30]	[UserID:10/660]	[IP:10.128.12.210]	[Browser:Chrome - 67.0.3396.99]	[Action:Closing mssql connection]	[Remarks:Success]
[Date: 2018-07-11 11:25:44]	[UserID:10/660]	[IP:10.128.12.210]	[Browser:Chrome - 67.0.3396.99]	[Action:Making connection to server]	[Remarks:Successful connection to server: S3]
[Date: 2018-07-11 11:25:44]	[UserID:10/660]	[IP:10.128.12.210]	[Browser:Chrome - 67.0.3396.99]	[Action:GetProgramList 10/660]	[Remarks:[{"ID":"1","ProgramIndex":"GST","ProgramName":"GST"}]]
[Date: 2018-07-11 11:25:44]	[UserID:10/660]	[IP:10.128.12.210]	[Browser:Chrome - 67.0.3396.99]	[Action:Making connection to server]	[Remarks:Successful connection to server: S3]
[Date: 2018-07-11 11:25:44]	[UserID:10/660]	[IP:10.128.12.210]	[Browser:Chrome - 67.0.3396.99]	[Action:GetProgramList 10/660]	[Remarks:[{"ID":"1","ProgramIndex":"GST","ProgramName":"GST"}]]
[Date: 2018-07-11 11:25:44]	[UserID:10/660]	[IP:10.128.12.210]	[Browser:Chrome - 67.0.3396.99]	[Action:Making connection to server]	[Remarks:Successful connection to server: S3]
[Date: 2018-07-11 11:25:44]	[UserID:10/660]	[IP:10.128.12.210]	[Browser:Chrome - 67.0.3396.99]	[Action:Filtering User : MasterData Username : 10/660]	[Remarks:Successful filter row count: 1]
[Date: 2018-07-11 11:25:44]	[UserID:10/660]	[IP:10.128.12.210]	[Browser:Chrome - 67.0.3396.99]	[Action:Making connection to server]	[Remarks:Successful connection to server: S3]
[Date: 2018-07-11 11:25:44]	[UserID:10/660]	[IP:10.128.12.210]	[Browser:Chrome - 67.0.3396.99]	[Action:GetGSTModules 10/660,1]	[Remarks:Successful filter row count: 5]
[Date: 2018-07-11 11:25:44]	[UserID:10/660]	[IP:10.128.12.210]	[Browser:Chrome - 67.0.3396.99]	[Action:Closing mssql connection]	[Remarks:Success]
[Date: 2018-07-11 11:26:19]	[UserID:10/660]	[IP:10.128.12.210]	[Browser:Chrome - 67.0.3396.99]	[Action:Making connection to server]	[Remarks:Successful connection to server: S3]
[Date: 2018-07-11 11:26:19]	[UserID:10/660]	[IP:10.128.12.210]	[Browser:Chrome - 67.0.3396.99]	[Action:GetGSTModules 10/660,1]	[Remarks:Successful filter row count: 5]
[Date: 2018-07-11 11:26:19]	[UserID:10/660]	[IP:10.128.12.210]	[Browser:Chrome - 67.0.3396.99]	[Action:Closing mssql connection]	[Remarks:Success]
[Date: 2018-07-11 15:39:10]	[UserID:]	[IP:10.128.12.113]	[Browser:Chrome - 67.0.3396.99]	[Action:Making connection to server]	[Remarks:Successful connection to server: S3]
[Date: 2018-07-11 15:39:10]	[UserID:]	[IP:10.128.12.113]	[Browser:Chrome - 67.0.3396.99]	[Action:GetProgramList ]	[Remarks:"no data"]
[Date: 2018-07-11 15:39:12]	[UserID:06/343]	[IP:10.128.12.113]	[Browser:Chrome - 67.0.3396.99]	[Action:Making connection to server]	[Remarks:Successful connection to server: S3]
[Date: 2018-07-11 15:39:12]	[UserID:06/343]	[IP:10.128.12.113]	[Browser:Chrome - 67.0.3396.99]	[Action:User 06/343]	[Remarks:Success]
[Date: 2018-07-11 15:39:12]	[UserID:06/343]	[IP:10.128.12.113]	[Browser:Chrome - 67.0.3396.99]	[Action:Filtering User : MasterData Username : 06/343]	[Remarks:Successful filter row count: 0]
[Date: 2018-07-11 15:39:12]	[UserID:06/343]	[IP:10.128.12.113]	[Browser:Chrome - 67.0.3396.99]	[Action:Filtering User : MasterData Username : 06/343]	[Remarks:Successful filter row count: 0]
[Date: 2018-07-11 15:39:12]	[UserID:06/343]	[IP:10.128.12.113]	[Browser:Chrome - 67.0.3396.99]	[Action:Filtering User : MasterData Username : 06/343]	[Remarks:Success]
[Date: 2018-07-11 15:39:12]	[UserID:06/343]	[IP:10.128.12.113]	[Browser:Chrome - 67.0.3396.99]	[Action:Closing mssql connection]	[Remarks:Success]
[Date: 2018-07-11 15:39:12]	[UserID:06/343]	[IP:10.128.12.113]	[Browser:Chrome - 67.0.3396.99]	[Action:Making connection to server]	[Remarks:Successful connection to server: S3]
[Date: 2018-07-11 15:39:12]	[UserID:06/343]	[IP:10.128.12.113]	[Browser:Chrome - 67.0.3396.99]	[Action:GetProgramList 06/343]	[Remarks:[{"ID":"1","ProgramIndex":"GST","ProgramName":"GST"}]]
[Date: 2018-07-11 15:39:12]	[UserID:06/343]	[IP:10.128.12.113]	[Browser:Chrome - 67.0.3396.99]	[Action:Making connection to server]	[Remarks:Successful connection to server: S3]
[Date: 2018-07-11 15:39:12]	[UserID:06/343]	[IP:10.128.12.113]	[Browser:Chrome - 67.0.3396.99]	[Action:GetProgramList 06/343]	[Remarks:[{"ID":"1","ProgramIndex":"GST","ProgramName":"GST"}]]
[Date: 2018-07-11 15:39:12]	[UserID:06/343]	[IP:10.128.12.113]	[Browser:Chrome - 67.0.3396.99]	[Action:Making connection to server]	[Remarks:Successful connection to server: S3]
[Date: 2018-07-11 15:39:12]	[UserID:06/343]	[IP:10.128.12.113]	[Browser:Chrome - 67.0.3396.99]	[Action:Filtering User : MasterData Username : 06/343]	[Remarks:Successful filter row count: 1]
[Date: 2018-07-11 15:39:12]	[UserID:06/343]	[IP:10.128.12.113]	[Browser:Chrome - 67.0.3396.99]	[Action:Making connection to server]	[Remarks:Successful connection to server: S3]
[Date: 2018-07-11 15:39:12]	[UserID:06/343]	[IP:10.128.12.113]	[Browser:Chrome - 67.0.3396.99]	[Action:GetGSTModules 06/343,1]	[Remarks:Successful filter row count: 6]
[Date: 2018-07-11 15:39:12]	[UserID:06/343]	[IP:10.128.12.113]	[Browser:Chrome - 67.0.3396.99]	[Action:Closing mssql connection]	[Remarks:Success]
[Date: 2018-07-11 15:41:14]	[UserID:06/343]	[IP:10.128.12.113]	[Browser:Chrome - 67.0.3396.99]	[Action:Making connection to server]	[Remarks:Successful connection to server: S3]
[Date: 2018-07-11 15:41:14]	[UserID:06/343]	[IP:10.128.12.113]	[Browser:Chrome - 67.0.3396.99]	[Action:GetGSTModules 06/343,1]	[Remarks:Successful filter row count: 6]
[Date: 2018-07-11 15:41:14]	[UserID:06/343]	[IP:10.128.12.113]	[Browser:Chrome - 67.0.3396.99]	[Action:Closing mssql connection]	[Remarks:Success]
[Date: 2018-07-11 15:44:35]	[UserID:06/343]	[IP:10.128.12.113]	[Browser:Chrome - 67.0.3396.99]	[Action:Making connection to server]	[Remarks:Successful connection to server: S3]
[Date: 2018-07-11 15:44:35]	[UserID:06/343]	[IP:10.128.12.113]	[Browser:Chrome - 67.0.3396.99]	[Action:GetGSTModules 06/343,1]	[Remarks:Successful filter row count: 6]
[Date: 2018-07-11 15:44:35]	[UserID:06/343]	[IP:10.128.12.113]	[Browser:Chrome - 67.0.3396.99]	[Action:Closing mssql connection]	[Remarks:Success]
