[Date: 2018-10-22 15:01:14]	[UserID:]	[IP:10.128.12.113]	[Browser:Chrome - 69.0.3497.100]	[Action:Making connection to server]	[Remarks:Successful connection to server: S3]
[Date: 2018-10-22 15:01:14]	[UserID:]	[IP:10.128.12.113]	[Browser:Chrome - 69.0.3497.100]	[Action:GetProgramList ]	[Remarks:"no data"]
[Date: 2018-10-22 15:03:15]	[UserID:06/343]	[IP:10.128.12.113]	[Browser:Chrome - 69.0.3497.100]	[Action:Making connection to server]	[Remarks:Successful connection to server: S3]
[Date: 2018-10-22 15:03:15]	[UserID:06/343]	[IP:10.128.12.113]	[Browser:Chrome - 69.0.3497.100]	[Action:User 06/343]	[Remarks:Success]
[Date: 2018-10-22 15:03:15]	[UserID:06/343]	[IP:10.128.12.113]	[Browser:Chrome - 69.0.3497.100]	[Action:Filtering User : MasterData Username : 06/343]	[Remarks:Successful filter row count: 0]
[Date: 2018-10-22 15:03:15]	[UserID:06/343]	[IP:10.128.12.113]	[Browser:Chrome - 69.0.3497.100]	[Action:Filtering User : MasterData Username : 06/343]	[Remarks:Successful filter row count: 0]
[Date: 2018-10-22 15:03:15]	[UserID:06/343]	[IP:10.128.12.113]	[Browser:Chrome - 69.0.3497.100]	[Action:Filtering User : MasterData Username : 06/343]	[Remarks:Success]
[Date: 2018-10-22 15:03:15]	[UserID:06/343]	[IP:10.128.12.113]	[Browser:Chrome - 69.0.3497.100]	[Action:Closing mssql connection]	[Remarks:Success]
[Date: 2018-10-22 15:03:15]	[UserID:06/343]	[IP:10.128.12.113]	[Browser:Chrome - 69.0.3497.100]	[Action:Making connection to server]	[Remarks:Successful connection to server: S3]
[Date: 2018-10-22 15:03:15]	[UserID:06/343]	[IP:10.128.12.113]	[Browser:Chrome - 69.0.3497.100]	[Action:GetProgramList 06/343]	[Remarks:[{"ID":"1","ProgramIndex":"GST","ProgramName":"GST"}]]
[Date: 2018-10-22 15:03:15]	[UserID:06/343]	[IP:10.128.12.113]	[Browser:Chrome - 69.0.3497.100]	[Action:Making connection to server]	[Remarks:Successful connection to server: S3]
[Date: 2018-10-22 15:03:15]	[UserID:06/343]	[IP:10.128.12.113]	[Browser:Chrome - 69.0.3497.100]	[Action:GetProgramList 06/343]	[Remarks:[{"ID":"1","ProgramIndex":"GST","ProgramName":"GST"}]]
[Date: 2018-10-22 15:03:15]	[UserID:06/343]	[IP:10.128.12.113]	[Browser:Chrome - 69.0.3497.100]	[Action:Making connection to server]	[Remarks:Successful connection to server: S3]
[Date: 2018-10-22 15:03:15]	[UserID:06/343]	[IP:10.128.12.113]	[Browser:Chrome - 69.0.3497.100]	[Action:Filtering User : MasterData Username : 06/343]	[Remarks:Successful filter row count: 1]
[Date: 2018-10-22 15:03:16]	[UserID:06/343]	[IP:10.128.12.113]	[Browser:Chrome - 69.0.3497.100]	[Action:Making connection to server]	[Remarks:Successful connection to server: S3]
[Date: 2018-10-22 15:03:16]	[UserID:06/343]	[IP:10.128.12.113]	[Browser:Chrome - 69.0.3497.100]	[Action:GetGSTModules 06/343,1]	[Remarks:Successful filter row count: 6]
[Date: 2018-10-22 15:03:16]	[UserID:06/343]	[IP:10.128.12.113]	[Browser:Chrome - 69.0.3497.100]	[Action:Closing mssql connection]	[Remarks:Success]
[Date: 2018-10-22 15:06:10]	[UserID:06/343]	[IP:10.128.12.113]	[Browser:Chrome - 69.0.3497.100]	[Action:Making connection to server]	[Remarks:Successful connection to server: S3]
[Date: 2018-10-22 15:06:10]	[UserID:06/343]	[IP:10.128.12.113]	[Browser:Chrome - 69.0.3497.100]	[Action:GetGSTModules 06/343,1]	[Remarks:Successful filter row count: 6]
[Date: 2018-10-22 15:06:10]	[UserID:06/343]	[IP:10.128.12.113]	[Browser:Chrome - 69.0.3497.100]	[Action:Closing mssql connection]	[Remarks:Success]
[Date: 2018-10-22 15:09:18]	[UserID:06/343]	[IP:10.128.12.113]	[Browser:Chrome - 69.0.3497.100]	[Action:Making connection to server]	[Remarks:Successful connection to server: S3]
[Date: 2018-10-22 15:09:18]	[UserID:06/343]	[IP:10.128.12.113]	[Browser:Chrome - 69.0.3497.100]	[Action:GetGSTModules 06/343,1]	[Remarks:Successful filter row count: 6]
[Date: 2018-10-22 15:09:18]	[UserID:06/343]	[IP:10.128.12.113]	[Browser:Chrome - 69.0.3497.100]	[Action:Closing mssql connection]	[Remarks:Success]
[Date: 2018-10-22 15:28:33]	[UserID:06/343]	[IP:10.128.12.113]	[Browser:Chrome - 69.0.3497.100]	[Action:Making connection to server]	[Remarks:Successful connection to server: S3]
[Date: 2018-10-22 15:28:33]	[UserID:06/343]	[IP:10.128.12.113]	[Browser:Chrome - 69.0.3497.100]	[Action:GetGSTModules 06/343,1]	[Remarks:Successful filter row count: 6]
[Date: 2018-10-22 15:28:33]	[UserID:06/343]	[IP:10.128.12.113]	[Browser:Chrome - 69.0.3497.100]	[Action:Closing mssql connection]	[Remarks:Success]
[Date: 2018-10-22 15:32:17]	[UserID:06/343]	[IP:10.128.12.113]	[Browser:Chrome - 69.0.3497.100]	[Action:Making connection to server]	[Remarks:Successful connection to server: S3]
[Date: 2018-10-22 15:32:17]	[UserID:06/343]	[IP:10.128.12.113]	[Browser:Chrome - 69.0.3497.100]	[Action:GetGSTModules 06/343,1]	[Remarks:Successful filter row count: 6]
[Date: 2018-10-22 15:32:17]	[UserID:06/343]	[IP:10.128.12.113]	[Browser:Chrome - 69.0.3497.100]	[Action:Closing mssql connection]	[Remarks:Success]
[Date: 2018-10-22 16:26:35]	[UserID:06/343]	[IP:10.128.12.113]	[Browser:Chrome - 69.0.3497.100]	[Action:Making connection to server]	[Remarks:Successful connection to server: S3]
[Date: 2018-10-22 16:26:35]	[UserID:06/343]	[IP:10.128.12.113]	[Browser:Chrome - 69.0.3497.100]	[Action:GetProgramList 06/343]	[Remarks:[{"ID":"1","ProgramIndex":"GST","ProgramName":"GST"}]]
[Date: 2018-10-22 16:26:35]	[UserID:06/343]	[IP:10.128.12.113]	[Browser:Chrome - 69.0.3497.100]	[Action:Making connection to server]	[Remarks:Successful connection to server: S3]
[Date: 2018-10-22 16:26:35]	[UserID:06/343]	[IP:10.128.12.113]	[Browser:Chrome - 69.0.3497.100]	[Action:GetProgramList 06/343]	[Remarks:[{"ID":"1","ProgramIndex":"GST","ProgramName":"GST"}]]
[Date: 2018-10-22 16:26:35]	[UserID:06/343]	[IP:10.128.12.113]	[Browser:Chrome - 69.0.3497.100]	[Action:Making connection to server]	[Remarks:Successful connection to server: S3]
[Date: 2018-10-22 16:26:35]	[UserID:06/343]	[IP:10.128.12.113]	[Browser:Chrome - 69.0.3497.100]	[Action:Filtering User : MasterData Username : 06/343]	[Remarks:Successful filter row count: 1]
[Date: 2018-10-22 16:26:35]	[UserID:06/343]	[IP:10.128.12.113]	[Browser:Chrome - 69.0.3497.100]	[Action:Making connection to server]	[Remarks:Successful connection to server: S3]
[Date: 2018-10-22 16:26:35]	[UserID:06/343]	[IP:10.128.12.113]	[Browser:Chrome - 69.0.3497.100]	[Action:GetProgramList 06/343]	[Remarks:[{"ID":"1","ProgramIndex":"GST","ProgramName":"GST"}]]
[Date: 2018-10-22 16:26:35]	[UserID:06/343]	[IP:10.128.12.113]	[Browser:Chrome - 69.0.3497.100]	[Action:Making connection to server]	[Remarks:Successful connection to server: S3]
[Date: 2018-10-22 16:26:35]	[UserID:06/343]	[IP:10.128.12.113]	[Browser:Chrome - 69.0.3497.100]	[Action:GetProgramList 06/343]	[Remarks:[{"ID":"1","ProgramIndex":"GST","ProgramName":"GST"}]]
[Date: 2018-10-22 16:26:35]	[UserID:06/343]	[IP:10.128.12.113]	[Browser:Chrome - 69.0.3497.100]	[Action:Making connection to server]	[Remarks:Successful connection to server: S3]
[Date: 2018-10-22 16:26:35]	[UserID:06/343]	[IP:10.128.12.113]	[Browser:Chrome - 69.0.3497.100]	[Action:Filtering User : MasterData Username : 06/343]	[Remarks:Successful filter row count: 1]
[Date: 2018-10-22 16:26:35]	[UserID:06/343]	[IP:10.128.12.113]	[Browser:Chrome - 69.0.3497.100]	[Action:Making connection to server]	[Remarks:Successful connection to server: S3]
[Date: 2018-10-22 16:26:35]	[UserID:06/343]	[IP:10.128.12.113]	[Browser:Chrome - 69.0.3497.100]	[Action:GetGSTModules 06/343,1]	[Remarks:Successful filter row count: 6]
[Date: 2018-10-22 16:26:35]	[UserID:06/343]	[IP:10.128.12.113]	[Browser:Chrome - 69.0.3497.100]	[Action:Closing mssql connection]	[Remarks:Success]
[Date: 2018-10-22 16:30:03]	[UserID:06/343]	[IP:10.128.12.113]	[Browser:Chrome - 69.0.3497.100]	[Action:Making connection to server]	[Remarks:Successful connection to server: S3]
[Date: 2018-10-22 16:30:03]	[UserID:06/343]	[IP:10.128.12.113]	[Browser:Chrome - 69.0.3497.100]	[Action:GetGSTModules 06/343,1]	[Remarks:Successful filter row count: 6]
[Date: 2018-10-22 16:30:03]	[UserID:06/343]	[IP:10.128.12.113]	[Browser:Chrome - 69.0.3497.100]	[Action:Closing mssql connection]	[Remarks:Success]
