[Date: 2017-08-07 11:00:18]	[UserID:]	[IP:10.128.12.113]	[Browser:Chrome - 59.0.3071.115]	[Action:Making connection to server]	[Remarks:Successful connection to server: S3]
[Date: 2017-08-07 11:00:18]	[UserID:]	[IP:10.128.12.113]	[Browser:Chrome - 59.0.3071.115]	[Action:GetProgramList ]	[Remarks:"no data"]
[Date: 2017-08-07 11:00:20]	[UserID:06/343]	[IP:10.128.12.113]	[Browser:Chrome - 59.0.3071.115]	[Action:Making connection to server]	[Remarks:Successful connection to server: S3]
[Date: 2017-08-07 11:00:20]	[UserID:06/343]	[IP:10.128.12.113]	[Browser:Chrome - 59.0.3071.115]	[Action:User 06/343]	[Remarks:Success]
[Date: 2017-08-07 11:00:20]	[UserID:06/343]	[IP:10.128.12.113]	[Browser:Chrome - 59.0.3071.115]	[Action:Filtering User : MasterData Username : 06/343]	[Remarks:Successful filter row count: 0]
[Date: 2017-08-07 11:00:20]	[UserID:06/343]	[IP:10.128.12.113]	[Browser:Chrome - 59.0.3071.115]	[Action:Filtering User : MasterData Username : 06/343]	[Remarks:Successful filter row count: 0]
[Date: 2017-08-07 11:00:20]	[UserID:06/343]	[IP:10.128.12.113]	[Browser:Chrome - 59.0.3071.115]	[Action:Filtering User : MasterData Username : 06/343]	[Remarks:Success]
[Date: 2017-08-07 11:00:20]	[UserID:06/343]	[IP:10.128.12.113]	[Browser:Chrome - 59.0.3071.115]	[Action:Closing mssql connection]	[Remarks:Success]
[Date: 2017-08-07 11:00:20]	[UserID:06/343]	[IP:10.128.12.113]	[Browser:Chrome - 59.0.3071.115]	[Action:Making connection to server]	[Remarks:Successful connection to server: S3]
[Date: 2017-08-07 11:00:20]	[UserID:06/343]	[IP:10.128.12.113]	[Browser:Chrome - 59.0.3071.115]	[Action:GetProgramList 06/343]	[Remarks:[{"ID":"1","ProgramIndex":"GST","ProgramName":"GST"}]]
[Date: 2017-08-07 11:00:20]	[UserID:06/343]	[IP:10.128.12.113]	[Browser:Chrome - 59.0.3071.115]	[Action:Making connection to server]	[Remarks:Successful connection to server: S3]
[Date: 2017-08-07 11:00:20]	[UserID:06/343]	[IP:10.128.12.113]	[Browser:Chrome - 59.0.3071.115]	[Action:GetProgramList 06/343]	[Remarks:[{"ID":"1","ProgramIndex":"GST","ProgramName":"GST"}]]
[Date: 2017-08-07 11:00:20]	[UserID:06/343]	[IP:10.128.12.113]	[Browser:Chrome - 59.0.3071.115]	[Action:Making connection to server]	[Remarks:Successful connection to server: S3]
[Date: 2017-08-07 11:00:20]	[UserID:06/343]	[IP:10.128.12.113]	[Browser:Chrome - 59.0.3071.115]	[Action:Filtering User : MasterData Username : 06/343]	[Remarks:Successful filter row count: 1]
[Date: 2017-08-07 11:00:21]	[UserID:06/343]	[IP:10.128.12.113]	[Browser:Chrome - 59.0.3071.115]	[Action:Making connection to server]	[Remarks:Successful connection to server: S3]
[Date: 2017-08-07 11:00:21]	[UserID:06/343]	[IP:10.128.12.113]	[Browser:Chrome - 59.0.3071.115]	[Action:GetGSTModules 06/343,1]	[Remarks:Successful filter row count: 5]
[Date: 2017-08-07 11:00:21]	[UserID:06/343]	[IP:10.128.12.113]	[Browser:Chrome - 59.0.3071.115]	[Action:Closing mssql connection]	[Remarks:Success]
[Date: 2017-08-07 11:17:04]	[UserID:06/343]	[IP:10.128.12.113]	[Browser:Chrome - 59.0.3071.115]	[Action:Making connection to server]	[Remarks:Successful connection to server: S3]
[Date: 2017-08-07 11:17:04]	[UserID:06/343]	[IP:10.128.12.113]	[Browser:Chrome - 59.0.3071.115]	[Action:GetGSTModules 06/343,1]	[Remarks:Successful filter row count: 5]
[Date: 2017-08-07 11:17:04]	[UserID:06/343]	[IP:10.128.12.113]	[Browser:Chrome - 59.0.3071.115]	[Action:Closing mssql connection]	[Remarks:Success]
[Date: 2017-08-07 11:19:55]	[UserID:06/343]	[IP:10.128.12.113]	[Browser:Chrome - 59.0.3071.115]	[Action:Making connection to server]	[Remarks:Successful connection to server: S3]
[Date: 2017-08-07 11:19:55]	[UserID:06/343]	[IP:10.128.12.113]	[Browser:Chrome - 59.0.3071.115]	[Action:GetGSTModules 06/343,1]	[Remarks:Successful filter row count: 5]
[Date: 2017-08-07 11:19:55]	[UserID:06/343]	[IP:10.128.12.113]	[Browser:Chrome - 59.0.3071.115]	[Action:Closing mssql connection]	[Remarks:Success]
[Date: 2017-08-07 11:25:24]	[UserID:06/343]	[IP:10.128.12.113]	[Browser:Chrome - 59.0.3071.115]	[Action:Making connection to server]	[Remarks:Successful connection to server: S3]
[Date: 2017-08-07 11:25:24]	[UserID:06/343]	[IP:10.128.12.113]	[Browser:Chrome - 59.0.3071.115]	[Action:GetGSTModules 06/343,1]	[Remarks:Successful filter row count: 5]
[Date: 2017-08-07 11:25:24]	[UserID:06/343]	[IP:10.128.12.113]	[Browser:Chrome - 59.0.3071.115]	[Action:Closing mssql connection]	[Remarks:Success]
[Date: 2017-08-07 11:33:05]	[UserID:06/343]	[IP:10.128.12.113]	[Browser:Chrome - 59.0.3071.115]	[Action:Making connection to server]	[Remarks:Successful connection to server: S3]
[Date: 2017-08-07 11:33:05]	[UserID:06/343]	[IP:10.128.12.113]	[Browser:Chrome - 59.0.3071.115]	[Action:GetGSTModules 06/343,1]	[Remarks:Successful filter row count: 5]
[Date: 2017-08-07 11:33:05]	[UserID:06/343]	[IP:10.128.12.113]	[Browser:Chrome - 59.0.3071.115]	[Action:Closing mssql connection]	[Remarks:Success]
[Date: 2017-08-07 11:33:08]	[UserID:06/343]	[IP:10.128.12.113]	[Browser:Chrome - 59.0.3071.115]	[Action:Making connection to server]	[Remarks:Successful connection to server: S3]
[Date: 2017-08-07 11:33:08]	[UserID:06/343]	[IP:10.128.12.113]	[Browser:Chrome - 59.0.3071.115]	[Action:GetGSTModules 06/343,1]	[Remarks:Successful filter row count: 5]
[Date: 2017-08-07 11:33:08]	[UserID:06/343]	[IP:10.128.12.113]	[Browser:Chrome - 59.0.3071.115]	[Action:Closing mssql connection]	[Remarks:Success]
[Date: 2017-08-07 16:17:21]	[UserID:06/343]	[IP:10.128.12.113]	[Browser:Chrome - 59.0.3071.115]	[Action:Making connection to server]	[Remarks:Successful connection to server: S3]
[Date: 2017-08-07 16:17:21]	[UserID:06/343]	[IP:10.128.12.113]	[Browser:Chrome - 59.0.3071.115]	[Action:GetProgramList 06/343]	[Remarks:[{"ID":"1","ProgramIndex":"GST","ProgramName":"GST"}]]
[Date: 2017-08-07 16:17:21]	[UserID:06/343]	[IP:10.128.12.113]	[Browser:Chrome - 59.0.3071.115]	[Action:Making connection to server]	[Remarks:Successful connection to server: S3]
[Date: 2017-08-07 16:17:21]	[UserID:06/343]	[IP:10.128.12.113]	[Browser:Chrome - 59.0.3071.115]	[Action:GetProgramList 06/343]	[Remarks:[{"ID":"1","ProgramIndex":"GST","ProgramName":"GST"}]]
[Date: 2017-08-07 16:17:21]	[UserID:06/343]	[IP:10.128.12.113]	[Browser:Chrome - 59.0.3071.115]	[Action:Making connection to server]	[Remarks:Successful connection to server: S3]
[Date: 2017-08-07 16:17:21]	[UserID:06/343]	[IP:10.128.12.113]	[Browser:Chrome - 59.0.3071.115]	[Action:Filtering User : MasterData Username : 06/343]	[Remarks:Successful filter row count: 1]
[Date: 2017-08-07 16:17:22]	[UserID:06/343]	[IP:10.128.12.113]	[Browser:Chrome - 59.0.3071.115]	[Action:Making connection to server]	[Remarks:Successful connection to server: S3]
[Date: 2017-08-07 16:17:22]	[UserID:06/343]	[IP:10.128.12.113]	[Browser:Chrome - 59.0.3071.115]	[Action:GetGSTModules 06/343,1]	[Remarks:Successful filter row count: 5]
[Date: 2017-08-07 16:17:22]	[UserID:06/343]	[IP:10.128.12.113]	[Browser:Chrome - 59.0.3071.115]	[Action:Closing mssql connection]	[Remarks:Success]
[Date: 2017-08-07 16:18:51]	[UserID:06/343]	[IP:10.128.12.113]	[Browser:Chrome - 59.0.3071.115]	[Action:Making connection to server]	[Remarks:Successful connection to server: S3]
[Date: 2017-08-07 16:18:51]	[UserID:06/343]	[IP:10.128.12.113]	[Browser:Chrome - 59.0.3071.115]	[Action:GetGSTModules 06/343,1]	[Remarks:Successful filter row count: 5]
[Date: 2017-08-07 16:18:51]	[UserID:06/343]	[IP:10.128.12.113]	[Browser:Chrome - 59.0.3071.115]	[Action:Closing mssql connection]	[Remarks:Success]
[Date: 2017-08-07 16:19:04]	[UserID:06/343]	[IP:10.128.12.113]	[Browser:Chrome - 59.0.3071.115]	[Action:Making connection to server]	[Remarks:Successful connection to server: S3]
[Date: 2017-08-07 16:19:05]	[UserID:06/343]	[IP:10.128.12.113]	[Browser:Chrome - 59.0.3071.115]	[Action:GetGSTModules 06/343,1]	[Remarks:Successful filter row count: 5]
[Date: 2017-08-07 16:19:05]	[UserID:06/343]	[IP:10.128.12.113]	[Browser:Chrome - 59.0.3071.115]	[Action:Closing mssql connection]	[Remarks:Success]
[Date: 2017-08-07 16:19:19]	[UserID:06/343]	[IP:10.128.12.113]	[Browser:Chrome - 59.0.3071.115]	[Action:Making connection to server]	[Remarks:Successful connection to server: S3]
[Date: 2017-08-07 16:19:19]	[UserID:06/343]	[IP:10.128.12.113]	[Browser:Chrome - 59.0.3071.115]	[Action:GetGSTModules 06/343,1]	[Remarks:Successful filter row count: 5]
[Date: 2017-08-07 16:19:19]	[UserID:06/343]	[IP:10.128.12.113]	[Browser:Chrome - 59.0.3071.115]	[Action:Closing mssql connection]	[Remarks:Success]
