[Date: 2015-08-29 08:49:22]	[UserID:]	[IP:10.10.11.1]	[Browser:Chrome - 44.0.2403.157]	[Action:Making connection to server]	[Remarks:Successful connection to server: S3]
[Date: 2015-08-29 08:49:22]	[UserID:]	[IP:10.10.11.1]	[Browser:Chrome - 44.0.2403.157]	[Action:GetProgramList ]	[Remarks:"no data"]
[Date: 2015-08-29 08:49:34]	[UserID:10/660]	[IP:10.10.11.1]	[Browser:Chrome - 44.0.2403.157]	[Action:Making connection to server]	[Remarks:Successful connection to server: S3]
[Date: 2015-08-29 08:49:34]	[UserID:10/660]	[IP:10.10.11.1]	[Browser:Chrome - 44.0.2403.157]	[Action:User 10/660]	[Remarks:Success]
[Date: 2015-08-29 08:49:34]	[UserID:10/660]	[IP:10.10.11.1]	[Browser:Chrome - 44.0.2403.157]	[Action:Filtering User : MasterData Username : 10/660]	[Remarks:Successful filter row count: 0]
[Date: 2015-08-29 08:49:34]	[UserID:10/660]	[IP:10.10.11.1]	[Browser:Chrome - 44.0.2403.157]	[Action:Filtering User : MasterData Username : 10/660]	[Remarks:Successful filter row count: 0]
[Date: 2015-08-29 08:49:34]	[UserID:10/660]	[IP:10.10.11.1]	[Browser:Chrome - 44.0.2403.157]	[Action:Filtering User : MasterData Username : 10/660]	[Remarks:Success]
[Date: 2015-08-29 08:49:34]	[UserID:10/660]	[IP:10.10.11.1]	[Browser:Chrome - 44.0.2403.157]	[Action:Closing mssql connection]	[Remarks:Success]
[Date: 2015-08-29 08:49:35]	[UserID:10/660]	[IP:10.10.11.1]	[Browser:Chrome - 44.0.2403.157]	[Action:Making connection to server]	[Remarks:Successful connection to server: S3]
[Date: 2015-08-29 08:49:35]	[UserID:10/660]	[IP:10.10.11.1]	[Browser:Chrome - 44.0.2403.157]	[Action:GetProgramList 10/660]	[Remarks:[{"ID":"1","ProgramIndex":"GST","ProgramName":"GST"}]]
[Date: 2015-08-29 08:49:35]	[UserID:10/660]	[IP:10.10.11.1]	[Browser:Chrome - 44.0.2403.157]	[Action:Making connection to server]	[Remarks:Successful connection to server: S3]
[Date: 2015-08-29 08:49:35]	[UserID:10/660]	[IP:10.10.11.1]	[Browser:Chrome - 44.0.2403.157]	[Action:GetProgramList 10/660]	[Remarks:[{"ID":"1","ProgramIndex":"GST","ProgramName":"GST"}]]
[Date: 2015-08-29 08:49:35]	[UserID:10/660]	[IP:10.10.11.1]	[Browser:Chrome - 44.0.2403.157]	[Action:Making connection to server]	[Remarks:Successful connection to server: S3]
[Date: 2015-08-29 08:49:35]	[UserID:10/660]	[IP:10.10.11.1]	[Browser:Chrome - 44.0.2403.157]	[Action:Filtering User : MasterData Username : 10/660]	[Remarks:Successful filter row count: 1]
[Date: 2015-08-29 08:49:35]	[UserID:10/660]	[IP:10.10.11.1]	[Browser:Chrome - 44.0.2403.157]	[Action:Making connection to server]	[Remarks:Successful connection to server: S3]
[Date: 2015-08-29 08:49:35]	[UserID:10/660]	[IP:10.10.11.1]	[Browser:Chrome - 44.0.2403.157]	[Action:GetGSTModules 10/660,1]	[Remarks:Successful filter row count: 3]
[Date: 2015-08-29 08:49:35]	[UserID:10/660]	[IP:10.10.11.1]	[Browser:Chrome - 44.0.2403.157]	[Action:Closing mssql connection]	[Remarks:Success]
[Date: 2015-08-29 09:00:41]	[UserID:10/660]	[IP:10.10.11.1]	[Browser:Chrome - 44.0.2403.157]	[Action:Making connection to server]	[Remarks:Successful connection to server: S3]
[Date: 2015-08-29 09:00:41]	[UserID:10/660]	[IP:10.10.11.1]	[Browser:Chrome - 44.0.2403.157]	[Action:GetGSTModules 10/660,1]	[Remarks:Successful filter row count: 3]
[Date: 2015-08-29 09:00:41]	[UserID:10/660]	[IP:10.10.11.1]	[Browser:Chrome - 44.0.2403.157]	[Action:Closing mssql connection]	[Remarks:Success]
[Date: 2015-08-29 09:19:28]	[UserID:10/660]	[IP:10.10.11.1]	[Browser:Chrome - 44.0.2403.157]	[Action:Making connection to server]	[Remarks:Successful connection to server: S3]
[Date: 2015-08-29 09:19:28]	[UserID:10/660]	[IP:10.10.11.1]	[Browser:Chrome - 44.0.2403.157]	[Action:GetGSTModules 10/660,1]	[Remarks:Successful filter row count: 3]
[Date: 2015-08-29 09:19:28]	[UserID:10/660]	[IP:10.10.11.1]	[Browser:Chrome - 44.0.2403.157]	[Action:Closing mssql connection]	[Remarks:Success]
[Date: 2015-08-29 09:20:20]	[UserID:]	[IP:10.10.11.1]	[Browser:Chrome - 44.0.2403.157]	[Action:Making connection to server]	[Remarks:Successful connection to server: S3]
[Date: 2015-08-29 09:20:20]	[UserID:]	[IP:10.10.11.1]	[Browser:Chrome - 44.0.2403.157]	[Action:GetProgramList ]	[Remarks:"no data"]
