[Date: 2019-12-28 08:05:37]	[UserID:]	[IP:10.130.25.207]	[Browser:Firefox - 71.0]	[Action:Making connection to server]	[Remarks:Successful connection to server: S3]
[Date: 2019-12-28 08:05:37]	[UserID:]	[IP:10.130.25.207]	[Browser:Firefox - 71.0]	[Action:GetProgramList ]	[Remarks:"no data"]
[Date: 2019-12-28 08:05:59]	[UserID:]	[IP:10.130.25.207]	[Browser:Firefox - 71.0]	[Action:Making connection to server]	[Remarks:Successful connection to server: S3]
[Date: 2019-12-28 08:05:59]	[UserID:]	[IP:10.130.25.207]	[Browser:Firefox - 71.0]	[Action:GetProgramList ]	[Remarks:"no data"]
[Date: 2019-12-28 08:13:15]	[UserID:]	[IP:10.128.12.120]	[Browser:Chrome - 79.0.3945.88]	[Action:Making connection to server]	[Remarks:Successful connection to server: S3]
[Date: 2019-12-28 08:13:15]	[UserID:]	[IP:10.128.12.120]	[Browser:Chrome - 79.0.3945.88]	[Action:GetProgramList ]	[Remarks:"no data"]
[Date: 2019-12-28 08:13:30]	[UserID:14/1082]	[IP:10.128.12.120]	[Browser:Chrome - 79.0.3945.88]	[Action:Making connection to server]	[Remarks:Successful connection to server: S3]
[Date: 2019-12-28 08:13:30]	[UserID:14/1082]	[IP:10.128.12.120]	[Browser:Chrome - 79.0.3945.88]	[Action:LogMeIn 14/1082,14/102]	[Remarks:Failed]
[Date: 2019-12-28 08:13:30]	[UserID:14/1082]	[IP:10.128.12.120]	[Browser:Chrome - 79.0.3945.88]	[Action:Closing mssql connection]	[Remarks:Success]
[Date: 2019-12-28 08:13:36]	[UserID:]	[IP:10.130.25.203]	[Browser:Firefox - 60.0]	[Action:Making connection to server]	[Remarks:Successful connection to server: S3]
[Date: 2019-12-28 08:13:36]	[UserID:]	[IP:10.130.25.203]	[Browser:Firefox - 60.0]	[Action:GetProgramList ]	[Remarks:"no data"]
[Date: 2019-12-28 08:13:36]	[UserID:14/1082]	[IP:10.128.12.120]	[Browser:Chrome - 79.0.3945.88]	[Action:Making connection to server]	[Remarks:Successful connection to server: S3]
[Date: 2019-12-28 08:13:36]	[UserID:14/1082]	[IP:10.128.12.120]	[Browser:Chrome - 79.0.3945.88]	[Action:User 14/1082]	[Remarks:Success]
[Date: 2019-12-28 08:13:36]	[UserID:14/1082]	[IP:10.128.12.120]	[Browser:Chrome - 79.0.3945.88]	[Action:Filtering User : MasterData Username : 14/1082]	[Remarks:Successful filter row count: 0]
[Date: 2019-12-28 08:13:36]	[UserID:14/1082]	[IP:10.128.12.120]	[Browser:Chrome - 79.0.3945.88]	[Action:Filtering User : MasterData Username : 14/1082]	[Remarks:Successful filter row count: 0]
[Date: 2019-12-28 08:13:36]	[UserID:14/1082]	[IP:10.128.12.120]	[Browser:Chrome - 79.0.3945.88]	[Action:Filtering User : MasterData Username : 14/1082]	[Remarks:Success]
[Date: 2019-12-28 08:13:36]	[UserID:14/1082]	[IP:10.128.12.120]	[Browser:Chrome - 79.0.3945.88]	[Action:Closing mssql connection]	[Remarks:Success]
[Date: 2019-12-28 08:13:37]	[UserID:]	[IP:10.128.12.120]	[Browser:Chrome - 79.0.3945.88]	[Action:Making connection to server]	[Remarks:Successful connection to server: S3]
[Date: 2019-12-28 08:13:37]	[UserID:]	[IP:10.128.12.120]	[Browser:Chrome - 79.0.3945.88]	[Action:GetProgramList ]	[Remarks:"no data"]
[Date: 2019-12-28 08:13:40]	[UserID:]	[IP:10.128.12.120]	[Browser:Chrome - 79.0.3945.88]	[Action:Making connection to server]	[Remarks:Successful connection to server: S3]
[Date: 2019-12-28 08:13:40]	[UserID:]	[IP:10.128.12.120]	[Browser:Chrome - 79.0.3945.88]	[Action:GetProgramList ]	[Remarks:"no data"]
[Date: 2019-12-28 08:13:46]	[UserID:14/1082]	[IP:10.128.12.120]	[Browser:Chrome - 79.0.3945.88]	[Action:Making connection to server]	[Remarks:Successful connection to server: S3]
[Date: 2019-12-28 08:13:46]	[UserID:14/1082]	[IP:10.128.12.120]	[Browser:Chrome - 79.0.3945.88]	[Action:User 14/1082]	[Remarks:Success]
[Date: 2019-12-28 08:13:46]	[UserID:14/1082]	[IP:10.128.12.120]	[Browser:Chrome - 79.0.3945.88]	[Action:Filtering User : MasterData Username : 14/1082]	[Remarks:Successful filter row count: 0]
[Date: 2019-12-28 08:13:46]	[UserID:14/1082]	[IP:10.128.12.120]	[Browser:Chrome - 79.0.3945.88]	[Action:Filtering User : MasterData Username : 14/1082]	[Remarks:Successful filter row count: 0]
[Date: 2019-12-28 08:13:46]	[UserID:14/1082]	[IP:10.128.12.120]	[Browser:Chrome - 79.0.3945.88]	[Action:Filtering User : MasterData Username : 14/1082]	[Remarks:Success]
[Date: 2019-12-28 08:13:46]	[UserID:14/1082]	[IP:10.128.12.120]	[Browser:Chrome - 79.0.3945.88]	[Action:Closing mssql connection]	[Remarks:Success]
[Date: 2019-12-28 08:13:46]	[UserID:14/1082]	[IP:10.128.12.120]	[Browser:Chrome - 79.0.3945.88]	[Action:Making connection to server]	[Remarks:Successful connection to server: S3]
[Date: 2019-12-28 08:13:46]	[UserID:14/1082]	[IP:10.128.12.120]	[Browser:Chrome - 79.0.3945.88]	[Action:GetProgramList 14/1082]	[Remarks:[{"ID":"1","ProgramIndex":"GST","ProgramName":"GST"}]]
[Date: 2019-12-28 08:13:46]	[UserID:14/1082]	[IP:10.128.12.120]	[Browser:Chrome - 79.0.3945.88]	[Action:Making connection to server]	[Remarks:Successful connection to server: S3]
[Date: 2019-12-28 08:13:46]	[UserID:14/1082]	[IP:10.128.12.120]	[Browser:Chrome - 79.0.3945.88]	[Action:GetProgramList 14/1082]	[Remarks:[{"ID":"1","ProgramIndex":"GST","ProgramName":"GST"}]]
[Date: 2019-12-28 08:13:46]	[UserID:14/1082]	[IP:10.128.12.120]	[Browser:Chrome - 79.0.3945.88]	[Action:Making connection to server]	[Remarks:Successful connection to server: S3]
[Date: 2019-12-28 08:13:46]	[UserID:14/1082]	[IP:10.128.12.120]	[Browser:Chrome - 79.0.3945.88]	[Action:Filtering User : MasterData Username : 14/1082]	[Remarks:Successful filter row count: 1]
[Date: 2019-12-28 08:13:46]	[UserID:14/1082]	[IP:10.128.12.120]	[Browser:Chrome - 79.0.3945.88]	[Action:Making connection to server]	[Remarks:Successful connection to server: S3]
[Date: 2019-12-28 08:13:46]	[UserID:14/1082]	[IP:10.128.12.120]	[Browser:Chrome - 79.0.3945.88]	[Action:GetGSTModules 14/1082,1]	[Remarks:Successful filter row count: 8]
[Date: 2019-12-28 08:13:46]	[UserID:14/1082]	[IP:10.128.12.120]	[Browser:Chrome - 79.0.3945.88]	[Action:Closing mssql connection]	[Remarks:Success]
[Date: 2019-12-28 08:40:25]	[UserID:14/1082]	[IP:10.128.12.120]	[Browser:Chrome - 79.0.3945.88]	[Action:Making connection to server]	[Remarks:Successful connection to server: S3]
[Date: 2019-12-28 08:40:25]	[UserID:14/1082]	[IP:10.128.12.120]	[Browser:Chrome - 79.0.3945.88]	[Action:GetGSTModules 14/1082,1]	[Remarks:Successful filter row count: 8]
[Date: 2019-12-28 08:40:25]	[UserID:14/1082]	[IP:10.128.12.120]	[Browser:Chrome - 79.0.3945.88]	[Action:Closing mssql connection]	[Remarks:Success]
[Date: 2019-12-28 09:12:42]	[UserID:14/1082]	[IP:10.128.12.120]	[Browser:Chrome - 79.0.3945.88]	[Action:Making connection to server]	[Remarks:Successful connection to server: S3]
[Date: 2019-12-28 09:12:42]	[UserID:14/1082]	[IP:10.128.12.120]	[Browser:Chrome - 79.0.3945.88]	[Action:GetGSTModules 14/1082,1]	[Remarks:Successful filter row count: 8]
[Date: 2019-12-28 09:12:42]	[UserID:14/1082]	[IP:10.128.12.120]	[Browser:Chrome - 79.0.3945.88]	[Action:Closing mssql connection]	[Remarks:Success]
[Date: 2019-12-28 09:12:43]	[UserID:14/1082]	[IP:10.128.12.120]	[Browser:Chrome - 79.0.3945.88]	[Action:Making connection to server]	[Remarks:Successful connection to server: S3]
[Date: 2019-12-28 09:12:43]	[UserID:14/1082]	[IP:10.128.12.120]	[Browser:Chrome - 79.0.3945.88]	[Action:GetProgramList 14/1082]	[Remarks:[{"ID":"1","ProgramIndex":"GST","ProgramName":"GST"}]]
[Date: 2019-12-28 09:12:43]	[UserID:14/1082]	[IP:10.128.12.120]	[Browser:Chrome - 79.0.3945.88]	[Action:Making connection to server]	[Remarks:Successful connection to server: S3]
[Date: 2019-12-28 09:12:43]	[UserID:14/1082]	[IP:10.128.12.120]	[Browser:Chrome - 79.0.3945.88]	[Action:GetProgramList 14/1082]	[Remarks:[{"ID":"1","ProgramIndex":"GST","ProgramName":"GST"}]]
[Date: 2019-12-28 09:12:43]	[UserID:14/1082]	[IP:10.128.12.120]	[Browser:Chrome - 79.0.3945.88]	[Action:Making connection to server]	[Remarks:Successful connection to server: S3]
[Date: 2019-12-28 09:12:43]	[UserID:14/1082]	[IP:10.128.12.120]	[Browser:Chrome - 79.0.3945.88]	[Action:Filtering User : MasterData Username : 14/1082]	[Remarks:Successful filter row count: 1]
[Date: 2019-12-28 09:12:44]	[UserID:14/1082]	[IP:10.128.12.120]	[Browser:Chrome - 79.0.3945.88]	[Action:Making connection to server]	[Remarks:Successful connection to server: S3]
[Date: 2019-12-28 09:12:44]	[UserID:14/1082]	[IP:10.128.12.120]	[Browser:Chrome - 79.0.3945.88]	[Action:GetGSTModules 14/1082,1]	[Remarks:Successful filter row count: 8]
[Date: 2019-12-28 09:12:44]	[UserID:14/1082]	[IP:10.128.12.120]	[Browser:Chrome - 79.0.3945.88]	[Action:Closing mssql connection]	[Remarks:Success]
[Date: 2019-12-28 09:18:18]	[UserID:14/1082]	[IP:10.128.12.120]	[Browser:Chrome - 79.0.3945.88]	[Action:Making connection to server]	[Remarks:Successful connection to server: S3]
[Date: 2019-12-28 09:18:18]	[UserID:14/1082]	[IP:10.128.12.120]	[Browser:Chrome - 79.0.3945.88]	[Action:GetGSTModules 14/1082,1]	[Remarks:Successful filter row count: 8]
[Date: 2019-12-28 09:18:18]	[UserID:14/1082]	[IP:10.128.12.120]	[Browser:Chrome - 79.0.3945.88]	[Action:Closing mssql connection]	[Remarks:Success]
[Date: 2019-12-28 09:21:24]	[UserID:14/1082]	[IP:10.128.12.120]	[Browser:Chrome - 79.0.3945.88]	[Action:Making connection to server]	[Remarks:Successful connection to server: S3]
[Date: 2019-12-28 09:21:24]	[UserID:14/1082]	[IP:10.128.12.120]	[Browser:Chrome - 79.0.3945.88]	[Action:GetGSTModules 14/1082,1]	[Remarks:Successful filter row count: 8]
[Date: 2019-12-28 09:21:24]	[UserID:14/1082]	[IP:10.128.12.120]	[Browser:Chrome - 79.0.3945.88]	[Action:Closing mssql connection]	[Remarks:Success]
[Date: 2019-12-28 09:21:29]	[UserID:14/1082]	[IP:10.128.12.120]	[Browser:Chrome - 79.0.3945.88]	[Action:Making connection to server]	[Remarks:Successful connection to server: S3]
[Date: 2019-12-28 09:21:29]	[UserID:14/1082]	[IP:10.128.12.120]	[Browser:Chrome - 79.0.3945.88]	[Action:GetGSTModules 14/1082,1]	[Remarks:Successful filter row count: 8]
[Date: 2019-12-28 09:21:29]	[UserID:14/1082]	[IP:10.128.12.120]	[Browser:Chrome - 79.0.3945.88]	[Action:Closing mssql connection]	[Remarks:Success]
[Date: 2019-12-28 09:23:07]	[UserID:14/1082]	[IP:10.128.12.120]	[Browser:Chrome - 79.0.3945.88]	[Action:Making connection to server]	[Remarks:Successful connection to server: S3]
[Date: 2019-12-28 09:23:07]	[UserID:14/1082]	[IP:10.128.12.120]	[Browser:Chrome - 79.0.3945.88]	[Action:GetGSTModules 14/1082,1]	[Remarks:Successful filter row count: 8]
[Date: 2019-12-28 09:23:07]	[UserID:14/1082]	[IP:10.128.12.120]	[Browser:Chrome - 79.0.3945.88]	[Action:Closing mssql connection]	[Remarks:Success]
[Date: 2019-12-28 09:37:55]	[UserID:14/1082]	[IP:10.128.12.120]	[Browser:Chrome - 79.0.3945.88]	[Action:Making connection to server]	[Remarks:Successful connection to server: S3]
[Date: 2019-12-28 09:37:55]	[UserID:14/1082]	[IP:10.128.12.120]	[Browser:Chrome - 79.0.3945.88]	[Action:GetGSTModules 14/1082,1]	[Remarks:Successful filter row count: 8]
[Date: 2019-12-28 09:37:55]	[UserID:14/1082]	[IP:10.128.12.120]	[Browser:Chrome - 79.0.3945.88]	[Action:Closing mssql connection]	[Remarks:Success]
[Date: 2019-12-28 10:19:45]	[UserID:]	[IP:10.128.12.114]	[Browser:Chrome - 79.0.3945.88]	[Action:Making connection to server]	[Remarks:Successful connection to server: S3]
[Date: 2019-12-28 10:19:45]	[UserID:]	[IP:10.128.12.114]	[Browser:Chrome - 79.0.3945.88]	[Action:GetProgramList ]	[Remarks:"no data"]
[Date: 2019-12-28 10:22:11]	[UserID:14/1082]	[IP:10.128.12.114]	[Browser:Chrome - 79.0.3945.88]	[Action:Making connection to server]	[Remarks:Successful connection to server: S3]
[Date: 2019-12-28 10:22:11]	[UserID:14/1082]	[IP:10.128.12.114]	[Browser:Chrome - 79.0.3945.88]	[Action:User 14/1082]	[Remarks:Success]
[Date: 2019-12-28 10:22:11]	[UserID:14/1082]	[IP:10.128.12.114]	[Browser:Chrome - 79.0.3945.88]	[Action:Filtering User : MasterData Username : 14/1082]	[Remarks:Successful filter row count: 0]
[Date: 2019-12-28 10:22:11]	[UserID:14/1082]	[IP:10.128.12.114]	[Browser:Chrome - 79.0.3945.88]	[Action:Filtering User : MasterData Username : 14/1082]	[Remarks:Successful filter row count: 0]
[Date: 2019-12-28 10:22:11]	[UserID:14/1082]	[IP:10.128.12.114]	[Browser:Chrome - 79.0.3945.88]	[Action:Filtering User : MasterData Username : 14/1082]	[Remarks:Success]
[Date: 2019-12-28 10:22:11]	[UserID:14/1082]	[IP:10.128.12.114]	[Browser:Chrome - 79.0.3945.88]	[Action:Closing mssql connection]	[Remarks:Success]
[Date: 2019-12-28 10:22:11]	[UserID:14/1082]	[IP:10.128.12.114]	[Browser:Chrome - 79.0.3945.88]	[Action:Making connection to server]	[Remarks:Successful connection to server: S3]
[Date: 2019-12-28 10:22:11]	[UserID:14/1082]	[IP:10.128.12.114]	[Browser:Chrome - 79.0.3945.88]	[Action:GetProgramList 14/1082]	[Remarks:[{"ID":"1","ProgramIndex":"GST","ProgramName":"GST"}]]
[Date: 2019-12-28 10:22:11]	[UserID:14/1082]	[IP:10.128.12.114]	[Browser:Chrome - 79.0.3945.88]	[Action:Making connection to server]	[Remarks:Successful connection to server: S3]
[Date: 2019-12-28 10:22:11]	[UserID:14/1082]	[IP:10.128.12.114]	[Browser:Chrome - 79.0.3945.88]	[Action:GetProgramList 14/1082]	[Remarks:[{"ID":"1","ProgramIndex":"GST","ProgramName":"GST"}]]
[Date: 2019-12-28 10:22:11]	[UserID:14/1082]	[IP:10.128.12.114]	[Browser:Chrome - 79.0.3945.88]	[Action:Making connection to server]	[Remarks:Successful connection to server: S3]
[Date: 2019-12-28 10:22:11]	[UserID:14/1082]	[IP:10.128.12.114]	[Browser:Chrome - 79.0.3945.88]	[Action:Filtering User : MasterData Username : 14/1082]	[Remarks:Successful filter row count: 1]
[Date: 2019-12-28 10:22:12]	[UserID:14/1082]	[IP:10.128.12.114]	[Browser:Chrome - 79.0.3945.88]	[Action:Making connection to server]	[Remarks:Successful connection to server: S3]
[Date: 2019-12-28 10:22:12]	[UserID:14/1082]	[IP:10.128.12.114]	[Browser:Chrome - 79.0.3945.88]	[Action:GetGSTModules 14/1082,1]	[Remarks:Successful filter row count: 8]
[Date: 2019-12-28 10:22:12]	[UserID:14/1082]	[IP:10.128.12.114]	[Browser:Chrome - 79.0.3945.88]	[Action:Closing mssql connection]	[Remarks:Success]
[Date: 2019-12-28 10:41:25]	[UserID:]	[IP:10.128.12.114]	[Browser:Chrome - 79.0.3945.88]	[Action:Making connection to server]	[Remarks:Successful connection to server: S3]
[Date: 2019-12-28 10:41:26]	[UserID:]	[IP:10.128.12.114]	[Browser:Chrome - 79.0.3945.88]	[Action:GetProgramList ]	[Remarks:"no data"]
[Date: 2019-12-28 11:50:03]	[UserID:T042]	[IP:10.128.12.120]	[Browser:Chrome - 79.0.3945.88]	[Action:Making connection to server]	[Remarks:Successful connection to server: S3]
[Date: 2019-12-28 11:50:03]	[UserID:T042]	[IP:10.128.12.120]	[Browser:Chrome - 79.0.3945.88]	[Action:GetGSTModules T042,1]	[Remarks:Successful filter row count: 5]
[Date: 2019-12-28 11:50:03]	[UserID:T042]	[IP:10.128.12.120]	[Browser:Chrome - 79.0.3945.88]	[Action:Closing mssql connection]	[Remarks:Success]
[Date: 2019-12-28 11:51:20]	[UserID:]	[IP:10.128.12.120]	[Browser:Chrome - 79.0.3945.88]	[Action:Making connection to server]	[Remarks:Successful connection to server: S3]
[Date: 2019-12-28 11:51:20]	[UserID:]	[IP:10.128.12.120]	[Browser:Chrome - 79.0.3945.88]	[Action:GetProgramList ]	[Remarks:"no data"]
[Date: 2019-12-28 11:51:24]	[UserID:14/1082]	[IP:10.128.12.120]	[Browser:Chrome - 79.0.3945.88]	[Action:Making connection to server]	[Remarks:Successful connection to server: S3]
[Date: 2019-12-28 11:51:24]	[UserID:14/1082]	[IP:10.128.12.120]	[Browser:Chrome - 79.0.3945.88]	[Action:User 14/1082]	[Remarks:Success]
[Date: 2019-12-28 11:51:24]	[UserID:14/1082]	[IP:10.128.12.120]	[Browser:Chrome - 79.0.3945.88]	[Action:Filtering User : MasterData Username : 14/1082]	[Remarks:Successful filter row count: 0]
[Date: 2019-12-28 11:51:24]	[UserID:14/1082]	[IP:10.128.12.120]	[Browser:Chrome - 79.0.3945.88]	[Action:Filtering User : MasterData Username : 14/1082]	[Remarks:Successful filter row count: 0]
[Date: 2019-12-28 11:51:24]	[UserID:14/1082]	[IP:10.128.12.120]	[Browser:Chrome - 79.0.3945.88]	[Action:Filtering User : MasterData Username : 14/1082]	[Remarks:Success]
[Date: 2019-12-28 11:51:24]	[UserID:14/1082]	[IP:10.128.12.120]	[Browser:Chrome - 79.0.3945.88]	[Action:Closing mssql connection]	[Remarks:Success]
[Date: 2019-12-28 11:51:24]	[UserID:14/1082]	[IP:10.128.12.120]	[Browser:Chrome - 79.0.3945.88]	[Action:Making connection to server]	[Remarks:Successful connection to server: S3]
[Date: 2019-12-28 11:51:24]	[UserID:14/1082]	[IP:10.128.12.120]	[Browser:Chrome - 79.0.3945.88]	[Action:GetProgramList 14/1082]	[Remarks:[{"ID":"1","ProgramIndex":"GST","ProgramName":"GST"}]]
[Date: 2019-12-28 11:51:24]	[UserID:14/1082]	[IP:10.128.12.120]	[Browser:Chrome - 79.0.3945.88]	[Action:Making connection to server]	[Remarks:Successful connection to server: S3]
[Date: 2019-12-28 11:51:24]	[UserID:14/1082]	[IP:10.128.12.120]	[Browser:Chrome - 79.0.3945.88]	[Action:GetProgramList 14/1082]	[Remarks:[{"ID":"1","ProgramIndex":"GST","ProgramName":"GST"}]]
[Date: 2019-12-28 11:51:24]	[UserID:14/1082]	[IP:10.128.12.120]	[Browser:Chrome - 79.0.3945.88]	[Action:Making connection to server]	[Remarks:Successful connection to server: S3]
[Date: 2019-12-28 11:51:24]	[UserID:14/1082]	[IP:10.128.12.120]	[Browser:Chrome - 79.0.3945.88]	[Action:Filtering User : MasterData Username : 14/1082]	[Remarks:Successful filter row count: 1]
[Date: 2019-12-28 11:51:25]	[UserID:14/1082]	[IP:10.128.12.120]	[Browser:Chrome - 79.0.3945.88]	[Action:Making connection to server]	[Remarks:Successful connection to server: S3]
[Date: 2019-12-28 11:51:25]	[UserID:14/1082]	[IP:10.128.12.120]	[Browser:Chrome - 79.0.3945.88]	[Action:GetGSTModules 14/1082,1]	[Remarks:Successful filter row count: 8]
[Date: 2019-12-28 11:51:25]	[UserID:14/1082]	[IP:10.128.12.120]	[Browser:Chrome - 79.0.3945.88]	[Action:Closing mssql connection]	[Remarks:Success]
[Date: 2019-12-28 11:56:10]	[UserID:14/1082]	[IP:10.128.12.120]	[Browser:Chrome - 79.0.3945.88]	[Action:Making connection to server]	[Remarks:Successful connection to server: S3]
[Date: 2019-12-28 11:56:10]	[UserID:14/1082]	[IP:10.128.12.120]	[Browser:Chrome - 79.0.3945.88]	[Action:GetGSTModules 14/1082,1]	[Remarks:Successful filter row count: 8]
[Date: 2019-12-28 11:56:10]	[UserID:14/1082]	[IP:10.128.12.120]	[Browser:Chrome - 79.0.3945.88]	[Action:Closing mssql connection]	[Remarks:Success]
[Date: 2019-12-28 11:56:34]	[UserID:14/1082]	[IP:10.128.12.120]	[Browser:Chrome - 79.0.3945.88]	[Action:Making connection to server]	[Remarks:Successful connection to server: S3]
[Date: 2019-12-28 11:56:34]	[UserID:14/1082]	[IP:10.128.12.120]	[Browser:Chrome - 79.0.3945.88]	[Action:GetGSTModules 14/1082,1]	[Remarks:Successful filter row count: 8]
[Date: 2019-12-28 11:56:34]	[UserID:14/1082]	[IP:10.128.12.120]	[Browser:Chrome - 79.0.3945.88]	[Action:Closing mssql connection]	[Remarks:Success]
[Date: 2019-12-28 13:04:50]	[UserID:]	[IP:10.130.25.203]	[Browser:Chrome - 79.0.3945.88]	[Action:Making connection to server]	[Remarks:Successful connection to server: S3]
[Date: 2019-12-28 13:04:50]	[UserID:]	[IP:10.130.25.203]	[Browser:Chrome - 79.0.3945.88]	[Action:GetProgramList ]	[Remarks:"no data"]
[Date: 2019-12-28 13:05:01]	[UserID:dev/cibandiola]	[IP:10.130.25.203]	[Browser:Chrome - 79.0.3945.88]	[Action:Making connection to server]	[Remarks:Successful connection to server: S3]
[Date: 2019-12-28 13:05:01]	[UserID:dev/cibandiola]	[IP:10.130.25.203]	[Browser:Chrome - 79.0.3945.88]	[Action:User dev/cibandiola]	[Remarks:Success]
[Date: 2019-12-28 13:05:01]	[UserID:dev/cibandiola]	[IP:10.130.25.203]	[Browser:Chrome - 79.0.3945.88]	[Action:Filtering User : MasterData Username : dev/cibandiola]	[Remarks:Successful filter row count: 0]
[Date: 2019-12-28 13:05:01]	[UserID:dev/cibandiola]	[IP:10.130.25.203]	[Browser:Chrome - 79.0.3945.88]	[Action:Filtering User : MasterData Username : dev/cibandiola]	[Remarks:Successful filter row count: 0]
[Date: 2019-12-28 13:05:01]	[UserID:dev/cibandiola]	[IP:10.130.25.203]	[Browser:Chrome - 79.0.3945.88]	[Action:Filtering User : MasterData Username : dev/cibandiola]	[Remarks:Success]
[Date: 2019-12-28 13:05:01]	[UserID:dev/cibandiola]	[IP:10.130.25.203]	[Browser:Chrome - 79.0.3945.88]	[Action:Closing mssql connection]	[Remarks:Success]
[Date: 2019-12-28 13:05:01]	[UserID:]	[IP:10.130.25.203]	[Browser:Chrome - 79.0.3945.88]	[Action:Making connection to server]	[Remarks:Successful connection to server: S3]
[Date: 2019-12-28 13:05:01]	[UserID:]	[IP:10.130.25.203]	[Browser:Chrome - 79.0.3945.88]	[Action:GetProgramList ]	[Remarks:"no data"]
[Date: 2019-12-28 13:05:10]	[UserID:dev/cibandiola]	[IP:10.130.25.203]	[Browser:Chrome - 79.0.3945.88]	[Action:Making connection to server]	[Remarks:Successful connection to server: S3]
[Date: 2019-12-28 13:05:10]	[UserID:dev/cibandiola]	[IP:10.130.25.203]	[Browser:Chrome - 79.0.3945.88]	[Action:User dev/cibandiola]	[Remarks:Success]
[Date: 2019-12-28 13:05:10]	[UserID:dev/cibandiola]	[IP:10.130.25.203]	[Browser:Chrome - 79.0.3945.88]	[Action:Filtering User : MasterData Username : dev/cibandiola]	[Remarks:Successful filter row count: 0]
[Date: 2019-12-28 13:05:10]	[UserID:dev/cibandiola]	[IP:10.130.25.203]	[Browser:Chrome - 79.0.3945.88]	[Action:Filtering User : MasterData Username : dev/cibandiola]	[Remarks:Successful filter row count: 0]
[Date: 2019-12-28 13:05:10]	[UserID:dev/cibandiola]	[IP:10.130.25.203]	[Browser:Chrome - 79.0.3945.88]	[Action:Filtering User : MasterData Username : dev/cibandiola]	[Remarks:Success]
[Date: 2019-12-28 13:05:10]	[UserID:dev/cibandiola]	[IP:10.130.25.203]	[Browser:Chrome - 79.0.3945.88]	[Action:Closing mssql connection]	[Remarks:Success]
[Date: 2019-12-28 13:05:10]	[UserID:dev/cibandiola]	[IP:10.130.25.203]	[Browser:Chrome - 79.0.3945.88]	[Action:Making connection to server]	[Remarks:Successful connection to server: S3]
[Date: 2019-12-28 13:05:10]	[UserID:dev/cibandiola]	[IP:10.130.25.203]	[Browser:Chrome - 79.0.3945.88]	[Action:User dev/cibandiola]	[Remarks:Success]
[Date: 2019-12-28 13:05:10]	[UserID:dev/cibandiola]	[IP:10.130.25.203]	[Browser:Chrome - 79.0.3945.88]	[Action:Filtering User : MasterData Username : dev/cibandiola]	[Remarks:Successful filter row count: 0]
[Date: 2019-12-28 13:05:10]	[UserID:dev/cibandiola]	[IP:10.130.25.203]	[Browser:Chrome - 79.0.3945.88]	[Action:Filtering User : MasterData Username : dev/cibandiola]	[Remarks:Successful filter row count: 0]
[Date: 2019-12-28 13:05:10]	[UserID:dev/cibandiola]	[IP:10.130.25.203]	[Browser:Chrome - 79.0.3945.88]	[Action:Filtering User : MasterData Username : dev/cibandiola]	[Remarks:Success]
[Date: 2019-12-28 13:05:10]	[UserID:dev/cibandiola]	[IP:10.130.25.203]	[Browser:Chrome - 79.0.3945.88]	[Action:Closing mssql connection]	[Remarks:Success]
[Date: 2019-12-28 13:05:10]	[UserID:]	[IP:10.130.25.203]	[Browser:Chrome - 79.0.3945.88]	[Action:Making connection to server]	[Remarks:Successful connection to server: S3]
[Date: 2019-12-28 13:05:10]	[UserID:]	[IP:10.130.25.203]	[Browser:Chrome - 79.0.3945.88]	[Action:GetProgramList ]	[Remarks:"no data"]
[Date: 2019-12-28 13:05:10]	[UserID:]	[IP:10.130.25.203]	[Browser:Chrome - 79.0.3945.88]	[Action:Making connection to server]	[Remarks:Successful connection to server: S3]
[Date: 2019-12-28 13:05:10]	[UserID:]	[IP:10.130.25.203]	[Browser:Chrome - 79.0.3945.88]	[Action:GetProgramList ]	[Remarks:"no data"]
[Date: 2019-12-28 13:05:34]	[UserID:]	[IP:10.130.25.203]	[Browser:Chrome - 79.0.3945.88]	[Action:Making connection to server]	[Remarks:Successful connection to server: S3]
[Date: 2019-12-28 13:05:34]	[UserID:]	[IP:10.130.25.203]	[Browser:Chrome - 79.0.3945.88]	[Action:GetProgramList ]	[Remarks:"no data"]
[Date: 2019-12-28 13:07:26]	[UserID:dev/cibandiola]	[IP:10.130.25.203]	[Browser:Chrome - 79.0.3945.88]	[Action:Making connection to server]	[Remarks:Successful connection to server: S3]
[Date: 2019-12-28 13:07:26]	[UserID:dev/cibandiola]	[IP:10.130.25.203]	[Browser:Chrome - 79.0.3945.88]	[Action:User dev/cibandiola]	[Remarks:Success]
[Date: 2019-12-28 13:07:26]	[UserID:dev/cibandiola]	[IP:10.130.25.203]	[Browser:Chrome - 79.0.3945.88]	[Action:Filtering User : MasterData Username : dev/cibandiola]	[Remarks:Successful filter row count: 0]
[Date: 2019-12-28 13:07:26]	[UserID:dev/cibandiola]	[IP:10.130.25.203]	[Browser:Chrome - 79.0.3945.88]	[Action:Filtering User : MasterData Username : dev/cibandiola]	[Remarks:Successful filter row count: 0]
[Date: 2019-12-28 13:07:26]	[UserID:dev/cibandiola]	[IP:10.130.25.203]	[Browser:Chrome - 79.0.3945.88]	[Action:Filtering User : MasterData Username : dev/cibandiola]	[Remarks:Success]
[Date: 2019-12-28 13:07:26]	[UserID:dev/cibandiola]	[IP:10.130.25.203]	[Browser:Chrome - 79.0.3945.88]	[Action:Closing mssql connection]	[Remarks:Success]
[Date: 2019-12-28 13:07:26]	[UserID:]	[IP:10.130.25.203]	[Browser:Chrome - 79.0.3945.88]	[Action:Making connection to server]	[Remarks:Successful connection to server: S3]
[Date: 2019-12-28 13:07:27]	[UserID:]	[IP:10.130.25.203]	[Browser:Chrome - 79.0.3945.88]	[Action:GetProgramList ]	[Remarks:"no data"]
[Date: 2019-12-28 13:12:01]	[UserID:]	[IP:10.130.25.203]	[Browser:Chrome - 79.0.3945.88]	[Action:Making connection to server]	[Remarks:Successful connection to server: S3]
[Date: 2019-12-28 13:12:01]	[UserID:]	[IP:10.130.25.203]	[Browser:Chrome - 79.0.3945.88]	[Action:GetProgramList ]	[Remarks:"no data"]
[Date: 2019-12-28 13:12:05]	[UserID:dev/cibandiola]	[IP:10.130.25.203]	[Browser:Chrome - 79.0.3945.88]	[Action:Making connection to server]	[Remarks:Successful connection to server: S3]
[Date: 2019-12-28 13:12:05]	[UserID:dev/cibandiola]	[IP:10.130.25.203]	[Browser:Chrome - 79.0.3945.88]	[Action:User dev/cibandiola]	[Remarks:Success]
[Date: 2019-12-28 13:12:05]	[UserID:dev/cibandiola]	[IP:10.130.25.203]	[Browser:Chrome - 79.0.3945.88]	[Action:Filtering User : MasterData Username : dev/cibandiola]	[Remarks:Successful filter row count: 0]
[Date: 2019-12-28 13:12:05]	[UserID:dev/cibandiola]	[IP:10.130.25.203]	[Browser:Chrome - 79.0.3945.88]	[Action:Filtering User : MasterData Username : dev/cibandiola]	[Remarks:Successful filter row count: 0]
[Date: 2019-12-28 13:12:05]	[UserID:dev/cibandiola]	[IP:10.130.25.203]	[Browser:Chrome - 79.0.3945.88]	[Action:Filtering User : MasterData Username : dev/cibandiola]	[Remarks:Success]
[Date: 2019-12-28 13:12:05]	[UserID:dev/cibandiola]	[IP:10.130.25.203]	[Browser:Chrome - 79.0.3945.88]	[Action:Closing mssql connection]	[Remarks:Success]
[Date: 2019-12-28 13:12:05]	[UserID:]	[IP:10.130.25.203]	[Browser:Chrome - 79.0.3945.88]	[Action:Making connection to server]	[Remarks:Successful connection to server: S3]
[Date: 2019-12-28 13:12:05]	[UserID:]	[IP:10.130.25.203]	[Browser:Chrome - 79.0.3945.88]	[Action:GetProgramList ]	[Remarks:"no data"]
[Date: 2019-12-28 13:13:01]	[UserID:]	[IP:10.130.25.203]	[Browser:Chrome - 79.0.3945.88]	[Action:Making connection to server]	[Remarks:Successful connection to server: S3]
[Date: 2019-12-28 13:13:01]	[UserID:]	[IP:10.130.25.203]	[Browser:Chrome - 79.0.3945.88]	[Action:GetProgramList ]	[Remarks:"no data"]
[Date: 2019-12-28 13:13:11]	[UserID:dev/cibandiola]	[IP:10.130.25.203]	[Browser:Chrome - 79.0.3945.88]	[Action:Making connection to server]	[Remarks:Successful connection to server: S3]
[Date: 2019-12-28 13:13:11]	[UserID:dev/cibandiola]	[IP:10.130.25.203]	[Browser:Chrome - 79.0.3945.88]	[Action:User dev/cibandiola]	[Remarks:Success]
[Date: 2019-12-28 13:13:11]	[UserID:dev/cibandiola]	[IP:10.130.25.203]	[Browser:Chrome - 79.0.3945.88]	[Action:Filtering User : MasterData Username : dev/cibandiola]	[Remarks:Successful filter row count: 0]
[Date: 2019-12-28 13:13:11]	[UserID:dev/cibandiola]	[IP:10.130.25.203]	[Browser:Chrome - 79.0.3945.88]	[Action:Filtering User : MasterData Username : dev/cibandiola]	[Remarks:Successful filter row count: 0]
[Date: 2019-12-28 13:13:11]	[UserID:dev/cibandiola]	[IP:10.130.25.203]	[Browser:Chrome - 79.0.3945.88]	[Action:Filtering User : MasterData Username : dev/cibandiola]	[Remarks:Success]
[Date: 2019-12-28 13:13:11]	[UserID:dev/cibandiola]	[IP:10.130.25.203]	[Browser:Chrome - 79.0.3945.88]	[Action:Closing mssql connection]	[Remarks:Success]
[Date: 2019-12-28 13:13:11]	[UserID:dev/cibandiola]	[IP:10.130.25.203]	[Browser:Chrome - 79.0.3945.88]	[Action:Making connection to server]	[Remarks:Successful connection to server: S3]
[Date: 2019-12-28 13:13:11]	[UserID:dev/cibandiola]	[IP:10.130.25.203]	[Browser:Chrome - 79.0.3945.88]	[Action:GetProgramList dev/cibandiola]	[Remarks:[{"ID":"1","ProgramIndex":"GST","ProgramName":"GST"},{"ID":"3","ProgramIndex":"PRD","ProgramName":"PRD"}]]
[Date: 2019-12-28 13:13:11]	[UserID:dev/cibandiola]	[IP:10.130.25.203]	[Browser:Chrome - 79.0.3945.88]	[Action:Making connection to server]	[Remarks:Successful connection to server: S3]
[Date: 2019-12-28 13:13:11]	[UserID:dev/cibandiola]	[IP:10.130.25.203]	[Browser:Chrome - 79.0.3945.88]	[Action:GetProgramList dev/cibandiola]	[Remarks:[{"ID":"1","ProgramIndex":"GST","ProgramName":"GST"},{"ID":"3","ProgramIndex":"PRD","ProgramName":"PRD"}]]
[Date: 2019-12-28 13:13:11]	[UserID:dev/cibandiola]	[IP:10.130.25.203]	[Browser:Chrome - 79.0.3945.88]	[Action:Making connection to server]	[Remarks:Successful connection to server: S3]
[Date: 2019-12-28 13:13:11]	[UserID:dev/cibandiola]	[IP:10.130.25.203]	[Browser:Chrome - 79.0.3945.88]	[Action:Filtering User : MasterData Username : dev/cibandiola]	[Remarks:Successful filter row count: 1]
[Date: 2019-12-28 13:13:19]	[UserID:dev/cibandiola]	[IP:10.130.25.203]	[Browser:Chrome - 79.0.3945.88]	[Action:Making connection to server]	[Remarks:Successful connection to server: S3]
[Date: 2019-12-28 13:13:19]	[UserID:dev/cibandiola]	[IP:10.130.25.203]	[Browser:Chrome - 79.0.3945.88]	[Action:GetGSTModules dev/cibandiola,1]	[Remarks:Successful filter row count: 12]
[Date: 2019-12-28 13:13:19]	[UserID:dev/cibandiola]	[IP:10.130.25.203]	[Browser:Chrome - 79.0.3945.88]	[Action:Closing mssql connection]	[Remarks:Success]
[Date: 2019-12-28 23:13:32]	[UserID:]	[IP:10.130.25.208]	[Browser:Firefox - 60.0]	[Action:Making connection to server]	[Remarks:Successful connection to server: S3]
[Date: 2019-12-28 23:13:32]	[UserID:]	[IP:10.130.25.208]	[Browser:Firefox - 60.0]	[Action:GetProgramList ]	[Remarks:"no data"]
[Date: 2019-12-28 23:14:40]	[UserID:]	[IP:10.130.25.208]	[Browser:Firefox - 60.0]	[Action:Making connection to server]	[Remarks:Successful connection to server: S3]
[Date: 2019-12-28 23:14:40]	[UserID:]	[IP:10.130.25.208]	[Browser:Firefox - 60.0]	[Action:GetProgramList ]	[Remarks:"no data"]
