[Date: 2016-03-15 07:56:46]	[UserID:]	[IP:10.10.11.1]	[Browser:Chrome - 48.0.2564.116]	[Action:Making connection to server]	[Remarks:Successful connection to server: S3]
[Date: 2016-03-15 07:56:46]	[UserID:]	[IP:10.10.11.1]	[Browser:Chrome - 48.0.2564.116]	[Action:GetProgramList ]	[Remarks:"no data"]
[Date: 2016-03-15 08:03:00]	[UserID:06/343]	[IP:10.10.11.1]	[Browser:Chrome - 48.0.2564.116]	[Action:Making connection to server]	[Remarks:Successful connection to server: S3]
[Date: 2016-03-15 08:03:00]	[UserID:06/343]	[IP:10.10.11.1]	[Browser:Chrome - 48.0.2564.116]	[Action:User 06/343]	[Remarks:Success]
[Date: 2016-03-15 08:03:00]	[UserID:06/343]	[IP:10.10.11.1]	[Browser:Chrome - 48.0.2564.116]	[Action:Filtering User : MasterData Username : 06/343]	[Remarks:Successful filter row count: 0]
[Date: 2016-03-15 08:03:00]	[UserID:06/343]	[IP:10.10.11.1]	[Browser:Chrome - 48.0.2564.116]	[Action:Filtering User : MasterData Username : 06/343]	[Remarks:Successful filter row count: 0]
[Date: 2016-03-15 08:03:01]	[UserID:06/343]	[IP:10.10.11.1]	[Browser:Chrome - 48.0.2564.116]	[Action:Filtering User : MasterData Username : 06/343]	[Remarks:Success]
[Date: 2016-03-15 08:03:01]	[UserID:06/343]	[IP:10.10.11.1]	[Browser:Chrome - 48.0.2564.116]	[Action:Closing mssql connection]	[Remarks:Success]
[Date: 2016-03-15 08:03:01]	[UserID:06/343]	[IP:10.10.11.1]	[Browser:Chrome - 48.0.2564.116]	[Action:Making connection to server]	[Remarks:Successful connection to server: S3]
[Date: 2016-03-15 08:03:01]	[UserID:06/343]	[IP:10.10.11.1]	[Browser:Chrome - 48.0.2564.116]	[Action:GetProgramList 06/343]	[Remarks:[{"ID":"1","ProgramIndex":"GST","ProgramName":"GST"}]]
[Date: 2016-03-15 08:03:01]	[UserID:06/343]	[IP:10.10.11.1]	[Browser:Chrome - 48.0.2564.116]	[Action:Making connection to server]	[Remarks:Successful connection to server: S3]
[Date: 2016-03-15 08:03:01]	[UserID:06/343]	[IP:10.10.11.1]	[Browser:Chrome - 48.0.2564.116]	[Action:GetProgramList 06/343]	[Remarks:[{"ID":"1","ProgramIndex":"GST","ProgramName":"GST"}]]
[Date: 2016-03-15 08:03:01]	[UserID:06/343]	[IP:10.10.11.1]	[Browser:Chrome - 48.0.2564.116]	[Action:Making connection to server]	[Remarks:Successful connection to server: S3]
[Date: 2016-03-15 08:03:01]	[UserID:06/343]	[IP:10.10.11.1]	[Browser:Chrome - 48.0.2564.116]	[Action:Filtering User : MasterData Username : 06/343]	[Remarks:Successful filter row count: 1]
[Date: 2016-03-15 08:03:01]	[UserID:06/343]	[IP:10.10.11.1]	[Browser:Chrome - 48.0.2564.116]	[Action:Making connection to server]	[Remarks:Successful connection to server: S3]
[Date: 2016-03-15 08:03:09]	[UserID:06/343]	[IP:10.10.11.1]	[Browser:Chrome - 48.0.2564.116]	[Action:GetGSTModules 06/343,1]	[Remarks:Successful filter row count: 5]
[Date: 2016-03-15 08:03:09]	[UserID:06/343]	[IP:10.10.11.1]	[Browser:Chrome - 48.0.2564.116]	[Action:Closing mssql connection]	[Remarks:Success]
[Date: 2016-03-15 08:12:40]	[UserID:06/343]	[IP:10.10.11.1]	[Browser:Chrome - 48.0.2564.116]	[Action:Making connection to server]	[Remarks:Successful connection to server: S3]
[Date: 2016-03-15 08:12:40]	[UserID:06/343]	[IP:10.10.11.1]	[Browser:Chrome - 48.0.2564.116]	[Action:GetGSTModules 06/343,1]	[Remarks:Successful filter row count: 5]
[Date: 2016-03-15 08:12:40]	[UserID:06/343]	[IP:10.10.11.1]	[Browser:Chrome - 48.0.2564.116]	[Action:Closing mssql connection]	[Remarks:Success]
[Date: 2016-03-15 08:26:10]	[UserID:06/343]	[IP:10.10.11.1]	[Browser:Chrome - 48.0.2564.116]	[Action:Making connection to server]	[Remarks:Successful connection to server: S3]
[Date: 2016-03-15 08:26:10]	[UserID:06/343]	[IP:10.10.11.1]	[Browser:Chrome - 48.0.2564.116]	[Action:GetGSTModules 06/343,1]	[Remarks:Successful filter row count: 5]
[Date: 2016-03-15 08:26:10]	[UserID:06/343]	[IP:10.10.11.1]	[Browser:Chrome - 48.0.2564.116]	[Action:Closing mssql connection]	[Remarks:Success]
[Date: 2016-03-15 08:36:40]	[UserID:06/343]	[IP:10.10.11.1]	[Browser:Chrome - 48.0.2564.116]	[Action:Making connection to server]	[Remarks:Successful connection to server: S3]
[Date: 2016-03-15 08:36:40]	[UserID:06/343]	[IP:10.10.11.1]	[Browser:Chrome - 48.0.2564.116]	[Action:GetGSTModules 06/343,1]	[Remarks:Successful filter row count: 5]
[Date: 2016-03-15 08:36:40]	[UserID:06/343]	[IP:10.10.11.1]	[Browser:Chrome - 48.0.2564.116]	[Action:Closing mssql connection]	[Remarks:Success]
[Date: 2016-03-15 08:39:06]	[UserID:06/343]	[IP:10.10.11.1]	[Browser:Chrome - 48.0.2564.116]	[Action:Making connection to server]	[Remarks:Successful connection to server: S3]
[Date: 2016-03-15 08:39:06]	[UserID:06/343]	[IP:10.10.11.1]	[Browser:Chrome - 48.0.2564.116]	[Action:GetGSTModules 06/343,1]	[Remarks:Successful filter row count: 5]
[Date: 2016-03-15 08:39:06]	[UserID:06/343]	[IP:10.10.11.1]	[Browser:Chrome - 48.0.2564.116]	[Action:Closing mssql connection]	[Remarks:Success]
[Date: 2016-03-15 09:06:08]	[UserID:]	[IP:10.10.11.1]	[Browser:Chrome - 48.0.2564.116]	[Action:Making connection to server]	[Remarks:Successful connection to server: S3]
[Date: 2016-03-15 09:06:08]	[UserID:]	[IP:10.10.11.1]	[Browser:Chrome - 48.0.2564.116]	[Action:GetProgramList ]	[Remarks:"no data"]
[Date: 2016-03-15 09:26:17]	[UserID:06/343]	[IP:10.10.11.1]	[Browser:Chrome - 48.0.2564.116]	[Action:Making connection to server]	[Remarks:Successful connection to server: S3]
[Date: 2016-03-15 09:26:17]	[UserID:06/343]	[IP:10.10.11.1]	[Browser:Chrome - 48.0.2564.116]	[Action:GetGSTModules 06/343,1]	[Remarks:Successful filter row count: 5]
[Date: 2016-03-15 09:26:17]	[UserID:06/343]	[IP:10.10.11.1]	[Browser:Chrome - 48.0.2564.116]	[Action:Closing mssql connection]	[Remarks:Success]
[Date: 2016-03-15 09:27:58]	[UserID:06/343]	[IP:10.10.11.1]	[Browser:Chrome - 48.0.2564.116]	[Action:Making connection to server]	[Remarks:Successful connection to server: S3]
[Date: 2016-03-15 09:27:58]	[UserID:06/343]	[IP:10.10.11.1]	[Browser:Chrome - 48.0.2564.116]	[Action:GetGSTModules 06/343,1]	[Remarks:Successful filter row count: 5]
[Date: 2016-03-15 09:27:58]	[UserID:06/343]	[IP:10.10.11.1]	[Browser:Chrome - 48.0.2564.116]	[Action:Closing mssql connection]	[Remarks:Success]
[Date: 2016-03-15 09:36:12]	[UserID:]	[IP:10.10.11.1]	[Browser:Chrome - 48.0.2564.116]	[Action:Making connection to server]	[Remarks:Successful connection to server: S3]
[Date: 2016-03-15 09:36:18]	[UserID:]	[IP:10.10.11.1]	[Browser:Chrome - 48.0.2564.116]	[Action:GetProgramList ]	[Remarks:"no data"]
[Date: 2016-03-15 09:36:20]	[UserID:10/660]	[IP:10.10.11.1]	[Browser:Chrome - 48.0.2564.116]	[Action:Making connection to server]	[Remarks:Successful connection to server: S3]
[Date: 2016-03-15 09:36:21]	[UserID:10/660]	[IP:10.10.11.1]	[Browser:Chrome - 48.0.2564.116]	[Action:User 10/660]	[Remarks:Success]
[Date: 2016-03-15 09:36:21]	[UserID:10/660]	[IP:10.10.11.1]	[Browser:Chrome - 48.0.2564.116]	[Action:Filtering User : MasterData Username : 10/660]	[Remarks:Successful filter row count: 0]
[Date: 2016-03-15 09:36:21]	[UserID:10/660]	[IP:10.10.11.1]	[Browser:Chrome - 48.0.2564.116]	[Action:Filtering User : MasterData Username : 10/660]	[Remarks:Successful filter row count: 0]
[Date: 2016-03-15 09:36:21]	[UserID:10/660]	[IP:10.10.11.1]	[Browser:Chrome - 48.0.2564.116]	[Action:Filtering User : MasterData Username : 10/660]	[Remarks:Success]
[Date: 2016-03-15 09:36:21]	[UserID:10/660]	[IP:10.10.11.1]	[Browser:Chrome - 48.0.2564.116]	[Action:Closing mssql connection]	[Remarks:Success]
[Date: 2016-03-15 09:36:22]	[UserID:10/660]	[IP:10.10.11.1]	[Browser:Chrome - 48.0.2564.116]	[Action:Making connection to server]	[Remarks:Successful connection to server: S3]
[Date: 2016-03-15 09:36:22]	[UserID:10/660]	[IP:10.10.11.1]	[Browser:Chrome - 48.0.2564.116]	[Action:GetProgramList 10/660]	[Remarks:[{"ID":"1","ProgramIndex":"GST","ProgramName":"GST"}]]
[Date: 2016-03-15 09:36:22]	[UserID:10/660]	[IP:10.10.11.1]	[Browser:Chrome - 48.0.2564.116]	[Action:Making connection to server]	[Remarks:Successful connection to server: S3]
[Date: 2016-03-15 09:36:22]	[UserID:10/660]	[IP:10.10.11.1]	[Browser:Chrome - 48.0.2564.116]	[Action:GetProgramList 10/660]	[Remarks:[{"ID":"1","ProgramIndex":"GST","ProgramName":"GST"}]]
[Date: 2016-03-15 09:36:22]	[UserID:10/660]	[IP:10.10.11.1]	[Browser:Chrome - 48.0.2564.116]	[Action:Making connection to server]	[Remarks:Successful connection to server: S3]
[Date: 2016-03-15 09:36:22]	[UserID:10/660]	[IP:10.10.11.1]	[Browser:Chrome - 48.0.2564.116]	[Action:Filtering User : MasterData Username : 10/660]	[Remarks:Successful filter row count: 1]
[Date: 2016-03-15 09:36:22]	[UserID:10/660]	[IP:10.10.11.1]	[Browser:Chrome - 48.0.2564.116]	[Action:Making connection to server]	[Remarks:Successful connection to server: S3]
[Date: 2016-03-15 09:36:22]	[UserID:10/660]	[IP:10.10.11.1]	[Browser:Chrome - 48.0.2564.116]	[Action:GetGSTModules 10/660,1]	[Remarks:Successful filter row count: 3]
[Date: 2016-03-15 09:36:22]	[UserID:10/660]	[IP:10.10.11.1]	[Browser:Chrome - 48.0.2564.116]	[Action:Closing mssql connection]	[Remarks:Success]
[Date: 2016-03-15 09:43:26]	[UserID:10/660]	[IP:10.10.11.1]	[Browser:Chrome - 48.0.2564.116]	[Action:Making connection to server]	[Remarks:Successful connection to server: S3]
[Date: 2016-03-15 09:43:26]	[UserID:10/660]	[IP:10.10.11.1]	[Browser:Chrome - 48.0.2564.116]	[Action:GetGSTModules 10/660,1]	[Remarks:Successful filter row count: 3]
[Date: 2016-03-15 09:43:26]	[UserID:10/660]	[IP:10.10.11.1]	[Browser:Chrome - 48.0.2564.116]	[Action:Closing mssql connection]	[Remarks:Success]
[Date: 2016-03-15 10:00:58]	[UserID:10/660]	[IP:10.10.11.1]	[Browser:Chrome - 48.0.2564.116]	[Action:Making connection to server]	[Remarks:Successful connection to server: S3]
[Date: 2016-03-15 10:00:58]	[UserID:10/660]	[IP:10.10.11.1]	[Browser:Chrome - 48.0.2564.116]	[Action:GetGSTModules 10/660,1]	[Remarks:Successful filter row count: 3]
[Date: 2016-03-15 10:00:58]	[UserID:10/660]	[IP:10.10.11.1]	[Browser:Chrome - 48.0.2564.116]	[Action:Closing mssql connection]	[Remarks:Success]
[Date: 2016-03-15 10:03:00]	[UserID:]	[IP:10.10.11.1]	[Browser:Chrome - 48.0.2564.116]	[Action:Making connection to server]	[Remarks:Successful connection to server: S3]
[Date: 2016-03-15 10:03:00]	[UserID:]	[IP:10.10.11.1]	[Browser:Chrome - 48.0.2564.116]	[Action:GetProgramList ]	[Remarks:"no data"]
[Date: 2016-03-15 10:17:46]	[UserID:]	[IP:10.10.11.1]	[Browser:Chrome - 49.0.2623.87]	[Action:Making connection to server]	[Remarks:Successful connection to server: S3]
[Date: 2016-03-15 10:17:47]	[UserID:]	[IP:10.10.11.1]	[Browser:Chrome - 49.0.2623.87]	[Action:GetProgramList ]	[Remarks:"no data"]
[Date: 2016-03-15 10:23:46]	[UserID:06/343]	[IP:10.10.11.1]	[Browser:Chrome - 49.0.2623.87]	[Action:Making connection to server]	[Remarks:Successful connection to server: S3]
[Date: 2016-03-15 10:23:46]	[UserID:06/343]	[IP:10.10.11.1]	[Browser:Chrome - 49.0.2623.87]	[Action:User 06/343]	[Remarks:Success]
[Date: 2016-03-15 10:23:46]	[UserID:06/343]	[IP:10.10.11.1]	[Browser:Chrome - 49.0.2623.87]	[Action:Filtering User : MasterData Username : 06/343]	[Remarks:Successful filter row count: 0]
[Date: 2016-03-15 10:23:46]	[UserID:06/343]	[IP:10.10.11.1]	[Browser:Chrome - 49.0.2623.87]	[Action:Filtering User : MasterData Username : 06/343]	[Remarks:Successful filter row count: 0]
[Date: 2016-03-15 10:23:46]	[UserID:06/343]	[IP:10.10.11.1]	[Browser:Chrome - 49.0.2623.87]	[Action:Filtering User : MasterData Username : 06/343]	[Remarks:Success]
[Date: 2016-03-15 10:23:46]	[UserID:06/343]	[IP:10.10.11.1]	[Browser:Chrome - 49.0.2623.87]	[Action:Closing mssql connection]	[Remarks:Success]
[Date: 2016-03-15 10:23:46]	[UserID:06/343]	[IP:10.10.11.1]	[Browser:Chrome - 49.0.2623.87]	[Action:Making connection to server]	[Remarks:Successful connection to server: S3]
[Date: 2016-03-15 10:23:46]	[UserID:06/343]	[IP:10.10.11.1]	[Browser:Chrome - 49.0.2623.87]	[Action:GetProgramList 06/343]	[Remarks:[{"ID":"1","ProgramIndex":"GST","ProgramName":"GST"}]]
[Date: 2016-03-15 10:23:46]	[UserID:06/343]	[IP:10.10.11.1]	[Browser:Chrome - 49.0.2623.87]	[Action:Making connection to server]	[Remarks:Successful connection to server: S3]
[Date: 2016-03-15 10:23:46]	[UserID:06/343]	[IP:10.10.11.1]	[Browser:Chrome - 49.0.2623.87]	[Action:GetProgramList 06/343]	[Remarks:[{"ID":"1","ProgramIndex":"GST","ProgramName":"GST"}]]
[Date: 2016-03-15 10:23:46]	[UserID:06/343]	[IP:10.10.11.1]	[Browser:Chrome - 49.0.2623.87]	[Action:Making connection to server]	[Remarks:Successful connection to server: S3]
[Date: 2016-03-15 10:23:46]	[UserID:06/343]	[IP:10.10.11.1]	[Browser:Chrome - 49.0.2623.87]	[Action:Filtering User : MasterData Username : 06/343]	[Remarks:Successful filter row count: 1]
[Date: 2016-03-15 10:23:47]	[UserID:06/343]	[IP:10.10.11.1]	[Browser:Chrome - 49.0.2623.87]	[Action:Making connection to server]	[Remarks:Successful connection to server: S3]
[Date: 2016-03-15 10:23:47]	[UserID:06/343]	[IP:10.10.11.1]	[Browser:Chrome - 49.0.2623.87]	[Action:GetGSTModules 06/343,1]	[Remarks:Successful filter row count: 5]
[Date: 2016-03-15 10:23:47]	[UserID:06/343]	[IP:10.10.11.1]	[Browser:Chrome - 49.0.2623.87]	[Action:Closing mssql connection]	[Remarks:Success]
[Date: 2016-03-15 10:27:21]	[UserID:06/343]	[IP:10.10.11.1]	[Browser:Chrome - 49.0.2623.87]	[Action:Making connection to server]	[Remarks:Successful connection to server: S3]
[Date: 2016-03-15 10:27:21]	[UserID:06/343]	[IP:10.10.11.1]	[Browser:Chrome - 49.0.2623.87]	[Action:GetGSTModules 06/343,1]	[Remarks:Successful filter row count: 5]
[Date: 2016-03-15 10:27:21]	[UserID:06/343]	[IP:10.10.11.1]	[Browser:Chrome - 49.0.2623.87]	[Action:Closing mssql connection]	[Remarks:Success]
[Date: 2016-03-15 10:30:14]	[UserID:06/343]	[IP:10.10.11.1]	[Browser:Chrome - 49.0.2623.87]	[Action:Making connection to server]	[Remarks:Successful connection to server: S3]
[Date: 2016-03-15 10:30:18]	[UserID:06/343]	[IP:10.10.11.1]	[Browser:Chrome - 49.0.2623.87]	[Action:GetGSTModules 06/343,1]	[Remarks:Successful filter row count: 5]
[Date: 2016-03-15 10:30:20]	[UserID:06/343]	[IP:10.10.11.1]	[Browser:Chrome - 49.0.2623.87]	[Action:Closing mssql connection]	[Remarks:Success]
[Date: 2016-03-15 10:54:48]	[UserID:]	[IP:10.10.11.1]	[Browser:Chrome - 49.0.2623.87]	[Action:Making connection to server]	[Remarks:Successful connection to server: S3]
[Date: 2016-03-15 10:54:49]	[UserID:]	[IP:10.10.11.1]	[Browser:Chrome - 49.0.2623.87]	[Action:GetProgramList ]	[Remarks:"no data"]
[Date: 2016-03-15 11:04:10]	[UserID:08/504]	[IP:10.10.11.1]	[Browser:Chrome - 49.0.2623.87]	[Action:Making connection to server]	[Remarks:Successful connection to server: S3]
[Date: 2016-03-15 11:04:10]	[UserID:08/504]	[IP:10.10.11.1]	[Browser:Chrome - 49.0.2623.87]	[Action:User 08/504]	[Remarks:Success]
[Date: 2016-03-15 11:04:10]	[UserID:08/504]	[IP:10.10.11.1]	[Browser:Chrome - 49.0.2623.87]	[Action:Filtering User : MasterData Username : 08/504]	[Remarks:Successful filter row count: 0]
[Date: 2016-03-15 11:04:10]	[UserID:08/504]	[IP:10.10.11.1]	[Browser:Chrome - 49.0.2623.87]	[Action:Filtering User : MasterData Username : 08/504]	[Remarks:Successful filter row count: 0]
[Date: 2016-03-15 11:04:10]	[UserID:08/504]	[IP:10.10.11.1]	[Browser:Chrome - 49.0.2623.87]	[Action:Filtering User : MasterData Username : 08/504]	[Remarks:Success]
[Date: 2016-03-15 11:04:10]	[UserID:08/504]	[IP:10.10.11.1]	[Browser:Chrome - 49.0.2623.87]	[Action:Closing mssql connection]	[Remarks:Success]
[Date: 2016-03-15 11:04:10]	[UserID:08/504]	[IP:10.10.11.1]	[Browser:Chrome - 49.0.2623.87]	[Action:Making connection to server]	[Remarks:Successful connection to server: S3]
[Date: 2016-03-15 11:04:10]	[UserID:08/504]	[IP:10.10.11.1]	[Browser:Chrome - 49.0.2623.87]	[Action:GetProgramList 08/504]	[Remarks:[{"ID":"1","ProgramIndex":"GST","ProgramName":"GST"}]]
[Date: 2016-03-15 11:04:10]	[UserID:08/504]	[IP:10.10.11.1]	[Browser:Chrome - 49.0.2623.87]	[Action:Making connection to server]	[Remarks:Successful connection to server: S3]
[Date: 2016-03-15 11:04:10]	[UserID:08/504]	[IP:10.10.11.1]	[Browser:Chrome - 49.0.2623.87]	[Action:GetProgramList 08/504]	[Remarks:[{"ID":"1","ProgramIndex":"GST","ProgramName":"GST"}]]
[Date: 2016-03-15 11:04:10]	[UserID:08/504]	[IP:10.10.11.1]	[Browser:Chrome - 49.0.2623.87]	[Action:Making connection to server]	[Remarks:Successful connection to server: S3]
[Date: 2016-03-15 11:04:10]	[UserID:08/504]	[IP:10.10.11.1]	[Browser:Chrome - 49.0.2623.87]	[Action:Filtering User : MasterData Username : 08/504]	[Remarks:Successful filter row count: 1]
[Date: 2016-03-15 11:04:11]	[UserID:08/504]	[IP:10.10.11.1]	[Browser:Chrome - 49.0.2623.87]	[Action:Making connection to server]	[Remarks:Successful connection to server: S3]
[Date: 2016-03-15 11:04:11]	[UserID:08/504]	[IP:10.10.11.1]	[Browser:Chrome - 49.0.2623.87]	[Action:GetGSTModules 08/504,1]	[Remarks:Successful filter row count: 3]
[Date: 2016-03-15 11:04:11]	[UserID:08/504]	[IP:10.10.11.1]	[Browser:Chrome - 49.0.2623.87]	[Action:Closing mssql connection]	[Remarks:Success]
[Date: 2016-03-15 11:17:31]	[UserID:08/504]	[IP:10.10.11.1]	[Browser:Chrome - 49.0.2623.87]	[Action:Making connection to server]	[Remarks:Successful connection to server: S3]
[Date: 2016-03-15 11:17:32]	[UserID:08/504]	[IP:10.10.11.1]	[Browser:Chrome - 49.0.2623.87]	[Action:GetGSTModules 08/504,1]	[Remarks:Successful filter row count: 3]
[Date: 2016-03-15 11:17:32]	[UserID:08/504]	[IP:10.10.11.1]	[Browser:Chrome - 49.0.2623.87]	[Action:Closing mssql connection]	[Remarks:Success]
[Date: 2016-03-15 11:23:13]	[UserID:08/504]	[IP:10.10.11.1]	[Browser:Chrome - 49.0.2623.87]	[Action:Making connection to server]	[Remarks:Successful connection to server: S3]
[Date: 2016-03-15 11:23:14]	[UserID:08/504]	[IP:10.10.11.1]	[Browser:Chrome - 49.0.2623.87]	[Action:GetGSTModules 08/504,1]	[Remarks:Successful filter row count: 3]
[Date: 2016-03-15 11:23:14]	[UserID:08/504]	[IP:10.10.11.1]	[Browser:Chrome - 49.0.2623.87]	[Action:Closing mssql connection]	[Remarks:Success]
[Date: 2016-03-15 11:31:38]	[UserID:08/504]	[IP:10.10.11.1]	[Browser:Chrome - 49.0.2623.87]	[Action:Making connection to server]	[Remarks:Successful connection to server: S3]
[Date: 2016-03-15 11:31:45]	[UserID:08/504]	[IP:10.10.11.1]	[Browser:Chrome - 49.0.2623.87]	[Action:GetGSTModules 08/504,1]	[Remarks:Successful filter row count: 3]
[Date: 2016-03-15 11:31:46]	[UserID:08/504]	[IP:10.10.11.1]	[Browser:Chrome - 49.0.2623.87]	[Action:Closing mssql connection]	[Remarks:Success]
[Date: 2016-03-15 11:32:22]	[UserID:08/504]	[IP:10.10.11.1]	[Browser:Chrome - 49.0.2623.87]	[Action:Making connection to server]	[Remarks:Successful connection to server: S3]
[Date: 2016-03-15 11:32:22]	[UserID:08/504]	[IP:10.10.11.1]	[Browser:Chrome - 49.0.2623.87]	[Action:GetGSTModules 08/504,1]	[Remarks:Successful filter row count: 3]
[Date: 2016-03-15 11:32:22]	[UserID:08/504]	[IP:10.10.11.1]	[Browser:Chrome - 49.0.2623.87]	[Action:Closing mssql connection]	[Remarks:Success]
[Date: 2016-03-15 11:38:18]	[UserID:08/504]	[IP:10.10.11.1]	[Browser:Chrome - 49.0.2623.87]	[Action:Making connection to server]	[Remarks:Successful connection to server: S3]
[Date: 2016-03-15 11:38:18]	[UserID:08/504]	[IP:10.10.11.1]	[Browser:Chrome - 49.0.2623.87]	[Action:GetGSTModules 08/504,1]	[Remarks:Successful filter row count: 3]
[Date: 2016-03-15 11:38:18]	[UserID:08/504]	[IP:10.10.11.1]	[Browser:Chrome - 49.0.2623.87]	[Action:Closing mssql connection]	[Remarks:Success]
[Date: 2016-03-15 11:41:11]	[UserID:]	[IP:10.10.11.1]	[Browser:Chrome - 48.0.2564.116]	[Action:Making connection to server]	[Remarks:Successful connection to server: S3]
[Date: 2016-03-15 11:41:11]	[UserID:]	[IP:10.10.11.1]	[Browser:Chrome - 48.0.2564.116]	[Action:GetProgramList ]	[Remarks:"no data"]
[Date: 2016-03-15 11:41:19]	[UserID:06/371]	[IP:10.10.11.1]	[Browser:Chrome - 48.0.2564.116]	[Action:Making connection to server]	[Remarks:Successful connection to server: S3]
[Date: 2016-03-15 11:41:23]	[UserID:06/371]	[IP:10.10.11.1]	[Browser:Chrome - 48.0.2564.116]	[Action:User 06/371]	[Remarks:Success]
[Date: 2016-03-15 11:41:23]	[UserID:06/371]	[IP:10.10.11.1]	[Browser:Chrome - 48.0.2564.116]	[Action:Filtering User : MasterData Username : 06/371]	[Remarks:Successful filter row count: 0]
[Date: 2016-03-15 11:41:23]	[UserID:06/371]	[IP:10.10.11.1]	[Browser:Chrome - 48.0.2564.116]	[Action:Filtering User : MasterData Username : 06/371]	[Remarks:Successful filter row count: 0]
[Date: 2016-03-15 11:41:23]	[UserID:06/371]	[IP:10.10.11.1]	[Browser:Chrome - 48.0.2564.116]	[Action:Filtering User : MasterData Username : 06/371]	[Remarks:Success]
[Date: 2016-03-15 11:41:23]	[UserID:06/371]	[IP:10.10.11.1]	[Browser:Chrome - 48.0.2564.116]	[Action:Closing mssql connection]	[Remarks:Success]
[Date: 2016-03-15 11:41:25]	[UserID:06/371]	[IP:10.10.11.1]	[Browser:Chrome - 48.0.2564.116]	[Action:Making connection to server]	[Remarks:Successful connection to server: S3]
[Date: 2016-03-15 11:41:25]	[UserID:06/371]	[IP:10.10.11.1]	[Browser:Chrome - 48.0.2564.116]	[Action:GetProgramList 06/371]	[Remarks:[{"ID":"1","ProgramIndex":"GST","ProgramName":"GST"}]]
[Date: 2016-03-15 11:41:25]	[UserID:06/371]	[IP:10.10.11.1]	[Browser:Chrome - 48.0.2564.116]	[Action:Making connection to server]	[Remarks:Successful connection to server: S3]
[Date: 2016-03-15 11:41:25]	[UserID:06/371]	[IP:10.10.11.1]	[Browser:Chrome - 48.0.2564.116]	[Action:GetProgramList 06/371]	[Remarks:[{"ID":"1","ProgramIndex":"GST","ProgramName":"GST"}]]
[Date: 2016-03-15 11:41:25]	[UserID:06/371]	[IP:10.10.11.1]	[Browser:Chrome - 48.0.2564.116]	[Action:Making connection to server]	[Remarks:Successful connection to server: S3]
[Date: 2016-03-15 11:41:25]	[UserID:06/371]	[IP:10.10.11.1]	[Browser:Chrome - 48.0.2564.116]	[Action:Filtering User : MasterData Username : 06/371]	[Remarks:Successful filter row count: 1]
[Date: 2016-03-15 11:41:25]	[UserID:06/371]	[IP:10.10.11.1]	[Browser:Chrome - 48.0.2564.116]	[Action:Making connection to server]	[Remarks:Successful connection to server: S3]
[Date: 2016-03-15 11:41:25]	[UserID:06/371]	[IP:10.10.11.1]	[Browser:Chrome - 48.0.2564.116]	[Action:GetGSTModules 06/371,1]	[Remarks:Successful filter row count: 5]
[Date: 2016-03-15 11:41:25]	[UserID:06/371]	[IP:10.10.11.1]	[Browser:Chrome - 48.0.2564.116]	[Action:Closing mssql connection]	[Remarks:Success]
[Date: 2016-03-15 11:48:40]	[UserID:08/504]	[IP:10.10.11.1]	[Browser:Chrome - 49.0.2623.87]	[Action:Making connection to server]	[Remarks:Successful connection to server: S3]
[Date: 2016-03-15 11:48:40]	[UserID:08/504]	[IP:10.10.11.1]	[Browser:Chrome - 49.0.2623.87]	[Action:GetGSTModules 08/504,1]	[Remarks:Successful filter row count: 3]
[Date: 2016-03-15 11:48:40]	[UserID:08/504]	[IP:10.10.11.1]	[Browser:Chrome - 49.0.2623.87]	[Action:Closing mssql connection]	[Remarks:Success]
[Date: 2016-03-15 12:16:09]	[UserID:08/504]	[IP:10.10.11.1]	[Browser:Chrome - 49.0.2623.87]	[Action:Making connection to server]	[Remarks:Successful connection to server: S3]
[Date: 2016-03-15 12:16:19]	[UserID:08/504]	[IP:10.10.11.1]	[Browser:Chrome - 49.0.2623.87]	[Action:GetGSTModules 08/504,1]	[Remarks:Successful filter row count: 3]
[Date: 2016-03-15 12:16:19]	[UserID:08/504]	[IP:10.10.11.1]	[Browser:Chrome - 49.0.2623.87]	[Action:Closing mssql connection]	[Remarks:Success]
[Date: 2016-03-15 12:22:31]	[UserID:08/504]	[IP:10.10.11.1]	[Browser:Chrome - 49.0.2623.87]	[Action:Making connection to server]	[Remarks:Successful connection to server: S3]
[Date: 2016-03-15 12:22:31]	[UserID:08/504]	[IP:10.10.11.1]	[Browser:Chrome - 49.0.2623.87]	[Action:GetGSTModules 08/504,1]	[Remarks:Successful filter row count: 3]
[Date: 2016-03-15 12:22:31]	[UserID:08/504]	[IP:10.10.11.1]	[Browser:Chrome - 49.0.2623.87]	[Action:Closing mssql connection]	[Remarks:Success]
[Date: 2016-03-15 12:43:09]	[UserID:08/504]	[IP:10.10.11.1]	[Browser:Chrome - 49.0.2623.87]	[Action:Making connection to server]	[Remarks:Successful connection to server: S3]
[Date: 2016-03-15 12:43:09]	[UserID:08/504]	[IP:10.10.11.1]	[Browser:Chrome - 49.0.2623.87]	[Action:GetGSTModules 08/504,1]	[Remarks:Successful filter row count: 3]
[Date: 2016-03-15 12:43:09]	[UserID:08/504]	[IP:10.10.11.1]	[Browser:Chrome - 49.0.2623.87]	[Action:Closing mssql connection]	[Remarks:Success]
[Date: 2016-03-15 12:46:56]	[UserID:08/504]	[IP:10.10.11.1]	[Browser:Chrome - 49.0.2623.87]	[Action:Making connection to server]	[Remarks:Successful connection to server: S3]
[Date: 2016-03-15 12:46:56]	[UserID:08/504]	[IP:10.10.11.1]	[Browser:Chrome - 49.0.2623.87]	[Action:GetGSTModules 08/504,1]	[Remarks:Successful filter row count: 3]
[Date: 2016-03-15 12:46:56]	[UserID:08/504]	[IP:10.10.11.1]	[Browser:Chrome - 49.0.2623.87]	[Action:Closing mssql connection]	[Remarks:Success]
[Date: 2016-03-15 13:18:35]	[UserID:08/504]	[IP:10.10.11.1]	[Browser:Chrome - 49.0.2623.87]	[Action:Making connection to server]	[Remarks:Successful connection to server: S3]
[Date: 2016-03-15 13:18:45]	[UserID:08/504]	[IP:10.10.11.1]	[Browser:Chrome - 49.0.2623.87]	[Action:GetGSTModules 08/504,1]	[Remarks:Successful filter row count: 3]
[Date: 2016-03-15 13:18:45]	[UserID:08/504]	[IP:10.10.11.1]	[Browser:Chrome - 49.0.2623.87]	[Action:Closing mssql connection]	[Remarks:Success]
[Date: 2016-03-15 14:47:41]	[UserID:06/343]	[IP:10.10.11.1]	[Browser:Chrome - 49.0.2623.87]	[Action:Making connection to server]	[Remarks:Successful connection to server: S3]
[Date: 2016-03-15 14:47:41]	[UserID:06/343]	[IP:10.10.11.1]	[Browser:Chrome - 49.0.2623.87]	[Action:GetGSTModules 06/343,1]	[Remarks:Successful filter row count: 5]
[Date: 2016-03-15 14:47:41]	[UserID:06/343]	[IP:10.10.11.1]	[Browser:Chrome - 49.0.2623.87]	[Action:Closing mssql connection]	[Remarks:Success]
[Date: 2016-03-15 14:49:06]	[UserID:06/343]	[IP:10.10.11.1]	[Browser:Chrome - 49.0.2623.87]	[Action:Making connection to server]	[Remarks:Successful connection to server: S3]
[Date: 2016-03-15 14:49:06]	[UserID:06/343]	[IP:10.10.11.1]	[Browser:Chrome - 49.0.2623.87]	[Action:GetGSTModules 06/343,1]	[Remarks:Successful filter row count: 5]
[Date: 2016-03-15 14:49:06]	[UserID:06/343]	[IP:10.10.11.1]	[Browser:Chrome - 49.0.2623.87]	[Action:Closing mssql connection]	[Remarks:Success]
[Date: 2016-03-15 14:55:50]	[UserID:06/343]	[IP:10.10.11.1]	[Browser:Chrome - 49.0.2623.87]	[Action:Making connection to server]	[Remarks:Successful connection to server: S3]
[Date: 2016-03-15 14:55:51]	[UserID:06/343]	[IP:10.10.11.1]	[Browser:Chrome - 49.0.2623.87]	[Action:GetGSTModules 06/343,1]	[Remarks:Successful filter row count: 5]
[Date: 2016-03-15 14:55:51]	[UserID:06/343]	[IP:10.10.11.1]	[Browser:Chrome - 49.0.2623.87]	[Action:Closing mssql connection]	[Remarks:Success]
[Date: 2016-03-15 14:57:24]	[UserID:06/343]	[IP:10.10.11.1]	[Browser:Chrome - 49.0.2623.87]	[Action:Making connection to server]	[Remarks:Successful connection to server: S3]
[Date: 2016-03-15 14:57:24]	[UserID:06/343]	[IP:10.10.11.1]	[Browser:Chrome - 49.0.2623.87]	[Action:GetGSTModules 06/343,1]	[Remarks:Successful filter row count: 5]
[Date: 2016-03-15 14:57:24]	[UserID:06/343]	[IP:10.10.11.1]	[Browser:Chrome - 49.0.2623.87]	[Action:Closing mssql connection]	[Remarks:Success]
[Date: 2016-03-15 15:35:09]	[UserID:06/371]	[IP:10.10.11.1]	[Browser:Chrome - 48.0.2564.116]	[Action:Making connection to server]	[Remarks:Successful connection to server: S3]
[Date: 2016-03-15 15:35:09]	[UserID:06/371]	[IP:10.10.11.1]	[Browser:Chrome - 48.0.2564.116]	[Action:GetProgramList 06/371]	[Remarks:[{"ID":"1","ProgramIndex":"GST","ProgramName":"GST"}]]
[Date: 2016-03-15 15:35:09]	[UserID:06/371]	[IP:10.10.11.1]	[Browser:Chrome - 48.0.2564.116]	[Action:Making connection to server]	[Remarks:Successful connection to server: S3]
[Date: 2016-03-15 15:35:09]	[UserID:06/371]	[IP:10.10.11.1]	[Browser:Chrome - 48.0.2564.116]	[Action:GetProgramList 06/371]	[Remarks:[{"ID":"1","ProgramIndex":"GST","ProgramName":"GST"}]]
[Date: 2016-03-15 15:35:09]	[UserID:06/371]	[IP:10.10.11.1]	[Browser:Chrome - 48.0.2564.116]	[Action:Making connection to server]	[Remarks:Successful connection to server: S3]
[Date: 2016-03-15 15:35:09]	[UserID:06/371]	[IP:10.10.11.1]	[Browser:Chrome - 48.0.2564.116]	[Action:Filtering User : MasterData Username : 06/371]	[Remarks:Successful filter row count: 1]
[Date: 2016-03-15 15:35:10]	[UserID:06/371]	[IP:10.10.11.1]	[Browser:Chrome - 48.0.2564.116]	[Action:Making connection to server]	[Remarks:Successful connection to server: S3]
[Date: 2016-03-15 15:35:10]	[UserID:06/371]	[IP:10.10.11.1]	[Browser:Chrome - 48.0.2564.116]	[Action:GetGSTModules 06/371,1]	[Remarks:Successful filter row count: 5]
[Date: 2016-03-15 15:35:10]	[UserID:06/371]	[IP:10.10.11.1]	[Browser:Chrome - 48.0.2564.116]	[Action:Closing mssql connection]	[Remarks:Success]
[Date: 2016-03-15 15:35:16]	[UserID:06/371]	[IP:10.10.11.1]	[Browser:Chrome - 48.0.2564.116]	[Action:Making connection to server]	[Remarks:Successful connection to server: S3]
[Date: 2016-03-15 15:35:16]	[UserID:06/371]	[IP:10.10.11.1]	[Browser:Chrome - 48.0.2564.116]	[Action:GetGSTModules 06/371,1]	[Remarks:Successful filter row count: 5]
[Date: 2016-03-15 15:35:16]	[UserID:06/371]	[IP:10.10.11.1]	[Browser:Chrome - 48.0.2564.116]	[Action:Closing mssql connection]	[Remarks:Success]
[Date: 2016-03-15 15:36:42]	[UserID:06/371]	[IP:10.10.11.1]	[Browser:Chrome - 48.0.2564.116]	[Action:Making connection to server]	[Remarks:Successful connection to server: S3]
[Date: 2016-03-15 15:36:42]	[UserID:06/371]	[IP:10.10.11.1]	[Browser:Chrome - 48.0.2564.116]	[Action:GetGSTModules 06/371,1]	[Remarks:Successful filter row count: 5]
[Date: 2016-03-15 15:36:42]	[UserID:06/371]	[IP:10.10.11.1]	[Browser:Chrome - 48.0.2564.116]	[Action:Closing mssql connection]	[Remarks:Success]
[Date: 2016-03-15 15:46:00]	[UserID:06/371]	[IP:10.10.11.1]	[Browser:Chrome - 48.0.2564.116]	[Action:Making connection to server]	[Remarks:Successful connection to server: S3]
[Date: 2016-03-15 15:46:00]	[UserID:06/371]	[IP:10.10.11.1]	[Browser:Chrome - 48.0.2564.116]	[Action:GetGSTModules 06/371,1]	[Remarks:Successful filter row count: 5]
[Date: 2016-03-15 15:46:00]	[UserID:06/371]	[IP:10.10.11.1]	[Browser:Chrome - 48.0.2564.116]	[Action:Closing mssql connection]	[Remarks:Success]
[Date: 2016-03-15 15:57:56]	[UserID:08/504]	[IP:10.10.11.1]	[Browser:Chrome - 49.0.2623.87]	[Action:Making connection to server]	[Remarks:Successful connection to server: S3]
[Date: 2016-03-15 15:58:14]	[UserID:08/504]	[IP:10.10.11.1]	[Browser:Chrome - 49.0.2623.87]	[Action:GetGSTModules 08/504,1]	[Remarks:Successful filter row count: 3]
[Date: 2016-03-15 15:58:14]	[UserID:08/504]	[IP:10.10.11.1]	[Browser:Chrome - 49.0.2623.87]	[Action:Closing mssql connection]	[Remarks:Success]
[Date: 2016-03-15 16:03:03]	[UserID:]	[IP:10.10.11.1]	[Browser:Chrome - 49.0.2623.87]	[Action:Making connection to server]	[Remarks:Successful connection to server: S3]
[Date: 2016-03-15 16:03:03]	[UserID:]	[IP:10.10.11.1]	[Browser:Chrome - 49.0.2623.87]	[Action:GetProgramList ]	[Remarks:"no data"]
