[Date: 2018-05-15 08:10:17]	[UserID:]	[IP:10.128.12.113]	[Browser:Chrome - 66.0.3359.139]	[Action:Making connection to server]	[Remarks:Successful connection to server: S3]
[Date: 2018-05-15 08:10:17]	[UserID:]	[IP:10.128.12.113]	[Browser:Chrome - 66.0.3359.139]	[Action:GetProgramList ]	[Remarks:"no data"]
[Date: 2018-05-15 08:10:19]	[UserID:06/343]	[IP:10.128.12.113]	[Browser:Chrome - 66.0.3359.139]	[Action:Making connection to server]	[Remarks:Successful connection to server: S3]
[Date: 2018-05-15 08:10:19]	[UserID:06/343]	[IP:10.128.12.113]	[Browser:Chrome - 66.0.3359.139]	[Action:User 06/343]	[Remarks:Success]
[Date: 2018-05-15 08:10:19]	[UserID:06/343]	[IP:10.128.12.113]	[Browser:Chrome - 66.0.3359.139]	[Action:Filtering User : MasterData Username : 06/343]	[Remarks:Successful filter row count: 0]
[Date: 2018-05-15 08:10:19]	[UserID:06/343]	[IP:10.128.12.113]	[Browser:Chrome - 66.0.3359.139]	[Action:Filtering User : MasterData Username : 06/343]	[Remarks:Successful filter row count: 0]
[Date: 2018-05-15 08:10:19]	[UserID:06/343]	[IP:10.128.12.113]	[Browser:Chrome - 66.0.3359.139]	[Action:Filtering User : MasterData Username : 06/343]	[Remarks:Success]
[Date: 2018-05-15 08:10:19]	[UserID:06/343]	[IP:10.128.12.113]	[Browser:Chrome - 66.0.3359.139]	[Action:Closing mssql connection]	[Remarks:Success]
[Date: 2018-05-15 08:10:19]	[UserID:06/343]	[IP:10.128.12.113]	[Browser:Chrome - 66.0.3359.139]	[Action:Making connection to server]	[Remarks:Successful connection to server: S3]
[Date: 2018-05-15 08:10:19]	[UserID:06/343]	[IP:10.128.12.113]	[Browser:Chrome - 66.0.3359.139]	[Action:GetProgramList 06/343]	[Remarks:[{"ID":"1","ProgramIndex":"GST","ProgramName":"GST"}]]
[Date: 2018-05-15 08:10:19]	[UserID:06/343]	[IP:10.128.12.113]	[Browser:Chrome - 66.0.3359.139]	[Action:Making connection to server]	[Remarks:Successful connection to server: S3]
[Date: 2018-05-15 08:10:19]	[UserID:06/343]	[IP:10.128.12.113]	[Browser:Chrome - 66.0.3359.139]	[Action:GetProgramList 06/343]	[Remarks:[{"ID":"1","ProgramIndex":"GST","ProgramName":"GST"}]]
[Date: 2018-05-15 08:10:19]	[UserID:06/343]	[IP:10.128.12.113]	[Browser:Chrome - 66.0.3359.139]	[Action:Making connection to server]	[Remarks:Successful connection to server: S3]
[Date: 2018-05-15 08:10:19]	[UserID:06/343]	[IP:10.128.12.113]	[Browser:Chrome - 66.0.3359.139]	[Action:Filtering User : MasterData Username : 06/343]	[Remarks:Successful filter row count: 1]
[Date: 2018-05-15 08:10:19]	[UserID:06/343]	[IP:10.128.12.113]	[Browser:Chrome - 66.0.3359.139]	[Action:Making connection to server]	[Remarks:Successful connection to server: S3]
[Date: 2018-05-15 08:10:19]	[UserID:06/343]	[IP:10.128.12.113]	[Browser:Chrome - 66.0.3359.139]	[Action:GetGSTModules 06/343,1]	[Remarks:Successful filter row count: 5]
[Date: 2018-05-15 08:10:19]	[UserID:06/343]	[IP:10.128.12.113]	[Browser:Chrome - 66.0.3359.139]	[Action:Closing mssql connection]	[Remarks:Success]
[Date: 2018-05-15 08:15:59]	[UserID:06/343]	[IP:10.128.12.113]	[Browser:Chrome - 66.0.3359.139]	[Action:Making connection to server]	[Remarks:Successful connection to server: S3]
[Date: 2018-05-15 08:15:59]	[UserID:06/343]	[IP:10.128.12.113]	[Browser:Chrome - 66.0.3359.139]	[Action:GetGSTModules 06/343,1]	[Remarks:Successful filter row count: 5]
[Date: 2018-05-15 08:15:59]	[UserID:06/343]	[IP:10.128.12.113]	[Browser:Chrome - 66.0.3359.139]	[Action:Closing mssql connection]	[Remarks:Success]
[Date: 2018-05-15 08:55:20]	[UserID:]	[IP:10.128.80.223]	[Browser:Chrome - 65.0.3325.181]	[Action:Making connection to server]	[Remarks:Successful connection to server: S3]
[Date: 2018-05-15 08:55:20]	[UserID:]	[IP:10.128.80.223]	[Browser:Chrome - 65.0.3325.181]	[Action:GetProgramList ]	[Remarks:"no data"]
[Date: 2018-05-15 08:55:27]	[UserID:dev/jagustin]	[IP:10.128.80.223]	[Browser:Chrome - 65.0.3325.181]	[Action:Making connection to server]	[Remarks:Successful connection to server: S3]
[Date: 2018-05-15 08:55:27]	[UserID:dev/jagustin]	[IP:10.128.80.223]	[Browser:Chrome - 65.0.3325.181]	[Action:User dev/jagustin]	[Remarks:Success]
[Date: 2018-05-15 08:55:27]	[UserID:dev/jagustin]	[IP:10.128.80.223]	[Browser:Chrome - 65.0.3325.181]	[Action:Filtering User : MasterData Username : dev/jagustin]	[Remarks:Successful filter row count: 0]
[Date: 2018-05-15 08:55:27]	[UserID:dev/jagustin]	[IP:10.128.80.223]	[Browser:Chrome - 65.0.3325.181]	[Action:Filtering User : MasterData Username : dev/jagustin]	[Remarks:Successful filter row count: 0]
[Date: 2018-05-15 08:55:27]	[UserID:dev/jagustin]	[IP:10.128.80.223]	[Browser:Chrome - 65.0.3325.181]	[Action:Filtering User : MasterData Username : dev/jagustin]	[Remarks:Success]
[Date: 2018-05-15 08:55:27]	[UserID:dev/jagustin]	[IP:10.128.80.223]	[Browser:Chrome - 65.0.3325.181]	[Action:Closing mssql connection]	[Remarks:Success]
[Date: 2018-05-15 08:55:27]	[UserID:dev/jagustin]	[IP:10.128.80.223]	[Browser:Chrome - 65.0.3325.181]	[Action:Making connection to server]	[Remarks:Successful connection to server: S3]
[Date: 2018-05-15 08:55:27]	[UserID:dev/jagustin]	[IP:10.128.80.223]	[Browser:Chrome - 65.0.3325.181]	[Action:GetProgramList dev/jagustin]	[Remarks:[{"ID":"1","ProgramIndex":"GST","ProgramName":"GST"},{"ID":"3","ProgramIndex":"PRD","ProgramName":"PRD"}]]
[Date: 2018-05-15 08:55:27]	[UserID:dev/jagustin]	[IP:10.128.80.223]	[Browser:Chrome - 65.0.3325.181]	[Action:Making connection to server]	[Remarks:Successful connection to server: S3]
[Date: 2018-05-15 08:55:27]	[UserID:dev/jagustin]	[IP:10.128.80.223]	[Browser:Chrome - 65.0.3325.181]	[Action:GetProgramList dev/jagustin]	[Remarks:[{"ID":"1","ProgramIndex":"GST","ProgramName":"GST"},{"ID":"3","ProgramIndex":"PRD","ProgramName":"PRD"}]]
[Date: 2018-05-15 08:55:27]	[UserID:dev/jagustin]	[IP:10.128.80.223]	[Browser:Chrome - 65.0.3325.181]	[Action:Making connection to server]	[Remarks:Successful connection to server: S3]
[Date: 2018-05-15 08:55:27]	[UserID:dev/jagustin]	[IP:10.128.80.223]	[Browser:Chrome - 65.0.3325.181]	[Action:Filtering User : MasterData Username : dev/jagustin]	[Remarks:Successful filter row count: 1]
[Date: 2018-05-15 08:55:29]	[UserID:dev/jagustin]	[IP:10.128.80.223]	[Browser:Chrome - 65.0.3325.181]	[Action:Making connection to server]	[Remarks:Successful connection to server: S3]
[Date: 2018-05-15 08:55:29]	[UserID:dev/jagustin]	[IP:10.128.80.223]	[Browser:Chrome - 65.0.3325.181]	[Action:GetGSTModules dev/jagustin,1]	[Remarks:Successful filter row count: 9]
[Date: 2018-05-15 08:55:29]	[UserID:dev/jagustin]	[IP:10.128.80.223]	[Browser:Chrome - 65.0.3325.181]	[Action:Closing mssql connection]	[Remarks:Success]
[Date: 2018-05-15 08:57:08]	[UserID:dev/jagustin]	[IP:10.128.80.223]	[Browser:Chrome - 65.0.3325.181]	[Action:Making connection to server]	[Remarks:Successful connection to server: S3]
[Date: 2018-05-15 08:57:08]	[UserID:dev/jagustin]	[IP:10.128.80.223]	[Browser:Chrome - 65.0.3325.181]	[Action:GetProgramList dev/jagustin]	[Remarks:[{"ID":"1","ProgramIndex":"GST","ProgramName":"GST"},{"ID":"3","ProgramIndex":"PRD","ProgramName":"PRD"}]]
[Date: 2018-05-15 08:57:08]	[UserID:dev/jagustin]	[IP:10.128.80.223]	[Browser:Chrome - 65.0.3325.181]	[Action:Making connection to server]	[Remarks:Successful connection to server: S3]
[Date: 2018-05-15 08:57:08]	[UserID:dev/jagustin]	[IP:10.128.80.223]	[Browser:Chrome - 65.0.3325.181]	[Action:GetProgramList dev/jagustin]	[Remarks:[{"ID":"1","ProgramIndex":"GST","ProgramName":"GST"},{"ID":"3","ProgramIndex":"PRD","ProgramName":"PRD"}]]
[Date: 2018-05-15 08:57:08]	[UserID:dev/jagustin]	[IP:10.128.80.223]	[Browser:Chrome - 65.0.3325.181]	[Action:Making connection to server]	[Remarks:Successful connection to server: S3]
[Date: 2018-05-15 08:57:08]	[UserID:dev/jagustin]	[IP:10.128.80.223]	[Browser:Chrome - 65.0.3325.181]	[Action:Filtering User : MasterData Username : dev/jagustin]	[Remarks:Successful filter row count: 1]
[Date: 2018-05-15 08:57:23]	[UserID:dev/jagustin]	[IP:10.128.80.223]	[Browser:Chrome - 65.0.3325.181]	[Action:Making connection to server]	[Remarks:Successful connection to server: S3]
[Date: 2018-05-15 08:57:23]	[UserID:dev/jagustin]	[IP:10.128.80.223]	[Browser:Chrome - 65.0.3325.181]	[Action:GetGSTModules dev/jagustin,1]	[Remarks:Successful filter row count: 9]
[Date: 2018-05-15 08:57:23]	[UserID:dev/jagustin]	[IP:10.128.80.223]	[Browser:Chrome - 65.0.3325.181]	[Action:Closing mssql connection]	[Remarks:Success]
[Date: 2018-05-15 09:01:37]	[UserID:dev/jagustin]	[IP:10.128.80.223]	[Browser:Chrome - 65.0.3325.181]	[Action:Making connection to server]	[Remarks:Successful connection to server: S3]
[Date: 2018-05-15 09:01:37]	[UserID:dev/jagustin]	[IP:10.128.80.223]	[Browser:Chrome - 65.0.3325.181]	[Action:GetProgramList dev/jagustin]	[Remarks:[{"ID":"1","ProgramIndex":"GST","ProgramName":"GST"},{"ID":"3","ProgramIndex":"PRD","ProgramName":"PRD"}]]
[Date: 2018-05-15 09:01:37]	[UserID:dev/jagustin]	[IP:10.128.80.223]	[Browser:Chrome - 65.0.3325.181]	[Action:Making connection to server]	[Remarks:Successful connection to server: S3]
[Date: 2018-05-15 09:01:37]	[UserID:dev/jagustin]	[IP:10.128.80.223]	[Browser:Chrome - 65.0.3325.181]	[Action:GetProgramList dev/jagustin]	[Remarks:[{"ID":"1","ProgramIndex":"GST","ProgramName":"GST"},{"ID":"3","ProgramIndex":"PRD","ProgramName":"PRD"}]]
[Date: 2018-05-15 09:01:37]	[UserID:dev/jagustin]	[IP:10.128.80.223]	[Browser:Chrome - 65.0.3325.181]	[Action:Making connection to server]	[Remarks:Successful connection to server: S3]
[Date: 2018-05-15 09:01:37]	[UserID:dev/jagustin]	[IP:10.128.80.223]	[Browser:Chrome - 65.0.3325.181]	[Action:Filtering User : MasterData Username : dev/jagustin]	[Remarks:Successful filter row count: 1]
[Date: 2018-05-15 09:01:39]	[UserID:dev/jagustin]	[IP:10.128.80.223]	[Browser:Chrome - 65.0.3325.181]	[Action:Making connection to server]	[Remarks:Successful connection to server: S3]
[Date: 2018-05-15 09:01:39]	[UserID:dev/jagustin]	[IP:10.128.80.223]	[Browser:Chrome - 65.0.3325.181]	[Action:GetGSTModules dev/jagustin,1]	[Remarks:Successful filter row count: 9]
[Date: 2018-05-15 09:01:39]	[UserID:dev/jagustin]	[IP:10.128.80.223]	[Browser:Chrome - 65.0.3325.181]	[Action:Closing mssql connection]	[Remarks:Success]
[Date: 2018-05-15 09:02:10]	[UserID:dev/jagustin]	[IP:10.128.80.223]	[Browser:Chrome - 65.0.3325.181]	[Action:Making connection to server]	[Remarks:Successful connection to server: S3]
[Date: 2018-05-15 09:02:10]	[UserID:dev/jagustin]	[IP:10.128.80.223]	[Browser:Chrome - 65.0.3325.181]	[Action:GetProgramList dev/jagustin]	[Remarks:[{"ID":"1","ProgramIndex":"GST","ProgramName":"GST"},{"ID":"3","ProgramIndex":"PRD","ProgramName":"PRD"}]]
[Date: 2018-05-15 09:02:10]	[UserID:dev/jagustin]	[IP:10.128.80.223]	[Browser:Chrome - 65.0.3325.181]	[Action:Making connection to server]	[Remarks:Successful connection to server: S3]
[Date: 2018-05-15 09:02:10]	[UserID:dev/jagustin]	[IP:10.128.80.223]	[Browser:Chrome - 65.0.3325.181]	[Action:GetProgramList dev/jagustin]	[Remarks:[{"ID":"1","ProgramIndex":"GST","ProgramName":"GST"},{"ID":"3","ProgramIndex":"PRD","ProgramName":"PRD"}]]
[Date: 2018-05-15 09:02:10]	[UserID:dev/jagustin]	[IP:10.128.80.223]	[Browser:Chrome - 65.0.3325.181]	[Action:Making connection to server]	[Remarks:Successful connection to server: S3]
[Date: 2018-05-15 09:02:10]	[UserID:dev/jagustin]	[IP:10.128.80.223]	[Browser:Chrome - 65.0.3325.181]	[Action:Filtering User : MasterData Username : dev/jagustin]	[Remarks:Successful filter row count: 1]
[Date: 2018-05-15 09:02:11]	[UserID:dev/jagustin]	[IP:10.128.80.223]	[Browser:Chrome - 65.0.3325.181]	[Action:Making connection to server]	[Remarks:Successful connection to server: S3]
[Date: 2018-05-15 09:02:11]	[UserID:dev/jagustin]	[IP:10.128.80.223]	[Browser:Chrome - 65.0.3325.181]	[Action:GetGSTModules dev/jagustin,1]	[Remarks:Successful filter row count: 9]
[Date: 2018-05-15 09:02:11]	[UserID:dev/jagustin]	[IP:10.128.80.223]	[Browser:Chrome - 65.0.3325.181]	[Action:Closing mssql connection]	[Remarks:Success]
[Date: 2018-05-15 09:02:51]	[UserID:dev/jagustin]	[IP:10.128.80.223]	[Browser:Chrome - 65.0.3325.181]	[Action:Making connection to server]	[Remarks:Successful connection to server: S3]
[Date: 2018-05-15 09:02:51]	[UserID:dev/jagustin]	[IP:10.128.80.223]	[Browser:Chrome - 65.0.3325.181]	[Action:GetProgramList dev/jagustin]	[Remarks:[{"ID":"1","ProgramIndex":"GST","ProgramName":"GST"},{"ID":"3","ProgramIndex":"PRD","ProgramName":"PRD"}]]
[Date: 2018-05-15 09:02:51]	[UserID:dev/jagustin]	[IP:10.128.80.223]	[Browser:Chrome - 65.0.3325.181]	[Action:Making connection to server]	[Remarks:Successful connection to server: S3]
[Date: 2018-05-15 09:02:51]	[UserID:dev/jagustin]	[IP:10.128.80.223]	[Browser:Chrome - 65.0.3325.181]	[Action:GetProgramList dev/jagustin]	[Remarks:[{"ID":"1","ProgramIndex":"GST","ProgramName":"GST"},{"ID":"3","ProgramIndex":"PRD","ProgramName":"PRD"}]]
[Date: 2018-05-15 09:02:51]	[UserID:dev/jagustin]	[IP:10.128.80.223]	[Browser:Chrome - 65.0.3325.181]	[Action:Making connection to server]	[Remarks:Successful connection to server: S3]
[Date: 2018-05-15 09:02:51]	[UserID:dev/jagustin]	[IP:10.128.80.223]	[Browser:Chrome - 65.0.3325.181]	[Action:Filtering User : MasterData Username : dev/jagustin]	[Remarks:Successful filter row count: 1]
[Date: 2018-05-15 09:02:53]	[UserID:dev/jagustin]	[IP:10.128.80.223]	[Browser:Chrome - 65.0.3325.181]	[Action:Making connection to server]	[Remarks:Successful connection to server: S3]
[Date: 2018-05-15 09:02:53]	[UserID:dev/jagustin]	[IP:10.128.80.223]	[Browser:Chrome - 65.0.3325.181]	[Action:GetGSTModules dev/jagustin,1]	[Remarks:Successful filter row count: 9]
[Date: 2018-05-15 09:02:53]	[UserID:dev/jagustin]	[IP:10.128.80.223]	[Browser:Chrome - 65.0.3325.181]	[Action:Closing mssql connection]	[Remarks:Success]
[Date: 2018-05-15 09:03:52]	[UserID:dev/jagustin]	[IP:10.128.80.223]	[Browser:Chrome - 65.0.3325.181]	[Action:Making connection to server]	[Remarks:Successful connection to server: S3]
[Date: 2018-05-15 09:03:52]	[UserID:dev/jagustin]	[IP:10.128.80.223]	[Browser:Chrome - 65.0.3325.181]	[Action:GetGSTModules dev/jagustin,1]	[Remarks:Successful filter row count: 9]
[Date: 2018-05-15 09:03:52]	[UserID:dev/jagustin]	[IP:10.128.80.223]	[Browser:Chrome - 65.0.3325.181]	[Action:Closing mssql connection]	[Remarks:Success]
[Date: 2018-05-15 09:05:12]	[UserID:dev/jagustin]	[IP:10.128.80.223]	[Browser:Chrome - 65.0.3325.181]	[Action:Making connection to server]	[Remarks:Successful connection to server: S3]
[Date: 2018-05-15 09:05:12]	[UserID:dev/jagustin]	[IP:10.128.80.223]	[Browser:Chrome - 65.0.3325.181]	[Action:GetGSTModules dev/jagustin,1]	[Remarks:Successful filter row count: 9]
[Date: 2018-05-15 09:05:12]	[UserID:dev/jagustin]	[IP:10.128.80.223]	[Browser:Chrome - 65.0.3325.181]	[Action:Closing mssql connection]	[Remarks:Success]
[Date: 2018-05-15 09:06:00]	[UserID:dev/jagustin]	[IP:10.128.80.223]	[Browser:Chrome - 65.0.3325.181]	[Action:Making connection to server]	[Remarks:Successful connection to server: S3]
[Date: 2018-05-15 09:06:00]	[UserID:dev/jagustin]	[IP:10.128.80.223]	[Browser:Chrome - 65.0.3325.181]	[Action:GetGSTModules dev/jagustin,1]	[Remarks:Successful filter row count: 9]
[Date: 2018-05-15 09:06:00]	[UserID:dev/jagustin]	[IP:10.128.80.223]	[Browser:Chrome - 65.0.3325.181]	[Action:Closing mssql connection]	[Remarks:Success]
[Date: 2018-05-15 09:06:43]	[UserID:dev/jagustin]	[IP:10.128.80.223]	[Browser:Chrome - 65.0.3325.181]	[Action:Making connection to server]	[Remarks:Successful connection to server: S3]
[Date: 2018-05-15 09:06:43]	[UserID:dev/jagustin]	[IP:10.128.80.223]	[Browser:Chrome - 65.0.3325.181]	[Action:GetGSTModules dev/jagustin,1]	[Remarks:Successful filter row count: 9]
[Date: 2018-05-15 09:06:43]	[UserID:dev/jagustin]	[IP:10.128.80.223]	[Browser:Chrome - 65.0.3325.181]	[Action:Closing mssql connection]	[Remarks:Success]
[Date: 2018-05-15 09:07:17]	[UserID:dev/jagustin]	[IP:10.128.80.223]	[Browser:Chrome - 65.0.3325.181]	[Action:Making connection to server]	[Remarks:Successful connection to server: S3]
[Date: 2018-05-15 09:07:17]	[UserID:dev/jagustin]	[IP:10.128.80.223]	[Browser:Chrome - 65.0.3325.181]	[Action:GetProgramList dev/jagustin]	[Remarks:[{"ID":"1","ProgramIndex":"GST","ProgramName":"GST"},{"ID":"3","ProgramIndex":"PRD","ProgramName":"PRD"}]]
[Date: 2018-05-15 09:07:17]	[UserID:dev/jagustin]	[IP:10.128.80.223]	[Browser:Chrome - 65.0.3325.181]	[Action:Making connection to server]	[Remarks:Successful connection to server: S3]
[Date: 2018-05-15 09:07:17]	[UserID:dev/jagustin]	[IP:10.128.80.223]	[Browser:Chrome - 65.0.3325.181]	[Action:GetProgramList dev/jagustin]	[Remarks:[{"ID":"1","ProgramIndex":"GST","ProgramName":"GST"},{"ID":"3","ProgramIndex":"PRD","ProgramName":"PRD"}]]
[Date: 2018-05-15 09:07:17]	[UserID:dev/jagustin]	[IP:10.128.80.223]	[Browser:Chrome - 65.0.3325.181]	[Action:Making connection to server]	[Remarks:Successful connection to server: S3]
[Date: 2018-05-15 09:07:17]	[UserID:dev/jagustin]	[IP:10.128.80.223]	[Browser:Chrome - 65.0.3325.181]	[Action:Filtering User : MasterData Username : dev/jagustin]	[Remarks:Successful filter row count: 1]
[Date: 2018-05-15 09:07:19]	[UserID:dev/jagustin]	[IP:10.128.80.223]	[Browser:Chrome - 65.0.3325.181]	[Action:Making connection to server]	[Remarks:Successful connection to server: S3]
[Date: 2018-05-15 09:07:19]	[UserID:dev/jagustin]	[IP:10.128.80.223]	[Browser:Chrome - 65.0.3325.181]	[Action:GetGSTModules dev/jagustin,1]	[Remarks:Successful filter row count: 9]
[Date: 2018-05-15 09:07:19]	[UserID:dev/jagustin]	[IP:10.128.80.223]	[Browser:Chrome - 65.0.3325.181]	[Action:Closing mssql connection]	[Remarks:Success]
[Date: 2018-05-15 09:08:42]	[UserID:dev/jagustin]	[IP:10.128.80.223]	[Browser:Chrome - 65.0.3325.181]	[Action:Making connection to server]	[Remarks:Successful connection to server: S3]
[Date: 2018-05-15 09:08:42]	[UserID:dev/jagustin]	[IP:10.128.80.223]	[Browser:Chrome - 65.0.3325.181]	[Action:GetProgramList dev/jagustin]	[Remarks:[{"ID":"1","ProgramIndex":"GST","ProgramName":"GST"},{"ID":"3","ProgramIndex":"PRD","ProgramName":"PRD"}]]
[Date: 2018-05-15 09:08:42]	[UserID:dev/jagustin]	[IP:10.128.80.223]	[Browser:Chrome - 65.0.3325.181]	[Action:Making connection to server]	[Remarks:Successful connection to server: S3]
[Date: 2018-05-15 09:08:42]	[UserID:dev/jagustin]	[IP:10.128.80.223]	[Browser:Chrome - 65.0.3325.181]	[Action:GetProgramList dev/jagustin]	[Remarks:[{"ID":"1","ProgramIndex":"GST","ProgramName":"GST"},{"ID":"3","ProgramIndex":"PRD","ProgramName":"PRD"}]]
[Date: 2018-05-15 09:08:42]	[UserID:dev/jagustin]	[IP:10.128.80.223]	[Browser:Chrome - 65.0.3325.181]	[Action:Making connection to server]	[Remarks:Successful connection to server: S3]
[Date: 2018-05-15 09:08:42]	[UserID:dev/jagustin]	[IP:10.128.80.223]	[Browser:Chrome - 65.0.3325.181]	[Action:Filtering User : MasterData Username : dev/jagustin]	[Remarks:Successful filter row count: 1]
[Date: 2018-05-15 09:08:44]	[UserID:dev/jagustin]	[IP:10.128.80.223]	[Browser:Chrome - 65.0.3325.181]	[Action:Making connection to server]	[Remarks:Successful connection to server: S3]
[Date: 2018-05-15 09:08:44]	[UserID:dev/jagustin]	[IP:10.128.80.223]	[Browser:Chrome - 65.0.3325.181]	[Action:GetGSTModules dev/jagustin,1]	[Remarks:Successful filter row count: 9]
[Date: 2018-05-15 09:08:44]	[UserID:dev/jagustin]	[IP:10.128.80.223]	[Browser:Chrome - 65.0.3325.181]	[Action:Closing mssql connection]	[Remarks:Success]
[Date: 2018-05-15 09:09:22]	[UserID:dev/jagustin]	[IP:10.128.80.223]	[Browser:Chrome - 65.0.3325.181]	[Action:Making connection to server]	[Remarks:Successful connection to server: S3]
[Date: 2018-05-15 09:09:22]	[UserID:dev/jagustin]	[IP:10.128.80.223]	[Browser:Chrome - 65.0.3325.181]	[Action:GetGSTModules dev/jagustin,1]	[Remarks:Successful filter row count: 9]
[Date: 2018-05-15 09:09:22]	[UserID:dev/jagustin]	[IP:10.128.80.223]	[Browser:Chrome - 65.0.3325.181]	[Action:Closing mssql connection]	[Remarks:Success]
[Date: 2018-05-15 09:10:41]	[UserID:dev/jagustin]	[IP:10.128.80.223]	[Browser:Chrome - 65.0.3325.181]	[Action:Making connection to server]	[Remarks:Successful connection to server: S3]
[Date: 2018-05-15 09:10:41]	[UserID:dev/jagustin]	[IP:10.128.80.223]	[Browser:Chrome - 65.0.3325.181]	[Action:GetProgramList dev/jagustin]	[Remarks:[{"ID":"1","ProgramIndex":"GST","ProgramName":"GST"},{"ID":"3","ProgramIndex":"PRD","ProgramName":"PRD"}]]
[Date: 2018-05-15 09:10:41]	[UserID:dev/jagustin]	[IP:10.128.80.223]	[Browser:Chrome - 65.0.3325.181]	[Action:Making connection to server]	[Remarks:Successful connection to server: S3]
[Date: 2018-05-15 09:10:41]	[UserID:dev/jagustin]	[IP:10.128.80.223]	[Browser:Chrome - 65.0.3325.181]	[Action:GetProgramList dev/jagustin]	[Remarks:[{"ID":"1","ProgramIndex":"GST","ProgramName":"GST"},{"ID":"3","ProgramIndex":"PRD","ProgramName":"PRD"}]]
[Date: 2018-05-15 09:10:41]	[UserID:dev/jagustin]	[IP:10.128.80.223]	[Browser:Chrome - 65.0.3325.181]	[Action:Making connection to server]	[Remarks:Successful connection to server: S3]
[Date: 2018-05-15 09:10:41]	[UserID:dev/jagustin]	[IP:10.128.80.223]	[Browser:Chrome - 65.0.3325.181]	[Action:Filtering User : MasterData Username : dev/jagustin]	[Remarks:Successful filter row count: 1]
[Date: 2018-05-15 09:10:43]	[UserID:dev/jagustin]	[IP:10.128.80.223]	[Browser:Chrome - 65.0.3325.181]	[Action:Making connection to server]	[Remarks:Successful connection to server: S3]
[Date: 2018-05-15 09:10:43]	[UserID:dev/jagustin]	[IP:10.128.80.223]	[Browser:Chrome - 65.0.3325.181]	[Action:GetGSTModules dev/jagustin,1]	[Remarks:Successful filter row count: 9]
[Date: 2018-05-15 09:10:43]	[UserID:dev/jagustin]	[IP:10.128.80.223]	[Browser:Chrome - 65.0.3325.181]	[Action:Closing mssql connection]	[Remarks:Success]
[Date: 2018-05-15 09:15:59]	[UserID:dev/jagustin]	[IP:10.128.80.223]	[Browser:Chrome - 65.0.3325.181]	[Action:Making connection to server]	[Remarks:Successful connection to server: S3]
[Date: 2018-05-15 09:15:59]	[UserID:dev/jagustin]	[IP:10.128.80.223]	[Browser:Chrome - 65.0.3325.181]	[Action:GetGSTModules dev/jagustin,1]	[Remarks:Successful filter row count: 9]
[Date: 2018-05-15 09:15:59]	[UserID:dev/jagustin]	[IP:10.128.80.223]	[Browser:Chrome - 65.0.3325.181]	[Action:Closing mssql connection]	[Remarks:Success]
[Date: 2018-05-15 09:16:51]	[UserID:dev/jagustin]	[IP:10.128.80.223]	[Browser:Chrome - 65.0.3325.181]	[Action:Making connection to server]	[Remarks:Successful connection to server: S3]
[Date: 2018-05-15 09:16:51]	[UserID:dev/jagustin]	[IP:10.128.80.223]	[Browser:Chrome - 65.0.3325.181]	[Action:GetGSTModules dev/jagustin,1]	[Remarks:Successful filter row count: 9]
[Date: 2018-05-15 09:16:51]	[UserID:dev/jagustin]	[IP:10.128.80.223]	[Browser:Chrome - 65.0.3325.181]	[Action:Closing mssql connection]	[Remarks:Success]
[Date: 2018-05-15 09:19:14]	[UserID:dev/jagustin]	[IP:10.128.80.223]	[Browser:Chrome - 65.0.3325.181]	[Action:Making connection to server]	[Remarks:Successful connection to server: S3]
[Date: 2018-05-15 09:19:14]	[UserID:dev/jagustin]	[IP:10.128.80.223]	[Browser:Chrome - 65.0.3325.181]	[Action:GetProgramList dev/jagustin]	[Remarks:[{"ID":"1","ProgramIndex":"GST","ProgramName":"GST"},{"ID":"3","ProgramIndex":"PRD","ProgramName":"PRD"}]]
[Date: 2018-05-15 09:19:14]	[UserID:dev/jagustin]	[IP:10.128.80.223]	[Browser:Chrome - 65.0.3325.181]	[Action:Making connection to server]	[Remarks:Successful connection to server: S3]
[Date: 2018-05-15 09:19:14]	[UserID:dev/jagustin]	[IP:10.128.80.223]	[Browser:Chrome - 65.0.3325.181]	[Action:GetProgramList dev/jagustin]	[Remarks:[{"ID":"1","ProgramIndex":"GST","ProgramName":"GST"},{"ID":"3","ProgramIndex":"PRD","ProgramName":"PRD"}]]
[Date: 2018-05-15 09:19:14]	[UserID:dev/jagustin]	[IP:10.128.80.223]	[Browser:Chrome - 65.0.3325.181]	[Action:Making connection to server]	[Remarks:Successful connection to server: S3]
[Date: 2018-05-15 09:19:14]	[UserID:dev/jagustin]	[IP:10.128.80.223]	[Browser:Chrome - 65.0.3325.181]	[Action:Filtering User : MasterData Username : dev/jagustin]	[Remarks:Successful filter row count: 1]
[Date: 2018-05-15 09:19:16]	[UserID:dev/jagustin]	[IP:10.128.80.223]	[Browser:Chrome - 65.0.3325.181]	[Action:Making connection to server]	[Remarks:Successful connection to server: S3]
[Date: 2018-05-15 09:19:16]	[UserID:dev/jagustin]	[IP:10.128.80.223]	[Browser:Chrome - 65.0.3325.181]	[Action:GetGSTModules dev/jagustin,1]	[Remarks:Successful filter row count: 9]
[Date: 2018-05-15 09:19:16]	[UserID:dev/jagustin]	[IP:10.128.80.223]	[Browser:Chrome - 65.0.3325.181]	[Action:Closing mssql connection]	[Remarks:Success]
[Date: 2018-05-15 09:20:02]	[UserID:dev/jagustin]	[IP:10.128.80.223]	[Browser:Chrome - 65.0.3325.181]	[Action:Making connection to server]	[Remarks:Successful connection to server: S3]
[Date: 2018-05-15 09:20:02]	[UserID:dev/jagustin]	[IP:10.128.80.223]	[Browser:Chrome - 65.0.3325.181]	[Action:GetProgramList dev/jagustin]	[Remarks:[{"ID":"1","ProgramIndex":"GST","ProgramName":"GST"},{"ID":"3","ProgramIndex":"PRD","ProgramName":"PRD"}]]
[Date: 2018-05-15 09:20:02]	[UserID:dev/jagustin]	[IP:10.128.80.223]	[Browser:Chrome - 65.0.3325.181]	[Action:Making connection to server]	[Remarks:Successful connection to server: S3]
[Date: 2018-05-15 09:20:02]	[UserID:dev/jagustin]	[IP:10.128.80.223]	[Browser:Chrome - 65.0.3325.181]	[Action:GetProgramList dev/jagustin]	[Remarks:[{"ID":"1","ProgramIndex":"GST","ProgramName":"GST"},{"ID":"3","ProgramIndex":"PRD","ProgramName":"PRD"}]]
[Date: 2018-05-15 09:20:02]	[UserID:dev/jagustin]	[IP:10.128.80.223]	[Browser:Chrome - 65.0.3325.181]	[Action:Making connection to server]	[Remarks:Successful connection to server: S3]
[Date: 2018-05-15 09:20:02]	[UserID:dev/jagustin]	[IP:10.128.80.223]	[Browser:Chrome - 65.0.3325.181]	[Action:Filtering User : MasterData Username : dev/jagustin]	[Remarks:Successful filter row count: 1]
[Date: 2018-05-15 09:20:05]	[UserID:dev/jagustin]	[IP:10.128.80.223]	[Browser:Chrome - 65.0.3325.181]	[Action:Making connection to server]	[Remarks:Successful connection to server: S3]
[Date: 2018-05-15 09:20:05]	[UserID:dev/jagustin]	[IP:10.128.80.223]	[Browser:Chrome - 65.0.3325.181]	[Action:GetGSTModules dev/jagustin,1]	[Remarks:Successful filter row count: 9]
[Date: 2018-05-15 09:20:05]	[UserID:dev/jagustin]	[IP:10.128.80.223]	[Browser:Chrome - 65.0.3325.181]	[Action:Closing mssql connection]	[Remarks:Success]
[Date: 2018-05-15 09:20:35]	[UserID:dev/jagustin]	[IP:10.128.80.223]	[Browser:Chrome - 65.0.3325.181]	[Action:Making connection to server]	[Remarks:Successful connection to server: S3]
[Date: 2018-05-15 09:20:35]	[UserID:dev/jagustin]	[IP:10.128.80.223]	[Browser:Chrome - 65.0.3325.181]	[Action:GetGSTModules dev/jagustin,1]	[Remarks:Successful filter row count: 9]
[Date: 2018-05-15 09:20:35]	[UserID:dev/jagustin]	[IP:10.128.80.223]	[Browser:Chrome - 65.0.3325.181]	[Action:Closing mssql connection]	[Remarks:Success]
[Date: 2018-05-15 09:20:58]	[UserID:dev/jagustin]	[IP:10.128.80.223]	[Browser:Chrome - 65.0.3325.181]	[Action:Making connection to server]	[Remarks:Successful connection to server: S3]
[Date: 2018-05-15 09:20:58]	[UserID:dev/jagustin]	[IP:10.128.80.223]	[Browser:Chrome - 65.0.3325.181]	[Action:GetGSTModules dev/jagustin,1]	[Remarks:Successful filter row count: 9]
[Date: 2018-05-15 09:20:58]	[UserID:dev/jagustin]	[IP:10.128.80.223]	[Browser:Chrome - 65.0.3325.181]	[Action:Closing mssql connection]	[Remarks:Success]
[Date: 2018-05-15 09:22:09]	[UserID:dev/jagustin]	[IP:10.128.80.223]	[Browser:Chrome - 65.0.3325.181]	[Action:Making connection to server]	[Remarks:Successful connection to server: S3]
[Date: 2018-05-15 09:22:09]	[UserID:dev/jagustin]	[IP:10.128.80.223]	[Browser:Chrome - 65.0.3325.181]	[Action:GetProgramList dev/jagustin]	[Remarks:[{"ID":"1","ProgramIndex":"GST","ProgramName":"GST"},{"ID":"3","ProgramIndex":"PRD","ProgramName":"PRD"}]]
[Date: 2018-05-15 09:22:09]	[UserID:dev/jagustin]	[IP:10.128.80.223]	[Browser:Chrome - 65.0.3325.181]	[Action:Making connection to server]	[Remarks:Successful connection to server: S3]
[Date: 2018-05-15 09:22:09]	[UserID:dev/jagustin]	[IP:10.128.80.223]	[Browser:Chrome - 65.0.3325.181]	[Action:GetProgramList dev/jagustin]	[Remarks:[{"ID":"1","ProgramIndex":"GST","ProgramName":"GST"},{"ID":"3","ProgramIndex":"PRD","ProgramName":"PRD"}]]
[Date: 2018-05-15 09:22:09]	[UserID:dev/jagustin]	[IP:10.128.80.223]	[Browser:Chrome - 65.0.3325.181]	[Action:Making connection to server]	[Remarks:Successful connection to server: S3]
[Date: 2018-05-15 09:22:09]	[UserID:dev/jagustin]	[IP:10.128.80.223]	[Browser:Chrome - 65.0.3325.181]	[Action:Filtering User : MasterData Username : dev/jagustin]	[Remarks:Successful filter row count: 1]
[Date: 2018-05-15 09:22:12]	[UserID:dev/jagustin]	[IP:10.128.80.223]	[Browser:Chrome - 65.0.3325.181]	[Action:Making connection to server]	[Remarks:Successful connection to server: S3]
[Date: 2018-05-15 09:22:12]	[UserID:dev/jagustin]	[IP:10.128.80.223]	[Browser:Chrome - 65.0.3325.181]	[Action:GetGSTModules dev/jagustin,1]	[Remarks:Successful filter row count: 9]
[Date: 2018-05-15 09:22:12]	[UserID:dev/jagustin]	[IP:10.128.80.223]	[Browser:Chrome - 65.0.3325.181]	[Action:Closing mssql connection]	[Remarks:Success]
[Date: 2018-05-15 09:27:21]	[UserID:dev/jagustin]	[IP:10.128.80.223]	[Browser:Chrome - 65.0.3325.181]	[Action:Making connection to server]	[Remarks:Successful connection to server: S3]
[Date: 2018-05-15 09:27:21]	[UserID:dev/jagustin]	[IP:10.128.80.223]	[Browser:Chrome - 65.0.3325.181]	[Action:GetGSTModules dev/jagustin,1]	[Remarks:Successful filter row count: 9]
[Date: 2018-05-15 09:27:21]	[UserID:dev/jagustin]	[IP:10.128.80.223]	[Browser:Chrome - 65.0.3325.181]	[Action:Closing mssql connection]	[Remarks:Success]
[Date: 2018-05-15 09:33:36]	[UserID:dev/jagustin]	[IP:10.128.80.223]	[Browser:Chrome - 65.0.3325.181]	[Action:Making connection to server]	[Remarks:Successful connection to server: S3]
[Date: 2018-05-15 09:33:37]	[UserID:dev/jagustin]	[IP:10.128.80.223]	[Browser:Chrome - 65.0.3325.181]	[Action:GetProgramList dev/jagustin]	[Remarks:[{"ID":"1","ProgramIndex":"GST","ProgramName":"GST"},{"ID":"3","ProgramIndex":"PRD","ProgramName":"PRD"}]]
[Date: 2018-05-15 09:33:37]	[UserID:dev/jagustin]	[IP:10.128.80.223]	[Browser:Chrome - 65.0.3325.181]	[Action:Making connection to server]	[Remarks:Successful connection to server: S3]
[Date: 2018-05-15 09:33:37]	[UserID:dev/jagustin]	[IP:10.128.80.223]	[Browser:Chrome - 65.0.3325.181]	[Action:GetProgramList dev/jagustin]	[Remarks:[{"ID":"1","ProgramIndex":"GST","ProgramName":"GST"},{"ID":"3","ProgramIndex":"PRD","ProgramName":"PRD"}]]
[Date: 2018-05-15 09:33:37]	[UserID:dev/jagustin]	[IP:10.128.80.223]	[Browser:Chrome - 65.0.3325.181]	[Action:Making connection to server]	[Remarks:Successful connection to server: S3]
[Date: 2018-05-15 09:33:37]	[UserID:dev/jagustin]	[IP:10.128.80.223]	[Browser:Chrome - 65.0.3325.181]	[Action:Filtering User : MasterData Username : dev/jagustin]	[Remarks:Successful filter row count: 1]
[Date: 2018-05-15 09:33:41]	[UserID:dev/jagustin]	[IP:10.128.80.223]	[Browser:Chrome - 65.0.3325.181]	[Action:Making connection to server]	[Remarks:Successful connection to server: S3]
[Date: 2018-05-15 09:33:41]	[UserID:dev/jagustin]	[IP:10.128.80.223]	[Browser:Chrome - 65.0.3325.181]	[Action:GetGSTModules dev/jagustin,1]	[Remarks:Successful filter row count: 9]
[Date: 2018-05-15 09:33:41]	[UserID:dev/jagustin]	[IP:10.128.80.223]	[Browser:Chrome - 65.0.3325.181]	[Action:Closing mssql connection]	[Remarks:Success]
[Date: 2018-05-15 10:33:59]	[UserID:dev/jagustin]	[IP:10.128.80.223]	[Browser:Chrome - 65.0.3325.181]	[Action:Making connection to server]	[Remarks:Successful connection to server: S3]
[Date: 2018-05-15 10:33:59]	[UserID:dev/jagustin]	[IP:10.128.80.223]	[Browser:Chrome - 65.0.3325.181]	[Action:GetGSTModules dev/jagustin,1]	[Remarks:Successful filter row count: 9]
[Date: 2018-05-15 10:33:59]	[UserID:dev/jagustin]	[IP:10.128.80.223]	[Browser:Chrome - 65.0.3325.181]	[Action:Closing mssql connection]	[Remarks:Success]
[Date: 2018-05-15 10:34:45]	[UserID:dev/jagustin]	[IP:10.128.80.223]	[Browser:Chrome - 65.0.3325.181]	[Action:Making connection to server]	[Remarks:Successful connection to server: S3]
[Date: 2018-05-15 10:34:45]	[UserID:dev/jagustin]	[IP:10.128.80.223]	[Browser:Chrome - 65.0.3325.181]	[Action:GetGSTModules dev/jagustin,1]	[Remarks:Successful filter row count: 9]
[Date: 2018-05-15 10:34:45]	[UserID:dev/jagustin]	[IP:10.128.80.223]	[Browser:Chrome - 65.0.3325.181]	[Action:Closing mssql connection]	[Remarks:Success]
[Date: 2018-05-15 10:35:23]	[UserID:dev/jagustin]	[IP:10.128.80.223]	[Browser:Chrome - 65.0.3325.181]	[Action:Making connection to server]	[Remarks:Successful connection to server: S3]
[Date: 2018-05-15 10:35:23]	[UserID:dev/jagustin]	[IP:10.128.80.223]	[Browser:Chrome - 65.0.3325.181]	[Action:GetGSTModules dev/jagustin,1]	[Remarks:Successful filter row count: 9]
[Date: 2018-05-15 10:35:23]	[UserID:dev/jagustin]	[IP:10.128.80.223]	[Browser:Chrome - 65.0.3325.181]	[Action:Closing mssql connection]	[Remarks:Success]
[Date: 2018-05-15 10:36:20]	[UserID:dev/jagustin]	[IP:10.128.80.223]	[Browser:Chrome - 65.0.3325.181]	[Action:Making connection to server]	[Remarks:Successful connection to server: S3]
[Date: 2018-05-15 10:36:20]	[UserID:dev/jagustin]	[IP:10.128.80.223]	[Browser:Chrome - 65.0.3325.181]	[Action:GetProgramList dev/jagustin]	[Remarks:[{"ID":"1","ProgramIndex":"GST","ProgramName":"GST"},{"ID":"3","ProgramIndex":"PRD","ProgramName":"PRD"}]]
[Date: 2018-05-15 10:36:20]	[UserID:dev/jagustin]	[IP:10.128.80.223]	[Browser:Chrome - 65.0.3325.181]	[Action:Making connection to server]	[Remarks:Successful connection to server: S3]
[Date: 2018-05-15 10:36:20]	[UserID:dev/jagustin]	[IP:10.128.80.223]	[Browser:Chrome - 65.0.3325.181]	[Action:GetProgramList dev/jagustin]	[Remarks:[{"ID":"1","ProgramIndex":"GST","ProgramName":"GST"},{"ID":"3","ProgramIndex":"PRD","ProgramName":"PRD"}]]
[Date: 2018-05-15 10:36:20]	[UserID:dev/jagustin]	[IP:10.128.80.223]	[Browser:Chrome - 65.0.3325.181]	[Action:Making connection to server]	[Remarks:Successful connection to server: S3]
[Date: 2018-05-15 10:36:20]	[UserID:dev/jagustin]	[IP:10.128.80.223]	[Browser:Chrome - 65.0.3325.181]	[Action:Filtering User : MasterData Username : dev/jagustin]	[Remarks:Successful filter row count: 1]
[Date: 2018-05-15 10:36:21]	[UserID:dev/jagustin]	[IP:10.128.80.223]	[Browser:Chrome - 65.0.3325.181]	[Action:Making connection to server]	[Remarks:Successful connection to server: S3]
[Date: 2018-05-15 10:36:21]	[UserID:dev/jagustin]	[IP:10.128.80.223]	[Browser:Chrome - 65.0.3325.181]	[Action:GetGSTModules dev/jagustin,1]	[Remarks:Successful filter row count: 9]
[Date: 2018-05-15 10:36:21]	[UserID:dev/jagustin]	[IP:10.128.80.223]	[Browser:Chrome - 65.0.3325.181]	[Action:Closing mssql connection]	[Remarks:Success]
[Date: 2018-05-15 10:36:56]	[UserID:dev/jagustin]	[IP:10.128.80.223]	[Browser:Chrome - 65.0.3325.181]	[Action:Making connection to server]	[Remarks:Successful connection to server: S3]
[Date: 2018-05-15 10:36:56]	[UserID:dev/jagustin]	[IP:10.128.80.223]	[Browser:Chrome - 65.0.3325.181]	[Action:GetProgramList dev/jagustin]	[Remarks:[{"ID":"1","ProgramIndex":"GST","ProgramName":"GST"},{"ID":"3","ProgramIndex":"PRD","ProgramName":"PRD"}]]
[Date: 2018-05-15 10:36:56]	[UserID:dev/jagustin]	[IP:10.128.80.223]	[Browser:Chrome - 65.0.3325.181]	[Action:Making connection to server]	[Remarks:Successful connection to server: S3]
[Date: 2018-05-15 10:36:56]	[UserID:dev/jagustin]	[IP:10.128.80.223]	[Browser:Chrome - 65.0.3325.181]	[Action:GetProgramList dev/jagustin]	[Remarks:[{"ID":"1","ProgramIndex":"GST","ProgramName":"GST"},{"ID":"3","ProgramIndex":"PRD","ProgramName":"PRD"}]]
[Date: 2018-05-15 10:36:56]	[UserID:dev/jagustin]	[IP:10.128.80.223]	[Browser:Chrome - 65.0.3325.181]	[Action:Making connection to server]	[Remarks:Successful connection to server: S3]
[Date: 2018-05-15 10:36:56]	[UserID:dev/jagustin]	[IP:10.128.80.223]	[Browser:Chrome - 65.0.3325.181]	[Action:Filtering User : MasterData Username : dev/jagustin]	[Remarks:Successful filter row count: 1]
[Date: 2018-05-15 10:36:58]	[UserID:dev/jagustin]	[IP:10.128.80.223]	[Browser:Chrome - 65.0.3325.181]	[Action:Making connection to server]	[Remarks:Successful connection to server: S3]
[Date: 2018-05-15 10:36:58]	[UserID:dev/jagustin]	[IP:10.128.80.223]	[Browser:Chrome - 65.0.3325.181]	[Action:GetGSTModules dev/jagustin,1]	[Remarks:Successful filter row count: 9]
[Date: 2018-05-15 10:36:58]	[UserID:dev/jagustin]	[IP:10.128.80.223]	[Browser:Chrome - 65.0.3325.181]	[Action:Closing mssql connection]	[Remarks:Success]
[Date: 2018-05-15 10:46:20]	[UserID:]	[IP:10.128.80.128]	[Browser:Safari - 10.1.1]	[Action:Making connection to server]	[Remarks:Successful connection to server: S3]
[Date: 2018-05-15 10:46:20]	[UserID:]	[IP:10.128.80.128]	[Browser:Safari - 10.1.1]	[Action:GetProgramList ]	[Remarks:"no data"]
[Date: 2018-05-15 10:46:25]	[UserID:reggie]	[IP:10.128.80.128]	[Browser:Safari - 10.1.1]	[Action:Making connection to server]	[Remarks:Successful connection to server: S3]
[Date: 2018-05-15 10:46:25]	[UserID:reggie]	[IP:10.128.80.128]	[Browser:Safari - 10.1.1]	[Action:User reggie]	[Remarks:Success]
[Date: 2018-05-15 10:46:25]	[UserID:reggie]	[IP:10.128.80.128]	[Browser:Safari - 10.1.1]	[Action:Filtering User : MasterData Username : reggie]	[Remarks:Successful filter row count: 0]
[Date: 2018-05-15 10:46:25]	[UserID:reggie]	[IP:10.128.80.128]	[Browser:Safari - 10.1.1]	[Action:Filtering User : MasterData Username : reggie]	[Remarks:Successful filter row count: 0]
[Date: 2018-05-15 10:46:25]	[UserID:reggie]	[IP:10.128.80.128]	[Browser:Safari - 10.1.1]	[Action:Filtering User : MasterData Username : reggie]	[Remarks:Success]
[Date: 2018-05-15 10:46:25]	[UserID:reggie]	[IP:10.128.80.128]	[Browser:Safari - 10.1.1]	[Action:Closing mssql connection]	[Remarks:Success]
[Date: 2018-05-15 10:46:26]	[UserID:reggie]	[IP:10.128.80.128]	[Browser:Safari - 10.1.1]	[Action:Making connection to server]	[Remarks:Successful connection to server: S3]
[Date: 2018-05-15 10:46:26]	[UserID:reggie]	[IP:10.128.80.128]	[Browser:Safari - 10.1.1]	[Action:GetProgramList reggie]	[Remarks:[{"ID":"1","ProgramIndex":"GST","ProgramName":"GST"},{"ID":"3","ProgramIndex":"PRD","ProgramName":"PRD"}]]
[Date: 2018-05-15 10:46:26]	[UserID:reggie]	[IP:10.128.80.128]	[Browser:Safari - 10.1.1]	[Action:Making connection to server]	[Remarks:Successful connection to server: S3]
[Date: 2018-05-15 10:46:26]	[UserID:reggie]	[IP:10.128.80.128]	[Browser:Safari - 10.1.1]	[Action:GetProgramList reggie]	[Remarks:[{"ID":"1","ProgramIndex":"GST","ProgramName":"GST"},{"ID":"3","ProgramIndex":"PRD","ProgramName":"PRD"}]]
[Date: 2018-05-15 10:46:26]	[UserID:reggie]	[IP:10.128.80.128]	[Browser:Safari - 10.1.1]	[Action:Making connection to server]	[Remarks:Successful connection to server: S3]
[Date: 2018-05-15 10:46:26]	[UserID:reggie]	[IP:10.128.80.128]	[Browser:Safari - 10.1.1]	[Action:Filtering User : MasterData Username : reggie]	[Remarks:Successful filter row count: 1]
[Date: 2018-05-15 10:46:28]	[UserID:reggie]	[IP:10.128.80.128]	[Browser:Safari - 10.1.1]	[Action:Making connection to server]	[Remarks:Successful connection to server: S3]
[Date: 2018-05-15 10:46:28]	[UserID:reggie]	[IP:10.128.80.128]	[Browser:Safari - 10.1.1]	[Action:GetGSTModules reggie,1]	[Remarks:Successful filter row count: 8]
[Date: 2018-05-15 10:46:28]	[UserID:reggie]	[IP:10.128.80.128]	[Browser:Safari - 10.1.1]	[Action:Closing mssql connection]	[Remarks:Success]
[Date: 2018-05-15 10:51:58]	[UserID:reggie]	[IP:10.128.80.128]	[Browser:Safari - 10.1.1]	[Action:Making connection to server]	[Remarks:Successful connection to server: S3]
[Date: 2018-05-15 10:51:58]	[UserID:reggie]	[IP:10.128.80.128]	[Browser:Safari - 10.1.1]	[Action:GetProgramList reggie]	[Remarks:[{"ID":"1","ProgramIndex":"GST","ProgramName":"GST"},{"ID":"3","ProgramIndex":"PRD","ProgramName":"PRD"}]]
[Date: 2018-05-15 10:51:58]	[UserID:reggie]	[IP:10.128.80.128]	[Browser:Safari - 10.1.1]	[Action:Making connection to server]	[Remarks:Successful connection to server: S3]
[Date: 2018-05-15 10:51:58]	[UserID:reggie]	[IP:10.128.80.128]	[Browser:Safari - 10.1.1]	[Action:GetProgramList reggie]	[Remarks:[{"ID":"1","ProgramIndex":"GST","ProgramName":"GST"},{"ID":"3","ProgramIndex":"PRD","ProgramName":"PRD"}]]
[Date: 2018-05-15 10:51:58]	[UserID:reggie]	[IP:10.128.80.128]	[Browser:Safari - 10.1.1]	[Action:Making connection to server]	[Remarks:Successful connection to server: S3]
[Date: 2018-05-15 10:51:58]	[UserID:reggie]	[IP:10.128.80.128]	[Browser:Safari - 10.1.1]	[Action:Filtering User : MasterData Username : reggie]	[Remarks:Successful filter row count: 1]
[Date: 2018-05-15 10:51:59]	[UserID:reggie]	[IP:10.128.80.128]	[Browser:Safari - 10.1.1]	[Action:Making connection to server]	[Remarks:Successful connection to server: S3]
[Date: 2018-05-15 10:51:59]	[UserID:reggie]	[IP:10.128.80.128]	[Browser:Safari - 10.1.1]	[Action:GetGSTModules reggie,1]	[Remarks:Successful filter row count: 9]
[Date: 2018-05-15 10:51:59]	[UserID:reggie]	[IP:10.128.80.128]	[Browser:Safari - 10.1.1]	[Action:Closing mssql connection]	[Remarks:Success]
[Date: 2018-05-15 11:01:37]	[UserID:dev/jagustin]	[IP:10.128.80.223]	[Browser:Chrome - 65.0.3325.181]	[Action:Making connection to server]	[Remarks:Successful connection to server: S3]
[Date: 2018-05-15 11:01:37]	[UserID:dev/jagustin]	[IP:10.128.80.223]	[Browser:Chrome - 65.0.3325.181]	[Action:GetGSTModules dev/jagustin,1]	[Remarks:Successful filter row count: 9]
[Date: 2018-05-15 11:01:37]	[UserID:dev/jagustin]	[IP:10.128.80.223]	[Browser:Chrome - 65.0.3325.181]	[Action:Closing mssql connection]	[Remarks:Success]
[Date: 2018-05-15 11:07:34]	[UserID:dev/jagustin]	[IP:10.128.80.223]	[Browser:Chrome - 65.0.3325.181]	[Action:Making connection to server]	[Remarks:Successful connection to server: S3]
[Date: 2018-05-15 11:07:34]	[UserID:dev/jagustin]	[IP:10.128.80.223]	[Browser:Chrome - 65.0.3325.181]	[Action:GetGSTModules dev/jagustin,1]	[Remarks:Successful filter row count: 9]
[Date: 2018-05-15 11:07:34]	[UserID:dev/jagustin]	[IP:10.128.80.223]	[Browser:Chrome - 65.0.3325.181]	[Action:Closing mssql connection]	[Remarks:Success]
[Date: 2018-05-15 11:09:54]	[UserID:]	[IP:10.128.80.1]	[Browser:Chrome - 66.0.3359.139]	[Action:Making connection to server]	[Remarks:Successful connection to server: S3]
[Date: 2018-05-15 11:09:55]	[UserID:]	[IP:10.128.80.1]	[Browser:Chrome - 66.0.3359.139]	[Action:GetProgramList ]	[Remarks:"no data"]
[Date: 2018-05-15 11:10:38]	[UserID:05/300]	[IP:10.128.80.1]	[Browser:Chrome - 66.0.3359.139]	[Action:Making connection to server]	[Remarks:Successful connection to server: S3]
[Date: 2018-05-15 11:10:38]	[UserID:05/300]	[IP:10.128.80.1]	[Browser:Chrome - 66.0.3359.139]	[Action:User 05/300]	[Remarks:Success]
[Date: 2018-05-15 11:10:38]	[UserID:05/300]	[IP:10.128.80.1]	[Browser:Chrome - 66.0.3359.139]	[Action:Filtering User : MasterData Username : 05/300]	[Remarks:Successful filter row count: 0]
[Date: 2018-05-15 11:10:38]	[UserID:05/300]	[IP:10.128.80.1]	[Browser:Chrome - 66.0.3359.139]	[Action:Filtering User : MasterData Username : 05/300]	[Remarks:Successful filter row count: 0]
[Date: 2018-05-15 11:10:38]	[UserID:05/300]	[IP:10.128.80.1]	[Browser:Chrome - 66.0.3359.139]	[Action:Filtering User : MasterData Username : 05/300]	[Remarks:Success]
[Date: 2018-05-15 11:10:38]	[UserID:05/300]	[IP:10.128.80.1]	[Browser:Chrome - 66.0.3359.139]	[Action:Closing mssql connection]	[Remarks:Success]
[Date: 2018-05-15 11:10:38]	[UserID:05/300]	[IP:10.128.80.1]	[Browser:Chrome - 66.0.3359.139]	[Action:Making connection to server]	[Remarks:Successful connection to server: S3]
[Date: 2018-05-15 11:10:38]	[UserID:05/300]	[IP:10.128.80.1]	[Browser:Chrome - 66.0.3359.139]	[Action:GetProgramList 05/300]	[Remarks:[{"ID":"1","ProgramIndex":"GST","ProgramName":"GST"}]]
[Date: 2018-05-15 11:10:38]	[UserID:05/300]	[IP:10.128.80.1]	[Browser:Chrome - 66.0.3359.139]	[Action:Making connection to server]	[Remarks:Successful connection to server: S3]
[Date: 2018-05-15 11:10:38]	[UserID:05/300]	[IP:10.128.80.1]	[Browser:Chrome - 66.0.3359.139]	[Action:GetProgramList 05/300]	[Remarks:[{"ID":"1","ProgramIndex":"GST","ProgramName":"GST"}]]
[Date: 2018-05-15 11:10:38]	[UserID:05/300]	[IP:10.128.80.1]	[Browser:Chrome - 66.0.3359.139]	[Action:Making connection to server]	[Remarks:Successful connection to server: S3]
[Date: 2018-05-15 11:10:38]	[UserID:05/300]	[IP:10.128.80.1]	[Browser:Chrome - 66.0.3359.139]	[Action:Filtering User : MasterData Username : 05/300]	[Remarks:Successful filter row count: 1]
[Date: 2018-05-15 11:10:38]	[UserID:05/300]	[IP:10.128.80.1]	[Browser:Chrome - 66.0.3359.139]	[Action:Making connection to server]	[Remarks:Successful connection to server: S3]
[Date: 2018-05-15 11:10:38]	[UserID:05/300]	[IP:10.128.80.1]	[Browser:Chrome - 66.0.3359.139]	[Action:GetGSTModules 05/300,1]	[Remarks:Successful filter row count: 1]
[Date: 2018-05-15 11:10:38]	[UserID:05/300]	[IP:10.128.80.1]	[Browser:Chrome - 66.0.3359.139]	[Action:Closing mssql connection]	[Remarks:Success]
[Date: 2018-05-15 11:11:04]	[UserID:05/300]	[IP:10.128.80.1]	[Browser:Chrome - 66.0.3359.139]	[Action:Making connection to server]	[Remarks:Successful connection to server: S3]
[Date: 2018-05-15 11:11:04]	[UserID:05/300]	[IP:10.128.80.1]	[Browser:Chrome - 66.0.3359.139]	[Action:GetProgramList 05/300]	[Remarks:[{"ID":"1","ProgramIndex":"GST","ProgramName":"GST"}]]
[Date: 2018-05-15 11:11:04]	[UserID:05/300]	[IP:10.128.80.1]	[Browser:Chrome - 66.0.3359.139]	[Action:Making connection to server]	[Remarks:Successful connection to server: S3]
[Date: 2018-05-15 11:11:04]	[UserID:05/300]	[IP:10.128.80.1]	[Browser:Chrome - 66.0.3359.139]	[Action:GetProgramList 05/300]	[Remarks:[{"ID":"1","ProgramIndex":"GST","ProgramName":"GST"}]]
[Date: 2018-05-15 11:11:04]	[UserID:05/300]	[IP:10.128.80.1]	[Browser:Chrome - 66.0.3359.139]	[Action:Making connection to server]	[Remarks:Successful connection to server: S3]
[Date: 2018-05-15 11:11:04]	[UserID:05/300]	[IP:10.128.80.1]	[Browser:Chrome - 66.0.3359.139]	[Action:Filtering User : MasterData Username : 05/300]	[Remarks:Successful filter row count: 1]
[Date: 2018-05-15 11:11:05]	[UserID:05/300]	[IP:10.128.80.1]	[Browser:Chrome - 66.0.3359.139]	[Action:Making connection to server]	[Remarks:Successful connection to server: S3]
[Date: 2018-05-15 11:11:05]	[UserID:05/300]	[IP:10.128.80.1]	[Browser:Chrome - 66.0.3359.139]	[Action:GetGSTModules 05/300,1]	[Remarks:Successful filter row count: 1]
[Date: 2018-05-15 11:11:05]	[UserID:05/300]	[IP:10.128.80.1]	[Browser:Chrome - 66.0.3359.139]	[Action:Closing mssql connection]	[Remarks:Success]
[Date: 2018-05-15 11:17:48]	[UserID:06/343]	[IP:10.128.12.113]	[Browser:Chrome - 66.0.3359.139]	[Action:Making connection to server]	[Remarks:Successful connection to server: S3]
[Date: 2018-05-15 11:17:48]	[UserID:06/343]	[IP:10.128.12.113]	[Browser:Chrome - 66.0.3359.139]	[Action:GetProgramList 06/343]	[Remarks:[{"ID":"1","ProgramIndex":"GST","ProgramName":"GST"}]]
[Date: 2018-05-15 11:17:48]	[UserID:06/343]	[IP:10.128.12.113]	[Browser:Chrome - 66.0.3359.139]	[Action:Making connection to server]	[Remarks:Successful connection to server: S3]
[Date: 2018-05-15 11:17:48]	[UserID:06/343]	[IP:10.128.12.113]	[Browser:Chrome - 66.0.3359.139]	[Action:GetProgramList 06/343]	[Remarks:[{"ID":"1","ProgramIndex":"GST","ProgramName":"GST"}]]
[Date: 2018-05-15 11:17:48]	[UserID:06/343]	[IP:10.128.12.113]	[Browser:Chrome - 66.0.3359.139]	[Action:Making connection to server]	[Remarks:Successful connection to server: S3]
[Date: 2018-05-15 11:17:48]	[UserID:06/343]	[IP:10.128.12.113]	[Browser:Chrome - 66.0.3359.139]	[Action:Filtering User : MasterData Username : 06/343]	[Remarks:Successful filter row count: 1]
[Date: 2018-05-15 11:17:48]	[UserID:06/343]	[IP:10.128.12.113]	[Browser:Chrome - 66.0.3359.139]	[Action:Making connection to server]	[Remarks:Successful connection to server: S3]
[Date: 2018-05-15 11:17:48]	[UserID:06/343]	[IP:10.128.12.113]	[Browser:Chrome - 66.0.3359.139]	[Action:GetGSTModules 06/343,1]	[Remarks:Successful filter row count: 5]
[Date: 2018-05-15 11:17:48]	[UserID:06/343]	[IP:10.128.12.113]	[Browser:Chrome - 66.0.3359.139]	[Action:Closing mssql connection]	[Remarks:Success]
[Date: 2018-05-15 11:18:43]	[UserID:reggie]	[IP:10.128.80.128]	[Browser:Safari - 10.1.1]	[Action:Making connection to server]	[Remarks:Successful connection to server: S3]
[Date: 2018-05-15 11:18:43]	[UserID:reggie]	[IP:10.128.80.128]	[Browser:Safari - 10.1.1]	[Action:GetGSTModules reggie,1]	[Remarks:Successful filter row count: 9]
[Date: 2018-05-15 11:18:43]	[UserID:reggie]	[IP:10.128.80.128]	[Browser:Safari - 10.1.1]	[Action:Closing mssql connection]	[Remarks:Success]
[Date: 2018-05-15 11:20:11]	[UserID:06/343]	[IP:10.128.12.113]	[Browser:Chrome - 66.0.3359.139]	[Action:Making connection to server]	[Remarks:Successful connection to server: S3]
[Date: 2018-05-15 11:20:11]	[UserID:06/343]	[IP:10.128.12.113]	[Browser:Chrome - 66.0.3359.139]	[Action:GetGSTModules 06/343,1]	[Remarks:Successful filter row count: 5]
[Date: 2018-05-15 11:20:11]	[UserID:06/343]	[IP:10.128.12.113]	[Browser:Chrome - 66.0.3359.139]	[Action:Closing mssql connection]	[Remarks:Success]
[Date: 2018-05-15 11:23:49]	[UserID:06/343]	[IP:10.128.12.113]	[Browser:Chrome - 66.0.3359.139]	[Action:Making connection to server]	[Remarks:Successful connection to server: S3]
[Date: 2018-05-15 11:23:49]	[UserID:06/343]	[IP:10.128.12.113]	[Browser:Chrome - 66.0.3359.139]	[Action:GetGSTModules 06/343,1]	[Remarks:Successful filter row count: 5]
[Date: 2018-05-15 11:23:49]	[UserID:06/343]	[IP:10.128.12.113]	[Browser:Chrome - 66.0.3359.139]	[Action:Closing mssql connection]	[Remarks:Success]
[Date: 2018-05-15 11:27:25]	[UserID:dev/jagustin]	[IP:10.128.80.223]	[Browser:Chrome - 65.0.3325.181]	[Action:Making connection to server]	[Remarks:Successful connection to server: S3]
[Date: 2018-05-15 11:27:25]	[UserID:dev/jagustin]	[IP:10.128.80.223]	[Browser:Chrome - 65.0.3325.181]	[Action:GetGSTModules dev/jagustin,1]	[Remarks:Successful filter row count: 9]
[Date: 2018-05-15 11:27:25]	[UserID:dev/jagustin]	[IP:10.128.80.223]	[Browser:Chrome - 65.0.3325.181]	[Action:Closing mssql connection]	[Remarks:Success]
[Date: 2018-05-15 11:31:47]	[UserID:dev/jagustin]	[IP:10.128.80.223]	[Browser:Chrome - 65.0.3325.181]	[Action:Making connection to server]	[Remarks:Successful connection to server: S3]
[Date: 2018-05-15 11:31:47]	[UserID:dev/jagustin]	[IP:10.128.80.223]	[Browser:Chrome - 65.0.3325.181]	[Action:GetGSTModules dev/jagustin,1]	[Remarks:Successful filter row count: 9]
[Date: 2018-05-15 11:31:47]	[UserID:dev/jagustin]	[IP:10.128.80.223]	[Browser:Chrome - 65.0.3325.181]	[Action:Closing mssql connection]	[Remarks:Success]
[Date: 2018-05-15 11:36:49]	[UserID:dev/jagustin]	[IP:10.128.80.223]	[Browser:Chrome - 65.0.3325.181]	[Action:Making connection to server]	[Remarks:Successful connection to server: S3]
[Date: 2018-05-15 11:36:49]	[UserID:dev/jagustin]	[IP:10.128.80.223]	[Browser:Chrome - 65.0.3325.181]	[Action:GetProgramList dev/jagustin]	[Remarks:[{"ID":"1","ProgramIndex":"GST","ProgramName":"GST"},{"ID":"3","ProgramIndex":"PRD","ProgramName":"PRD"}]]
[Date: 2018-05-15 11:36:49]	[UserID:dev/jagustin]	[IP:10.128.80.223]	[Browser:Chrome - 65.0.3325.181]	[Action:Making connection to server]	[Remarks:Successful connection to server: S3]
[Date: 2018-05-15 11:36:49]	[UserID:dev/jagustin]	[IP:10.128.80.223]	[Browser:Chrome - 65.0.3325.181]	[Action:GetProgramList dev/jagustin]	[Remarks:[{"ID":"1","ProgramIndex":"GST","ProgramName":"GST"},{"ID":"3","ProgramIndex":"PRD","ProgramName":"PRD"}]]
[Date: 2018-05-15 11:36:49]	[UserID:dev/jagustin]	[IP:10.128.80.223]	[Browser:Chrome - 65.0.3325.181]	[Action:Making connection to server]	[Remarks:Successful connection to server: S3]
[Date: 2018-05-15 11:36:49]	[UserID:dev/jagustin]	[IP:10.128.80.223]	[Browser:Chrome - 65.0.3325.181]	[Action:Filtering User : MasterData Username : dev/jagustin]	[Remarks:Successful filter row count: 1]
[Date: 2018-05-15 11:36:49]	[UserID:dev/jagustin]	[IP:10.128.80.223]	[Browser:Chrome - 65.0.3325.181]	[Action:Making connection to server]	[Remarks:Successful connection to server: S3]
[Date: 2018-05-15 11:36:49]	[UserID:dev/jagustin]	[IP:10.128.80.223]	[Browser:Chrome - 65.0.3325.181]	[Action:GetProgramList dev/jagustin]	[Remarks:[{"ID":"1","ProgramIndex":"GST","ProgramName":"GST"},{"ID":"3","ProgramIndex":"PRD","ProgramName":"PRD"}]]
[Date: 2018-05-15 11:36:49]	[UserID:dev/jagustin]	[IP:10.128.80.223]	[Browser:Chrome - 65.0.3325.181]	[Action:Making connection to server]	[Remarks:Successful connection to server: S3]
[Date: 2018-05-15 11:36:49]	[UserID:dev/jagustin]	[IP:10.128.80.223]	[Browser:Chrome - 65.0.3325.181]	[Action:GetProgramList dev/jagustin]	[Remarks:[{"ID":"1","ProgramIndex":"GST","ProgramName":"GST"},{"ID":"3","ProgramIndex":"PRD","ProgramName":"PRD"}]]
[Date: 2018-05-15 11:36:49]	[UserID:dev/jagustin]	[IP:10.128.80.223]	[Browser:Chrome - 65.0.3325.181]	[Action:Making connection to server]	[Remarks:Successful connection to server: S3]
[Date: 2018-05-15 11:36:49]	[UserID:dev/jagustin]	[IP:10.128.80.223]	[Browser:Chrome - 65.0.3325.181]	[Action:Filtering User : MasterData Username : dev/jagustin]	[Remarks:Successful filter row count: 1]
[Date: 2018-05-15 11:36:51]	[UserID:dev/jagustin]	[IP:10.128.80.223]	[Browser:Chrome - 65.0.3325.181]	[Action:Making connection to server]	[Remarks:Successful connection to server: S3]
[Date: 2018-05-15 11:36:51]	[UserID:dev/jagustin]	[IP:10.128.80.223]	[Browser:Chrome - 65.0.3325.181]	[Action:GetGSTModules dev/jagustin,1]	[Remarks:Successful filter row count: 9]
[Date: 2018-05-15 11:36:51]	[UserID:dev/jagustin]	[IP:10.128.80.223]	[Browser:Chrome - 65.0.3325.181]	[Action:Closing mssql connection]	[Remarks:Success]
[Date: 2018-05-15 11:39:27]	[UserID:dev/jagustin]	[IP:10.128.80.223]	[Browser:Chrome - 65.0.3325.181]	[Action:Making connection to server]	[Remarks:Successful connection to server: S3]
[Date: 2018-05-15 11:39:27]	[UserID:dev/jagustin]	[IP:10.128.80.223]	[Browser:Chrome - 65.0.3325.181]	[Action:GetProgramList dev/jagustin]	[Remarks:[{"ID":"1","ProgramIndex":"GST","ProgramName":"GST"},{"ID":"3","ProgramIndex":"PRD","ProgramName":"PRD"}]]
[Date: 2018-05-15 11:39:27]	[UserID:dev/jagustin]	[IP:10.128.80.223]	[Browser:Chrome - 65.0.3325.181]	[Action:Making connection to server]	[Remarks:Successful connection to server: S3]
[Date: 2018-05-15 11:39:28]	[UserID:dev/jagustin]	[IP:10.128.80.223]	[Browser:Chrome - 65.0.3325.181]	[Action:GetProgramList dev/jagustin]	[Remarks:[{"ID":"1","ProgramIndex":"GST","ProgramName":"GST"},{"ID":"3","ProgramIndex":"PRD","ProgramName":"PRD"}]]
[Date: 2018-05-15 11:39:28]	[UserID:dev/jagustin]	[IP:10.128.80.223]	[Browser:Chrome - 65.0.3325.181]	[Action:Making connection to server]	[Remarks:Successful connection to server: S3]
[Date: 2018-05-15 11:39:28]	[UserID:dev/jagustin]	[IP:10.128.80.223]	[Browser:Chrome - 65.0.3325.181]	[Action:Filtering User : MasterData Username : dev/jagustin]	[Remarks:Successful filter row count: 1]
[Date: 2018-05-15 11:39:28]	[UserID:dev/jagustin]	[IP:10.128.80.223]	[Browser:Chrome - 65.0.3325.181]	[Action:Making connection to server]	[Remarks:Successful connection to server: S3]
[Date: 2018-05-15 11:39:28]	[UserID:dev/jagustin]	[IP:10.128.80.223]	[Browser:Chrome - 65.0.3325.181]	[Action:GetProgramList dev/jagustin]	[Remarks:[{"ID":"1","ProgramIndex":"GST","ProgramName":"GST"},{"ID":"3","ProgramIndex":"PRD","ProgramName":"PRD"}]]
[Date: 2018-05-15 11:39:28]	[UserID:dev/jagustin]	[IP:10.128.80.223]	[Browser:Chrome - 65.0.3325.181]	[Action:Making connection to server]	[Remarks:Successful connection to server: S3]
[Date: 2018-05-15 11:39:28]	[UserID:dev/jagustin]	[IP:10.128.80.223]	[Browser:Chrome - 65.0.3325.181]	[Action:GetProgramList dev/jagustin]	[Remarks:[{"ID":"1","ProgramIndex":"GST","ProgramName":"GST"},{"ID":"3","ProgramIndex":"PRD","ProgramName":"PRD"}]]
[Date: 2018-05-15 11:39:28]	[UserID:dev/jagustin]	[IP:10.128.80.223]	[Browser:Chrome - 65.0.3325.181]	[Action:Making connection to server]	[Remarks:Successful connection to server: S3]
[Date: 2018-05-15 11:39:28]	[UserID:dev/jagustin]	[IP:10.128.80.223]	[Browser:Chrome - 65.0.3325.181]	[Action:Filtering User : MasterData Username : dev/jagustin]	[Remarks:Successful filter row count: 1]
[Date: 2018-05-15 11:39:28]	[UserID:dev/jagustin]	[IP:10.128.80.223]	[Browser:Chrome - 65.0.3325.181]	[Action:Making connection to server]	[Remarks:Successful connection to server: S3]
[Date: 2018-05-15 11:39:28]	[UserID:dev/jagustin]	[IP:10.128.80.223]	[Browser:Chrome - 65.0.3325.181]	[Action:GetProgramList dev/jagustin]	[Remarks:[{"ID":"1","ProgramIndex":"GST","ProgramName":"GST"},{"ID":"3","ProgramIndex":"PRD","ProgramName":"PRD"}]]
[Date: 2018-05-15 11:39:28]	[UserID:dev/jagustin]	[IP:10.128.80.223]	[Browser:Chrome - 65.0.3325.181]	[Action:Making connection to server]	[Remarks:Successful connection to server: S3]
[Date: 2018-05-15 11:39:28]	[UserID:dev/jagustin]	[IP:10.128.80.223]	[Browser:Chrome - 65.0.3325.181]	[Action:GetProgramList dev/jagustin]	[Remarks:[{"ID":"1","ProgramIndex":"GST","ProgramName":"GST"},{"ID":"3","ProgramIndex":"PRD","ProgramName":"PRD"}]]
[Date: 2018-05-15 11:39:28]	[UserID:dev/jagustin]	[IP:10.128.80.223]	[Browser:Chrome - 65.0.3325.181]	[Action:Making connection to server]	[Remarks:Successful connection to server: S3]
[Date: 2018-05-15 11:39:28]	[UserID:dev/jagustin]	[IP:10.128.80.223]	[Browser:Chrome - 65.0.3325.181]	[Action:Filtering User : MasterData Username : dev/jagustin]	[Remarks:Successful filter row count: 1]
[Date: 2018-05-15 11:39:28]	[UserID:dev/jagustin]	[IP:10.128.80.223]	[Browser:Chrome - 65.0.3325.181]	[Action:Making connection to server]	[Remarks:Successful connection to server: S3]
[Date: 2018-05-15 11:39:28]	[UserID:dev/jagustin]	[IP:10.128.80.223]	[Browser:Chrome - 65.0.3325.181]	[Action:GetProgramList dev/jagustin]	[Remarks:[{"ID":"1","ProgramIndex":"GST","ProgramName":"GST"},{"ID":"3","ProgramIndex":"PRD","ProgramName":"PRD"}]]
[Date: 2018-05-15 11:39:29]	[UserID:dev/jagustin]	[IP:10.128.80.223]	[Browser:Chrome - 65.0.3325.181]	[Action:Making connection to server]	[Remarks:Successful connection to server: S3]
[Date: 2018-05-15 11:39:29]	[UserID:dev/jagustin]	[IP:10.128.80.223]	[Browser:Chrome - 65.0.3325.181]	[Action:GetProgramList dev/jagustin]	[Remarks:[{"ID":"1","ProgramIndex":"GST","ProgramName":"GST"},{"ID":"3","ProgramIndex":"PRD","ProgramName":"PRD"}]]
[Date: 2018-05-15 11:39:29]	[UserID:dev/jagustin]	[IP:10.128.80.223]	[Browser:Chrome - 65.0.3325.181]	[Action:Making connection to server]	[Remarks:Successful connection to server: S3]
[Date: 2018-05-15 11:39:29]	[UserID:dev/jagustin]	[IP:10.128.80.223]	[Browser:Chrome - 65.0.3325.181]	[Action:Filtering User : MasterData Username : dev/jagustin]	[Remarks:Successful filter row count: 1]
[Date: 2018-05-15 11:39:30]	[UserID:dev/jagustin]	[IP:10.128.80.223]	[Browser:Chrome - 65.0.3325.181]	[Action:Making connection to server]	[Remarks:Successful connection to server: S3]
[Date: 2018-05-15 11:39:30]	[UserID:dev/jagustin]	[IP:10.128.80.223]	[Browser:Chrome - 65.0.3325.181]	[Action:GetProgramList dev/jagustin]	[Remarks:[{"ID":"1","ProgramIndex":"GST","ProgramName":"GST"},{"ID":"3","ProgramIndex":"PRD","ProgramName":"PRD"}]]
[Date: 2018-05-15 11:39:30]	[UserID:dev/jagustin]	[IP:10.128.80.223]	[Browser:Chrome - 65.0.3325.181]	[Action:Making connection to server]	[Remarks:Successful connection to server: S3]
[Date: 2018-05-15 11:39:30]	[UserID:dev/jagustin]	[IP:10.128.80.223]	[Browser:Chrome - 65.0.3325.181]	[Action:GetProgramList dev/jagustin]	[Remarks:[{"ID":"1","ProgramIndex":"GST","ProgramName":"GST"},{"ID":"3","ProgramIndex":"PRD","ProgramName":"PRD"}]]
[Date: 2018-05-15 11:39:30]	[UserID:dev/jagustin]	[IP:10.128.80.223]	[Browser:Chrome - 65.0.3325.181]	[Action:Making connection to server]	[Remarks:Successful connection to server: S3]
[Date: 2018-05-15 11:39:30]	[UserID:dev/jagustin]	[IP:10.128.80.223]	[Browser:Chrome - 65.0.3325.181]	[Action:Filtering User : MasterData Username : dev/jagustin]	[Remarks:Successful filter row count: 1]
[Date: 2018-05-15 11:39:35]	[UserID:dev/jagustin]	[IP:10.128.80.223]	[Browser:Chrome - 65.0.3325.181]	[Action:Making connection to server]	[Remarks:Successful connection to server: S3]
[Date: 2018-05-15 11:39:35]	[UserID:dev/jagustin]	[IP:10.128.80.223]	[Browser:Chrome - 65.0.3325.181]	[Action:GetGSTModules dev/jagustin,1]	[Remarks:Successful filter row count: 9]
[Date: 2018-05-15 11:39:35]	[UserID:dev/jagustin]	[IP:10.128.80.223]	[Browser:Chrome - 65.0.3325.181]	[Action:Closing mssql connection]	[Remarks:Success]
[Date: 2018-05-15 11:58:37]	[UserID:reggie]	[IP:10.128.80.128]	[Browser:Safari - 10.1.1]	[Action:Making connection to server]	[Remarks:Successful connection to server: S3]
[Date: 2018-05-15 11:58:37]	[UserID:reggie]	[IP:10.128.80.128]	[Browser:Safari - 10.1.1]	[Action:GetGSTModules reggie,1]	[Remarks:Successful filter row count: 9]
[Date: 2018-05-15 11:58:37]	[UserID:reggie]	[IP:10.128.80.128]	[Browser:Safari - 10.1.1]	[Action:Closing mssql connection]	[Remarks:Success]
[Date: 2018-05-15 15:36:20]	[UserID:]	[IP:10.139.5.108]	[Browser:Chrome - 66.0.3359.139]	[Action:Making connection to server]	[Remarks:Successful connection to server: S3]
[Date: 2018-05-15 15:36:20]	[UserID:]	[IP:10.139.5.108]	[Browser:Chrome - 66.0.3359.139]	[Action:GetProgramList ]	[Remarks:"no data"]
[Date: 2018-05-15 15:36:30]	[UserID:dev/bgregorio]	[IP:10.139.5.108]	[Browser:Chrome - 66.0.3359.139]	[Action:Making connection to server]	[Remarks:Successful connection to server: S3]
[Date: 2018-05-15 15:36:30]	[UserID:dev/bgregorio]	[IP:10.139.5.108]	[Browser:Chrome - 66.0.3359.139]	[Action:User dev/bgregorio]	[Remarks:Success]
[Date: 2018-05-15 15:36:30]	[UserID:dev/bgregorio]	[IP:10.139.5.108]	[Browser:Chrome - 66.0.3359.139]	[Action:Filtering User : MasterData Username : dev/bgregorio]	[Remarks:Successful filter row count: 0]
[Date: 2018-05-15 15:36:30]	[UserID:dev/bgregorio]	[IP:10.139.5.108]	[Browser:Chrome - 66.0.3359.139]	[Action:Filtering User : MasterData Username : dev/bgregorio]	[Remarks:Successful filter row count: 0]
[Date: 2018-05-15 15:36:30]	[UserID:dev/bgregorio]	[IP:10.139.5.108]	[Browser:Chrome - 66.0.3359.139]	[Action:Filtering User : MasterData Username : dev/bgregorio]	[Remarks:Success]
[Date: 2018-05-15 15:36:30]	[UserID:dev/bgregorio]	[IP:10.139.5.108]	[Browser:Chrome - 66.0.3359.139]	[Action:Closing mssql connection]	[Remarks:Success]
[Date: 2018-05-15 15:36:30]	[UserID:dev/bgregorio]	[IP:10.139.5.108]	[Browser:Chrome - 66.0.3359.139]	[Action:Making connection to server]	[Remarks:Successful connection to server: S3]
[Date: 2018-05-15 15:36:30]	[UserID:dev/bgregorio]	[IP:10.139.5.108]	[Browser:Chrome - 66.0.3359.139]	[Action:GetProgramList dev/bgregorio]	[Remarks:[{"ID":"1","ProgramIndex":"GST","ProgramName":"GST"}]]
[Date: 2018-05-15 15:36:30]	[UserID:dev/bgregorio]	[IP:10.139.5.108]	[Browser:Chrome - 66.0.3359.139]	[Action:Making connection to server]	[Remarks:Successful connection to server: S3]
[Date: 2018-05-15 15:36:30]	[UserID:dev/bgregorio]	[IP:10.139.5.108]	[Browser:Chrome - 66.0.3359.139]	[Action:GetProgramList dev/bgregorio]	[Remarks:[{"ID":"1","ProgramIndex":"GST","ProgramName":"GST"}]]
[Date: 2018-05-15 15:36:30]	[UserID:dev/bgregorio]	[IP:10.139.5.108]	[Browser:Chrome - 66.0.3359.139]	[Action:Making connection to server]	[Remarks:Successful connection to server: S3]
[Date: 2018-05-15 15:36:30]	[UserID:dev/bgregorio]	[IP:10.139.5.108]	[Browser:Chrome - 66.0.3359.139]	[Action:Filtering User : MasterData Username : dev/bgregorio]	[Remarks:Successful filter row count: 1]
[Date: 2018-05-15 15:36:31]	[UserID:dev/bgregorio]	[IP:10.139.5.108]	[Browser:Chrome - 66.0.3359.139]	[Action:Making connection to server]	[Remarks:Successful connection to server: S3]
[Date: 2018-05-15 15:36:31]	[UserID:dev/bgregorio]	[IP:10.139.5.108]	[Browser:Chrome - 66.0.3359.139]	[Action:GetGSTModules dev/bgregorio,1]	[Remarks:Successful filter row count: 8]
[Date: 2018-05-15 15:36:31]	[UserID:dev/bgregorio]	[IP:10.139.5.108]	[Browser:Chrome - 66.0.3359.139]	[Action:Closing mssql connection]	[Remarks:Success]
[Date: 2018-05-15 15:52:19]	[UserID:dev/jagustin]	[IP:10.128.80.223]	[Browser:Chrome - 65.0.3325.181]	[Action:Making connection to server]	[Remarks:Successful connection to server: S3]
[Date: 2018-05-15 15:52:19]	[UserID:dev/jagustin]	[IP:10.128.80.223]	[Browser:Chrome - 65.0.3325.181]	[Action:GetGSTModules dev/jagustin,1]	[Remarks:Successful filter row count: 9]
[Date: 2018-05-15 15:52:19]	[UserID:dev/jagustin]	[IP:10.128.80.223]	[Browser:Chrome - 65.0.3325.181]	[Action:Closing mssql connection]	[Remarks:Success]
[Date: 2018-05-15 15:54:35]	[UserID:dev/jagustin]	[IP:10.128.80.223]	[Browser:Chrome - 65.0.3325.181]	[Action:Making connection to server]	[Remarks:Successful connection to server: S3]
[Date: 2018-05-15 15:54:35]	[UserID:dev/jagustin]	[IP:10.128.80.223]	[Browser:Chrome - 65.0.3325.181]	[Action:GetGSTModules dev/jagustin,1]	[Remarks:Successful filter row count: 9]
[Date: 2018-05-15 15:54:35]	[UserID:dev/jagustin]	[IP:10.128.80.223]	[Browser:Chrome - 65.0.3325.181]	[Action:Closing mssql connection]	[Remarks:Success]
[Date: 2018-05-15 15:59:33]	[UserID:dev/jagustin]	[IP:10.128.80.223]	[Browser:Chrome - 65.0.3325.181]	[Action:Making connection to server]	[Remarks:Successful connection to server: S3]
[Date: 2018-05-15 15:59:33]	[UserID:dev/jagustin]	[IP:10.128.80.223]	[Browser:Chrome - 65.0.3325.181]	[Action:GetGSTModules dev/jagustin,1]	[Remarks:Successful filter row count: 9]
[Date: 2018-05-15 15:59:33]	[UserID:dev/jagustin]	[IP:10.128.80.223]	[Browser:Chrome - 65.0.3325.181]	[Action:Closing mssql connection]	[Remarks:Success]
[Date: 2018-05-15 16:05:45]	[UserID:]	[IP:10.128.80.128]	[Browser:Safari - 10.1.1]	[Action:Making connection to server]	[Remarks:Successful connection to server: S3]
[Date: 2018-05-15 16:05:45]	[UserID:]	[IP:10.128.80.128]	[Browser:Safari - 10.1.1]	[Action:GetProgramList ]	[Remarks:"no data"]
[Date: 2018-05-15 16:06:06]	[UserID:reggie]	[IP:10.128.80.128]	[Browser:Safari - 10.1.1]	[Action:Making connection to server]	[Remarks:Successful connection to server: S3]
[Date: 2018-05-15 16:06:06]	[UserID:reggie]	[IP:10.128.80.128]	[Browser:Safari - 10.1.1]	[Action:User reggie]	[Remarks:Success]
[Date: 2018-05-15 16:06:06]	[UserID:reggie]	[IP:10.128.80.128]	[Browser:Safari - 10.1.1]	[Action:Filtering User : MasterData Username : reggie]	[Remarks:Successful filter row count: 0]
[Date: 2018-05-15 16:06:06]	[UserID:reggie]	[IP:10.128.80.128]	[Browser:Safari - 10.1.1]	[Action:Filtering User : MasterData Username : reggie]	[Remarks:Successful filter row count: 0]
[Date: 2018-05-15 16:06:06]	[UserID:reggie]	[IP:10.128.80.128]	[Browser:Safari - 10.1.1]	[Action:Filtering User : MasterData Username : reggie]	[Remarks:Success]
[Date: 2018-05-15 16:06:06]	[UserID:reggie]	[IP:10.128.80.128]	[Browser:Safari - 10.1.1]	[Action:Closing mssql connection]	[Remarks:Success]
[Date: 2018-05-15 16:06:08]	[UserID:reggie]	[IP:10.128.80.128]	[Browser:Safari - 10.1.1]	[Action:Making connection to server]	[Remarks:Successful connection to server: S3]
[Date: 2018-05-15 16:06:08]	[UserID:reggie]	[IP:10.128.80.128]	[Browser:Safari - 10.1.1]	[Action:GetProgramList reggie]	[Remarks:[{"ID":"1","ProgramIndex":"GST","ProgramName":"GST"},{"ID":"3","ProgramIndex":"PRD","ProgramName":"PRD"}]]
[Date: 2018-05-15 16:06:08]	[UserID:reggie]	[IP:10.128.80.128]	[Browser:Safari - 10.1.1]	[Action:Making connection to server]	[Remarks:Successful connection to server: S3]
[Date: 2018-05-15 16:06:08]	[UserID:reggie]	[IP:10.128.80.128]	[Browser:Safari - 10.1.1]	[Action:GetProgramList reggie]	[Remarks:[{"ID":"1","ProgramIndex":"GST","ProgramName":"GST"},{"ID":"3","ProgramIndex":"PRD","ProgramName":"PRD"}]]
[Date: 2018-05-15 16:06:08]	[UserID:reggie]	[IP:10.128.80.128]	[Browser:Safari - 10.1.1]	[Action:Making connection to server]	[Remarks:Successful connection to server: S3]
[Date: 2018-05-15 16:06:08]	[UserID:reggie]	[IP:10.128.80.128]	[Browser:Safari - 10.1.1]	[Action:Filtering User : MasterData Username : reggie]	[Remarks:Successful filter row count: 1]
[Date: 2018-05-15 16:06:09]	[UserID:reggie]	[IP:10.128.80.128]	[Browser:Safari - 10.1.1]	[Action:Making connection to server]	[Remarks:Successful connection to server: S3]
[Date: 2018-05-15 16:06:09]	[UserID:reggie]	[IP:10.128.80.128]	[Browser:Safari - 10.1.1]	[Action:GetGSTModules reggie,1]	[Remarks:Successful filter row count: 9]
[Date: 2018-05-15 16:06:09]	[UserID:reggie]	[IP:10.128.80.128]	[Browser:Safari - 10.1.1]	[Action:Closing mssql connection]	[Remarks:Success]
[Date: 2018-05-15 16:06:57]	[UserID:dev/jagustin]	[IP:10.128.80.72]	[Browser:Chrome - 65.0.3325.181]	[Action:Making connection to server]	[Remarks:Successful connection to server: S3]
[Date: 2018-05-15 16:06:57]	[UserID:dev/jagustin]	[IP:10.128.80.72]	[Browser:Chrome - 65.0.3325.181]	[Action:GetGSTModules dev/jagustin,1]	[Remarks:Successful filter row count: 9]
[Date: 2018-05-15 16:06:57]	[UserID:dev/jagustin]	[IP:10.128.80.72]	[Browser:Chrome - 65.0.3325.181]	[Action:Closing mssql connection]	[Remarks:Success]
[Date: 2018-05-15 16:08:19]	[UserID:reggie]	[IP:10.128.80.128]	[Browser:Safari - 10.1.1]	[Action:Making connection to server]	[Remarks:Successful connection to server: S3]
[Date: 2018-05-15 16:08:19]	[UserID:reggie]	[IP:10.128.80.128]	[Browser:Safari - 10.1.1]	[Action:GetGSTModules reggie,1]	[Remarks:Successful filter row count: 9]
[Date: 2018-05-15 16:08:19]	[UserID:reggie]	[IP:10.128.80.128]	[Browser:Safari - 10.1.1]	[Action:Closing mssql connection]	[Remarks:Success]
[Date: 2018-05-15 16:09:21]	[UserID:dev/jagustin]	[IP:10.128.80.72]	[Browser:Chrome - 65.0.3325.181]	[Action:Making connection to server]	[Remarks:Successful connection to server: S3]
[Date: 2018-05-15 16:09:21]	[UserID:dev/jagustin]	[IP:10.128.80.72]	[Browser:Chrome - 65.0.3325.181]	[Action:GetProgramList dev/jagustin]	[Remarks:[{"ID":"1","ProgramIndex":"GST","ProgramName":"GST"},{"ID":"3","ProgramIndex":"PRD","ProgramName":"PRD"}]]
[Date: 2018-05-15 16:09:21]	[UserID:dev/jagustin]	[IP:10.128.80.72]	[Browser:Chrome - 65.0.3325.181]	[Action:Making connection to server]	[Remarks:Successful connection to server: S3]
[Date: 2018-05-15 16:09:21]	[UserID:dev/jagustin]	[IP:10.128.80.72]	[Browser:Chrome - 65.0.3325.181]	[Action:GetProgramList dev/jagustin]	[Remarks:[{"ID":"1","ProgramIndex":"GST","ProgramName":"GST"},{"ID":"3","ProgramIndex":"PRD","ProgramName":"PRD"}]]
[Date: 2018-05-15 16:09:21]	[UserID:dev/jagustin]	[IP:10.128.80.72]	[Browser:Chrome - 65.0.3325.181]	[Action:Making connection to server]	[Remarks:Successful connection to server: S3]
[Date: 2018-05-15 16:09:21]	[UserID:dev/jagustin]	[IP:10.128.80.72]	[Browser:Chrome - 65.0.3325.181]	[Action:Filtering User : MasterData Username : dev/jagustin]	[Remarks:Successful filter row count: 1]
[Date: 2018-05-15 16:09:21]	[UserID:dev/jagustin]	[IP:10.128.80.72]	[Browser:Chrome - 65.0.3325.181]	[Action:Making connection to server]	[Remarks:Successful connection to server: S3]
[Date: 2018-05-15 16:09:21]	[UserID:dev/jagustin]	[IP:10.128.80.72]	[Browser:Chrome - 65.0.3325.181]	[Action:GetProgramList dev/jagustin]	[Remarks:[{"ID":"1","ProgramIndex":"GST","ProgramName":"GST"},{"ID":"3","ProgramIndex":"PRD","ProgramName":"PRD"}]]
[Date: 2018-05-15 16:09:21]	[UserID:dev/jagustin]	[IP:10.128.80.72]	[Browser:Chrome - 65.0.3325.181]	[Action:Making connection to server]	[Remarks:Successful connection to server: S3]
[Date: 2018-05-15 16:09:21]	[UserID:dev/jagustin]	[IP:10.128.80.72]	[Browser:Chrome - 65.0.3325.181]	[Action:GetProgramList dev/jagustin]	[Remarks:[{"ID":"1","ProgramIndex":"GST","ProgramName":"GST"},{"ID":"3","ProgramIndex":"PRD","ProgramName":"PRD"}]]
[Date: 2018-05-15 16:09:21]	[UserID:dev/jagustin]	[IP:10.128.80.72]	[Browser:Chrome - 65.0.3325.181]	[Action:Making connection to server]	[Remarks:Successful connection to server: S3]
[Date: 2018-05-15 16:09:21]	[UserID:dev/jagustin]	[IP:10.128.80.72]	[Browser:Chrome - 65.0.3325.181]	[Action:Filtering User : MasterData Username : dev/jagustin]	[Remarks:Successful filter row count: 1]
[Date: 2018-05-15 16:13:29]	[UserID:dev/jagustin]	[IP:10.128.80.72]	[Browser:Chrome - 65.0.3325.181]	[Action:Making connection to server]	[Remarks:Successful connection to server: S3]
[Date: 2018-05-15 16:13:29]	[UserID:dev/jagustin]	[IP:10.128.80.72]	[Browser:Chrome - 65.0.3325.181]	[Action:GetGSTModules dev/jagustin,1]	[Remarks:Successful filter row count: 9]
[Date: 2018-05-15 16:13:29]	[UserID:dev/jagustin]	[IP:10.128.80.72]	[Browser:Chrome - 65.0.3325.181]	[Action:Closing mssql connection]	[Remarks:Success]
[Date: 2018-05-15 16:14:41]	[UserID:dev/jagustin]	[IP:10.128.80.72]	[Browser:Chrome - 65.0.3325.181]	[Action:Making connection to server]	[Remarks:Successful connection to server: S3]
[Date: 2018-05-15 16:14:41]	[UserID:dev/jagustin]	[IP:10.128.80.72]	[Browser:Chrome - 65.0.3325.181]	[Action:GetGSTModules dev/jagustin,1]	[Remarks:Successful filter row count: 9]
[Date: 2018-05-15 16:14:41]	[UserID:dev/jagustin]	[IP:10.128.80.72]	[Browser:Chrome - 65.0.3325.181]	[Action:Closing mssql connection]	[Remarks:Success]
[Date: 2018-05-15 16:15:58]	[UserID:reggie]	[IP:10.128.80.128]	[Browser:Safari - 10.1.1]	[Action:Making connection to server]	[Remarks:Successful connection to server: S3]
[Date: 2018-05-15 16:15:58]	[UserID:reggie]	[IP:10.128.80.128]	[Browser:Safari - 10.1.1]	[Action:GetGSTModules reggie,1]	[Remarks:Successful filter row count: 9]
[Date: 2018-05-15 16:15:58]	[UserID:reggie]	[IP:10.128.80.128]	[Browser:Safari - 10.1.1]	[Action:Closing mssql connection]	[Remarks:Success]
[Date: 2018-05-15 16:17:20]	[UserID:reggie]	[IP:10.128.80.128]	[Browser:Safari - 10.1.1]	[Action:Making connection to server]	[Remarks:Successful connection to server: S3]
[Date: 2018-05-15 16:17:20]	[UserID:reggie]	[IP:10.128.80.128]	[Browser:Safari - 10.1.1]	[Action:GetGSTModules reggie,1]	[Remarks:Successful filter row count: 9]
[Date: 2018-05-15 16:17:20]	[UserID:reggie]	[IP:10.128.80.128]	[Browser:Safari - 10.1.1]	[Action:Closing mssql connection]	[Remarks:Success]
[Date: 2018-05-15 16:29:42]	[UserID:dev/bgregorio]	[IP:10.139.5.108]	[Browser:Chrome - 66.0.3359.139]	[Action:Making connection to server]	[Remarks:Successful connection to server: S3]
[Date: 2018-05-15 16:29:42]	[UserID:dev/bgregorio]	[IP:10.139.5.108]	[Browser:Chrome - 66.0.3359.139]	[Action:GetGSTModules dev/bgregorio,1]	[Remarks:Successful filter row count: 8]
[Date: 2018-05-15 16:29:42]	[UserID:dev/bgregorio]	[IP:10.139.5.108]	[Browser:Chrome - 66.0.3359.139]	[Action:Closing mssql connection]	[Remarks:Success]
[Date: 2018-05-15 16:46:06]	[UserID:dev/jagustin]	[IP:10.128.80.72]	[Browser:Chrome - 65.0.3325.181]	[Action:Making connection to server]	[Remarks:Successful connection to server: S3]
[Date: 2018-05-15 16:46:06]	[UserID:dev/jagustin]	[IP:10.128.80.72]	[Browser:Chrome - 65.0.3325.181]	[Action:GetGSTModules dev/jagustin,1]	[Remarks:Successful filter row count: 9]
[Date: 2018-05-15 16:46:06]	[UserID:dev/jagustin]	[IP:10.128.80.72]	[Browser:Chrome - 65.0.3325.181]	[Action:Closing mssql connection]	[Remarks:Success]
[Date: 2018-05-15 16:46:59]	[UserID:reggie]	[IP:10.128.80.128]	[Browser:Safari - 10.1.1]	[Action:Making connection to server]	[Remarks:Successful connection to server: S3]
[Date: 2018-05-15 16:46:59]	[UserID:reggie]	[IP:10.128.80.128]	[Browser:Safari - 10.1.1]	[Action:GetGSTModules reggie,1]	[Remarks:Successful filter row count: 9]
[Date: 2018-05-15 16:46:59]	[UserID:reggie]	[IP:10.128.80.128]	[Browser:Safari - 10.1.1]	[Action:Closing mssql connection]	[Remarks:Success]
[Date: 2018-05-15 16:47:01]	[UserID:dev/jagustin]	[IP:10.128.80.72]	[Browser:Chrome - 65.0.3325.181]	[Action:Making connection to server]	[Remarks:Successful connection to server: S3]
[Date: 2018-05-15 16:47:01]	[UserID:dev/jagustin]	[IP:10.128.80.72]	[Browser:Chrome - 65.0.3325.181]	[Action:GetGSTModules dev/jagustin,1]	[Remarks:Successful filter row count: 9]
[Date: 2018-05-15 16:47:01]	[UserID:dev/jagustin]	[IP:10.128.80.72]	[Browser:Chrome - 65.0.3325.181]	[Action:Closing mssql connection]	[Remarks:Success]
[Date: 2018-05-15 16:49:05]	[UserID:reggie]	[IP:10.128.80.128]	[Browser:Safari - 10.1.1]	[Action:Making connection to server]	[Remarks:Successful connection to server: S3]
[Date: 2018-05-15 16:49:05]	[UserID:reggie]	[IP:10.128.80.128]	[Browser:Safari - 10.1.1]	[Action:GetGSTModules reggie,1]	[Remarks:Successful filter row count: 9]
[Date: 2018-05-15 16:49:05]	[UserID:reggie]	[IP:10.128.80.128]	[Browser:Safari - 10.1.1]	[Action:Closing mssql connection]	[Remarks:Success]
[Date: 2018-05-15 17:34:33]	[UserID:reggie]	[IP:10.128.80.128]	[Browser:Safari - 10.1.1]	[Action:Making connection to server]	[Remarks:Successful connection to server: S3]
[Date: 2018-05-15 17:34:33]	[UserID:reggie]	[IP:10.128.80.128]	[Browser:Safari - 10.1.1]	[Action:GetGSTModules reggie,1]	[Remarks:Successful filter row count: 9]
[Date: 2018-05-15 17:34:33]	[UserID:reggie]	[IP:10.128.80.128]	[Browser:Safari - 10.1.1]	[Action:Closing mssql connection]	[Remarks:Success]
[Date: 2018-05-15 17:42:47]	[UserID:dev/jagustin]	[IP:10.128.80.72]	[Browser:Chrome - 65.0.3325.181]	[Action:Making connection to server]	[Remarks:Successful connection to server: S3]
[Date: 2018-05-15 17:42:47]	[UserID:dev/jagustin]	[IP:10.128.80.72]	[Browser:Chrome - 65.0.3325.181]	[Action:GetGSTModules dev/jagustin,1]	[Remarks:Successful filter row count: 9]
[Date: 2018-05-15 17:42:47]	[UserID:dev/jagustin]	[IP:10.128.80.72]	[Browser:Chrome - 65.0.3325.181]	[Action:Closing mssql connection]	[Remarks:Success]
[Date: 2018-05-15 17:47:07]	[UserID:reggie]	[IP:10.128.80.128]	[Browser:Safari - 10.1.1]	[Action:Making connection to server]	[Remarks:Successful connection to server: S3]
[Date: 2018-05-15 17:47:07]	[UserID:reggie]	[IP:10.128.80.128]	[Browser:Safari - 10.1.1]	[Action:GetGSTModules reggie,1]	[Remarks:Successful filter row count: 9]
[Date: 2018-05-15 17:47:07]	[UserID:reggie]	[IP:10.128.80.128]	[Browser:Safari - 10.1.1]	[Action:Closing mssql connection]	[Remarks:Success]
[Date: 2018-05-15 18:19:01]	[UserID:reggie]	[IP:10.128.80.128]	[Browser:Safari - 10.1.1]	[Action:Making connection to server]	[Remarks:Successful connection to server: S3]
[Date: 2018-05-15 18:19:01]	[UserID:reggie]	[IP:10.128.80.128]	[Browser:Safari - 10.1.1]	[Action:GetGSTModules reggie,1]	[Remarks:Successful filter row count: 9]
[Date: 2018-05-15 18:19:01]	[UserID:reggie]	[IP:10.128.80.128]	[Browser:Safari - 10.1.1]	[Action:Closing mssql connection]	[Remarks:Success]
