[Date: 2021-02-07 19:19:30]	[UserID:]	[IP:10.128.130.5]	[Browser:Chrome - 88.0.4324.146]	[Action:Making connection to server]	[Remarks:Successful connection to server: S3]
[Date: 2021-02-07 19:19:30]	[UserID:]	[IP:10.128.130.5]	[Browser:Chrome - 88.0.4324.146]	[Action:GetProgramList ]	[Remarks:"no data"]
[Date: 2021-02-07 19:19:37]	[UserID:dev/jagustin]	[IP:10.128.130.5]	[Browser:Chrome - 88.0.4324.146]	[Action:Making connection to server]	[Remarks:Successful connection to server: S3]
[Date: 2021-02-07 19:19:37]	[UserID:dev/jagustin]	[IP:10.128.130.5]	[Browser:Chrome - 88.0.4324.146]	[Action:User dev/jagustin]	[Remarks:Success]
[Date: 2021-02-07 19:19:38]	[UserID:dev/jagustin]	[IP:10.128.130.5]	[Browser:Chrome - 88.0.4324.146]	[Action:Filtering User : MasterData Username : dev/jagustin]	[Remarks:Successful filter row count: 0]
[Date: 2021-02-07 19:19:38]	[UserID:dev/jagustin]	[IP:10.128.130.5]	[Browser:Chrome - 88.0.4324.146]	[Action:Filtering User : MasterData Username : dev/jagustin]	[Remarks:Successful filter row count: 0]
[Date: 2021-02-07 19:19:38]	[UserID:dev/jagustin]	[IP:10.128.130.5]	[Browser:Chrome - 88.0.4324.146]	[Action:Filtering User : MasterData Username : dev/jagustin]	[Remarks:Success]
[Date: 2021-02-07 19:19:38]	[UserID:dev/jagustin]	[IP:10.128.130.5]	[Browser:Chrome - 88.0.4324.146]	[Action:Closing mssql connection]	[Remarks:Success]
[Date: 2021-02-07 19:19:38]	[UserID:dev/jagustin]	[IP:10.128.130.5]	[Browser:Chrome - 88.0.4324.146]	[Action:Making connection to server]	[Remarks:Successful connection to server: S3]
[Date: 2021-02-07 19:19:38]	[UserID:dev/jagustin]	[IP:10.128.130.5]	[Browser:Chrome - 88.0.4324.146]	[Action:GetProgramList dev/jagustin]	[Remarks:[{"ID":"1","ProgramIndex":"GST","ProgramName":"GST"},{"ID":"3","ProgramIndex":"PRD","ProgramName":"PRD"}]]
[Date: 2021-02-07 19:19:38]	[UserID:dev/jagustin]	[IP:10.128.130.5]	[Browser:Chrome - 88.0.4324.146]	[Action:Making connection to server]	[Remarks:Successful connection to server: S3]
[Date: 2021-02-07 19:19:38]	[UserID:dev/jagustin]	[IP:10.128.130.5]	[Browser:Chrome - 88.0.4324.146]	[Action:GetProgramList dev/jagustin]	[Remarks:[{"ID":"1","ProgramIndex":"GST","ProgramName":"GST"},{"ID":"3","ProgramIndex":"PRD","ProgramName":"PRD"}]]
[Date: 2021-02-07 19:19:38]	[UserID:dev/jagustin]	[IP:10.128.130.5]	[Browser:Chrome - 88.0.4324.146]	[Action:Making connection to server]	[Remarks:Successful connection to server: S3]
[Date: 2021-02-07 19:19:38]	[UserID:dev/jagustin]	[IP:10.128.130.5]	[Browser:Chrome - 88.0.4324.146]	[Action:Filtering User : MasterData Username : dev/jagustin]	[Remarks:Successful filter row count: 1]
[Date: 2021-02-07 19:32:55]	[UserID:dev/jagustin]	[IP:10.128.130.5]	[Browser:Chrome - 88.0.4324.146]	[Action:Making connection to server]	[Remarks:Successful connection to server: S3]
[Date: 2021-02-07 19:32:55]	[UserID:dev/jagustin]	[IP:10.128.130.5]	[Browser:Chrome - 88.0.4324.146]	[Action:GetGSTModules dev/jagustin,1]	[Remarks:Successful filter row count: 13]
[Date: 2021-02-07 19:32:55]	[UserID:dev/jagustin]	[IP:10.128.130.5]	[Browser:Chrome - 88.0.4324.146]	[Action:Closing mssql connection]	[Remarks:Success]
[Date: 2021-02-07 20:12:40]	[UserID:dev/jagustin]	[IP:10.128.130.5]	[Browser:Chrome - 88.0.4324.146]	[Action:Making connection to server]	[Remarks:Successful connection to server: S3]
[Date: 2021-02-07 20:12:40]	[UserID:dev/jagustin]	[IP:10.128.130.5]	[Browser:Chrome - 88.0.4324.146]	[Action:GetGSTModules dev/jagustin,1]	[Remarks:Successful filter row count: 13]
[Date: 2021-02-07 20:12:40]	[UserID:dev/jagustin]	[IP:10.128.130.5]	[Browser:Chrome - 88.0.4324.146]	[Action:Closing mssql connection]	[Remarks:Success]
[Date: 2021-02-07 20:16:49]	[UserID:dev/jagustin]	[IP:10.128.130.5]	[Browser:Chrome - 88.0.4324.146]	[Action:Making connection to server]	[Remarks:Successful connection to server: S3]
[Date: 2021-02-07 20:16:49]	[UserID:dev/jagustin]	[IP:10.128.130.5]	[Browser:Chrome - 88.0.4324.146]	[Action:GetGSTModules dev/jagustin,1]	[Remarks:Successful filter row count: 13]
[Date: 2021-02-07 20:16:49]	[UserID:dev/jagustin]	[IP:10.128.130.5]	[Browser:Chrome - 88.0.4324.146]	[Action:Closing mssql connection]	[Remarks:Success]
[Date: 2021-02-07 20:18:32]	[UserID:dev/jagustin]	[IP:10.128.130.5]	[Browser:Chrome - 88.0.4324.146]	[Action:Making connection to server]	[Remarks:Successful connection to server: S3]
[Date: 2021-02-07 20:18:32]	[UserID:dev/jagustin]	[IP:10.128.130.5]	[Browser:Chrome - 88.0.4324.146]	[Action:GetGSTModules dev/jagustin,1]	[Remarks:Successful filter row count: 13]
[Date: 2021-02-07 20:18:32]	[UserID:dev/jagustin]	[IP:10.128.130.5]	[Browser:Chrome - 88.0.4324.146]	[Action:Closing mssql connection]	[Remarks:Success]
[Date: 2021-02-07 20:36:34]	[UserID:dev/jagustin]	[IP:10.128.130.5]	[Browser:Chrome - 88.0.4324.146]	[Action:Making connection to server]	[Remarks:Successful connection to server: S3]
[Date: 2021-02-07 20:36:34]	[UserID:dev/jagustin]	[IP:10.128.130.5]	[Browser:Chrome - 88.0.4324.146]	[Action:GetGSTModules dev/jagustin,1]	[Remarks:Successful filter row count: 13]
[Date: 2021-02-07 20:36:34]	[UserID:dev/jagustin]	[IP:10.128.130.5]	[Browser:Chrome - 88.0.4324.146]	[Action:Closing mssql connection]	[Remarks:Success]
[Date: 2021-02-07 20:41:58]	[UserID:dev/jagustin]	[IP:10.128.130.5]	[Browser:Chrome - 88.0.4324.146]	[Action:Making connection to server]	[Remarks:Successful connection to server: S3]
[Date: 2021-02-07 20:41:58]	[UserID:dev/jagustin]	[IP:10.128.130.5]	[Browser:Chrome - 88.0.4324.146]	[Action:GetGSTModules dev/jagustin,1]	[Remarks:Successful filter row count: 13]
[Date: 2021-02-07 20:41:58]	[UserID:dev/jagustin]	[IP:10.128.130.5]	[Browser:Chrome - 88.0.4324.146]	[Action:Closing mssql connection]	[Remarks:Success]
[Date: 2021-02-07 20:43:35]	[UserID:dev/jagustin]	[IP:10.128.130.5]	[Browser:Chrome - 88.0.4324.146]	[Action:Making connection to server]	[Remarks:Successful connection to server: S3]
[Date: 2021-02-07 20:43:35]	[UserID:dev/jagustin]	[IP:10.128.130.5]	[Browser:Chrome - 88.0.4324.146]	[Action:GetProgramList dev/jagustin]	[Remarks:[{"ID":"1","ProgramIndex":"GST","ProgramName":"GST"},{"ID":"3","ProgramIndex":"PRD","ProgramName":"PRD"}]]
[Date: 2021-02-07 20:43:35]	[UserID:dev/jagustin]	[IP:10.128.130.5]	[Browser:Chrome - 88.0.4324.146]	[Action:Making connection to server]	[Remarks:Successful connection to server: S3]
[Date: 2021-02-07 20:43:35]	[UserID:dev/jagustin]	[IP:10.128.130.5]	[Browser:Chrome - 88.0.4324.146]	[Action:GetProgramList dev/jagustin]	[Remarks:[{"ID":"1","ProgramIndex":"GST","ProgramName":"GST"},{"ID":"3","ProgramIndex":"PRD","ProgramName":"PRD"}]]
[Date: 2021-02-07 20:43:35]	[UserID:dev/jagustin]	[IP:10.128.130.5]	[Browser:Chrome - 88.0.4324.146]	[Action:Making connection to server]	[Remarks:Successful connection to server: S3]
[Date: 2021-02-07 20:43:35]	[UserID:dev/jagustin]	[IP:10.128.130.5]	[Browser:Chrome - 88.0.4324.146]	[Action:Filtering User : MasterData Username : dev/jagustin]	[Remarks:Successful filter row count: 1]
[Date: 2021-02-07 20:43:39]	[UserID:dev/jagustin]	[IP:10.128.130.5]	[Browser:Chrome - 88.0.4324.146]	[Action:Making connection to server]	[Remarks:Successful connection to server: S3]
[Date: 2021-02-07 20:43:39]	[UserID:dev/jagustin]	[IP:10.128.130.5]	[Browser:Chrome - 88.0.4324.146]	[Action:GetGSTModules dev/jagustin,1]	[Remarks:Successful filter row count: 13]
[Date: 2021-02-07 20:43:39]	[UserID:dev/jagustin]	[IP:10.128.130.5]	[Browser:Chrome - 88.0.4324.146]	[Action:Closing mssql connection]	[Remarks:Success]
[Date: 2021-02-07 20:43:44]	[UserID:dev/jagustin]	[IP:10.128.130.5]	[Browser:Chrome - 88.0.4324.146]	[Action:Making connection to server]	[Remarks:Successful connection to server: S3]
[Date: 2021-02-07 20:43:44]	[UserID:dev/jagustin]	[IP:10.128.130.5]	[Browser:Chrome - 88.0.4324.146]	[Action:GetGSTModules dev/jagustin,1]	[Remarks:Successful filter row count: 13]
[Date: 2021-02-07 20:43:44]	[UserID:dev/jagustin]	[IP:10.128.130.5]	[Browser:Chrome - 88.0.4324.146]	[Action:Closing mssql connection]	[Remarks:Success]
[Date: 2021-02-07 20:44:58]	[UserID:dev/jagustin]	[IP:10.128.130.5]	[Browser:Chrome - 88.0.4324.146]	[Action:Making connection to server]	[Remarks:Successful connection to server: S3]
[Date: 2021-02-07 20:44:58]	[UserID:dev/jagustin]	[IP:10.128.130.5]	[Browser:Chrome - 88.0.4324.146]	[Action:GetGSTModules dev/jagustin,1]	[Remarks:Successful filter row count: 13]
[Date: 2021-02-07 20:44:58]	[UserID:dev/jagustin]	[IP:10.128.130.5]	[Browser:Chrome - 88.0.4324.146]	[Action:Closing mssql connection]	[Remarks:Success]
[Date: 2021-02-07 20:47:59]	[UserID:dev/jagustin]	[IP:10.128.130.5]	[Browser:Chrome - 88.0.4324.146]	[Action:Making connection to server]	[Remarks:Successful connection to server: S3]
[Date: 2021-02-07 20:47:59]	[UserID:dev/jagustin]	[IP:10.128.130.5]	[Browser:Chrome - 88.0.4324.146]	[Action:GetGSTModules dev/jagustin,1]	[Remarks:Successful filter row count: 13]
[Date: 2021-02-07 20:47:59]	[UserID:dev/jagustin]	[IP:10.128.130.5]	[Browser:Chrome - 88.0.4324.146]	[Action:Closing mssql connection]	[Remarks:Success]
[Date: 2021-02-07 20:58:27]	[UserID:dev/jagustin]	[IP:10.128.130.5]	[Browser:Chrome - 88.0.4324.146]	[Action:Making connection to server]	[Remarks:Successful connection to server: S3]
[Date: 2021-02-07 20:58:27]	[UserID:dev/jagustin]	[IP:10.128.130.5]	[Browser:Chrome - 88.0.4324.146]	[Action:GetGSTModules dev/jagustin,1]	[Remarks:Successful filter row count: 13]
[Date: 2021-02-07 20:58:27]	[UserID:dev/jagustin]	[IP:10.128.130.5]	[Browser:Chrome - 88.0.4324.146]	[Action:Closing mssql connection]	[Remarks:Success]
[Date: 2021-02-07 20:59:44]	[UserID:dev/jagustin]	[IP:10.128.130.5]	[Browser:Chrome - 88.0.4324.146]	[Action:Making connection to server]	[Remarks:Successful connection to server: S3]
[Date: 2021-02-07 20:59:44]	[UserID:dev/jagustin]	[IP:10.128.130.5]	[Browser:Chrome - 88.0.4324.146]	[Action:GetGSTModules dev/jagustin,1]	[Remarks:Successful filter row count: 13]
[Date: 2021-02-07 20:59:44]	[UserID:dev/jagustin]	[IP:10.128.130.5]	[Browser:Chrome - 88.0.4324.146]	[Action:Closing mssql connection]	[Remarks:Success]
[Date: 2021-02-07 21:00:35]	[UserID:dev/jagustin]	[IP:10.128.130.5]	[Browser:Chrome - 88.0.4324.146]	[Action:Making connection to server]	[Remarks:Successful connection to server: S3]
[Date: 2021-02-07 21:00:35]	[UserID:dev/jagustin]	[IP:10.128.130.5]	[Browser:Chrome - 88.0.4324.146]	[Action:GetGSTModules dev/jagustin,1]	[Remarks:Successful filter row count: 13]
[Date: 2021-02-07 21:00:35]	[UserID:dev/jagustin]	[IP:10.128.130.5]	[Browser:Chrome - 88.0.4324.146]	[Action:Closing mssql connection]	[Remarks:Success]
[Date: 2021-02-07 21:12:17]	[UserID:dev/jagustin]	[IP:10.128.130.5]	[Browser:Chrome - 88.0.4324.146]	[Action:Making connection to server]	[Remarks:Successful connection to server: S3]
[Date: 2021-02-07 21:12:17]	[UserID:dev/jagustin]	[IP:10.128.130.5]	[Browser:Chrome - 88.0.4324.146]	[Action:GetGSTModules dev/jagustin,1]	[Remarks:Successful filter row count: 13]
[Date: 2021-02-07 21:12:17]	[UserID:dev/jagustin]	[IP:10.128.130.5]	[Browser:Chrome - 88.0.4324.146]	[Action:Closing mssql connection]	[Remarks:Success]
[Date: 2021-02-07 21:18:20]	[UserID:dev/jagustin]	[IP:10.128.130.5]	[Browser:Chrome - 88.0.4324.146]	[Action:Making connection to server]	[Remarks:Successful connection to server: S3]
[Date: 2021-02-07 21:18:20]	[UserID:dev/jagustin]	[IP:10.128.130.5]	[Browser:Chrome - 88.0.4324.146]	[Action:GetGSTModules dev/jagustin,1]	[Remarks:Successful filter row count: 13]
[Date: 2021-02-07 21:18:20]	[UserID:dev/jagustin]	[IP:10.128.130.5]	[Browser:Chrome - 88.0.4324.146]	[Action:Closing mssql connection]	[Remarks:Success]
[Date: 2021-02-07 21:24:10]	[UserID:dev/jagustin]	[IP:10.128.130.5]	[Browser:Chrome - 88.0.4324.146]	[Action:Making connection to server]	[Remarks:Successful connection to server: S3]
[Date: 2021-02-07 21:24:10]	[UserID:dev/jagustin]	[IP:10.128.130.5]	[Browser:Chrome - 88.0.4324.146]	[Action:GetGSTModules dev/jagustin,1]	[Remarks:Successful filter row count: 13]
[Date: 2021-02-07 21:24:10]	[UserID:dev/jagustin]	[IP:10.128.130.5]	[Browser:Chrome - 88.0.4324.146]	[Action:Closing mssql connection]	[Remarks:Success]
[Date: 2021-02-07 21:31:02]	[UserID:dev/jagustin]	[IP:10.128.130.5]	[Browser:Chrome - 88.0.4324.146]	[Action:Making connection to server]	[Remarks:Successful connection to server: S3]
[Date: 2021-02-07 21:31:02]	[UserID:dev/jagustin]	[IP:10.128.130.5]	[Browser:Chrome - 88.0.4324.146]	[Action:GetGSTModules dev/jagustin,1]	[Remarks:Successful filter row count: 13]
[Date: 2021-02-07 21:31:02]	[UserID:dev/jagustin]	[IP:10.128.130.5]	[Browser:Chrome - 88.0.4324.146]	[Action:Closing mssql connection]	[Remarks:Success]
[Date: 2021-02-07 22:05:08]	[UserID:dev/jagustin]	[IP:10.128.130.5]	[Browser:Chrome - 88.0.4324.146]	[Action:Making connection to server]	[Remarks:Successful connection to server: S3]
[Date: 2021-02-07 22:05:08]	[UserID:dev/jagustin]	[IP:10.128.130.5]	[Browser:Chrome - 88.0.4324.146]	[Action:GetGSTModules dev/jagustin,1]	[Remarks:Successful filter row count: 13]
[Date: 2021-02-07 22:05:08]	[UserID:dev/jagustin]	[IP:10.128.130.5]	[Browser:Chrome - 88.0.4324.146]	[Action:Closing mssql connection]	[Remarks:Success]
[Date: 2021-02-07 22:06:00]	[UserID:dev/jagustin]	[IP:10.128.130.5]	[Browser:Chrome - 88.0.4324.146]	[Action:Making connection to server]	[Remarks:Successful connection to server: S3]
[Date: 2021-02-07 22:06:00]	[UserID:dev/jagustin]	[IP:10.128.130.5]	[Browser:Chrome - 88.0.4324.146]	[Action:GetGSTModules dev/jagustin,1]	[Remarks:Successful filter row count: 13]
[Date: 2021-02-07 22:06:00]	[UserID:dev/jagustin]	[IP:10.128.130.5]	[Browser:Chrome - 88.0.4324.146]	[Action:Closing mssql connection]	[Remarks:Success]
