[Date: 2018-03-08 13:16:02]	[UserID:]	[IP:10.128.12.113]	[Browser:Chrome - 64.0.3282.186]	[Action:Making connection to server]	[Remarks:Successful connection to server: S3]
[Date: 2018-03-08 13:16:03]	[UserID:]	[IP:10.128.12.113]	[Browser:Chrome - 64.0.3282.186]	[Action:GetProgramList ]	[Remarks:"no data"]
[Date: 2018-03-08 13:16:06]	[UserID:06/343]	[IP:10.128.12.113]	[Browser:Chrome - 64.0.3282.186]	[Action:Making connection to server]	[Remarks:Successful connection to server: S3]
[Date: 2018-03-08 13:16:06]	[UserID:06/343]	[IP:10.128.12.113]	[Browser:Chrome - 64.0.3282.186]	[Action:User 06/343]	[Remarks:Success]
[Date: 2018-03-08 13:16:06]	[UserID:06/343]	[IP:10.128.12.113]	[Browser:Chrome - 64.0.3282.186]	[Action:Filtering User : MasterData Username : 06/343]	[Remarks:Successful filter row count: 0]
[Date: 2018-03-08 13:16:06]	[UserID:06/343]	[IP:10.128.12.113]	[Browser:Chrome - 64.0.3282.186]	[Action:Filtering User : MasterData Username : 06/343]	[Remarks:Successful filter row count: 0]
[Date: 2018-03-08 13:16:06]	[UserID:06/343]	[IP:10.128.12.113]	[Browser:Chrome - 64.0.3282.186]	[Action:Filtering User : MasterData Username : 06/343]	[Remarks:Success]
[Date: 2018-03-08 13:16:06]	[UserID:06/343]	[IP:10.128.12.113]	[Browser:Chrome - 64.0.3282.186]	[Action:Closing mssql connection]	[Remarks:Success]
[Date: 2018-03-08 13:16:06]	[UserID:06/343]	[IP:10.128.12.113]	[Browser:Chrome - 64.0.3282.186]	[Action:Making connection to server]	[Remarks:Successful connection to server: S3]
[Date: 2018-03-08 13:16:06]	[UserID:06/343]	[IP:10.128.12.113]	[Browser:Chrome - 64.0.3282.186]	[Action:GetProgramList 06/343]	[Remarks:[{"ID":"1","ProgramIndex":"GST","ProgramName":"GST"}]]
[Date: 2018-03-08 13:16:06]	[UserID:06/343]	[IP:10.128.12.113]	[Browser:Chrome - 64.0.3282.186]	[Action:Making connection to server]	[Remarks:Successful connection to server: S3]
[Date: 2018-03-08 13:16:06]	[UserID:06/343]	[IP:10.128.12.113]	[Browser:Chrome - 64.0.3282.186]	[Action:GetProgramList 06/343]	[Remarks:[{"ID":"1","ProgramIndex":"GST","ProgramName":"GST"}]]
[Date: 2018-03-08 13:16:06]	[UserID:06/343]	[IP:10.128.12.113]	[Browser:Chrome - 64.0.3282.186]	[Action:Making connection to server]	[Remarks:Successful connection to server: S3]
[Date: 2018-03-08 13:16:06]	[UserID:06/343]	[IP:10.128.12.113]	[Browser:Chrome - 64.0.3282.186]	[Action:Filtering User : MasterData Username : 06/343]	[Remarks:Successful filter row count: 1]
[Date: 2018-03-08 13:16:06]	[UserID:06/343]	[IP:10.128.12.113]	[Browser:Chrome - 64.0.3282.186]	[Action:Making connection to server]	[Remarks:Successful connection to server: S3]
[Date: 2018-03-08 13:16:06]	[UserID:06/343]	[IP:10.128.12.113]	[Browser:Chrome - 64.0.3282.186]	[Action:GetGSTModules 06/343,1]	[Remarks:Successful filter row count: 5]
[Date: 2018-03-08 13:16:06]	[UserID:06/343]	[IP:10.128.12.113]	[Browser:Chrome - 64.0.3282.186]	[Action:Closing mssql connection]	[Remarks:Success]
[Date: 2018-03-08 13:16:20]	[UserID:06/343]	[IP:10.128.12.113]	[Browser:Chrome - 64.0.3282.186]	[Action:Making connection to server]	[Remarks:Successful connection to server: S3]
[Date: 2018-03-08 13:16:21]	[UserID:06/343]	[IP:10.128.12.113]	[Browser:Chrome - 64.0.3282.186]	[Action:GetGSTModules 06/343,1]	[Remarks:Successful filter row count: 5]
[Date: 2018-03-08 13:16:21]	[UserID:06/343]	[IP:10.128.12.113]	[Browser:Chrome - 64.0.3282.186]	[Action:Closing mssql connection]	[Remarks:Success]
[Date: 2018-03-08 13:17:27]	[UserID:06/343]	[IP:10.128.12.113]	[Browser:Chrome - 64.0.3282.186]	[Action:Making connection to server]	[Remarks:Successful connection to server: S3]
[Date: 2018-03-08 13:17:27]	[UserID:06/343]	[IP:10.128.12.113]	[Browser:Chrome - 64.0.3282.186]	[Action:GetGSTModules 06/343,1]	[Remarks:Successful filter row count: 5]
[Date: 2018-03-08 13:17:27]	[UserID:06/343]	[IP:10.128.12.113]	[Browser:Chrome - 64.0.3282.186]	[Action:Closing mssql connection]	[Remarks:Success]
[Date: 2018-03-08 13:17:31]	[UserID:06/343]	[IP:10.128.12.113]	[Browser:Chrome - 64.0.3282.186]	[Action:Making connection to server]	[Remarks:Successful connection to server: S3]
[Date: 2018-03-08 13:17:31]	[UserID:06/343]	[IP:10.128.12.113]	[Browser:Chrome - 64.0.3282.186]	[Action:GetGSTModules 06/343,1]	[Remarks:Successful filter row count: 5]
[Date: 2018-03-08 13:17:31]	[UserID:06/343]	[IP:10.128.12.113]	[Browser:Chrome - 64.0.3282.186]	[Action:Closing mssql connection]	[Remarks:Success]
[Date: 2018-03-08 13:17:34]	[UserID:06/343]	[IP:10.128.12.113]	[Browser:Chrome - 64.0.3282.186]	[Action:Making connection to server]	[Remarks:Successful connection to server: S3]
[Date: 2018-03-08 13:17:34]	[UserID:06/343]	[IP:10.128.12.113]	[Browser:Chrome - 64.0.3282.186]	[Action:GetGSTModules 06/343,1]	[Remarks:Successful filter row count: 5]
[Date: 2018-03-08 13:17:34]	[UserID:06/343]	[IP:10.128.12.113]	[Browser:Chrome - 64.0.3282.186]	[Action:Closing mssql connection]	[Remarks:Success]
[Date: 2018-03-08 14:09:48]	[UserID:06/343]	[IP:10.128.12.113]	[Browser:Chrome - 64.0.3282.186]	[Action:Making connection to server]	[Remarks:Successful connection to server: S3]
[Date: 2018-03-08 14:09:48]	[UserID:06/343]	[IP:10.128.12.113]	[Browser:Chrome - 64.0.3282.186]	[Action:GetProgramList 06/343]	[Remarks:[{"ID":"1","ProgramIndex":"GST","ProgramName":"GST"}]]
[Date: 2018-03-08 14:09:48]	[UserID:06/343]	[IP:10.128.12.113]	[Browser:Chrome - 64.0.3282.186]	[Action:Making connection to server]	[Remarks:Successful connection to server: S3]
[Date: 2018-03-08 14:09:48]	[UserID:06/343]	[IP:10.128.12.113]	[Browser:Chrome - 64.0.3282.186]	[Action:GetProgramList 06/343]	[Remarks:[{"ID":"1","ProgramIndex":"GST","ProgramName":"GST"}]]
[Date: 2018-03-08 14:09:48]	[UserID:06/343]	[IP:10.128.12.113]	[Browser:Chrome - 64.0.3282.186]	[Action:Making connection to server]	[Remarks:Successful connection to server: S3]
[Date: 2018-03-08 14:09:48]	[UserID:06/343]	[IP:10.128.12.113]	[Browser:Chrome - 64.0.3282.186]	[Action:Filtering User : MasterData Username : 06/343]	[Remarks:Successful filter row count: 1]
[Date: 2018-03-08 14:09:49]	[UserID:06/343]	[IP:10.128.12.113]	[Browser:Chrome - 64.0.3282.186]	[Action:Making connection to server]	[Remarks:Successful connection to server: S3]
[Date: 2018-03-08 14:09:49]	[UserID:06/343]	[IP:10.128.12.113]	[Browser:Chrome - 64.0.3282.186]	[Action:GetGSTModules 06/343,1]	[Remarks:Successful filter row count: 5]
[Date: 2018-03-08 14:09:49]	[UserID:06/343]	[IP:10.128.12.113]	[Browser:Chrome - 64.0.3282.186]	[Action:Closing mssql connection]	[Remarks:Success]
[Date: 2018-03-08 14:10:26]	[UserID:06/343]	[IP:10.128.12.113]	[Browser:Chrome - 64.0.3282.186]	[Action:Making connection to server]	[Remarks:Successful connection to server: S3]
[Date: 2018-03-08 14:10:26]	[UserID:06/343]	[IP:10.128.12.113]	[Browser:Chrome - 64.0.3282.186]	[Action:GetGSTModules 06/343,1]	[Remarks:Successful filter row count: 5]
[Date: 2018-03-08 14:10:26]	[UserID:06/343]	[IP:10.128.12.113]	[Browser:Chrome - 64.0.3282.186]	[Action:Closing mssql connection]	[Remarks:Success]
[Date: 2018-03-08 14:10:29]	[UserID:06/343]	[IP:10.128.12.113]	[Browser:Chrome - 64.0.3282.186]	[Action:Making connection to server]	[Remarks:Successful connection to server: S3]
[Date: 2018-03-08 14:10:29]	[UserID:06/343]	[IP:10.128.12.113]	[Browser:Chrome - 64.0.3282.186]	[Action:GetGSTModules 06/343,1]	[Remarks:Successful filter row count: 5]
[Date: 2018-03-08 14:10:29]	[UserID:06/343]	[IP:10.128.12.113]	[Browser:Chrome - 64.0.3282.186]	[Action:Closing mssql connection]	[Remarks:Success]
[Date: 2018-03-08 14:10:36]	[UserID:06/343]	[IP:10.128.12.113]	[Browser:Chrome - 64.0.3282.186]	[Action:Making connection to server]	[Remarks:Successful connection to server: S3]
[Date: 2018-03-08 14:10:36]	[UserID:06/343]	[IP:10.128.12.113]	[Browser:Chrome - 64.0.3282.186]	[Action:GetGSTModules 06/343,1]	[Remarks:Successful filter row count: 5]
[Date: 2018-03-08 14:10:36]	[UserID:06/343]	[IP:10.128.12.113]	[Browser:Chrome - 64.0.3282.186]	[Action:Closing mssql connection]	[Remarks:Success]
[Date: 2018-03-08 14:10:42]	[UserID:06/343]	[IP:10.128.12.113]	[Browser:Chrome - 64.0.3282.186]	[Action:Making connection to server]	[Remarks:Successful connection to server: S3]
[Date: 2018-03-08 14:10:42]	[UserID:06/343]	[IP:10.128.12.113]	[Browser:Chrome - 64.0.3282.186]	[Action:GetGSTModules 06/343,1]	[Remarks:Successful filter row count: 5]
[Date: 2018-03-08 14:10:42]	[UserID:06/343]	[IP:10.128.12.113]	[Browser:Chrome - 64.0.3282.186]	[Action:Closing mssql connection]	[Remarks:Success]
[Date: 2018-03-08 14:19:55]	[UserID:06/343]	[IP:10.128.12.113]	[Browser:Chrome - 64.0.3282.186]	[Action:Making connection to server]	[Remarks:Successful connection to server: S3]
[Date: 2018-03-08 14:19:55]	[UserID:06/343]	[IP:10.128.12.113]	[Browser:Chrome - 64.0.3282.186]	[Action:GetGSTModules 06/343,1]	[Remarks:Successful filter row count: 5]
[Date: 2018-03-08 14:19:55]	[UserID:06/343]	[IP:10.128.12.113]	[Browser:Chrome - 64.0.3282.186]	[Action:Closing mssql connection]	[Remarks:Success]
