[Date: 2018-02-06 13:31:14]	[UserID:]	[IP:10.128.12.210]	[Browser:Chrome - 63.0.3239.132]	[Action:Making connection to server]	[Remarks:Successful connection to server: S3]
[Date: 2018-02-06 13:31:14]	[UserID:]	[IP:10.128.12.210]	[Browser:Chrome - 63.0.3239.132]	[Action:GetProgramList ]	[Remarks:"no data"]
[Date: 2018-02-06 13:31:27]	[UserID:10/660]	[IP:10.128.12.210]	[Browser:Chrome - 63.0.3239.132]	[Action:Making connection to server]	[Remarks:Successful connection to server: S3]
[Date: 2018-02-06 13:31:27]	[UserID:10/660]	[IP:10.128.12.210]	[Browser:Chrome - 63.0.3239.132]	[Action:User 10/660]	[Remarks:Success]
[Date: 2018-02-06 13:31:27]	[UserID:10/660]	[IP:10.128.12.210]	[Browser:Chrome - 63.0.3239.132]	[Action:Filtering User : MasterData Username : 10/660]	[Remarks:Successful filter row count: 0]
[Date: 2018-02-06 13:31:27]	[UserID:10/660]	[IP:10.128.12.210]	[Browser:Chrome - 63.0.3239.132]	[Action:Filtering User : MasterData Username : 10/660]	[Remarks:Successful filter row count: 0]
[Date: 2018-02-06 13:31:27]	[UserID:10/660]	[IP:10.128.12.210]	[Browser:Chrome - 63.0.3239.132]	[Action:Filtering User : MasterData Username : 10/660]	[Remarks:Success]
[Date: 2018-02-06 13:31:27]	[UserID:10/660]	[IP:10.128.12.210]	[Browser:Chrome - 63.0.3239.132]	[Action:Closing mssql connection]	[Remarks:Success]
[Date: 2018-02-06 13:31:27]	[UserID:10/660]	[IP:10.128.12.210]	[Browser:Chrome - 63.0.3239.132]	[Action:Making connection to server]	[Remarks:Successful connection to server: S3]
[Date: 2018-02-06 13:31:27]	[UserID:10/660]	[IP:10.128.12.210]	[Browser:Chrome - 63.0.3239.132]	[Action:GetProgramList 10/660]	[Remarks:[{"ID":"1","ProgramIndex":"GST","ProgramName":"GST"}]]
[Date: 2018-02-06 13:31:27]	[UserID:10/660]	[IP:10.128.12.210]	[Browser:Chrome - 63.0.3239.132]	[Action:Making connection to server]	[Remarks:Successful connection to server: S3]
[Date: 2018-02-06 13:31:27]	[UserID:10/660]	[IP:10.128.12.210]	[Browser:Chrome - 63.0.3239.132]	[Action:GetProgramList 10/660]	[Remarks:[{"ID":"1","ProgramIndex":"GST","ProgramName":"GST"}]]
[Date: 2018-02-06 13:31:27]	[UserID:10/660]	[IP:10.128.12.210]	[Browser:Chrome - 63.0.3239.132]	[Action:Making connection to server]	[Remarks:Successful connection to server: S3]
[Date: 2018-02-06 13:31:27]	[UserID:10/660]	[IP:10.128.12.210]	[Browser:Chrome - 63.0.3239.132]	[Action:Filtering User : MasterData Username : 10/660]	[Remarks:Successful filter row count: 1]
[Date: 2018-02-06 13:31:27]	[UserID:10/660]	[IP:10.128.12.210]	[Browser:Chrome - 63.0.3239.132]	[Action:Making connection to server]	[Remarks:Successful connection to server: S3]
[Date: 2018-02-06 13:31:27]	[UserID:10/660]	[IP:10.128.12.210]	[Browser:Chrome - 63.0.3239.132]	[Action:GetGSTModules 10/660,1]	[Remarks:Successful filter row count: 5]
[Date: 2018-02-06 13:31:27]	[UserID:10/660]	[IP:10.128.12.210]	[Browser:Chrome - 63.0.3239.132]	[Action:Closing mssql connection]	[Remarks:Success]
[Date: 2018-02-06 13:33:24]	[UserID:10/660]	[IP:10.128.12.210]	[Browser:Chrome - 63.0.3239.132]	[Action:Making connection to server]	[Remarks:Successful connection to server: S3]
[Date: 2018-02-06 13:33:24]	[UserID:10/660]	[IP:10.128.12.210]	[Browser:Chrome - 63.0.3239.132]	[Action:GetGSTModules 10/660,1]	[Remarks:Successful filter row count: 5]
[Date: 2018-02-06 13:33:24]	[UserID:10/660]	[IP:10.128.12.210]	[Browser:Chrome - 63.0.3239.132]	[Action:Closing mssql connection]	[Remarks:Success]
[Date: 2018-02-06 13:36:57]	[UserID:10/660]	[IP:10.128.12.210]	[Browser:Chrome - 63.0.3239.132]	[Action:Making connection to server]	[Remarks:Successful connection to server: S3]
[Date: 2018-02-06 13:36:57]	[UserID:10/660]	[IP:10.128.12.210]	[Browser:Chrome - 63.0.3239.132]	[Action:GetGSTModules 10/660,1]	[Remarks:Successful filter row count: 5]
[Date: 2018-02-06 13:36:57]	[UserID:10/660]	[IP:10.128.12.210]	[Browser:Chrome - 63.0.3239.132]	[Action:Closing mssql connection]	[Remarks:Success]
[Date: 2018-02-06 13:37:15]	[UserID:]	[IP:10.128.12.210]	[Browser:Chrome - 63.0.3239.132]	[Action:Making connection to server]	[Remarks:Successful connection to server: S3]
[Date: 2018-02-06 13:37:16]	[UserID:]	[IP:10.128.12.210]	[Browser:Chrome - 63.0.3239.132]	[Action:GetProgramList ]	[Remarks:"no data"]
[Date: 2018-02-06 16:04:50]	[UserID:]	[IP:10.128.12.113]	[Browser:Chrome - 63.0.3239.132]	[Action:Making connection to server]	[Remarks:Successful connection to server: S3]
[Date: 2018-02-06 16:04:50]	[UserID:]	[IP:10.128.12.113]	[Browser:Chrome - 63.0.3239.132]	[Action:GetProgramList ]	[Remarks:"no data"]
[Date: 2018-02-06 16:04:52]	[UserID:06/343]	[IP:10.128.12.113]	[Browser:Chrome - 63.0.3239.132]	[Action:Making connection to server]	[Remarks:Successful connection to server: S3]
[Date: 2018-02-06 16:04:52]	[UserID:06/343]	[IP:10.128.12.113]	[Browser:Chrome - 63.0.3239.132]	[Action:User 06/343]	[Remarks:Success]
[Date: 2018-02-06 16:04:52]	[UserID:06/343]	[IP:10.128.12.113]	[Browser:Chrome - 63.0.3239.132]	[Action:Filtering User : MasterData Username : 06/343]	[Remarks:Successful filter row count: 0]
[Date: 2018-02-06 16:04:52]	[UserID:06/343]	[IP:10.128.12.113]	[Browser:Chrome - 63.0.3239.132]	[Action:Filtering User : MasterData Username : 06/343]	[Remarks:Successful filter row count: 0]
[Date: 2018-02-06 16:04:52]	[UserID:06/343]	[IP:10.128.12.113]	[Browser:Chrome - 63.0.3239.132]	[Action:Filtering User : MasterData Username : 06/343]	[Remarks:Success]
[Date: 2018-02-06 16:04:52]	[UserID:06/343]	[IP:10.128.12.113]	[Browser:Chrome - 63.0.3239.132]	[Action:Closing mssql connection]	[Remarks:Success]
[Date: 2018-02-06 16:04:52]	[UserID:06/343]	[IP:10.128.12.113]	[Browser:Chrome - 63.0.3239.132]	[Action:Making connection to server]	[Remarks:Successful connection to server: S3]
[Date: 2018-02-06 16:04:52]	[UserID:06/343]	[IP:10.128.12.113]	[Browser:Chrome - 63.0.3239.132]	[Action:GetProgramList 06/343]	[Remarks:[{"ID":"1","ProgramIndex":"GST","ProgramName":"GST"}]]
[Date: 2018-02-06 16:04:52]	[UserID:06/343]	[IP:10.128.12.113]	[Browser:Chrome - 63.0.3239.132]	[Action:Making connection to server]	[Remarks:Successful connection to server: S3]
[Date: 2018-02-06 16:04:53]	[UserID:06/343]	[IP:10.128.12.113]	[Browser:Chrome - 63.0.3239.132]	[Action:GetProgramList 06/343]	[Remarks:[{"ID":"1","ProgramIndex":"GST","ProgramName":"GST"}]]
[Date: 2018-02-06 16:04:53]	[UserID:06/343]	[IP:10.128.12.113]	[Browser:Chrome - 63.0.3239.132]	[Action:Making connection to server]	[Remarks:Successful connection to server: S3]
[Date: 2018-02-06 16:04:53]	[UserID:06/343]	[IP:10.128.12.113]	[Browser:Chrome - 63.0.3239.132]	[Action:Filtering User : MasterData Username : 06/343]	[Remarks:Successful filter row count: 1]
[Date: 2018-02-06 16:04:53]	[UserID:06/343]	[IP:10.128.12.113]	[Browser:Chrome - 63.0.3239.132]	[Action:Making connection to server]	[Remarks:Successful connection to server: S3]
[Date: 2018-02-06 16:04:53]	[UserID:06/343]	[IP:10.128.12.113]	[Browser:Chrome - 63.0.3239.132]	[Action:GetGSTModules 06/343,1]	[Remarks:Successful filter row count: 5]
[Date: 2018-02-06 16:04:53]	[UserID:06/343]	[IP:10.128.12.113]	[Browser:Chrome - 63.0.3239.132]	[Action:Closing mssql connection]	[Remarks:Success]
[Date: 2018-02-06 16:07:41]	[UserID:06/343]	[IP:10.128.12.113]	[Browser:Chrome - 63.0.3239.132]	[Action:Making connection to server]	[Remarks:Successful connection to server: S3]
[Date: 2018-02-06 16:07:41]	[UserID:06/343]	[IP:10.128.12.113]	[Browser:Chrome - 63.0.3239.132]	[Action:GetGSTModules 06/343,1]	[Remarks:Successful filter row count: 5]
[Date: 2018-02-06 16:07:41]	[UserID:06/343]	[IP:10.128.12.113]	[Browser:Chrome - 63.0.3239.132]	[Action:Closing mssql connection]	[Remarks:Success]
