[Date: 2016-04-18 07:42:30]	[UserID:]	[IP:10.10.11.1]	[Browser:Chrome - 49.0.2623.112]	[Action:Making connection to server]	[Remarks:Successful connection to server: S3]
[Date: 2016-04-18 07:42:30]	[UserID:]	[IP:10.10.11.1]	[Browser:Chrome - 49.0.2623.112]	[Action:GetProgramList ]	[Remarks:"no data"]
[Date: 2016-04-18 08:03:18]	[UserID:06/343]	[IP:10.10.11.1]	[Browser:Chrome - 49.0.2623.112]	[Action:Making connection to server]	[Remarks:Successful connection to server: S3]
[Date: 2016-04-18 08:03:18]	[UserID:06/343]	[IP:10.10.11.1]	[Browser:Chrome - 49.0.2623.112]	[Action:User 06/343]	[Remarks:Success]
[Date: 2016-04-18 08:03:18]	[UserID:06/343]	[IP:10.10.11.1]	[Browser:Chrome - 49.0.2623.112]	[Action:Filtering User : MasterData Username : 06/343]	[Remarks:Successful filter row count: 0]
[Date: 2016-04-18 08:03:18]	[UserID:06/343]	[IP:10.10.11.1]	[Browser:Chrome - 49.0.2623.112]	[Action:Filtering User : MasterData Username : 06/343]	[Remarks:Successful filter row count: 0]
[Date: 2016-04-18 08:03:18]	[UserID:06/343]	[IP:10.10.11.1]	[Browser:Chrome - 49.0.2623.112]	[Action:Filtering User : MasterData Username : 06/343]	[Remarks:Success]
[Date: 2016-04-18 08:03:18]	[UserID:06/343]	[IP:10.10.11.1]	[Browser:Chrome - 49.0.2623.112]	[Action:Closing mssql connection]	[Remarks:Success]
[Date: 2016-04-18 08:03:18]	[UserID:06/343]	[IP:10.10.11.1]	[Browser:Chrome - 49.0.2623.112]	[Action:Making connection to server]	[Remarks:Successful connection to server: S3]
[Date: 2016-04-18 08:03:18]	[UserID:06/343]	[IP:10.10.11.1]	[Browser:Chrome - 49.0.2623.112]	[Action:GetProgramList 06/343]	[Remarks:[{"ID":"1","ProgramIndex":"GST","ProgramName":"GST"}]]
[Date: 2016-04-18 08:03:18]	[UserID:06/343]	[IP:10.10.11.1]	[Browser:Chrome - 49.0.2623.112]	[Action:Making connection to server]	[Remarks:Successful connection to server: S3]
[Date: 2016-04-18 08:03:18]	[UserID:06/343]	[IP:10.10.11.1]	[Browser:Chrome - 49.0.2623.112]	[Action:GetProgramList 06/343]	[Remarks:[{"ID":"1","ProgramIndex":"GST","ProgramName":"GST"}]]
[Date: 2016-04-18 08:03:18]	[UserID:06/343]	[IP:10.10.11.1]	[Browser:Chrome - 49.0.2623.112]	[Action:Making connection to server]	[Remarks:Successful connection to server: S3]
[Date: 2016-04-18 08:03:18]	[UserID:06/343]	[IP:10.10.11.1]	[Browser:Chrome - 49.0.2623.112]	[Action:Filtering User : MasterData Username : 06/343]	[Remarks:Successful filter row count: 1]
[Date: 2016-04-18 08:03:18]	[UserID:06/343]	[IP:10.10.11.1]	[Browser:Chrome - 49.0.2623.112]	[Action:Making connection to server]	[Remarks:Successful connection to server: S3]
[Date: 2016-04-18 08:03:19]	[UserID:06/343]	[IP:10.10.11.1]	[Browser:Chrome - 49.0.2623.112]	[Action:GetGSTModules 06/343,1]	[Remarks:Successful filter row count: 5]
[Date: 2016-04-18 08:03:19]	[UserID:06/343]	[IP:10.10.11.1]	[Browser:Chrome - 49.0.2623.112]	[Action:Closing mssql connection]	[Remarks:Success]
[Date: 2016-04-18 08:08:46]	[UserID:06/343]	[IP:10.10.11.1]	[Browser:Chrome - 49.0.2623.112]	[Action:Making connection to server]	[Remarks:Successful connection to server: S3]
[Date: 2016-04-18 08:08:46]	[UserID:06/343]	[IP:10.10.11.1]	[Browser:Chrome - 49.0.2623.112]	[Action:GetGSTModules 06/343,1]	[Remarks:Successful filter row count: 5]
[Date: 2016-04-18 08:08:46]	[UserID:06/343]	[IP:10.10.11.1]	[Browser:Chrome - 49.0.2623.112]	[Action:Closing mssql connection]	[Remarks:Success]
[Date: 2016-04-18 08:11:18]	[UserID:06/343]	[IP:10.10.11.1]	[Browser:Chrome - 49.0.2623.112]	[Action:Making connection to server]	[Remarks:Successful connection to server: S3]
[Date: 2016-04-18 08:11:18]	[UserID:06/343]	[IP:10.10.11.1]	[Browser:Chrome - 49.0.2623.112]	[Action:GetGSTModules 06/343,1]	[Remarks:Successful filter row count: 5]
[Date: 2016-04-18 08:11:18]	[UserID:06/343]	[IP:10.10.11.1]	[Browser:Chrome - 49.0.2623.112]	[Action:Closing mssql connection]	[Remarks:Success]
[Date: 2016-04-18 08:14:14]	[UserID:06/343]	[IP:10.10.11.1]	[Browser:Chrome - 49.0.2623.112]	[Action:Making connection to server]	[Remarks:Successful connection to server: S3]
[Date: 2016-04-18 08:14:14]	[UserID:06/343]	[IP:10.10.11.1]	[Browser:Chrome - 49.0.2623.112]	[Action:GetGSTModules 06/343,1]	[Remarks:Successful filter row count: 5]
[Date: 2016-04-18 08:14:14]	[UserID:06/343]	[IP:10.10.11.1]	[Browser:Chrome - 49.0.2623.112]	[Action:Closing mssql connection]	[Remarks:Success]
[Date: 2016-04-18 08:24:37]	[UserID:]	[IP:10.10.11.1]	[Browser:Chrome - 49.0.2623.112]	[Action:Making connection to server]	[Remarks:Successful connection to server: S3]
[Date: 2016-04-18 08:24:37]	[UserID:]	[IP:10.10.11.1]	[Browser:Chrome - 49.0.2623.112]	[Action:GetProgramList ]	[Remarks:"no data"]
[Date: 2016-04-18 08:24:41]	[UserID:11/715]	[IP:10.10.11.1]	[Browser:Chrome - 49.0.2623.112]	[Action:Making connection to server]	[Remarks:Successful connection to server: S3]
[Date: 2016-04-18 08:24:41]	[UserID:11/715]	[IP:10.10.11.1]	[Browser:Chrome - 49.0.2623.112]	[Action:User 11/715]	[Remarks:Success]
[Date: 2016-04-18 08:24:41]	[UserID:11/715]	[IP:10.10.11.1]	[Browser:Chrome - 49.0.2623.112]	[Action:Filtering User : MasterData Username : 11/715]	[Remarks:Successful filter row count: 0]
[Date: 2016-04-18 08:24:41]	[UserID:11/715]	[IP:10.10.11.1]	[Browser:Chrome - 49.0.2623.112]	[Action:Filtering User : MasterData Username : 11/715]	[Remarks:Successful filter row count: 0]
[Date: 2016-04-18 08:24:41]	[UserID:11/715]	[IP:10.10.11.1]	[Browser:Chrome - 49.0.2623.112]	[Action:Filtering User : MasterData Username : 11/715]	[Remarks:Success]
[Date: 2016-04-18 08:24:41]	[UserID:11/715]	[IP:10.10.11.1]	[Browser:Chrome - 49.0.2623.112]	[Action:Closing mssql connection]	[Remarks:Success]
[Date: 2016-04-18 08:24:41]	[UserID:11/715]	[IP:10.10.11.1]	[Browser:Chrome - 49.0.2623.112]	[Action:Making connection to server]	[Remarks:Successful connection to server: S3]
[Date: 2016-04-18 08:24:41]	[UserID:11/715]	[IP:10.10.11.1]	[Browser:Chrome - 49.0.2623.112]	[Action:GetProgramList 11/715]	[Remarks:[{"ID":"1","ProgramIndex":"GST","ProgramName":"GST"}]]
[Date: 2016-04-18 08:24:41]	[UserID:11/715]	[IP:10.10.11.1]	[Browser:Chrome - 49.0.2623.112]	[Action:Making connection to server]	[Remarks:Successful connection to server: S3]
[Date: 2016-04-18 08:24:41]	[UserID:11/715]	[IP:10.10.11.1]	[Browser:Chrome - 49.0.2623.112]	[Action:GetProgramList 11/715]	[Remarks:[{"ID":"1","ProgramIndex":"GST","ProgramName":"GST"}]]
[Date: 2016-04-18 08:24:41]	[UserID:11/715]	[IP:10.10.11.1]	[Browser:Chrome - 49.0.2623.112]	[Action:Making connection to server]	[Remarks:Successful connection to server: S3]
[Date: 2016-04-18 08:24:41]	[UserID:11/715]	[IP:10.10.11.1]	[Browser:Chrome - 49.0.2623.112]	[Action:Filtering User : MasterData Username : 11/715]	[Remarks:Successful filter row count: 1]
[Date: 2016-04-18 08:24:42]	[UserID:11/715]	[IP:10.10.11.1]	[Browser:Chrome - 49.0.2623.112]	[Action:Making connection to server]	[Remarks:Successful connection to server: S3]
[Date: 2016-04-18 08:24:42]	[UserID:11/715]	[IP:10.10.11.1]	[Browser:Chrome - 49.0.2623.112]	[Action:GetGSTModules 11/715,1]	[Remarks:Successful filter row count: 3]
[Date: 2016-04-18 08:24:42]	[UserID:11/715]	[IP:10.10.11.1]	[Browser:Chrome - 49.0.2623.112]	[Action:Closing mssql connection]	[Remarks:Success]
[Date: 2016-04-18 08:27:45]	[UserID:11/715]	[IP:10.10.11.1]	[Browser:Chrome - 49.0.2623.112]	[Action:Making connection to server]	[Remarks:Successful connection to server: S3]
[Date: 2016-04-18 08:27:45]	[UserID:11/715]	[IP:10.10.11.1]	[Browser:Chrome - 49.0.2623.112]	[Action:GetGSTModules 11/715,1]	[Remarks:Successful filter row count: 3]
[Date: 2016-04-18 08:27:45]	[UserID:11/715]	[IP:10.10.11.1]	[Browser:Chrome - 49.0.2623.112]	[Action:Closing mssql connection]	[Remarks:Success]
[Date: 2016-04-18 08:38:29]	[UserID:06/343]	[IP:10.10.11.1]	[Browser:Chrome - 49.0.2623.112]	[Action:Making connection to server]	[Remarks:Successful connection to server: S3]
[Date: 2016-04-18 08:38:29]	[UserID:06/343]	[IP:10.10.11.1]	[Browser:Chrome - 49.0.2623.112]	[Action:GetGSTModules 06/343,1]	[Remarks:Successful filter row count: 5]
[Date: 2016-04-18 08:38:29]	[UserID:06/343]	[IP:10.10.11.1]	[Browser:Chrome - 49.0.2623.112]	[Action:Closing mssql connection]	[Remarks:Success]
[Date: 2016-04-18 08:42:26]	[UserID:06/343]	[IP:10.10.11.1]	[Browser:Chrome - 49.0.2623.112]	[Action:Making connection to server]	[Remarks:Successful connection to server: S3]
[Date: 2016-04-18 08:42:26]	[UserID:06/343]	[IP:10.10.11.1]	[Browser:Chrome - 49.0.2623.112]	[Action:GetGSTModules 06/343,1]	[Remarks:Successful filter row count: 5]
[Date: 2016-04-18 08:42:26]	[UserID:06/343]	[IP:10.10.11.1]	[Browser:Chrome - 49.0.2623.112]	[Action:Closing mssql connection]	[Remarks:Success]
[Date: 2016-04-18 08:50:41]	[UserID:06/343]	[IP:10.10.11.1]	[Browser:Chrome - 49.0.2623.112]	[Action:Making connection to server]	[Remarks:Successful connection to server: S3]
[Date: 2016-04-18 08:50:41]	[UserID:06/343]	[IP:10.10.11.1]	[Browser:Chrome - 49.0.2623.112]	[Action:GetGSTModules 06/343,1]	[Remarks:Successful filter row count: 5]
[Date: 2016-04-18 08:50:41]	[UserID:06/343]	[IP:10.10.11.1]	[Browser:Chrome - 49.0.2623.112]	[Action:Closing mssql connection]	[Remarks:Success]
[Date: 2016-04-18 08:53:31]	[UserID:06/343]	[IP:10.10.11.1]	[Browser:Chrome - 49.0.2623.112]	[Action:Making connection to server]	[Remarks:Successful connection to server: S3]
[Date: 2016-04-18 08:53:31]	[UserID:06/343]	[IP:10.10.11.1]	[Browser:Chrome - 49.0.2623.112]	[Action:GetGSTModules 06/343,1]	[Remarks:Successful filter row count: 5]
[Date: 2016-04-18 08:53:31]	[UserID:06/343]	[IP:10.10.11.1]	[Browser:Chrome - 49.0.2623.112]	[Action:Closing mssql connection]	[Remarks:Success]
[Date: 2016-04-18 09:47:25]	[UserID:06/343]	[IP:10.10.11.1]	[Browser:Chrome - 49.0.2623.112]	[Action:Making connection to server]	[Remarks:Successful connection to server: S3]
[Date: 2016-04-18 09:47:25]	[UserID:06/343]	[IP:10.10.11.1]	[Browser:Chrome - 49.0.2623.112]	[Action:GetGSTModules 06/343,1]	[Remarks:Successful filter row count: 5]
[Date: 2016-04-18 09:47:25]	[UserID:06/343]	[IP:10.10.11.1]	[Browser:Chrome - 49.0.2623.112]	[Action:Closing mssql connection]	[Remarks:Success]
[Date: 2016-04-18 09:48:44]	[UserID:06/343]	[IP:10.10.11.1]	[Browser:Chrome - 49.0.2623.112]	[Action:Making connection to server]	[Remarks:Successful connection to server: S3]
[Date: 2016-04-18 09:48:44]	[UserID:06/343]	[IP:10.10.11.1]	[Browser:Chrome - 49.0.2623.112]	[Action:GetGSTModules 06/343,1]	[Remarks:Successful filter row count: 5]
[Date: 2016-04-18 09:48:44]	[UserID:06/343]	[IP:10.10.11.1]	[Browser:Chrome - 49.0.2623.112]	[Action:Closing mssql connection]	[Remarks:Success]
[Date: 2016-04-18 09:51:54]	[UserID:06/343]	[IP:10.10.11.1]	[Browser:Chrome - 49.0.2623.112]	[Action:Making connection to server]	[Remarks:Successful connection to server: S3]
[Date: 2016-04-18 09:51:54]	[UserID:06/343]	[IP:10.10.11.1]	[Browser:Chrome - 49.0.2623.112]	[Action:GetGSTModules 06/343,1]	[Remarks:Successful filter row count: 5]
[Date: 2016-04-18 09:51:54]	[UserID:06/343]	[IP:10.10.11.1]	[Browser:Chrome - 49.0.2623.112]	[Action:Closing mssql connection]	[Remarks:Success]
[Date: 2016-04-18 10:11:01]	[UserID:]	[IP:10.10.11.1]	[Browser:Chrome - 49.0.2623.112]	[Action:Making connection to server]	[Remarks:Successful connection to server: S3]
[Date: 2016-04-18 10:11:01]	[UserID:]	[IP:10.10.11.1]	[Browser:Chrome - 49.0.2623.112]	[Action:GetProgramList ]	[Remarks:"no data"]
[Date: 2016-04-18 10:11:03]	[UserID:10/660]	[IP:10.10.11.1]	[Browser:Chrome - 49.0.2623.112]	[Action:Making connection to server]	[Remarks:Successful connection to server: S3]
[Date: 2016-04-18 10:11:03]	[UserID:10/660]	[IP:10.10.11.1]	[Browser:Chrome - 49.0.2623.112]	[Action:User 10/660]	[Remarks:Success]
[Date: 2016-04-18 10:11:03]	[UserID:10/660]	[IP:10.10.11.1]	[Browser:Chrome - 49.0.2623.112]	[Action:Filtering User : MasterData Username : 10/660]	[Remarks:Successful filter row count: 0]
[Date: 2016-04-18 10:11:03]	[UserID:10/660]	[IP:10.10.11.1]	[Browser:Chrome - 49.0.2623.112]	[Action:Filtering User : MasterData Username : 10/660]	[Remarks:Successful filter row count: 0]
[Date: 2016-04-18 10:11:03]	[UserID:10/660]	[IP:10.10.11.1]	[Browser:Chrome - 49.0.2623.112]	[Action:Filtering User : MasterData Username : 10/660]	[Remarks:Success]
[Date: 2016-04-18 10:11:03]	[UserID:10/660]	[IP:10.10.11.1]	[Browser:Chrome - 49.0.2623.112]	[Action:Closing mssql connection]	[Remarks:Success]
[Date: 2016-04-18 10:11:03]	[UserID:10/660]	[IP:10.10.11.1]	[Browser:Chrome - 49.0.2623.112]	[Action:Making connection to server]	[Remarks:Successful connection to server: S3]
[Date: 2016-04-18 10:11:03]	[UserID:10/660]	[IP:10.10.11.1]	[Browser:Chrome - 49.0.2623.112]	[Action:GetProgramList 10/660]	[Remarks:[{"ID":"1","ProgramIndex":"GST","ProgramName":"GST"}]]
[Date: 2016-04-18 10:11:03]	[UserID:10/660]	[IP:10.10.11.1]	[Browser:Chrome - 49.0.2623.112]	[Action:Making connection to server]	[Remarks:Successful connection to server: S3]
[Date: 2016-04-18 10:11:03]	[UserID:10/660]	[IP:10.10.11.1]	[Browser:Chrome - 49.0.2623.112]	[Action:GetProgramList 10/660]	[Remarks:[{"ID":"1","ProgramIndex":"GST","ProgramName":"GST"}]]
[Date: 2016-04-18 10:11:03]	[UserID:10/660]	[IP:10.10.11.1]	[Browser:Chrome - 49.0.2623.112]	[Action:Making connection to server]	[Remarks:Successful connection to server: S3]
[Date: 2016-04-18 10:11:03]	[UserID:10/660]	[IP:10.10.11.1]	[Browser:Chrome - 49.0.2623.112]	[Action:Filtering User : MasterData Username : 10/660]	[Remarks:Successful filter row count: 1]
[Date: 2016-04-18 10:11:04]	[UserID:10/660]	[IP:10.10.11.1]	[Browser:Chrome - 49.0.2623.112]	[Action:Making connection to server]	[Remarks:Successful connection to server: S3]
[Date: 2016-04-18 10:11:04]	[UserID:10/660]	[IP:10.10.11.1]	[Browser:Chrome - 49.0.2623.112]	[Action:GetGSTModules 10/660,1]	[Remarks:Successful filter row count: 3]
[Date: 2016-04-18 10:11:04]	[UserID:10/660]	[IP:10.10.11.1]	[Browser:Chrome - 49.0.2623.112]	[Action:Closing mssql connection]	[Remarks:Success]
[Date: 2016-04-18 10:11:20]	[UserID:]	[IP:10.10.11.1]	[Browser:Chrome - 49.0.2623.75]	[Action:Making connection to server]	[Remarks:Successful connection to server: S3]
[Date: 2016-04-18 10:11:20]	[UserID:]	[IP:10.10.11.1]	[Browser:Chrome - 49.0.2623.75]	[Action:GetProgramList ]	[Remarks:"no data"]
[Date: 2016-04-18 10:12:38]	[UserID:]	[IP:10.10.11.1]	[Browser:Chrome - 49.0.2623.112]	[Action:Making connection to server]	[Remarks:Successful connection to server: S3]
[Date: 2016-04-18 10:12:38]	[UserID:]	[IP:10.10.11.1]	[Browser:Chrome - 49.0.2623.112]	[Action:GetProgramList ]	[Remarks:"no data"]
[Date: 2016-04-18 12:34:20]	[UserID:]	[IP:10.10.11.1]	[Browser:Chrome - 49.0.2623.112]	[Action:Making connection to server]	[Remarks:Successful connection to server: S3]
[Date: 2016-04-18 12:34:20]	[UserID:]	[IP:10.10.11.1]	[Browser:Chrome - 49.0.2623.112]	[Action:GetProgramList ]	[Remarks:"no data"]
[Date: 2016-04-18 12:45:06]	[UserID:10/660]	[IP:10.10.11.1]	[Browser:Chrome - 49.0.2623.112]	[Action:Making connection to server]	[Remarks:Successful connection to server: S3]
[Date: 2016-04-18 12:45:07]	[UserID:10/660]	[IP:10.10.11.1]	[Browser:Chrome - 49.0.2623.112]	[Action:User 10/660]	[Remarks:Success]
[Date: 2016-04-18 12:45:07]	[UserID:10/660]	[IP:10.10.11.1]	[Browser:Chrome - 49.0.2623.112]	[Action:Filtering User : MasterData Username : 10/660]	[Remarks:Successful filter row count: 0]
[Date: 2016-04-18 12:45:07]	[UserID:10/660]	[IP:10.10.11.1]	[Browser:Chrome - 49.0.2623.112]	[Action:Filtering User : MasterData Username : 10/660]	[Remarks:Successful filter row count: 0]
[Date: 2016-04-18 12:45:07]	[UserID:10/660]	[IP:10.10.11.1]	[Browser:Chrome - 49.0.2623.112]	[Action:Filtering User : MasterData Username : 10/660]	[Remarks:Success]
[Date: 2016-04-18 12:45:07]	[UserID:10/660]	[IP:10.10.11.1]	[Browser:Chrome - 49.0.2623.112]	[Action:Closing mssql connection]	[Remarks:Success]
[Date: 2016-04-18 12:45:07]	[UserID:10/660]	[IP:10.10.11.1]	[Browser:Chrome - 49.0.2623.112]	[Action:Making connection to server]	[Remarks:Successful connection to server: S3]
[Date: 2016-04-18 12:45:09]	[UserID:10/660]	[IP:10.10.11.1]	[Browser:Chrome - 49.0.2623.112]	[Action:GetProgramList 10/660]	[Remarks:[{"ID":"1","ProgramIndex":"GST","ProgramName":"GST"}]]
[Date: 2016-04-18 12:45:09]	[UserID:10/660]	[IP:10.10.11.1]	[Browser:Chrome - 49.0.2623.112]	[Action:Making connection to server]	[Remarks:Successful connection to server: S3]
[Date: 2016-04-18 12:45:09]	[UserID:10/660]	[IP:10.10.11.1]	[Browser:Chrome - 49.0.2623.112]	[Action:GetProgramList 10/660]	[Remarks:[{"ID":"1","ProgramIndex":"GST","ProgramName":"GST"}]]
[Date: 2016-04-18 12:45:09]	[UserID:10/660]	[IP:10.10.11.1]	[Browser:Chrome - 49.0.2623.112]	[Action:Making connection to server]	[Remarks:Successful connection to server: S3]
[Date: 2016-04-18 12:45:09]	[UserID:10/660]	[IP:10.10.11.1]	[Browser:Chrome - 49.0.2623.112]	[Action:Filtering User : MasterData Username : 10/660]	[Remarks:Successful filter row count: 1]
[Date: 2016-04-18 12:45:09]	[UserID:10/660]	[IP:10.10.11.1]	[Browser:Chrome - 49.0.2623.112]	[Action:Making connection to server]	[Remarks:Successful connection to server: S3]
[Date: 2016-04-18 12:45:10]	[UserID:10/660]	[IP:10.10.11.1]	[Browser:Chrome - 49.0.2623.112]	[Action:GetGSTModules 10/660,1]	[Remarks:Successful filter row count: 3]
[Date: 2016-04-18 12:45:10]	[UserID:10/660]	[IP:10.10.11.1]	[Browser:Chrome - 49.0.2623.112]	[Action:Closing mssql connection]	[Remarks:Success]
[Date: 2016-04-18 12:53:30]	[UserID:10/660]	[IP:10.10.11.1]	[Browser:Chrome - 49.0.2623.112]	[Action:Making connection to server]	[Remarks:Successful connection to server: S3]
[Date: 2016-04-18 12:53:33]	[UserID:10/660]	[IP:10.10.11.1]	[Browser:Chrome - 49.0.2623.112]	[Action:GetGSTModules 10/660,1]	[Remarks:Successful filter row count: 3]
[Date: 2016-04-18 12:53:33]	[UserID:10/660]	[IP:10.10.11.1]	[Browser:Chrome - 49.0.2623.112]	[Action:Closing mssql connection]	[Remarks:Success]
[Date: 2016-04-18 13:29:31]	[UserID:10/660]	[IP:10.10.11.1]	[Browser:Chrome - 49.0.2623.112]	[Action:Making connection to server]	[Remarks:Successful connection to server: S3]
[Date: 2016-04-18 13:29:31]	[UserID:10/660]	[IP:10.10.11.1]	[Browser:Chrome - 49.0.2623.112]	[Action:GetGSTModules 10/660,1]	[Remarks:Successful filter row count: 3]
[Date: 2016-04-18 13:29:31]	[UserID:10/660]	[IP:10.10.11.1]	[Browser:Chrome - 49.0.2623.112]	[Action:Closing mssql connection]	[Remarks:Success]
[Date: 2016-04-18 13:30:37]	[UserID:]	[IP:10.10.11.1]	[Browser:Chrome - 49.0.2623.112]	[Action:Making connection to server]	[Remarks:Successful connection to server: S3]
[Date: 2016-04-18 13:30:37]	[UserID:]	[IP:10.10.11.1]	[Browser:Chrome - 49.0.2623.112]	[Action:GetProgramList ]	[Remarks:"no data"]
[Date: 2016-04-18 16:42:51]	[UserID:]	[IP:10.10.11.1]	[Browser:Chrome - 49.0.2623.112]	[Action:Making connection to server]	[Remarks:Successful connection to server: S3]
[Date: 2016-04-18 16:42:52]	[UserID:]	[IP:10.10.11.1]	[Browser:Chrome - 49.0.2623.112]	[Action:GetProgramList ]	[Remarks:"no data"]
[Date: 2016-04-18 16:42:57]	[UserID:06/343]	[IP:10.10.11.1]	[Browser:Chrome - 49.0.2623.112]	[Action:Making connection to server]	[Remarks:Successful connection to server: S3]
[Date: 2016-04-18 16:42:57]	[UserID:06/343]	[IP:10.10.11.1]	[Browser:Chrome - 49.0.2623.112]	[Action:User 06/343]	[Remarks:Success]
[Date: 2016-04-18 16:42:57]	[UserID:06/343]	[IP:10.10.11.1]	[Browser:Chrome - 49.0.2623.112]	[Action:Filtering User : MasterData Username : 06/343]	[Remarks:Successful filter row count: 0]
[Date: 2016-04-18 16:42:57]	[UserID:06/343]	[IP:10.10.11.1]	[Browser:Chrome - 49.0.2623.112]	[Action:Filtering User : MasterData Username : 06/343]	[Remarks:Successful filter row count: 0]
[Date: 2016-04-18 16:42:57]	[UserID:06/343]	[IP:10.10.11.1]	[Browser:Chrome - 49.0.2623.112]	[Action:Filtering User : MasterData Username : 06/343]	[Remarks:Success]
[Date: 2016-04-18 16:42:57]	[UserID:06/343]	[IP:10.10.11.1]	[Browser:Chrome - 49.0.2623.112]	[Action:Closing mssql connection]	[Remarks:Success]
[Date: 2016-04-18 16:42:58]	[UserID:06/343]	[IP:10.10.11.1]	[Browser:Chrome - 49.0.2623.112]	[Action:Making connection to server]	[Remarks:Successful connection to server: S3]
[Date: 2016-04-18 16:42:58]	[UserID:06/343]	[IP:10.10.11.1]	[Browser:Chrome - 49.0.2623.112]	[Action:GetProgramList 06/343]	[Remarks:[{"ID":"1","ProgramIndex":"GST","ProgramName":"GST"}]]
[Date: 2016-04-18 16:42:58]	[UserID:06/343]	[IP:10.10.11.1]	[Browser:Chrome - 49.0.2623.112]	[Action:Making connection to server]	[Remarks:Successful connection to server: S3]
[Date: 2016-04-18 16:42:58]	[UserID:06/343]	[IP:10.10.11.1]	[Browser:Chrome - 49.0.2623.112]	[Action:GetProgramList 06/343]	[Remarks:[{"ID":"1","ProgramIndex":"GST","ProgramName":"GST"}]]
[Date: 2016-04-18 16:42:58]	[UserID:06/343]	[IP:10.10.11.1]	[Browser:Chrome - 49.0.2623.112]	[Action:Making connection to server]	[Remarks:Successful connection to server: S3]
[Date: 2016-04-18 16:42:58]	[UserID:06/343]	[IP:10.10.11.1]	[Browser:Chrome - 49.0.2623.112]	[Action:Filtering User : MasterData Username : 06/343]	[Remarks:Successful filter row count: 1]
[Date: 2016-04-18 16:42:58]	[UserID:06/343]	[IP:10.10.11.1]	[Browser:Chrome - 49.0.2623.112]	[Action:Making connection to server]	[Remarks:Successful connection to server: S3]
[Date: 2016-04-18 16:42:58]	[UserID:06/343]	[IP:10.10.11.1]	[Browser:Chrome - 49.0.2623.112]	[Action:GetGSTModules 06/343,1]	[Remarks:Successful filter row count: 5]
[Date: 2016-04-18 16:42:58]	[UserID:06/343]	[IP:10.10.11.1]	[Browser:Chrome - 49.0.2623.112]	[Action:Closing mssql connection]	[Remarks:Success]
[Date: 2016-04-18 16:51:17]	[UserID:06/343]	[IP:10.10.11.1]	[Browser:Chrome - 49.0.2623.112]	[Action:Making connection to server]	[Remarks:Successful connection to server: S3]
[Date: 2016-04-18 16:51:17]	[UserID:06/343]	[IP:10.10.11.1]	[Browser:Chrome - 49.0.2623.112]	[Action:GetGSTModules 06/343,1]	[Remarks:Successful filter row count: 5]
[Date: 2016-04-18 16:51:17]	[UserID:06/343]	[IP:10.10.11.1]	[Browser:Chrome - 49.0.2623.112]	[Action:Closing mssql connection]	[Remarks:Success]
[Date: 2016-04-18 16:58:46]	[UserID:06/343]	[IP:10.10.11.1]	[Browser:Chrome - 49.0.2623.112]	[Action:Making connection to server]	[Remarks:Successful connection to server: S3]
[Date: 2016-04-18 16:58:46]	[UserID:06/343]	[IP:10.10.11.1]	[Browser:Chrome - 49.0.2623.112]	[Action:GetGSTModules 06/343,1]	[Remarks:Successful filter row count: 5]
[Date: 2016-04-18 16:58:46]	[UserID:06/343]	[IP:10.10.11.1]	[Browser:Chrome - 49.0.2623.112]	[Action:Closing mssql connection]	[Remarks:Success]
[Date: 2016-04-18 17:01:10]	[UserID:06/343]	[IP:10.10.11.1]	[Browser:Chrome - 49.0.2623.112]	[Action:Making connection to server]	[Remarks:Successful connection to server: S3]
[Date: 2016-04-18 17:01:10]	[UserID:06/343]	[IP:10.10.11.1]	[Browser:Chrome - 49.0.2623.112]	[Action:GetGSTModules 06/343,1]	[Remarks:Successful filter row count: 5]
[Date: 2016-04-18 17:01:10]	[UserID:06/343]	[IP:10.10.11.1]	[Browser:Chrome - 49.0.2623.112]	[Action:Closing mssql connection]	[Remarks:Success]
[Date: 2016-04-18 17:08:52]	[UserID:]	[IP:10.10.11.1]	[Browser:Chrome - 49.0.2623.112]	[Action:Making connection to server]	[Remarks:Successful connection to server: S3]
[Date: 2016-04-18 17:08:52]	[UserID:]	[IP:10.10.11.1]	[Browser:Chrome - 49.0.2623.112]	[Action:GetProgramList ]	[Remarks:"no data"]
[Date: 2016-04-18 17:09:21]	[UserID:08/504]	[IP:10.10.11.1]	[Browser:Chrome - 49.0.2623.112]	[Action:Making connection to server]	[Remarks:Successful connection to server: S3]
[Date: 2016-04-18 17:09:21]	[UserID:08/504]	[IP:10.10.11.1]	[Browser:Chrome - 49.0.2623.112]	[Action:User 08/504]	[Remarks:Success]
[Date: 2016-04-18 17:09:21]	[UserID:08/504]	[IP:10.10.11.1]	[Browser:Chrome - 49.0.2623.112]	[Action:Filtering User : MasterData Username : 08/504]	[Remarks:Successful filter row count: 0]
[Date: 2016-04-18 17:09:21]	[UserID:08/504]	[IP:10.10.11.1]	[Browser:Chrome - 49.0.2623.112]	[Action:Filtering User : MasterData Username : 08/504]	[Remarks:Successful filter row count: 0]
[Date: 2016-04-18 17:09:21]	[UserID:08/504]	[IP:10.10.11.1]	[Browser:Chrome - 49.0.2623.112]	[Action:Filtering User : MasterData Username : 08/504]	[Remarks:Success]
[Date: 2016-04-18 17:09:21]	[UserID:08/504]	[IP:10.10.11.1]	[Browser:Chrome - 49.0.2623.112]	[Action:Closing mssql connection]	[Remarks:Success]
[Date: 2016-04-18 17:09:21]	[UserID:08/504]	[IP:10.10.11.1]	[Browser:Chrome - 49.0.2623.112]	[Action:Making connection to server]	[Remarks:Successful connection to server: S3]
[Date: 2016-04-18 17:09:21]	[UserID:08/504]	[IP:10.10.11.1]	[Browser:Chrome - 49.0.2623.112]	[Action:GetProgramList 08/504]	[Remarks:[{"ID":"1","ProgramIndex":"GST","ProgramName":"GST"}]]
[Date: 2016-04-18 17:09:21]	[UserID:08/504]	[IP:10.10.11.1]	[Browser:Chrome - 49.0.2623.112]	[Action:Making connection to server]	[Remarks:Successful connection to server: S3]
[Date: 2016-04-18 17:09:21]	[UserID:08/504]	[IP:10.10.11.1]	[Browser:Chrome - 49.0.2623.112]	[Action:GetProgramList 08/504]	[Remarks:[{"ID":"1","ProgramIndex":"GST","ProgramName":"GST"}]]
[Date: 2016-04-18 17:09:21]	[UserID:08/504]	[IP:10.10.11.1]	[Browser:Chrome - 49.0.2623.112]	[Action:Making connection to server]	[Remarks:Successful connection to server: S3]
[Date: 2016-04-18 17:09:21]	[UserID:08/504]	[IP:10.10.11.1]	[Browser:Chrome - 49.0.2623.112]	[Action:Filtering User : MasterData Username : 08/504]	[Remarks:Successful filter row count: 1]
[Date: 2016-04-18 17:09:22]	[UserID:08/504]	[IP:10.10.11.1]	[Browser:Chrome - 49.0.2623.112]	[Action:Making connection to server]	[Remarks:Successful connection to server: S3]
[Date: 2016-04-18 17:09:22]	[UserID:08/504]	[IP:10.10.11.1]	[Browser:Chrome - 49.0.2623.112]	[Action:GetGSTModules 08/504,1]	[Remarks:Successful filter row count: 5]
[Date: 2016-04-18 17:09:22]	[UserID:08/504]	[IP:10.10.11.1]	[Browser:Chrome - 49.0.2623.112]	[Action:Closing mssql connection]	[Remarks:Success]
[Date: 2016-04-18 17:41:38]	[UserID:08/504]	[IP:10.10.11.1]	[Browser:Chrome - 49.0.2623.112]	[Action:Making connection to server]	[Remarks:Successful connection to server: S3]
[Date: 2016-04-18 17:41:39]	[UserID:08/504]	[IP:10.10.11.1]	[Browser:Chrome - 49.0.2623.112]	[Action:GetGSTModules 08/504,1]	[Remarks:Successful filter row count: 5]
[Date: 2016-04-18 17:41:39]	[UserID:08/504]	[IP:10.10.11.1]	[Browser:Chrome - 49.0.2623.112]	[Action:Closing mssql connection]	[Remarks:Success]
[Date: 2016-04-18 17:45:11]	[UserID:08/504]	[IP:10.10.11.1]	[Browser:Chrome - 49.0.2623.112]	[Action:Making connection to server]	[Remarks:Successful connection to server: S3]
[Date: 2016-04-18 17:45:11]	[UserID:08/504]	[IP:10.10.11.1]	[Browser:Chrome - 49.0.2623.112]	[Action:GetGSTModules 08/504,1]	[Remarks:Successful filter row count: 5]
[Date: 2016-04-18 17:45:11]	[UserID:08/504]	[IP:10.10.11.1]	[Browser:Chrome - 49.0.2623.112]	[Action:Closing mssql connection]	[Remarks:Success]
[Date: 2016-04-18 18:03:50]	[UserID:08/504]	[IP:10.10.11.1]	[Browser:Chrome - 49.0.2623.112]	[Action:Making connection to server]	[Remarks:Successful connection to server: S3]
[Date: 2016-04-18 18:03:50]	[UserID:08/504]	[IP:10.10.11.1]	[Browser:Chrome - 49.0.2623.112]	[Action:GetGSTModules 08/504,1]	[Remarks:Successful filter row count: 5]
[Date: 2016-04-18 18:03:50]	[UserID:08/504]	[IP:10.10.11.1]	[Browser:Chrome - 49.0.2623.112]	[Action:Closing mssql connection]	[Remarks:Success]
[Date: 2016-04-18 18:06:36]	[UserID:08/504]	[IP:10.10.11.1]	[Browser:Chrome - 49.0.2623.112]	[Action:Making connection to server]	[Remarks:Successful connection to server: S3]
[Date: 2016-04-18 18:06:36]	[UserID:08/504]	[IP:10.10.11.1]	[Browser:Chrome - 49.0.2623.112]	[Action:GetGSTModules 08/504,1]	[Remarks:Successful filter row count: 5]
[Date: 2016-04-18 18:06:36]	[UserID:08/504]	[IP:10.10.11.1]	[Browser:Chrome - 49.0.2623.112]	[Action:Closing mssql connection]	[Remarks:Success]
[Date: 2016-04-18 18:07:27]	[UserID:08/504]	[IP:10.10.11.1]	[Browser:Chrome - 49.0.2623.112]	[Action:Making connection to server]	[Remarks:Successful connection to server: S3]
[Date: 2016-04-18 18:07:27]	[UserID:08/504]	[IP:10.10.11.1]	[Browser:Chrome - 49.0.2623.112]	[Action:GetGSTModules 08/504,1]	[Remarks:Successful filter row count: 5]
[Date: 2016-04-18 18:07:27]	[UserID:08/504]	[IP:10.10.11.1]	[Browser:Chrome - 49.0.2623.112]	[Action:Closing mssql connection]	[Remarks:Success]
