[Date: 2019-10-19 08:26:49]	[UserID:]	[IP:10.139.5.103]	[Browser:Chrome - 77.0.3865.90]	[Action:Making connection to server]	[Remarks:Successful connection to server: S3]
[Date: 2019-10-19 08:26:49]	[UserID:]	[IP:10.139.5.103]	[Browser:Chrome - 77.0.3865.90]	[Action:GetProgramList ]	[Remarks:"no data"]
[Date: 2019-10-19 08:33:20]	[UserID:]	[IP:10.128.12.115]	[Browser:Chrome - 77.0.3865.120]	[Action:Making connection to server]	[Remarks:Successful connection to server: S3]
[Date: 2019-10-19 08:33:20]	[UserID:]	[IP:10.128.12.115]	[Browser:Chrome - 77.0.3865.120]	[Action:GetProgramList ]	[Remarks:"no data"]
[Date: 2019-10-19 08:33:25]	[UserID:17/1248]	[IP:10.128.12.115]	[Browser:Chrome - 77.0.3865.120]	[Action:Making connection to server]	[Remarks:Successful connection to server: S3]
[Date: 2019-10-19 08:33:25]	[UserID:17/1248]	[IP:10.128.12.115]	[Browser:Chrome - 77.0.3865.120]	[Action:User 17/1248]	[Remarks:Success]
[Date: 2019-10-19 08:33:25]	[UserID:17/1248]	[IP:10.128.12.115]	[Browser:Chrome - 77.0.3865.120]	[Action:Filtering User : MasterData Username : 17/1248]	[Remarks:Successful filter row count: 0]
[Date: 2019-10-19 08:33:25]	[UserID:17/1248]	[IP:10.128.12.115]	[Browser:Chrome - 77.0.3865.120]	[Action:Filtering User : MasterData Username : 17/1248]	[Remarks:Successful filter row count: 0]
[Date: 2019-10-19 08:33:25]	[UserID:17/1248]	[IP:10.128.12.115]	[Browser:Chrome - 77.0.3865.120]	[Action:Filtering User : MasterData Username : 17/1248]	[Remarks:Success]
[Date: 2019-10-19 08:33:25]	[UserID:17/1248]	[IP:10.128.12.115]	[Browser:Chrome - 77.0.3865.120]	[Action:Closing mssql connection]	[Remarks:Success]
[Date: 2019-10-19 08:33:25]	[UserID:17/1248]	[IP:10.128.12.115]	[Browser:Chrome - 77.0.3865.120]	[Action:Making connection to server]	[Remarks:Successful connection to server: S3]
[Date: 2019-10-19 08:33:25]	[UserID:17/1248]	[IP:10.128.12.115]	[Browser:Chrome - 77.0.3865.120]	[Action:GetProgramList 17/1248]	[Remarks:[{"ID":"1","ProgramIndex":"GST","ProgramName":"GST"}]]
[Date: 2019-10-19 08:33:25]	[UserID:17/1248]	[IP:10.128.12.115]	[Browser:Chrome - 77.0.3865.120]	[Action:Making connection to server]	[Remarks:Successful connection to server: S3]
[Date: 2019-10-19 08:33:25]	[UserID:17/1248]	[IP:10.128.12.115]	[Browser:Chrome - 77.0.3865.120]	[Action:GetProgramList 17/1248]	[Remarks:[{"ID":"1","ProgramIndex":"GST","ProgramName":"GST"}]]
[Date: 2019-10-19 08:33:25]	[UserID:17/1248]	[IP:10.128.12.115]	[Browser:Chrome - 77.0.3865.120]	[Action:Making connection to server]	[Remarks:Successful connection to server: S3]
[Date: 2019-10-19 08:33:25]	[UserID:17/1248]	[IP:10.128.12.115]	[Browser:Chrome - 77.0.3865.120]	[Action:Filtering User : MasterData Username : 17/1248]	[Remarks:Successful filter row count: 1]
[Date: 2019-10-19 08:33:25]	[UserID:17/1248]	[IP:10.128.12.115]	[Browser:Chrome - 77.0.3865.120]	[Action:Making connection to server]	[Remarks:Successful connection to server: S3]
[Date: 2019-10-19 08:33:25]	[UserID:17/1248]	[IP:10.128.12.115]	[Browser:Chrome - 77.0.3865.120]	[Action:GetGSTModules 17/1248,1]	[Remarks:Successful filter row count: 6]
[Date: 2019-10-19 08:33:25]	[UserID:17/1248]	[IP:10.128.12.115]	[Browser:Chrome - 77.0.3865.120]	[Action:Closing mssql connection]	[Remarks:Success]
[Date: 2019-10-19 11:28:56]	[UserID:17/1248]	[IP:10.128.12.115]	[Browser:Chrome - 77.0.3865.120]	[Action:Making connection to server]	[Remarks:Successful connection to server: S3]
[Date: 2019-10-19 11:28:56]	[UserID:17/1248]	[IP:10.128.12.115]	[Browser:Chrome - 77.0.3865.120]	[Action:GetGSTModules 17/1248,1]	[Remarks:Successful filter row count: 6]
[Date: 2019-10-19 11:28:56]	[UserID:17/1248]	[IP:10.128.12.115]	[Browser:Chrome - 77.0.3865.120]	[Action:Closing mssql connection]	[Remarks:Success]
[Date: 2019-10-19 11:29:10]	[UserID:17/1248]	[IP:10.128.12.115]	[Browser:Chrome - 77.0.3865.120]	[Action:Making connection to server]	[Remarks:Successful connection to server: S3]
[Date: 2019-10-19 11:29:10]	[UserID:17/1248]	[IP:10.128.12.115]	[Browser:Chrome - 77.0.3865.120]	[Action:GetGSTModules 17/1248,1]	[Remarks:Successful filter row count: 6]
[Date: 2019-10-19 11:29:10]	[UserID:17/1248]	[IP:10.128.12.115]	[Browser:Chrome - 77.0.3865.120]	[Action:Closing mssql connection]	[Remarks:Success]
[Date: 2019-10-19 12:04:50]	[UserID:]	[IP:10.139.5.115]	[Browser:Firefox - 60.0]	[Action:Making connection to server]	[Remarks:Successful connection to server: S3]
[Date: 2019-10-19 12:04:50]	[UserID:]	[IP:10.139.5.115]	[Browser:Firefox - 60.0]	[Action:GetProgramList ]	[Remarks:"no data"]
[Date: 2019-10-19 12:08:53]	[UserID:]	[IP:10.128.12.115]	[Browser:Chrome - 77.0.3865.120]	[Action:Making connection to server]	[Remarks:Successful connection to server: S3]
[Date: 2019-10-19 12:08:53]	[UserID:]	[IP:10.128.12.115]	[Browser:Chrome - 77.0.3865.120]	[Action:GetProgramList ]	[Remarks:"no data"]
[Date: 2019-10-19 23:01:08]	[UserID:]	[IP:10.139.5.105]	[Browser:Firefox - 69.0]	[Action:Making connection to server]	[Remarks:Successful connection to server: S3]
[Date: 2019-10-19 23:01:08]	[UserID:]	[IP:10.139.5.105]	[Browser:Firefox - 69.0]	[Action:GetProgramList ]	[Remarks:"no data"]
