[Date: 2020-10-07 08:11:13]	[UserID:]	[IP:10.128.130.5]	[Browser:Chrome - 85.0.4183.121]	[Action:Making connection to server]	[Remarks:Successful connection to server: S3]
[Date: 2020-10-07 08:11:13]	[UserID:]	[IP:10.128.130.5]	[Browser:Chrome - 85.0.4183.121]	[Action:GetProgramList ]	[Remarks:"no data"]
[Date: 2020-10-07 08:28:57]	[UserID:]	[IP:10.128.12.114]	[Browser:Chrome - 85.0.4183.121]	[Action:Making connection to server]	[Remarks:Successful connection to server: S3]
[Date: 2020-10-07 08:28:57]	[UserID:]	[IP:10.128.12.114]	[Browser:Chrome - 85.0.4183.121]	[Action:GetProgramList ]	[Remarks:"no data"]
[Date: 2020-10-07 08:29:02]	[UserID:14/1082]	[IP:10.128.12.114]	[Browser:Chrome - 85.0.4183.121]	[Action:Making connection to server]	[Remarks:Successful connection to server: S3]
[Date: 2020-10-07 08:29:02]	[UserID:14/1082]	[IP:10.128.12.114]	[Browser:Chrome - 85.0.4183.121]	[Action:User 14/1082]	[Remarks:Success]
[Date: 2020-10-07 08:29:02]	[UserID:14/1082]	[IP:10.128.12.114]	[Browser:Chrome - 85.0.4183.121]	[Action:Filtering User : MasterData Username : 14/1082]	[Remarks:Successful filter row count: 0]
[Date: 2020-10-07 08:29:02]	[UserID:14/1082]	[IP:10.128.12.114]	[Browser:Chrome - 85.0.4183.121]	[Action:Filtering User : MasterData Username : 14/1082]	[Remarks:Successful filter row count: 0]
[Date: 2020-10-07 08:29:02]	[UserID:14/1082]	[IP:10.128.12.114]	[Browser:Chrome - 85.0.4183.121]	[Action:Filtering User : MasterData Username : 14/1082]	[Remarks:Success]
[Date: 2020-10-07 08:29:03]	[UserID:14/1082]	[IP:10.128.12.114]	[Browser:Chrome - 85.0.4183.121]	[Action:Closing mssql connection]	[Remarks:Success]
[Date: 2020-10-07 08:29:03]	[UserID:14/1082]	[IP:10.128.12.114]	[Browser:Chrome - 85.0.4183.121]	[Action:Making connection to server]	[Remarks:Successful connection to server: S3]
[Date: 2020-10-07 08:29:03]	[UserID:14/1082]	[IP:10.128.12.114]	[Browser:Chrome - 85.0.4183.121]	[Action:GetProgramList 14/1082]	[Remarks:[{"ID":"1","ProgramIndex":"GST","ProgramName":"GST"}]]
[Date: 2020-10-07 08:29:03]	[UserID:14/1082]	[IP:10.128.12.114]	[Browser:Chrome - 85.0.4183.121]	[Action:Making connection to server]	[Remarks:Successful connection to server: S3]
[Date: 2020-10-07 08:29:03]	[UserID:14/1082]	[IP:10.128.12.114]	[Browser:Chrome - 85.0.4183.121]	[Action:GetProgramList 14/1082]	[Remarks:[{"ID":"1","ProgramIndex":"GST","ProgramName":"GST"}]]
[Date: 2020-10-07 08:29:03]	[UserID:14/1082]	[IP:10.128.12.114]	[Browser:Chrome - 85.0.4183.121]	[Action:Making connection to server]	[Remarks:Successful connection to server: S3]
[Date: 2020-10-07 08:29:03]	[UserID:14/1082]	[IP:10.128.12.114]	[Browser:Chrome - 85.0.4183.121]	[Action:Filtering User : MasterData Username : 14/1082]	[Remarks:Successful filter row count: 1]
[Date: 2020-10-07 08:29:03]	[UserID:14/1082]	[IP:10.128.12.114]	[Browser:Chrome - 85.0.4183.121]	[Action:Making connection to server]	[Remarks:Successful connection to server: S3]
[Date: 2020-10-07 08:29:03]	[UserID:14/1082]	[IP:10.128.12.114]	[Browser:Chrome - 85.0.4183.121]	[Action:GetGSTModules 14/1082,1]	[Remarks:Successful filter row count: 8]
[Date: 2020-10-07 08:29:03]	[UserID:14/1082]	[IP:10.128.12.114]	[Browser:Chrome - 85.0.4183.121]	[Action:Closing mssql connection]	[Remarks:Success]
[Date: 2020-10-07 10:31:35]	[UserID:]	[IP:10.128.12.114]	[Browser:Chrome - 85.0.4183.121]	[Action:Making connection to server]	[Remarks:Successful connection to server: S3]
[Date: 2020-10-07 10:31:35]	[UserID:]	[IP:10.128.12.114]	[Browser:Chrome - 85.0.4183.121]	[Action:GetProgramList ]	[Remarks:"no data"]
[Date: 2020-10-07 10:31:49]	[UserID:14/1082]	[IP:10.128.12.114]	[Browser:Chrome - 85.0.4183.121]	[Action:Making connection to server]	[Remarks:Successful connection to server: S3]
[Date: 2020-10-07 10:31:49]	[UserID:14/1082]	[IP:10.128.12.114]	[Browser:Chrome - 85.0.4183.121]	[Action:User 14/1082]	[Remarks:Success]
[Date: 2020-10-07 10:31:49]	[UserID:14/1082]	[IP:10.128.12.114]	[Browser:Chrome - 85.0.4183.121]	[Action:Filtering User : MasterData Username : 14/1082]	[Remarks:Successful filter row count: 0]
[Date: 2020-10-07 10:31:49]	[UserID:14/1082]	[IP:10.128.12.114]	[Browser:Chrome - 85.0.4183.121]	[Action:Filtering User : MasterData Username : 14/1082]	[Remarks:Successful filter row count: 0]
[Date: 2020-10-07 10:31:49]	[UserID:14/1082]	[IP:10.128.12.114]	[Browser:Chrome - 85.0.4183.121]	[Action:Filtering User : MasterData Username : 14/1082]	[Remarks:Success]
[Date: 2020-10-07 10:31:49]	[UserID:14/1082]	[IP:10.128.12.114]	[Browser:Chrome - 85.0.4183.121]	[Action:Closing mssql connection]	[Remarks:Success]
[Date: 2020-10-07 10:31:49]	[UserID:14/1082]	[IP:10.128.12.114]	[Browser:Chrome - 85.0.4183.121]	[Action:Making connection to server]	[Remarks:Successful connection to server: S3]
[Date: 2020-10-07 10:31:49]	[UserID:14/1082]	[IP:10.128.12.114]	[Browser:Chrome - 85.0.4183.121]	[Action:GetProgramList 14/1082]	[Remarks:[{"ID":"1","ProgramIndex":"GST","ProgramName":"GST"}]]
[Date: 2020-10-07 10:31:49]	[UserID:14/1082]	[IP:10.128.12.114]	[Browser:Chrome - 85.0.4183.121]	[Action:Making connection to server]	[Remarks:Successful connection to server: S3]
[Date: 2020-10-07 10:31:49]	[UserID:14/1082]	[IP:10.128.12.114]	[Browser:Chrome - 85.0.4183.121]	[Action:GetProgramList 14/1082]	[Remarks:[{"ID":"1","ProgramIndex":"GST","ProgramName":"GST"}]]
[Date: 2020-10-07 10:31:49]	[UserID:14/1082]	[IP:10.128.12.114]	[Browser:Chrome - 85.0.4183.121]	[Action:Making connection to server]	[Remarks:Successful connection to server: S3]
[Date: 2020-10-07 10:31:49]	[UserID:14/1082]	[IP:10.128.12.114]	[Browser:Chrome - 85.0.4183.121]	[Action:Filtering User : MasterData Username : 14/1082]	[Remarks:Successful filter row count: 1]
[Date: 2020-10-07 10:31:51]	[UserID:14/1082]	[IP:10.128.12.114]	[Browser:Chrome - 85.0.4183.121]	[Action:Making connection to server]	[Remarks:Successful connection to server: S3]
[Date: 2020-10-07 10:31:51]	[UserID:14/1082]	[IP:10.128.12.114]	[Browser:Chrome - 85.0.4183.121]	[Action:GetGSTModules 14/1082,1]	[Remarks:Successful filter row count: 8]
[Date: 2020-10-07 10:31:51]	[UserID:14/1082]	[IP:10.128.12.114]	[Browser:Chrome - 85.0.4183.121]	[Action:Closing mssql connection]	[Remarks:Success]
[Date: 2020-10-07 11:17:13]	[UserID:14/1082]	[IP:10.128.12.114]	[Browser:Chrome - 85.0.4183.121]	[Action:Making connection to server]	[Remarks:Successful connection to server: S3]
[Date: 2020-10-07 11:17:13]	[UserID:14/1082]	[IP:10.128.12.114]	[Browser:Chrome - 85.0.4183.121]	[Action:GetGSTModules 14/1082,1]	[Remarks:Successful filter row count: 8]
[Date: 2020-10-07 11:17:13]	[UserID:14/1082]	[IP:10.128.12.114]	[Browser:Chrome - 85.0.4183.121]	[Action:Closing mssql connection]	[Remarks:Success]
[Date: 2020-10-07 14:22:27]	[UserID:14/1082]	[IP:10.128.12.114]	[Browser:Chrome - 85.0.4183.121]	[Action:Making connection to server]	[Remarks:Successful connection to server: S3]
[Date: 2020-10-07 14:22:28]	[UserID:14/1082]	[IP:10.128.12.114]	[Browser:Chrome - 85.0.4183.121]	[Action:GetGSTModules 14/1082,1]	[Remarks:Successful filter row count: 8]
[Date: 2020-10-07 14:22:28]	[UserID:14/1082]	[IP:10.128.12.114]	[Browser:Chrome - 85.0.4183.121]	[Action:Closing mssql connection]	[Remarks:Success]
[Date: 2020-10-07 15:28:57]	[UserID:14/1082]	[IP:10.128.12.114]	[Browser:Chrome - 85.0.4183.121]	[Action:Making connection to server]	[Remarks:Successful connection to server: S3]
[Date: 2020-10-07 15:28:57]	[UserID:14/1082]	[IP:10.128.12.114]	[Browser:Chrome - 85.0.4183.121]	[Action:GetGSTModules 14/1082,1]	[Remarks:Successful filter row count: 8]
[Date: 2020-10-07 15:28:57]	[UserID:14/1082]	[IP:10.128.12.114]	[Browser:Chrome - 85.0.4183.121]	[Action:Closing mssql connection]	[Remarks:Success]
[Date: 2020-10-07 16:44:55]	[UserID:]	[IP:10.128.12.114]	[Browser:Chrome - 85.0.4183.121]	[Action:Making connection to server]	[Remarks:Successful connection to server: S3]
[Date: 2020-10-07 16:44:55]	[UserID:]	[IP:10.128.12.114]	[Browser:Chrome - 85.0.4183.121]	[Action:GetProgramList ]	[Remarks:"no data"]
[Date: 2020-10-07 16:45:28]	[UserID:14/1082]	[IP:10.128.12.114]	[Browser:Chrome - 85.0.4183.121]	[Action:Making connection to server]	[Remarks:Successful connection to server: S3]
[Date: 2020-10-07 16:45:28]	[UserID:14/1082]	[IP:10.128.12.114]	[Browser:Chrome - 85.0.4183.121]	[Action:User 14/1082]	[Remarks:Success]
[Date: 2020-10-07 16:45:28]	[UserID:14/1082]	[IP:10.128.12.114]	[Browser:Chrome - 85.0.4183.121]	[Action:Filtering User : MasterData Username : 14/1082]	[Remarks:Successful filter row count: 0]
[Date: 2020-10-07 16:45:28]	[UserID:14/1082]	[IP:10.128.12.114]	[Browser:Chrome - 85.0.4183.121]	[Action:Filtering User : MasterData Username : 14/1082]	[Remarks:Successful filter row count: 0]
[Date: 2020-10-07 16:45:28]	[UserID:14/1082]	[IP:10.128.12.114]	[Browser:Chrome - 85.0.4183.121]	[Action:Filtering User : MasterData Username : 14/1082]	[Remarks:Success]
[Date: 2020-10-07 16:45:28]	[UserID:14/1082]	[IP:10.128.12.114]	[Browser:Chrome - 85.0.4183.121]	[Action:Closing mssql connection]	[Remarks:Success]
[Date: 2020-10-07 16:45:29]	[UserID:14/1082]	[IP:10.128.12.114]	[Browser:Chrome - 85.0.4183.121]	[Action:Making connection to server]	[Remarks:Successful connection to server: S3]
[Date: 2020-10-07 16:45:29]	[UserID:14/1082]	[IP:10.128.12.114]	[Browser:Chrome - 85.0.4183.121]	[Action:GetProgramList 14/1082]	[Remarks:[{"ID":"1","ProgramIndex":"GST","ProgramName":"GST"}]]
[Date: 2020-10-07 16:45:29]	[UserID:14/1082]	[IP:10.128.12.114]	[Browser:Chrome - 85.0.4183.121]	[Action:Making connection to server]	[Remarks:Successful connection to server: S3]
[Date: 2020-10-07 16:45:29]	[UserID:14/1082]	[IP:10.128.12.114]	[Browser:Chrome - 85.0.4183.121]	[Action:GetProgramList 14/1082]	[Remarks:[{"ID":"1","ProgramIndex":"GST","ProgramName":"GST"}]]
[Date: 2020-10-07 16:45:29]	[UserID:14/1082]	[IP:10.128.12.114]	[Browser:Chrome - 85.0.4183.121]	[Action:Making connection to server]	[Remarks:Successful connection to server: S3]
[Date: 2020-10-07 16:45:29]	[UserID:14/1082]	[IP:10.128.12.114]	[Browser:Chrome - 85.0.4183.121]	[Action:Filtering User : MasterData Username : 14/1082]	[Remarks:Successful filter row count: 1]
[Date: 2020-10-07 16:45:30]	[UserID:14/1082]	[IP:10.128.12.114]	[Browser:Chrome - 85.0.4183.121]	[Action:Making connection to server]	[Remarks:Successful connection to server: S3]
[Date: 2020-10-07 16:45:30]	[UserID:14/1082]	[IP:10.128.12.114]	[Browser:Chrome - 85.0.4183.121]	[Action:GetGSTModules 14/1082,1]	[Remarks:Successful filter row count: 8]
[Date: 2020-10-07 16:45:30]	[UserID:14/1082]	[IP:10.128.12.114]	[Browser:Chrome - 85.0.4183.121]	[Action:Closing mssql connection]	[Remarks:Success]
[Date: 2020-10-07 18:22:16]	[UserID:]	[IP:10.128.12.114]	[Browser:Chrome - 85.0.4183.121]	[Action:Making connection to server]	[Remarks:Successful connection to server: S3]
[Date: 2020-10-07 18:22:16]	[UserID:]	[IP:10.128.12.114]	[Browser:Chrome - 85.0.4183.121]	[Action:GetProgramList ]	[Remarks:"no data"]
[Date: 2020-10-07 23:31:34]	[UserID:]	[IP:10.128.130.5]	[Browser:Firefox - 81.0]	[Action:Making connection to server]	[Remarks:Successful connection to server: S3]
[Date: 2020-10-07 23:31:34]	[UserID:]	[IP:10.128.130.5]	[Browser:Firefox - 81.0]	[Action:GetProgramList ]	[Remarks:"no data"]
