[Date: 2020-03-25 07:55:16]	[UserID:]	[IP:10.130.25.206]	[Browser:Firefox - 74.0]	[Action:Making connection to server]	[Remarks:Successful connection to server: S3]
[Date: 2020-03-25 07:55:16]	[UserID:]	[IP:10.130.25.206]	[Browser:Firefox - 74.0]	[Action:GetProgramList ]	[Remarks:"no data"]
[Date: 2020-03-25 08:01:17]	[UserID:]	[IP:10.130.25.206]	[Browser:Firefox - 74.0]	[Action:Making connection to server]	[Remarks:Successful connection to server: S3]
[Date: 2020-03-25 08:01:17]	[UserID:]	[IP:10.130.25.206]	[Browser:Firefox - 74.0]	[Action:GetProgramList ]	[Remarks:"no data"]
[Date: 2020-03-25 08:09:36]	[UserID:]	[IP:10.130.25.204]	[Browser:Chrome - 80.0.3987.132]	[Action:Making connection to server]	[Remarks:Successful connection to server: S3]
[Date: 2020-03-25 08:09:36]	[UserID:]	[IP:10.130.25.204]	[Browser:Chrome - 80.0.3987.132]	[Action:GetProgramList ]	[Remarks:"no data"]
[Date: 2020-03-25 08:12:09]	[UserID:]	[IP:10.130.25.207]	[Browser:Firefox - 74.0]	[Action:Making connection to server]	[Remarks:Successful connection to server: S3]
[Date: 2020-03-25 08:12:09]	[UserID:]	[IP:10.130.25.207]	[Browser:Firefox - 74.0]	[Action:GetProgramList ]	[Remarks:"no data"]
[Date: 2020-03-25 08:17:49]	[UserID:]	[IP:10.130.25.206]	[Browser:Firefox - 74.0]	[Action:Making connection to server]	[Remarks:Successful connection to server: S3]
[Date: 2020-03-25 08:17:49]	[UserID:]	[IP:10.130.25.206]	[Browser:Firefox - 74.0]	[Action:GetProgramList ]	[Remarks:"no data"]
[Date: 2020-03-25 08:29:25]	[UserID:]	[IP:10.128.12.120]	[Browser:Chrome - 80.0.3987.149]	[Action:Making connection to server]	[Remarks:Successful connection to server: S3]
[Date: 2020-03-25 08:29:25]	[UserID:]	[IP:10.128.12.120]	[Browser:Chrome - 80.0.3987.149]	[Action:GetProgramList ]	[Remarks:"no data"]
[Date: 2020-03-25 08:29:32]	[UserID:14/1082]	[IP:10.128.12.120]	[Browser:Chrome - 80.0.3987.149]	[Action:Making connection to server]	[Remarks:Successful connection to server: S3]
[Date: 2020-03-25 08:29:32]	[UserID:14/1082]	[IP:10.128.12.120]	[Browser:Chrome - 80.0.3987.149]	[Action:User 14/1082]	[Remarks:Success]
[Date: 2020-03-25 08:29:32]	[UserID:14/1082]	[IP:10.128.12.120]	[Browser:Chrome - 80.0.3987.149]	[Action:Filtering User : MasterData Username : 14/1082]	[Remarks:Successful filter row count: 0]
[Date: 2020-03-25 08:29:32]	[UserID:14/1082]	[IP:10.128.12.120]	[Browser:Chrome - 80.0.3987.149]	[Action:Filtering User : MasterData Username : 14/1082]	[Remarks:Successful filter row count: 0]
[Date: 2020-03-25 08:29:32]	[UserID:14/1082]	[IP:10.128.12.120]	[Browser:Chrome - 80.0.3987.149]	[Action:Filtering User : MasterData Username : 14/1082]	[Remarks:Success]
[Date: 2020-03-25 08:29:32]	[UserID:14/1082]	[IP:10.128.12.120]	[Browser:Chrome - 80.0.3987.149]	[Action:Closing mssql connection]	[Remarks:Success]
[Date: 2020-03-25 08:29:32]	[UserID:14/1082]	[IP:10.128.12.120]	[Browser:Chrome - 80.0.3987.149]	[Action:Making connection to server]	[Remarks:Successful connection to server: S3]
[Date: 2020-03-25 08:29:32]	[UserID:14/1082]	[IP:10.128.12.120]	[Browser:Chrome - 80.0.3987.149]	[Action:GetProgramList 14/1082]	[Remarks:[{"ID":"1","ProgramIndex":"GST","ProgramName":"GST"}]]
[Date: 2020-03-25 08:29:32]	[UserID:14/1082]	[IP:10.128.12.120]	[Browser:Chrome - 80.0.3987.149]	[Action:Making connection to server]	[Remarks:Successful connection to server: S3]
[Date: 2020-03-25 08:29:32]	[UserID:14/1082]	[IP:10.128.12.120]	[Browser:Chrome - 80.0.3987.149]	[Action:GetProgramList 14/1082]	[Remarks:[{"ID":"1","ProgramIndex":"GST","ProgramName":"GST"}]]
[Date: 2020-03-25 08:29:32]	[UserID:14/1082]	[IP:10.128.12.120]	[Browser:Chrome - 80.0.3987.149]	[Action:Making connection to server]	[Remarks:Successful connection to server: S3]
[Date: 2020-03-25 08:29:32]	[UserID:14/1082]	[IP:10.128.12.120]	[Browser:Chrome - 80.0.3987.149]	[Action:Filtering User : MasterData Username : 14/1082]	[Remarks:Successful filter row count: 1]
[Date: 2020-03-25 08:29:35]	[UserID:14/1082]	[IP:10.128.12.120]	[Browser:Chrome - 80.0.3987.149]	[Action:Making connection to server]	[Remarks:Successful connection to server: S3]
[Date: 2020-03-25 08:29:35]	[UserID:14/1082]	[IP:10.128.12.120]	[Browser:Chrome - 80.0.3987.149]	[Action:User 14/1082]	[Remarks:Success]
[Date: 2020-03-25 08:29:35]	[UserID:14/1082]	[IP:10.128.12.120]	[Browser:Chrome - 80.0.3987.149]	[Action:Filtering User : MasterData Username : 14/1082]	[Remarks:Successful filter row count: 0]
[Date: 2020-03-25 08:29:35]	[UserID:14/1082]	[IP:10.128.12.120]	[Browser:Chrome - 80.0.3987.149]	[Action:Filtering User : MasterData Username : 14/1082]	[Remarks:Successful filter row count: 0]
[Date: 2020-03-25 08:29:35]	[UserID:14/1082]	[IP:10.128.12.120]	[Browser:Chrome - 80.0.3987.149]	[Action:Filtering User : MasterData Username : 14/1082]	[Remarks:Success]
[Date: 2020-03-25 08:29:35]	[UserID:14/1082]	[IP:10.128.12.120]	[Browser:Chrome - 80.0.3987.149]	[Action:Closing mssql connection]	[Remarks:Success]
[Date: 2020-03-25 08:29:35]	[UserID:14/1082]	[IP:10.128.12.120]	[Browser:Chrome - 80.0.3987.149]	[Action:Making connection to server]	[Remarks:Successful connection to server: S3]
[Date: 2020-03-25 08:29:35]	[UserID:14/1082]	[IP:10.128.12.120]	[Browser:Chrome - 80.0.3987.149]	[Action:GetProgramList 14/1082]	[Remarks:[{"ID":"1","ProgramIndex":"GST","ProgramName":"GST"}]]
[Date: 2020-03-25 08:29:35]	[UserID:14/1082]	[IP:10.128.12.120]	[Browser:Chrome - 80.0.3987.149]	[Action:Making connection to server]	[Remarks:Successful connection to server: S3]
[Date: 2020-03-25 08:29:35]	[UserID:14/1082]	[IP:10.128.12.120]	[Browser:Chrome - 80.0.3987.149]	[Action:GetProgramList 14/1082]	[Remarks:[{"ID":"1","ProgramIndex":"GST","ProgramName":"GST"}]]
[Date: 2020-03-25 08:29:35]	[UserID:14/1082]	[IP:10.128.12.120]	[Browser:Chrome - 80.0.3987.149]	[Action:Making connection to server]	[Remarks:Successful connection to server: S3]
[Date: 2020-03-25 08:29:35]	[UserID:14/1082]	[IP:10.128.12.120]	[Browser:Chrome - 80.0.3987.149]	[Action:Filtering User : MasterData Username : 14/1082]	[Remarks:Successful filter row count: 1]
[Date: 2020-03-25 08:29:39]	[UserID:14/1082]	[IP:10.128.12.120]	[Browser:Chrome - 80.0.3987.149]	[Action:Making connection to server]	[Remarks:Successful connection to server: S3]
[Date: 2020-03-25 08:29:39]	[UserID:14/1082]	[IP:10.128.12.120]	[Browser:Chrome - 80.0.3987.149]	[Action:GetGSTModules 14/1082,1]	[Remarks:Successful filter row count: 8]
[Date: 2020-03-25 08:29:39]	[UserID:14/1082]	[IP:10.128.12.120]	[Browser:Chrome - 80.0.3987.149]	[Action:Closing mssql connection]	[Remarks:Success]
[Date: 2020-03-25 08:56:02]	[UserID:14/1082]	[IP:10.128.12.120]	[Browser:Chrome - 80.0.3987.149]	[Action:Making connection to server]	[Remarks:Successful connection to server: S3]
[Date: 2020-03-25 08:56:02]	[UserID:14/1082]	[IP:10.128.12.120]	[Browser:Chrome - 80.0.3987.149]	[Action:GetGSTModules 14/1082,1]	[Remarks:Successful filter row count: 8]
[Date: 2020-03-25 08:56:02]	[UserID:14/1082]	[IP:10.128.12.120]	[Browser:Chrome - 80.0.3987.149]	[Action:Closing mssql connection]	[Remarks:Success]
[Date: 2020-03-25 09:30:05]	[UserID:14/1082]	[IP:10.128.12.120]	[Browser:Chrome - 80.0.3987.149]	[Action:Making connection to server]	[Remarks:Successful connection to server: S3]
[Date: 2020-03-25 09:30:05]	[UserID:14/1082]	[IP:10.128.12.120]	[Browser:Chrome - 80.0.3987.149]	[Action:GetGSTModules 14/1082,1]	[Remarks:Successful filter row count: 8]
[Date: 2020-03-25 09:30:05]	[UserID:14/1082]	[IP:10.128.12.120]	[Browser:Chrome - 80.0.3987.149]	[Action:Closing mssql connection]	[Remarks:Success]
[Date: 2020-03-25 09:30:06]	[UserID:14/1082]	[IP:10.128.12.120]	[Browser:Chrome - 80.0.3987.149]	[Action:Making connection to server]	[Remarks:Successful connection to server: S3]
[Date: 2020-03-25 09:30:06]	[UserID:14/1082]	[IP:10.128.12.120]	[Browser:Chrome - 80.0.3987.149]	[Action:GetProgramList 14/1082]	[Remarks:[{"ID":"1","ProgramIndex":"GST","ProgramName":"GST"}]]
[Date: 2020-03-25 09:30:06]	[UserID:14/1082]	[IP:10.128.12.120]	[Browser:Chrome - 80.0.3987.149]	[Action:Making connection to server]	[Remarks:Successful connection to server: S3]
[Date: 2020-03-25 09:30:06]	[UserID:14/1082]	[IP:10.128.12.120]	[Browser:Chrome - 80.0.3987.149]	[Action:GetProgramList 14/1082]	[Remarks:[{"ID":"1","ProgramIndex":"GST","ProgramName":"GST"}]]
[Date: 2020-03-25 09:30:06]	[UserID:14/1082]	[IP:10.128.12.120]	[Browser:Chrome - 80.0.3987.149]	[Action:Making connection to server]	[Remarks:Successful connection to server: S3]
[Date: 2020-03-25 09:30:06]	[UserID:14/1082]	[IP:10.128.12.120]	[Browser:Chrome - 80.0.3987.149]	[Action:Filtering User : MasterData Username : 14/1082]	[Remarks:Successful filter row count: 1]
[Date: 2020-03-25 09:30:07]	[UserID:14/1082]	[IP:10.128.12.120]	[Browser:Chrome - 80.0.3987.149]	[Action:Making connection to server]	[Remarks:Successful connection to server: S3]
[Date: 2020-03-25 09:30:07]	[UserID:14/1082]	[IP:10.128.12.120]	[Browser:Chrome - 80.0.3987.149]	[Action:GetGSTModules 14/1082,1]	[Remarks:Successful filter row count: 8]
[Date: 2020-03-25 09:30:07]	[UserID:14/1082]	[IP:10.128.12.120]	[Browser:Chrome - 80.0.3987.149]	[Action:Closing mssql connection]	[Remarks:Success]
[Date: 2020-03-25 09:41:12]	[UserID:]	[IP:10.128.12.113]	[Browser:Chrome - 80.0.3987.149]	[Action:Making connection to server]	[Remarks:Successful connection to server: S3]
[Date: 2020-03-25 09:41:12]	[UserID:]	[IP:10.128.12.113]	[Browser:Chrome - 80.0.3987.149]	[Action:GetProgramList ]	[Remarks:"no data"]
[Date: 2020-03-25 09:41:18]	[UserID:06/343]	[IP:10.128.12.113]	[Browser:Chrome - 80.0.3987.149]	[Action:Making connection to server]	[Remarks:Successful connection to server: S3]
[Date: 2020-03-25 09:41:18]	[UserID:06/343]	[IP:10.128.12.113]	[Browser:Chrome - 80.0.3987.149]	[Action:User 06/343]	[Remarks:Success]
[Date: 2020-03-25 09:41:18]	[UserID:06/343]	[IP:10.128.12.113]	[Browser:Chrome - 80.0.3987.149]	[Action:Filtering User : MasterData Username : 06/343]	[Remarks:Successful filter row count: 0]
[Date: 2020-03-25 09:41:18]	[UserID:06/343]	[IP:10.128.12.113]	[Browser:Chrome - 80.0.3987.149]	[Action:Filtering User : MasterData Username : 06/343]	[Remarks:Successful filter row count: 0]
[Date: 2020-03-25 09:41:18]	[UserID:06/343]	[IP:10.128.12.113]	[Browser:Chrome - 80.0.3987.149]	[Action:Filtering User : MasterData Username : 06/343]	[Remarks:Success]
[Date: 2020-03-25 09:41:18]	[UserID:06/343]	[IP:10.128.12.113]	[Browser:Chrome - 80.0.3987.149]	[Action:Closing mssql connection]	[Remarks:Success]
[Date: 2020-03-25 09:41:18]	[UserID:06/343]	[IP:10.128.12.113]	[Browser:Chrome - 80.0.3987.149]	[Action:Making connection to server]	[Remarks:Successful connection to server: S3]
[Date: 2020-03-25 09:41:18]	[UserID:06/343]	[IP:10.128.12.113]	[Browser:Chrome - 80.0.3987.149]	[Action:GetProgramList 06/343]	[Remarks:[{"ID":"1","ProgramIndex":"GST","ProgramName":"GST"}]]
[Date: 2020-03-25 09:41:18]	[UserID:06/343]	[IP:10.128.12.113]	[Browser:Chrome - 80.0.3987.149]	[Action:Making connection to server]	[Remarks:Successful connection to server: S3]
[Date: 2020-03-25 09:41:19]	[UserID:06/343]	[IP:10.128.12.113]	[Browser:Chrome - 80.0.3987.149]	[Action:GetProgramList 06/343]	[Remarks:[{"ID":"1","ProgramIndex":"GST","ProgramName":"GST"}]]
[Date: 2020-03-25 09:41:19]	[UserID:06/343]	[IP:10.128.12.113]	[Browser:Chrome - 80.0.3987.149]	[Action:Making connection to server]	[Remarks:Successful connection to server: S3]
[Date: 2020-03-25 09:41:19]	[UserID:06/343]	[IP:10.128.12.113]	[Browser:Chrome - 80.0.3987.149]	[Action:Filtering User : MasterData Username : 06/343]	[Remarks:Successful filter row count: 1]
[Date: 2020-03-25 09:41:19]	[UserID:06/343]	[IP:10.128.12.113]	[Browser:Chrome - 80.0.3987.149]	[Action:Making connection to server]	[Remarks:Successful connection to server: S3]
[Date: 2020-03-25 09:41:19]	[UserID:06/343]	[IP:10.128.12.113]	[Browser:Chrome - 80.0.3987.149]	[Action:GetGSTModules 06/343,1]	[Remarks:Successful filter row count: 7]
[Date: 2020-03-25 09:41:19]	[UserID:06/343]	[IP:10.128.12.113]	[Browser:Chrome - 80.0.3987.149]	[Action:Closing mssql connection]	[Remarks:Success]
[Date: 2020-03-25 09:46:49]	[UserID:06/343]	[IP:10.128.12.113]	[Browser:Chrome - 80.0.3987.149]	[Action:Making connection to server]	[Remarks:Successful connection to server: S3]
[Date: 2020-03-25 09:46:49]	[UserID:06/343]	[IP:10.128.12.113]	[Browser:Chrome - 80.0.3987.149]	[Action:GetGSTModules 06/343,1]	[Remarks:Successful filter row count: 7]
[Date: 2020-03-25 09:46:49]	[UserID:06/343]	[IP:10.128.12.113]	[Browser:Chrome - 80.0.3987.149]	[Action:Closing mssql connection]	[Remarks:Success]
[Date: 2020-03-25 09:55:50]	[UserID:14/1082]	[IP:10.128.12.120]	[Browser:Chrome - 80.0.3987.149]	[Action:Making connection to server]	[Remarks:Successful connection to server: S3]
[Date: 2020-03-25 09:55:50]	[UserID:14/1082]	[IP:10.128.12.120]	[Browser:Chrome - 80.0.3987.149]	[Action:GetGSTModules 14/1082,1]	[Remarks:Successful filter row count: 8]
[Date: 2020-03-25 09:55:50]	[UserID:14/1082]	[IP:10.128.12.120]	[Browser:Chrome - 80.0.3987.149]	[Action:Closing mssql connection]	[Remarks:Success]
[Date: 2020-03-25 10:11:02]	[UserID:14/1082]	[IP:10.128.12.120]	[Browser:Chrome - 80.0.3987.149]	[Action:Making connection to server]	[Remarks:Successful connection to server: S3]
[Date: 2020-03-25 10:11:02]	[UserID:14/1082]	[IP:10.128.12.120]	[Browser:Chrome - 80.0.3987.149]	[Action:GetGSTModules 14/1082,1]	[Remarks:Successful filter row count: 8]
[Date: 2020-03-25 10:11:02]	[UserID:14/1082]	[IP:10.128.12.120]	[Browser:Chrome - 80.0.3987.149]	[Action:Closing mssql connection]	[Remarks:Success]
[Date: 2020-03-25 10:56:04]	[UserID:14/1082]	[IP:10.128.12.120]	[Browser:Chrome - 80.0.3987.149]	[Action:Making connection to server]	[Remarks:Successful connection to server: S3]
[Date: 2020-03-25 10:56:04]	[UserID:14/1082]	[IP:10.128.12.120]	[Browser:Chrome - 80.0.3987.149]	[Action:GetGSTModules 14/1082,1]	[Remarks:Successful filter row count: 8]
[Date: 2020-03-25 10:56:04]	[UserID:14/1082]	[IP:10.128.12.120]	[Browser:Chrome - 80.0.3987.149]	[Action:Closing mssql connection]	[Remarks:Success]
[Date: 2020-03-25 11:23:20]	[UserID:]	[IP:10.128.12.114]	[Browser:Chrome - 80.0.3987.149]	[Action:Making connection to server]	[Remarks:Successful connection to server: S3]
[Date: 2020-03-25 11:23:20]	[UserID:]	[IP:10.128.12.114]	[Browser:Chrome - 80.0.3987.149]	[Action:GetProgramList ]	[Remarks:"no data"]
[Date: 2020-03-25 11:23:28]	[UserID:14/1082]	[IP:10.128.12.114]	[Browser:Chrome - 80.0.3987.149]	[Action:Making connection to server]	[Remarks:Successful connection to server: S3]
[Date: 2020-03-25 11:23:28]	[UserID:14/1082]	[IP:10.128.12.114]	[Browser:Chrome - 80.0.3987.149]	[Action:User 14/1082]	[Remarks:Success]
[Date: 2020-03-25 11:23:28]	[UserID:14/1082]	[IP:10.128.12.114]	[Browser:Chrome - 80.0.3987.149]	[Action:Filtering User : MasterData Username : 14/1082]	[Remarks:Successful filter row count: 0]
[Date: 2020-03-25 11:23:28]	[UserID:14/1082]	[IP:10.128.12.114]	[Browser:Chrome - 80.0.3987.149]	[Action:Filtering User : MasterData Username : 14/1082]	[Remarks:Successful filter row count: 0]
[Date: 2020-03-25 11:23:28]	[UserID:14/1082]	[IP:10.128.12.114]	[Browser:Chrome - 80.0.3987.149]	[Action:Filtering User : MasterData Username : 14/1082]	[Remarks:Success]
[Date: 2020-03-25 11:23:28]	[UserID:14/1082]	[IP:10.128.12.114]	[Browser:Chrome - 80.0.3987.149]	[Action:Closing mssql connection]	[Remarks:Success]
[Date: 2020-03-25 11:23:28]	[UserID:14/1082]	[IP:10.128.12.114]	[Browser:Chrome - 80.0.3987.149]	[Action:Making connection to server]	[Remarks:Successful connection to server: S3]
[Date: 2020-03-25 11:23:28]	[UserID:14/1082]	[IP:10.128.12.114]	[Browser:Chrome - 80.0.3987.149]	[Action:GetProgramList 14/1082]	[Remarks:[{"ID":"1","ProgramIndex":"GST","ProgramName":"GST"}]]
[Date: 2020-03-25 11:23:28]	[UserID:14/1082]	[IP:10.128.12.114]	[Browser:Chrome - 80.0.3987.149]	[Action:Making connection to server]	[Remarks:Successful connection to server: S3]
[Date: 2020-03-25 11:23:28]	[UserID:14/1082]	[IP:10.128.12.114]	[Browser:Chrome - 80.0.3987.149]	[Action:GetProgramList 14/1082]	[Remarks:[{"ID":"1","ProgramIndex":"GST","ProgramName":"GST"}]]
[Date: 2020-03-25 11:23:28]	[UserID:14/1082]	[IP:10.128.12.114]	[Browser:Chrome - 80.0.3987.149]	[Action:Making connection to server]	[Remarks:Successful connection to server: S3]
[Date: 2020-03-25 11:23:28]	[UserID:14/1082]	[IP:10.128.12.114]	[Browser:Chrome - 80.0.3987.149]	[Action:Filtering User : MasterData Username : 14/1082]	[Remarks:Successful filter row count: 1]
[Date: 2020-03-25 11:23:29]	[UserID:14/1082]	[IP:10.128.12.114]	[Browser:Chrome - 80.0.3987.149]	[Action:Making connection to server]	[Remarks:Successful connection to server: S3]
[Date: 2020-03-25 11:23:29]	[UserID:14/1082]	[IP:10.128.12.114]	[Browser:Chrome - 80.0.3987.149]	[Action:GetGSTModules 14/1082,1]	[Remarks:Successful filter row count: 8]
[Date: 2020-03-25 11:23:29]	[UserID:14/1082]	[IP:10.128.12.114]	[Browser:Chrome - 80.0.3987.149]	[Action:Closing mssql connection]	[Remarks:Success]
[Date: 2020-03-25 11:28:39]	[UserID:14/1082]	[IP:10.128.12.120]	[Browser:Chrome - 80.0.3987.149]	[Action:Making connection to server]	[Remarks:Successful connection to server: S3]
[Date: 2020-03-25 11:28:39]	[UserID:14/1082]	[IP:10.128.12.120]	[Browser:Chrome - 80.0.3987.149]	[Action:GetGSTModules 14/1082,1]	[Remarks:Successful filter row count: 8]
[Date: 2020-03-25 11:28:39]	[UserID:14/1082]	[IP:10.128.12.120]	[Browser:Chrome - 80.0.3987.149]	[Action:Closing mssql connection]	[Remarks:Success]
[Date: 2020-03-25 13:59:22]	[UserID:]	[IP:10.128.12.114]	[Browser:Chrome - 80.0.3987.149]	[Action:Making connection to server]	[Remarks:Successful connection to server: S3]
[Date: 2020-03-25 13:59:22]	[UserID:]	[IP:10.128.12.114]	[Browser:Chrome - 80.0.3987.149]	[Action:GetProgramList ]	[Remarks:"no data"]
[Date: 2020-03-25 15:35:38]	[UserID:]	[IP:10.128.12.115]	[Browser:Chrome - 80.0.3987.149]	[Action:Making connection to server]	[Remarks:Successful connection to server: S3]
[Date: 2020-03-25 15:35:38]	[UserID:]	[IP:10.128.12.115]	[Browser:Chrome - 80.0.3987.149]	[Action:GetProgramList ]	[Remarks:"no data"]
[Date: 2020-03-25 15:35:44]	[UserID:17/1248]	[IP:10.128.12.115]	[Browser:Chrome - 80.0.3987.149]	[Action:Making connection to server]	[Remarks:Successful connection to server: S3]
[Date: 2020-03-25 15:35:44]	[UserID:17/1248]	[IP:10.128.12.115]	[Browser:Chrome - 80.0.3987.149]	[Action:User 17/1248]	[Remarks:Success]
[Date: 2020-03-25 15:35:44]	[UserID:17/1248]	[IP:10.128.12.115]	[Browser:Chrome - 80.0.3987.149]	[Action:Filtering User : MasterData Username : 17/1248]	[Remarks:Successful filter row count: 0]
[Date: 2020-03-25 15:35:44]	[UserID:17/1248]	[IP:10.128.12.115]	[Browser:Chrome - 80.0.3987.149]	[Action:Filtering User : MasterData Username : 17/1248]	[Remarks:Successful filter row count: 0]
[Date: 2020-03-25 15:35:44]	[UserID:17/1248]	[IP:10.128.12.115]	[Browser:Chrome - 80.0.3987.149]	[Action:Filtering User : MasterData Username : 17/1248]	[Remarks:Success]
[Date: 2020-03-25 15:35:44]	[UserID:17/1248]	[IP:10.128.12.115]	[Browser:Chrome - 80.0.3987.149]	[Action:Closing mssql connection]	[Remarks:Success]
[Date: 2020-03-25 15:35:46]	[UserID:17/1248]	[IP:10.128.12.115]	[Browser:Chrome - 80.0.3987.149]	[Action:Making connection to server]	[Remarks:Successful connection to server: S3]
[Date: 2020-03-25 15:35:46]	[UserID:17/1248]	[IP:10.128.12.115]	[Browser:Chrome - 80.0.3987.149]	[Action:GetProgramList 17/1248]	[Remarks:[{"ID":"1","ProgramIndex":"GST","ProgramName":"GST"}]]
[Date: 2020-03-25 15:35:46]	[UserID:17/1248]	[IP:10.128.12.115]	[Browser:Chrome - 80.0.3987.149]	[Action:Making connection to server]	[Remarks:Successful connection to server: S3]
[Date: 2020-03-25 15:35:46]	[UserID:17/1248]	[IP:10.128.12.115]	[Browser:Chrome - 80.0.3987.149]	[Action:GetProgramList 17/1248]	[Remarks:[{"ID":"1","ProgramIndex":"GST","ProgramName":"GST"}]]
[Date: 2020-03-25 15:35:46]	[UserID:17/1248]	[IP:10.128.12.115]	[Browser:Chrome - 80.0.3987.149]	[Action:Making connection to server]	[Remarks:Successful connection to server: S3]
[Date: 2020-03-25 15:35:46]	[UserID:17/1248]	[IP:10.128.12.115]	[Browser:Chrome - 80.0.3987.149]	[Action:Filtering User : MasterData Username : 17/1248]	[Remarks:Successful filter row count: 1]
[Date: 2020-03-25 15:35:46]	[UserID:17/1248]	[IP:10.128.12.115]	[Browser:Chrome - 80.0.3987.149]	[Action:Making connection to server]	[Remarks:Successful connection to server: S3]
[Date: 2020-03-25 15:35:46]	[UserID:17/1248]	[IP:10.128.12.115]	[Browser:Chrome - 80.0.3987.149]	[Action:GetGSTModules 17/1248,1]	[Remarks:Successful filter row count: 6]
[Date: 2020-03-25 15:35:46]	[UserID:17/1248]	[IP:10.128.12.115]	[Browser:Chrome - 80.0.3987.149]	[Action:Closing mssql connection]	[Remarks:Success]
[Date: 2020-03-25 15:44:26]	[UserID:17/1248]	[IP:10.128.12.115]	[Browser:Chrome - 80.0.3987.149]	[Action:Making connection to server]	[Remarks:Successful connection to server: S3]
[Date: 2020-03-25 15:44:26]	[UserID:17/1248]	[IP:10.128.12.115]	[Browser:Chrome - 80.0.3987.149]	[Action:GetGSTModules 17/1248,1]	[Remarks:Successful filter row count: 6]
[Date: 2020-03-25 15:44:26]	[UserID:17/1248]	[IP:10.128.12.115]	[Browser:Chrome - 80.0.3987.149]	[Action:Closing mssql connection]	[Remarks:Success]
[Date: 2020-03-25 15:49:35]	[UserID:17/1248]	[IP:10.128.12.115]	[Browser:Chrome - 80.0.3987.149]	[Action:Making connection to server]	[Remarks:Successful connection to server: S3]
[Date: 2020-03-25 15:49:35]	[UserID:17/1248]	[IP:10.128.12.115]	[Browser:Chrome - 80.0.3987.149]	[Action:GetGSTModules 17/1248,1]	[Remarks:Successful filter row count: 6]
[Date: 2020-03-25 15:49:35]	[UserID:17/1248]	[IP:10.128.12.115]	[Browser:Chrome - 80.0.3987.149]	[Action:Closing mssql connection]	[Remarks:Success]
[Date: 2020-03-25 15:56:17]	[UserID:]	[IP:10.128.12.120]	[Browser:Chrome - 80.0.3987.149]	[Action:Making connection to server]	[Remarks:Successful connection to server: S3]
[Date: 2020-03-25 15:56:17]	[UserID:]	[IP:10.128.12.120]	[Browser:Chrome - 80.0.3987.149]	[Action:GetProgramList ]	[Remarks:"no data"]
[Date: 2020-03-25 15:56:23]	[UserID:14/1082]	[IP:10.128.12.120]	[Browser:Chrome - 80.0.3987.149]	[Action:Making connection to server]	[Remarks:Successful connection to server: S3]
[Date: 2020-03-25 15:56:23]	[UserID:14/1082]	[IP:10.128.12.120]	[Browser:Chrome - 80.0.3987.149]	[Action:User 14/1082]	[Remarks:Success]
[Date: 2020-03-25 15:56:23]	[UserID:14/1082]	[IP:10.128.12.120]	[Browser:Chrome - 80.0.3987.149]	[Action:Filtering User : MasterData Username : 14/1082]	[Remarks:Successful filter row count: 0]
[Date: 2020-03-25 15:56:23]	[UserID:14/1082]	[IP:10.128.12.120]	[Browser:Chrome - 80.0.3987.149]	[Action:Filtering User : MasterData Username : 14/1082]	[Remarks:Successful filter row count: 0]
[Date: 2020-03-25 15:56:23]	[UserID:14/1082]	[IP:10.128.12.120]	[Browser:Chrome - 80.0.3987.149]	[Action:Filtering User : MasterData Username : 14/1082]	[Remarks:Success]
[Date: 2020-03-25 15:56:23]	[UserID:14/1082]	[IP:10.128.12.120]	[Browser:Chrome - 80.0.3987.149]	[Action:Closing mssql connection]	[Remarks:Success]
[Date: 2020-03-25 15:56:23]	[UserID:14/1082]	[IP:10.128.12.120]	[Browser:Chrome - 80.0.3987.149]	[Action:Making connection to server]	[Remarks:Successful connection to server: S3]
[Date: 2020-03-25 15:56:23]	[UserID:14/1082]	[IP:10.128.12.120]	[Browser:Chrome - 80.0.3987.149]	[Action:GetProgramList 14/1082]	[Remarks:[{"ID":"1","ProgramIndex":"GST","ProgramName":"GST"}]]
[Date: 2020-03-25 15:56:23]	[UserID:14/1082]	[IP:10.128.12.120]	[Browser:Chrome - 80.0.3987.149]	[Action:Making connection to server]	[Remarks:Successful connection to server: S3]
[Date: 2020-03-25 15:56:23]	[UserID:14/1082]	[IP:10.128.12.120]	[Browser:Chrome - 80.0.3987.149]	[Action:GetProgramList 14/1082]	[Remarks:[{"ID":"1","ProgramIndex":"GST","ProgramName":"GST"}]]
[Date: 2020-03-25 15:56:23]	[UserID:14/1082]	[IP:10.128.12.120]	[Browser:Chrome - 80.0.3987.149]	[Action:Making connection to server]	[Remarks:Successful connection to server: S3]
[Date: 2020-03-25 15:56:23]	[UserID:14/1082]	[IP:10.128.12.120]	[Browser:Chrome - 80.0.3987.149]	[Action:Filtering User : MasterData Username : 14/1082]	[Remarks:Successful filter row count: 1]
[Date: 2020-03-25 15:56:23]	[UserID:14/1082]	[IP:10.128.12.120]	[Browser:Chrome - 80.0.3987.149]	[Action:Making connection to server]	[Remarks:Successful connection to server: S3]
[Date: 2020-03-25 15:56:23]	[UserID:14/1082]	[IP:10.128.12.120]	[Browser:Chrome - 80.0.3987.149]	[Action:GetGSTModules 14/1082,1]	[Remarks:Successful filter row count: 8]
[Date: 2020-03-25 15:56:23]	[UserID:14/1082]	[IP:10.128.12.120]	[Browser:Chrome - 80.0.3987.149]	[Action:Closing mssql connection]	[Remarks:Success]
[Date: 2020-03-25 17:12:07]	[UserID:14/1082]	[IP:10.128.12.120]	[Browser:Chrome - 80.0.3987.149]	[Action:Making connection to server]	[Remarks:Successful connection to server: S3]
[Date: 2020-03-25 17:12:07]	[UserID:14/1082]	[IP:10.128.12.120]	[Browser:Chrome - 80.0.3987.149]	[Action:GetGSTModules 14/1082,1]	[Remarks:Successful filter row count: 8]
[Date: 2020-03-25 17:12:07]	[UserID:14/1082]	[IP:10.128.12.120]	[Browser:Chrome - 80.0.3987.149]	[Action:Closing mssql connection]	[Remarks:Success]
[Date: 2020-03-25 17:13:23]	[UserID:14/1082]	[IP:10.128.12.120]	[Browser:Chrome - 80.0.3987.149]	[Action:Making connection to server]	[Remarks:Successful connection to server: S3]
[Date: 2020-03-25 17:13:23]	[UserID:14/1082]	[IP:10.128.12.120]	[Browser:Chrome - 80.0.3987.149]	[Action:GetGSTModules 14/1082,1]	[Remarks:Successful filter row count: 8]
[Date: 2020-03-25 17:13:23]	[UserID:14/1082]	[IP:10.128.12.120]	[Browser:Chrome - 80.0.3987.149]	[Action:Closing mssql connection]	[Remarks:Success]
[Date: 2020-03-25 17:20:14]	[UserID:14/1082]	[IP:10.128.12.120]	[Browser:Chrome - 80.0.3987.149]	[Action:Making connection to server]	[Remarks:Successful connection to server: S3]
[Date: 2020-03-25 17:20:15]	[UserID:14/1082]	[IP:10.128.12.120]	[Browser:Chrome - 80.0.3987.149]	[Action:GetProgramList 14/1082]	[Remarks:[{"ID":"1","ProgramIndex":"GST","ProgramName":"GST"}]]
[Date: 2020-03-25 17:20:15]	[UserID:14/1082]	[IP:10.128.12.120]	[Browser:Chrome - 80.0.3987.149]	[Action:Making connection to server]	[Remarks:Successful connection to server: S3]
[Date: 2020-03-25 17:20:15]	[UserID:14/1082]	[IP:10.128.12.120]	[Browser:Chrome - 80.0.3987.149]	[Action:GetProgramList 14/1082]	[Remarks:[{"ID":"1","ProgramIndex":"GST","ProgramName":"GST"}]]
[Date: 2020-03-25 17:20:15]	[UserID:14/1082]	[IP:10.128.12.120]	[Browser:Chrome - 80.0.3987.149]	[Action:Making connection to server]	[Remarks:Successful connection to server: S3]
[Date: 2020-03-25 17:20:15]	[UserID:14/1082]	[IP:10.128.12.120]	[Browser:Chrome - 80.0.3987.149]	[Action:Filtering User : MasterData Username : 14/1082]	[Remarks:Successful filter row count: 1]
[Date: 2020-03-25 17:20:15]	[UserID:14/1082]	[IP:10.128.12.120]	[Browser:Chrome - 80.0.3987.149]	[Action:Making connection to server]	[Remarks:Successful connection to server: S3]
[Date: 2020-03-25 17:20:15]	[UserID:14/1082]	[IP:10.128.12.120]	[Browser:Chrome - 80.0.3987.149]	[Action:GetGSTModules 14/1082,1]	[Remarks:Successful filter row count: 8]
[Date: 2020-03-25 17:20:15]	[UserID:14/1082]	[IP:10.128.12.120]	[Browser:Chrome - 80.0.3987.149]	[Action:Closing mssql connection]	[Remarks:Success]
[Date: 2020-03-25 17:27:49]	[UserID:]	[IP:10.128.12.120]	[Browser:Chrome - 80.0.3987.149]	[Action:Making connection to server]	[Remarks:Successful connection to server: S3]
[Date: 2020-03-25 17:27:49]	[UserID:]	[IP:10.128.12.120]	[Browser:Chrome - 80.0.3987.149]	[Action:GetProgramList ]	[Remarks:"no data"]
[Date: 2020-03-25 17:27:56]	[UserID:14/1082]	[IP:10.128.12.120]	[Browser:Chrome - 80.0.3987.149]	[Action:Making connection to server]	[Remarks:Successful connection to server: S3]
[Date: 2020-03-25 17:27:56]	[UserID:14/1082]	[IP:10.128.12.120]	[Browser:Chrome - 80.0.3987.149]	[Action:User 14/1082]	[Remarks:Success]
[Date: 2020-03-25 17:27:56]	[UserID:14/1082]	[IP:10.128.12.120]	[Browser:Chrome - 80.0.3987.149]	[Action:Filtering User : MasterData Username : 14/1082]	[Remarks:Successful filter row count: 0]
[Date: 2020-03-25 17:27:56]	[UserID:14/1082]	[IP:10.128.12.120]	[Browser:Chrome - 80.0.3987.149]	[Action:Filtering User : MasterData Username : 14/1082]	[Remarks:Successful filter row count: 0]
[Date: 2020-03-25 17:27:56]	[UserID:14/1082]	[IP:10.128.12.120]	[Browser:Chrome - 80.0.3987.149]	[Action:Filtering User : MasterData Username : 14/1082]	[Remarks:Success]
[Date: 2020-03-25 17:27:56]	[UserID:14/1082]	[IP:10.128.12.120]	[Browser:Chrome - 80.0.3987.149]	[Action:Closing mssql connection]	[Remarks:Success]
[Date: 2020-03-25 17:27:57]	[UserID:14/1082]	[IP:10.128.12.120]	[Browser:Chrome - 80.0.3987.149]	[Action:Making connection to server]	[Remarks:Successful connection to server: S3]
[Date: 2020-03-25 17:27:57]	[UserID:14/1082]	[IP:10.128.12.120]	[Browser:Chrome - 80.0.3987.149]	[Action:GetProgramList 14/1082]	[Remarks:[{"ID":"1","ProgramIndex":"GST","ProgramName":"GST"}]]
[Date: 2020-03-25 17:27:57]	[UserID:14/1082]	[IP:10.128.12.120]	[Browser:Chrome - 80.0.3987.149]	[Action:Making connection to server]	[Remarks:Successful connection to server: S3]
[Date: 2020-03-25 17:27:57]	[UserID:14/1082]	[IP:10.128.12.120]	[Browser:Chrome - 80.0.3987.149]	[Action:GetProgramList 14/1082]	[Remarks:[{"ID":"1","ProgramIndex":"GST","ProgramName":"GST"}]]
[Date: 2020-03-25 17:27:57]	[UserID:14/1082]	[IP:10.128.12.120]	[Browser:Chrome - 80.0.3987.149]	[Action:Making connection to server]	[Remarks:Successful connection to server: S3]
[Date: 2020-03-25 17:27:57]	[UserID:14/1082]	[IP:10.128.12.120]	[Browser:Chrome - 80.0.3987.149]	[Action:Filtering User : MasterData Username : 14/1082]	[Remarks:Successful filter row count: 1]
[Date: 2020-03-25 17:27:57]	[UserID:14/1082]	[IP:10.128.12.120]	[Browser:Chrome - 80.0.3987.149]	[Action:Making connection to server]	[Remarks:Successful connection to server: S3]
[Date: 2020-03-25 17:27:57]	[UserID:14/1082]	[IP:10.128.12.120]	[Browser:Chrome - 80.0.3987.149]	[Action:GetGSTModules 14/1082,1]	[Remarks:Successful filter row count: 8]
[Date: 2020-03-25 17:27:57]	[UserID:14/1082]	[IP:10.128.12.120]	[Browser:Chrome - 80.0.3987.149]	[Action:Closing mssql connection]	[Remarks:Success]
[Date: 2020-03-25 17:36:19]	[UserID:14/1082]	[IP:10.128.12.120]	[Browser:Chrome - 80.0.3987.149]	[Action:Making connection to server]	[Remarks:Successful connection to server: S3]
[Date: 2020-03-25 17:36:19]	[UserID:14/1082]	[IP:10.128.12.120]	[Browser:Chrome - 80.0.3987.149]	[Action:GetGSTModules 14/1082,1]	[Remarks:Successful filter row count: 8]
[Date: 2020-03-25 17:36:19]	[UserID:14/1082]	[IP:10.128.12.120]	[Browser:Chrome - 80.0.3987.149]	[Action:Closing mssql connection]	[Remarks:Success]
[Date: 2020-03-25 17:52:15]	[UserID:14/1082]	[IP:10.128.12.120]	[Browser:Chrome - 80.0.3987.149]	[Action:Making connection to server]	[Remarks:Successful connection to server: S3]
[Date: 2020-03-25 17:52:15]	[UserID:14/1082]	[IP:10.128.12.120]	[Browser:Chrome - 80.0.3987.149]	[Action:GetGSTModules 14/1082,1]	[Remarks:Successful filter row count: 8]
[Date: 2020-03-25 17:52:15]	[UserID:14/1082]	[IP:10.128.12.120]	[Browser:Chrome - 80.0.3987.149]	[Action:Closing mssql connection]	[Remarks:Success]
[Date: 2020-03-25 17:52:16]	[UserID:14/1082]	[IP:10.128.12.120]	[Browser:Chrome - 80.0.3987.149]	[Action:Making connection to server]	[Remarks:Successful connection to server: S3]
[Date: 2020-03-25 17:52:16]	[UserID:14/1082]	[IP:10.128.12.120]	[Browser:Chrome - 80.0.3987.149]	[Action:GetProgramList 14/1082]	[Remarks:[{"ID":"1","ProgramIndex":"GST","ProgramName":"GST"}]]
[Date: 2020-03-25 17:52:16]	[UserID:14/1082]	[IP:10.128.12.120]	[Browser:Chrome - 80.0.3987.149]	[Action:Making connection to server]	[Remarks:Successful connection to server: S3]
[Date: 2020-03-25 17:52:16]	[UserID:14/1082]	[IP:10.128.12.120]	[Browser:Chrome - 80.0.3987.149]	[Action:GetProgramList 14/1082]	[Remarks:[{"ID":"1","ProgramIndex":"GST","ProgramName":"GST"}]]
[Date: 2020-03-25 17:52:16]	[UserID:14/1082]	[IP:10.128.12.120]	[Browser:Chrome - 80.0.3987.149]	[Action:Making connection to server]	[Remarks:Successful connection to server: S3]
[Date: 2020-03-25 17:52:16]	[UserID:14/1082]	[IP:10.128.12.120]	[Browser:Chrome - 80.0.3987.149]	[Action:Filtering User : MasterData Username : 14/1082]	[Remarks:Successful filter row count: 1]
[Date: 2020-03-25 17:52:17]	[UserID:14/1082]	[IP:10.128.12.120]	[Browser:Chrome - 80.0.3987.149]	[Action:Making connection to server]	[Remarks:Successful connection to server: S3]
[Date: 2020-03-25 17:52:17]	[UserID:14/1082]	[IP:10.128.12.120]	[Browser:Chrome - 80.0.3987.149]	[Action:GetGSTModules 14/1082,1]	[Remarks:Successful filter row count: 8]
[Date: 2020-03-25 17:52:17]	[UserID:14/1082]	[IP:10.128.12.120]	[Browser:Chrome - 80.0.3987.149]	[Action:Closing mssql connection]	[Remarks:Success]
[Date: 2020-03-25 22:38:18]	[UserID:]	[IP:10.130.25.208]	[Browser:Firefox - 60.0]	[Action:Making connection to server]	[Remarks:Successful connection to server: S3]
[Date: 2020-03-25 22:38:18]	[UserID:]	[IP:10.130.25.208]	[Browser:Firefox - 60.0]	[Action:GetProgramList ]	[Remarks:"no data"]
[Date: 2020-03-25 23:06:29]	[UserID:]	[IP:10.130.25.208]	[Browser:Firefox - 60.0]	[Action:Making connection to server]	[Remarks:Successful connection to server: S3]
[Date: 2020-03-25 23:06:29]	[UserID:]	[IP:10.130.25.208]	[Browser:Firefox - 60.0]	[Action:GetProgramList ]	[Remarks:"no data"]
