[Date: 2017-01-23 11:31:41]	[UserID:]	[IP:10.128.12.114]	[Browser:Chrome - 55.0.2883.87]	[Action:Making connection to server]	[Remarks:Successful connection to server: S3]
[Date: 2017-01-23 11:31:41]	[UserID:]	[IP:10.128.12.114]	[Browser:Chrome - 55.0.2883.87]	[Action:GetProgramList ]	[Remarks:"no data"]
[Date: 2017-01-23 11:31:43]	[UserID:14/1082]	[IP:10.128.12.114]	[Browser:Chrome - 55.0.2883.87]	[Action:Making connection to server]	[Remarks:Successful connection to server: S3]
[Date: 2017-01-23 11:31:43]	[UserID:14/1082]	[IP:10.128.12.114]	[Browser:Chrome - 55.0.2883.87]	[Action:User 14/1082]	[Remarks:Success]
[Date: 2017-01-23 11:31:43]	[UserID:14/1082]	[IP:10.128.12.114]	[Browser:Chrome - 55.0.2883.87]	[Action:Filtering User : MasterData Username : 14/1082]	[Remarks:Successful filter row count: 0]
[Date: 2017-01-23 11:31:43]	[UserID:14/1082]	[IP:10.128.12.114]	[Browser:Chrome - 55.0.2883.87]	[Action:Filtering User : MasterData Username : 14/1082]	[Remarks:Successful filter row count: 0]
[Date: 2017-01-23 11:31:43]	[UserID:14/1082]	[IP:10.128.12.114]	[Browser:Chrome - 55.0.2883.87]	[Action:Filtering User : MasterData Username : 14/1082]	[Remarks:Success]
[Date: 2017-01-23 11:31:43]	[UserID:14/1082]	[IP:10.128.12.114]	[Browser:Chrome - 55.0.2883.87]	[Action:Closing mssql connection]	[Remarks:Success]
[Date: 2017-01-23 11:31:43]	[UserID:14/1082]	[IP:10.128.12.114]	[Browser:Chrome - 55.0.2883.87]	[Action:Making connection to server]	[Remarks:Successful connection to server: S3]
[Date: 2017-01-23 11:31:43]	[UserID:14/1082]	[IP:10.128.12.114]	[Browser:Chrome - 55.0.2883.87]	[Action:GetProgramList 14/1082]	[Remarks:[{"ID":"1","ProgramIndex":"GST","ProgramName":"GST"}]]
[Date: 2017-01-23 11:31:43]	[UserID:14/1082]	[IP:10.128.12.114]	[Browser:Chrome - 55.0.2883.87]	[Action:Making connection to server]	[Remarks:Successful connection to server: S3]
[Date: 2017-01-23 11:31:43]	[UserID:14/1082]	[IP:10.128.12.114]	[Browser:Chrome - 55.0.2883.87]	[Action:GetProgramList 14/1082]	[Remarks:[{"ID":"1","ProgramIndex":"GST","ProgramName":"GST"}]]
[Date: 2017-01-23 11:31:43]	[UserID:14/1082]	[IP:10.128.12.114]	[Browser:Chrome - 55.0.2883.87]	[Action:Making connection to server]	[Remarks:Successful connection to server: S3]
[Date: 2017-01-23 11:31:43]	[UserID:14/1082]	[IP:10.128.12.114]	[Browser:Chrome - 55.0.2883.87]	[Action:Filtering User : MasterData Username : 14/1082]	[Remarks:Successful filter row count: 1]
[Date: 2017-01-23 11:31:43]	[UserID:14/1082]	[IP:10.128.12.114]	[Browser:Chrome - 55.0.2883.87]	[Action:Making connection to server]	[Remarks:Successful connection to server: S3]
[Date: 2017-01-23 11:31:43]	[UserID:14/1082]	[IP:10.128.12.114]	[Browser:Chrome - 55.0.2883.87]	[Action:GetGSTModules 14/1082,1]	[Remarks:Successful filter row count: 7]
[Date: 2017-01-23 11:31:43]	[UserID:14/1082]	[IP:10.128.12.114]	[Browser:Chrome - 55.0.2883.87]	[Action:Closing mssql connection]	[Remarks:Success]
[Date: 2017-01-23 11:48:05]	[UserID:14/1082]	[IP:10.128.12.114]	[Browser:Chrome - 55.0.2883.87]	[Action:Making connection to server]	[Remarks:Successful connection to server: S3]
[Date: 2017-01-23 11:48:05]	[UserID:14/1082]	[IP:10.128.12.114]	[Browser:Chrome - 55.0.2883.87]	[Action:GetGSTModules 14/1082,1]	[Remarks:Successful filter row count: 7]
[Date: 2017-01-23 11:48:05]	[UserID:14/1082]	[IP:10.128.12.114]	[Browser:Chrome - 55.0.2883.87]	[Action:Closing mssql connection]	[Remarks:Success]
[Date: 2017-01-23 17:56:39]	[UserID:14/1082]	[IP:10.128.12.114]	[Browser:Chrome - 55.0.2883.87]	[Action:Making connection to server]	[Remarks:Successful connection to server: S3]
[Date: 2017-01-23 17:56:39]	[UserID:14/1082]	[IP:10.128.12.114]	[Browser:Chrome - 55.0.2883.87]	[Action:GetProgramList 14/1082]	[Remarks:[{"ID":"1","ProgramIndex":"GST","ProgramName":"GST"}]]
[Date: 2017-01-23 17:56:39]	[UserID:14/1082]	[IP:10.128.12.114]	[Browser:Chrome - 55.0.2883.87]	[Action:Making connection to server]	[Remarks:Successful connection to server: S3]
[Date: 2017-01-23 17:56:39]	[UserID:14/1082]	[IP:10.128.12.114]	[Browser:Chrome - 55.0.2883.87]	[Action:GetProgramList 14/1082]	[Remarks:[{"ID":"1","ProgramIndex":"GST","ProgramName":"GST"}]]
[Date: 2017-01-23 17:56:39]	[UserID:14/1082]	[IP:10.128.12.114]	[Browser:Chrome - 55.0.2883.87]	[Action:Making connection to server]	[Remarks:Successful connection to server: S3]
[Date: 2017-01-23 17:56:39]	[UserID:14/1082]	[IP:10.128.12.114]	[Browser:Chrome - 55.0.2883.87]	[Action:Filtering User : MasterData Username : 14/1082]	[Remarks:Successful filter row count: 1]
[Date: 2017-01-23 17:56:39]	[UserID:14/1082]	[IP:10.128.12.114]	[Browser:Chrome - 55.0.2883.87]	[Action:Making connection to server]	[Remarks:Successful connection to server: S3]
[Date: 2017-01-23 17:56:39]	[UserID:14/1082]	[IP:10.128.12.114]	[Browser:Chrome - 55.0.2883.87]	[Action:GetGSTModules 14/1082,1]	[Remarks:Successful filter row count: 7]
[Date: 2017-01-23 17:56:39]	[UserID:14/1082]	[IP:10.128.12.114]	[Browser:Chrome - 55.0.2883.87]	[Action:Closing mssql connection]	[Remarks:Success]
[Date: 2017-01-23 19:35:00]	[UserID:]	[IP:10.128.12.114]	[Browser:Chrome - 55.0.2883.87]	[Action:Making connection to server]	[Remarks:Successful connection to server: S3]
[Date: 2017-01-23 19:35:00]	[UserID:]	[IP:10.128.12.114]	[Browser:Chrome - 55.0.2883.87]	[Action:GetProgramList ]	[Remarks:"no data"]
[Date: 2017-01-23 19:35:02]	[UserID:14/1082]	[IP:10.128.12.114]	[Browser:Chrome - 55.0.2883.87]	[Action:Making connection to server]	[Remarks:Successful connection to server: S3]
[Date: 2017-01-23 19:35:02]	[UserID:14/1082]	[IP:10.128.12.114]	[Browser:Chrome - 55.0.2883.87]	[Action:User 14/1082]	[Remarks:Success]
[Date: 2017-01-23 19:35:02]	[UserID:14/1082]	[IP:10.128.12.114]	[Browser:Chrome - 55.0.2883.87]	[Action:Filtering User : MasterData Username : 14/1082]	[Remarks:Successful filter row count: 0]
[Date: 2017-01-23 19:35:02]	[UserID:14/1082]	[IP:10.128.12.114]	[Browser:Chrome - 55.0.2883.87]	[Action:Filtering User : MasterData Username : 14/1082]	[Remarks:Successful filter row count: 0]
[Date: 2017-01-23 19:35:02]	[UserID:14/1082]	[IP:10.128.12.114]	[Browser:Chrome - 55.0.2883.87]	[Action:Filtering User : MasterData Username : 14/1082]	[Remarks:Success]
[Date: 2017-01-23 19:35:02]	[UserID:14/1082]	[IP:10.128.12.114]	[Browser:Chrome - 55.0.2883.87]	[Action:Closing mssql connection]	[Remarks:Success]
[Date: 2017-01-23 19:35:02]	[UserID:14/1082]	[IP:10.128.12.114]	[Browser:Chrome - 55.0.2883.87]	[Action:Making connection to server]	[Remarks:Successful connection to server: S3]
[Date: 2017-01-23 19:35:02]	[UserID:14/1082]	[IP:10.128.12.114]	[Browser:Chrome - 55.0.2883.87]	[Action:GetProgramList 14/1082]	[Remarks:[{"ID":"1","ProgramIndex":"GST","ProgramName":"GST"}]]
[Date: 2017-01-23 19:35:02]	[UserID:14/1082]	[IP:10.128.12.114]	[Browser:Chrome - 55.0.2883.87]	[Action:Making connection to server]	[Remarks:Successful connection to server: S3]
[Date: 2017-01-23 19:35:02]	[UserID:14/1082]	[IP:10.128.12.114]	[Browser:Chrome - 55.0.2883.87]	[Action:GetProgramList 14/1082]	[Remarks:[{"ID":"1","ProgramIndex":"GST","ProgramName":"GST"}]]
[Date: 2017-01-23 19:35:02]	[UserID:14/1082]	[IP:10.128.12.114]	[Browser:Chrome - 55.0.2883.87]	[Action:Making connection to server]	[Remarks:Successful connection to server: S3]
[Date: 2017-01-23 19:35:02]	[UserID:14/1082]	[IP:10.128.12.114]	[Browser:Chrome - 55.0.2883.87]	[Action:Filtering User : MasterData Username : 14/1082]	[Remarks:Successful filter row count: 1]
[Date: 2017-01-23 19:35:02]	[UserID:14/1082]	[IP:10.128.12.114]	[Browser:Chrome - 55.0.2883.87]	[Action:Making connection to server]	[Remarks:Successful connection to server: S3]
[Date: 2017-01-23 19:35:02]	[UserID:14/1082]	[IP:10.128.12.114]	[Browser:Chrome - 55.0.2883.87]	[Action:GetGSTModules 14/1082,1]	[Remarks:Successful filter row count: 7]
[Date: 2017-01-23 19:35:02]	[UserID:14/1082]	[IP:10.128.12.114]	[Browser:Chrome - 55.0.2883.87]	[Action:Closing mssql connection]	[Remarks:Success]
[Date: 2017-01-23 19:38:13]	[UserID:14/1082]	[IP:10.128.12.114]	[Browser:Chrome - 55.0.2883.87]	[Action:Making connection to server]	[Remarks:Successful connection to server: S3]
[Date: 2017-01-23 19:38:13]	[UserID:14/1082]	[IP:10.128.12.114]	[Browser:Chrome - 55.0.2883.87]	[Action:GetGSTModules 14/1082,1]	[Remarks:Successful filter row count: 7]
[Date: 2017-01-23 19:38:13]	[UserID:14/1082]	[IP:10.128.12.114]	[Browser:Chrome - 55.0.2883.87]	[Action:Closing mssql connection]	[Remarks:Success]
[Date: 2017-01-23 19:54:35]	[UserID:]	[IP:10.128.12.114]	[Browser:Chrome - 55.0.2883.87]	[Action:Making connection to server]	[Remarks:Successful connection to server: S3]
[Date: 2017-01-23 19:54:35]	[UserID:]	[IP:10.128.12.114]	[Browser:Chrome - 55.0.2883.87]	[Action:GetProgramList ]	[Remarks:"no data"]
