[Date: 2015-04-29 08:04:20]	[UserID:]	[IP:10.10.11.1]	[Browser:Chrome - 42.0.2311.90]	[Action:Making connection to server]	[Remarks:Successful connection to server: S3]
[Date: 2015-04-29 08:04:20]	[UserID:]	[IP:10.10.11.1]	[Browser:Chrome - 42.0.2311.90]	[Action:GetProgramList ]	[Remarks:"no data"]
[Date: 2015-04-29 08:04:23]	[UserID:06/371]	[IP:10.10.11.1]	[Browser:Chrome - 42.0.2311.90]	[Action:Making connection to server]	[Remarks:Successful connection to server: S3]
[Date: 2015-04-29 08:04:23]	[UserID:06/371]	[IP:10.10.11.1]	[Browser:Chrome - 42.0.2311.90]	[Action:User 06/371]	[Remarks:Success]
[Date: 2015-04-29 08:04:23]	[UserID:06/371]	[IP:10.10.11.1]	[Browser:Chrome - 42.0.2311.90]	[Action:Filtering User : MasterData Username : 06/371]	[Remarks:Successful filter row count: 0]
[Date: 2015-04-29 08:04:23]	[UserID:06/371]	[IP:10.10.11.1]	[Browser:Chrome - 42.0.2311.90]	[Action:Filtering User : MasterData Username : 06/371]	[Remarks:Successful filter row count: 0]
[Date: 2015-04-29 08:04:23]	[UserID:06/371]	[IP:10.10.11.1]	[Browser:Chrome - 42.0.2311.90]	[Action:Filtering User : MasterData Username : 06/371]	[Remarks:Success]
[Date: 2015-04-29 08:04:23]	[UserID:06/371]	[IP:10.10.11.1]	[Browser:Chrome - 42.0.2311.90]	[Action:Closing mssql connection]	[Remarks:Success]
[Date: 2015-04-29 08:04:23]	[UserID:06/371]	[IP:10.10.11.1]	[Browser:Chrome - 42.0.2311.90]	[Action:Making connection to server]	[Remarks:Successful connection to server: S3]
[Date: 2015-04-29 08:04:23]	[UserID:06/371]	[IP:10.10.11.1]	[Browser:Chrome - 42.0.2311.90]	[Action:GetProgramList 06/371]	[Remarks:[{"ID":"1","ProgramIndex":"GST","ProgramName":"GST"}]]
[Date: 2015-04-29 08:04:23]	[UserID:06/371]	[IP:10.10.11.1]	[Browser:Chrome - 42.0.2311.90]	[Action:Making connection to server]	[Remarks:Successful connection to server: S3]
[Date: 2015-04-29 08:04:23]	[UserID:06/371]	[IP:10.10.11.1]	[Browser:Chrome - 42.0.2311.90]	[Action:GetProgramList 06/371]	[Remarks:[{"ID":"1","ProgramIndex":"GST","ProgramName":"GST"}]]
[Date: 2015-04-29 08:04:23]	[UserID:06/371]	[IP:10.10.11.1]	[Browser:Chrome - 42.0.2311.90]	[Action:Making connection to server]	[Remarks:Successful connection to server: S3]
[Date: 2015-04-29 08:04:23]	[UserID:06/371]	[IP:10.10.11.1]	[Browser:Chrome - 42.0.2311.90]	[Action:Filtering User : MasterData Username : 06/371]	[Remarks:Successful filter row count: 1]
[Date: 2015-04-29 08:04:23]	[UserID:06/371]	[IP:10.10.11.1]	[Browser:Chrome - 42.0.2311.90]	[Action:Making connection to server]	[Remarks:Successful connection to server: S3]
[Date: 2015-04-29 08:04:24]	[UserID:06/371]	[IP:10.10.11.1]	[Browser:Chrome - 42.0.2311.90]	[Action:GetGSTModules 06/371,1]	[Remarks:Successful filter row count: 5]
[Date: 2015-04-29 08:04:24]	[UserID:06/371]	[IP:10.10.11.1]	[Browser:Chrome - 42.0.2311.90]	[Action:Closing mssql connection]	[Remarks:Success]
[Date: 2015-04-29 08:28:04]	[UserID:06/371]	[IP:10.10.11.1]	[Browser:Chrome - 42.0.2311.90]	[Action:Making connection to server]	[Remarks:Successful connection to server: S3]
[Date: 2015-04-29 08:28:04]	[UserID:06/371]	[IP:10.10.11.1]	[Browser:Chrome - 42.0.2311.90]	[Action:GetGSTModules 06/371,1]	[Remarks:Successful filter row count: 5]
[Date: 2015-04-29 08:28:04]	[UserID:06/371]	[IP:10.10.11.1]	[Browser:Chrome - 42.0.2311.90]	[Action:Closing mssql connection]	[Remarks:Success]
[Date: 2015-04-29 08:40:45]	[UserID:06/371]	[IP:10.10.11.1]	[Browser:Chrome - 42.0.2311.90]	[Action:Making connection to server]	[Remarks:Successful connection to server: S3]
[Date: 2015-04-29 08:40:46]	[UserID:06/371]	[IP:10.10.11.1]	[Browser:Chrome - 42.0.2311.90]	[Action:GetGSTModules 06/371,1]	[Remarks:Successful filter row count: 5]
[Date: 2015-04-29 08:40:46]	[UserID:06/371]	[IP:10.10.11.1]	[Browser:Chrome - 42.0.2311.90]	[Action:Closing mssql connection]	[Remarks:Success]
[Date: 2015-04-29 09:03:42]	[UserID:06/371]	[IP:10.10.11.1]	[Browser:Chrome - 42.0.2311.90]	[Action:Making connection to server]	[Remarks:Successful connection to server: S3]
[Date: 2015-04-29 09:03:42]	[UserID:06/371]	[IP:10.10.11.1]	[Browser:Chrome - 42.0.2311.90]	[Action:GetGSTModules 06/371,1]	[Remarks:Successful filter row count: 5]
[Date: 2015-04-29 09:03:42]	[UserID:06/371]	[IP:10.10.11.1]	[Browser:Chrome - 42.0.2311.90]	[Action:Closing mssql connection]	[Remarks:Success]
[Date: 2015-04-29 09:07:03]	[UserID:06/371]	[IP:10.10.11.1]	[Browser:Chrome - 42.0.2311.90]	[Action:Making connection to server]	[Remarks:Successful connection to server: S3]
[Date: 2015-04-29 09:07:03]	[UserID:06/371]	[IP:10.10.11.1]	[Browser:Chrome - 42.0.2311.90]	[Action:GetGSTModules 06/371,1]	[Remarks:Successful filter row count: 5]
[Date: 2015-04-29 09:07:03]	[UserID:06/371]	[IP:10.10.11.1]	[Browser:Chrome - 42.0.2311.90]	[Action:Closing mssql connection]	[Remarks:Success]
[Date: 2015-04-29 09:08:28]	[UserID:06/371]	[IP:10.10.11.1]	[Browser:Chrome - 42.0.2311.90]	[Action:Making connection to server]	[Remarks:Successful connection to server: S3]
[Date: 2015-04-29 09:08:28]	[UserID:06/371]	[IP:10.10.11.1]	[Browser:Chrome - 42.0.2311.90]	[Action:GetGSTModules 06/371,1]	[Remarks:Successful filter row count: 5]
[Date: 2015-04-29 09:08:28]	[UserID:06/371]	[IP:10.10.11.1]	[Browser:Chrome - 42.0.2311.90]	[Action:Closing mssql connection]	[Remarks:Success]
[Date: 2015-04-29 09:08:55]	[UserID:06/371]	[IP:10.10.11.1]	[Browser:Chrome - 42.0.2311.90]	[Action:Making connection to server]	[Remarks:Successful connection to server: S3]
[Date: 2015-04-29 09:08:55]	[UserID:06/371]	[IP:10.10.11.1]	[Browser:Chrome - 42.0.2311.90]	[Action:GetGSTModules 06/371,1]	[Remarks:Successful filter row count: 5]
[Date: 2015-04-29 09:08:55]	[UserID:06/371]	[IP:10.10.11.1]	[Browser:Chrome - 42.0.2311.90]	[Action:Closing mssql connection]	[Remarks:Success]
[Date: 2015-04-29 09:09:08]	[UserID:06/371]	[IP:10.10.11.1]	[Browser:Chrome - 42.0.2311.90]	[Action:Making connection to server]	[Remarks:Successful connection to server: S3]
[Date: 2015-04-29 09:09:08]	[UserID:06/371]	[IP:10.10.11.1]	[Browser:Chrome - 42.0.2311.90]	[Action:GetGSTModules 06/371,1]	[Remarks:Successful filter row count: 5]
[Date: 2015-04-29 09:09:08]	[UserID:06/371]	[IP:10.10.11.1]	[Browser:Chrome - 42.0.2311.90]	[Action:Closing mssql connection]	[Remarks:Success]
[Date: 2015-04-29 09:10:02]	[UserID:06/371]	[IP:10.10.11.1]	[Browser:Chrome - 42.0.2311.90]	[Action:Making connection to server]	[Remarks:Successful connection to server: S3]
[Date: 2015-04-29 09:10:02]	[UserID:06/371]	[IP:10.10.11.1]	[Browser:Chrome - 42.0.2311.90]	[Action:GetGSTModules 06/371,1]	[Remarks:Successful filter row count: 5]
[Date: 2015-04-29 09:10:02]	[UserID:06/371]	[IP:10.10.11.1]	[Browser:Chrome - 42.0.2311.90]	[Action:Closing mssql connection]	[Remarks:Success]
[Date: 2015-04-29 09:17:59]	[UserID:06/371]	[IP:10.10.11.1]	[Browser:Chrome - 42.0.2311.90]	[Action:Making connection to server]	[Remarks:Successful connection to server: S3]
[Date: 2015-04-29 09:17:59]	[UserID:06/371]	[IP:10.10.11.1]	[Browser:Chrome - 42.0.2311.90]	[Action:GetGSTModules 06/371,1]	[Remarks:Successful filter row count: 5]
[Date: 2015-04-29 09:17:59]	[UserID:06/371]	[IP:10.10.11.1]	[Browser:Chrome - 42.0.2311.90]	[Action:Closing mssql connection]	[Remarks:Success]
[Date: 2015-04-29 09:23:45]	[UserID:]	[IP:10.10.11.1]	[Browser:Chrome - 42.0.2311.90]	[Action:Making connection to server]	[Remarks:Successful connection to server: S3]
[Date: 2015-04-29 09:23:45]	[UserID:]	[IP:10.10.11.1]	[Browser:Chrome - 42.0.2311.90]	[Action:GetProgramList ]	[Remarks:"no data"]
[Date: 2015-04-29 09:23:48]	[UserID:10/660]	[IP:10.10.11.1]	[Browser:Chrome - 42.0.2311.90]	[Action:Making connection to server]	[Remarks:Successful connection to server: S3]
[Date: 2015-04-29 09:23:48]	[UserID:10/660]	[IP:10.10.11.1]	[Browser:Chrome - 42.0.2311.90]	[Action:User 10/660]	[Remarks:Success]
[Date: 2015-04-29 09:23:48]	[UserID:10/660]	[IP:10.10.11.1]	[Browser:Chrome - 42.0.2311.90]	[Action:Filtering User : MasterData Username : 10/660]	[Remarks:Successful filter row count: 0]
[Date: 2015-04-29 09:23:48]	[UserID:10/660]	[IP:10.10.11.1]	[Browser:Chrome - 42.0.2311.90]	[Action:Filtering User : MasterData Username : 10/660]	[Remarks:Successful filter row count: 0]
[Date: 2015-04-29 09:23:48]	[UserID:10/660]	[IP:10.10.11.1]	[Browser:Chrome - 42.0.2311.90]	[Action:Filtering User : MasterData Username : 10/660]	[Remarks:Success]
[Date: 2015-04-29 09:23:48]	[UserID:10/660]	[IP:10.10.11.1]	[Browser:Chrome - 42.0.2311.90]	[Action:Closing mssql connection]	[Remarks:Success]
[Date: 2015-04-29 09:23:48]	[UserID:10/660]	[IP:10.10.11.1]	[Browser:Chrome - 42.0.2311.90]	[Action:Making connection to server]	[Remarks:Successful connection to server: S3]
[Date: 2015-04-29 09:23:48]	[UserID:10/660]	[IP:10.10.11.1]	[Browser:Chrome - 42.0.2311.90]	[Action:GetProgramList 10/660]	[Remarks:[{"ID":"1","ProgramIndex":"GST","ProgramName":"GST"}]]
[Date: 2015-04-29 09:23:48]	[UserID:10/660]	[IP:10.10.11.1]	[Browser:Chrome - 42.0.2311.90]	[Action:Making connection to server]	[Remarks:Successful connection to server: S3]
[Date: 2015-04-29 09:23:48]	[UserID:10/660]	[IP:10.10.11.1]	[Browser:Chrome - 42.0.2311.90]	[Action:GetProgramList 10/660]	[Remarks:[{"ID":"1","ProgramIndex":"GST","ProgramName":"GST"}]]
[Date: 2015-04-29 09:23:48]	[UserID:10/660]	[IP:10.10.11.1]	[Browser:Chrome - 42.0.2311.90]	[Action:Making connection to server]	[Remarks:Successful connection to server: S3]
[Date: 2015-04-29 09:23:48]	[UserID:10/660]	[IP:10.10.11.1]	[Browser:Chrome - 42.0.2311.90]	[Action:Filtering User : MasterData Username : 10/660]	[Remarks:Successful filter row count: 1]
[Date: 2015-04-29 09:23:49]	[UserID:10/660]	[IP:10.10.11.1]	[Browser:Chrome - 42.0.2311.90]	[Action:Making connection to server]	[Remarks:Successful connection to server: S3]
[Date: 2015-04-29 09:23:49]	[UserID:10/660]	[IP:10.10.11.1]	[Browser:Chrome - 42.0.2311.90]	[Action:GetGSTModules 10/660,1]	[Remarks:Successful filter row count: 3]
[Date: 2015-04-29 09:23:49]	[UserID:10/660]	[IP:10.10.11.1]	[Browser:Chrome - 42.0.2311.90]	[Action:Closing mssql connection]	[Remarks:Success]
[Date: 2015-04-29 10:09:51]	[UserID:06/371]	[IP:10.10.11.1]	[Browser:Chrome - 42.0.2311.90]	[Action:Making connection to server]	[Remarks:Successful connection to server: S3]
[Date: 2015-04-29 10:09:51]	[UserID:06/371]	[IP:10.10.11.1]	[Browser:Chrome - 42.0.2311.90]	[Action:GetProgramList 06/371]	[Remarks:[{"ID":"1","ProgramIndex":"GST","ProgramName":"GST"}]]
[Date: 2015-04-29 10:09:51]	[UserID:06/371]	[IP:10.10.11.1]	[Browser:Chrome - 42.0.2311.90]	[Action:Making connection to server]	[Remarks:Successful connection to server: S3]
[Date: 2015-04-29 10:09:51]	[UserID:06/371]	[IP:10.10.11.1]	[Browser:Chrome - 42.0.2311.90]	[Action:GetProgramList 06/371]	[Remarks:[{"ID":"1","ProgramIndex":"GST","ProgramName":"GST"}]]
[Date: 2015-04-29 10:09:51]	[UserID:06/371]	[IP:10.10.11.1]	[Browser:Chrome - 42.0.2311.90]	[Action:Making connection to server]	[Remarks:Successful connection to server: S3]
[Date: 2015-04-29 10:09:51]	[UserID:06/371]	[IP:10.10.11.1]	[Browser:Chrome - 42.0.2311.90]	[Action:Filtering User : MasterData Username : 06/371]	[Remarks:Successful filter row count: 1]
[Date: 2015-04-29 10:09:51]	[UserID:06/371]	[IP:10.10.11.1]	[Browser:Chrome - 42.0.2311.90]	[Action:Making connection to server]	[Remarks:Successful connection to server: S3]
[Date: 2015-04-29 10:09:52]	[UserID:06/371]	[IP:10.10.11.1]	[Browser:Chrome - 42.0.2311.90]	[Action:GetGSTModules 06/371,1]	[Remarks:Successful filter row count: 5]
[Date: 2015-04-29 10:09:52]	[UserID:06/371]	[IP:10.10.11.1]	[Browser:Chrome - 42.0.2311.90]	[Action:Closing mssql connection]	[Remarks:Success]
[Date: 2015-04-29 10:10:25]	[UserID:10/660]	[IP:10.10.11.1]	[Browser:Chrome - 42.0.2311.90]	[Action:Making connection to server]	[Remarks:Successful connection to server: S3]
[Date: 2015-04-29 10:10:25]	[UserID:10/660]	[IP:10.10.11.1]	[Browser:Chrome - 42.0.2311.90]	[Action:GetGSTModules 10/660,1]	[Remarks:Successful filter row count: 3]
[Date: 2015-04-29 10:10:25]	[UserID:10/660]	[IP:10.10.11.1]	[Browser:Chrome - 42.0.2311.90]	[Action:Closing mssql connection]	[Remarks:Success]
[Date: 2015-04-29 10:15:57]	[UserID:10/660]	[IP:10.10.11.1]	[Browser:Chrome - 42.0.2311.90]	[Action:Making connection to server]	[Remarks:Successful connection to server: S3]
[Date: 2015-04-29 10:15:57]	[UserID:10/660]	[IP:10.10.11.1]	[Browser:Chrome - 42.0.2311.90]	[Action:GetGSTModules 10/660,1]	[Remarks:Successful filter row count: 3]
[Date: 2015-04-29 10:15:57]	[UserID:10/660]	[IP:10.10.11.1]	[Browser:Chrome - 42.0.2311.90]	[Action:Closing mssql connection]	[Remarks:Success]
[Date: 2015-04-29 10:30:42]	[UserID:]	[IP:10.10.11.1]	[Browser:Chrome - 42.0.2311.90]	[Action:Making connection to server]	[Remarks:Successful connection to server: S3]
[Date: 2015-04-29 10:30:42]	[UserID:]	[IP:10.10.11.1]	[Browser:Chrome - 42.0.2311.90]	[Action:GetProgramList ]	[Remarks:"no data"]
[Date: 2015-04-29 10:30:59]	[UserID:06/343]	[IP:10.10.11.1]	[Browser:Chrome - 42.0.2311.90]	[Action:Making connection to server]	[Remarks:Successful connection to server: S3]
[Date: 2015-04-29 10:30:59]	[UserID:06/343]	[IP:10.10.11.1]	[Browser:Chrome - 42.0.2311.90]	[Action:User 06/343]	[Remarks:Success]
[Date: 2015-04-29 10:30:59]	[UserID:06/343]	[IP:10.10.11.1]	[Browser:Chrome - 42.0.2311.90]	[Action:Filtering User : MasterData Username : 06/343]	[Remarks:Successful filter row count: 0]
[Date: 2015-04-29 10:30:59]	[UserID:06/343]	[IP:10.10.11.1]	[Browser:Chrome - 42.0.2311.90]	[Action:Filtering User : MasterData Username : 06/343]	[Remarks:Successful filter row count: 0]
[Date: 2015-04-29 10:30:59]	[UserID:06/343]	[IP:10.10.11.1]	[Browser:Chrome - 42.0.2311.90]	[Action:Filtering User : MasterData Username : 06/343]	[Remarks:Success]
[Date: 2015-04-29 10:30:59]	[UserID:06/343]	[IP:10.10.11.1]	[Browser:Chrome - 42.0.2311.90]	[Action:Closing mssql connection]	[Remarks:Success]
[Date: 2015-04-29 10:31:00]	[UserID:06/343]	[IP:10.10.11.1]	[Browser:Chrome - 42.0.2311.90]	[Action:Making connection to server]	[Remarks:Successful connection to server: S3]
[Date: 2015-04-29 10:31:00]	[UserID:06/343]	[IP:10.10.11.1]	[Browser:Chrome - 42.0.2311.90]	[Action:GetProgramList 06/343]	[Remarks:[{"ID":"1","ProgramIndex":"GST","ProgramName":"GST"}]]
[Date: 2015-04-29 10:31:00]	[UserID:06/343]	[IP:10.10.11.1]	[Browser:Chrome - 42.0.2311.90]	[Action:Making connection to server]	[Remarks:Successful connection to server: S3]
[Date: 2015-04-29 10:31:00]	[UserID:06/343]	[IP:10.10.11.1]	[Browser:Chrome - 42.0.2311.90]	[Action:GetProgramList 06/343]	[Remarks:[{"ID":"1","ProgramIndex":"GST","ProgramName":"GST"}]]
[Date: 2015-04-29 10:31:00]	[UserID:06/343]	[IP:10.10.11.1]	[Browser:Chrome - 42.0.2311.90]	[Action:Making connection to server]	[Remarks:Successful connection to server: S3]
[Date: 2015-04-29 10:31:00]	[UserID:06/343]	[IP:10.10.11.1]	[Browser:Chrome - 42.0.2311.90]	[Action:Filtering User : MasterData Username : 06/343]	[Remarks:Successful filter row count: 1]
[Date: 2015-04-29 10:31:00]	[UserID:06/343]	[IP:10.10.11.1]	[Browser:Chrome - 42.0.2311.90]	[Action:Making connection to server]	[Remarks:Successful connection to server: S3]
[Date: 2015-04-29 10:31:00]	[UserID:06/343]	[IP:10.10.11.1]	[Browser:Chrome - 42.0.2311.90]	[Action:GetGSTModules 06/343,1]	[Remarks:Successful filter row count: 5]
[Date: 2015-04-29 10:31:00]	[UserID:06/343]	[IP:10.10.11.1]	[Browser:Chrome - 42.0.2311.90]	[Action:Closing mssql connection]	[Remarks:Success]
[Date: 2015-04-29 10:41:20]	[UserID:10/660]	[IP:10.10.11.1]	[Browser:Chrome - 42.0.2311.90]	[Action:Making connection to server]	[Remarks:Successful connection to server: S3]
[Date: 2015-04-29 10:41:20]	[UserID:10/660]	[IP:10.10.11.1]	[Browser:Chrome - 42.0.2311.90]	[Action:GetGSTModules 10/660,1]	[Remarks:Successful filter row count: 3]
[Date: 2015-04-29 10:41:20]	[UserID:10/660]	[IP:10.10.11.1]	[Browser:Chrome - 42.0.2311.90]	[Action:Closing mssql connection]	[Remarks:Success]
[Date: 2015-04-29 10:48:30]	[UserID:]	[IP:10.10.11.1]	[Browser:Chrome - 42.0.2311.90]	[Action:Making connection to server]	[Remarks:Successful connection to server: S3]
[Date: 2015-04-29 10:48:30]	[UserID:]	[IP:10.10.11.1]	[Browser:Chrome - 42.0.2311.90]	[Action:GetProgramList ]	[Remarks:"no data"]
[Date: 2015-04-29 11:06:13]	[UserID:06/371]	[IP:10.10.11.1]	[Browser:Chrome - 42.0.2311.90]	[Action:Making connection to server]	[Remarks:Successful connection to server: S3]
[Date: 2015-04-29 11:06:14]	[UserID:06/371]	[IP:10.10.11.1]	[Browser:Chrome - 42.0.2311.90]	[Action:GetProgramList 06/371]	[Remarks:[{"ID":"1","ProgramIndex":"GST","ProgramName":"GST"}]]
[Date: 2015-04-29 11:06:14]	[UserID:06/371]	[IP:10.10.11.1]	[Browser:Chrome - 42.0.2311.90]	[Action:Making connection to server]	[Remarks:Successful connection to server: S3]
[Date: 2015-04-29 11:06:14]	[UserID:06/371]	[IP:10.10.11.1]	[Browser:Chrome - 42.0.2311.90]	[Action:GetProgramList 06/371]	[Remarks:[{"ID":"1","ProgramIndex":"GST","ProgramName":"GST"}]]
[Date: 2015-04-29 11:06:14]	[UserID:06/371]	[IP:10.10.11.1]	[Browser:Chrome - 42.0.2311.90]	[Action:Making connection to server]	[Remarks:Successful connection to server: S3]
[Date: 2015-04-29 11:06:14]	[UserID:06/371]	[IP:10.10.11.1]	[Browser:Chrome - 42.0.2311.90]	[Action:Filtering User : MasterData Username : 06/371]	[Remarks:Successful filter row count: 1]
[Date: 2015-04-29 11:06:14]	[UserID:06/371]	[IP:10.10.11.1]	[Browser:Chrome - 42.0.2311.90]	[Action:Making connection to server]	[Remarks:Successful connection to server: S3]
[Date: 2015-04-29 11:06:14]	[UserID:06/371]	[IP:10.10.11.1]	[Browser:Chrome - 42.0.2311.90]	[Action:GetGSTModules 06/371,1]	[Remarks:Successful filter row count: 5]
[Date: 2015-04-29 11:06:14]	[UserID:06/371]	[IP:10.10.11.1]	[Browser:Chrome - 42.0.2311.90]	[Action:Closing mssql connection]	[Remarks:Success]
[Date: 2015-04-29 11:09:23]	[UserID:06/371]	[IP:10.10.11.1]	[Browser:Chrome - 42.0.2311.90]	[Action:Making connection to server]	[Remarks:Successful connection to server: S3]
[Date: 2015-04-29 11:09:23]	[UserID:06/371]	[IP:10.10.11.1]	[Browser:Chrome - 42.0.2311.90]	[Action:GetGSTModules 06/371,1]	[Remarks:Successful filter row count: 5]
[Date: 2015-04-29 11:09:23]	[UserID:06/371]	[IP:10.10.11.1]	[Browser:Chrome - 42.0.2311.90]	[Action:Closing mssql connection]	[Remarks:Success]
[Date: 2015-04-29 11:28:46]	[UserID:06/343]	[IP:10.10.11.1]	[Browser:Chrome - 42.0.2311.90]	[Action:Making connection to server]	[Remarks:Successful connection to server: S3]
[Date: 2015-04-29 11:28:46]	[UserID:06/343]	[IP:10.10.11.1]	[Browser:Chrome - 42.0.2311.90]	[Action:GetGSTModules 06/343,1]	[Remarks:Successful filter row count: 5]
[Date: 2015-04-29 11:28:46]	[UserID:06/343]	[IP:10.10.11.1]	[Browser:Chrome - 42.0.2311.90]	[Action:Closing mssql connection]	[Remarks:Success]
[Date: 2015-04-29 11:36:43]	[UserID:06/343]	[IP:10.10.11.1]	[Browser:Chrome - 42.0.2311.90]	[Action:Making connection to server]	[Remarks:Successful connection to server: S3]
[Date: 2015-04-29 11:36:44]	[UserID:06/343]	[IP:10.10.11.1]	[Browser:Chrome - 42.0.2311.90]	[Action:GetGSTModules 06/343,1]	[Remarks:Successful filter row count: 5]
[Date: 2015-04-29 11:36:44]	[UserID:06/343]	[IP:10.10.11.1]	[Browser:Chrome - 42.0.2311.90]	[Action:Closing mssql connection]	[Remarks:Success]
[Date: 2015-04-29 12:03:56]	[UserID:]	[IP:10.10.11.1]	[Browser:Chrome - 42.0.2311.90]	[Action:Making connection to server]	[Remarks:Successful connection to server: S3]
[Date: 2015-04-29 12:03:56]	[UserID:]	[IP:10.10.11.1]	[Browser:Chrome - 42.0.2311.90]	[Action:GetProgramList ]	[Remarks:"no data"]
[Date: 2015-04-29 12:03:58]	[UserID:10/660]	[IP:10.10.11.1]	[Browser:Chrome - 42.0.2311.90]	[Action:Making connection to server]	[Remarks:Successful connection to server: S3]
[Date: 2015-04-29 12:03:58]	[UserID:10/660]	[IP:10.10.11.1]	[Browser:Chrome - 42.0.2311.90]	[Action:User 10/660]	[Remarks:Success]
[Date: 2015-04-29 12:03:58]	[UserID:10/660]	[IP:10.10.11.1]	[Browser:Chrome - 42.0.2311.90]	[Action:Filtering User : MasterData Username : 10/660]	[Remarks:Successful filter row count: 0]
[Date: 2015-04-29 12:03:58]	[UserID:10/660]	[IP:10.10.11.1]	[Browser:Chrome - 42.0.2311.90]	[Action:Filtering User : MasterData Username : 10/660]	[Remarks:Successful filter row count: 0]
[Date: 2015-04-29 12:03:58]	[UserID:10/660]	[IP:10.10.11.1]	[Browser:Chrome - 42.0.2311.90]	[Action:Filtering User : MasterData Username : 10/660]	[Remarks:Success]
[Date: 2015-04-29 12:03:58]	[UserID:10/660]	[IP:10.10.11.1]	[Browser:Chrome - 42.0.2311.90]	[Action:Closing mssql connection]	[Remarks:Success]
[Date: 2015-04-29 12:03:58]	[UserID:10/660]	[IP:10.10.11.1]	[Browser:Chrome - 42.0.2311.90]	[Action:Making connection to server]	[Remarks:Successful connection to server: S3]
[Date: 2015-04-29 12:03:58]	[UserID:10/660]	[IP:10.10.11.1]	[Browser:Chrome - 42.0.2311.90]	[Action:GetProgramList 10/660]	[Remarks:[{"ID":"1","ProgramIndex":"GST","ProgramName":"GST"}]]
[Date: 2015-04-29 12:03:58]	[UserID:10/660]	[IP:10.10.11.1]	[Browser:Chrome - 42.0.2311.90]	[Action:Making connection to server]	[Remarks:Successful connection to server: S3]
[Date: 2015-04-29 12:03:58]	[UserID:10/660]	[IP:10.10.11.1]	[Browser:Chrome - 42.0.2311.90]	[Action:GetProgramList 10/660]	[Remarks:[{"ID":"1","ProgramIndex":"GST","ProgramName":"GST"}]]
[Date: 2015-04-29 12:03:58]	[UserID:10/660]	[IP:10.10.11.1]	[Browser:Chrome - 42.0.2311.90]	[Action:Making connection to server]	[Remarks:Successful connection to server: S3]
[Date: 2015-04-29 12:03:58]	[UserID:10/660]	[IP:10.10.11.1]	[Browser:Chrome - 42.0.2311.90]	[Action:Filtering User : MasterData Username : 10/660]	[Remarks:Successful filter row count: 1]
[Date: 2015-04-29 12:03:58]	[UserID:10/660]	[IP:10.10.11.1]	[Browser:Chrome - 42.0.2311.90]	[Action:Making connection to server]	[Remarks:Successful connection to server: S3]
[Date: 2015-04-29 12:03:59]	[UserID:10/660]	[IP:10.10.11.1]	[Browser:Chrome - 42.0.2311.90]	[Action:GetGSTModules 10/660,1]	[Remarks:Successful filter row count: 3]
[Date: 2015-04-29 12:03:59]	[UserID:10/660]	[IP:10.10.11.1]	[Browser:Chrome - 42.0.2311.90]	[Action:Closing mssql connection]	[Remarks:Success]
[Date: 2015-04-29 12:05:44]	[UserID:10/660]	[IP:10.10.11.1]	[Browser:Chrome - 42.0.2311.90]	[Action:Making connection to server]	[Remarks:Successful connection to server: S3]
[Date: 2015-04-29 12:05:44]	[UserID:10/660]	[IP:10.10.11.1]	[Browser:Chrome - 42.0.2311.90]	[Action:GetGSTModules 10/660,1]	[Remarks:Successful filter row count: 3]
[Date: 2015-04-29 12:05:44]	[UserID:10/660]	[IP:10.10.11.1]	[Browser:Chrome - 42.0.2311.90]	[Action:Closing mssql connection]	[Remarks:Success]
[Date: 2015-04-29 12:06:06]	[UserID:]	[IP:10.10.11.1]	[Browser:Chrome - 42.0.2311.90]	[Action:Making connection to server]	[Remarks:Successful connection to server: S3]
[Date: 2015-04-29 12:06:06]	[UserID:]	[IP:10.10.11.1]	[Browser:Chrome - 42.0.2311.90]	[Action:GetProgramList ]	[Remarks:"no data"]
[Date: 2015-04-29 12:28:31]	[UserID:]	[IP:10.10.11.1]	[Browser:Chrome - 42.0.2311.90]	[Action:Making connection to server]	[Remarks:Successful connection to server: S3]
[Date: 2015-04-29 12:28:31]	[UserID:]	[IP:10.10.11.1]	[Browser:Chrome - 42.0.2311.90]	[Action:GetProgramList ]	[Remarks:"no data"]
[Date: 2015-04-29 12:28:33]	[UserID:10/660]	[IP:10.10.11.1]	[Browser:Chrome - 42.0.2311.90]	[Action:Making connection to server]	[Remarks:Successful connection to server: S3]
[Date: 2015-04-29 12:28:33]	[UserID:10/660]	[IP:10.10.11.1]	[Browser:Chrome - 42.0.2311.90]	[Action:User 10/660]	[Remarks:Success]
[Date: 2015-04-29 12:28:33]	[UserID:10/660]	[IP:10.10.11.1]	[Browser:Chrome - 42.0.2311.90]	[Action:Filtering User : MasterData Username : 10/660]	[Remarks:Successful filter row count: 0]
[Date: 2015-04-29 12:28:33]	[UserID:10/660]	[IP:10.10.11.1]	[Browser:Chrome - 42.0.2311.90]	[Action:Filtering User : MasterData Username : 10/660]	[Remarks:Successful filter row count: 0]
[Date: 2015-04-29 12:28:33]	[UserID:10/660]	[IP:10.10.11.1]	[Browser:Chrome - 42.0.2311.90]	[Action:Filtering User : MasterData Username : 10/660]	[Remarks:Success]
[Date: 2015-04-29 12:28:33]	[UserID:10/660]	[IP:10.10.11.1]	[Browser:Chrome - 42.0.2311.90]	[Action:Closing mssql connection]	[Remarks:Success]
[Date: 2015-04-29 12:28:33]	[UserID:10/660]	[IP:10.10.11.1]	[Browser:Chrome - 42.0.2311.90]	[Action:Making connection to server]	[Remarks:Successful connection to server: S3]
[Date: 2015-04-29 12:28:33]	[UserID:10/660]	[IP:10.10.11.1]	[Browser:Chrome - 42.0.2311.90]	[Action:GetProgramList 10/660]	[Remarks:[{"ID":"1","ProgramIndex":"GST","ProgramName":"GST"}]]
[Date: 2015-04-29 12:28:33]	[UserID:10/660]	[IP:10.10.11.1]	[Browser:Chrome - 42.0.2311.90]	[Action:Making connection to server]	[Remarks:Successful connection to server: S3]
[Date: 2015-04-29 12:28:33]	[UserID:10/660]	[IP:10.10.11.1]	[Browser:Chrome - 42.0.2311.90]	[Action:GetProgramList 10/660]	[Remarks:[{"ID":"1","ProgramIndex":"GST","ProgramName":"GST"}]]
[Date: 2015-04-29 12:28:33]	[UserID:10/660]	[IP:10.10.11.1]	[Browser:Chrome - 42.0.2311.90]	[Action:Making connection to server]	[Remarks:Successful connection to server: S3]
[Date: 2015-04-29 12:28:33]	[UserID:10/660]	[IP:10.10.11.1]	[Browser:Chrome - 42.0.2311.90]	[Action:Filtering User : MasterData Username : 10/660]	[Remarks:Successful filter row count: 1]
[Date: 2015-04-29 12:28:33]	[UserID:10/660]	[IP:10.10.11.1]	[Browser:Chrome - 42.0.2311.90]	[Action:Making connection to server]	[Remarks:Successful connection to server: S3]
[Date: 2015-04-29 12:28:33]	[UserID:10/660]	[IP:10.10.11.1]	[Browser:Chrome - 42.0.2311.90]	[Action:GetGSTModules 10/660,1]	[Remarks:Successful filter row count: 3]
[Date: 2015-04-29 12:28:33]	[UserID:10/660]	[IP:10.10.11.1]	[Browser:Chrome - 42.0.2311.90]	[Action:Closing mssql connection]	[Remarks:Success]
[Date: 2015-04-29 13:06:06]	[UserID:]	[IP:10.10.11.1]	[Browser:Chrome - 42.0.2311.90]	[Action:Making connection to server]	[Remarks:Successful connection to server: S3]
[Date: 2015-04-29 13:06:08]	[UserID:]	[IP:10.10.11.1]	[Browser:Chrome - 42.0.2311.90]	[Action:GetProgramList ]	[Remarks:"no data"]
[Date: 2015-04-29 13:06:10]	[UserID:10/660]	[IP:10.10.11.1]	[Browser:Chrome - 42.0.2311.90]	[Action:Making connection to server]	[Remarks:Successful connection to server: S3]
[Date: 2015-04-29 13:06:10]	[UserID:10/660]	[IP:10.10.11.1]	[Browser:Chrome - 42.0.2311.90]	[Action:User 10/660]	[Remarks:Success]
[Date: 2015-04-29 13:06:10]	[UserID:10/660]	[IP:10.10.11.1]	[Browser:Chrome - 42.0.2311.90]	[Action:Filtering User : MasterData Username : 10/660]	[Remarks:Successful filter row count: 0]
[Date: 2015-04-29 13:06:10]	[UserID:10/660]	[IP:10.10.11.1]	[Browser:Chrome - 42.0.2311.90]	[Action:Filtering User : MasterData Username : 10/660]	[Remarks:Successful filter row count: 0]
[Date: 2015-04-29 13:06:10]	[UserID:10/660]	[IP:10.10.11.1]	[Browser:Chrome - 42.0.2311.90]	[Action:Filtering User : MasterData Username : 10/660]	[Remarks:Success]
[Date: 2015-04-29 13:06:10]	[UserID:10/660]	[IP:10.10.11.1]	[Browser:Chrome - 42.0.2311.90]	[Action:Closing mssql connection]	[Remarks:Success]
[Date: 2015-04-29 13:06:10]	[UserID:10/660]	[IP:10.10.11.1]	[Browser:Chrome - 42.0.2311.90]	[Action:Making connection to server]	[Remarks:Successful connection to server: S3]
[Date: 2015-04-29 13:06:11]	[UserID:10/660]	[IP:10.10.11.1]	[Browser:Chrome - 42.0.2311.90]	[Action:GetProgramList 10/660]	[Remarks:[{"ID":"1","ProgramIndex":"GST","ProgramName":"GST"}]]
[Date: 2015-04-29 13:06:11]	[UserID:10/660]	[IP:10.10.11.1]	[Browser:Chrome - 42.0.2311.90]	[Action:Making connection to server]	[Remarks:Successful connection to server: S3]
[Date: 2015-04-29 13:06:11]	[UserID:10/660]	[IP:10.10.11.1]	[Browser:Chrome - 42.0.2311.90]	[Action:GetProgramList 10/660]	[Remarks:[{"ID":"1","ProgramIndex":"GST","ProgramName":"GST"}]]
[Date: 2015-04-29 13:06:11]	[UserID:10/660]	[IP:10.10.11.1]	[Browser:Chrome - 42.0.2311.90]	[Action:Making connection to server]	[Remarks:Successful connection to server: S3]
[Date: 2015-04-29 13:06:11]	[UserID:10/660]	[IP:10.10.11.1]	[Browser:Chrome - 42.0.2311.90]	[Action:Filtering User : MasterData Username : 10/660]	[Remarks:Successful filter row count: 1]
[Date: 2015-04-29 13:06:11]	[UserID:10/660]	[IP:10.10.11.1]	[Browser:Chrome - 42.0.2311.90]	[Action:Making connection to server]	[Remarks:Successful connection to server: S3]
[Date: 2015-04-29 13:06:11]	[UserID:10/660]	[IP:10.10.11.1]	[Browser:Chrome - 42.0.2311.90]	[Action:GetGSTModules 10/660,1]	[Remarks:Successful filter row count: 3]
[Date: 2015-04-29 13:06:11]	[UserID:10/660]	[IP:10.10.11.1]	[Browser:Chrome - 42.0.2311.90]	[Action:Closing mssql connection]	[Remarks:Success]
[Date: 2015-04-29 13:07:41]	[UserID:10/660]	[IP:10.10.11.1]	[Browser:Chrome - 42.0.2311.90]	[Action:Making connection to server]	[Remarks:Successful connection to server: S3]
[Date: 2015-04-29 13:07:41]	[UserID:10/660]	[IP:10.10.11.1]	[Browser:Chrome - 42.0.2311.90]	[Action:GetGSTModules 10/660,1]	[Remarks:Successful filter row count: 3]
[Date: 2015-04-29 13:07:41]	[UserID:10/660]	[IP:10.10.11.1]	[Browser:Chrome - 42.0.2311.90]	[Action:Closing mssql connection]	[Remarks:Success]
[Date: 2015-04-29 13:08:09]	[UserID:]	[IP:10.10.11.1]	[Browser:Chrome - 42.0.2311.90]	[Action:Making connection to server]	[Remarks:Successful connection to server: S3]
[Date: 2015-04-29 13:08:09]	[UserID:]	[IP:10.10.11.1]	[Browser:Chrome - 42.0.2311.90]	[Action:GetProgramList ]	[Remarks:"no data"]
[Date: 2015-04-29 14:43:15]	[UserID:06/343]	[IP:10.10.11.1]	[Browser:Chrome - 42.0.2311.90]	[Action:Making connection to server]	[Remarks:Successful connection to server: S3]
[Date: 2015-04-29 14:43:15]	[UserID:06/343]	[IP:10.10.11.1]	[Browser:Chrome - 42.0.2311.90]	[Action:GetGSTModules 06/343,1]	[Remarks:Successful filter row count: 5]
[Date: 2015-04-29 14:43:15]	[UserID:06/343]	[IP:10.10.11.1]	[Browser:Chrome - 42.0.2311.90]	[Action:Closing mssql connection]	[Remarks:Success]
[Date: 2015-04-29 14:44:53]	[UserID:06/343]	[IP:10.10.11.1]	[Browser:Chrome - 42.0.2311.90]	[Action:Making connection to server]	[Remarks:Successful connection to server: S3]
[Date: 2015-04-29 14:44:53]	[UserID:06/343]	[IP:10.10.11.1]	[Browser:Chrome - 42.0.2311.90]	[Action:GetGSTModules 06/343,1]	[Remarks:Successful filter row count: 5]
[Date: 2015-04-29 14:44:53]	[UserID:06/343]	[IP:10.10.11.1]	[Browser:Chrome - 42.0.2311.90]	[Action:Closing mssql connection]	[Remarks:Success]
[Date: 2015-04-29 14:48:55]	[UserID:06/343]	[IP:10.10.11.1]	[Browser:Chrome - 42.0.2311.90]	[Action:Making connection to server]	[Remarks:Successful connection to server: S3]
[Date: 2015-04-29 14:48:55]	[UserID:06/343]	[IP:10.10.11.1]	[Browser:Chrome - 42.0.2311.90]	[Action:GetGSTModules 06/343,1]	[Remarks:Successful filter row count: 5]
[Date: 2015-04-29 14:48:55]	[UserID:06/343]	[IP:10.10.11.1]	[Browser:Chrome - 42.0.2311.90]	[Action:Closing mssql connection]	[Remarks:Success]
[Date: 2015-04-29 15:01:46]	[UserID:06/343]	[IP:10.10.11.1]	[Browser:Chrome - 42.0.2311.90]	[Action:Making connection to server]	[Remarks:Successful connection to server: S3]
[Date: 2015-04-29 15:01:46]	[UserID:06/343]	[IP:10.10.11.1]	[Browser:Chrome - 42.0.2311.90]	[Action:GetGSTModules 06/343,1]	[Remarks:Successful filter row count: 5]
[Date: 2015-04-29 15:01:46]	[UserID:06/343]	[IP:10.10.11.1]	[Browser:Chrome - 42.0.2311.90]	[Action:Closing mssql connection]	[Remarks:Success]
[Date: 2015-04-29 15:10:08]	[UserID:06/343]	[IP:10.10.11.1]	[Browser:Chrome - 42.0.2311.90]	[Action:Making connection to server]	[Remarks:Successful connection to server: S3]
[Date: 2015-04-29 15:10:08]	[UserID:06/343]	[IP:10.10.11.1]	[Browser:Chrome - 42.0.2311.90]	[Action:GetGSTModules 06/343,1]	[Remarks:Successful filter row count: 5]
[Date: 2015-04-29 15:10:08]	[UserID:06/343]	[IP:10.10.11.1]	[Browser:Chrome - 42.0.2311.90]	[Action:Closing mssql connection]	[Remarks:Success]
[Date: 2015-04-29 15:11:44]	[UserID:06/343]	[IP:10.10.11.1]	[Browser:Chrome - 42.0.2311.90]	[Action:Making connection to server]	[Remarks:Successful connection to server: S3]
[Date: 2015-04-29 15:11:44]	[UserID:06/343]	[IP:10.10.11.1]	[Browser:Chrome - 42.0.2311.90]	[Action:GetGSTModules 06/343,1]	[Remarks:Successful filter row count: 5]
[Date: 2015-04-29 15:11:44]	[UserID:06/343]	[IP:10.10.11.1]	[Browser:Chrome - 42.0.2311.90]	[Action:Closing mssql connection]	[Remarks:Success]
[Date: 2015-04-29 15:13:22]	[UserID:06/343]	[IP:10.10.11.1]	[Browser:Chrome - 42.0.2311.90]	[Action:Making connection to server]	[Remarks:Successful connection to server: S3]
[Date: 2015-04-29 15:13:22]	[UserID:06/343]	[IP:10.10.11.1]	[Browser:Chrome - 42.0.2311.90]	[Action:GetGSTModules 06/343,1]	[Remarks:Successful filter row count: 5]
[Date: 2015-04-29 15:13:22]	[UserID:06/343]	[IP:10.10.11.1]	[Browser:Chrome - 42.0.2311.90]	[Action:Closing mssql connection]	[Remarks:Success]
[Date: 2015-04-29 15:27:14]	[UserID:06/343]	[IP:10.10.11.1]	[Browser:Chrome - 42.0.2311.90]	[Action:Making connection to server]	[Remarks:Successful connection to server: S3]
[Date: 2015-04-29 15:27:14]	[UserID:06/343]	[IP:10.10.11.1]	[Browser:Chrome - 42.0.2311.90]	[Action:GetGSTModules 06/343,1]	[Remarks:Successful filter row count: 5]
[Date: 2015-04-29 15:27:14]	[UserID:06/343]	[IP:10.10.11.1]	[Browser:Chrome - 42.0.2311.90]	[Action:Closing mssql connection]	[Remarks:Success]
[Date: 2015-04-29 15:52:21]	[UserID:]	[IP:10.10.11.1]	[Browser:Chrome - 42.0.2311.90]	[Action:Making connection to server]	[Remarks:Successful connection to server: S3]
[Date: 2015-04-29 15:52:21]	[UserID:]	[IP:10.10.11.1]	[Browser:Chrome - 42.0.2311.90]	[Action:GetProgramList ]	[Remarks:"no data"]
[Date: 2015-04-29 15:52:23]	[UserID:06/371]	[IP:10.10.11.1]	[Browser:Chrome - 42.0.2311.90]	[Action:Making connection to server]	[Remarks:Successful connection to server: S3]
[Date: 2015-04-29 15:52:23]	[UserID:06/371]	[IP:10.10.11.1]	[Browser:Chrome - 42.0.2311.90]	[Action:User 06/371]	[Remarks:Success]
[Date: 2015-04-29 15:52:23]	[UserID:06/371]	[IP:10.10.11.1]	[Browser:Chrome - 42.0.2311.90]	[Action:Filtering User : MasterData Username : 06/371]	[Remarks:Successful filter row count: 0]
[Date: 2015-04-29 15:52:23]	[UserID:06/371]	[IP:10.10.11.1]	[Browser:Chrome - 42.0.2311.90]	[Action:Filtering User : MasterData Username : 06/371]	[Remarks:Successful filter row count: 0]
[Date: 2015-04-29 15:52:23]	[UserID:06/371]	[IP:10.10.11.1]	[Browser:Chrome - 42.0.2311.90]	[Action:Filtering User : MasterData Username : 06/371]	[Remarks:Success]
[Date: 2015-04-29 15:52:23]	[UserID:06/371]	[IP:10.10.11.1]	[Browser:Chrome - 42.0.2311.90]	[Action:Closing mssql connection]	[Remarks:Success]
[Date: 2015-04-29 15:52:24]	[UserID:06/371]	[IP:10.10.11.1]	[Browser:Chrome - 42.0.2311.90]	[Action:Making connection to server]	[Remarks:Successful connection to server: S3]
[Date: 2015-04-29 15:52:24]	[UserID:06/371]	[IP:10.10.11.1]	[Browser:Chrome - 42.0.2311.90]	[Action:GetProgramList 06/371]	[Remarks:[{"ID":"1","ProgramIndex":"GST","ProgramName":"GST"}]]
[Date: 2015-04-29 15:52:24]	[UserID:06/371]	[IP:10.10.11.1]	[Browser:Chrome - 42.0.2311.90]	[Action:Making connection to server]	[Remarks:Successful connection to server: S3]
[Date: 2015-04-29 15:52:24]	[UserID:06/371]	[IP:10.10.11.1]	[Browser:Chrome - 42.0.2311.90]	[Action:GetProgramList 06/371]	[Remarks:[{"ID":"1","ProgramIndex":"GST","ProgramName":"GST"}]]
[Date: 2015-04-29 15:52:24]	[UserID:06/371]	[IP:10.10.11.1]	[Browser:Chrome - 42.0.2311.90]	[Action:Making connection to server]	[Remarks:Successful connection to server: S3]
[Date: 2015-04-29 15:52:24]	[UserID:06/371]	[IP:10.10.11.1]	[Browser:Chrome - 42.0.2311.90]	[Action:Filtering User : MasterData Username : 06/371]	[Remarks:Successful filter row count: 1]
[Date: 2015-04-29 15:52:24]	[UserID:06/371]	[IP:10.10.11.1]	[Browser:Chrome - 42.0.2311.90]	[Action:Making connection to server]	[Remarks:Successful connection to server: S3]
[Date: 2015-04-29 15:52:24]	[UserID:06/371]	[IP:10.10.11.1]	[Browser:Chrome - 42.0.2311.90]	[Action:GetGSTModules 06/371,1]	[Remarks:Successful filter row count: 5]
[Date: 2015-04-29 15:52:24]	[UserID:06/371]	[IP:10.10.11.1]	[Browser:Chrome - 42.0.2311.90]	[Action:Closing mssql connection]	[Remarks:Success]
[Date: 2015-04-29 15:54:35]	[UserID:06/371]	[IP:10.10.11.1]	[Browser:Chrome - 42.0.2311.90]	[Action:Making connection to server]	[Remarks:Successful connection to server: S3]
[Date: 2015-04-29 15:54:35]	[UserID:06/371]	[IP:10.10.11.1]	[Browser:Chrome - 42.0.2311.90]	[Action:GetGSTModules 06/371,1]	[Remarks:Successful filter row count: 5]
[Date: 2015-04-29 15:54:35]	[UserID:06/371]	[IP:10.10.11.1]	[Browser:Chrome - 42.0.2311.90]	[Action:Closing mssql connection]	[Remarks:Success]
