[Date: 2015-06-18 07:45:14]	[UserID:]	[IP:10.10.11.1]	[Browser:Chrome - 43.0.2357.124]	[Action:Making connection to server]	[Remarks:Successful connection to server: S3]
[Date: 2015-06-18 07:45:14]	[UserID:]	[IP:10.10.11.1]	[Browser:Chrome - 43.0.2357.124]	[Action:GetProgramList ]	[Remarks:"no data"]
[Date: 2015-06-18 07:45:16]	[UserID:06/371]	[IP:10.10.11.1]	[Browser:Chrome - 43.0.2357.124]	[Action:Making connection to server]	[Remarks:Successful connection to server: S3]
[Date: 2015-06-18 07:45:16]	[UserID:06/371]	[IP:10.10.11.1]	[Browser:Chrome - 43.0.2357.124]	[Action:User 06/371]	[Remarks:Success]
[Date: 2015-06-18 07:45:16]	[UserID:06/371]	[IP:10.10.11.1]	[Browser:Chrome - 43.0.2357.124]	[Action:Filtering User : MasterData Username : 06/371]	[Remarks:Successful filter row count: 0]
[Date: 2015-06-18 07:45:16]	[UserID:06/371]	[IP:10.10.11.1]	[Browser:Chrome - 43.0.2357.124]	[Action:Filtering User : MasterData Username : 06/371]	[Remarks:Successful filter row count: 0]
[Date: 2015-06-18 07:45:16]	[UserID:06/371]	[IP:10.10.11.1]	[Browser:Chrome - 43.0.2357.124]	[Action:Filtering User : MasterData Username : 06/371]	[Remarks:Success]
[Date: 2015-06-18 07:45:16]	[UserID:06/371]	[IP:10.10.11.1]	[Browser:Chrome - 43.0.2357.124]	[Action:Closing mssql connection]	[Remarks:Success]
[Date: 2015-06-18 07:45:16]	[UserID:06/371]	[IP:10.10.11.1]	[Browser:Chrome - 43.0.2357.124]	[Action:Making connection to server]	[Remarks:Successful connection to server: S3]
[Date: 2015-06-18 07:45:16]	[UserID:06/371]	[IP:10.10.11.1]	[Browser:Chrome - 43.0.2357.124]	[Action:GetProgramList 06/371]	[Remarks:[{"ID":"1","ProgramIndex":"GST","ProgramName":"GST"}]]
[Date: 2015-06-18 07:45:16]	[UserID:06/371]	[IP:10.10.11.1]	[Browser:Chrome - 43.0.2357.124]	[Action:Making connection to server]	[Remarks:Successful connection to server: S3]
[Date: 2015-06-18 07:45:16]	[UserID:06/371]	[IP:10.10.11.1]	[Browser:Chrome - 43.0.2357.124]	[Action:GetProgramList 06/371]	[Remarks:[{"ID":"1","ProgramIndex":"GST","ProgramName":"GST"}]]
[Date: 2015-06-18 07:45:16]	[UserID:06/371]	[IP:10.10.11.1]	[Browser:Chrome - 43.0.2357.124]	[Action:Making connection to server]	[Remarks:Successful connection to server: S3]
[Date: 2015-06-18 07:45:16]	[UserID:06/371]	[IP:10.10.11.1]	[Browser:Chrome - 43.0.2357.124]	[Action:Filtering User : MasterData Username : 06/371]	[Remarks:Successful filter row count: 1]
[Date: 2015-06-18 07:45:17]	[UserID:06/371]	[IP:10.10.11.1]	[Browser:Chrome - 43.0.2357.124]	[Action:Making connection to server]	[Remarks:Successful connection to server: S3]
[Date: 2015-06-18 07:45:17]	[UserID:06/371]	[IP:10.10.11.1]	[Browser:Chrome - 43.0.2357.124]	[Action:GetGSTModules 06/371,1]	[Remarks:Successful filter row count: 5]
[Date: 2015-06-18 07:45:17]	[UserID:06/371]	[IP:10.10.11.1]	[Browser:Chrome - 43.0.2357.124]	[Action:Closing mssql connection]	[Remarks:Success]
[Date: 2015-06-18 07:47:50]	[UserID:06/371]	[IP:10.10.11.1]	[Browser:Chrome - 43.0.2357.124]	[Action:Making connection to server]	[Remarks:Successful connection to server: S3]
[Date: 2015-06-18 07:47:50]	[UserID:06/371]	[IP:10.10.11.1]	[Browser:Chrome - 43.0.2357.124]	[Action:GetGSTModules 06/371,1]	[Remarks:Successful filter row count: 5]
[Date: 2015-06-18 07:47:50]	[UserID:06/371]	[IP:10.10.11.1]	[Browser:Chrome - 43.0.2357.124]	[Action:Closing mssql connection]	[Remarks:Success]
[Date: 2015-06-18 07:51:33]	[UserID:06/371]	[IP:10.10.11.1]	[Browser:Chrome - 43.0.2357.124]	[Action:Making connection to server]	[Remarks:Successful connection to server: S3]
[Date: 2015-06-18 07:51:33]	[UserID:06/371]	[IP:10.10.11.1]	[Browser:Chrome - 43.0.2357.124]	[Action:GetGSTModules 06/371,1]	[Remarks:Successful filter row count: 5]
[Date: 2015-06-18 07:51:33]	[UserID:06/371]	[IP:10.10.11.1]	[Browser:Chrome - 43.0.2357.124]	[Action:Closing mssql connection]	[Remarks:Success]
[Date: 2015-06-18 07:56:46]	[UserID:06/371]	[IP:10.10.11.1]	[Browser:Chrome - 43.0.2357.124]	[Action:Making connection to server]	[Remarks:Successful connection to server: S3]
[Date: 2015-06-18 07:56:46]	[UserID:06/371]	[IP:10.10.11.1]	[Browser:Chrome - 43.0.2357.124]	[Action:GetGSTModules 06/371,1]	[Remarks:Successful filter row count: 5]
[Date: 2015-06-18 07:56:46]	[UserID:06/371]	[IP:10.10.11.1]	[Browser:Chrome - 43.0.2357.124]	[Action:Closing mssql connection]	[Remarks:Success]
[Date: 2015-06-18 09:32:02]	[UserID:]	[IP:10.10.11.1]	[Browser:Chrome - 43.0.2357.124]	[Action:Making connection to server]	[Remarks:Successful connection to server: S3]
[Date: 2015-06-18 09:32:03]	[UserID:]	[IP:10.10.11.1]	[Browser:Chrome - 43.0.2357.124]	[Action:GetProgramList ]	[Remarks:"no data"]
[Date: 2015-06-18 09:32:03]	[UserID:]	[IP:10.10.11.1]	[Browser:Chrome - 43.0.2357.124]	[Action:Making connection to server]	[Remarks:Successful connection to server: S3]
[Date: 2015-06-18 09:32:03]	[UserID:]	[IP:10.10.11.1]	[Browser:Chrome - 43.0.2357.124]	[Action:GetProgramList ]	[Remarks:"no data"]
[Date: 2015-06-18 09:32:11]	[UserID:06/343]	[IP:10.10.11.1]	[Browser:Chrome - 43.0.2357.124]	[Action:Making connection to server]	[Remarks:Successful connection to server: S3]
[Date: 2015-06-18 09:32:11]	[UserID:06/343]	[IP:10.10.11.1]	[Browser:Chrome - 43.0.2357.124]	[Action:User 06/343]	[Remarks:Success]
[Date: 2015-06-18 09:32:12]	[UserID:06/343]	[IP:10.10.11.1]	[Browser:Chrome - 43.0.2357.124]	[Action:Filtering User : MasterData Username : 06/343]	[Remarks:Successful filter row count: 0]
[Date: 2015-06-18 09:32:12]	[UserID:06/343]	[IP:10.10.11.1]	[Browser:Chrome - 43.0.2357.124]	[Action:Filtering User : MasterData Username : 06/343]	[Remarks:Successful filter row count: 0]
[Date: 2015-06-18 09:32:12]	[UserID:06/343]	[IP:10.10.11.1]	[Browser:Chrome - 43.0.2357.124]	[Action:Filtering User : MasterData Username : 06/343]	[Remarks:Success]
[Date: 2015-06-18 09:32:12]	[UserID:06/343]	[IP:10.10.11.1]	[Browser:Chrome - 43.0.2357.124]	[Action:Closing mssql connection]	[Remarks:Success]
[Date: 2015-06-18 09:32:12]	[UserID:06/343]	[IP:10.10.11.1]	[Browser:Chrome - 43.0.2357.124]	[Action:Making connection to server]	[Remarks:Successful connection to server: S3]
[Date: 2015-06-18 09:32:12]	[UserID:06/343]	[IP:10.10.11.1]	[Browser:Chrome - 43.0.2357.124]	[Action:GetProgramList 06/343]	[Remarks:[{"ID":"1","ProgramIndex":"GST","ProgramName":"GST"}]]
[Date: 2015-06-18 09:32:12]	[UserID:06/343]	[IP:10.10.11.1]	[Browser:Chrome - 43.0.2357.124]	[Action:Making connection to server]	[Remarks:Successful connection to server: S3]
[Date: 2015-06-18 09:32:12]	[UserID:06/343]	[IP:10.10.11.1]	[Browser:Chrome - 43.0.2357.124]	[Action:GetProgramList 06/343]	[Remarks:[{"ID":"1","ProgramIndex":"GST","ProgramName":"GST"}]]
[Date: 2015-06-18 09:32:12]	[UserID:06/343]	[IP:10.10.11.1]	[Browser:Chrome - 43.0.2357.124]	[Action:Making connection to server]	[Remarks:Successful connection to server: S3]
[Date: 2015-06-18 09:32:12]	[UserID:06/343]	[IP:10.10.11.1]	[Browser:Chrome - 43.0.2357.124]	[Action:Filtering User : MasterData Username : 06/343]	[Remarks:Successful filter row count: 1]
[Date: 2015-06-18 09:32:12]	[UserID:06/343]	[IP:10.10.11.1]	[Browser:Chrome - 43.0.2357.124]	[Action:Making connection to server]	[Remarks:Successful connection to server: S3]
[Date: 2015-06-18 09:32:13]	[UserID:06/343]	[IP:10.10.11.1]	[Browser:Chrome - 43.0.2357.124]	[Action:GetGSTModules 06/343,1]	[Remarks:Successful filter row count: 5]
[Date: 2015-06-18 09:32:13]	[UserID:06/343]	[IP:10.10.11.1]	[Browser:Chrome - 43.0.2357.124]	[Action:Closing mssql connection]	[Remarks:Success]
[Date: 2015-06-18 09:34:55]	[UserID:06/343]	[IP:10.10.11.1]	[Browser:Chrome - 43.0.2357.124]	[Action:Making connection to server]	[Remarks:Successful connection to server: S3]
[Date: 2015-06-18 09:34:55]	[UserID:06/343]	[IP:10.10.11.1]	[Browser:Chrome - 43.0.2357.124]	[Action:GetGSTModules 06/343,1]	[Remarks:Successful filter row count: 5]
[Date: 2015-06-18 09:34:55]	[UserID:06/343]	[IP:10.10.11.1]	[Browser:Chrome - 43.0.2357.124]	[Action:Closing mssql connection]	[Remarks:Success]
[Date: 2015-06-18 09:38:01]	[UserID:]	[IP:10.10.11.1]	[Browser:Chrome - 43.0.2357.124]	[Action:Making connection to server]	[Remarks:Successful connection to server: S3]
[Date: 2015-06-18 09:38:01]	[UserID:]	[IP:10.10.11.1]	[Browser:Chrome - 43.0.2357.124]	[Action:GetProgramList ]	[Remarks:"no data"]
[Date: 2015-06-18 09:38:03]	[UserID:10/660]	[IP:10.10.11.1]	[Browser:Chrome - 43.0.2357.124]	[Action:Making connection to server]	[Remarks:Successful connection to server: S3]
[Date: 2015-06-18 09:38:03]	[UserID:10/660]	[IP:10.10.11.1]	[Browser:Chrome - 43.0.2357.124]	[Action:User 10/660]	[Remarks:Success]
[Date: 2015-06-18 09:38:03]	[UserID:10/660]	[IP:10.10.11.1]	[Browser:Chrome - 43.0.2357.124]	[Action:Filtering User : MasterData Username : 10/660]	[Remarks:Successful filter row count: 0]
[Date: 2015-06-18 09:38:03]	[UserID:10/660]	[IP:10.10.11.1]	[Browser:Chrome - 43.0.2357.124]	[Action:Filtering User : MasterData Username : 10/660]	[Remarks:Successful filter row count: 0]
[Date: 2015-06-18 09:38:03]	[UserID:10/660]	[IP:10.10.11.1]	[Browser:Chrome - 43.0.2357.124]	[Action:Filtering User : MasterData Username : 10/660]	[Remarks:Success]
[Date: 2015-06-18 09:38:03]	[UserID:10/660]	[IP:10.10.11.1]	[Browser:Chrome - 43.0.2357.124]	[Action:Closing mssql connection]	[Remarks:Success]
[Date: 2015-06-18 09:38:04]	[UserID:10/660]	[IP:10.10.11.1]	[Browser:Chrome - 43.0.2357.124]	[Action:Making connection to server]	[Remarks:Successful connection to server: S3]
[Date: 2015-06-18 09:38:04]	[UserID:10/660]	[IP:10.10.11.1]	[Browser:Chrome - 43.0.2357.124]	[Action:GetProgramList 10/660]	[Remarks:[{"ID":"1","ProgramIndex":"GST","ProgramName":"GST"}]]
[Date: 2015-06-18 09:38:04]	[UserID:10/660]	[IP:10.10.11.1]	[Browser:Chrome - 43.0.2357.124]	[Action:Making connection to server]	[Remarks:Successful connection to server: S3]
[Date: 2015-06-18 09:38:04]	[UserID:10/660]	[IP:10.10.11.1]	[Browser:Chrome - 43.0.2357.124]	[Action:GetProgramList 10/660]	[Remarks:[{"ID":"1","ProgramIndex":"GST","ProgramName":"GST"}]]
[Date: 2015-06-18 09:38:04]	[UserID:10/660]	[IP:10.10.11.1]	[Browser:Chrome - 43.0.2357.124]	[Action:Making connection to server]	[Remarks:Successful connection to server: S3]
[Date: 2015-06-18 09:38:04]	[UserID:10/660]	[IP:10.10.11.1]	[Browser:Chrome - 43.0.2357.124]	[Action:Filtering User : MasterData Username : 10/660]	[Remarks:Successful filter row count: 1]
[Date: 2015-06-18 09:38:04]	[UserID:10/660]	[IP:10.10.11.1]	[Browser:Chrome - 43.0.2357.124]	[Action:Making connection to server]	[Remarks:Successful connection to server: S3]
[Date: 2015-06-18 09:38:04]	[UserID:10/660]	[IP:10.10.11.1]	[Browser:Chrome - 43.0.2357.124]	[Action:GetGSTModules 10/660,1]	[Remarks:Successful filter row count: 3]
[Date: 2015-06-18 09:38:04]	[UserID:10/660]	[IP:10.10.11.1]	[Browser:Chrome - 43.0.2357.124]	[Action:Closing mssql connection]	[Remarks:Success]
[Date: 2015-06-18 09:38:44]	[UserID:06/343]	[IP:10.10.11.1]	[Browser:Chrome - 43.0.2357.124]	[Action:Making connection to server]	[Remarks:Successful connection to server: S3]
[Date: 2015-06-18 09:38:44]	[UserID:06/343]	[IP:10.10.11.1]	[Browser:Chrome - 43.0.2357.124]	[Action:GetGSTModules 06/343,1]	[Remarks:Successful filter row count: 5]
[Date: 2015-06-18 09:38:44]	[UserID:06/343]	[IP:10.10.11.1]	[Browser:Chrome - 43.0.2357.124]	[Action:Closing mssql connection]	[Remarks:Success]
[Date: 2015-06-18 09:46:02]	[UserID:10/660]	[IP:10.10.11.1]	[Browser:Chrome - 43.0.2357.124]	[Action:Making connection to server]	[Remarks:Successful connection to server: S3]
[Date: 2015-06-18 09:46:02]	[UserID:10/660]	[IP:10.10.11.1]	[Browser:Chrome - 43.0.2357.124]	[Action:GetGSTModules 10/660,1]	[Remarks:Successful filter row count: 3]
[Date: 2015-06-18 09:46:02]	[UserID:10/660]	[IP:10.10.11.1]	[Browser:Chrome - 43.0.2357.124]	[Action:Closing mssql connection]	[Remarks:Success]
[Date: 2015-06-18 09:47:42]	[UserID:10/660]	[IP:10.10.11.1]	[Browser:Chrome - 43.0.2357.124]	[Action:Making connection to server]	[Remarks:Successful connection to server: S3]
[Date: 2015-06-18 09:47:42]	[UserID:10/660]	[IP:10.10.11.1]	[Browser:Chrome - 43.0.2357.124]	[Action:GetGSTModules 10/660,1]	[Remarks:Successful filter row count: 3]
[Date: 2015-06-18 09:47:42]	[UserID:10/660]	[IP:10.10.11.1]	[Browser:Chrome - 43.0.2357.124]	[Action:Closing mssql connection]	[Remarks:Success]
[Date: 2015-06-18 09:48:15]	[UserID:]	[IP:10.10.11.1]	[Browser:Chrome - 43.0.2357.124]	[Action:Making connection to server]	[Remarks:Successful connection to server: S3]
[Date: 2015-06-18 09:48:15]	[UserID:]	[IP:10.10.11.1]	[Browser:Chrome - 43.0.2357.124]	[Action:GetProgramList ]	[Remarks:"no data"]
[Date: 2015-06-18 09:51:26]	[UserID:06/343]	[IP:10.10.11.1]	[Browser:Chrome - 43.0.2357.124]	[Action:Making connection to server]	[Remarks:Successful connection to server: S3]
[Date: 2015-06-18 09:51:26]	[UserID:06/343]	[IP:10.10.11.1]	[Browser:Chrome - 43.0.2357.124]	[Action:GetGSTModules 06/343,1]	[Remarks:Successful filter row count: 5]
[Date: 2015-06-18 09:51:26]	[UserID:06/343]	[IP:10.10.11.1]	[Browser:Chrome - 43.0.2357.124]	[Action:Closing mssql connection]	[Remarks:Success]
[Date: 2015-06-18 09:53:46]	[UserID:06/343]	[IP:10.10.11.1]	[Browser:Chrome - 43.0.2357.124]	[Action:Making connection to server]	[Remarks:Successful connection to server: S3]
[Date: 2015-06-18 09:53:46]	[UserID:06/343]	[IP:10.10.11.1]	[Browser:Chrome - 43.0.2357.124]	[Action:GetGSTModules 06/343,1]	[Remarks:Successful filter row count: 5]
[Date: 2015-06-18 09:53:46]	[UserID:06/343]	[IP:10.10.11.1]	[Browser:Chrome - 43.0.2357.124]	[Action:Closing mssql connection]	[Remarks:Success]
[Date: 2015-06-18 10:00:05]	[UserID:06/343]	[IP:10.10.11.1]	[Browser:Chrome - 43.0.2357.124]	[Action:Making connection to server]	[Remarks:Successful connection to server: S3]
[Date: 2015-06-18 10:00:05]	[UserID:06/343]	[IP:10.10.11.1]	[Browser:Chrome - 43.0.2357.124]	[Action:GetGSTModules 06/343,1]	[Remarks:Successful filter row count: 5]
[Date: 2015-06-18 10:00:05]	[UserID:06/343]	[IP:10.10.11.1]	[Browser:Chrome - 43.0.2357.124]	[Action:Closing mssql connection]	[Remarks:Success]
[Date: 2015-06-18 10:00:16]	[UserID:06/343]	[IP:10.10.11.1]	[Browser:Chrome - 43.0.2357.124]	[Action:Making connection to server]	[Remarks:Successful connection to server: S3]
[Date: 2015-06-18 10:00:16]	[UserID:06/343]	[IP:10.10.11.1]	[Browser:Chrome - 43.0.2357.124]	[Action:GetGSTModules 06/343,1]	[Remarks:Successful filter row count: 5]
[Date: 2015-06-18 10:00:16]	[UserID:06/343]	[IP:10.10.11.1]	[Browser:Chrome - 43.0.2357.124]	[Action:Closing mssql connection]	[Remarks:Success]
[Date: 2015-06-18 10:00:42]	[UserID:06/343]	[IP:10.10.11.1]	[Browser:Chrome - 43.0.2357.124]	[Action:Making connection to server]	[Remarks:Successful connection to server: S3]
[Date: 2015-06-18 10:00:42]	[UserID:06/343]	[IP:10.10.11.1]	[Browser:Chrome - 43.0.2357.124]	[Action:GetGSTModules 06/343,1]	[Remarks:Successful filter row count: 5]
[Date: 2015-06-18 10:00:42]	[UserID:06/343]	[IP:10.10.11.1]	[Browser:Chrome - 43.0.2357.124]	[Action:Closing mssql connection]	[Remarks:Success]
[Date: 2015-06-18 10:08:17]	[UserID:06/343]	[IP:10.10.11.1]	[Browser:Chrome - 43.0.2357.124]	[Action:Making connection to server]	[Remarks:Successful connection to server: S3]
[Date: 2015-06-18 10:08:17]	[UserID:06/343]	[IP:10.10.11.1]	[Browser:Chrome - 43.0.2357.124]	[Action:GetGSTModules 06/343,1]	[Remarks:Successful filter row count: 5]
[Date: 2015-06-18 10:08:17]	[UserID:06/343]	[IP:10.10.11.1]	[Browser:Chrome - 43.0.2357.124]	[Action:Closing mssql connection]	[Remarks:Success]
[Date: 2015-06-18 10:10:13]	[UserID:06/343]	[IP:10.10.11.1]	[Browser:Chrome - 43.0.2357.124]	[Action:Making connection to server]	[Remarks:Successful connection to server: S3]
[Date: 2015-06-18 10:10:13]	[UserID:06/343]	[IP:10.10.11.1]	[Browser:Chrome - 43.0.2357.124]	[Action:GetGSTModules 06/343,1]	[Remarks:Successful filter row count: 5]
[Date: 2015-06-18 10:10:13]	[UserID:06/343]	[IP:10.10.11.1]	[Browser:Chrome - 43.0.2357.124]	[Action:Closing mssql connection]	[Remarks:Success]
[Date: 2015-06-18 10:11:31]	[UserID:06/343]	[IP:10.10.11.1]	[Browser:Chrome - 43.0.2357.124]	[Action:Making connection to server]	[Remarks:Successful connection to server: S3]
[Date: 2015-06-18 10:11:31]	[UserID:06/343]	[IP:10.10.11.1]	[Browser:Chrome - 43.0.2357.124]	[Action:GetGSTModules 06/343,1]	[Remarks:Successful filter row count: 5]
[Date: 2015-06-18 10:11:31]	[UserID:06/343]	[IP:10.10.11.1]	[Browser:Chrome - 43.0.2357.124]	[Action:Closing mssql connection]	[Remarks:Success]
[Date: 2015-06-18 14:26:25]	[UserID:]	[IP:10.10.11.1]	[Browser:Chrome - 43.0.2357.124]	[Action:Making connection to server]	[Remarks:Successful connection to server: S3]
[Date: 2015-06-18 14:26:25]	[UserID:]	[IP:10.10.11.1]	[Browser:Chrome - 43.0.2357.124]	[Action:GetProgramList ]	[Remarks:"no data"]
[Date: 2015-06-18 14:26:25]	[UserID:]	[IP:10.10.11.1]	[Browser:Chrome - 43.0.2357.124]	[Action:Making connection to server]	[Remarks:Successful connection to server: S3]
[Date: 2015-06-18 14:26:25]	[UserID:]	[IP:10.10.11.1]	[Browser:Chrome - 43.0.2357.124]	[Action:GetProgramList ]	[Remarks:"no data"]
[Date: 2015-06-18 14:26:33]	[UserID:06/343]	[IP:10.10.11.1]	[Browser:Chrome - 43.0.2357.124]	[Action:Making connection to server]	[Remarks:Successful connection to server: S3]
[Date: 2015-06-18 14:26:33]	[UserID:06/343]	[IP:10.10.11.1]	[Browser:Chrome - 43.0.2357.124]	[Action:User 06/343]	[Remarks:Success]
[Date: 2015-06-18 14:26:33]	[UserID:06/343]	[IP:10.10.11.1]	[Browser:Chrome - 43.0.2357.124]	[Action:Filtering User : MasterData Username : 06/343]	[Remarks:Successful filter row count: 0]
[Date: 2015-06-18 14:26:33]	[UserID:06/343]	[IP:10.10.11.1]	[Browser:Chrome - 43.0.2357.124]	[Action:Filtering User : MasterData Username : 06/343]	[Remarks:Successful filter row count: 0]
[Date: 2015-06-18 14:26:33]	[UserID:06/343]	[IP:10.10.11.1]	[Browser:Chrome - 43.0.2357.124]	[Action:Filtering User : MasterData Username : 06/343]	[Remarks:Success]
[Date: 2015-06-18 14:26:33]	[UserID:06/343]	[IP:10.10.11.1]	[Browser:Chrome - 43.0.2357.124]	[Action:Closing mssql connection]	[Remarks:Success]
[Date: 2015-06-18 14:26:33]	[UserID:06/343]	[IP:10.10.11.1]	[Browser:Chrome - 43.0.2357.124]	[Action:Making connection to server]	[Remarks:Successful connection to server: S3]
[Date: 2015-06-18 14:26:33]	[UserID:06/343]	[IP:10.10.11.1]	[Browser:Chrome - 43.0.2357.124]	[Action:GetProgramList 06/343]	[Remarks:[{"ID":"1","ProgramIndex":"GST","ProgramName":"GST"}]]
[Date: 2015-06-18 14:26:33]	[UserID:06/343]	[IP:10.10.11.1]	[Browser:Chrome - 43.0.2357.124]	[Action:Making connection to server]	[Remarks:Successful connection to server: S3]
[Date: 2015-06-18 14:26:33]	[UserID:06/343]	[IP:10.10.11.1]	[Browser:Chrome - 43.0.2357.124]	[Action:GetProgramList 06/343]	[Remarks:[{"ID":"1","ProgramIndex":"GST","ProgramName":"GST"}]]
[Date: 2015-06-18 14:26:33]	[UserID:06/343]	[IP:10.10.11.1]	[Browser:Chrome - 43.0.2357.124]	[Action:Making connection to server]	[Remarks:Successful connection to server: S3]
[Date: 2015-06-18 14:26:33]	[UserID:06/343]	[IP:10.10.11.1]	[Browser:Chrome - 43.0.2357.124]	[Action:Filtering User : MasterData Username : 06/343]	[Remarks:Successful filter row count: 1]
[Date: 2015-06-18 14:26:34]	[UserID:06/343]	[IP:10.10.11.1]	[Browser:Chrome - 43.0.2357.124]	[Action:Making connection to server]	[Remarks:Successful connection to server: S3]
[Date: 2015-06-18 14:26:34]	[UserID:06/343]	[IP:10.10.11.1]	[Browser:Chrome - 43.0.2357.124]	[Action:GetGSTModules 06/343,1]	[Remarks:Successful filter row count: 5]
[Date: 2015-06-18 14:26:34]	[UserID:06/343]	[IP:10.10.11.1]	[Browser:Chrome - 43.0.2357.124]	[Action:Closing mssql connection]	[Remarks:Success]
[Date: 2015-06-18 14:41:11]	[UserID:]	[IP:10.10.11.1]	[Browser:Chrome - 43.0.2357.124]	[Action:Making connection to server]	[Remarks:Successful connection to server: S3]
[Date: 2015-06-18 14:41:11]	[UserID:]	[IP:10.10.11.1]	[Browser:Chrome - 43.0.2357.124]	[Action:GetProgramList ]	[Remarks:"no data"]
[Date: 2015-06-18 14:41:13]	[UserID:06/371]	[IP:10.10.11.1]	[Browser:Chrome - 43.0.2357.124]	[Action:Making connection to server]	[Remarks:Successful connection to server: S3]
[Date: 2015-06-18 14:41:13]	[UserID:06/371]	[IP:10.10.11.1]	[Browser:Chrome - 43.0.2357.124]	[Action:User 06/371]	[Remarks:Success]
[Date: 2015-06-18 14:41:13]	[UserID:06/371]	[IP:10.10.11.1]	[Browser:Chrome - 43.0.2357.124]	[Action:Filtering User : MasterData Username : 06/371]	[Remarks:Successful filter row count: 0]
[Date: 2015-06-18 14:41:13]	[UserID:06/371]	[IP:10.10.11.1]	[Browser:Chrome - 43.0.2357.124]	[Action:Filtering User : MasterData Username : 06/371]	[Remarks:Successful filter row count: 0]
[Date: 2015-06-18 14:41:13]	[UserID:06/371]	[IP:10.10.11.1]	[Browser:Chrome - 43.0.2357.124]	[Action:Filtering User : MasterData Username : 06/371]	[Remarks:Success]
[Date: 2015-06-18 14:41:13]	[UserID:06/371]	[IP:10.10.11.1]	[Browser:Chrome - 43.0.2357.124]	[Action:Closing mssql connection]	[Remarks:Success]
[Date: 2015-06-18 14:41:13]	[UserID:06/371]	[IP:10.10.11.1]	[Browser:Chrome - 43.0.2357.124]	[Action:Making connection to server]	[Remarks:Successful connection to server: S3]
[Date: 2015-06-18 14:41:13]	[UserID:06/371]	[IP:10.10.11.1]	[Browser:Chrome - 43.0.2357.124]	[Action:GetProgramList 06/371]	[Remarks:[{"ID":"1","ProgramIndex":"GST","ProgramName":"GST"}]]
[Date: 2015-06-18 14:41:13]	[UserID:06/371]	[IP:10.10.11.1]	[Browser:Chrome - 43.0.2357.124]	[Action:Making connection to server]	[Remarks:Successful connection to server: S3]
[Date: 2015-06-18 14:41:13]	[UserID:06/371]	[IP:10.10.11.1]	[Browser:Chrome - 43.0.2357.124]	[Action:GetProgramList 06/371]	[Remarks:[{"ID":"1","ProgramIndex":"GST","ProgramName":"GST"}]]
[Date: 2015-06-18 14:41:13]	[UserID:06/371]	[IP:10.10.11.1]	[Browser:Chrome - 43.0.2357.124]	[Action:Making connection to server]	[Remarks:Successful connection to server: S3]
[Date: 2015-06-18 14:41:13]	[UserID:06/371]	[IP:10.10.11.1]	[Browser:Chrome - 43.0.2357.124]	[Action:Filtering User : MasterData Username : 06/371]	[Remarks:Successful filter row count: 1]
[Date: 2015-06-18 14:41:14]	[UserID:06/371]	[IP:10.10.11.1]	[Browser:Chrome - 43.0.2357.124]	[Action:Making connection to server]	[Remarks:Successful connection to server: S3]
[Date: 2015-06-18 14:41:14]	[UserID:06/371]	[IP:10.10.11.1]	[Browser:Chrome - 43.0.2357.124]	[Action:GetGSTModules 06/371,1]	[Remarks:Successful filter row count: 5]
[Date: 2015-06-18 14:41:14]	[UserID:06/371]	[IP:10.10.11.1]	[Browser:Chrome - 43.0.2357.124]	[Action:Closing mssql connection]	[Remarks:Success]
[Date: 2015-06-18 14:41:55]	[UserID:06/371]	[IP:10.10.11.1]	[Browser:Chrome - 43.0.2357.124]	[Action:Making connection to server]	[Remarks:Successful connection to server: S3]
[Date: 2015-06-18 14:41:55]	[UserID:06/371]	[IP:10.10.11.1]	[Browser:Chrome - 43.0.2357.124]	[Action:GetGSTModules 06/371,1]	[Remarks:Successful filter row count: 5]
[Date: 2015-06-18 14:41:55]	[UserID:06/371]	[IP:10.10.11.1]	[Browser:Chrome - 43.0.2357.124]	[Action:Closing mssql connection]	[Remarks:Success]
[Date: 2015-06-18 14:43:41]	[UserID:06/371]	[IP:10.10.11.1]	[Browser:Chrome - 43.0.2357.124]	[Action:Making connection to server]	[Remarks:Successful connection to server: S3]
[Date: 2015-06-18 14:43:41]	[UserID:06/371]	[IP:10.10.11.1]	[Browser:Chrome - 43.0.2357.124]	[Action:GetProgramList 06/371]	[Remarks:[{"ID":"1","ProgramIndex":"GST","ProgramName":"GST"}]]
[Date: 2015-06-18 14:43:41]	[UserID:06/371]	[IP:10.10.11.1]	[Browser:Chrome - 43.0.2357.124]	[Action:Making connection to server]	[Remarks:Successful connection to server: S3]
[Date: 2015-06-18 14:43:41]	[UserID:06/371]	[IP:10.10.11.1]	[Browser:Chrome - 43.0.2357.124]	[Action:GetProgramList 06/371]	[Remarks:[{"ID":"1","ProgramIndex":"GST","ProgramName":"GST"}]]
[Date: 2015-06-18 14:43:41]	[UserID:06/371]	[IP:10.10.11.1]	[Browser:Chrome - 43.0.2357.124]	[Action:Making connection to server]	[Remarks:Successful connection to server: S3]
[Date: 2015-06-18 14:43:41]	[UserID:06/371]	[IP:10.10.11.1]	[Browser:Chrome - 43.0.2357.124]	[Action:Filtering User : MasterData Username : 06/371]	[Remarks:Successful filter row count: 1]
[Date: 2015-06-18 14:43:42]	[UserID:06/371]	[IP:10.10.11.1]	[Browser:Chrome - 43.0.2357.124]	[Action:Making connection to server]	[Remarks:Successful connection to server: S3]
[Date: 2015-06-18 14:43:42]	[UserID:06/371]	[IP:10.10.11.1]	[Browser:Chrome - 43.0.2357.124]	[Action:GetGSTModules 06/371,1]	[Remarks:Successful filter row count: 5]
[Date: 2015-06-18 14:43:42]	[UserID:06/371]	[IP:10.10.11.1]	[Browser:Chrome - 43.0.2357.124]	[Action:Closing mssql connection]	[Remarks:Success]
[Date: 2015-06-18 15:29:16]	[UserID:06/343]	[IP:10.10.11.1]	[Browser:Chrome - 43.0.2357.124]	[Action:Making connection to server]	[Remarks:Successful connection to server: S3]
[Date: 2015-06-18 15:29:16]	[UserID:06/343]	[IP:10.10.11.1]	[Browser:Chrome - 43.0.2357.124]	[Action:GetGSTModules 06/343,1]	[Remarks:Successful filter row count: 5]
[Date: 2015-06-18 15:29:16]	[UserID:06/343]	[IP:10.10.11.1]	[Browser:Chrome - 43.0.2357.124]	[Action:Closing mssql connection]	[Remarks:Success]
