[Date: 2019-06-19 08:13:43]	[UserID:]	[IP:10.128.12.113]	[Browser:Chrome - 74.0.3729.169]	[Action:Making connection to server]	[Remarks:Successful connection to server: S3]
[Date: 2019-06-19 08:13:43]	[UserID:]	[IP:10.128.12.113]	[Browser:Chrome - 74.0.3729.169]	[Action:GetProgramList ]	[Remarks:"no data"]
[Date: 2019-06-19 08:13:52]	[UserID:06/343]	[IP:10.128.12.113]	[Browser:Chrome - 74.0.3729.169]	[Action:Making connection to server]	[Remarks:Successful connection to server: S3]
[Date: 2019-06-19 08:13:52]	[UserID:06/343]	[IP:10.128.12.113]	[Browser:Chrome - 74.0.3729.169]	[Action:User 06/343]	[Remarks:Success]
[Date: 2019-06-19 08:13:52]	[UserID:06/343]	[IP:10.128.12.113]	[Browser:Chrome - 74.0.3729.169]	[Action:Filtering User : MasterData Username : 06/343]	[Remarks:Successful filter row count: 0]
[Date: 2019-06-19 08:13:52]	[UserID:06/343]	[IP:10.128.12.113]	[Browser:Chrome - 74.0.3729.169]	[Action:Filtering User : MasterData Username : 06/343]	[Remarks:Successful filter row count: 0]
[Date: 2019-06-19 08:13:52]	[UserID:06/343]	[IP:10.128.12.113]	[Browser:Chrome - 74.0.3729.169]	[Action:Filtering User : MasterData Username : 06/343]	[Remarks:Success]
[Date: 2019-06-19 08:13:52]	[UserID:06/343]	[IP:10.128.12.113]	[Browser:Chrome - 74.0.3729.169]	[Action:Closing mssql connection]	[Remarks:Success]
[Date: 2019-06-19 08:13:52]	[UserID:06/343]	[IP:10.128.12.113]	[Browser:Chrome - 74.0.3729.169]	[Action:Making connection to server]	[Remarks:Successful connection to server: S3]
[Date: 2019-06-19 08:13:52]	[UserID:06/343]	[IP:10.128.12.113]	[Browser:Chrome - 74.0.3729.169]	[Action:GetProgramList 06/343]	[Remarks:[{"ID":"1","ProgramIndex":"GST","ProgramName":"GST"}]]
[Date: 2019-06-19 08:13:52]	[UserID:06/343]	[IP:10.128.12.113]	[Browser:Chrome - 74.0.3729.169]	[Action:Making connection to server]	[Remarks:Successful connection to server: S3]
[Date: 2019-06-19 08:13:52]	[UserID:06/343]	[IP:10.128.12.113]	[Browser:Chrome - 74.0.3729.169]	[Action:GetProgramList 06/343]	[Remarks:[{"ID":"1","ProgramIndex":"GST","ProgramName":"GST"}]]
[Date: 2019-06-19 08:13:52]	[UserID:06/343]	[IP:10.128.12.113]	[Browser:Chrome - 74.0.3729.169]	[Action:Making connection to server]	[Remarks:Successful connection to server: S3]
[Date: 2019-06-19 08:13:52]	[UserID:06/343]	[IP:10.128.12.113]	[Browser:Chrome - 74.0.3729.169]	[Action:Filtering User : MasterData Username : 06/343]	[Remarks:Successful filter row count: 1]
[Date: 2019-06-19 08:13:53]	[UserID:06/343]	[IP:10.128.12.113]	[Browser:Chrome - 74.0.3729.169]	[Action:Making connection to server]	[Remarks:Successful connection to server: S3]
[Date: 2019-06-19 08:13:53]	[UserID:06/343]	[IP:10.128.12.113]	[Browser:Chrome - 74.0.3729.169]	[Action:GetGSTModules 06/343,1]	[Remarks:Successful filter row count: 6]
[Date: 2019-06-19 08:13:53]	[UserID:06/343]	[IP:10.128.12.113]	[Browser:Chrome - 74.0.3729.169]	[Action:Closing mssql connection]	[Remarks:Success]
[Date: 2019-06-19 08:19:16]	[UserID:06/343]	[IP:10.128.12.113]	[Browser:Chrome - 74.0.3729.169]	[Action:Making connection to server]	[Remarks:Successful connection to server: S3]
[Date: 2019-06-19 08:19:16]	[UserID:06/343]	[IP:10.128.12.113]	[Browser:Chrome - 74.0.3729.169]	[Action:GetGSTModules 06/343,1]	[Remarks:Successful filter row count: 6]
[Date: 2019-06-19 08:19:16]	[UserID:06/343]	[IP:10.128.12.113]	[Browser:Chrome - 74.0.3729.169]	[Action:Closing mssql connection]	[Remarks:Success]
[Date: 2019-06-19 08:41:09]	[UserID:06/343]	[IP:10.128.12.113]	[Browser:Chrome - 74.0.3729.169]	[Action:Making connection to server]	[Remarks:Successful connection to server: S3]
[Date: 2019-06-19 08:41:09]	[UserID:06/343]	[IP:10.128.12.113]	[Browser:Chrome - 74.0.3729.169]	[Action:GetGSTModules 06/343,1]	[Remarks:Successful filter row count: 6]
[Date: 2019-06-19 08:41:09]	[UserID:06/343]	[IP:10.128.12.113]	[Browser:Chrome - 74.0.3729.169]	[Action:Closing mssql connection]	[Remarks:Success]
[Date: 2019-06-19 09:00:16]	[UserID:]	[IP:10.128.8.120]	[Browser:Chrome - 64.0.3282.140]	[Action:Making connection to server]	[Remarks:Successful connection to server: S3]
[Date: 2019-06-19 09:00:16]	[UserID:]	[IP:10.128.8.120]	[Browser:Chrome - 64.0.3282.140]	[Action:GetProgramList ]	[Remarks:"no data"]
[Date: 2019-06-19 09:00:22]	[UserID:dev/nsosa]	[IP:10.128.8.120]	[Browser:Chrome - 64.0.3282.140]	[Action:Making connection to server]	[Remarks:Successful connection to server: S3]
[Date: 2019-06-19 09:00:22]	[UserID:dev/nsosa]	[IP:10.128.8.120]	[Browser:Chrome - 64.0.3282.140]	[Action:User dev/nsosa]	[Remarks:Success]
[Date: 2019-06-19 09:00:22]	[UserID:dev/nsosa]	[IP:10.128.8.120]	[Browser:Chrome - 64.0.3282.140]	[Action:Filtering User : MasterData Username : dev/nsosa]	[Remarks:Successful filter row count: 0]
[Date: 2019-06-19 09:00:22]	[UserID:dev/nsosa]	[IP:10.128.8.120]	[Browser:Chrome - 64.0.3282.140]	[Action:Filtering User : MasterData Username : dev/nsosa]	[Remarks:Successful filter row count: 0]
[Date: 2019-06-19 09:00:22]	[UserID:dev/nsosa]	[IP:10.128.8.120]	[Browser:Chrome - 64.0.3282.140]	[Action:Filtering User : MasterData Username : dev/nsosa]	[Remarks:Success]
[Date: 2019-06-19 09:00:22]	[UserID:dev/nsosa]	[IP:10.128.8.120]	[Browser:Chrome - 64.0.3282.140]	[Action:Closing mssql connection]	[Remarks:Success]
[Date: 2019-06-19 09:00:22]	[UserID:]	[IP:10.128.8.120]	[Browser:Chrome - 64.0.3282.140]	[Action:Making connection to server]	[Remarks:Successful connection to server: S3]
[Date: 2019-06-19 09:00:22]	[UserID:]	[IP:10.128.8.120]	[Browser:Chrome - 64.0.3282.140]	[Action:GetProgramList ]	[Remarks:"no data"]
[Date: 2019-06-19 09:00:33]	[UserID:dev/nsosa]	[IP:10.128.8.120]	[Browser:Chrome - 64.0.3282.140]	[Action:Making connection to server]	[Remarks:Successful connection to server: S3]
[Date: 2019-06-19 09:00:33]	[UserID:dev/nsosa]	[IP:10.128.8.120]	[Browser:Chrome - 64.0.3282.140]	[Action:LogMeIn dev/nsosa,@stackoverflow]	[Remarks:Failed]
[Date: 2019-06-19 09:00:33]	[UserID:dev/nsosa]	[IP:10.128.8.120]	[Browser:Chrome - 64.0.3282.140]	[Action:Closing mssql connection]	[Remarks:Success]
[Date: 2019-06-19 09:00:38]	[UserID:dev/nsosa]	[IP:10.128.8.120]	[Browser:Chrome - 64.0.3282.140]	[Action:Making connection to server]	[Remarks:Successful connection to server: S3]
[Date: 2019-06-19 09:00:38]	[UserID:dev/nsosa]	[IP:10.128.8.120]	[Browser:Chrome - 64.0.3282.140]	[Action:User dev/nsosa]	[Remarks:Success]
[Date: 2019-06-19 09:00:38]	[UserID:dev/nsosa]	[IP:10.128.8.120]	[Browser:Chrome - 64.0.3282.140]	[Action:Filtering User : MasterData Username : dev/nsosa]	[Remarks:Successful filter row count: 0]
[Date: 2019-06-19 09:00:38]	[UserID:dev/nsosa]	[IP:10.128.8.120]	[Browser:Chrome - 64.0.3282.140]	[Action:Filtering User : MasterData Username : dev/nsosa]	[Remarks:Successful filter row count: 0]
[Date: 2019-06-19 09:00:38]	[UserID:dev/nsosa]	[IP:10.128.8.120]	[Browser:Chrome - 64.0.3282.140]	[Action:Filtering User : MasterData Username : dev/nsosa]	[Remarks:Success]
[Date: 2019-06-19 09:00:38]	[UserID:dev/nsosa]	[IP:10.128.8.120]	[Browser:Chrome - 64.0.3282.140]	[Action:Closing mssql connection]	[Remarks:Success]
[Date: 2019-06-19 09:00:38]	[UserID:]	[IP:10.128.8.120]	[Browser:Chrome - 64.0.3282.140]	[Action:Making connection to server]	[Remarks:Successful connection to server: S3]
[Date: 2019-06-19 09:00:38]	[UserID:]	[IP:10.128.8.120]	[Browser:Chrome - 64.0.3282.140]	[Action:GetProgramList ]	[Remarks:"no data"]
[Date: 2019-06-19 09:00:41]	[UserID:]	[IP:10.128.8.120]	[Browser:Chrome - 64.0.3282.140]	[Action:Making connection to server]	[Remarks:Successful connection to server: S3]
[Date: 2019-06-19 09:00:41]	[UserID:]	[IP:10.128.8.120]	[Browser:Chrome - 64.0.3282.140]	[Action:GetProgramList ]	[Remarks:"no data"]
[Date: 2019-06-19 09:01:21]	[UserID:dev/nsosa]	[IP:10.128.8.120]	[Browser:Chrome - 64.0.3282.140]	[Action:Making connection to server]	[Remarks:Successful connection to server: S3]
[Date: 2019-06-19 09:01:21]	[UserID:dev/nsosa]	[IP:10.128.8.120]	[Browser:Chrome - 64.0.3282.140]	[Action:GetProgramList dev/nsosa]	[Remarks:[{"ID":"1","ProgramIndex":"GST","ProgramName":"GST"},{"ID":"3","ProgramIndex":"PRD","ProgramName":"PRD"}]]
[Date: 2019-06-19 09:01:21]	[UserID:dev/nsosa]	[IP:10.128.8.120]	[Browser:Chrome - 64.0.3282.140]	[Action:Making connection to server]	[Remarks:Successful connection to server: S3]
[Date: 2019-06-19 09:01:21]	[UserID:dev/nsosa]	[IP:10.128.8.120]	[Browser:Chrome - 64.0.3282.140]	[Action:GetProgramList dev/nsosa]	[Remarks:[{"ID":"1","ProgramIndex":"GST","ProgramName":"GST"},{"ID":"3","ProgramIndex":"PRD","ProgramName":"PRD"}]]
[Date: 2019-06-19 09:01:21]	[UserID:dev/nsosa]	[IP:10.128.8.120]	[Browser:Chrome - 64.0.3282.140]	[Action:Making connection to server]	[Remarks:Successful connection to server: S3]
[Date: 2019-06-19 09:01:21]	[UserID:dev/nsosa]	[IP:10.128.8.120]	[Browser:Chrome - 64.0.3282.140]	[Action:Filtering User : MasterData Username : dev/nsosa]	[Remarks:Successful filter row count: 1]
[Date: 2019-06-19 09:01:25]	[UserID:dev/nsosa]	[IP:10.128.8.120]	[Browser:Chrome - 64.0.3282.140]	[Action:Making connection to server]	[Remarks:Successful connection to server: S3]
[Date: 2019-06-19 09:01:25]	[UserID:dev/nsosa]	[IP:10.128.8.120]	[Browser:Chrome - 64.0.3282.140]	[Action:GetProgramList dev/nsosa]	[Remarks:[{"ID":"1","ProgramIndex":"GST","ProgramName":"GST"},{"ID":"3","ProgramIndex":"PRD","ProgramName":"PRD"}]]
[Date: 2019-06-19 09:01:25]	[UserID:dev/nsosa]	[IP:10.128.8.120]	[Browser:Chrome - 64.0.3282.140]	[Action:Making connection to server]	[Remarks:Successful connection to server: S3]
[Date: 2019-06-19 09:01:25]	[UserID:dev/nsosa]	[IP:10.128.8.120]	[Browser:Chrome - 64.0.3282.140]	[Action:GetProgramList dev/nsosa]	[Remarks:[{"ID":"1","ProgramIndex":"GST","ProgramName":"GST"},{"ID":"3","ProgramIndex":"PRD","ProgramName":"PRD"}]]
[Date: 2019-06-19 09:01:25]	[UserID:dev/nsosa]	[IP:10.128.8.120]	[Browser:Chrome - 64.0.3282.140]	[Action:Making connection to server]	[Remarks:Successful connection to server: S3]
[Date: 2019-06-19 09:01:25]	[UserID:dev/nsosa]	[IP:10.128.8.120]	[Browser:Chrome - 64.0.3282.140]	[Action:Filtering User : MasterData Username : dev/nsosa]	[Remarks:Successful filter row count: 1]
[Date: 2019-06-19 09:01:27]	[UserID:dev/nsosa]	[IP:10.128.8.120]	[Browser:Chrome - 64.0.3282.140]	[Action:Making connection to server]	[Remarks:Successful connection to server: S3]
[Date: 2019-06-19 09:01:27]	[UserID:dev/nsosa]	[IP:10.128.8.120]	[Browser:Chrome - 64.0.3282.140]	[Action:GetProgramList dev/nsosa]	[Remarks:[{"ID":"1","ProgramIndex":"GST","ProgramName":"GST"},{"ID":"3","ProgramIndex":"PRD","ProgramName":"PRD"}]]
[Date: 2019-06-19 09:01:27]	[UserID:dev/nsosa]	[IP:10.128.8.120]	[Browser:Chrome - 64.0.3282.140]	[Action:Making connection to server]	[Remarks:Successful connection to server: S3]
[Date: 2019-06-19 09:01:27]	[UserID:dev/nsosa]	[IP:10.128.8.120]	[Browser:Chrome - 64.0.3282.140]	[Action:GetProgramList dev/nsosa]	[Remarks:[{"ID":"1","ProgramIndex":"GST","ProgramName":"GST"},{"ID":"3","ProgramIndex":"PRD","ProgramName":"PRD"}]]
[Date: 2019-06-19 09:01:27]	[UserID:dev/nsosa]	[IP:10.128.8.120]	[Browser:Chrome - 64.0.3282.140]	[Action:Making connection to server]	[Remarks:Successful connection to server: S3]
[Date: 2019-06-19 09:01:27]	[UserID:dev/nsosa]	[IP:10.128.8.120]	[Browser:Chrome - 64.0.3282.140]	[Action:Filtering User : MasterData Username : dev/nsosa]	[Remarks:Successful filter row count: 1]
[Date: 2019-06-19 09:01:29]	[UserID:dev/nsosa]	[IP:10.128.8.120]	[Browser:Chrome - 64.0.3282.140]	[Action:Making connection to server]	[Remarks:Successful connection to server: S3]
[Date: 2019-06-19 09:01:29]	[UserID:dev/nsosa]	[IP:10.128.8.120]	[Browser:Chrome - 64.0.3282.140]	[Action:GetGSTModules dev/nsosa,1]	[Remarks:Successful filter row count: 9]
[Date: 2019-06-19 09:01:29]	[UserID:dev/nsosa]	[IP:10.128.8.120]	[Browser:Chrome - 64.0.3282.140]	[Action:Closing mssql connection]	[Remarks:Success]
[Date: 2019-06-19 09:51:46]	[UserID:06/343]	[IP:10.128.12.113]	[Browser:Chrome - 74.0.3729.169]	[Action:Making connection to server]	[Remarks:Successful connection to server: S3]
[Date: 2019-06-19 09:51:46]	[UserID:06/343]	[IP:10.128.12.113]	[Browser:Chrome - 74.0.3729.169]	[Action:GetGSTModules 06/343,1]	[Remarks:Successful filter row count: 6]
[Date: 2019-06-19 09:51:46]	[UserID:06/343]	[IP:10.128.12.113]	[Browser:Chrome - 74.0.3729.169]	[Action:Closing mssql connection]	[Remarks:Success]
[Date: 2019-06-19 10:03:31]	[UserID:06/343]	[IP:10.128.12.113]	[Browser:Chrome - 74.0.3729.169]	[Action:Making connection to server]	[Remarks:Successful connection to server: S3]
[Date: 2019-06-19 10:03:31]	[UserID:06/343]	[IP:10.128.12.113]	[Browser:Chrome - 74.0.3729.169]	[Action:GetGSTModules 06/343,1]	[Remarks:Successful filter row count: 6]
[Date: 2019-06-19 10:03:31]	[UserID:06/343]	[IP:10.128.12.113]	[Browser:Chrome - 74.0.3729.169]	[Action:Closing mssql connection]	[Remarks:Success]
[Date: 2019-06-19 10:04:57]	[UserID:06/343]	[IP:10.128.12.113]	[Browser:Chrome - 74.0.3729.169]	[Action:Making connection to server]	[Remarks:Successful connection to server: S3]
[Date: 2019-06-19 10:04:57]	[UserID:06/343]	[IP:10.128.12.113]	[Browser:Chrome - 74.0.3729.169]	[Action:GetGSTModules 06/343,1]	[Remarks:Successful filter row count: 6]
[Date: 2019-06-19 10:04:57]	[UserID:06/343]	[IP:10.128.12.113]	[Browser:Chrome - 74.0.3729.169]	[Action:Closing mssql connection]	[Remarks:Success]
[Date: 2019-06-19 10:19:35]	[UserID:06/343]	[IP:10.128.12.113]	[Browser:Chrome - 74.0.3729.169]	[Action:Making connection to server]	[Remarks:Successful connection to server: S3]
[Date: 2019-06-19 10:19:35]	[UserID:06/343]	[IP:10.128.12.113]	[Browser:Chrome - 74.0.3729.169]	[Action:GetGSTModules 06/343,1]	[Remarks:Successful filter row count: 6]
[Date: 2019-06-19 10:19:35]	[UserID:06/343]	[IP:10.128.12.113]	[Browser:Chrome - 74.0.3729.169]	[Action:Closing mssql connection]	[Remarks:Success]
[Date: 2019-06-19 10:20:01]	[UserID:06/343]	[IP:10.128.12.113]	[Browser:Chrome - 74.0.3729.169]	[Action:Making connection to server]	[Remarks:Successful connection to server: S3]
[Date: 2019-06-19 10:20:02]	[UserID:06/343]	[IP:10.128.12.113]	[Browser:Chrome - 74.0.3729.169]	[Action:GetGSTModules 06/343,1]	[Remarks:Successful filter row count: 6]
[Date: 2019-06-19 10:20:02]	[UserID:06/343]	[IP:10.128.12.113]	[Browser:Chrome - 74.0.3729.169]	[Action:Closing mssql connection]	[Remarks:Success]
[Date: 2019-06-19 10:22:56]	[UserID:]	[IP:10.128.12.120]	[Browser:Chrome - 74.0.3729.169]	[Action:Making connection to server]	[Remarks:Successful connection to server: S3]
[Date: 2019-06-19 10:22:56]	[UserID:]	[IP:10.128.12.120]	[Browser:Chrome - 74.0.3729.169]	[Action:GetProgramList ]	[Remarks:"no data"]
[Date: 2019-06-19 10:23:05]	[UserID:14/1082]	[IP:10.128.12.120]	[Browser:Chrome - 74.0.3729.169]	[Action:Making connection to server]	[Remarks:Successful connection to server: S3]
[Date: 2019-06-19 10:23:05]	[UserID:14/1082]	[IP:10.128.12.120]	[Browser:Chrome - 74.0.3729.169]	[Action:User 14/1082]	[Remarks:Success]
[Date: 2019-06-19 10:23:05]	[UserID:14/1082]	[IP:10.128.12.120]	[Browser:Chrome - 74.0.3729.169]	[Action:Filtering User : MasterData Username : 14/1082]	[Remarks:Successful filter row count: 0]
[Date: 2019-06-19 10:23:05]	[UserID:14/1082]	[IP:10.128.12.120]	[Browser:Chrome - 74.0.3729.169]	[Action:Filtering User : MasterData Username : 14/1082]	[Remarks:Successful filter row count: 0]
[Date: 2019-06-19 10:23:05]	[UserID:14/1082]	[IP:10.128.12.120]	[Browser:Chrome - 74.0.3729.169]	[Action:Filtering User : MasterData Username : 14/1082]	[Remarks:Success]
[Date: 2019-06-19 10:23:05]	[UserID:14/1082]	[IP:10.128.12.120]	[Browser:Chrome - 74.0.3729.169]	[Action:Closing mssql connection]	[Remarks:Success]
[Date: 2019-06-19 10:23:05]	[UserID:14/1082]	[IP:10.128.12.120]	[Browser:Chrome - 74.0.3729.169]	[Action:Making connection to server]	[Remarks:Successful connection to server: S3]
[Date: 2019-06-19 10:23:05]	[UserID:14/1082]	[IP:10.128.12.120]	[Browser:Chrome - 74.0.3729.169]	[Action:GetProgramList 14/1082]	[Remarks:[{"ID":"1","ProgramIndex":"GST","ProgramName":"GST"}]]
[Date: 2019-06-19 10:23:05]	[UserID:14/1082]	[IP:10.128.12.120]	[Browser:Chrome - 74.0.3729.169]	[Action:Making connection to server]	[Remarks:Successful connection to server: S3]
[Date: 2019-06-19 10:23:05]	[UserID:14/1082]	[IP:10.128.12.120]	[Browser:Chrome - 74.0.3729.169]	[Action:GetProgramList 14/1082]	[Remarks:[{"ID":"1","ProgramIndex":"GST","ProgramName":"GST"}]]
[Date: 2019-06-19 10:23:05]	[UserID:14/1082]	[IP:10.128.12.120]	[Browser:Chrome - 74.0.3729.169]	[Action:Making connection to server]	[Remarks:Successful connection to server: S3]
[Date: 2019-06-19 10:23:05]	[UserID:14/1082]	[IP:10.128.12.120]	[Browser:Chrome - 74.0.3729.169]	[Action:Filtering User : MasterData Username : 14/1082]	[Remarks:Successful filter row count: 1]
[Date: 2019-06-19 10:23:05]	[UserID:14/1082]	[IP:10.128.12.120]	[Browser:Chrome - 74.0.3729.169]	[Action:Making connection to server]	[Remarks:Successful connection to server: S3]
[Date: 2019-06-19 10:23:05]	[UserID:14/1082]	[IP:10.128.12.120]	[Browser:Chrome - 74.0.3729.169]	[Action:GetGSTModules 14/1082,1]	[Remarks:Successful filter row count: 7]
[Date: 2019-06-19 10:23:05]	[UserID:14/1082]	[IP:10.128.12.120]	[Browser:Chrome - 74.0.3729.169]	[Action:Closing mssql connection]	[Remarks:Success]
[Date: 2019-06-19 10:23:41]	[UserID:06/343]	[IP:10.128.12.113]	[Browser:Chrome - 74.0.3729.169]	[Action:Making connection to server]	[Remarks:Successful connection to server: S3]
[Date: 2019-06-19 10:23:41]	[UserID:06/343]	[IP:10.128.12.113]	[Browser:Chrome - 74.0.3729.169]	[Action:GetGSTModules 06/343,1]	[Remarks:Successful filter row count: 6]
[Date: 2019-06-19 10:23:41]	[UserID:06/343]	[IP:10.128.12.113]	[Browser:Chrome - 74.0.3729.169]	[Action:Closing mssql connection]	[Remarks:Success]
[Date: 2019-06-19 10:25:08]	[UserID:06/343]	[IP:10.128.12.113]	[Browser:Chrome - 74.0.3729.169]	[Action:Making connection to server]	[Remarks:Successful connection to server: S3]
[Date: 2019-06-19 10:25:09]	[UserID:06/343]	[IP:10.128.12.113]	[Browser:Chrome - 74.0.3729.169]	[Action:GetGSTModules 06/343,1]	[Remarks:Successful filter row count: 6]
[Date: 2019-06-19 10:25:09]	[UserID:06/343]	[IP:10.128.12.113]	[Browser:Chrome - 74.0.3729.169]	[Action:Closing mssql connection]	[Remarks:Success]
[Date: 2019-06-19 10:26:47]	[UserID:14/1082]	[IP:10.128.12.120]	[Browser:Chrome - 74.0.3729.169]	[Action:Making connection to server]	[Remarks:Successful connection to server: S3]
[Date: 2019-06-19 10:26:47]	[UserID:14/1082]	[IP:10.128.12.120]	[Browser:Chrome - 74.0.3729.169]	[Action:GetProgramList 14/1082]	[Remarks:[{"ID":"1","ProgramIndex":"GST","ProgramName":"GST"}]]
[Date: 2019-06-19 10:26:47]	[UserID:14/1082]	[IP:10.128.12.120]	[Browser:Chrome - 74.0.3729.169]	[Action:Making connection to server]	[Remarks:Successful connection to server: S3]
[Date: 2019-06-19 10:26:47]	[UserID:14/1082]	[IP:10.128.12.120]	[Browser:Chrome - 74.0.3729.169]	[Action:GetProgramList 14/1082]	[Remarks:[{"ID":"1","ProgramIndex":"GST","ProgramName":"GST"}]]
[Date: 2019-06-19 10:26:47]	[UserID:14/1082]	[IP:10.128.12.120]	[Browser:Chrome - 74.0.3729.169]	[Action:Making connection to server]	[Remarks:Successful connection to server: S3]
[Date: 2019-06-19 10:26:47]	[UserID:14/1082]	[IP:10.128.12.120]	[Browser:Chrome - 74.0.3729.169]	[Action:Filtering User : MasterData Username : 14/1082]	[Remarks:Successful filter row count: 1]
[Date: 2019-06-19 10:26:48]	[UserID:14/1082]	[IP:10.128.12.120]	[Browser:Chrome - 74.0.3729.169]	[Action:Making connection to server]	[Remarks:Successful connection to server: S3]
[Date: 2019-06-19 10:26:48]	[UserID:14/1082]	[IP:10.128.12.120]	[Browser:Chrome - 74.0.3729.169]	[Action:GetGSTModules 14/1082,1]	[Remarks:Successful filter row count: 7]
[Date: 2019-06-19 10:26:48]	[UserID:14/1082]	[IP:10.128.12.120]	[Browser:Chrome - 74.0.3729.169]	[Action:Closing mssql connection]	[Remarks:Success]
[Date: 2019-06-19 15:19:54]	[UserID:06/343]	[IP:10.128.12.113]	[Browser:Chrome - 74.0.3729.169]	[Action:Making connection to server]	[Remarks:Successful connection to server: S3]
[Date: 2019-06-19 15:19:54]	[UserID:06/343]	[IP:10.128.12.113]	[Browser:Chrome - 74.0.3729.169]	[Action:GetGSTModules 06/343,1]	[Remarks:Successful filter row count: 6]
[Date: 2019-06-19 15:19:54]	[UserID:06/343]	[IP:10.128.12.113]	[Browser:Chrome - 74.0.3729.169]	[Action:Closing mssql connection]	[Remarks:Success]
[Date: 2019-06-19 15:23:13]	[UserID:06/343]	[IP:10.128.12.113]	[Browser:Chrome - 74.0.3729.169]	[Action:Making connection to server]	[Remarks:Successful connection to server: S3]
[Date: 2019-06-19 15:23:13]	[UserID:06/343]	[IP:10.128.12.113]	[Browser:Chrome - 74.0.3729.169]	[Action:GetGSTModules 06/343,1]	[Remarks:Successful filter row count: 6]
[Date: 2019-06-19 15:23:13]	[UserID:06/343]	[IP:10.128.12.113]	[Browser:Chrome - 74.0.3729.169]	[Action:Closing mssql connection]	[Remarks:Success]
[Date: 2019-06-19 15:31:28]	[UserID:06/343]	[IP:10.128.12.113]	[Browser:Chrome - 74.0.3729.169]	[Action:Making connection to server]	[Remarks:Successful connection to server: S3]
[Date: 2019-06-19 15:31:28]	[UserID:06/343]	[IP:10.128.12.113]	[Browser:Chrome - 74.0.3729.169]	[Action:GetGSTModules 06/343,1]	[Remarks:Successful filter row count: 6]
[Date: 2019-06-19 15:31:28]	[UserID:06/343]	[IP:10.128.12.113]	[Browser:Chrome - 74.0.3729.169]	[Action:Closing mssql connection]	[Remarks:Success]
[Date: 2019-06-19 15:39:20]	[UserID:06/343]	[IP:10.128.12.113]	[Browser:Chrome - 74.0.3729.169]	[Action:Making connection to server]	[Remarks:Successful connection to server: S3]
[Date: 2019-06-19 15:39:20]	[UserID:06/343]	[IP:10.128.12.113]	[Browser:Chrome - 74.0.3729.169]	[Action:GetGSTModules 06/343,1]	[Remarks:Successful filter row count: 6]
[Date: 2019-06-19 15:39:20]	[UserID:06/343]	[IP:10.128.12.113]	[Browser:Chrome - 74.0.3729.169]	[Action:Closing mssql connection]	[Remarks:Success]
[Date: 2019-06-19 15:39:46]	[UserID:06/343]	[IP:10.128.12.113]	[Browser:Chrome - 74.0.3729.169]	[Action:Making connection to server]	[Remarks:Successful connection to server: S3]
[Date: 2019-06-19 15:39:46]	[UserID:06/343]	[IP:10.128.12.113]	[Browser:Chrome - 74.0.3729.169]	[Action:GetGSTModules 06/343,1]	[Remarks:Successful filter row count: 6]
[Date: 2019-06-19 15:39:46]	[UserID:06/343]	[IP:10.128.12.113]	[Browser:Chrome - 74.0.3729.169]	[Action:Closing mssql connection]	[Remarks:Success]
[Date: 2019-06-19 15:40:43]	[UserID:]	[IP:10.128.12.113]	[Browser:Chrome - 74.0.3729.169]	[Action:Making connection to server]	[Remarks:Successful connection to server: S3]
[Date: 2019-06-19 15:40:43]	[UserID:]	[IP:10.128.12.113]	[Browser:Chrome - 74.0.3729.169]	[Action:GetProgramList ]	[Remarks:"no data"]
[Date: 2019-06-19 15:40:55]	[UserID:06/343]	[IP:10.128.12.113]	[Browser:Chrome - 74.0.3729.169]	[Action:Making connection to server]	[Remarks:Successful connection to server: S3]
[Date: 2019-06-19 15:40:55]	[UserID:06/343]	[IP:10.128.12.113]	[Browser:Chrome - 74.0.3729.169]	[Action:User 06/343]	[Remarks:Success]
[Date: 2019-06-19 15:40:55]	[UserID:06/343]	[IP:10.128.12.113]	[Browser:Chrome - 74.0.3729.169]	[Action:Filtering User : MasterData Username : 06/343]	[Remarks:Successful filter row count: 0]
[Date: 2019-06-19 15:40:55]	[UserID:06/343]	[IP:10.128.12.113]	[Browser:Chrome - 74.0.3729.169]	[Action:Filtering User : MasterData Username : 06/343]	[Remarks:Successful filter row count: 0]
[Date: 2019-06-19 15:40:55]	[UserID:06/343]	[IP:10.128.12.113]	[Browser:Chrome - 74.0.3729.169]	[Action:Filtering User : MasterData Username : 06/343]	[Remarks:Success]
[Date: 2019-06-19 15:40:55]	[UserID:06/343]	[IP:10.128.12.113]	[Browser:Chrome - 74.0.3729.169]	[Action:Closing mssql connection]	[Remarks:Success]
[Date: 2019-06-19 15:40:55]	[UserID:06/343]	[IP:10.128.12.113]	[Browser:Chrome - 74.0.3729.169]	[Action:Making connection to server]	[Remarks:Successful connection to server: S3]
[Date: 2019-06-19 15:40:55]	[UserID:06/343]	[IP:10.128.12.113]	[Browser:Chrome - 74.0.3729.169]	[Action:GetProgramList 06/343]	[Remarks:[{"ID":"1","ProgramIndex":"GST","ProgramName":"GST"}]]
[Date: 2019-06-19 15:40:55]	[UserID:06/343]	[IP:10.128.12.113]	[Browser:Chrome - 74.0.3729.169]	[Action:Making connection to server]	[Remarks:Successful connection to server: S3]
[Date: 2019-06-19 15:40:55]	[UserID:06/343]	[IP:10.128.12.113]	[Browser:Chrome - 74.0.3729.169]	[Action:GetProgramList 06/343]	[Remarks:[{"ID":"1","ProgramIndex":"GST","ProgramName":"GST"}]]
[Date: 2019-06-19 15:40:55]	[UserID:06/343]	[IP:10.128.12.113]	[Browser:Chrome - 74.0.3729.169]	[Action:Making connection to server]	[Remarks:Successful connection to server: S3]
[Date: 2019-06-19 15:40:55]	[UserID:06/343]	[IP:10.128.12.113]	[Browser:Chrome - 74.0.3729.169]	[Action:Filtering User : MasterData Username : 06/343]	[Remarks:Successful filter row count: 1]
[Date: 2019-06-19 15:40:55]	[UserID:06/343]	[IP:10.128.12.113]	[Browser:Chrome - 74.0.3729.169]	[Action:Making connection to server]	[Remarks:Successful connection to server: S3]
[Date: 2019-06-19 15:40:56]	[UserID:06/343]	[IP:10.128.12.113]	[Browser:Chrome - 74.0.3729.169]	[Action:GetGSTModules 06/343,1]	[Remarks:Successful filter row count: 6]
[Date: 2019-06-19 15:40:56]	[UserID:06/343]	[IP:10.128.12.113]	[Browser:Chrome - 74.0.3729.169]	[Action:Closing mssql connection]	[Remarks:Success]
[Date: 2019-06-19 16:01:34]	[UserID:06/343]	[IP:10.128.12.113]	[Browser:Chrome - 74.0.3729.169]	[Action:Making connection to server]	[Remarks:Successful connection to server: S3]
[Date: 2019-06-19 16:01:34]	[UserID:06/343]	[IP:10.128.12.113]	[Browser:Chrome - 74.0.3729.169]	[Action:GetGSTModules 06/343,1]	[Remarks:Successful filter row count: 6]
[Date: 2019-06-19 16:01:34]	[UserID:06/343]	[IP:10.128.12.113]	[Browser:Chrome - 74.0.3729.169]	[Action:Closing mssql connection]	[Remarks:Success]
