[Date: 2018-07-31 08:43:16]	[UserID:]	[IP:10.128.12.113]	[Browser:Chrome - 68.0.3440.75]	[Action:Making connection to server]	[Remarks:Successful connection to server: S3]
[Date: 2018-07-31 08:43:16]	[UserID:]	[IP:10.128.12.113]	[Browser:Chrome - 68.0.3440.75]	[Action:GetProgramList ]	[Remarks:"no data"]
[Date: 2018-07-31 08:43:19]	[UserID:06/343]	[IP:10.128.12.113]	[Browser:Chrome - 68.0.3440.75]	[Action:Making connection to server]	[Remarks:Successful connection to server: S3]
[Date: 2018-07-31 08:43:19]	[UserID:06/343]	[IP:10.128.12.113]	[Browser:Chrome - 68.0.3440.75]	[Action:User 06/343]	[Remarks:Success]
[Date: 2018-07-31 08:43:19]	[UserID:06/343]	[IP:10.128.12.113]	[Browser:Chrome - 68.0.3440.75]	[Action:Filtering User : MasterData Username : 06/343]	[Remarks:Successful filter row count: 0]
[Date: 2018-07-31 08:43:19]	[UserID:06/343]	[IP:10.128.12.113]	[Browser:Chrome - 68.0.3440.75]	[Action:Filtering User : MasterData Username : 06/343]	[Remarks:Successful filter row count: 0]
[Date: 2018-07-31 08:43:19]	[UserID:06/343]	[IP:10.128.12.113]	[Browser:Chrome - 68.0.3440.75]	[Action:Filtering User : MasterData Username : 06/343]	[Remarks:Success]
[Date: 2018-07-31 08:43:19]	[UserID:06/343]	[IP:10.128.12.113]	[Browser:Chrome - 68.0.3440.75]	[Action:Closing mssql connection]	[Remarks:Success]
[Date: 2018-07-31 08:43:19]	[UserID:06/343]	[IP:10.128.12.113]	[Browser:Chrome - 68.0.3440.75]	[Action:Making connection to server]	[Remarks:Successful connection to server: S3]
[Date: 2018-07-31 08:43:19]	[UserID:06/343]	[IP:10.128.12.113]	[Browser:Chrome - 68.0.3440.75]	[Action:GetProgramList 06/343]	[Remarks:[{"ID":"1","ProgramIndex":"GST","ProgramName":"GST"}]]
[Date: 2018-07-31 08:43:19]	[UserID:06/343]	[IP:10.128.12.113]	[Browser:Chrome - 68.0.3440.75]	[Action:Making connection to server]	[Remarks:Successful connection to server: S3]
[Date: 2018-07-31 08:43:19]	[UserID:06/343]	[IP:10.128.12.113]	[Browser:Chrome - 68.0.3440.75]	[Action:GetProgramList 06/343]	[Remarks:[{"ID":"1","ProgramIndex":"GST","ProgramName":"GST"}]]
[Date: 2018-07-31 08:43:19]	[UserID:06/343]	[IP:10.128.12.113]	[Browser:Chrome - 68.0.3440.75]	[Action:Making connection to server]	[Remarks:Successful connection to server: S3]
[Date: 2018-07-31 08:43:19]	[UserID:06/343]	[IP:10.128.12.113]	[Browser:Chrome - 68.0.3440.75]	[Action:Filtering User : MasterData Username : 06/343]	[Remarks:Successful filter row count: 1]
[Date: 2018-07-31 08:43:19]	[UserID:06/343]	[IP:10.128.12.113]	[Browser:Chrome - 68.0.3440.75]	[Action:Making connection to server]	[Remarks:Successful connection to server: S3]
[Date: 2018-07-31 08:43:19]	[UserID:06/343]	[IP:10.128.12.113]	[Browser:Chrome - 68.0.3440.75]	[Action:GetGSTModules 06/343,1]	[Remarks:Successful filter row count: 6]
[Date: 2018-07-31 08:43:19]	[UserID:06/343]	[IP:10.128.12.113]	[Browser:Chrome - 68.0.3440.75]	[Action:Closing mssql connection]	[Remarks:Success]
[Date: 2018-07-31 08:47:17]	[UserID:06/343]	[IP:10.128.12.113]	[Browser:Chrome - 68.0.3440.75]	[Action:Making connection to server]	[Remarks:Successful connection to server: S3]
[Date: 2018-07-31 08:47:17]	[UserID:06/343]	[IP:10.128.12.113]	[Browser:Chrome - 68.0.3440.75]	[Action:GetGSTModules 06/343,1]	[Remarks:Successful filter row count: 6]
[Date: 2018-07-31 08:47:17]	[UserID:06/343]	[IP:10.128.12.113]	[Browser:Chrome - 68.0.3440.75]	[Action:Closing mssql connection]	[Remarks:Success]
[Date: 2018-07-31 08:51:40]	[UserID:06/343]	[IP:10.128.12.113]	[Browser:Chrome - 68.0.3440.75]	[Action:Making connection to server]	[Remarks:Successful connection to server: S3]
[Date: 2018-07-31 08:51:40]	[UserID:06/343]	[IP:10.128.12.113]	[Browser:Chrome - 68.0.3440.75]	[Action:GetGSTModules 06/343,1]	[Remarks:Successful filter row count: 6]
[Date: 2018-07-31 08:51:40]	[UserID:06/343]	[IP:10.128.12.113]	[Browser:Chrome - 68.0.3440.75]	[Action:Closing mssql connection]	[Remarks:Success]
[Date: 2018-07-31 10:58:19]	[UserID:]	[IP:10.128.12.210]	[Browser:Chrome - 67.0.3396.99]	[Action:Making connection to server]	[Remarks:Successful connection to server: S3]
[Date: 2018-07-31 10:58:19]	[UserID:]	[IP:10.128.12.210]	[Browser:Chrome - 67.0.3396.99]	[Action:GetProgramList ]	[Remarks:"no data"]
[Date: 2018-07-31 10:58:31]	[UserID:10/660]	[IP:10.128.12.210]	[Browser:Chrome - 67.0.3396.99]	[Action:Making connection to server]	[Remarks:Successful connection to server: S3]
[Date: 2018-07-31 10:58:31]	[UserID:10/660]	[IP:10.128.12.210]	[Browser:Chrome - 67.0.3396.99]	[Action:User 10/660]	[Remarks:Success]
[Date: 2018-07-31 10:58:31]	[UserID:10/660]	[IP:10.128.12.210]	[Browser:Chrome - 67.0.3396.99]	[Action:Filtering User : MasterData Username : 10/660]	[Remarks:Successful filter row count: 0]
[Date: 2018-07-31 10:58:31]	[UserID:10/660]	[IP:10.128.12.210]	[Browser:Chrome - 67.0.3396.99]	[Action:Filtering User : MasterData Username : 10/660]	[Remarks:Successful filter row count: 0]
[Date: 2018-07-31 10:58:31]	[UserID:10/660]	[IP:10.128.12.210]	[Browser:Chrome - 67.0.3396.99]	[Action:Filtering User : MasterData Username : 10/660]	[Remarks:Success]
[Date: 2018-07-31 10:58:31]	[UserID:10/660]	[IP:10.128.12.210]	[Browser:Chrome - 67.0.3396.99]	[Action:Closing mssql connection]	[Remarks:Success]
[Date: 2018-07-31 10:58:31]	[UserID:10/660]	[IP:10.128.12.210]	[Browser:Chrome - 67.0.3396.99]	[Action:Making connection to server]	[Remarks:Successful connection to server: S3]
[Date: 2018-07-31 10:58:31]	[UserID:10/660]	[IP:10.128.12.210]	[Browser:Chrome - 67.0.3396.99]	[Action:GetProgramList 10/660]	[Remarks:[{"ID":"1","ProgramIndex":"GST","ProgramName":"GST"}]]
[Date: 2018-07-31 10:58:31]	[UserID:10/660]	[IP:10.128.12.210]	[Browser:Chrome - 67.0.3396.99]	[Action:Making connection to server]	[Remarks:Successful connection to server: S3]
[Date: 2018-07-31 10:58:31]	[UserID:10/660]	[IP:10.128.12.210]	[Browser:Chrome - 67.0.3396.99]	[Action:GetProgramList 10/660]	[Remarks:[{"ID":"1","ProgramIndex":"GST","ProgramName":"GST"}]]
[Date: 2018-07-31 10:58:31]	[UserID:10/660]	[IP:10.128.12.210]	[Browser:Chrome - 67.0.3396.99]	[Action:Making connection to server]	[Remarks:Successful connection to server: S3]
[Date: 2018-07-31 10:58:31]	[UserID:10/660]	[IP:10.128.12.210]	[Browser:Chrome - 67.0.3396.99]	[Action:Filtering User : MasterData Username : 10/660]	[Remarks:Successful filter row count: 1]
[Date: 2018-07-31 10:58:32]	[UserID:10/660]	[IP:10.128.12.210]	[Browser:Chrome - 67.0.3396.99]	[Action:Making connection to server]	[Remarks:Successful connection to server: S3]
[Date: 2018-07-31 10:58:32]	[UserID:10/660]	[IP:10.128.12.210]	[Browser:Chrome - 67.0.3396.99]	[Action:GetGSTModules 10/660,1]	[Remarks:Successful filter row count: 5]
[Date: 2018-07-31 10:58:32]	[UserID:10/660]	[IP:10.128.12.210]	[Browser:Chrome - 67.0.3396.99]	[Action:Closing mssql connection]	[Remarks:Success]
[Date: 2018-07-31 11:01:44]	[UserID:10/660]	[IP:10.128.12.210]	[Browser:Chrome - 67.0.3396.99]	[Action:Making connection to server]	[Remarks:Successful connection to server: S3]
[Date: 2018-07-31 11:01:44]	[UserID:10/660]	[IP:10.128.12.210]	[Browser:Chrome - 67.0.3396.99]	[Action:GetGSTModules 10/660,1]	[Remarks:Successful filter row count: 5]
[Date: 2018-07-31 11:01:44]	[UserID:10/660]	[IP:10.128.12.210]	[Browser:Chrome - 67.0.3396.99]	[Action:Closing mssql connection]	[Remarks:Success]
[Date: 2018-07-31 11:02:00]	[UserID:10/660]	[IP:10.128.12.210]	[Browser:Chrome - 67.0.3396.99]	[Action:Making connection to server]	[Remarks:Successful connection to server: S3]
[Date: 2018-07-31 11:02:00]	[UserID:10/660]	[IP:10.128.12.210]	[Browser:Chrome - 67.0.3396.99]	[Action:GetGSTModules 10/660,1]	[Remarks:Successful filter row count: 5]
[Date: 2018-07-31 11:02:00]	[UserID:10/660]	[IP:10.128.12.210]	[Browser:Chrome - 67.0.3396.99]	[Action:Closing mssql connection]	[Remarks:Success]
[Date: 2018-07-31 11:02:22]	[UserID:10/660]	[IP:10.128.12.210]	[Browser:Chrome - 67.0.3396.99]	[Action:Making connection to server]	[Remarks:Successful connection to server: S3]
[Date: 2018-07-31 11:02:22]	[UserID:10/660]	[IP:10.128.12.210]	[Browser:Chrome - 67.0.3396.99]	[Action:GetGSTModules 10/660,1]	[Remarks:Successful filter row count: 5]
[Date: 2018-07-31 11:02:22]	[UserID:10/660]	[IP:10.128.12.210]	[Browser:Chrome - 67.0.3396.99]	[Action:Closing mssql connection]	[Remarks:Success]
[Date: 2018-07-31 11:02:26]	[UserID:10/660]	[IP:10.128.12.210]	[Browser:Chrome - 67.0.3396.99]	[Action:Making connection to server]	[Remarks:Successful connection to server: S3]
[Date: 2018-07-31 11:02:26]	[UserID:10/660]	[IP:10.128.12.210]	[Browser:Chrome - 67.0.3396.99]	[Action:GetGSTModules 10/660,1]	[Remarks:Successful filter row count: 5]
[Date: 2018-07-31 11:02:26]	[UserID:10/660]	[IP:10.128.12.210]	[Browser:Chrome - 67.0.3396.99]	[Action:Closing mssql connection]	[Remarks:Success]
[Date: 2018-07-31 11:04:32]	[UserID:06/343]	[IP:10.128.12.113]	[Browser:Chrome - 68.0.3440.75]	[Action:Making connection to server]	[Remarks:Successful connection to server: S3]
[Date: 2018-07-31 11:04:32]	[UserID:06/343]	[IP:10.128.12.113]	[Browser:Chrome - 68.0.3440.75]	[Action:GetGSTModules 06/343,1]	[Remarks:Successful filter row count: 6]
[Date: 2018-07-31 11:04:32]	[UserID:06/343]	[IP:10.128.12.113]	[Browser:Chrome - 68.0.3440.75]	[Action:Closing mssql connection]	[Remarks:Success]
[Date: 2018-07-31 11:05:38]	[UserID:06/343]	[IP:10.128.12.113]	[Browser:Chrome - 68.0.3440.75]	[Action:Making connection to server]	[Remarks:Successful connection to server: S3]
[Date: 2018-07-31 11:05:38]	[UserID:06/343]	[IP:10.128.12.113]	[Browser:Chrome - 68.0.3440.75]	[Action:GetProgramList 06/343]	[Remarks:[{"ID":"1","ProgramIndex":"GST","ProgramName":"GST"}]]
[Date: 2018-07-31 11:05:38]	[UserID:06/343]	[IP:10.128.12.113]	[Browser:Chrome - 68.0.3440.75]	[Action:Making connection to server]	[Remarks:Successful connection to server: S3]
[Date: 2018-07-31 11:05:38]	[UserID:06/343]	[IP:10.128.12.113]	[Browser:Chrome - 68.0.3440.75]	[Action:GetProgramList 06/343]	[Remarks:[{"ID":"1","ProgramIndex":"GST","ProgramName":"GST"}]]
[Date: 2018-07-31 11:05:38]	[UserID:06/343]	[IP:10.128.12.113]	[Browser:Chrome - 68.0.3440.75]	[Action:Making connection to server]	[Remarks:Successful connection to server: S3]
[Date: 2018-07-31 11:05:38]	[UserID:06/343]	[IP:10.128.12.113]	[Browser:Chrome - 68.0.3440.75]	[Action:Filtering User : MasterData Username : 06/343]	[Remarks:Successful filter row count: 1]
[Date: 2018-07-31 11:05:38]	[UserID:06/343]	[IP:10.128.12.113]	[Browser:Chrome - 68.0.3440.75]	[Action:Making connection to server]	[Remarks:Successful connection to server: S3]
[Date: 2018-07-31 11:05:38]	[UserID:06/343]	[IP:10.128.12.113]	[Browser:Chrome - 68.0.3440.75]	[Action:GetProgramList 06/343]	[Remarks:[{"ID":"1","ProgramIndex":"GST","ProgramName":"GST"}]]
[Date: 2018-07-31 11:05:38]	[UserID:06/343]	[IP:10.128.12.113]	[Browser:Chrome - 68.0.3440.75]	[Action:Making connection to server]	[Remarks:Successful connection to server: S3]
[Date: 2018-07-31 11:05:38]	[UserID:06/343]	[IP:10.128.12.113]	[Browser:Chrome - 68.0.3440.75]	[Action:GetProgramList 06/343]	[Remarks:[{"ID":"1","ProgramIndex":"GST","ProgramName":"GST"}]]
[Date: 2018-07-31 11:05:38]	[UserID:06/343]	[IP:10.128.12.113]	[Browser:Chrome - 68.0.3440.75]	[Action:Making connection to server]	[Remarks:Successful connection to server: S3]
[Date: 2018-07-31 11:05:38]	[UserID:06/343]	[IP:10.128.12.113]	[Browser:Chrome - 68.0.3440.75]	[Action:Filtering User : MasterData Username : 06/343]	[Remarks:Successful filter row count: 1]
[Date: 2018-07-31 11:05:38]	[UserID:06/343]	[IP:10.128.12.113]	[Browser:Chrome - 68.0.3440.75]	[Action:Making connection to server]	[Remarks:Successful connection to server: S3]
[Date: 2018-07-31 11:05:38]	[UserID:06/343]	[IP:10.128.12.113]	[Browser:Chrome - 68.0.3440.75]	[Action:GetGSTModules 06/343,1]	[Remarks:Successful filter row count: 6]
[Date: 2018-07-31 11:05:38]	[UserID:06/343]	[IP:10.128.12.113]	[Browser:Chrome - 68.0.3440.75]	[Action:Closing mssql connection]	[Remarks:Success]
[Date: 2018-07-31 11:12:36]	[UserID:]	[IP:10.128.12.210]	[Browser:Chrome - 67.0.3396.99]	[Action:Making connection to server]	[Remarks:Successful connection to server: S3]
[Date: 2018-07-31 11:12:36]	[UserID:]	[IP:10.128.12.210]	[Browser:Chrome - 67.0.3396.99]	[Action:GetProgramList ]	[Remarks:"no data"]
[Date: 2018-07-31 11:12:44]	[UserID:10/660]	[IP:10.128.12.210]	[Browser:Chrome - 67.0.3396.99]	[Action:Making connection to server]	[Remarks:Successful connection to server: S3]
[Date: 2018-07-31 11:12:44]	[UserID:10/660]	[IP:10.128.12.210]	[Browser:Chrome - 67.0.3396.99]	[Action:User 10/660]	[Remarks:Success]
[Date: 2018-07-31 11:12:44]	[UserID:10/660]	[IP:10.128.12.210]	[Browser:Chrome - 67.0.3396.99]	[Action:Filtering User : MasterData Username : 10/660]	[Remarks:Successful filter row count: 0]
[Date: 2018-07-31 11:12:44]	[UserID:10/660]	[IP:10.128.12.210]	[Browser:Chrome - 67.0.3396.99]	[Action:Filtering User : MasterData Username : 10/660]	[Remarks:Successful filter row count: 0]
[Date: 2018-07-31 11:12:44]	[UserID:10/660]	[IP:10.128.12.210]	[Browser:Chrome - 67.0.3396.99]	[Action:Filtering User : MasterData Username : 10/660]	[Remarks:Success]
[Date: 2018-07-31 11:12:44]	[UserID:10/660]	[IP:10.128.12.210]	[Browser:Chrome - 67.0.3396.99]	[Action:Closing mssql connection]	[Remarks:Success]
[Date: 2018-07-31 11:12:44]	[UserID:10/660]	[IP:10.128.12.210]	[Browser:Chrome - 67.0.3396.99]	[Action:Making connection to server]	[Remarks:Successful connection to server: S3]
[Date: 2018-07-31 11:12:44]	[UserID:10/660]	[IP:10.128.12.210]	[Browser:Chrome - 67.0.3396.99]	[Action:GetProgramList 10/660]	[Remarks:[{"ID":"1","ProgramIndex":"GST","ProgramName":"GST"}]]
[Date: 2018-07-31 11:12:44]	[UserID:10/660]	[IP:10.128.12.210]	[Browser:Chrome - 67.0.3396.99]	[Action:Making connection to server]	[Remarks:Successful connection to server: S3]
[Date: 2018-07-31 11:12:44]	[UserID:10/660]	[IP:10.128.12.210]	[Browser:Chrome - 67.0.3396.99]	[Action:GetProgramList 10/660]	[Remarks:[{"ID":"1","ProgramIndex":"GST","ProgramName":"GST"}]]
[Date: 2018-07-31 11:12:44]	[UserID:10/660]	[IP:10.128.12.210]	[Browser:Chrome - 67.0.3396.99]	[Action:Making connection to server]	[Remarks:Successful connection to server: S3]
[Date: 2018-07-31 11:12:44]	[UserID:10/660]	[IP:10.128.12.210]	[Browser:Chrome - 67.0.3396.99]	[Action:Filtering User : MasterData Username : 10/660]	[Remarks:Successful filter row count: 1]
[Date: 2018-07-31 11:12:44]	[UserID:10/660]	[IP:10.128.12.210]	[Browser:Chrome - 67.0.3396.99]	[Action:Making connection to server]	[Remarks:Successful connection to server: S3]
[Date: 2018-07-31 11:12:44]	[UserID:10/660]	[IP:10.128.12.210]	[Browser:Chrome - 67.0.3396.99]	[Action:GetGSTModules 10/660,1]	[Remarks:Successful filter row count: 5]
[Date: 2018-07-31 11:12:44]	[UserID:10/660]	[IP:10.128.12.210]	[Browser:Chrome - 67.0.3396.99]	[Action:Closing mssql connection]	[Remarks:Success]
[Date: 2018-07-31 11:19:25]	[UserID:10/660]	[IP:10.128.12.210]	[Browser:Chrome - 67.0.3396.99]	[Action:Making connection to server]	[Remarks:Successful connection to server: S3]
[Date: 2018-07-31 11:19:25]	[UserID:10/660]	[IP:10.128.12.210]	[Browser:Chrome - 67.0.3396.99]	[Action:GetGSTModules 10/660,1]	[Remarks:Successful filter row count: 5]
[Date: 2018-07-31 11:19:25]	[UserID:10/660]	[IP:10.128.12.210]	[Browser:Chrome - 67.0.3396.99]	[Action:Closing mssql connection]	[Remarks:Success]
[Date: 2018-07-31 11:19:43]	[UserID:]	[IP:10.128.12.210]	[Browser:Chrome - 67.0.3396.99]	[Action:Making connection to server]	[Remarks:Successful connection to server: S3]
[Date: 2018-07-31 11:19:43]	[UserID:]	[IP:10.128.12.210]	[Browser:Chrome - 67.0.3396.99]	[Action:GetProgramList ]	[Remarks:"no data"]
[Date: 2018-07-31 12:19:41]	[UserID:]	[IP:10.128.80.157]	[Browser:Chrome - 67.0.3396.99]	[Action:Making connection to server]	[Remarks:Successful connection to server: S3]
[Date: 2018-07-31 12:19:41]	[UserID:]	[IP:10.128.80.157]	[Browser:Chrome - 67.0.3396.99]	[Action:GetProgramList ]	[Remarks:"no data"]
[Date: 2018-07-31 12:19:48]	[UserID:dev/lcolocado]	[IP:10.128.80.157]	[Browser:Chrome - 67.0.3396.99]	[Action:Making connection to server]	[Remarks:Successful connection to server: S3]
[Date: 2018-07-31 12:19:48]	[UserID:dev/lcolocado]	[IP:10.128.80.157]	[Browser:Chrome - 67.0.3396.99]	[Action:User dev/lcolocado]	[Remarks:Success]
[Date: 2018-07-31 12:19:48]	[UserID:dev/lcolocado]	[IP:10.128.80.157]	[Browser:Chrome - 67.0.3396.99]	[Action:Filtering User : MasterData Username : dev/lcolocado]	[Remarks:Successful filter row count: 0]
[Date: 2018-07-31 12:19:48]	[UserID:dev/lcolocado]	[IP:10.128.80.157]	[Browser:Chrome - 67.0.3396.99]	[Action:Filtering User : MasterData Username : dev/lcolocado]	[Remarks:Successful filter row count: 0]
[Date: 2018-07-31 12:19:48]	[UserID:dev/lcolocado]	[IP:10.128.80.157]	[Browser:Chrome - 67.0.3396.99]	[Action:Filtering User : MasterData Username : dev/lcolocado]	[Remarks:Success]
[Date: 2018-07-31 12:19:48]	[UserID:dev/lcolocado]	[IP:10.128.80.157]	[Browser:Chrome - 67.0.3396.99]	[Action:Closing mssql connection]	[Remarks:Success]
[Date: 2018-07-31 12:19:48]	[UserID:dev/lcolocado]	[IP:10.128.80.157]	[Browser:Chrome - 67.0.3396.99]	[Action:Making connection to server]	[Remarks:Successful connection to server: S3]
[Date: 2018-07-31 12:19:48]	[UserID:dev/lcolocado]	[IP:10.128.80.157]	[Browser:Chrome - 67.0.3396.99]	[Action:GetProgramList dev/lcolocado]	[Remarks:[{"ID":"1","ProgramIndex":"GST","ProgramName":"GST"},{"ID":"3","ProgramIndex":"PRD","ProgramName":"PRD"}]]
[Date: 2018-07-31 12:19:48]	[UserID:dev/lcolocado]	[IP:10.128.80.157]	[Browser:Chrome - 67.0.3396.99]	[Action:Making connection to server]	[Remarks:Successful connection to server: S3]
[Date: 2018-07-31 12:19:48]	[UserID:dev/lcolocado]	[IP:10.128.80.157]	[Browser:Chrome - 67.0.3396.99]	[Action:GetProgramList dev/lcolocado]	[Remarks:[{"ID":"1","ProgramIndex":"GST","ProgramName":"GST"},{"ID":"3","ProgramIndex":"PRD","ProgramName":"PRD"}]]
[Date: 2018-07-31 12:19:48]	[UserID:dev/lcolocado]	[IP:10.128.80.157]	[Browser:Chrome - 67.0.3396.99]	[Action:Making connection to server]	[Remarks:Successful connection to server: S3]
[Date: 2018-07-31 12:19:48]	[UserID:dev/lcolocado]	[IP:10.128.80.157]	[Browser:Chrome - 67.0.3396.99]	[Action:Filtering User : MasterData Username : dev/lcolocado]	[Remarks:Successful filter row count: 1]
[Date: 2018-07-31 12:19:51]	[UserID:dev/lcolocado]	[IP:10.128.80.157]	[Browser:Chrome - 67.0.3396.99]	[Action:Making connection to server]	[Remarks:Successful connection to server: S3]
[Date: 2018-07-31 12:19:51]	[UserID:dev/lcolocado]	[IP:10.128.80.157]	[Browser:Chrome - 67.0.3396.99]	[Action:GetGSTModules dev/lcolocado,1]	[Remarks:Successful filter row count: 8]
[Date: 2018-07-31 12:19:51]	[UserID:dev/lcolocado]	[IP:10.128.80.157]	[Browser:Chrome - 67.0.3396.99]	[Action:Closing mssql connection]	[Remarks:Success]
[Date: 2018-07-31 12:19:57]	[UserID:dev/lcolocado]	[IP:10.128.80.157]	[Browser:Chrome - 67.0.3396.99]	[Action:Making connection to server]	[Remarks:Successful connection to server: S3]
[Date: 2018-07-31 12:19:57]	[UserID:dev/lcolocado]	[IP:10.128.80.157]	[Browser:Chrome - 67.0.3396.99]	[Action:GetGSTModules dev/lcolocado,1]	[Remarks:Successful filter row count: 8]
[Date: 2018-07-31 12:19:57]	[UserID:dev/lcolocado]	[IP:10.128.80.157]	[Browser:Chrome - 67.0.3396.99]	[Action:Closing mssql connection]	[Remarks:Success]
[Date: 2018-07-31 13:46:13]	[UserID:06/343]	[IP:10.128.12.113]	[Browser:Chrome - 68.0.3440.75]	[Action:Making connection to server]	[Remarks:Successful connection to server: S3]
[Date: 2018-07-31 13:46:13]	[UserID:06/343]	[IP:10.128.12.113]	[Browser:Chrome - 68.0.3440.75]	[Action:GetProgramList 06/343]	[Remarks:[{"ID":"1","ProgramIndex":"GST","ProgramName":"GST"}]]
[Date: 2018-07-31 13:46:13]	[UserID:06/343]	[IP:10.128.12.113]	[Browser:Chrome - 68.0.3440.75]	[Action:Making connection to server]	[Remarks:Successful connection to server: S3]
[Date: 2018-07-31 13:46:13]	[UserID:06/343]	[IP:10.128.12.113]	[Browser:Chrome - 68.0.3440.75]	[Action:GetProgramList 06/343]	[Remarks:[{"ID":"1","ProgramIndex":"GST","ProgramName":"GST"}]]
[Date: 2018-07-31 13:46:13]	[UserID:06/343]	[IP:10.128.12.113]	[Browser:Chrome - 68.0.3440.75]	[Action:Making connection to server]	[Remarks:Successful connection to server: S3]
[Date: 2018-07-31 13:46:13]	[UserID:06/343]	[IP:10.128.12.113]	[Browser:Chrome - 68.0.3440.75]	[Action:Filtering User : MasterData Username : 06/343]	[Remarks:Successful filter row count: 1]
[Date: 2018-07-31 13:46:14]	[UserID:06/343]	[IP:10.128.12.113]	[Browser:Chrome - 68.0.3440.75]	[Action:Making connection to server]	[Remarks:Successful connection to server: S3]
[Date: 2018-07-31 13:46:14]	[UserID:06/343]	[IP:10.128.12.113]	[Browser:Chrome - 68.0.3440.75]	[Action:GetGSTModules 06/343,1]	[Remarks:Successful filter row count: 6]
[Date: 2018-07-31 13:46:14]	[UserID:06/343]	[IP:10.128.12.113]	[Browser:Chrome - 68.0.3440.75]	[Action:Closing mssql connection]	[Remarks:Success]
[Date: 2018-07-31 13:46:17]	[UserID:06/343]	[IP:10.128.12.113]	[Browser:Chrome - 68.0.3440.75]	[Action:Making connection to server]	[Remarks:Successful connection to server: S3]
[Date: 2018-07-31 13:46:17]	[UserID:06/343]	[IP:10.128.12.113]	[Browser:Chrome - 68.0.3440.75]	[Action:GetGSTModules 06/343,1]	[Remarks:Successful filter row count: 6]
[Date: 2018-07-31 13:46:17]	[UserID:06/343]	[IP:10.128.12.113]	[Browser:Chrome - 68.0.3440.75]	[Action:Closing mssql connection]	[Remarks:Success]
[Date: 2018-07-31 13:47:24]	[UserID:06/343]	[IP:10.128.12.113]	[Browser:Chrome - 68.0.3440.75]	[Action:Making connection to server]	[Remarks:Successful connection to server: S3]
[Date: 2018-07-31 13:47:25]	[UserID:06/343]	[IP:10.128.12.113]	[Browser:Chrome - 68.0.3440.75]	[Action:GetGSTModules 06/343,1]	[Remarks:Successful filter row count: 6]
[Date: 2018-07-31 13:47:25]	[UserID:06/343]	[IP:10.128.12.113]	[Browser:Chrome - 68.0.3440.75]	[Action:Closing mssql connection]	[Remarks:Success]
[Date: 2018-07-31 13:48:38]	[UserID:06/343]	[IP:10.128.12.113]	[Browser:Chrome - 68.0.3440.75]	[Action:Making connection to server]	[Remarks:Successful connection to server: S3]
[Date: 2018-07-31 13:48:38]	[UserID:06/343]	[IP:10.128.12.113]	[Browser:Chrome - 68.0.3440.75]	[Action:GetGSTModules 06/343,1]	[Remarks:Successful filter row count: 6]
[Date: 2018-07-31 13:48:38]	[UserID:06/343]	[IP:10.128.12.113]	[Browser:Chrome - 68.0.3440.75]	[Action:Closing mssql connection]	[Remarks:Success]
[Date: 2018-07-31 13:53:14]	[UserID:06/343]	[IP:10.128.12.113]	[Browser:Chrome - 68.0.3440.75]	[Action:Making connection to server]	[Remarks:Successful connection to server: S3]
[Date: 2018-07-31 13:53:14]	[UserID:06/343]	[IP:10.128.12.113]	[Browser:Chrome - 68.0.3440.75]	[Action:GetGSTModules 06/343,1]	[Remarks:Successful filter row count: 6]
[Date: 2018-07-31 13:53:14]	[UserID:06/343]	[IP:10.128.12.113]	[Browser:Chrome - 68.0.3440.75]	[Action:Closing mssql connection]	[Remarks:Success]
[Date: 2018-07-31 14:01:24]	[UserID:]	[IP:10.128.12.210]	[Browser:Chrome - 67.0.3396.99]	[Action:Making connection to server]	[Remarks:Successful connection to server: S3]
[Date: 2018-07-31 14:01:24]	[UserID:]	[IP:10.128.12.210]	[Browser:Chrome - 67.0.3396.99]	[Action:GetProgramList ]	[Remarks:"no data"]
[Date: 2018-07-31 14:01:31]	[UserID:10/660]	[IP:10.128.12.210]	[Browser:Chrome - 67.0.3396.99]	[Action:Making connection to server]	[Remarks:Successful connection to server: S3]
[Date: 2018-07-31 14:01:31]	[UserID:10/660]	[IP:10.128.12.210]	[Browser:Chrome - 67.0.3396.99]	[Action:User 10/660]	[Remarks:Success]
[Date: 2018-07-31 14:01:31]	[UserID:10/660]	[IP:10.128.12.210]	[Browser:Chrome - 67.0.3396.99]	[Action:Filtering User : MasterData Username : 10/660]	[Remarks:Successful filter row count: 0]
[Date: 2018-07-31 14:01:31]	[UserID:10/660]	[IP:10.128.12.210]	[Browser:Chrome - 67.0.3396.99]	[Action:Filtering User : MasterData Username : 10/660]	[Remarks:Successful filter row count: 0]
[Date: 2018-07-31 14:01:31]	[UserID:10/660]	[IP:10.128.12.210]	[Browser:Chrome - 67.0.3396.99]	[Action:Filtering User : MasterData Username : 10/660]	[Remarks:Success]
[Date: 2018-07-31 14:01:31]	[UserID:10/660]	[IP:10.128.12.210]	[Browser:Chrome - 67.0.3396.99]	[Action:Closing mssql connection]	[Remarks:Success]
[Date: 2018-07-31 14:01:31]	[UserID:10/660]	[IP:10.128.12.210]	[Browser:Chrome - 67.0.3396.99]	[Action:Making connection to server]	[Remarks:Successful connection to server: S3]
[Date: 2018-07-31 14:01:31]	[UserID:10/660]	[IP:10.128.12.210]	[Browser:Chrome - 67.0.3396.99]	[Action:GetProgramList 10/660]	[Remarks:[{"ID":"1","ProgramIndex":"GST","ProgramName":"GST"}]]
[Date: 2018-07-31 14:01:31]	[UserID:10/660]	[IP:10.128.12.210]	[Browser:Chrome - 67.0.3396.99]	[Action:Making connection to server]	[Remarks:Successful connection to server: S3]
[Date: 2018-07-31 14:01:31]	[UserID:10/660]	[IP:10.128.12.210]	[Browser:Chrome - 67.0.3396.99]	[Action:GetProgramList 10/660]	[Remarks:[{"ID":"1","ProgramIndex":"GST","ProgramName":"GST"}]]
[Date: 2018-07-31 14:01:31]	[UserID:10/660]	[IP:10.128.12.210]	[Browser:Chrome - 67.0.3396.99]	[Action:Making connection to server]	[Remarks:Successful connection to server: S3]
[Date: 2018-07-31 14:01:31]	[UserID:10/660]	[IP:10.128.12.210]	[Browser:Chrome - 67.0.3396.99]	[Action:Filtering User : MasterData Username : 10/660]	[Remarks:Successful filter row count: 1]
[Date: 2018-07-31 14:01:31]	[UserID:10/660]	[IP:10.128.12.210]	[Browser:Chrome - 67.0.3396.99]	[Action:Making connection to server]	[Remarks:Successful connection to server: S3]
[Date: 2018-07-31 14:01:31]	[UserID:10/660]	[IP:10.128.12.210]	[Browser:Chrome - 67.0.3396.99]	[Action:GetGSTModules 10/660,1]	[Remarks:Successful filter row count: 5]
[Date: 2018-07-31 14:01:31]	[UserID:10/660]	[IP:10.128.12.210]	[Browser:Chrome - 67.0.3396.99]	[Action:Closing mssql connection]	[Remarks:Success]
[Date: 2018-07-31 14:04:44]	[UserID:]	[IP:10.128.12.210]	[Browser:Chrome - 67.0.3396.99]	[Action:Making connection to server]	[Remarks:Successful connection to server: S3]
[Date: 2018-07-31 14:04:44]	[UserID:]	[IP:10.128.12.210]	[Browser:Chrome - 67.0.3396.99]	[Action:GetProgramList ]	[Remarks:"no data"]
[Date: 2018-07-31 17:55:36]	[UserID:]	[IP:10.128.12.210]	[Browser:Chrome - 67.0.3396.99]	[Action:Making connection to server]	[Remarks:Successful connection to server: S3]
[Date: 2018-07-31 17:55:36]	[UserID:]	[IP:10.128.12.210]	[Browser:Chrome - 67.0.3396.99]	[Action:GetProgramList ]	[Remarks:"no data"]
[Date: 2018-07-31 17:55:42]	[UserID:10/660]	[IP:10.128.12.210]	[Browser:Chrome - 67.0.3396.99]	[Action:Making connection to server]	[Remarks:Successful connection to server: S3]
[Date: 2018-07-31 17:55:42]	[UserID:10/660]	[IP:10.128.12.210]	[Browser:Chrome - 67.0.3396.99]	[Action:User 10/660]	[Remarks:Success]
[Date: 2018-07-31 17:55:42]	[UserID:10/660]	[IP:10.128.12.210]	[Browser:Chrome - 67.0.3396.99]	[Action:Filtering User : MasterData Username : 10/660]	[Remarks:Successful filter row count: 0]
[Date: 2018-07-31 17:55:42]	[UserID:10/660]	[IP:10.128.12.210]	[Browser:Chrome - 67.0.3396.99]	[Action:Filtering User : MasterData Username : 10/660]	[Remarks:Successful filter row count: 0]
[Date: 2018-07-31 17:55:42]	[UserID:10/660]	[IP:10.128.12.210]	[Browser:Chrome - 67.0.3396.99]	[Action:Filtering User : MasterData Username : 10/660]	[Remarks:Success]
[Date: 2018-07-31 17:55:42]	[UserID:10/660]	[IP:10.128.12.210]	[Browser:Chrome - 67.0.3396.99]	[Action:Closing mssql connection]	[Remarks:Success]
[Date: 2018-07-31 17:55:42]	[UserID:10/660]	[IP:10.128.12.210]	[Browser:Chrome - 67.0.3396.99]	[Action:Making connection to server]	[Remarks:Successful connection to server: S3]
[Date: 2018-07-31 17:55:42]	[UserID:10/660]	[IP:10.128.12.210]	[Browser:Chrome - 67.0.3396.99]	[Action:GetProgramList 10/660]	[Remarks:[{"ID":"1","ProgramIndex":"GST","ProgramName":"GST"}]]
[Date: 2018-07-31 17:55:42]	[UserID:10/660]	[IP:10.128.12.210]	[Browser:Chrome - 67.0.3396.99]	[Action:Making connection to server]	[Remarks:Successful connection to server: S3]
[Date: 2018-07-31 17:55:42]	[UserID:10/660]	[IP:10.128.12.210]	[Browser:Chrome - 67.0.3396.99]	[Action:GetProgramList 10/660]	[Remarks:[{"ID":"1","ProgramIndex":"GST","ProgramName":"GST"}]]
[Date: 2018-07-31 17:55:42]	[UserID:10/660]	[IP:10.128.12.210]	[Browser:Chrome - 67.0.3396.99]	[Action:Making connection to server]	[Remarks:Successful connection to server: S3]
[Date: 2018-07-31 17:55:42]	[UserID:10/660]	[IP:10.128.12.210]	[Browser:Chrome - 67.0.3396.99]	[Action:Filtering User : MasterData Username : 10/660]	[Remarks:Successful filter row count: 1]
[Date: 2018-07-31 17:55:42]	[UserID:10/660]	[IP:10.128.12.210]	[Browser:Chrome - 67.0.3396.99]	[Action:Making connection to server]	[Remarks:Successful connection to server: S3]
[Date: 2018-07-31 17:55:42]	[UserID:10/660]	[IP:10.128.12.210]	[Browser:Chrome - 67.0.3396.99]	[Action:GetGSTModules 10/660,1]	[Remarks:Successful filter row count: 5]
[Date: 2018-07-31 17:55:42]	[UserID:10/660]	[IP:10.128.12.210]	[Browser:Chrome - 67.0.3396.99]	[Action:Closing mssql connection]	[Remarks:Success]
[Date: 2018-07-31 17:59:10]	[UserID:10/660]	[IP:10.128.12.210]	[Browser:Chrome - 67.0.3396.99]	[Action:Making connection to server]	[Remarks:Successful connection to server: S3]
[Date: 2018-07-31 17:59:10]	[UserID:10/660]	[IP:10.128.12.210]	[Browser:Chrome - 67.0.3396.99]	[Action:GetGSTModules 10/660,1]	[Remarks:Successful filter row count: 5]
[Date: 2018-07-31 17:59:10]	[UserID:10/660]	[IP:10.128.12.210]	[Browser:Chrome - 67.0.3396.99]	[Action:Closing mssql connection]	[Remarks:Success]
[Date: 2018-07-31 18:23:06]	[UserID:10/660]	[IP:10.128.12.210]	[Browser:Chrome - 67.0.3396.99]	[Action:Making connection to server]	[Remarks:Successful connection to server: S3]
[Date: 2018-07-31 18:23:06]	[UserID:10/660]	[IP:10.128.12.210]	[Browser:Chrome - 67.0.3396.99]	[Action:GetProgramList 10/660]	[Remarks:[{"ID":"1","ProgramIndex":"GST","ProgramName":"GST"}]]
[Date: 2018-07-31 18:23:06]	[UserID:10/660]	[IP:10.128.12.210]	[Browser:Chrome - 67.0.3396.99]	[Action:Making connection to server]	[Remarks:Successful connection to server: S3]
[Date: 2018-07-31 18:23:06]	[UserID:10/660]	[IP:10.128.12.210]	[Browser:Chrome - 67.0.3396.99]	[Action:GetProgramList 10/660]	[Remarks:[{"ID":"1","ProgramIndex":"GST","ProgramName":"GST"}]]
[Date: 2018-07-31 18:23:06]	[UserID:10/660]	[IP:10.128.12.210]	[Browser:Chrome - 67.0.3396.99]	[Action:Making connection to server]	[Remarks:Successful connection to server: S3]
[Date: 2018-07-31 18:23:06]	[UserID:10/660]	[IP:10.128.12.210]	[Browser:Chrome - 67.0.3396.99]	[Action:Filtering User : MasterData Username : 10/660]	[Remarks:Successful filter row count: 1]
[Date: 2018-07-31 18:23:07]	[UserID:10/660]	[IP:10.128.12.210]	[Browser:Chrome - 67.0.3396.99]	[Action:Making connection to server]	[Remarks:Successful connection to server: S3]
[Date: 2018-07-31 18:23:07]	[UserID:10/660]	[IP:10.128.12.210]	[Browser:Chrome - 67.0.3396.99]	[Action:GetGSTModules 10/660,1]	[Remarks:Successful filter row count: 5]
[Date: 2018-07-31 18:23:07]	[UserID:10/660]	[IP:10.128.12.210]	[Browser:Chrome - 67.0.3396.99]	[Action:Closing mssql connection]	[Remarks:Success]
