[Date: 2021-02-10 16:02:21]	[UserID:]	[IP:10.128.130.5]	[Browser:Chrome - 88.0.4324.150]	[Action:Making connection to server]	[Remarks:Successful connection to server: S3]
[Date: 2021-02-10 16:02:21]	[UserID:]	[IP:10.128.130.5]	[Browser:Chrome - 88.0.4324.150]	[Action:GetProgramList ]	[Remarks:"no data"]
[Date: 2021-02-10 16:02:33]	[UserID:dev/jagustin]	[IP:10.128.130.5]	[Browser:Chrome - 88.0.4324.150]	[Action:Making connection to server]	[Remarks:Successful connection to server: S3]
[Date: 2021-02-10 16:02:33]	[UserID:dev/jagustin]	[IP:10.128.130.5]	[Browser:Chrome - 88.0.4324.150]	[Action:User dev/jagustin]	[Remarks:Success]
[Date: 2021-02-10 16:02:33]	[UserID:dev/jagustin]	[IP:10.128.130.5]	[Browser:Chrome - 88.0.4324.150]	[Action:Filtering User : MasterData Username : dev/jagustin]	[Remarks:Successful filter row count: 0]
[Date: 2021-02-10 16:02:33]	[UserID:dev/jagustin]	[IP:10.128.130.5]	[Browser:Chrome - 88.0.4324.150]	[Action:Filtering User : MasterData Username : dev/jagustin]	[Remarks:Successful filter row count: 0]
[Date: 2021-02-10 16:02:33]	[UserID:dev/jagustin]	[IP:10.128.130.5]	[Browser:Chrome - 88.0.4324.150]	[Action:Filtering User : MasterData Username : dev/jagustin]	[Remarks:Success]
[Date: 2021-02-10 16:02:33]	[UserID:dev/jagustin]	[IP:10.128.130.5]	[Browser:Chrome - 88.0.4324.150]	[Action:Closing mssql connection]	[Remarks:Success]
[Date: 2021-02-10 16:02:33]	[UserID:dev/jagustin]	[IP:10.128.130.5]	[Browser:Chrome - 88.0.4324.150]	[Action:Making connection to server]	[Remarks:Successful connection to server: S3]
[Date: 2021-02-10 16:02:33]	[UserID:dev/jagustin]	[IP:10.128.130.5]	[Browser:Chrome - 88.0.4324.150]	[Action:GetProgramList dev/jagustin]	[Remarks:[{"ID":"1","ProgramIndex":"GST","ProgramName":"GST"},{"ID":"3","ProgramIndex":"PRD","ProgramName":"PRD"}]]
[Date: 2021-02-10 16:02:33]	[UserID:dev/jagustin]	[IP:10.128.130.5]	[Browser:Chrome - 88.0.4324.150]	[Action:Making connection to server]	[Remarks:Successful connection to server: S3]
[Date: 2021-02-10 16:02:33]	[UserID:dev/jagustin]	[IP:10.128.130.5]	[Browser:Chrome - 88.0.4324.150]	[Action:GetProgramList dev/jagustin]	[Remarks:[{"ID":"1","ProgramIndex":"GST","ProgramName":"GST"},{"ID":"3","ProgramIndex":"PRD","ProgramName":"PRD"}]]
[Date: 2021-02-10 16:02:33]	[UserID:dev/jagustin]	[IP:10.128.130.5]	[Browser:Chrome - 88.0.4324.150]	[Action:Making connection to server]	[Remarks:Successful connection to server: S3]
[Date: 2021-02-10 16:02:33]	[UserID:dev/jagustin]	[IP:10.128.130.5]	[Browser:Chrome - 88.0.4324.150]	[Action:Filtering User : MasterData Username : dev/jagustin]	[Remarks:Successful filter row count: 1]
[Date: 2021-02-10 16:02:37]	[UserID:dev/jagustin]	[IP:10.128.130.5]	[Browser:Chrome - 88.0.4324.150]	[Action:Making connection to server]	[Remarks:Successful connection to server: S3]
[Date: 2021-02-10 16:02:37]	[UserID:dev/jagustin]	[IP:10.128.130.5]	[Browser:Chrome - 88.0.4324.150]	[Action:GetGSTModules dev/jagustin,1]	[Remarks:Successful filter row count: 13]
[Date: 2021-02-10 16:02:37]	[UserID:dev/jagustin]	[IP:10.128.130.5]	[Browser:Chrome - 88.0.4324.150]	[Action:Closing mssql connection]	[Remarks:Success]
