[Date: 2015-08-17 07:40:05]	[UserID:]	[IP:10.10.11.1]	[Browser:Chrome - 44.0.2403.155]	[Action:Making connection to server]	[Remarks:Successful connection to server: S3]
[Date: 2015-08-17 07:40:05]	[UserID:]	[IP:10.10.11.1]	[Browser:Chrome - 44.0.2403.155]	[Action:GetProgramList ]	[Remarks:"no data"]
[Date: 2015-08-17 07:44:33]	[UserID:06/343]	[IP:10.10.11.1]	[Browser:Chrome - 44.0.2403.155]	[Action:Making connection to server]	[Remarks:Successful connection to server: S3]
[Date: 2015-08-17 07:44:33]	[UserID:06/343]	[IP:10.10.11.1]	[Browser:Chrome - 44.0.2403.155]	[Action:LogMeIn 06/343,1234566]	[Remarks:Failed]
[Date: 2015-08-17 07:44:33]	[UserID:06/343]	[IP:10.10.11.1]	[Browser:Chrome - 44.0.2403.155]	[Action:Closing mssql connection]	[Remarks:Success]
[Date: 2015-08-17 07:44:37]	[UserID:06/343]	[IP:10.10.11.1]	[Browser:Chrome - 44.0.2403.155]	[Action:Making connection to server]	[Remarks:Successful connection to server: S3]
[Date: 2015-08-17 07:44:37]	[UserID:06/343]	[IP:10.10.11.1]	[Browser:Chrome - 44.0.2403.155]	[Action:User 06/343]	[Remarks:Success]
[Date: 2015-08-17 07:44:37]	[UserID:06/343]	[IP:10.10.11.1]	[Browser:Chrome - 44.0.2403.155]	[Action:Filtering User : MasterData Username : 06/343]	[Remarks:Successful filter row count: 0]
[Date: 2015-08-17 07:44:37]	[UserID:06/343]	[IP:10.10.11.1]	[Browser:Chrome - 44.0.2403.155]	[Action:Filtering User : MasterData Username : 06/343]	[Remarks:Successful filter row count: 0]
[Date: 2015-08-17 07:44:37]	[UserID:06/343]	[IP:10.10.11.1]	[Browser:Chrome - 44.0.2403.155]	[Action:Filtering User : MasterData Username : 06/343]	[Remarks:Success]
[Date: 2015-08-17 07:44:37]	[UserID:06/343]	[IP:10.10.11.1]	[Browser:Chrome - 44.0.2403.155]	[Action:Closing mssql connection]	[Remarks:Success]
[Date: 2015-08-17 07:44:37]	[UserID:]	[IP:10.10.11.1]	[Browser:Chrome - 44.0.2403.155]	[Action:Making connection to server]	[Remarks:Successful connection to server: S3]
[Date: 2015-08-17 07:44:37]	[UserID:]	[IP:10.10.11.1]	[Browser:Chrome - 44.0.2403.155]	[Action:GetProgramList ]	[Remarks:"no data"]
[Date: 2015-08-17 07:50:07]	[UserID:06/343]	[IP:10.10.11.1]	[Browser:Chrome - 44.0.2403.155]	[Action:Making connection to server]	[Remarks:Successful connection to server: S3]
[Date: 2015-08-17 07:50:07]	[UserID:06/343]	[IP:10.10.11.1]	[Browser:Chrome - 44.0.2403.155]	[Action:User 06/343]	[Remarks:Success]
[Date: 2015-08-17 07:50:07]	[UserID:06/343]	[IP:10.10.11.1]	[Browser:Chrome - 44.0.2403.155]	[Action:Filtering User : MasterData Username : 06/343]	[Remarks:Successful filter row count: 0]
[Date: 2015-08-17 07:50:07]	[UserID:06/343]	[IP:10.10.11.1]	[Browser:Chrome - 44.0.2403.155]	[Action:Filtering User : MasterData Username : 06/343]	[Remarks:Successful filter row count: 0]
[Date: 2015-08-17 07:50:07]	[UserID:06/343]	[IP:10.10.11.1]	[Browser:Chrome - 44.0.2403.155]	[Action:Filtering User : MasterData Username : 06/343]	[Remarks:Success]
[Date: 2015-08-17 07:50:07]	[UserID:06/343]	[IP:10.10.11.1]	[Browser:Chrome - 44.0.2403.155]	[Action:Closing mssql connection]	[Remarks:Success]
[Date: 2015-08-17 07:50:07]	[UserID:06/343]	[IP:10.10.11.1]	[Browser:Chrome - 44.0.2403.155]	[Action:Making connection to server]	[Remarks:Successful connection to server: S3]
[Date: 2015-08-17 07:50:07]	[UserID:06/343]	[IP:10.10.11.1]	[Browser:Chrome - 44.0.2403.155]	[Action:GetProgramList 06/343]	[Remarks:[{"ID":"1","ProgramIndex":"GST","ProgramName":"GST"}]]
[Date: 2015-08-17 07:50:07]	[UserID:06/343]	[IP:10.10.11.1]	[Browser:Chrome - 44.0.2403.155]	[Action:Making connection to server]	[Remarks:Successful connection to server: S3]
[Date: 2015-08-17 07:50:07]	[UserID:06/343]	[IP:10.10.11.1]	[Browser:Chrome - 44.0.2403.155]	[Action:GetProgramList 06/343]	[Remarks:[{"ID":"1","ProgramIndex":"GST","ProgramName":"GST"}]]
[Date: 2015-08-17 07:50:07]	[UserID:06/343]	[IP:10.10.11.1]	[Browser:Chrome - 44.0.2403.155]	[Action:Making connection to server]	[Remarks:Successful connection to server: S3]
[Date: 2015-08-17 07:50:07]	[UserID:06/343]	[IP:10.10.11.1]	[Browser:Chrome - 44.0.2403.155]	[Action:Filtering User : MasterData Username : 06/343]	[Remarks:Successful filter row count: 1]
[Date: 2015-08-17 07:50:07]	[UserID:06/343]	[IP:10.10.11.1]	[Browser:Chrome - 44.0.2403.155]	[Action:Making connection to server]	[Remarks:Successful connection to server: S3]
[Date: 2015-08-17 07:50:07]	[UserID:06/343]	[IP:10.10.11.1]	[Browser:Chrome - 44.0.2403.155]	[Action:GetGSTModules 06/343,1]	[Remarks:Successful filter row count: 5]
[Date: 2015-08-17 07:50:07]	[UserID:06/343]	[IP:10.10.11.1]	[Browser:Chrome - 44.0.2403.155]	[Action:Closing mssql connection]	[Remarks:Success]
[Date: 2015-08-17 07:55:04]	[UserID:06/343]	[IP:10.10.11.1]	[Browser:Chrome - 44.0.2403.155]	[Action:Making connection to server]	[Remarks:Successful connection to server: S3]
[Date: 2015-08-17 07:55:04]	[UserID:06/343]	[IP:10.10.11.1]	[Browser:Chrome - 44.0.2403.155]	[Action:GetGSTModules 06/343,1]	[Remarks:Successful filter row count: 5]
[Date: 2015-08-17 07:55:04]	[UserID:06/343]	[IP:10.10.11.1]	[Browser:Chrome - 44.0.2403.155]	[Action:Closing mssql connection]	[Remarks:Success]
[Date: 2015-08-17 07:59:00]	[UserID:06/343]	[IP:10.10.11.1]	[Browser:Chrome - 44.0.2403.155]	[Action:Making connection to server]	[Remarks:Successful connection to server: S3]
[Date: 2015-08-17 07:59:00]	[UserID:06/343]	[IP:10.10.11.1]	[Browser:Chrome - 44.0.2403.155]	[Action:GetGSTModules 06/343,1]	[Remarks:Successful filter row count: 5]
[Date: 2015-08-17 07:59:00]	[UserID:06/343]	[IP:10.10.11.1]	[Browser:Chrome - 44.0.2403.155]	[Action:Closing mssql connection]	[Remarks:Success]
[Date: 2015-08-17 07:59:32]	[UserID:]	[IP:10.10.11.1]	[Browser:Chrome - 44.0.2403.155]	[Action:Making connection to server]	[Remarks:Successful connection to server: S3]
[Date: 2015-08-17 07:59:32]	[UserID:]	[IP:10.10.11.1]	[Browser:Chrome - 44.0.2403.155]	[Action:GetProgramList ]	[Remarks:"no data"]
[Date: 2015-08-17 08:00:38]	[UserID:06/371]	[IP:10.10.11.1]	[Browser:Chrome - 44.0.2403.155]	[Action:Making connection to server]	[Remarks:Successful connection to server: S3]
[Date: 2015-08-17 08:00:38]	[UserID:06/371]	[IP:10.10.11.1]	[Browser:Chrome - 44.0.2403.155]	[Action:User 06/371]	[Remarks:Success]
[Date: 2015-08-17 08:00:38]	[UserID:06/371]	[IP:10.10.11.1]	[Browser:Chrome - 44.0.2403.155]	[Action:Filtering User : MasterData Username : 06/371]	[Remarks:Successful filter row count: 0]
[Date: 2015-08-17 08:00:38]	[UserID:06/371]	[IP:10.10.11.1]	[Browser:Chrome - 44.0.2403.155]	[Action:Filtering User : MasterData Username : 06/371]	[Remarks:Successful filter row count: 0]
[Date: 2015-08-17 08:00:38]	[UserID:06/371]	[IP:10.10.11.1]	[Browser:Chrome - 44.0.2403.155]	[Action:Filtering User : MasterData Username : 06/371]	[Remarks:Success]
[Date: 2015-08-17 08:00:38]	[UserID:06/371]	[IP:10.10.11.1]	[Browser:Chrome - 44.0.2403.155]	[Action:Closing mssql connection]	[Remarks:Success]
[Date: 2015-08-17 08:00:39]	[UserID:06/371]	[IP:10.10.11.1]	[Browser:Chrome - 44.0.2403.155]	[Action:Making connection to server]	[Remarks:Successful connection to server: S3]
[Date: 2015-08-17 08:00:39]	[UserID:06/371]	[IP:10.10.11.1]	[Browser:Chrome - 44.0.2403.155]	[Action:GetProgramList 06/371]	[Remarks:[{"ID":"1","ProgramIndex":"GST","ProgramName":"GST"}]]
[Date: 2015-08-17 08:00:39]	[UserID:06/371]	[IP:10.10.11.1]	[Browser:Chrome - 44.0.2403.155]	[Action:Making connection to server]	[Remarks:Successful connection to server: S3]
[Date: 2015-08-17 08:00:39]	[UserID:06/371]	[IP:10.10.11.1]	[Browser:Chrome - 44.0.2403.155]	[Action:GetProgramList 06/371]	[Remarks:[{"ID":"1","ProgramIndex":"GST","ProgramName":"GST"}]]
[Date: 2015-08-17 08:00:39]	[UserID:06/371]	[IP:10.10.11.1]	[Browser:Chrome - 44.0.2403.155]	[Action:Making connection to server]	[Remarks:Successful connection to server: S3]
[Date: 2015-08-17 08:00:39]	[UserID:06/371]	[IP:10.10.11.1]	[Browser:Chrome - 44.0.2403.155]	[Action:Filtering User : MasterData Username : 06/371]	[Remarks:Successful filter row count: 1]
[Date: 2015-08-17 08:00:39]	[UserID:06/371]	[IP:10.10.11.1]	[Browser:Chrome - 44.0.2403.155]	[Action:Making connection to server]	[Remarks:Successful connection to server: S3]
[Date: 2015-08-17 08:00:39]	[UserID:06/371]	[IP:10.10.11.1]	[Browser:Chrome - 44.0.2403.155]	[Action:GetGSTModules 06/371,1]	[Remarks:Successful filter row count: 5]
[Date: 2015-08-17 08:00:39]	[UserID:06/371]	[IP:10.10.11.1]	[Browser:Chrome - 44.0.2403.155]	[Action:Closing mssql connection]	[Remarks:Success]
[Date: 2015-08-17 08:02:50]	[UserID:06/371]	[IP:10.10.11.1]	[Browser:Chrome - 44.0.2403.155]	[Action:Making connection to server]	[Remarks:Successful connection to server: S3]
[Date: 2015-08-17 08:02:50]	[UserID:06/371]	[IP:10.10.11.1]	[Browser:Chrome - 44.0.2403.155]	[Action:GetGSTModules 06/371,1]	[Remarks:Successful filter row count: 5]
[Date: 2015-08-17 08:02:50]	[UserID:06/371]	[IP:10.10.11.1]	[Browser:Chrome - 44.0.2403.155]	[Action:Closing mssql connection]	[Remarks:Success]
[Date: 2015-08-17 08:05:20]	[UserID:06/371]	[IP:10.10.11.1]	[Browser:Chrome - 44.0.2403.155]	[Action:Making connection to server]	[Remarks:Successful connection to server: S3]
[Date: 2015-08-17 08:05:20]	[UserID:06/371]	[IP:10.10.11.1]	[Browser:Chrome - 44.0.2403.155]	[Action:GetGSTModules 06/371,1]	[Remarks:Successful filter row count: 5]
[Date: 2015-08-17 08:05:20]	[UserID:06/371]	[IP:10.10.11.1]	[Browser:Chrome - 44.0.2403.155]	[Action:Closing mssql connection]	[Remarks:Success]
[Date: 2015-08-17 08:05:47]	[UserID:06/371]	[IP:10.10.11.1]	[Browser:Chrome - 44.0.2403.155]	[Action:Making connection to server]	[Remarks:Successful connection to server: S3]
[Date: 2015-08-17 08:05:47]	[UserID:06/371]	[IP:10.10.11.1]	[Browser:Chrome - 44.0.2403.155]	[Action:GetGSTModules 06/371,1]	[Remarks:Successful filter row count: 5]
[Date: 2015-08-17 08:05:47]	[UserID:06/371]	[IP:10.10.11.1]	[Browser:Chrome - 44.0.2403.155]	[Action:Closing mssql connection]	[Remarks:Success]
[Date: 2015-08-17 08:05:59]	[UserID:06/371]	[IP:10.10.11.1]	[Browser:Chrome - 44.0.2403.155]	[Action:Making connection to server]	[Remarks:Successful connection to server: S3]
[Date: 2015-08-17 08:05:59]	[UserID:06/371]	[IP:10.10.11.1]	[Browser:Chrome - 44.0.2403.155]	[Action:GetGSTModules 06/371,1]	[Remarks:Successful filter row count: 5]
[Date: 2015-08-17 08:05:59]	[UserID:06/371]	[IP:10.10.11.1]	[Browser:Chrome - 44.0.2403.155]	[Action:Closing mssql connection]	[Remarks:Success]
[Date: 2015-08-17 08:06:13]	[UserID:]	[IP:10.10.11.1]	[Browser:Google favicon]	[Action:Making connection to server]	[Remarks:Successful connection to server: S3]
[Date: 2015-08-17 08:06:14]	[UserID:]	[IP:10.10.11.1]	[Browser:Google favicon]	[Action:GetProgramList ]	[Remarks:"no data"]
[Date: 2015-08-17 08:06:23]	[UserID:06/371]	[IP:10.10.11.1]	[Browser:Chrome - 44.0.2403.155]	[Action:Making connection to server]	[Remarks:Successful connection to server: S3]
[Date: 2015-08-17 08:06:23]	[UserID:06/371]	[IP:10.10.11.1]	[Browser:Chrome - 44.0.2403.155]	[Action:GetProgramList 06/371]	[Remarks:[{"ID":"1","ProgramIndex":"GST","ProgramName":"GST"}]]
[Date: 2015-08-17 08:06:23]	[UserID:06/371]	[IP:10.10.11.1]	[Browser:Chrome - 44.0.2403.155]	[Action:Making connection to server]	[Remarks:Successful connection to server: S3]
[Date: 2015-08-17 08:06:23]	[UserID:06/371]	[IP:10.10.11.1]	[Browser:Chrome - 44.0.2403.155]	[Action:GetProgramList 06/371]	[Remarks:[{"ID":"1","ProgramIndex":"GST","ProgramName":"GST"}]]
[Date: 2015-08-17 08:06:23]	[UserID:06/371]	[IP:10.10.11.1]	[Browser:Chrome - 44.0.2403.155]	[Action:Making connection to server]	[Remarks:Successful connection to server: S3]
[Date: 2015-08-17 08:06:23]	[UserID:06/371]	[IP:10.10.11.1]	[Browser:Chrome - 44.0.2403.155]	[Action:Filtering User : MasterData Username : 06/371]	[Remarks:Successful filter row count: 1]
[Date: 2015-08-17 08:06:24]	[UserID:06/371]	[IP:10.10.11.1]	[Browser:Chrome - 44.0.2403.155]	[Action:Making connection to server]	[Remarks:Successful connection to server: S3]
[Date: 2015-08-17 08:06:24]	[UserID:06/371]	[IP:10.10.11.1]	[Browser:Chrome - 44.0.2403.155]	[Action:GetGSTModules 06/371,1]	[Remarks:Successful filter row count: 5]
[Date: 2015-08-17 08:06:24]	[UserID:06/371]	[IP:10.10.11.1]	[Browser:Chrome - 44.0.2403.155]	[Action:Closing mssql connection]	[Remarks:Success]
[Date: 2015-08-17 08:08:11]	[UserID:06/343]	[IP:10.10.11.1]	[Browser:Chrome - 44.0.2403.155]	[Action:Making connection to server]	[Remarks:Successful connection to server: S3]
[Date: 2015-08-17 08:08:11]	[UserID:06/343]	[IP:10.10.11.1]	[Browser:Chrome - 44.0.2403.155]	[Action:GetGSTModules 06/343,1]	[Remarks:Successful filter row count: 5]
[Date: 2015-08-17 08:08:11]	[UserID:06/343]	[IP:10.10.11.1]	[Browser:Chrome - 44.0.2403.155]	[Action:Closing mssql connection]	[Remarks:Success]
[Date: 2015-08-17 08:09:14]	[UserID:06/371]	[IP:10.10.11.1]	[Browser:Chrome - 44.0.2403.155]	[Action:Making connection to server]	[Remarks:Successful connection to server: S3]
[Date: 2015-08-17 08:09:14]	[UserID:06/371]	[IP:10.10.11.1]	[Browser:Chrome - 44.0.2403.155]	[Action:GetGSTModules 06/371,1]	[Remarks:Successful filter row count: 5]
[Date: 2015-08-17 08:09:14]	[UserID:06/371]	[IP:10.10.11.1]	[Browser:Chrome - 44.0.2403.155]	[Action:Closing mssql connection]	[Remarks:Success]
[Date: 2015-08-17 08:20:38]	[UserID:06/343]	[IP:10.10.11.1]	[Browser:Chrome - 44.0.2403.155]	[Action:Making connection to server]	[Remarks:Successful connection to server: S3]
[Date: 2015-08-17 08:20:38]	[UserID:06/343]	[IP:10.10.11.1]	[Browser:Chrome - 44.0.2403.155]	[Action:GetGSTModules 06/343,1]	[Remarks:Successful filter row count: 5]
[Date: 2015-08-17 08:20:38]	[UserID:06/343]	[IP:10.10.11.1]	[Browser:Chrome - 44.0.2403.155]	[Action:Closing mssql connection]	[Remarks:Success]
[Date: 2015-08-17 08:23:17]	[UserID:06/343]	[IP:10.10.11.1]	[Browser:Chrome - 44.0.2403.155]	[Action:Making connection to server]	[Remarks:Successful connection to server: S3]
[Date: 2015-08-17 08:23:17]	[UserID:06/343]	[IP:10.10.11.1]	[Browser:Chrome - 44.0.2403.155]	[Action:GetGSTModules 06/343,1]	[Remarks:Successful filter row count: 5]
[Date: 2015-08-17 08:23:17]	[UserID:06/343]	[IP:10.10.11.1]	[Browser:Chrome - 44.0.2403.155]	[Action:Closing mssql connection]	[Remarks:Success]
[Date: 2015-08-17 08:24:44]	[UserID:06/343]	[IP:10.10.11.1]	[Browser:Chrome - 44.0.2403.155]	[Action:Making connection to server]	[Remarks:Successful connection to server: S3]
[Date: 2015-08-17 08:24:44]	[UserID:06/343]	[IP:10.10.11.1]	[Browser:Chrome - 44.0.2403.155]	[Action:GetGSTModules 06/343,1]	[Remarks:Successful filter row count: 5]
[Date: 2015-08-17 08:24:44]	[UserID:06/343]	[IP:10.10.11.1]	[Browser:Chrome - 44.0.2403.155]	[Action:Closing mssql connection]	[Remarks:Success]
[Date: 2015-08-17 08:25:26]	[UserID:06/371]	[IP:10.10.11.1]	[Browser:Chrome - 44.0.2403.155]	[Action:Making connection to server]	[Remarks:Successful connection to server: S3]
[Date: 2015-08-17 08:25:26]	[UserID:06/371]	[IP:10.10.11.1]	[Browser:Chrome - 44.0.2403.155]	[Action:GetGSTModules 06/371,1]	[Remarks:Successful filter row count: 5]
[Date: 2015-08-17 08:25:26]	[UserID:06/371]	[IP:10.10.11.1]	[Browser:Chrome - 44.0.2403.155]	[Action:Closing mssql connection]	[Remarks:Success]
[Date: 2015-08-17 08:29:17]	[UserID:06/343]	[IP:10.10.11.1]	[Browser:Chrome - 44.0.2403.155]	[Action:Making connection to server]	[Remarks:Successful connection to server: S3]
[Date: 2015-08-17 08:29:17]	[UserID:06/343]	[IP:10.10.11.1]	[Browser:Chrome - 44.0.2403.155]	[Action:GetGSTModules 06/343,1]	[Remarks:Successful filter row count: 5]
[Date: 2015-08-17 08:29:17]	[UserID:06/343]	[IP:10.10.11.1]	[Browser:Chrome - 44.0.2403.155]	[Action:Closing mssql connection]	[Remarks:Success]
[Date: 2015-08-17 08:41:59]	[UserID:06/371]	[IP:10.10.11.1]	[Browser:Chrome - 44.0.2403.155]	[Action:Making connection to server]	[Remarks:Successful connection to server: S3]
[Date: 2015-08-17 08:41:59]	[UserID:06/371]	[IP:10.10.11.1]	[Browser:Chrome - 44.0.2403.155]	[Action:GetGSTModules 06/371,1]	[Remarks:Successful filter row count: 5]
[Date: 2015-08-17 08:41:59]	[UserID:06/371]	[IP:10.10.11.1]	[Browser:Chrome - 44.0.2403.155]	[Action:Closing mssql connection]	[Remarks:Success]
[Date: 2015-08-17 08:43:55]	[UserID:06/371]	[IP:10.10.11.1]	[Browser:Chrome - 44.0.2403.155]	[Action:Making connection to server]	[Remarks:Successful connection to server: S3]
[Date: 2015-08-17 08:43:55]	[UserID:06/371]	[IP:10.10.11.1]	[Browser:Chrome - 44.0.2403.155]	[Action:GetGSTModules 06/371,1]	[Remarks:Successful filter row count: 5]
[Date: 2015-08-17 08:43:55]	[UserID:06/371]	[IP:10.10.11.1]	[Browser:Chrome - 44.0.2403.155]	[Action:Closing mssql connection]	[Remarks:Success]
[Date: 2015-08-17 08:58:18]	[UserID:]	[IP:10.10.11.1]	[Browser:Chrome - 44.0.2403.155]	[Action:Making connection to server]	[Remarks:Successful connection to server: S3]
[Date: 2015-08-17 08:58:18]	[UserID:]	[IP:10.10.11.1]	[Browser:Chrome - 44.0.2403.155]	[Action:GetProgramList ]	[Remarks:"no data"]
[Date: 2015-08-17 08:58:21]	[UserID:10/660]	[IP:10.10.11.1]	[Browser:Chrome - 44.0.2403.155]	[Action:Making connection to server]	[Remarks:Successful connection to server: S3]
[Date: 2015-08-17 08:58:21]	[UserID:10/660]	[IP:10.10.11.1]	[Browser:Chrome - 44.0.2403.155]	[Action:User 10/660]	[Remarks:Success]
[Date: 2015-08-17 08:58:21]	[UserID:10/660]	[IP:10.10.11.1]	[Browser:Chrome - 44.0.2403.155]	[Action:Filtering User : MasterData Username : 10/660]	[Remarks:Successful filter row count: 0]
[Date: 2015-08-17 08:58:21]	[UserID:10/660]	[IP:10.10.11.1]	[Browser:Chrome - 44.0.2403.155]	[Action:Filtering User : MasterData Username : 10/660]	[Remarks:Successful filter row count: 0]
[Date: 2015-08-17 08:58:21]	[UserID:10/660]	[IP:10.10.11.1]	[Browser:Chrome - 44.0.2403.155]	[Action:Filtering User : MasterData Username : 10/660]	[Remarks:Success]
[Date: 2015-08-17 08:58:21]	[UserID:10/660]	[IP:10.10.11.1]	[Browser:Chrome - 44.0.2403.155]	[Action:Closing mssql connection]	[Remarks:Success]
[Date: 2015-08-17 08:58:21]	[UserID:10/660]	[IP:10.10.11.1]	[Browser:Chrome - 44.0.2403.155]	[Action:Making connection to server]	[Remarks:Successful connection to server: S3]
[Date: 2015-08-17 08:58:21]	[UserID:10/660]	[IP:10.10.11.1]	[Browser:Chrome - 44.0.2403.155]	[Action:GetProgramList 10/660]	[Remarks:[{"ID":"1","ProgramIndex":"GST","ProgramName":"GST"}]]
[Date: 2015-08-17 08:58:21]	[UserID:10/660]	[IP:10.10.11.1]	[Browser:Chrome - 44.0.2403.155]	[Action:Making connection to server]	[Remarks:Successful connection to server: S3]
[Date: 2015-08-17 08:58:21]	[UserID:10/660]	[IP:10.10.11.1]	[Browser:Chrome - 44.0.2403.155]	[Action:GetProgramList 10/660]	[Remarks:[{"ID":"1","ProgramIndex":"GST","ProgramName":"GST"}]]
[Date: 2015-08-17 08:58:21]	[UserID:10/660]	[IP:10.10.11.1]	[Browser:Chrome - 44.0.2403.155]	[Action:Making connection to server]	[Remarks:Successful connection to server: S3]
[Date: 2015-08-17 08:58:21]	[UserID:10/660]	[IP:10.10.11.1]	[Browser:Chrome - 44.0.2403.155]	[Action:Filtering User : MasterData Username : 10/660]	[Remarks:Successful filter row count: 1]
[Date: 2015-08-17 08:58:22]	[UserID:10/660]	[IP:10.10.11.1]	[Browser:Chrome - 44.0.2403.155]	[Action:Making connection to server]	[Remarks:Successful connection to server: S3]
[Date: 2015-08-17 08:58:22]	[UserID:10/660]	[IP:10.10.11.1]	[Browser:Chrome - 44.0.2403.155]	[Action:GetGSTModules 10/660,1]	[Remarks:Successful filter row count: 3]
[Date: 2015-08-17 08:58:22]	[UserID:10/660]	[IP:10.10.11.1]	[Browser:Chrome - 44.0.2403.155]	[Action:Closing mssql connection]	[Remarks:Success]
[Date: 2015-08-17 09:00:01]	[UserID:]	[IP:10.10.11.1]	[Browser:Chrome - 44.0.2403.155]	[Action:Making connection to server]	[Remarks:Successful connection to server: S3]
[Date: 2015-08-17 09:00:01]	[UserID:]	[IP:10.10.11.1]	[Browser:Chrome - 44.0.2403.155]	[Action:GetProgramList ]	[Remarks:"no data"]
[Date: 2015-08-17 09:06:24]	[UserID:06/371]	[IP:10.10.11.1]	[Browser:Chrome - 44.0.2403.155]	[Action:Making connection to server]	[Remarks:Successful connection to server: S3]
[Date: 2015-08-17 09:06:25]	[UserID:06/371]	[IP:10.10.11.1]	[Browser:Chrome - 44.0.2403.155]	[Action:GetGSTModules 06/371,1]	[Remarks:Successful filter row count: 5]
[Date: 2015-08-17 09:06:25]	[UserID:06/371]	[IP:10.10.11.1]	[Browser:Chrome - 44.0.2403.155]	[Action:Closing mssql connection]	[Remarks:Success]
[Date: 2015-08-17 09:12:57]	[UserID:06/343]	[IP:10.10.11.1]	[Browser:Chrome - 44.0.2403.155]	[Action:Making connection to server]	[Remarks:Successful connection to server: S3]
[Date: 2015-08-17 09:12:57]	[UserID:06/343]	[IP:10.10.11.1]	[Browser:Chrome - 44.0.2403.155]	[Action:GetGSTModules 06/343,1]	[Remarks:Successful filter row count: 5]
[Date: 2015-08-17 09:12:57]	[UserID:06/343]	[IP:10.10.11.1]	[Browser:Chrome - 44.0.2403.155]	[Action:Closing mssql connection]	[Remarks:Success]
[Date: 2015-08-17 09:16:40]	[UserID:06/371]	[IP:10.10.11.1]	[Browser:Chrome - 44.0.2403.155]	[Action:Making connection to server]	[Remarks:Successful connection to server: S3]
[Date: 2015-08-17 09:16:40]	[UserID:06/371]	[IP:10.10.11.1]	[Browser:Chrome - 44.0.2403.155]	[Action:GetProgramList 06/371]	[Remarks:[{"ID":"1","ProgramIndex":"GST","ProgramName":"GST"}]]
[Date: 2015-08-17 09:16:40]	[UserID:06/371]	[IP:10.10.11.1]	[Browser:Chrome - 44.0.2403.155]	[Action:Making connection to server]	[Remarks:Successful connection to server: S3]
[Date: 2015-08-17 09:16:40]	[UserID:06/371]	[IP:10.10.11.1]	[Browser:Chrome - 44.0.2403.155]	[Action:GetProgramList 06/371]	[Remarks:[{"ID":"1","ProgramIndex":"GST","ProgramName":"GST"}]]
[Date: 2015-08-17 09:16:40]	[UserID:06/371]	[IP:10.10.11.1]	[Browser:Chrome - 44.0.2403.155]	[Action:Making connection to server]	[Remarks:Successful connection to server: S3]
[Date: 2015-08-17 09:16:40]	[UserID:06/371]	[IP:10.10.11.1]	[Browser:Chrome - 44.0.2403.155]	[Action:Filtering User : MasterData Username : 06/371]	[Remarks:Successful filter row count: 1]
[Date: 2015-08-17 09:16:41]	[UserID:06/371]	[IP:10.10.11.1]	[Browser:Chrome - 44.0.2403.155]	[Action:Making connection to server]	[Remarks:Successful connection to server: S3]
[Date: 2015-08-17 09:16:41]	[UserID:06/371]	[IP:10.10.11.1]	[Browser:Chrome - 44.0.2403.155]	[Action:GetGSTModules 06/371,1]	[Remarks:Successful filter row count: 5]
[Date: 2015-08-17 09:16:41]	[UserID:06/371]	[IP:10.10.11.1]	[Browser:Chrome - 44.0.2403.155]	[Action:Closing mssql connection]	[Remarks:Success]
[Date: 2015-08-17 09:17:11]	[UserID:06/371]	[IP:10.10.11.1]	[Browser:Chrome - 44.0.2403.155]	[Action:Making connection to server]	[Remarks:Successful connection to server: S3]
[Date: 2015-08-17 09:17:11]	[UserID:06/371]	[IP:10.10.11.1]	[Browser:Chrome - 44.0.2403.155]	[Action:GetGSTModules 06/371,1]	[Remarks:Successful filter row count: 5]
[Date: 2015-08-17 09:17:11]	[UserID:06/371]	[IP:10.10.11.1]	[Browser:Chrome - 44.0.2403.155]	[Action:Closing mssql connection]	[Remarks:Success]
[Date: 2015-08-17 09:22:02]	[UserID:06/371]	[IP:10.10.11.1]	[Browser:Chrome - 44.0.2403.155]	[Action:Making connection to server]	[Remarks:Successful connection to server: S3]
[Date: 2015-08-17 09:22:02]	[UserID:06/371]	[IP:10.10.11.1]	[Browser:Chrome - 44.0.2403.155]	[Action:GetGSTModules 06/371,1]	[Remarks:Successful filter row count: 5]
[Date: 2015-08-17 09:22:02]	[UserID:06/371]	[IP:10.10.11.1]	[Browser:Chrome - 44.0.2403.155]	[Action:Closing mssql connection]	[Remarks:Success]
[Date: 2015-08-17 10:16:38]	[UserID:06/343]	[IP:10.10.11.1]	[Browser:Chrome - 44.0.2403.155]	[Action:Making connection to server]	[Remarks:Successful connection to server: S3]
[Date: 2015-08-17 10:16:38]	[UserID:06/343]	[IP:10.10.11.1]	[Browser:Chrome - 44.0.2403.155]	[Action:GetGSTModules 06/343,1]	[Remarks:Successful filter row count: 5]
[Date: 2015-08-17 10:16:38]	[UserID:06/343]	[IP:10.10.11.1]	[Browser:Chrome - 44.0.2403.155]	[Action:Closing mssql connection]	[Remarks:Success]
[Date: 2015-08-17 10:18:02]	[UserID:]	[IP:10.10.11.1]	[Browser:Chrome - 44.0.2403.155]	[Action:Making connection to server]	[Remarks:Successful connection to server: S3]
[Date: 2015-08-17 10:18:02]	[UserID:]	[IP:10.10.11.1]	[Browser:Chrome - 44.0.2403.155]	[Action:GetProgramList ]	[Remarks:"no data"]
[Date: 2015-08-17 10:18:34]	[UserID:10/660]	[IP:10.10.11.1]	[Browser:Chrome - 44.0.2403.155]	[Action:Making connection to server]	[Remarks:Successful connection to server: S3]
[Date: 2015-08-17 10:18:34]	[UserID:10/660]	[IP:10.10.11.1]	[Browser:Chrome - 44.0.2403.155]	[Action:User 10/660]	[Remarks:Success]
[Date: 2015-08-17 10:18:34]	[UserID:10/660]	[IP:10.10.11.1]	[Browser:Chrome - 44.0.2403.155]	[Action:Filtering User : MasterData Username : 10/660]	[Remarks:Successful filter row count: 0]
[Date: 2015-08-17 10:18:34]	[UserID:10/660]	[IP:10.10.11.1]	[Browser:Chrome - 44.0.2403.155]	[Action:Filtering User : MasterData Username : 10/660]	[Remarks:Successful filter row count: 0]
[Date: 2015-08-17 10:18:34]	[UserID:10/660]	[IP:10.10.11.1]	[Browser:Chrome - 44.0.2403.155]	[Action:Filtering User : MasterData Username : 10/660]	[Remarks:Success]
[Date: 2015-08-17 10:18:34]	[UserID:10/660]	[IP:10.10.11.1]	[Browser:Chrome - 44.0.2403.155]	[Action:Closing mssql connection]	[Remarks:Success]
[Date: 2015-08-17 10:18:34]	[UserID:10/660]	[IP:10.10.11.1]	[Browser:Chrome - 44.0.2403.155]	[Action:Making connection to server]	[Remarks:Successful connection to server: S3]
[Date: 2015-08-17 10:18:34]	[UserID:10/660]	[IP:10.10.11.1]	[Browser:Chrome - 44.0.2403.155]	[Action:GetProgramList 10/660]	[Remarks:[{"ID":"1","ProgramIndex":"GST","ProgramName":"GST"}]]
[Date: 2015-08-17 10:18:34]	[UserID:10/660]	[IP:10.10.11.1]	[Browser:Chrome - 44.0.2403.155]	[Action:Making connection to server]	[Remarks:Successful connection to server: S3]
[Date: 2015-08-17 10:18:34]	[UserID:10/660]	[IP:10.10.11.1]	[Browser:Chrome - 44.0.2403.155]	[Action:GetProgramList 10/660]	[Remarks:[{"ID":"1","ProgramIndex":"GST","ProgramName":"GST"}]]
[Date: 2015-08-17 10:18:34]	[UserID:10/660]	[IP:10.10.11.1]	[Browser:Chrome - 44.0.2403.155]	[Action:Making connection to server]	[Remarks:Successful connection to server: S3]
[Date: 2015-08-17 10:18:34]	[UserID:10/660]	[IP:10.10.11.1]	[Browser:Chrome - 44.0.2403.155]	[Action:Filtering User : MasterData Username : 10/660]	[Remarks:Successful filter row count: 1]
[Date: 2015-08-17 10:18:34]	[UserID:10/660]	[IP:10.10.11.1]	[Browser:Chrome - 44.0.2403.155]	[Action:Making connection to server]	[Remarks:Successful connection to server: S3]
[Date: 2015-08-17 10:18:34]	[UserID:10/660]	[IP:10.10.11.1]	[Browser:Chrome - 44.0.2403.155]	[Action:GetGSTModules 10/660,1]	[Remarks:Successful filter row count: 3]
[Date: 2015-08-17 10:18:34]	[UserID:10/660]	[IP:10.10.11.1]	[Browser:Chrome - 44.0.2403.155]	[Action:Closing mssql connection]	[Remarks:Success]
[Date: 2015-08-17 10:32:52]	[UserID:10/660]	[IP:10.10.11.1]	[Browser:Chrome - 44.0.2403.155]	[Action:Making connection to server]	[Remarks:Successful connection to server: S3]
[Date: 2015-08-17 10:32:52]	[UserID:10/660]	[IP:10.10.11.1]	[Browser:Chrome - 44.0.2403.155]	[Action:GetGSTModules 10/660,1]	[Remarks:Successful filter row count: 3]
[Date: 2015-08-17 10:32:52]	[UserID:10/660]	[IP:10.10.11.1]	[Browser:Chrome - 44.0.2403.155]	[Action:Closing mssql connection]	[Remarks:Success]
[Date: 2015-08-17 10:56:14]	[UserID:10/660]	[IP:10.10.11.1]	[Browser:Chrome - 44.0.2403.155]	[Action:Making connection to server]	[Remarks:Successful connection to server: S3]
[Date: 2015-08-17 10:56:14]	[UserID:10/660]	[IP:10.10.11.1]	[Browser:Chrome - 44.0.2403.155]	[Action:GetGSTModules 10/660,1]	[Remarks:Successful filter row count: 3]
[Date: 2015-08-17 10:56:14]	[UserID:10/660]	[IP:10.10.11.1]	[Browser:Chrome - 44.0.2403.155]	[Action:Closing mssql connection]	[Remarks:Success]
[Date: 2015-08-17 10:56:51]	[UserID:]	[IP:10.10.11.1]	[Browser:Chrome - 44.0.2403.155]	[Action:Making connection to server]	[Remarks:Successful connection to server: S3]
[Date: 2015-08-17 10:56:51]	[UserID:]	[IP:10.10.11.1]	[Browser:Chrome - 44.0.2403.155]	[Action:GetProgramList ]	[Remarks:"no data"]
[Date: 2015-08-17 11:43:52]	[UserID:06/343]	[IP:10.10.11.1]	[Browser:Chrome - 44.0.2403.155]	[Action:Making connection to server]	[Remarks:Successful connection to server: S3]
[Date: 2015-08-17 11:43:52]	[UserID:06/343]	[IP:10.10.11.1]	[Browser:Chrome - 44.0.2403.155]	[Action:GetGSTModules 06/343,1]	[Remarks:Successful filter row count: 5]
[Date: 2015-08-17 11:43:52]	[UserID:06/343]	[IP:10.10.11.1]	[Browser:Chrome - 44.0.2403.155]	[Action:Closing mssql connection]	[Remarks:Success]
[Date: 2015-08-17 11:49:01]	[UserID:06/343]	[IP:10.10.11.1]	[Browser:Chrome - 44.0.2403.155]	[Action:Making connection to server]	[Remarks:Successful connection to server: S3]
[Date: 2015-08-17 11:49:01]	[UserID:06/343]	[IP:10.10.11.1]	[Browser:Chrome - 44.0.2403.155]	[Action:GetGSTModules 06/343,1]	[Remarks:Successful filter row count: 5]
[Date: 2015-08-17 11:49:01]	[UserID:06/343]	[IP:10.10.11.1]	[Browser:Chrome - 44.0.2403.155]	[Action:Closing mssql connection]	[Remarks:Success]
[Date: 2015-08-17 12:25:59]	[UserID:]	[IP:10.10.11.1]	[Browser:Chrome - 44.0.2403.155]	[Action:Making connection to server]	[Remarks:Successful connection to server: S3]
[Date: 2015-08-17 12:26:00]	[UserID:]	[IP:10.10.11.1]	[Browser:Chrome - 44.0.2403.155]	[Action:GetProgramList ]	[Remarks:"no data"]
[Date: 2015-08-17 12:26:02]	[UserID:10/660]	[IP:10.10.11.1]	[Browser:Chrome - 44.0.2403.155]	[Action:Making connection to server]	[Remarks:Successful connection to server: S3]
[Date: 2015-08-17 12:26:02]	[UserID:10/660]	[IP:10.10.11.1]	[Browser:Chrome - 44.0.2403.155]	[Action:User 10/660]	[Remarks:Success]
[Date: 2015-08-17 12:26:02]	[UserID:10/660]	[IP:10.10.11.1]	[Browser:Chrome - 44.0.2403.155]	[Action:Filtering User : MasterData Username : 10/660]	[Remarks:Successful filter row count: 0]
[Date: 2015-08-17 12:26:02]	[UserID:10/660]	[IP:10.10.11.1]	[Browser:Chrome - 44.0.2403.155]	[Action:Filtering User : MasterData Username : 10/660]	[Remarks:Successful filter row count: 0]
[Date: 2015-08-17 12:26:02]	[UserID:10/660]	[IP:10.10.11.1]	[Browser:Chrome - 44.0.2403.155]	[Action:Filtering User : MasterData Username : 10/660]	[Remarks:Success]
[Date: 2015-08-17 12:26:02]	[UserID:10/660]	[IP:10.10.11.1]	[Browser:Chrome - 44.0.2403.155]	[Action:Closing mssql connection]	[Remarks:Success]
[Date: 2015-08-17 12:26:02]	[UserID:10/660]	[IP:10.10.11.1]	[Browser:Chrome - 44.0.2403.155]	[Action:Making connection to server]	[Remarks:Successful connection to server: S3]
[Date: 2015-08-17 12:26:02]	[UserID:10/660]	[IP:10.10.11.1]	[Browser:Chrome - 44.0.2403.155]	[Action:GetProgramList 10/660]	[Remarks:[{"ID":"1","ProgramIndex":"GST","ProgramName":"GST"}]]
[Date: 2015-08-17 12:26:02]	[UserID:10/660]	[IP:10.10.11.1]	[Browser:Chrome - 44.0.2403.155]	[Action:Making connection to server]	[Remarks:Successful connection to server: S3]
[Date: 2015-08-17 12:26:02]	[UserID:10/660]	[IP:10.10.11.1]	[Browser:Chrome - 44.0.2403.155]	[Action:GetProgramList 10/660]	[Remarks:[{"ID":"1","ProgramIndex":"GST","ProgramName":"GST"}]]
[Date: 2015-08-17 12:26:02]	[UserID:10/660]	[IP:10.10.11.1]	[Browser:Chrome - 44.0.2403.155]	[Action:Making connection to server]	[Remarks:Successful connection to server: S3]
[Date: 2015-08-17 12:26:02]	[UserID:10/660]	[IP:10.10.11.1]	[Browser:Chrome - 44.0.2403.155]	[Action:Filtering User : MasterData Username : 10/660]	[Remarks:Successful filter row count: 1]
[Date: 2015-08-17 12:26:03]	[UserID:10/660]	[IP:10.10.11.1]	[Browser:Chrome - 44.0.2403.155]	[Action:Making connection to server]	[Remarks:Successful connection to server: S3]
[Date: 2015-08-17 12:26:03]	[UserID:10/660]	[IP:10.10.11.1]	[Browser:Chrome - 44.0.2403.155]	[Action:GetGSTModules 10/660,1]	[Remarks:Successful filter row count: 3]
[Date: 2015-08-17 12:26:03]	[UserID:10/660]	[IP:10.10.11.1]	[Browser:Chrome - 44.0.2403.155]	[Action:Closing mssql connection]	[Remarks:Success]
[Date: 2015-08-17 12:27:05]	[UserID:]	[IP:10.10.11.1]	[Browser:Chrome - 44.0.2403.155]	[Action:Making connection to server]	[Remarks:Successful connection to server: S3]
[Date: 2015-08-17 12:27:05]	[UserID:]	[IP:10.10.11.1]	[Browser:Chrome - 44.0.2403.155]	[Action:GetProgramList ]	[Remarks:"no data"]
[Date: 2015-08-17 14:51:06]	[UserID:]	[IP:10.10.11.1]	[Browser:Chrome - 44.0.2403.155]	[Action:Making connection to server]	[Remarks:Successful connection to server: S3]
[Date: 2015-08-17 14:51:06]	[UserID:]	[IP:10.10.11.1]	[Browser:Chrome - 44.0.2403.155]	[Action:GetProgramList ]	[Remarks:"no data"]
[Date: 2015-08-17 14:51:14]	[UserID:15/1125]	[IP:10.10.11.1]	[Browser:Chrome - 44.0.2403.155]	[Action:Making connection to server]	[Remarks:Successful connection to server: S3]
[Date: 2015-08-17 14:51:14]	[UserID:15/1125]	[IP:10.10.11.1]	[Browser:Chrome - 44.0.2403.155]	[Action:User 15/1125]	[Remarks:Success]
[Date: 2015-08-17 14:51:14]	[UserID:15/1125]	[IP:10.10.11.1]	[Browser:Chrome - 44.0.2403.155]	[Action:Filtering User : MasterData Username : 15/1125]	[Remarks:Successful filter row count: 0]
[Date: 2015-08-17 14:51:14]	[UserID:15/1125]	[IP:10.10.11.1]	[Browser:Chrome - 44.0.2403.155]	[Action:Filtering User : MasterData Username : 15/1125]	[Remarks:Successful filter row count: 0]
[Date: 2015-08-17 14:51:14]	[UserID:15/1125]	[IP:10.10.11.1]	[Browser:Chrome - 44.0.2403.155]	[Action:Filtering User : MasterData Username : 15/1125]	[Remarks:Success]
[Date: 2015-08-17 14:51:14]	[UserID:15/1125]	[IP:10.10.11.1]	[Browser:Chrome - 44.0.2403.155]	[Action:Closing mssql connection]	[Remarks:Success]
[Date: 2015-08-17 14:51:14]	[UserID:15/1125]	[IP:10.10.11.1]	[Browser:Chrome - 44.0.2403.155]	[Action:Making connection to server]	[Remarks:Successful connection to server: S3]
[Date: 2015-08-17 14:51:14]	[UserID:15/1125]	[IP:10.10.11.1]	[Browser:Chrome - 44.0.2403.155]	[Action:GetProgramList 15/1125]	[Remarks:[{"ID":"1","ProgramIndex":"GST","ProgramName":"GST"}]]
[Date: 2015-08-17 14:51:14]	[UserID:15/1125]	[IP:10.10.11.1]	[Browser:Chrome - 44.0.2403.155]	[Action:Making connection to server]	[Remarks:Successful connection to server: S3]
[Date: 2015-08-17 14:51:14]	[UserID:15/1125]	[IP:10.10.11.1]	[Browser:Chrome - 44.0.2403.155]	[Action:GetProgramList 15/1125]	[Remarks:[{"ID":"1","ProgramIndex":"GST","ProgramName":"GST"}]]
[Date: 2015-08-17 14:51:14]	[UserID:15/1125]	[IP:10.10.11.1]	[Browser:Chrome - 44.0.2403.155]	[Action:Making connection to server]	[Remarks:Successful connection to server: S3]
[Date: 2015-08-17 14:51:15]	[UserID:15/1125]	[IP:10.10.11.1]	[Browser:Chrome - 44.0.2403.155]	[Action:Filtering User : MasterData Username : 15/1125]	[Remarks:Successful filter row count: 1]
[Date: 2015-08-17 14:51:15]	[UserID:15/1125]	[IP:10.10.11.1]	[Browser:Chrome - 44.0.2403.155]	[Action:Making connection to server]	[Remarks:Successful connection to server: S3]
[Date: 2015-08-17 14:51:15]	[UserID:15/1125]	[IP:10.10.11.1]	[Browser:Chrome - 44.0.2403.155]	[Action:GetGSTModules 15/1125,1]	[Remarks:Successful filter row count: 6]
[Date: 2015-08-17 14:51:15]	[UserID:15/1125]	[IP:10.10.11.1]	[Browser:Chrome - 44.0.2403.155]	[Action:Closing mssql connection]	[Remarks:Success]
[Date: 2015-08-17 14:52:02]	[UserID:15/1125]	[IP:10.10.11.1]	[Browser:Chrome - 44.0.2403.155]	[Action:Making connection to server]	[Remarks:Successful connection to server: S3]
[Date: 2015-08-17 14:52:02]	[UserID:15/1125]	[IP:10.10.11.1]	[Browser:Chrome - 44.0.2403.155]	[Action:GetGSTModules 15/1125,1]	[Remarks:Successful filter row count: 6]
[Date: 2015-08-17 14:52:02]	[UserID:15/1125]	[IP:10.10.11.1]	[Browser:Chrome - 44.0.2403.155]	[Action:Closing mssql connection]	[Remarks:Success]
[Date: 2015-08-17 15:01:53]	[UserID:15/1125]	[IP:10.10.11.1]	[Browser:Chrome - 44.0.2403.155]	[Action:Making connection to server]	[Remarks:Successful connection to server: S3]
[Date: 2015-08-17 15:01:53]	[UserID:15/1125]	[IP:10.10.11.1]	[Browser:Chrome - 44.0.2403.155]	[Action:GetProgramList 15/1125]	[Remarks:[{"ID":"1","ProgramIndex":"GST","ProgramName":"GST"}]]
[Date: 2015-08-17 15:01:53]	[UserID:15/1125]	[IP:10.10.11.1]	[Browser:Chrome - 44.0.2403.155]	[Action:Making connection to server]	[Remarks:Successful connection to server: S3]
[Date: 2015-08-17 15:01:53]	[UserID:15/1125]	[IP:10.10.11.1]	[Browser:Chrome - 44.0.2403.155]	[Action:GetProgramList 15/1125]	[Remarks:[{"ID":"1","ProgramIndex":"GST","ProgramName":"GST"}]]
[Date: 2015-08-17 15:01:53]	[UserID:15/1125]	[IP:10.10.11.1]	[Browser:Chrome - 44.0.2403.155]	[Action:Making connection to server]	[Remarks:Successful connection to server: S3]
[Date: 2015-08-17 15:01:53]	[UserID:15/1125]	[IP:10.10.11.1]	[Browser:Chrome - 44.0.2403.155]	[Action:Filtering User : MasterData Username : 15/1125]	[Remarks:Successful filter row count: 1]
[Date: 2015-08-17 15:01:54]	[UserID:15/1125]	[IP:10.10.11.1]	[Browser:Chrome - 44.0.2403.155]	[Action:Making connection to server]	[Remarks:Successful connection to server: S3]
[Date: 2015-08-17 15:01:54]	[UserID:15/1125]	[IP:10.10.11.1]	[Browser:Chrome - 44.0.2403.155]	[Action:GetGSTModules 15/1125,1]	[Remarks:Successful filter row count: 6]
[Date: 2015-08-17 15:01:54]	[UserID:15/1125]	[IP:10.10.11.1]	[Browser:Chrome - 44.0.2403.155]	[Action:Closing mssql connection]	[Remarks:Success]
[Date: 2015-08-17 15:23:38]	[UserID:15/1125]	[IP:10.10.11.1]	[Browser:Chrome - 44.0.2403.155]	[Action:Making connection to server]	[Remarks:Successful connection to server: S3]
[Date: 2015-08-17 15:23:38]	[UserID:15/1125]	[IP:10.10.11.1]	[Browser:Chrome - 44.0.2403.155]	[Action:GetGSTModules 15/1125,1]	[Remarks:Successful filter row count: 6]
[Date: 2015-08-17 15:23:38]	[UserID:15/1125]	[IP:10.10.11.1]	[Browser:Chrome - 44.0.2403.155]	[Action:Closing mssql connection]	[Remarks:Success]
[Date: 2015-08-17 15:24:02]	[UserID:15/1125]	[IP:10.10.11.1]	[Browser:Chrome - 44.0.2403.155]	[Action:Making connection to server]	[Remarks:Successful connection to server: S3]
[Date: 2015-08-17 15:24:02]	[UserID:15/1125]	[IP:10.10.11.1]	[Browser:Chrome - 44.0.2403.155]	[Action:GetGSTModules 15/1125,1]	[Remarks:Successful filter row count: 6]
[Date: 2015-08-17 15:24:02]	[UserID:15/1125]	[IP:10.10.11.1]	[Browser:Chrome - 44.0.2403.155]	[Action:Closing mssql connection]	[Remarks:Success]
[Date: 2015-08-17 15:24:37]	[UserID:15/1125]	[IP:10.10.11.1]	[Browser:Chrome - 44.0.2403.155]	[Action:Making connection to server]	[Remarks:Successful connection to server: S3]
[Date: 2015-08-17 15:24:37]	[UserID:15/1125]	[IP:10.10.11.1]	[Browser:Chrome - 44.0.2403.155]	[Action:GetGSTModules 15/1125,1]	[Remarks:Successful filter row count: 6]
[Date: 2015-08-17 15:24:37]	[UserID:15/1125]	[IP:10.10.11.1]	[Browser:Chrome - 44.0.2403.155]	[Action:Closing mssql connection]	[Remarks:Success]
[Date: 2015-08-17 15:25:20]	[UserID:15/1125]	[IP:10.10.11.1]	[Browser:Chrome - 44.0.2403.155]	[Action:Making connection to server]	[Remarks:Successful connection to server: S3]
[Date: 2015-08-17 15:25:20]	[UserID:15/1125]	[IP:10.10.11.1]	[Browser:Chrome - 44.0.2403.155]	[Action:GetGSTModules 15/1125,1]	[Remarks:Successful filter row count: 6]
[Date: 2015-08-17 15:25:20]	[UserID:15/1125]	[IP:10.10.11.1]	[Browser:Chrome - 44.0.2403.155]	[Action:Closing mssql connection]	[Remarks:Success]
[Date: 2015-08-17 15:25:39]	[UserID:15/1125]	[IP:10.10.11.1]	[Browser:Chrome - 44.0.2403.155]	[Action:Making connection to server]	[Remarks:Successful connection to server: S3]
[Date: 2015-08-17 15:25:39]	[UserID:15/1125]	[IP:10.10.11.1]	[Browser:Chrome - 44.0.2403.155]	[Action:GetGSTModules 15/1125,1]	[Remarks:Successful filter row count: 6]
[Date: 2015-08-17 15:25:39]	[UserID:15/1125]	[IP:10.10.11.1]	[Browser:Chrome - 44.0.2403.155]	[Action:Closing mssql connection]	[Remarks:Success]
[Date: 2015-08-17 15:25:58]	[UserID:15/1125]	[IP:10.10.11.1]	[Browser:Chrome - 44.0.2403.155]	[Action:Making connection to server]	[Remarks:Successful connection to server: S3]
[Date: 2015-08-17 15:25:58]	[UserID:15/1125]	[IP:10.10.11.1]	[Browser:Chrome - 44.0.2403.155]	[Action:GetGSTModules 15/1125,1]	[Remarks:Successful filter row count: 6]
[Date: 2015-08-17 15:25:59]	[UserID:15/1125]	[IP:10.10.11.1]	[Browser:Chrome - 44.0.2403.155]	[Action:Closing mssql connection]	[Remarks:Success]
[Date: 2015-08-17 15:26:22]	[UserID:15/1125]	[IP:10.10.11.1]	[Browser:Chrome - 44.0.2403.155]	[Action:Making connection to server]	[Remarks:Successful connection to server: S3]
[Date: 2015-08-17 15:26:22]	[UserID:15/1125]	[IP:10.10.11.1]	[Browser:Chrome - 44.0.2403.155]	[Action:GetProgramList 15/1125]	[Remarks:[{"ID":"1","ProgramIndex":"GST","ProgramName":"GST"}]]
[Date: 2015-08-17 15:26:22]	[UserID:15/1125]	[IP:10.10.11.1]	[Browser:Chrome - 44.0.2403.155]	[Action:Making connection to server]	[Remarks:Successful connection to server: S3]
[Date: 2015-08-17 15:26:22]	[UserID:15/1125]	[IP:10.10.11.1]	[Browser:Chrome - 44.0.2403.155]	[Action:GetProgramList 15/1125]	[Remarks:[{"ID":"1","ProgramIndex":"GST","ProgramName":"GST"}]]
[Date: 2015-08-17 15:26:22]	[UserID:15/1125]	[IP:10.10.11.1]	[Browser:Chrome - 44.0.2403.155]	[Action:Making connection to server]	[Remarks:Successful connection to server: S3]
[Date: 2015-08-17 15:26:22]	[UserID:15/1125]	[IP:10.10.11.1]	[Browser:Chrome - 44.0.2403.155]	[Action:Filtering User : MasterData Username : 15/1125]	[Remarks:Successful filter row count: 1]
[Date: 2015-08-17 15:26:24]	[UserID:15/1125]	[IP:10.10.11.1]	[Browser:Chrome - 44.0.2403.155]	[Action:Making connection to server]	[Remarks:Successful connection to server: S3]
[Date: 2015-08-17 15:26:24]	[UserID:15/1125]	[IP:10.10.11.1]	[Browser:Chrome - 44.0.2403.155]	[Action:GetProgramList 15/1125]	[Remarks:[{"ID":"1","ProgramIndex":"GST","ProgramName":"GST"}]]
[Date: 2015-08-17 15:26:24]	[UserID:15/1125]	[IP:10.10.11.1]	[Browser:Chrome - 44.0.2403.155]	[Action:Making connection to server]	[Remarks:Successful connection to server: S3]
[Date: 2015-08-17 15:26:24]	[UserID:15/1125]	[IP:10.10.11.1]	[Browser:Chrome - 44.0.2403.155]	[Action:GetProgramList 15/1125]	[Remarks:[{"ID":"1","ProgramIndex":"GST","ProgramName":"GST"}]]
[Date: 2015-08-17 15:26:24]	[UserID:15/1125]	[IP:10.10.11.1]	[Browser:Chrome - 44.0.2403.155]	[Action:Making connection to server]	[Remarks:Successful connection to server: S3]
[Date: 2015-08-17 15:26:24]	[UserID:15/1125]	[IP:10.10.11.1]	[Browser:Chrome - 44.0.2403.155]	[Action:Filtering User : MasterData Username : 15/1125]	[Remarks:Successful filter row count: 1]
[Date: 2015-08-17 15:26:25]	[UserID:15/1125]	[IP:10.10.11.1]	[Browser:Chrome - 44.0.2403.155]	[Action:Making connection to server]	[Remarks:Successful connection to server: S3]
[Date: 2015-08-17 15:26:25]	[UserID:15/1125]	[IP:10.10.11.1]	[Browser:Chrome - 44.0.2403.155]	[Action:GetGSTModules 15/1125,1]	[Remarks:Successful filter row count: 6]
[Date: 2015-08-17 15:26:25]	[UserID:15/1125]	[IP:10.10.11.1]	[Browser:Chrome - 44.0.2403.155]	[Action:Closing mssql connection]	[Remarks:Success]
[Date: 2015-08-17 15:26:33]	[UserID:15/1125]	[IP:10.10.11.1]	[Browser:Chrome - 44.0.2403.155]	[Action:Making connection to server]	[Remarks:Successful connection to server: S3]
[Date: 2015-08-17 15:26:33]	[UserID:15/1125]	[IP:10.10.11.1]	[Browser:Chrome - 44.0.2403.155]	[Action:GetGSTModules 15/1125,1]	[Remarks:Successful filter row count: 6]
[Date: 2015-08-17 15:26:33]	[UserID:15/1125]	[IP:10.10.11.1]	[Browser:Chrome - 44.0.2403.155]	[Action:Closing mssql connection]	[Remarks:Success]
[Date: 2015-08-17 15:27:56]	[UserID:15/1125]	[IP:10.10.11.1]	[Browser:Chrome - 44.0.2403.155]	[Action:Making connection to server]	[Remarks:Successful connection to server: S3]
[Date: 2015-08-17 15:27:56]	[UserID:15/1125]	[IP:10.10.11.1]	[Browser:Chrome - 44.0.2403.155]	[Action:GetGSTModules 15/1125,1]	[Remarks:Successful filter row count: 6]
[Date: 2015-08-17 15:27:56]	[UserID:15/1125]	[IP:10.10.11.1]	[Browser:Chrome - 44.0.2403.155]	[Action:Closing mssql connection]	[Remarks:Success]
[Date: 2015-08-17 15:36:08]	[UserID:15/1125]	[IP:10.10.11.1]	[Browser:Chrome - 44.0.2403.155]	[Action:Making connection to server]	[Remarks:Successful connection to server: S3]
[Date: 2015-08-17 15:36:08]	[UserID:15/1125]	[IP:10.10.11.1]	[Browser:Chrome - 44.0.2403.155]	[Action:GetProgramList 15/1125]	[Remarks:[{"ID":"1","ProgramIndex":"GST","ProgramName":"GST"}]]
[Date: 2015-08-17 15:36:08]	[UserID:15/1125]	[IP:10.10.11.1]	[Browser:Chrome - 44.0.2403.155]	[Action:Making connection to server]	[Remarks:Successful connection to server: S3]
[Date: 2015-08-17 15:36:08]	[UserID:15/1125]	[IP:10.10.11.1]	[Browser:Chrome - 44.0.2403.155]	[Action:GetProgramList 15/1125]	[Remarks:[{"ID":"1","ProgramIndex":"GST","ProgramName":"GST"}]]
[Date: 2015-08-17 15:36:08]	[UserID:15/1125]	[IP:10.10.11.1]	[Browser:Chrome - 44.0.2403.155]	[Action:Making connection to server]	[Remarks:Successful connection to server: S3]
[Date: 2015-08-17 15:36:08]	[UserID:15/1125]	[IP:10.10.11.1]	[Browser:Chrome - 44.0.2403.155]	[Action:Filtering User : MasterData Username : 15/1125]	[Remarks:Successful filter row count: 1]
[Date: 2015-08-17 15:36:09]	[UserID:15/1125]	[IP:10.10.11.1]	[Browser:Chrome - 44.0.2403.155]	[Action:Making connection to server]	[Remarks:Successful connection to server: S3]
[Date: 2015-08-17 15:36:09]	[UserID:15/1125]	[IP:10.10.11.1]	[Browser:Chrome - 44.0.2403.155]	[Action:GetGSTModules 15/1125,1]	[Remarks:Successful filter row count: 6]
[Date: 2015-08-17 15:36:09]	[UserID:15/1125]	[IP:10.10.11.1]	[Browser:Chrome - 44.0.2403.155]	[Action:Closing mssql connection]	[Remarks:Success]
[Date: 2015-08-17 15:53:36]	[UserID:15/1125]	[IP:10.10.11.1]	[Browser:Chrome - 44.0.2403.155]	[Action:Making connection to server]	[Remarks:Successful connection to server: S3]
[Date: 2015-08-17 15:53:36]	[UserID:15/1125]	[IP:10.10.11.1]	[Browser:Chrome - 44.0.2403.155]	[Action:GetGSTModules 15/1125,1]	[Remarks:Successful filter row count: 6]
[Date: 2015-08-17 15:53:36]	[UserID:15/1125]	[IP:10.10.11.1]	[Browser:Chrome - 44.0.2403.155]	[Action:Closing mssql connection]	[Remarks:Success]
[Date: 2015-08-17 15:53:38]	[UserID:]	[IP:10.10.11.1]	[Browser:Chrome - 44.0.2403.155]	[Action:Making connection to server]	[Remarks:Successful connection to server: S3]
[Date: 2015-08-17 15:53:38]	[UserID:]	[IP:10.10.11.1]	[Browser:Chrome - 44.0.2403.155]	[Action:GetProgramList ]	[Remarks:"no data"]
[Date: 2015-08-17 16:52:31]	[UserID:]	[IP:10.10.11.1]	[Browser:Chrome - 44.0.2403.155]	[Action:Making connection to server]	[Remarks:Successful connection to server: S3]
[Date: 2015-08-17 16:52:31]	[UserID:]	[IP:10.10.11.1]	[Browser:Chrome - 44.0.2403.155]	[Action:GetProgramList ]	[Remarks:"no data"]
[Date: 2015-08-17 16:52:33]	[UserID:10/660]	[IP:10.10.11.1]	[Browser:Chrome - 44.0.2403.155]	[Action:Making connection to server]	[Remarks:Successful connection to server: S3]
[Date: 2015-08-17 16:52:33]	[UserID:10/660]	[IP:10.10.11.1]	[Browser:Chrome - 44.0.2403.155]	[Action:User 10/660]	[Remarks:Success]
[Date: 2015-08-17 16:52:33]	[UserID:10/660]	[IP:10.10.11.1]	[Browser:Chrome - 44.0.2403.155]	[Action:Filtering User : MasterData Username : 10/660]	[Remarks:Successful filter row count: 0]
[Date: 2015-08-17 16:52:33]	[UserID:10/660]	[IP:10.10.11.1]	[Browser:Chrome - 44.0.2403.155]	[Action:Filtering User : MasterData Username : 10/660]	[Remarks:Successful filter row count: 0]
[Date: 2015-08-17 16:52:33]	[UserID:10/660]	[IP:10.10.11.1]	[Browser:Chrome - 44.0.2403.155]	[Action:Filtering User : MasterData Username : 10/660]	[Remarks:Success]
[Date: 2015-08-17 16:52:33]	[UserID:10/660]	[IP:10.10.11.1]	[Browser:Chrome - 44.0.2403.155]	[Action:Closing mssql connection]	[Remarks:Success]
[Date: 2015-08-17 16:52:33]	[UserID:10/660]	[IP:10.10.11.1]	[Browser:Chrome - 44.0.2403.155]	[Action:Making connection to server]	[Remarks:Successful connection to server: S3]
[Date: 2015-08-17 16:52:33]	[UserID:10/660]	[IP:10.10.11.1]	[Browser:Chrome - 44.0.2403.155]	[Action:GetProgramList 10/660]	[Remarks:[{"ID":"1","ProgramIndex":"GST","ProgramName":"GST"}]]
[Date: 2015-08-17 16:52:33]	[UserID:10/660]	[IP:10.10.11.1]	[Browser:Chrome - 44.0.2403.155]	[Action:Making connection to server]	[Remarks:Successful connection to server: S3]
[Date: 2015-08-17 16:52:33]	[UserID:10/660]	[IP:10.10.11.1]	[Browser:Chrome - 44.0.2403.155]	[Action:GetProgramList 10/660]	[Remarks:[{"ID":"1","ProgramIndex":"GST","ProgramName":"GST"}]]
[Date: 2015-08-17 16:52:33]	[UserID:10/660]	[IP:10.10.11.1]	[Browser:Chrome - 44.0.2403.155]	[Action:Making connection to server]	[Remarks:Successful connection to server: S3]
[Date: 2015-08-17 16:52:33]	[UserID:10/660]	[IP:10.10.11.1]	[Browser:Chrome - 44.0.2403.155]	[Action:Filtering User : MasterData Username : 10/660]	[Remarks:Successful filter row count: 1]
[Date: 2015-08-17 16:52:34]	[UserID:10/660]	[IP:10.10.11.1]	[Browser:Chrome - 44.0.2403.155]	[Action:Making connection to server]	[Remarks:Successful connection to server: S3]
[Date: 2015-08-17 16:52:34]	[UserID:10/660]	[IP:10.10.11.1]	[Browser:Chrome - 44.0.2403.155]	[Action:GetGSTModules 10/660,1]	[Remarks:Successful filter row count: 3]
[Date: 2015-08-17 16:52:34]	[UserID:10/660]	[IP:10.10.11.1]	[Browser:Chrome - 44.0.2403.155]	[Action:Closing mssql connection]	[Remarks:Success]
[Date: 2015-08-17 16:53:52]	[UserID:]	[IP:10.10.11.1]	[Browser:Chrome - 44.0.2403.155]	[Action:Making connection to server]	[Remarks:Successful connection to server: S3]
[Date: 2015-08-17 16:53:52]	[UserID:]	[IP:10.10.11.1]	[Browser:Chrome - 44.0.2403.155]	[Action:GetProgramList ]	[Remarks:"no data"]
