[Date: 2018-06-29 10:56:40]	[UserID:]	[IP:10.128.12.113]	[Browser:Chrome - 67.0.3396.99]	[Action:Making connection to server]	[Remarks:Successful connection to server: S3]
[Date: 2018-06-29 10:56:41]	[UserID:]	[IP:10.128.12.113]	[Browser:Chrome - 67.0.3396.99]	[Action:GetProgramList ]	[Remarks:"no data"]
[Date: 2018-06-29 10:57:51]	[UserID:06/343]	[IP:10.128.12.113]	[Browser:Chrome - 67.0.3396.99]	[Action:Making connection to server]	[Remarks:Successful connection to server: S3]
[Date: 2018-06-29 10:57:51]	[UserID:06/343]	[IP:10.128.12.113]	[Browser:Chrome - 67.0.3396.99]	[Action:User 06/343]	[Remarks:Success]
[Date: 2018-06-29 10:57:51]	[UserID:06/343]	[IP:10.128.12.113]	[Browser:Chrome - 67.0.3396.99]	[Action:Filtering User : MasterData Username : 06/343]	[Remarks:Successful filter row count: 0]
[Date: 2018-06-29 10:57:51]	[UserID:06/343]	[IP:10.128.12.113]	[Browser:Chrome - 67.0.3396.99]	[Action:Filtering User : MasterData Username : 06/343]	[Remarks:Successful filter row count: 0]
[Date: 2018-06-29 10:57:51]	[UserID:06/343]	[IP:10.128.12.113]	[Browser:Chrome - 67.0.3396.99]	[Action:Filtering User : MasterData Username : 06/343]	[Remarks:Success]
[Date: 2018-06-29 10:57:51]	[UserID:06/343]	[IP:10.128.12.113]	[Browser:Chrome - 67.0.3396.99]	[Action:Closing mssql connection]	[Remarks:Success]
[Date: 2018-06-29 10:57:51]	[UserID:06/343]	[IP:10.128.12.113]	[Browser:Chrome - 67.0.3396.99]	[Action:Making connection to server]	[Remarks:Successful connection to server: S3]
[Date: 2018-06-29 10:57:51]	[UserID:06/343]	[IP:10.128.12.113]	[Browser:Chrome - 67.0.3396.99]	[Action:GetProgramList 06/343]	[Remarks:[{"ID":"1","ProgramIndex":"GST","ProgramName":"GST"}]]
[Date: 2018-06-29 10:57:51]	[UserID:06/343]	[IP:10.128.12.113]	[Browser:Chrome - 67.0.3396.99]	[Action:Making connection to server]	[Remarks:Successful connection to server: S3]
[Date: 2018-06-29 10:57:51]	[UserID:06/343]	[IP:10.128.12.113]	[Browser:Chrome - 67.0.3396.99]	[Action:GetProgramList 06/343]	[Remarks:[{"ID":"1","ProgramIndex":"GST","ProgramName":"GST"}]]
[Date: 2018-06-29 10:57:51]	[UserID:06/343]	[IP:10.128.12.113]	[Browser:Chrome - 67.0.3396.99]	[Action:Making connection to server]	[Remarks:Successful connection to server: S3]
[Date: 2018-06-29 10:57:51]	[UserID:06/343]	[IP:10.128.12.113]	[Browser:Chrome - 67.0.3396.99]	[Action:Filtering User : MasterData Username : 06/343]	[Remarks:Successful filter row count: 1]
[Date: 2018-06-29 10:57:52]	[UserID:06/343]	[IP:10.128.12.113]	[Browser:Chrome - 67.0.3396.99]	[Action:Making connection to server]	[Remarks:Successful connection to server: S3]
[Date: 2018-06-29 10:57:52]	[UserID:06/343]	[IP:10.128.12.113]	[Browser:Chrome - 67.0.3396.99]	[Action:GetGSTModules 06/343,1]	[Remarks:Successful filter row count: 6]
[Date: 2018-06-29 10:57:52]	[UserID:06/343]	[IP:10.128.12.113]	[Browser:Chrome - 67.0.3396.99]	[Action:Closing mssql connection]	[Remarks:Success]
[Date: 2018-06-29 11:04:51]	[UserID:06/343]	[IP:10.128.12.113]	[Browser:Chrome - 67.0.3396.99]	[Action:Making connection to server]	[Remarks:Successful connection to server: S3]
[Date: 2018-06-29 11:04:51]	[UserID:06/343]	[IP:10.128.12.113]	[Browser:Chrome - 67.0.3396.99]	[Action:GetGSTModules 06/343,1]	[Remarks:Successful filter row count: 6]
[Date: 2018-06-29 11:04:51]	[UserID:06/343]	[IP:10.128.12.113]	[Browser:Chrome - 67.0.3396.99]	[Action:Closing mssql connection]	[Remarks:Success]
[Date: 2018-06-29 11:06:05]	[UserID:06/343]	[IP:10.128.12.113]	[Browser:Chrome - 67.0.3396.99]	[Action:Making connection to server]	[Remarks:Successful connection to server: S3]
[Date: 2018-06-29 11:06:05]	[UserID:06/343]	[IP:10.128.12.113]	[Browser:Chrome - 67.0.3396.99]	[Action:GetGSTModules 06/343,1]	[Remarks:Successful filter row count: 6]
[Date: 2018-06-29 11:06:05]	[UserID:06/343]	[IP:10.128.12.113]	[Browser:Chrome - 67.0.3396.99]	[Action:Closing mssql connection]	[Remarks:Success]
[Date: 2018-06-29 14:44:08]	[UserID:]	[IP:10.128.12.210]	[Browser:Chrome - 67.0.3396.99]	[Action:Making connection to server]	[Remarks:Successful connection to server: S3]
[Date: 2018-06-29 14:44:08]	[UserID:]	[IP:10.128.12.210]	[Browser:Chrome - 67.0.3396.99]	[Action:GetProgramList ]	[Remarks:"no data"]
[Date: 2018-06-29 14:44:16]	[UserID:10/660]	[IP:10.128.12.210]	[Browser:Chrome - 67.0.3396.99]	[Action:Making connection to server]	[Remarks:Successful connection to server: S3]
[Date: 2018-06-29 14:44:16]	[UserID:10/660]	[IP:10.128.12.210]	[Browser:Chrome - 67.0.3396.99]	[Action:User 10/660]	[Remarks:Success]
[Date: 2018-06-29 14:44:16]	[UserID:10/660]	[IP:10.128.12.210]	[Browser:Chrome - 67.0.3396.99]	[Action:Filtering User : MasterData Username : 10/660]	[Remarks:Successful filter row count: 0]
[Date: 2018-06-29 14:44:16]	[UserID:10/660]	[IP:10.128.12.210]	[Browser:Chrome - 67.0.3396.99]	[Action:Filtering User : MasterData Username : 10/660]	[Remarks:Successful filter row count: 0]
[Date: 2018-06-29 14:44:16]	[UserID:10/660]	[IP:10.128.12.210]	[Browser:Chrome - 67.0.3396.99]	[Action:Filtering User : MasterData Username : 10/660]	[Remarks:Success]
[Date: 2018-06-29 14:44:16]	[UserID:10/660]	[IP:10.128.12.210]	[Browser:Chrome - 67.0.3396.99]	[Action:Closing mssql connection]	[Remarks:Success]
[Date: 2018-06-29 14:44:16]	[UserID:10/660]	[IP:10.128.12.210]	[Browser:Chrome - 67.0.3396.99]	[Action:Making connection to server]	[Remarks:Successful connection to server: S3]
[Date: 2018-06-29 14:44:16]	[UserID:10/660]	[IP:10.128.12.210]	[Browser:Chrome - 67.0.3396.99]	[Action:GetProgramList 10/660]	[Remarks:[{"ID":"1","ProgramIndex":"GST","ProgramName":"GST"}]]
[Date: 2018-06-29 14:44:16]	[UserID:10/660]	[IP:10.128.12.210]	[Browser:Chrome - 67.0.3396.99]	[Action:Making connection to server]	[Remarks:Successful connection to server: S3]
[Date: 2018-06-29 14:44:16]	[UserID:10/660]	[IP:10.128.12.210]	[Browser:Chrome - 67.0.3396.99]	[Action:GetProgramList 10/660]	[Remarks:[{"ID":"1","ProgramIndex":"GST","ProgramName":"GST"}]]
[Date: 2018-06-29 14:44:16]	[UserID:10/660]	[IP:10.128.12.210]	[Browser:Chrome - 67.0.3396.99]	[Action:Making connection to server]	[Remarks:Successful connection to server: S3]
[Date: 2018-06-29 14:44:16]	[UserID:10/660]	[IP:10.128.12.210]	[Browser:Chrome - 67.0.3396.99]	[Action:Filtering User : MasterData Username : 10/660]	[Remarks:Successful filter row count: 1]
[Date: 2018-06-29 14:44:16]	[UserID:10/660]	[IP:10.128.12.210]	[Browser:Chrome - 67.0.3396.99]	[Action:Making connection to server]	[Remarks:Successful connection to server: S3]
[Date: 2018-06-29 14:44:16]	[UserID:10/660]	[IP:10.128.12.210]	[Browser:Chrome - 67.0.3396.99]	[Action:GetGSTModules 10/660,1]	[Remarks:Successful filter row count: 5]
[Date: 2018-06-29 14:44:16]	[UserID:10/660]	[IP:10.128.12.210]	[Browser:Chrome - 67.0.3396.99]	[Action:Closing mssql connection]	[Remarks:Success]
[Date: 2018-06-29 14:45:02]	[UserID:]	[IP:10.128.12.210]	[Browser:Chrome - 67.0.3396.99]	[Action:Making connection to server]	[Remarks:Successful connection to server: S3]
[Date: 2018-06-29 14:45:02]	[UserID:]	[IP:10.128.12.210]	[Browser:Chrome - 67.0.3396.99]	[Action:GetProgramList ]	[Remarks:"no data"]
[Date: 2018-06-29 14:45:13]	[UserID:]	[IP:10.128.12.210]	[Browser:Chrome - 67.0.3396.99]	[Action:Making connection to server]	[Remarks:Successful connection to server: S3]
[Date: 2018-06-29 14:45:13]	[UserID:]	[IP:10.128.12.210]	[Browser:Chrome - 67.0.3396.99]	[Action:GetProgramList ]	[Remarks:"no data"]
[Date: 2018-06-29 14:45:45]	[UserID:10/660]	[IP:10.128.12.210]	[Browser:Chrome - 67.0.3396.99]	[Action:Making connection to server]	[Remarks:Successful connection to server: S3]
[Date: 2018-06-29 14:45:45]	[UserID:10/660]	[IP:10.128.12.210]	[Browser:Chrome - 67.0.3396.99]	[Action:User 10/660]	[Remarks:Success]
[Date: 2018-06-29 14:45:45]	[UserID:10/660]	[IP:10.128.12.210]	[Browser:Chrome - 67.0.3396.99]	[Action:Filtering User : MasterData Username : 10/660]	[Remarks:Successful filter row count: 0]
[Date: 2018-06-29 14:45:45]	[UserID:10/660]	[IP:10.128.12.210]	[Browser:Chrome - 67.0.3396.99]	[Action:Filtering User : MasterData Username : 10/660]	[Remarks:Successful filter row count: 0]
[Date: 2018-06-29 14:45:45]	[UserID:10/660]	[IP:10.128.12.210]	[Browser:Chrome - 67.0.3396.99]	[Action:Filtering User : MasterData Username : 10/660]	[Remarks:Success]
[Date: 2018-06-29 14:45:45]	[UserID:10/660]	[IP:10.128.12.210]	[Browser:Chrome - 67.0.3396.99]	[Action:Closing mssql connection]	[Remarks:Success]
[Date: 2018-06-29 14:45:45]	[UserID:10/660]	[IP:10.128.12.210]	[Browser:Chrome - 67.0.3396.99]	[Action:Making connection to server]	[Remarks:Successful connection to server: S3]
[Date: 2018-06-29 14:45:45]	[UserID:10/660]	[IP:10.128.12.210]	[Browser:Chrome - 67.0.3396.99]	[Action:GetProgramList 10/660]	[Remarks:[{"ID":"1","ProgramIndex":"GST","ProgramName":"GST"}]]
[Date: 2018-06-29 14:45:45]	[UserID:10/660]	[IP:10.128.12.210]	[Browser:Chrome - 67.0.3396.99]	[Action:Making connection to server]	[Remarks:Successful connection to server: S3]
[Date: 2018-06-29 14:45:45]	[UserID:10/660]	[IP:10.128.12.210]	[Browser:Chrome - 67.0.3396.99]	[Action:GetProgramList 10/660]	[Remarks:[{"ID":"1","ProgramIndex":"GST","ProgramName":"GST"}]]
[Date: 2018-06-29 14:45:45]	[UserID:10/660]	[IP:10.128.12.210]	[Browser:Chrome - 67.0.3396.99]	[Action:Making connection to server]	[Remarks:Successful connection to server: S3]
[Date: 2018-06-29 14:45:45]	[UserID:10/660]	[IP:10.128.12.210]	[Browser:Chrome - 67.0.3396.99]	[Action:Filtering User : MasterData Username : 10/660]	[Remarks:Successful filter row count: 1]
[Date: 2018-06-29 14:45:45]	[UserID:10/660]	[IP:10.128.12.210]	[Browser:Chrome - 67.0.3396.99]	[Action:Making connection to server]	[Remarks:Successful connection to server: S3]
[Date: 2018-06-29 14:45:45]	[UserID:10/660]	[IP:10.128.12.210]	[Browser:Chrome - 67.0.3396.99]	[Action:GetGSTModules 10/660,1]	[Remarks:Successful filter row count: 5]
[Date: 2018-06-29 14:45:45]	[UserID:10/660]	[IP:10.128.12.210]	[Browser:Chrome - 67.0.3396.99]	[Action:Closing mssql connection]	[Remarks:Success]
[Date: 2018-06-29 14:51:45]	[UserID:10/660]	[IP:10.128.12.210]	[Browser:Chrome - 67.0.3396.99]	[Action:Making connection to server]	[Remarks:Successful connection to server: S3]
[Date: 2018-06-29 14:51:45]	[UserID:10/660]	[IP:10.128.12.210]	[Browser:Chrome - 67.0.3396.99]	[Action:GetGSTModules 10/660,1]	[Remarks:Successful filter row count: 5]
[Date: 2018-06-29 14:51:45]	[UserID:10/660]	[IP:10.128.12.210]	[Browser:Chrome - 67.0.3396.99]	[Action:Closing mssql connection]	[Remarks:Success]
[Date: 2018-06-29 15:12:06]	[UserID:]	[IP:10.128.12.113]	[Browser:Chrome - 67.0.3396.99]	[Action:Making connection to server]	[Remarks:Successful connection to server: S3]
[Date: 2018-06-29 15:12:06]	[UserID:]	[IP:10.128.12.113]	[Browser:Chrome - 67.0.3396.99]	[Action:GetProgramList ]	[Remarks:"no data"]
[Date: 2018-06-29 15:26:13]	[UserID:]	[IP:10.128.80.157]	[Browser:Chrome - 67.0.3396.99]	[Action:Making connection to server]	[Remarks:Successful connection to server: S3]
[Date: 2018-06-29 15:26:13]	[UserID:]	[IP:10.128.80.157]	[Browser:Chrome - 67.0.3396.99]	[Action:GetProgramList ]	[Remarks:"no data"]
[Date: 2018-06-29 15:31:32]	[UserID:10/660]	[IP:10.128.12.210]	[Browser:Chrome - 67.0.3396.99]	[Action:Making connection to server]	[Remarks:Successful connection to server: S3]
[Date: 2018-06-29 15:31:32]	[UserID:10/660]	[IP:10.128.12.210]	[Browser:Chrome - 67.0.3396.99]	[Action:GetGSTModules 10/660,1]	[Remarks:Successful filter row count: 5]
[Date: 2018-06-29 15:31:32]	[UserID:10/660]	[IP:10.128.12.210]	[Browser:Chrome - 67.0.3396.99]	[Action:Closing mssql connection]	[Remarks:Success]
[Date: 2018-06-29 15:31:56]	[UserID:]	[IP:10.128.12.210]	[Browser:Chrome - 67.0.3396.99]	[Action:Making connection to server]	[Remarks:Successful connection to server: S3]
[Date: 2018-06-29 15:31:56]	[UserID:]	[IP:10.128.12.210]	[Browser:Chrome - 67.0.3396.99]	[Action:GetProgramList ]	[Remarks:"no data"]
[Date: 2018-06-29 15:34:45]	[UserID:]	[IP:10.128.12.210]	[Browser:Chrome - 67.0.3396.99]	[Action:Making connection to server]	[Remarks:Successful connection to server: S3]
[Date: 2018-06-29 15:34:46]	[UserID:]	[IP:10.128.12.210]	[Browser:Chrome - 67.0.3396.99]	[Action:GetProgramList ]	[Remarks:"no data"]
[Date: 2018-06-29 15:34:58]	[UserID:10/660]	[IP:10.128.12.210]	[Browser:Chrome - 67.0.3396.99]	[Action:Making connection to server]	[Remarks:Successful connection to server: S3]
[Date: 2018-06-29 15:34:58]	[UserID:10/660]	[IP:10.128.12.210]	[Browser:Chrome - 67.0.3396.99]	[Action:User 10/660]	[Remarks:Success]
[Date: 2018-06-29 15:34:58]	[UserID:10/660]	[IP:10.128.12.210]	[Browser:Chrome - 67.0.3396.99]	[Action:Filtering User : MasterData Username : 10/660]	[Remarks:Successful filter row count: 0]
[Date: 2018-06-29 15:34:58]	[UserID:10/660]	[IP:10.128.12.210]	[Browser:Chrome - 67.0.3396.99]	[Action:Filtering User : MasterData Username : 10/660]	[Remarks:Successful filter row count: 0]
[Date: 2018-06-29 15:34:58]	[UserID:10/660]	[IP:10.128.12.210]	[Browser:Chrome - 67.0.3396.99]	[Action:Filtering User : MasterData Username : 10/660]	[Remarks:Success]
[Date: 2018-06-29 15:34:58]	[UserID:10/660]	[IP:10.128.12.210]	[Browser:Chrome - 67.0.3396.99]	[Action:Closing mssql connection]	[Remarks:Success]
[Date: 2018-06-29 15:34:58]	[UserID:10/660]	[IP:10.128.12.210]	[Browser:Chrome - 67.0.3396.99]	[Action:Making connection to server]	[Remarks:Successful connection to server: S3]
[Date: 2018-06-29 15:34:58]	[UserID:10/660]	[IP:10.128.12.210]	[Browser:Chrome - 67.0.3396.99]	[Action:GetProgramList 10/660]	[Remarks:[{"ID":"1","ProgramIndex":"GST","ProgramName":"GST"}]]
[Date: 2018-06-29 15:34:58]	[UserID:10/660]	[IP:10.128.12.210]	[Browser:Chrome - 67.0.3396.99]	[Action:Making connection to server]	[Remarks:Successful connection to server: S3]
[Date: 2018-06-29 15:34:58]	[UserID:10/660]	[IP:10.128.12.210]	[Browser:Chrome - 67.0.3396.99]	[Action:GetProgramList 10/660]	[Remarks:[{"ID":"1","ProgramIndex":"GST","ProgramName":"GST"}]]
[Date: 2018-06-29 15:34:58]	[UserID:10/660]	[IP:10.128.12.210]	[Browser:Chrome - 67.0.3396.99]	[Action:Making connection to server]	[Remarks:Successful connection to server: S3]
[Date: 2018-06-29 15:34:58]	[UserID:10/660]	[IP:10.128.12.210]	[Browser:Chrome - 67.0.3396.99]	[Action:Filtering User : MasterData Username : 10/660]	[Remarks:Successful filter row count: 1]
[Date: 2018-06-29 15:34:59]	[UserID:10/660]	[IP:10.128.12.210]	[Browser:Chrome - 67.0.3396.99]	[Action:Making connection to server]	[Remarks:Successful connection to server: S3]
[Date: 2018-06-29 15:34:59]	[UserID:10/660]	[IP:10.128.12.210]	[Browser:Chrome - 67.0.3396.99]	[Action:GetGSTModules 10/660,1]	[Remarks:Successful filter row count: 5]
[Date: 2018-06-29 15:34:59]	[UserID:10/660]	[IP:10.128.12.210]	[Browser:Chrome - 67.0.3396.99]	[Action:Closing mssql connection]	[Remarks:Success]
[Date: 2018-06-29 15:37:40]	[UserID:]	[IP:10.128.80.157]	[Browser:Chrome - 67.0.3396.99]	[Action:Making connection to server]	[Remarks:Successful connection to server: S3]
[Date: 2018-06-29 15:37:42]	[UserID:]	[IP:10.128.80.157]	[Browser:Chrome - 67.0.3396.99]	[Action:GetProgramList ]	[Remarks:"no data"]
[Date: 2018-06-29 15:37:48]	[UserID:dev/lcolocado]	[IP:10.128.80.157]	[Browser:Chrome - 67.0.3396.99]	[Action:Making connection to server]	[Remarks:Successful connection to server: S3]
[Date: 2018-06-29 15:37:48]	[UserID:dev/lcolocado]	[IP:10.128.80.157]	[Browser:Chrome - 67.0.3396.99]	[Action:User dev/lcolocado]	[Remarks:Success]
[Date: 2018-06-29 15:37:48]	[UserID:dev/lcolocado]	[IP:10.128.80.157]	[Browser:Chrome - 67.0.3396.99]	[Action:Filtering User : MasterData Username : dev/lcolocado]	[Remarks:Successful filter row count: 0]
[Date: 2018-06-29 15:37:48]	[UserID:dev/lcolocado]	[IP:10.128.80.157]	[Browser:Chrome - 67.0.3396.99]	[Action:Filtering User : MasterData Username : dev/lcolocado]	[Remarks:Successful filter row count: 0]
[Date: 2018-06-29 15:37:48]	[UserID:dev/lcolocado]	[IP:10.128.80.157]	[Browser:Chrome - 67.0.3396.99]	[Action:Filtering User : MasterData Username : dev/lcolocado]	[Remarks:Success]
[Date: 2018-06-29 15:37:48]	[UserID:dev/lcolocado]	[IP:10.128.80.157]	[Browser:Chrome - 67.0.3396.99]	[Action:Closing mssql connection]	[Remarks:Success]
[Date: 2018-06-29 15:37:50]	[UserID:dev/lcolocado]	[IP:10.128.80.157]	[Browser:Chrome - 67.0.3396.99]	[Action:Making connection to server]	[Remarks:Successful connection to server: S3]
[Date: 2018-06-29 15:37:50]	[UserID:dev/lcolocado]	[IP:10.128.80.157]	[Browser:Chrome - 67.0.3396.99]	[Action:GetProgramList dev/lcolocado]	[Remarks:[{"ID":"1","ProgramIndex":"GST","ProgramName":"GST"},{"ID":"3","ProgramIndex":"PRD","ProgramName":"PRD"}]]
[Date: 2018-06-29 15:37:50]	[UserID:dev/lcolocado]	[IP:10.128.80.157]	[Browser:Chrome - 67.0.3396.99]	[Action:Making connection to server]	[Remarks:Successful connection to server: S3]
[Date: 2018-06-29 15:37:50]	[UserID:dev/lcolocado]	[IP:10.128.80.157]	[Browser:Chrome - 67.0.3396.99]	[Action:GetProgramList dev/lcolocado]	[Remarks:[{"ID":"1","ProgramIndex":"GST","ProgramName":"GST"},{"ID":"3","ProgramIndex":"PRD","ProgramName":"PRD"}]]
[Date: 2018-06-29 15:37:50]	[UserID:dev/lcolocado]	[IP:10.128.80.157]	[Browser:Chrome - 67.0.3396.99]	[Action:Making connection to server]	[Remarks:Successful connection to server: S3]
[Date: 2018-06-29 15:37:50]	[UserID:dev/lcolocado]	[IP:10.128.80.157]	[Browser:Chrome - 67.0.3396.99]	[Action:Filtering User : MasterData Username : dev/lcolocado]	[Remarks:Successful filter row count: 1]
[Date: 2018-06-29 15:37:53]	[UserID:dev/lcolocado]	[IP:10.128.80.157]	[Browser:Chrome - 67.0.3396.99]	[Action:Making connection to server]	[Remarks:Successful connection to server: S3]
[Date: 2018-06-29 15:37:53]	[UserID:dev/lcolocado]	[IP:10.128.80.157]	[Browser:Chrome - 67.0.3396.99]	[Action:GetGSTModules dev/lcolocado,1]	[Remarks:Successful filter row count: 8]
[Date: 2018-06-29 15:37:53]	[UserID:dev/lcolocado]	[IP:10.128.80.157]	[Browser:Chrome - 67.0.3396.99]	[Action:Closing mssql connection]	[Remarks:Success]
[Date: 2018-06-29 15:51:19]	[UserID:dev/lcolocado]	[IP:10.128.80.157]	[Browser:Chrome - 67.0.3396.99]	[Action:Making connection to server]	[Remarks:Successful connection to server: S3]
[Date: 2018-06-29 15:51:19]	[UserID:dev/lcolocado]	[IP:10.128.80.157]	[Browser:Chrome - 67.0.3396.99]	[Action:GetGSTModules dev/lcolocado,1]	[Remarks:Successful filter row count: 8]
[Date: 2018-06-29 15:51:19]	[UserID:dev/lcolocado]	[IP:10.128.80.157]	[Browser:Chrome - 67.0.3396.99]	[Action:Closing mssql connection]	[Remarks:Success]
[Date: 2018-06-29 15:57:58]	[UserID:10/660]	[IP:10.128.12.210]	[Browser:Chrome - 67.0.3396.99]	[Action:Making connection to server]	[Remarks:Successful connection to server: S3]
[Date: 2018-06-29 15:57:58]	[UserID:10/660]	[IP:10.128.12.210]	[Browser:Chrome - 67.0.3396.99]	[Action:GetProgramList 10/660]	[Remarks:[{"ID":"1","ProgramIndex":"GST","ProgramName":"GST"}]]
[Date: 2018-06-29 15:57:58]	[UserID:10/660]	[IP:10.128.12.210]	[Browser:Chrome - 67.0.3396.99]	[Action:Making connection to server]	[Remarks:Successful connection to server: S3]
[Date: 2018-06-29 15:57:58]	[UserID:10/660]	[IP:10.128.12.210]	[Browser:Chrome - 67.0.3396.99]	[Action:GetProgramList 10/660]	[Remarks:[{"ID":"1","ProgramIndex":"GST","ProgramName":"GST"}]]
[Date: 2018-06-29 15:57:58]	[UserID:10/660]	[IP:10.128.12.210]	[Browser:Chrome - 67.0.3396.99]	[Action:Making connection to server]	[Remarks:Successful connection to server: S3]
[Date: 2018-06-29 15:57:58]	[UserID:10/660]	[IP:10.128.12.210]	[Browser:Chrome - 67.0.3396.99]	[Action:Filtering User : MasterData Username : 10/660]	[Remarks:Successful filter row count: 1]
[Date: 2018-06-29 15:57:59]	[UserID:10/660]	[IP:10.128.12.210]	[Browser:Chrome - 67.0.3396.99]	[Action:Making connection to server]	[Remarks:Successful connection to server: S3]
[Date: 2018-06-29 15:57:59]	[UserID:10/660]	[IP:10.128.12.210]	[Browser:Chrome - 67.0.3396.99]	[Action:GetGSTModules 10/660,1]	[Remarks:Successful filter row count: 5]
[Date: 2018-06-29 15:57:59]	[UserID:10/660]	[IP:10.128.12.210]	[Browser:Chrome - 67.0.3396.99]	[Action:Closing mssql connection]	[Remarks:Success]
[Date: 2018-06-29 16:20:57]	[UserID:06/343]	[IP:10.128.12.113]	[Browser:Chrome - 67.0.3396.99]	[Action:Making connection to server]	[Remarks:Successful connection to server: S3]
[Date: 2018-06-29 16:20:57]	[UserID:06/343]	[IP:10.128.12.113]	[Browser:Chrome - 67.0.3396.99]	[Action:User 06/343]	[Remarks:Success]
[Date: 2018-06-29 16:20:58]	[UserID:06/343]	[IP:10.128.12.113]	[Browser:Chrome - 67.0.3396.99]	[Action:Filtering User : MasterData Username : 06/343]	[Remarks:Successful filter row count: 0]
[Date: 2018-06-29 16:20:58]	[UserID:06/343]	[IP:10.128.12.113]	[Browser:Chrome - 67.0.3396.99]	[Action:Filtering User : MasterData Username : 06/343]	[Remarks:Successful filter row count: 0]
[Date: 2018-06-29 16:20:58]	[UserID:06/343]	[IP:10.128.12.113]	[Browser:Chrome - 67.0.3396.99]	[Action:Filtering User : MasterData Username : 06/343]	[Remarks:Success]
[Date: 2018-06-29 16:20:58]	[UserID:06/343]	[IP:10.128.12.113]	[Browser:Chrome - 67.0.3396.99]	[Action:Closing mssql connection]	[Remarks:Success]
[Date: 2018-06-29 16:20:58]	[UserID:06/343]	[IP:10.128.12.113]	[Browser:Chrome - 67.0.3396.99]	[Action:Making connection to server]	[Remarks:Successful connection to server: S3]
[Date: 2018-06-29 16:20:58]	[UserID:06/343]	[IP:10.128.12.113]	[Browser:Chrome - 67.0.3396.99]	[Action:GetProgramList 06/343]	[Remarks:[{"ID":"1","ProgramIndex":"GST","ProgramName":"GST"}]]
[Date: 2018-06-29 16:20:58]	[UserID:06/343]	[IP:10.128.12.113]	[Browser:Chrome - 67.0.3396.99]	[Action:Making connection to server]	[Remarks:Successful connection to server: S3]
[Date: 2018-06-29 16:20:58]	[UserID:06/343]	[IP:10.128.12.113]	[Browser:Chrome - 67.0.3396.99]	[Action:GetProgramList 06/343]	[Remarks:[{"ID":"1","ProgramIndex":"GST","ProgramName":"GST"}]]
[Date: 2018-06-29 16:20:58]	[UserID:06/343]	[IP:10.128.12.113]	[Browser:Chrome - 67.0.3396.99]	[Action:Making connection to server]	[Remarks:Successful connection to server: S3]
[Date: 2018-06-29 16:20:58]	[UserID:06/343]	[IP:10.128.12.113]	[Browser:Chrome - 67.0.3396.99]	[Action:Filtering User : MasterData Username : 06/343]	[Remarks:Successful filter row count: 1]
[Date: 2018-06-29 16:20:58]	[UserID:06/343]	[IP:10.128.12.113]	[Browser:Chrome - 67.0.3396.99]	[Action:Making connection to server]	[Remarks:Successful connection to server: S3]
[Date: 2018-06-29 16:20:58]	[UserID:06/343]	[IP:10.128.12.113]	[Browser:Chrome - 67.0.3396.99]	[Action:GetGSTModules 06/343,1]	[Remarks:Successful filter row count: 6]
[Date: 2018-06-29 16:20:58]	[UserID:06/343]	[IP:10.128.12.113]	[Browser:Chrome - 67.0.3396.99]	[Action:Closing mssql connection]	[Remarks:Success]
[Date: 2018-06-29 16:24:00]	[UserID:06/343]	[IP:10.128.12.113]	[Browser:Chrome - 67.0.3396.99]	[Action:Making connection to server]	[Remarks:Successful connection to server: S3]
[Date: 2018-06-29 16:24:00]	[UserID:06/343]	[IP:10.128.12.113]	[Browser:Chrome - 67.0.3396.99]	[Action:GetGSTModules 06/343,1]	[Remarks:Successful filter row count: 6]
[Date: 2018-06-29 16:24:00]	[UserID:06/343]	[IP:10.128.12.113]	[Browser:Chrome - 67.0.3396.99]	[Action:Closing mssql connection]	[Remarks:Success]
[Date: 2018-06-29 16:25:52]	[UserID:]	[IP:10.128.12.210]	[Browser:Chrome - 67.0.3396.99]	[Action:Making connection to server]	[Remarks:Successful connection to server: S3]
[Date: 2018-06-29 16:25:52]	[UserID:]	[IP:10.128.12.210]	[Browser:Chrome - 67.0.3396.99]	[Action:GetProgramList ]	[Remarks:"no data"]
[Date: 2018-06-29 16:26:00]	[UserID:10/660]	[IP:10.128.12.210]	[Browser:Chrome - 67.0.3396.99]	[Action:Making connection to server]	[Remarks:Successful connection to server: S3]
[Date: 2018-06-29 16:26:00]	[UserID:10/660]	[IP:10.128.12.210]	[Browser:Chrome - 67.0.3396.99]	[Action:User 10/660]	[Remarks:Success]
[Date: 2018-06-29 16:26:00]	[UserID:10/660]	[IP:10.128.12.210]	[Browser:Chrome - 67.0.3396.99]	[Action:Filtering User : MasterData Username : 10/660]	[Remarks:Successful filter row count: 0]
[Date: 2018-06-29 16:26:00]	[UserID:10/660]	[IP:10.128.12.210]	[Browser:Chrome - 67.0.3396.99]	[Action:Filtering User : MasterData Username : 10/660]	[Remarks:Successful filter row count: 0]
[Date: 2018-06-29 16:26:00]	[UserID:10/660]	[IP:10.128.12.210]	[Browser:Chrome - 67.0.3396.99]	[Action:Filtering User : MasterData Username : 10/660]	[Remarks:Success]
[Date: 2018-06-29 16:26:00]	[UserID:10/660]	[IP:10.128.12.210]	[Browser:Chrome - 67.0.3396.99]	[Action:Closing mssql connection]	[Remarks:Success]
[Date: 2018-06-29 16:26:00]	[UserID:10/660]	[IP:10.128.12.210]	[Browser:Chrome - 67.0.3396.99]	[Action:Making connection to server]	[Remarks:Successful connection to server: S3]
[Date: 2018-06-29 16:26:00]	[UserID:10/660]	[IP:10.128.12.210]	[Browser:Chrome - 67.0.3396.99]	[Action:GetProgramList 10/660]	[Remarks:[{"ID":"1","ProgramIndex":"GST","ProgramName":"GST"}]]
[Date: 2018-06-29 16:26:00]	[UserID:10/660]	[IP:10.128.12.210]	[Browser:Chrome - 67.0.3396.99]	[Action:Making connection to server]	[Remarks:Successful connection to server: S3]
[Date: 2018-06-29 16:26:00]	[UserID:10/660]	[IP:10.128.12.210]	[Browser:Chrome - 67.0.3396.99]	[Action:GetProgramList 10/660]	[Remarks:[{"ID":"1","ProgramIndex":"GST","ProgramName":"GST"}]]
[Date: 2018-06-29 16:26:00]	[UserID:10/660]	[IP:10.128.12.210]	[Browser:Chrome - 67.0.3396.99]	[Action:Making connection to server]	[Remarks:Successful connection to server: S3]
[Date: 2018-06-29 16:26:00]	[UserID:10/660]	[IP:10.128.12.210]	[Browser:Chrome - 67.0.3396.99]	[Action:Filtering User : MasterData Username : 10/660]	[Remarks:Successful filter row count: 1]
[Date: 2018-06-29 16:26:01]	[UserID:10/660]	[IP:10.128.12.210]	[Browser:Chrome - 67.0.3396.99]	[Action:Making connection to server]	[Remarks:Successful connection to server: S3]
[Date: 2018-06-29 16:26:01]	[UserID:10/660]	[IP:10.128.12.210]	[Browser:Chrome - 67.0.3396.99]	[Action:GetGSTModules 10/660,1]	[Remarks:Successful filter row count: 5]
[Date: 2018-06-29 16:26:01]	[UserID:10/660]	[IP:10.128.12.210]	[Browser:Chrome - 67.0.3396.99]	[Action:Closing mssql connection]	[Remarks:Success]
[Date: 2018-06-29 16:27:34]	[UserID:10/660]	[IP:10.128.12.210]	[Browser:Chrome - 67.0.3396.99]	[Action:Making connection to server]	[Remarks:Successful connection to server: S3]
[Date: 2018-06-29 16:27:34]	[UserID:10/660]	[IP:10.128.12.210]	[Browser:Chrome - 67.0.3396.99]	[Action:GetGSTModules 10/660,1]	[Remarks:Successful filter row count: 5]
[Date: 2018-06-29 16:27:34]	[UserID:10/660]	[IP:10.128.12.210]	[Browser:Chrome - 67.0.3396.99]	[Action:Closing mssql connection]	[Remarks:Success]
[Date: 2018-06-29 17:55:16]	[UserID:10/660]	[IP:10.128.12.210]	[Browser:Chrome - 67.0.3396.99]	[Action:Making connection to server]	[Remarks:Successful connection to server: S3]
[Date: 2018-06-29 17:55:16]	[UserID:10/660]	[IP:10.128.12.210]	[Browser:Chrome - 67.0.3396.99]	[Action:GetGSTModules 10/660,1]	[Remarks:Successful filter row count: 5]
[Date: 2018-06-29 17:55:16]	[UserID:10/660]	[IP:10.128.12.210]	[Browser:Chrome - 67.0.3396.99]	[Action:Closing mssql connection]	[Remarks:Success]
[Date: 2018-06-29 17:55:50]	[UserID:]	[IP:10.128.12.210]	[Browser:Chrome - 67.0.3396.99]	[Action:Making connection to server]	[Remarks:Successful connection to server: S3]
[Date: 2018-06-29 17:55:50]	[UserID:]	[IP:10.128.12.210]	[Browser:Chrome - 67.0.3396.99]	[Action:GetProgramList ]	[Remarks:"no data"]
