[Date: 2018-05-30 08:04:01]	[UserID:]	[IP:10.128.12.113]	[Browser:Chrome - 66.0.3359.181]	[Action:Making connection to server]	[Remarks:Successful connection to server: S3]
[Date: 2018-05-30 08:04:01]	[UserID:]	[IP:10.128.12.113]	[Browser:Chrome - 66.0.3359.181]	[Action:GetProgramList ]	[Remarks:"no data"]
[Date: 2018-05-30 08:04:07]	[UserID:06/343]	[IP:10.128.12.113]	[Browser:Chrome - 66.0.3359.181]	[Action:Making connection to server]	[Remarks:Successful connection to server: S3]
[Date: 2018-05-30 08:04:07]	[UserID:06/343]	[IP:10.128.12.113]	[Browser:Chrome - 66.0.3359.181]	[Action:User 06/343]	[Remarks:Success]
[Date: 2018-05-30 08:04:07]	[UserID:06/343]	[IP:10.128.12.113]	[Browser:Chrome - 66.0.3359.181]	[Action:Filtering User : MasterData Username : 06/343]	[Remarks:Successful filter row count: 0]
[Date: 2018-05-30 08:04:07]	[UserID:06/343]	[IP:10.128.12.113]	[Browser:Chrome - 66.0.3359.181]	[Action:Filtering User : MasterData Username : 06/343]	[Remarks:Successful filter row count: 0]
[Date: 2018-05-30 08:04:07]	[UserID:06/343]	[IP:10.128.12.113]	[Browser:Chrome - 66.0.3359.181]	[Action:Filtering User : MasterData Username : 06/343]	[Remarks:Success]
[Date: 2018-05-30 08:04:07]	[UserID:06/343]	[IP:10.128.12.113]	[Browser:Chrome - 66.0.3359.181]	[Action:Closing mssql connection]	[Remarks:Success]
[Date: 2018-05-30 08:04:07]	[UserID:06/343]	[IP:10.128.12.113]	[Browser:Chrome - 66.0.3359.181]	[Action:Making connection to server]	[Remarks:Successful connection to server: S3]
[Date: 2018-05-30 08:04:07]	[UserID:06/343]	[IP:10.128.12.113]	[Browser:Chrome - 66.0.3359.181]	[Action:GetProgramList 06/343]	[Remarks:[{"ID":"1","ProgramIndex":"GST","ProgramName":"GST"}]]
[Date: 2018-05-30 08:04:07]	[UserID:06/343]	[IP:10.128.12.113]	[Browser:Chrome - 66.0.3359.181]	[Action:Making connection to server]	[Remarks:Successful connection to server: S3]
[Date: 2018-05-30 08:04:07]	[UserID:06/343]	[IP:10.128.12.113]	[Browser:Chrome - 66.0.3359.181]	[Action:GetProgramList 06/343]	[Remarks:[{"ID":"1","ProgramIndex":"GST","ProgramName":"GST"}]]
[Date: 2018-05-30 08:04:07]	[UserID:06/343]	[IP:10.128.12.113]	[Browser:Chrome - 66.0.3359.181]	[Action:Making connection to server]	[Remarks:Successful connection to server: S3]
[Date: 2018-05-30 08:04:07]	[UserID:06/343]	[IP:10.128.12.113]	[Browser:Chrome - 66.0.3359.181]	[Action:Filtering User : MasterData Username : 06/343]	[Remarks:Successful filter row count: 1]
[Date: 2018-05-30 08:04:07]	[UserID:06/343]	[IP:10.128.12.113]	[Browser:Chrome - 66.0.3359.181]	[Action:Making connection to server]	[Remarks:Successful connection to server: S3]
[Date: 2018-05-30 08:04:07]	[UserID:06/343]	[IP:10.128.12.113]	[Browser:Chrome - 66.0.3359.181]	[Action:GetGSTModules 06/343,1]	[Remarks:Successful filter row count: 6]
[Date: 2018-05-30 08:04:07]	[UserID:06/343]	[IP:10.128.12.113]	[Browser:Chrome - 66.0.3359.181]	[Action:Closing mssql connection]	[Remarks:Success]
[Date: 2018-05-30 12:00:59]	[UserID:]	[IP:10.128.80.157]	[Browser:Chrome - 66.0.3359.181]	[Action:Making connection to server]	[Remarks:Successful connection to server: S3]
[Date: 2018-05-30 12:00:59]	[UserID:]	[IP:10.128.80.157]	[Browser:Chrome - 66.0.3359.181]	[Action:GetProgramList ]	[Remarks:"no data"]
[Date: 2018-05-30 12:01:05]	[UserID:dev/lcolocado]	[IP:10.128.80.157]	[Browser:Chrome - 66.0.3359.181]	[Action:Making connection to server]	[Remarks:Successful connection to server: S3]
[Date: 2018-05-30 12:01:05]	[UserID:dev/lcolocado]	[IP:10.128.80.157]	[Browser:Chrome - 66.0.3359.181]	[Action:LogMeIn dev/lcolocado,forgetmento]	[Remarks:Failed]
[Date: 2018-05-30 12:01:05]	[UserID:dev/lcolocado]	[IP:10.128.80.157]	[Browser:Chrome - 66.0.3359.181]	[Action:Closing mssql connection]	[Remarks:Success]
[Date: 2018-05-30 12:01:09]	[UserID:dev/lcolocado]	[IP:10.128.80.157]	[Browser:Chrome - 66.0.3359.181]	[Action:Making connection to server]	[Remarks:Successful connection to server: S3]
[Date: 2018-05-30 12:01:09]	[UserID:dev/lcolocado]	[IP:10.128.80.157]	[Browser:Chrome - 66.0.3359.181]	[Action:User dev/lcolocado]	[Remarks:Success]
[Date: 2018-05-30 12:01:09]	[UserID:dev/lcolocado]	[IP:10.128.80.157]	[Browser:Chrome - 66.0.3359.181]	[Action:Filtering User : MasterData Username : dev/lcolocado]	[Remarks:Successful filter row count: 0]
[Date: 2018-05-30 12:01:09]	[UserID:dev/lcolocado]	[IP:10.128.80.157]	[Browser:Chrome - 66.0.3359.181]	[Action:Filtering User : MasterData Username : dev/lcolocado]	[Remarks:Successful filter row count: 0]
[Date: 2018-05-30 12:01:09]	[UserID:dev/lcolocado]	[IP:10.128.80.157]	[Browser:Chrome - 66.0.3359.181]	[Action:Filtering User : MasterData Username : dev/lcolocado]	[Remarks:Success]
[Date: 2018-05-30 12:01:09]	[UserID:dev/lcolocado]	[IP:10.128.80.157]	[Browser:Chrome - 66.0.3359.181]	[Action:Closing mssql connection]	[Remarks:Success]
[Date: 2018-05-30 12:01:09]	[UserID:]	[IP:10.128.80.157]	[Browser:Chrome - 66.0.3359.181]	[Action:Making connection to server]	[Remarks:Successful connection to server: S3]
[Date: 2018-05-30 12:01:09]	[UserID:]	[IP:10.128.80.157]	[Browser:Chrome - 66.0.3359.181]	[Action:GetProgramList ]	[Remarks:"no data"]
[Date: 2018-05-30 12:01:15]	[UserID:dev/lcolocado]	[IP:10.128.80.157]	[Browser:Chrome - 66.0.3359.181]	[Action:Making connection to server]	[Remarks:Successful connection to server: S3]
[Date: 2018-05-30 12:01:15]	[UserID:dev/lcolocado]	[IP:10.128.80.157]	[Browser:Chrome - 66.0.3359.181]	[Action:User dev/lcolocado]	[Remarks:Success]
[Date: 2018-05-30 12:01:15]	[UserID:dev/lcolocado]	[IP:10.128.80.157]	[Browser:Chrome - 66.0.3359.181]	[Action:Filtering User : MasterData Username : dev/lcolocado]	[Remarks:Successful filter row count: 0]
[Date: 2018-05-30 12:01:15]	[UserID:dev/lcolocado]	[IP:10.128.80.157]	[Browser:Chrome - 66.0.3359.181]	[Action:Filtering User : MasterData Username : dev/lcolocado]	[Remarks:Successful filter row count: 0]
[Date: 2018-05-30 12:01:15]	[UserID:dev/lcolocado]	[IP:10.128.80.157]	[Browser:Chrome - 66.0.3359.181]	[Action:Filtering User : MasterData Username : dev/lcolocado]	[Remarks:Success]
[Date: 2018-05-30 12:01:15]	[UserID:dev/lcolocado]	[IP:10.128.80.157]	[Browser:Chrome - 66.0.3359.181]	[Action:Closing mssql connection]	[Remarks:Success]
[Date: 2018-05-30 12:01:15]	[UserID:dev/lcolocado]	[IP:10.128.80.157]	[Browser:Chrome - 66.0.3359.181]	[Action:Making connection to server]	[Remarks:Successful connection to server: S3]
[Date: 2018-05-30 12:01:15]	[UserID:dev/lcolocado]	[IP:10.128.80.157]	[Browser:Chrome - 66.0.3359.181]	[Action:GetProgramList dev/lcolocado]	[Remarks:[{"ID":"1","ProgramIndex":"GST","ProgramName":"GST"},{"ID":"3","ProgramIndex":"PRD","ProgramName":"PRD"}]]
[Date: 2018-05-30 12:01:15]	[UserID:dev/lcolocado]	[IP:10.128.80.157]	[Browser:Chrome - 66.0.3359.181]	[Action:Making connection to server]	[Remarks:Successful connection to server: S3]
[Date: 2018-05-30 12:01:16]	[UserID:dev/lcolocado]	[IP:10.128.80.157]	[Browser:Chrome - 66.0.3359.181]	[Action:GetProgramList dev/lcolocado]	[Remarks:[{"ID":"1","ProgramIndex":"GST","ProgramName":"GST"},{"ID":"3","ProgramIndex":"PRD","ProgramName":"PRD"}]]
[Date: 2018-05-30 12:01:16]	[UserID:dev/lcolocado]	[IP:10.128.80.157]	[Browser:Chrome - 66.0.3359.181]	[Action:Making connection to server]	[Remarks:Successful connection to server: S3]
[Date: 2018-05-30 12:01:16]	[UserID:dev/lcolocado]	[IP:10.128.80.157]	[Browser:Chrome - 66.0.3359.181]	[Action:Filtering User : MasterData Username : dev/lcolocado]	[Remarks:Successful filter row count: 1]
[Date: 2018-05-30 12:01:19]	[UserID:dev/lcolocado]	[IP:10.128.80.157]	[Browser:Chrome - 66.0.3359.181]	[Action:Making connection to server]	[Remarks:Successful connection to server: S3]
[Date: 2018-05-30 12:01:19]	[UserID:dev/lcolocado]	[IP:10.128.80.157]	[Browser:Chrome - 66.0.3359.181]	[Action:GetGSTModules dev/lcolocado,1]	[Remarks:Successful filter row count: 8]
[Date: 2018-05-30 12:01:19]	[UserID:dev/lcolocado]	[IP:10.128.80.157]	[Browser:Chrome - 66.0.3359.181]	[Action:Closing mssql connection]	[Remarks:Success]
[Date: 2018-05-30 13:49:15]	[UserID:]	[IP:10.128.12.113]	[Browser:Chrome - 66.0.3359.181]	[Action:Making connection to server]	[Remarks:Successful connection to server: S3]
[Date: 2018-05-30 13:49:15]	[UserID:]	[IP:10.128.12.113]	[Browser:Chrome - 66.0.3359.181]	[Action:GetProgramList ]	[Remarks:"no data"]
[Date: 2018-05-30 13:53:53]	[UserID:06/343]	[IP:10.128.12.113]	[Browser:Chrome - 66.0.3359.181]	[Action:Making connection to server]	[Remarks:Successful connection to server: S3]
[Date: 2018-05-30 13:53:53]	[UserID:06/343]	[IP:10.128.12.113]	[Browser:Chrome - 66.0.3359.181]	[Action:User 06/343]	[Remarks:Success]
[Date: 2018-05-30 13:53:53]	[UserID:06/343]	[IP:10.128.12.113]	[Browser:Chrome - 66.0.3359.181]	[Action:Filtering User : MasterData Username : 06/343]	[Remarks:Successful filter row count: 0]
[Date: 2018-05-30 13:53:53]	[UserID:06/343]	[IP:10.128.12.113]	[Browser:Chrome - 66.0.3359.181]	[Action:Filtering User : MasterData Username : 06/343]	[Remarks:Successful filter row count: 0]
[Date: 2018-05-30 13:53:53]	[UserID:06/343]	[IP:10.128.12.113]	[Browser:Chrome - 66.0.3359.181]	[Action:Filtering User : MasterData Username : 06/343]	[Remarks:Success]
[Date: 2018-05-30 13:53:53]	[UserID:06/343]	[IP:10.128.12.113]	[Browser:Chrome - 66.0.3359.181]	[Action:Closing mssql connection]	[Remarks:Success]
[Date: 2018-05-30 13:53:53]	[UserID:06/343]	[IP:10.128.12.113]	[Browser:Chrome - 66.0.3359.181]	[Action:Making connection to server]	[Remarks:Successful connection to server: S3]
[Date: 2018-05-30 13:53:53]	[UserID:06/343]	[IP:10.128.12.113]	[Browser:Chrome - 66.0.3359.181]	[Action:GetProgramList 06/343]	[Remarks:[{"ID":"1","ProgramIndex":"GST","ProgramName":"GST"}]]
[Date: 2018-05-30 13:53:53]	[UserID:06/343]	[IP:10.128.12.113]	[Browser:Chrome - 66.0.3359.181]	[Action:Making connection to server]	[Remarks:Successful connection to server: S3]
[Date: 2018-05-30 13:53:53]	[UserID:06/343]	[IP:10.128.12.113]	[Browser:Chrome - 66.0.3359.181]	[Action:GetProgramList 06/343]	[Remarks:[{"ID":"1","ProgramIndex":"GST","ProgramName":"GST"}]]
[Date: 2018-05-30 13:53:53]	[UserID:06/343]	[IP:10.128.12.113]	[Browser:Chrome - 66.0.3359.181]	[Action:Making connection to server]	[Remarks:Successful connection to server: S3]
[Date: 2018-05-30 13:53:53]	[UserID:06/343]	[IP:10.128.12.113]	[Browser:Chrome - 66.0.3359.181]	[Action:Filtering User : MasterData Username : 06/343]	[Remarks:Successful filter row count: 1]
[Date: 2018-05-30 13:53:54]	[UserID:06/343]	[IP:10.128.12.113]	[Browser:Chrome - 66.0.3359.181]	[Action:Making connection to server]	[Remarks:Successful connection to server: S3]
[Date: 2018-05-30 13:53:54]	[UserID:06/343]	[IP:10.128.12.113]	[Browser:Chrome - 66.0.3359.181]	[Action:GetGSTModules 06/343,1]	[Remarks:Successful filter row count: 6]
[Date: 2018-05-30 13:53:54]	[UserID:06/343]	[IP:10.128.12.113]	[Browser:Chrome - 66.0.3359.181]	[Action:Closing mssql connection]	[Remarks:Success]
[Date: 2018-05-30 14:06:33]	[UserID:06/343]	[IP:10.128.12.113]	[Browser:Chrome - 66.0.3359.181]	[Action:Making connection to server]	[Remarks:Successful connection to server: S3]
[Date: 2018-05-30 14:06:33]	[UserID:06/343]	[IP:10.128.12.113]	[Browser:Chrome - 66.0.3359.181]	[Action:GetGSTModules 06/343,1]	[Remarks:Successful filter row count: 6]
[Date: 2018-05-30 14:06:33]	[UserID:06/343]	[IP:10.128.12.113]	[Browser:Chrome - 66.0.3359.181]	[Action:Closing mssql connection]	[Remarks:Success]
[Date: 2018-05-30 14:14:19]	[UserID:06/343]	[IP:10.128.12.113]	[Browser:Chrome - 66.0.3359.181]	[Action:Making connection to server]	[Remarks:Successful connection to server: S3]
[Date: 2018-05-30 14:14:19]	[UserID:06/343]	[IP:10.128.12.113]	[Browser:Chrome - 66.0.3359.181]	[Action:GetGSTModules 06/343,1]	[Remarks:Successful filter row count: 6]
[Date: 2018-05-30 14:14:19]	[UserID:06/343]	[IP:10.128.12.113]	[Browser:Chrome - 66.0.3359.181]	[Action:Closing mssql connection]	[Remarks:Success]
[Date: 2018-05-30 14:16:08]	[UserID:06/343]	[IP:10.128.12.113]	[Browser:Chrome - 66.0.3359.181]	[Action:Making connection to server]	[Remarks:Successful connection to server: S3]
[Date: 2018-05-30 14:16:08]	[UserID:06/343]	[IP:10.128.12.113]	[Browser:Chrome - 66.0.3359.181]	[Action:GetGSTModules 06/343,1]	[Remarks:Successful filter row count: 6]
[Date: 2018-05-30 14:16:08]	[UserID:06/343]	[IP:10.128.12.113]	[Browser:Chrome - 66.0.3359.181]	[Action:Closing mssql connection]	[Remarks:Success]
[Date: 2018-05-30 14:16:34]	[UserID:06/343]	[IP:10.128.12.113]	[Browser:Chrome - 66.0.3359.181]	[Action:Making connection to server]	[Remarks:Successful connection to server: S3]
[Date: 2018-05-30 14:16:34]	[UserID:06/343]	[IP:10.128.12.113]	[Browser:Chrome - 66.0.3359.181]	[Action:GetGSTModules 06/343,1]	[Remarks:Successful filter row count: 6]
[Date: 2018-05-30 14:16:34]	[UserID:06/343]	[IP:10.128.12.113]	[Browser:Chrome - 66.0.3359.181]	[Action:Closing mssql connection]	[Remarks:Success]
[Date: 2018-05-30 14:27:28]	[UserID:06/343]	[IP:10.128.12.113]	[Browser:Chrome - 66.0.3359.181]	[Action:Making connection to server]	[Remarks:Successful connection to server: S3]
[Date: 2018-05-30 14:27:28]	[UserID:06/343]	[IP:10.128.12.113]	[Browser:Chrome - 66.0.3359.181]	[Action:GetGSTModules 06/343,1]	[Remarks:Successful filter row count: 6]
[Date: 2018-05-30 14:27:28]	[UserID:06/343]	[IP:10.128.12.113]	[Browser:Chrome - 66.0.3359.181]	[Action:Closing mssql connection]	[Remarks:Success]
[Date: 2018-05-30 14:30:31]	[UserID:06/343]	[IP:10.128.12.113]	[Browser:Chrome - 66.0.3359.181]	[Action:Making connection to server]	[Remarks:Successful connection to server: S3]
[Date: 2018-05-30 14:30:31]	[UserID:06/343]	[IP:10.128.12.113]	[Browser:Chrome - 66.0.3359.181]	[Action:GetGSTModules 06/343,1]	[Remarks:Successful filter row count: 6]
[Date: 2018-05-30 14:30:31]	[UserID:06/343]	[IP:10.128.12.113]	[Browser:Chrome - 66.0.3359.181]	[Action:Closing mssql connection]	[Remarks:Success]
[Date: 2018-05-30 19:57:39]	[UserID:]	[IP:10.128.12.210]	[Browser:Chrome - 66.0.3359.181]	[Action:Making connection to server]	[Remarks:Successful connection to server: S3]
[Date: 2018-05-30 19:57:39]	[UserID:]	[IP:10.128.12.210]	[Browser:Chrome - 66.0.3359.181]	[Action:GetProgramList ]	[Remarks:"no data"]
[Date: 2018-05-30 19:57:47]	[UserID:10/660]	[IP:10.128.12.210]	[Browser:Chrome - 66.0.3359.181]	[Action:Making connection to server]	[Remarks:Successful connection to server: S3]
[Date: 2018-05-30 19:57:47]	[UserID:10/660]	[IP:10.128.12.210]	[Browser:Chrome - 66.0.3359.181]	[Action:User 10/660]	[Remarks:Success]
[Date: 2018-05-30 19:57:47]	[UserID:10/660]	[IP:10.128.12.210]	[Browser:Chrome - 66.0.3359.181]	[Action:Filtering User : MasterData Username : 10/660]	[Remarks:Successful filter row count: 0]
[Date: 2018-05-30 19:57:47]	[UserID:10/660]	[IP:10.128.12.210]	[Browser:Chrome - 66.0.3359.181]	[Action:Filtering User : MasterData Username : 10/660]	[Remarks:Successful filter row count: 0]
[Date: 2018-05-30 19:57:47]	[UserID:10/660]	[IP:10.128.12.210]	[Browser:Chrome - 66.0.3359.181]	[Action:Filtering User : MasterData Username : 10/660]	[Remarks:Success]
[Date: 2018-05-30 19:57:47]	[UserID:10/660]	[IP:10.128.12.210]	[Browser:Chrome - 66.0.3359.181]	[Action:Closing mssql connection]	[Remarks:Success]
[Date: 2018-05-30 19:57:47]	[UserID:10/660]	[IP:10.128.12.210]	[Browser:Chrome - 66.0.3359.181]	[Action:Making connection to server]	[Remarks:Successful connection to server: S3]
[Date: 2018-05-30 19:57:47]	[UserID:10/660]	[IP:10.128.12.210]	[Browser:Chrome - 66.0.3359.181]	[Action:GetProgramList 10/660]	[Remarks:[{"ID":"1","ProgramIndex":"GST","ProgramName":"GST"}]]
[Date: 2018-05-30 19:57:47]	[UserID:10/660]	[IP:10.128.12.210]	[Browser:Chrome - 66.0.3359.181]	[Action:Making connection to server]	[Remarks:Successful connection to server: S3]
[Date: 2018-05-30 19:57:47]	[UserID:10/660]	[IP:10.128.12.210]	[Browser:Chrome - 66.0.3359.181]	[Action:GetProgramList 10/660]	[Remarks:[{"ID":"1","ProgramIndex":"GST","ProgramName":"GST"}]]
[Date: 2018-05-30 19:57:47]	[UserID:10/660]	[IP:10.128.12.210]	[Browser:Chrome - 66.0.3359.181]	[Action:Making connection to server]	[Remarks:Successful connection to server: S3]
[Date: 2018-05-30 19:57:47]	[UserID:10/660]	[IP:10.128.12.210]	[Browser:Chrome - 66.0.3359.181]	[Action:Filtering User : MasterData Username : 10/660]	[Remarks:Successful filter row count: 1]
[Date: 2018-05-30 19:57:48]	[UserID:10/660]	[IP:10.128.12.210]	[Browser:Chrome - 66.0.3359.181]	[Action:Making connection to server]	[Remarks:Successful connection to server: S3]
[Date: 2018-05-30 19:57:48]	[UserID:10/660]	[IP:10.128.12.210]	[Browser:Chrome - 66.0.3359.181]	[Action:GetGSTModules 10/660,1]	[Remarks:Successful filter row count: 5]
[Date: 2018-05-30 19:57:48]	[UserID:10/660]	[IP:10.128.12.210]	[Browser:Chrome - 66.0.3359.181]	[Action:Closing mssql connection]	[Remarks:Success]
[Date: 2018-05-30 20:01:18]	[UserID:10/660]	[IP:10.128.12.210]	[Browser:Chrome - 66.0.3359.181]	[Action:Making connection to server]	[Remarks:Successful connection to server: S3]
[Date: 2018-05-30 20:01:18]	[UserID:10/660]	[IP:10.128.12.210]	[Browser:Chrome - 66.0.3359.181]	[Action:GetGSTModules 10/660,1]	[Remarks:Successful filter row count: 5]
[Date: 2018-05-30 20:01:18]	[UserID:10/660]	[IP:10.128.12.210]	[Browser:Chrome - 66.0.3359.181]	[Action:Closing mssql connection]	[Remarks:Success]
[Date: 2018-05-30 20:06:26]	[UserID:10/660]	[IP:10.128.12.210]	[Browser:Chrome - 66.0.3359.181]	[Action:Making connection to server]	[Remarks:Successful connection to server: S3]
[Date: 2018-05-30 20:06:26]	[UserID:10/660]	[IP:10.128.12.210]	[Browser:Chrome - 66.0.3359.181]	[Action:GetGSTModules 10/660,1]	[Remarks:Successful filter row count: 5]
[Date: 2018-05-30 20:06:26]	[UserID:10/660]	[IP:10.128.12.210]	[Browser:Chrome - 66.0.3359.181]	[Action:Closing mssql connection]	[Remarks:Success]
[Date: 2018-05-30 20:06:48]	[UserID:]	[IP:10.128.12.210]	[Browser:Chrome - 66.0.3359.181]	[Action:Making connection to server]	[Remarks:Successful connection to server: S3]
[Date: 2018-05-30 20:06:49]	[UserID:]	[IP:10.128.12.210]	[Browser:Chrome - 66.0.3359.181]	[Action:GetProgramList ]	[Remarks:"no data"]
