[Date: 2018-11-14 08:29:12]	[UserID:]	[IP:10.128.8.171]	[Browser:Chrome - 64.0.3282.140]	[Action:Making connection to server]	[Remarks:Successful connection to server: S3]
[Date: 2018-11-14 08:29:12]	[UserID:]	[IP:10.128.8.171]	[Browser:Chrome - 64.0.3282.140]	[Action:GetProgramList ]	[Remarks:"no data"]
[Date: 2018-11-14 09:17:00]	[UserID:]	[IP:10.128.12.113]	[Browser:Chrome - 70.0.3538.77]	[Action:Making connection to server]	[Remarks:Successful connection to server: S3]
[Date: 2018-11-14 09:17:00]	[UserID:]	[IP:10.128.12.113]	[Browser:Chrome - 70.0.3538.77]	[Action:GetProgramList ]	[Remarks:"no data"]
[Date: 2018-11-14 09:17:03]	[UserID:06/343]	[IP:10.128.12.113]	[Browser:Chrome - 70.0.3538.77]	[Action:Making connection to server]	[Remarks:Successful connection to server: S3]
[Date: 2018-11-14 09:17:03]	[UserID:06/343]	[IP:10.128.12.113]	[Browser:Chrome - 70.0.3538.77]	[Action:User 06/343]	[Remarks:Success]
[Date: 2018-11-14 09:17:03]	[UserID:06/343]	[IP:10.128.12.113]	[Browser:Chrome - 70.0.3538.77]	[Action:Filtering User : MasterData Username : 06/343]	[Remarks:Successful filter row count: 0]
[Date: 2018-11-14 09:17:03]	[UserID:06/343]	[IP:10.128.12.113]	[Browser:Chrome - 70.0.3538.77]	[Action:Filtering User : MasterData Username : 06/343]	[Remarks:Successful filter row count: 0]
[Date: 2018-11-14 09:17:03]	[UserID:06/343]	[IP:10.128.12.113]	[Browser:Chrome - 70.0.3538.77]	[Action:Filtering User : MasterData Username : 06/343]	[Remarks:Success]
[Date: 2018-11-14 09:17:03]	[UserID:06/343]	[IP:10.128.12.113]	[Browser:Chrome - 70.0.3538.77]	[Action:Closing mssql connection]	[Remarks:Success]
[Date: 2018-11-14 09:17:03]	[UserID:06/343]	[IP:10.128.12.113]	[Browser:Chrome - 70.0.3538.77]	[Action:Making connection to server]	[Remarks:Successful connection to server: S3]
[Date: 2018-11-14 09:17:04]	[UserID:06/343]	[IP:10.128.12.113]	[Browser:Chrome - 70.0.3538.77]	[Action:GetProgramList 06/343]	[Remarks:[{"ID":"1","ProgramIndex":"GST","ProgramName":"GST"}]]
[Date: 2018-11-14 09:17:04]	[UserID:06/343]	[IP:10.128.12.113]	[Browser:Chrome - 70.0.3538.77]	[Action:Making connection to server]	[Remarks:Successful connection to server: S3]
[Date: 2018-11-14 09:17:04]	[UserID:06/343]	[IP:10.128.12.113]	[Browser:Chrome - 70.0.3538.77]	[Action:GetProgramList 06/343]	[Remarks:[{"ID":"1","ProgramIndex":"GST","ProgramName":"GST"}]]
[Date: 2018-11-14 09:17:04]	[UserID:06/343]	[IP:10.128.12.113]	[Browser:Chrome - 70.0.3538.77]	[Action:Making connection to server]	[Remarks:Successful connection to server: S3]
[Date: 2018-11-14 09:17:04]	[UserID:06/343]	[IP:10.128.12.113]	[Browser:Chrome - 70.0.3538.77]	[Action:Filtering User : MasterData Username : 06/343]	[Remarks:Successful filter row count: 1]
[Date: 2018-11-14 09:17:04]	[UserID:06/343]	[IP:10.128.12.113]	[Browser:Chrome - 70.0.3538.77]	[Action:Making connection to server]	[Remarks:Successful connection to server: S3]
[Date: 2018-11-14 09:17:04]	[UserID:06/343]	[IP:10.128.12.113]	[Browser:Chrome - 70.0.3538.77]	[Action:GetGSTModules 06/343,1]	[Remarks:Successful filter row count: 6]
[Date: 2018-11-14 09:17:04]	[UserID:06/343]	[IP:10.128.12.113]	[Browser:Chrome - 70.0.3538.77]	[Action:Closing mssql connection]	[Remarks:Success]
[Date: 2018-11-14 09:18:42]	[UserID:06/343]	[IP:10.128.12.113]	[Browser:Chrome - 70.0.3538.77]	[Action:Making connection to server]	[Remarks:Successful connection to server: S3]
[Date: 2018-11-14 09:18:42]	[UserID:06/343]	[IP:10.128.12.113]	[Browser:Chrome - 70.0.3538.77]	[Action:GetGSTModules 06/343,1]	[Remarks:Successful filter row count: 6]
[Date: 2018-11-14 09:18:42]	[UserID:06/343]	[IP:10.128.12.113]	[Browser:Chrome - 70.0.3538.77]	[Action:Closing mssql connection]	[Remarks:Success]
[Date: 2018-11-14 09:26:16]	[UserID:06/343]	[IP:10.128.12.113]	[Browser:Chrome - 70.0.3538.77]	[Action:Making connection to server]	[Remarks:Successful connection to server: S3]
[Date: 2018-11-14 09:26:16]	[UserID:06/343]	[IP:10.128.12.113]	[Browser:Chrome - 70.0.3538.77]	[Action:GetGSTModules 06/343,1]	[Remarks:Successful filter row count: 6]
[Date: 2018-11-14 09:26:16]	[UserID:06/343]	[IP:10.128.12.113]	[Browser:Chrome - 70.0.3538.77]	[Action:Closing mssql connection]	[Remarks:Success]
[Date: 2018-11-14 09:26:53]	[UserID:06/343]	[IP:10.128.12.113]	[Browser:Chrome - 70.0.3538.77]	[Action:Making connection to server]	[Remarks:Successful connection to server: S3]
[Date: 2018-11-14 09:26:53]	[UserID:06/343]	[IP:10.128.12.113]	[Browser:Chrome - 70.0.3538.77]	[Action:GetGSTModules 06/343,1]	[Remarks:Successful filter row count: 6]
[Date: 2018-11-14 09:26:53]	[UserID:06/343]	[IP:10.128.12.113]	[Browser:Chrome - 70.0.3538.77]	[Action:Closing mssql connection]	[Remarks:Success]
[Date: 2018-11-14 09:27:17]	[UserID:06/343]	[IP:10.128.12.113]	[Browser:Chrome - 70.0.3538.77]	[Action:Making connection to server]	[Remarks:Successful connection to server: S3]
[Date: 2018-11-14 09:27:17]	[UserID:06/343]	[IP:10.128.12.113]	[Browser:Chrome - 70.0.3538.77]	[Action:GetGSTModules 06/343,1]	[Remarks:Successful filter row count: 6]
[Date: 2018-11-14 09:27:17]	[UserID:06/343]	[IP:10.128.12.113]	[Browser:Chrome - 70.0.3538.77]	[Action:Closing mssql connection]	[Remarks:Success]
[Date: 2018-11-14 09:53:05]	[UserID:06/343]	[IP:10.128.12.113]	[Browser:Chrome - 70.0.3538.77]	[Action:Making connection to server]	[Remarks:Successful connection to server: S3]
[Date: 2018-11-14 09:53:05]	[UserID:06/343]	[IP:10.128.12.113]	[Browser:Chrome - 70.0.3538.77]	[Action:GetGSTModules 06/343,1]	[Remarks:Successful filter row count: 6]
[Date: 2018-11-14 09:53:05]	[UserID:06/343]	[IP:10.128.12.113]	[Browser:Chrome - 70.0.3538.77]	[Action:Closing mssql connection]	[Remarks:Success]
[Date: 2018-11-14 09:54:22]	[UserID:06/343]	[IP:10.128.12.113]	[Browser:Chrome - 70.0.3538.77]	[Action:Making connection to server]	[Remarks:Successful connection to server: S3]
[Date: 2018-11-14 09:54:22]	[UserID:06/343]	[IP:10.128.12.113]	[Browser:Chrome - 70.0.3538.77]	[Action:GetGSTModules 06/343,1]	[Remarks:Successful filter row count: 6]
[Date: 2018-11-14 09:54:22]	[UserID:06/343]	[IP:10.128.12.113]	[Browser:Chrome - 70.0.3538.77]	[Action:Closing mssql connection]	[Remarks:Success]
[Date: 2018-11-14 09:58:55]	[UserID:06/343]	[IP:10.128.12.113]	[Browser:Chrome - 70.0.3538.77]	[Action:Making connection to server]	[Remarks:Successful connection to server: S3]
[Date: 2018-11-14 09:58:55]	[UserID:06/343]	[IP:10.128.12.113]	[Browser:Chrome - 70.0.3538.77]	[Action:GetGSTModules 06/343,1]	[Remarks:Successful filter row count: 6]
[Date: 2018-11-14 09:58:55]	[UserID:06/343]	[IP:10.128.12.113]	[Browser:Chrome - 70.0.3538.77]	[Action:Closing mssql connection]	[Remarks:Success]
[Date: 2018-11-14 09:59:53]	[UserID:06/343]	[IP:10.128.12.113]	[Browser:Chrome - 70.0.3538.77]	[Action:Making connection to server]	[Remarks:Successful connection to server: S3]
[Date: 2018-11-14 09:59:53]	[UserID:06/343]	[IP:10.128.12.113]	[Browser:Chrome - 70.0.3538.77]	[Action:GetGSTModules 06/343,1]	[Remarks:Successful filter row count: 6]
[Date: 2018-11-14 09:59:53]	[UserID:06/343]	[IP:10.128.12.113]	[Browser:Chrome - 70.0.3538.77]	[Action:Closing mssql connection]	[Remarks:Success]
[Date: 2018-11-14 23:33:15]	[UserID:]	[IP:10.139.5.104]	[Browser:Chrome - 70.0.3538.102]	[Action:Making connection to server]	[Remarks:Successful connection to server: S3]
[Date: 2018-11-14 23:33:15]	[UserID:]	[IP:10.139.5.104]	[Browser:Chrome - 70.0.3538.102]	[Action:GetProgramList ]	[Remarks:"no data"]
