[Date: 2016-10-25 07:43:55]	[UserID:]	[IP:10.10.11.1]	[Browser:Chrome - 53.0.2785.143]	[Action:Making connection to server]	[Remarks:Successful connection to server: S3]
[Date: 2016-10-25 07:43:55]	[UserID:]	[IP:10.10.11.1]	[Browser:Chrome - 53.0.2785.143]	[Action:GetProgramList ]	[Remarks:"no data"]
[Date: 2016-10-25 07:47:11]	[UserID:06/343]	[IP:10.10.11.1]	[Browser:Chrome - 53.0.2785.143]	[Action:Making connection to server]	[Remarks:Successful connection to server: S3]
[Date: 2016-10-25 07:47:11]	[UserID:06/343]	[IP:10.10.11.1]	[Browser:Chrome - 53.0.2785.143]	[Action:User 06/343]	[Remarks:Success]
[Date: 2016-10-25 07:47:11]	[UserID:06/343]	[IP:10.10.11.1]	[Browser:Chrome - 53.0.2785.143]	[Action:Filtering User : MasterData Username : 06/343]	[Remarks:Successful filter row count: 0]
[Date: 2016-10-25 07:47:11]	[UserID:06/343]	[IP:10.10.11.1]	[Browser:Chrome - 53.0.2785.143]	[Action:Filtering User : MasterData Username : 06/343]	[Remarks:Successful filter row count: 0]
[Date: 2016-10-25 07:47:11]	[UserID:06/343]	[IP:10.10.11.1]	[Browser:Chrome - 53.0.2785.143]	[Action:Filtering User : MasterData Username : 06/343]	[Remarks:Success]
[Date: 2016-10-25 07:47:11]	[UserID:06/343]	[IP:10.10.11.1]	[Browser:Chrome - 53.0.2785.143]	[Action:Closing mssql connection]	[Remarks:Success]
[Date: 2016-10-25 07:48:29]	[UserID:06/343]	[IP:10.10.11.1]	[Browser:Chrome - 53.0.2785.143]	[Action:Making connection to server]	[Remarks:Successful connection to server: S3]
[Date: 2016-10-25 07:48:29]	[UserID:06/343]	[IP:10.10.11.1]	[Browser:Chrome - 53.0.2785.143]	[Action:User 06/343]	[Remarks:Username [06/343] exists]
[Date: 2016-10-25 07:48:29]	[UserID:06/343]	[IP:10.10.11.1]	[Browser:Chrome - 53.0.2785.143]	[Action:User 06/343]	[Remarks:Successful filter row count.0]
[Date: 2016-10-25 07:48:29]	[UserID:06/343]	[IP:10.10.11.1]	[Browser:Chrome - 53.0.2785.143]	[Action:User 06/343]	[Remarks:Success]
[Date: 2016-10-25 07:48:29]	[UserID:06/343]	[IP:10.10.11.1]	[Browser:Chrome - 53.0.2785.143]	[Action:Filtering User : MasterData Username : 06/343]	[Remarks:Successful filter row count: 0]
[Date: 2016-10-25 07:48:29]	[UserID:06/343]	[IP:10.10.11.1]	[Browser:Chrome - 53.0.2785.143]	[Action:Filtering User : MasterData Username : 06/343]	[Remarks:Successful filter row count: 0]
[Date: 2016-10-25 07:48:29]	[UserID:06/343]	[IP:10.10.11.1]	[Browser:Chrome - 53.0.2785.143]	[Action:Filtering User : MasterData Username : 06/343]	[Remarks:Success]
[Date: 2016-10-25 07:48:34]	[UserID:06/343]	[IP:10.10.11.1]	[Browser:Chrome - 53.0.2785.143]	[Action:Sending Message. To:sltan@jsilogistics.com, from: sg-alert@jsilogistics.com]	[Remarks:Successful filter row count: 1]
[Date: 2016-10-25 07:48:34]	[UserID:06/343]	[IP:10.10.11.1]	[Browser:Chrome - 53.0.2785.143]	[Action:Closing mssql connection]	[Remarks:Success]
[Date: 2016-10-25 07:48:34]	[UserID:06/343]	[IP:10.10.11.1]	[Browser:Chrome - 53.0.2785.143]	[Action:Making connection to server]	[Remarks:Successful connection to server: S3]
[Date: 2016-10-25 07:48:34]	[UserID:06/343]	[IP:10.10.11.1]	[Browser:Chrome - 53.0.2785.143]	[Action:GetProgramList 06/343]	[Remarks:[{"ID":"1","ProgramIndex":"GST","ProgramName":"GST"}]]
[Date: 2016-10-25 07:48:34]	[UserID:06/343]	[IP:10.10.11.1]	[Browser:Chrome - 53.0.2785.143]	[Action:Making connection to server]	[Remarks:Successful connection to server: S3]
[Date: 2016-10-25 07:48:34]	[UserID:06/343]	[IP:10.10.11.1]	[Browser:Chrome - 53.0.2785.143]	[Action:GetProgramList 06/343]	[Remarks:[{"ID":"1","ProgramIndex":"GST","ProgramName":"GST"}]]
[Date: 2016-10-25 07:48:34]	[UserID:06/343]	[IP:10.10.11.1]	[Browser:Chrome - 53.0.2785.143]	[Action:Making connection to server]	[Remarks:Successful connection to server: S3]
[Date: 2016-10-25 07:48:34]	[UserID:06/343]	[IP:10.10.11.1]	[Browser:Chrome - 53.0.2785.143]	[Action:Filtering User : MasterData Username : 06/343]	[Remarks:Successful filter row count: 1]
[Date: 2016-10-25 07:48:35]	[UserID:06/343]	[IP:10.10.11.1]	[Browser:Chrome - 53.0.2785.143]	[Action:Making connection to server]	[Remarks:Successful connection to server: S3]
[Date: 2016-10-25 07:48:35]	[UserID:06/343]	[IP:10.10.11.1]	[Browser:Chrome - 53.0.2785.143]	[Action:GetGSTModules 06/343,1]	[Remarks:Successful filter row count: 5]
[Date: 2016-10-25 07:48:35]	[UserID:06/343]	[IP:10.10.11.1]	[Browser:Chrome - 53.0.2785.143]	[Action:Closing mssql connection]	[Remarks:Success]
[Date: 2016-10-25 07:50:45]	[UserID:06/343]	[IP:10.10.11.1]	[Browser:Chrome - 53.0.2785.143]	[Action:Making connection to server]	[Remarks:Successful connection to server: S3]
[Date: 2016-10-25 07:50:45]	[UserID:06/343]	[IP:10.10.11.1]	[Browser:Chrome - 53.0.2785.143]	[Action:GetGSTModules 06/343,1]	[Remarks:Successful filter row count: 5]
[Date: 2016-10-25 07:50:45]	[UserID:06/343]	[IP:10.10.11.1]	[Browser:Chrome - 53.0.2785.143]	[Action:Closing mssql connection]	[Remarks:Success]
[Date: 2016-10-25 07:58:38]	[UserID:06/343]	[IP:10.10.11.1]	[Browser:Chrome - 53.0.2785.143]	[Action:Making connection to server]	[Remarks:Successful connection to server: S3]
[Date: 2016-10-25 07:58:41]	[UserID:06/343]	[IP:10.10.11.1]	[Browser:Chrome - 53.0.2785.143]	[Action:GetGSTModules 06/343,1]	[Remarks:Successful filter row count: 5]
[Date: 2016-10-25 07:58:41]	[UserID:06/343]	[IP:10.10.11.1]	[Browser:Chrome - 53.0.2785.143]	[Action:Closing mssql connection]	[Remarks:Success]
[Date: 2016-10-25 10:12:23]	[UserID:]	[IP:10.10.11.1]	[Browser:Chrome - 54.0.2840.71]	[Action:Making connection to server]	[Remarks:Successful connection to server: S3]
[Date: 2016-10-25 10:12:24]	[UserID:]	[IP:10.10.11.1]	[Browser:Chrome - 54.0.2840.71]	[Action:GetProgramList ]	[Remarks:"no data"]
[Date: 2016-10-25 10:12:26]	[UserID:10/660]	[IP:10.10.11.1]	[Browser:Chrome - 54.0.2840.71]	[Action:Making connection to server]	[Remarks:Successful connection to server: S3]
[Date: 2016-10-25 10:12:26]	[UserID:10/660]	[IP:10.10.11.1]	[Browser:Chrome - 54.0.2840.71]	[Action:User 10/660]	[Remarks:Success]
[Date: 2016-10-25 10:12:26]	[UserID:10/660]	[IP:10.10.11.1]	[Browser:Chrome - 54.0.2840.71]	[Action:Filtering User : MasterData Username : 10/660]	[Remarks:Successful filter row count: 0]
[Date: 2016-10-25 10:12:26]	[UserID:10/660]	[IP:10.10.11.1]	[Browser:Chrome - 54.0.2840.71]	[Action:Filtering User : MasterData Username : 10/660]	[Remarks:Successful filter row count: 0]
[Date: 2016-10-25 10:12:26]	[UserID:10/660]	[IP:10.10.11.1]	[Browser:Chrome - 54.0.2840.71]	[Action:Filtering User : MasterData Username : 10/660]	[Remarks:Success]
[Date: 2016-10-25 10:12:26]	[UserID:10/660]	[IP:10.10.11.1]	[Browser:Chrome - 54.0.2840.71]	[Action:Closing mssql connection]	[Remarks:Success]
[Date: 2016-10-25 10:12:26]	[UserID:10/660]	[IP:10.10.11.1]	[Browser:Chrome - 54.0.2840.71]	[Action:Making connection to server]	[Remarks:Successful connection to server: S3]
[Date: 2016-10-25 10:12:26]	[UserID:10/660]	[IP:10.10.11.1]	[Browser:Chrome - 54.0.2840.71]	[Action:GetProgramList 10/660]	[Remarks:[{"ID":"1","ProgramIndex":"GST","ProgramName":"GST"}]]
[Date: 2016-10-25 10:12:26]	[UserID:10/660]	[IP:10.10.11.1]	[Browser:Chrome - 54.0.2840.71]	[Action:Making connection to server]	[Remarks:Successful connection to server: S3]
[Date: 2016-10-25 10:12:26]	[UserID:10/660]	[IP:10.10.11.1]	[Browser:Chrome - 54.0.2840.71]	[Action:GetProgramList 10/660]	[Remarks:[{"ID":"1","ProgramIndex":"GST","ProgramName":"GST"}]]
[Date: 2016-10-25 10:12:26]	[UserID:10/660]	[IP:10.10.11.1]	[Browser:Chrome - 54.0.2840.71]	[Action:Making connection to server]	[Remarks:Successful connection to server: S3]
[Date: 2016-10-25 10:12:26]	[UserID:10/660]	[IP:10.10.11.1]	[Browser:Chrome - 54.0.2840.71]	[Action:Filtering User : MasterData Username : 10/660]	[Remarks:Successful filter row count: 1]
[Date: 2016-10-25 10:12:26]	[UserID:10/660]	[IP:10.10.11.1]	[Browser:Chrome - 54.0.2840.71]	[Action:Making connection to server]	[Remarks:Successful connection to server: S3]
[Date: 2016-10-25 10:12:26]	[UserID:10/660]	[IP:10.10.11.1]	[Browser:Chrome - 54.0.2840.71]	[Action:GetGSTModules 10/660,1]	[Remarks:Successful filter row count: 3]
[Date: 2016-10-25 10:12:26]	[UserID:10/660]	[IP:10.10.11.1]	[Browser:Chrome - 54.0.2840.71]	[Action:Closing mssql connection]	[Remarks:Success]
[Date: 2016-10-25 10:20:29]	[UserID:10/660]	[IP:10.10.11.1]	[Browser:Chrome - 54.0.2840.71]	[Action:Making connection to server]	[Remarks:Successful connection to server: S3]
[Date: 2016-10-25 10:20:29]	[UserID:10/660]	[IP:10.10.11.1]	[Browser:Chrome - 54.0.2840.71]	[Action:GetGSTModules 10/660,1]	[Remarks:Successful filter row count: 3]
[Date: 2016-10-25 10:20:29]	[UserID:10/660]	[IP:10.10.11.1]	[Browser:Chrome - 54.0.2840.71]	[Action:Closing mssql connection]	[Remarks:Success]
[Date: 2016-10-25 10:59:44]	[UserID:10/660]	[IP:10.10.11.1]	[Browser:Chrome - 54.0.2840.71]	[Action:Making connection to server]	[Remarks:Successful connection to server: S3]
[Date: 2016-10-25 10:59:44]	[UserID:10/660]	[IP:10.10.11.1]	[Browser:Chrome - 54.0.2840.71]	[Action:GetGSTModules 10/660,1]	[Remarks:Successful filter row count: 3]
[Date: 2016-10-25 10:59:44]	[UserID:10/660]	[IP:10.10.11.1]	[Browser:Chrome - 54.0.2840.71]	[Action:Closing mssql connection]	[Remarks:Success]
[Date: 2016-10-25 11:00:25]	[UserID:]	[IP:10.10.11.1]	[Browser:Chrome - 54.0.2840.71]	[Action:Making connection to server]	[Remarks:Successful connection to server: S3]
[Date: 2016-10-25 11:00:25]	[UserID:]	[IP:10.10.11.1]	[Browser:Chrome - 54.0.2840.71]	[Action:GetProgramList ]	[Remarks:"no data"]
[Date: 2016-10-25 14:16:42]	[UserID:06/343]	[IP:10.10.11.1]	[Browser:Chrome - 53.0.2785.143]	[Action:Making connection to server]	[Remarks:Successful connection to server: S3]
[Date: 2016-10-25 14:16:42]	[UserID:06/343]	[IP:10.10.11.1]	[Browser:Chrome - 53.0.2785.143]	[Action:GetProgramList 06/343]	[Remarks:[{"ID":"1","ProgramIndex":"GST","ProgramName":"GST"}]]
[Date: 2016-10-25 14:16:42]	[UserID:06/343]	[IP:10.10.11.1]	[Browser:Chrome - 53.0.2785.143]	[Action:Making connection to server]	[Remarks:Successful connection to server: S3]
[Date: 2016-10-25 14:16:42]	[UserID:06/343]	[IP:10.10.11.1]	[Browser:Chrome - 53.0.2785.143]	[Action:GetProgramList 06/343]	[Remarks:[{"ID":"1","ProgramIndex":"GST","ProgramName":"GST"}]]
[Date: 2016-10-25 14:16:42]	[UserID:06/343]	[IP:10.10.11.1]	[Browser:Chrome - 53.0.2785.143]	[Action:Making connection to server]	[Remarks:Successful connection to server: S3]
[Date: 2016-10-25 14:16:42]	[UserID:06/343]	[IP:10.10.11.1]	[Browser:Chrome - 53.0.2785.143]	[Action:Filtering User : MasterData Username : 06/343]	[Remarks:Successful filter row count: 1]
[Date: 2016-10-25 14:16:43]	[UserID:06/343]	[IP:10.10.11.1]	[Browser:Chrome - 53.0.2785.143]	[Action:Making connection to server]	[Remarks:Successful connection to server: S3]
[Date: 2016-10-25 14:16:43]	[UserID:06/343]	[IP:10.10.11.1]	[Browser:Chrome - 53.0.2785.143]	[Action:GetGSTModules 06/343,1]	[Remarks:Successful filter row count: 5]
[Date: 2016-10-25 14:16:43]	[UserID:06/343]	[IP:10.10.11.1]	[Browser:Chrome - 53.0.2785.143]	[Action:Closing mssql connection]	[Remarks:Success]
[Date: 2016-10-25 14:37:19]	[UserID:]	[IP:10.10.11.1]	[Browser:Chrome - 49.0.2623.75]	[Action:Making connection to server]	[Remarks:Successful connection to server: S3]
[Date: 2016-10-25 14:37:19]	[UserID:]	[IP:10.10.11.1]	[Browser:Chrome - 49.0.2623.75]	[Action:GetProgramList ]	[Remarks:"no data"]
[Date: 2016-10-25 15:23:28]	[UserID:06/343]	[IP:10.10.11.1]	[Browser:Chrome - 53.0.2785.143]	[Action:Making connection to server]	[Remarks:Successful connection to server: S3]
[Date: 2016-10-25 15:23:28]	[UserID:06/343]	[IP:10.10.11.1]	[Browser:Chrome - 53.0.2785.143]	[Action:GetGSTModules 06/343,1]	[Remarks:Successful filter row count: 5]
[Date: 2016-10-25 15:23:28]	[UserID:06/343]	[IP:10.10.11.1]	[Browser:Chrome - 53.0.2785.143]	[Action:Closing mssql connection]	[Remarks:Success]
[Date: 2016-10-25 15:45:08]	[UserID:]	[IP:10.10.11.1]	[Browser:Chrome - 53.0.2785.143]	[Action:Making connection to server]	[Remarks:Successful connection to server: S3]
[Date: 2016-10-25 15:45:08]	[UserID:]	[IP:10.10.11.1]	[Browser:Chrome - 53.0.2785.143]	[Action:GetProgramList ]	[Remarks:"no data"]
[Date: 2016-10-25 15:45:36]	[UserID:06/343]	[IP:10.10.11.1]	[Browser:Chrome - 53.0.2785.143]	[Action:Making connection to server]	[Remarks:Successful connection to server: S3]
[Date: 2016-10-25 15:45:37]	[UserID:06/343]	[IP:10.10.11.1]	[Browser:Chrome - 53.0.2785.143]	[Action:GetGSTModules 06/343,1]	[Remarks:Successful filter row count: 5]
[Date: 2016-10-25 15:45:37]	[UserID:06/343]	[IP:10.10.11.1]	[Browser:Chrome - 53.0.2785.143]	[Action:Closing mssql connection]	[Remarks:Success]
[Date: 2016-10-25 15:48:11]	[UserID:14/1082]	[IP:10.10.11.1]	[Browser:Chrome - 53.0.2785.143]	[Action:Making connection to server]	[Remarks:Successful connection to server: S3]
[Date: 2016-10-25 15:48:11]	[UserID:14/1082]	[IP:10.10.11.1]	[Browser:Chrome - 53.0.2785.143]	[Action:User 14/1082]	[Remarks:Success]
[Date: 2016-10-25 15:48:11]	[UserID:14/1082]	[IP:10.10.11.1]	[Browser:Chrome - 53.0.2785.143]	[Action:Filtering User : MasterData Username : 14/1082]	[Remarks:Successful filter row count: 0]
[Date: 2016-10-25 15:48:11]	[UserID:14/1082]	[IP:10.10.11.1]	[Browser:Chrome - 53.0.2785.143]	[Action:Filtering User : MasterData Username : 14/1082]	[Remarks:Successful filter row count: 0]
[Date: 2016-10-25 15:48:11]	[UserID:14/1082]	[IP:10.10.11.1]	[Browser:Chrome - 53.0.2785.143]	[Action:Filtering User : MasterData Username : 14/1082]	[Remarks:Success]
[Date: 2016-10-25 15:48:11]	[UserID:14/1082]	[IP:10.10.11.1]	[Browser:Chrome - 53.0.2785.143]	[Action:Closing mssql connection]	[Remarks:Success]
[Date: 2016-10-25 15:48:11]	[UserID:14/1082]	[IP:10.10.11.1]	[Browser:Chrome - 53.0.2785.143]	[Action:Making connection to server]	[Remarks:Successful connection to server: S3]
[Date: 2016-10-25 15:48:11]	[UserID:14/1082]	[IP:10.10.11.1]	[Browser:Chrome - 53.0.2785.143]	[Action:GetProgramList 14/1082]	[Remarks:[{"ID":"1","ProgramIndex":"GST","ProgramName":"GST"}]]
[Date: 2016-10-25 15:48:11]	[UserID:14/1082]	[IP:10.10.11.1]	[Browser:Chrome - 53.0.2785.143]	[Action:Making connection to server]	[Remarks:Successful connection to server: S3]
[Date: 2016-10-25 15:48:11]	[UserID:14/1082]	[IP:10.10.11.1]	[Browser:Chrome - 53.0.2785.143]	[Action:GetProgramList 14/1082]	[Remarks:[{"ID":"1","ProgramIndex":"GST","ProgramName":"GST"}]]
[Date: 2016-10-25 15:48:11]	[UserID:14/1082]	[IP:10.10.11.1]	[Browser:Chrome - 53.0.2785.143]	[Action:Making connection to server]	[Remarks:Successful connection to server: S3]
[Date: 2016-10-25 15:48:11]	[UserID:14/1082]	[IP:10.10.11.1]	[Browser:Chrome - 53.0.2785.143]	[Action:Filtering User : MasterData Username : 14/1082]	[Remarks:Successful filter row count: 1]
[Date: 2016-10-25 15:48:11]	[UserID:14/1082]	[IP:10.10.11.1]	[Browser:Chrome - 53.0.2785.143]	[Action:Making connection to server]	[Remarks:Successful connection to server: S3]
[Date: 2016-10-25 15:48:11]	[UserID:14/1082]	[IP:10.10.11.1]	[Browser:Chrome - 53.0.2785.143]	[Action:GetGSTModules 14/1082,1]	[Remarks:Successful filter row count: 7]
[Date: 2016-10-25 15:48:11]	[UserID:14/1082]	[IP:10.10.11.1]	[Browser:Chrome - 53.0.2785.143]	[Action:Closing mssql connection]	[Remarks:Success]
[Date: 2016-10-25 15:51:39]	[UserID:14/1082]	[IP:10.10.11.1]	[Browser:Chrome - 53.0.2785.143]	[Action:Making connection to server]	[Remarks:Successful connection to server: S3]
[Date: 2016-10-25 15:51:40]	[UserID:14/1082]	[IP:10.10.11.1]	[Browser:Chrome - 53.0.2785.143]	[Action:GetGSTModules 14/1082,1]	[Remarks:Successful filter row count: 7]
[Date: 2016-10-25 15:51:40]	[UserID:14/1082]	[IP:10.10.11.1]	[Browser:Chrome - 53.0.2785.143]	[Action:Closing mssql connection]	[Remarks:Success]
[Date: 2016-10-25 15:52:16]	[UserID:06/343]	[IP:10.10.11.1]	[Browser:Chrome - 53.0.2785.143]	[Action:Making connection to server]	[Remarks:Successful connection to server: S3]
[Date: 2016-10-25 15:52:16]	[UserID:06/343]	[IP:10.10.11.1]	[Browser:Chrome - 53.0.2785.143]	[Action:GetGSTModules 06/343,1]	[Remarks:Successful filter row count: 5]
[Date: 2016-10-25 15:52:16]	[UserID:06/343]	[IP:10.10.11.1]	[Browser:Chrome - 53.0.2785.143]	[Action:Closing mssql connection]	[Remarks:Success]
[Date: 2016-10-25 15:56:18]	[UserID:14/1082]	[IP:10.10.11.1]	[Browser:Chrome - 53.0.2785.143]	[Action:Making connection to server]	[Remarks:Successful connection to server: S3]
[Date: 2016-10-25 15:56:18]	[UserID:14/1082]	[IP:10.10.11.1]	[Browser:Chrome - 53.0.2785.143]	[Action:GetGSTModules 14/1082,1]	[Remarks:Successful filter row count: 7]
[Date: 2016-10-25 15:56:18]	[UserID:14/1082]	[IP:10.10.11.1]	[Browser:Chrome - 53.0.2785.143]	[Action:Closing mssql connection]	[Remarks:Success]
[Date: 2016-10-25 16:04:41]	[UserID:]	[IP:10.10.11.1]	[Browser:Chrome - 53.0.2785.143]	[Action:Making connection to server]	[Remarks:Successful connection to server: S3]
[Date: 2016-10-25 16:04:41]	[UserID:]	[IP:10.10.11.1]	[Browser:Chrome - 53.0.2785.143]	[Action:GetProgramList ]	[Remarks:"no data"]
[Date: 2016-10-25 16:12:32]	[UserID:06/343]	[IP:10.10.11.1]	[Browser:Chrome - 53.0.2785.143]	[Action:Making connection to server]	[Remarks:Successful connection to server: S3]
[Date: 2016-10-25 16:12:32]	[UserID:06/343]	[IP:10.10.11.1]	[Browser:Chrome - 53.0.2785.143]	[Action:GetGSTModules 06/343,1]	[Remarks:Successful filter row count: 5]
[Date: 2016-10-25 16:12:32]	[UserID:06/343]	[IP:10.10.11.1]	[Browser:Chrome - 53.0.2785.143]	[Action:Closing mssql connection]	[Remarks:Success]
[Date: 2016-10-25 16:16:32]	[UserID:06/343]	[IP:10.10.11.1]	[Browser:Chrome - 53.0.2785.143]	[Action:Making connection to server]	[Remarks:Successful connection to server: S3]
[Date: 2016-10-25 16:16:32]	[UserID:06/343]	[IP:10.10.11.1]	[Browser:Chrome - 53.0.2785.143]	[Action:GetGSTModules 06/343,1]	[Remarks:Successful filter row count: 5]
[Date: 2016-10-25 16:16:32]	[UserID:06/343]	[IP:10.10.11.1]	[Browser:Chrome - 53.0.2785.143]	[Action:Closing mssql connection]	[Remarks:Success]
[Date: 2016-10-25 16:40:36]	[UserID:06/343]	[IP:10.10.11.1]	[Browser:Chrome - 53.0.2785.143]	[Action:Making connection to server]	[Remarks:Successful connection to server: S3]
[Date: 2016-10-25 16:40:36]	[UserID:06/343]	[IP:10.10.11.1]	[Browser:Chrome - 53.0.2785.143]	[Action:GetGSTModules 06/343,1]	[Remarks:Successful filter row count: 5]
[Date: 2016-10-25 16:40:36]	[UserID:06/343]	[IP:10.10.11.1]	[Browser:Chrome - 53.0.2785.143]	[Action:Closing mssql connection]	[Remarks:Success]
[Date: 2016-10-25 16:44:28]	[UserID:06/343]	[IP:10.10.11.1]	[Browser:Chrome - 53.0.2785.143]	[Action:Making connection to server]	[Remarks:Successful connection to server: S3]
[Date: 2016-10-25 16:44:28]	[UserID:06/343]	[IP:10.10.11.1]	[Browser:Chrome - 53.0.2785.143]	[Action:GetGSTModules 06/343,1]	[Remarks:Successful filter row count: 5]
[Date: 2016-10-25 16:44:28]	[UserID:06/343]	[IP:10.10.11.1]	[Browser:Chrome - 53.0.2785.143]	[Action:Closing mssql connection]	[Remarks:Success]
[Date: 2016-10-25 16:44:53]	[UserID:06/343]	[IP:10.10.11.1]	[Browser:Chrome - 53.0.2785.143]	[Action:Making connection to server]	[Remarks:Successful connection to server: S3]
[Date: 2016-10-25 16:44:53]	[UserID:06/343]	[IP:10.10.11.1]	[Browser:Chrome - 53.0.2785.143]	[Action:GetGSTModules 06/343,1]	[Remarks:Successful filter row count: 5]
[Date: 2016-10-25 16:44:53]	[UserID:06/343]	[IP:10.10.11.1]	[Browser:Chrome - 53.0.2785.143]	[Action:Closing mssql connection]	[Remarks:Success]
[Date: 2016-10-25 16:45:00]	[UserID:06/343]	[IP:10.10.11.1]	[Browser:Chrome - 53.0.2785.143]	[Action:Making connection to server]	[Remarks:Successful connection to server: S3]
[Date: 2016-10-25 16:45:00]	[UserID:06/343]	[IP:10.10.11.1]	[Browser:Chrome - 53.0.2785.143]	[Action:GetGSTModules 06/343,1]	[Remarks:Successful filter row count: 5]
[Date: 2016-10-25 16:45:01]	[UserID:06/343]	[IP:10.10.11.1]	[Browser:Chrome - 53.0.2785.143]	[Action:Closing mssql connection]	[Remarks:Success]
[Date: 2016-10-25 16:45:33]	[UserID:06/343]	[IP:10.10.11.1]	[Browser:Chrome - 53.0.2785.143]	[Action:Making connection to server]	[Remarks:Successful connection to server: S3]
[Date: 2016-10-25 16:45:33]	[UserID:06/343]	[IP:10.10.11.1]	[Browser:Chrome - 53.0.2785.143]	[Action:GetGSTModules 06/343,1]	[Remarks:Successful filter row count: 5]
[Date: 2016-10-25 16:45:33]	[UserID:06/343]	[IP:10.10.11.1]	[Browser:Chrome - 53.0.2785.143]	[Action:Closing mssql connection]	[Remarks:Success]
[Date: 2016-10-25 17:09:33]	[UserID:06/343]	[IP:10.10.11.1]	[Browser:Chrome - 53.0.2785.143]	[Action:Making connection to server]	[Remarks:Successful connection to server: S3]
[Date: 2016-10-25 17:09:33]	[UserID:06/343]	[IP:10.10.11.1]	[Browser:Chrome - 53.0.2785.143]	[Action:GetGSTModules 06/343,1]	[Remarks:Successful filter row count: 5]
[Date: 2016-10-25 17:09:33]	[UserID:06/343]	[IP:10.10.11.1]	[Browser:Chrome - 53.0.2785.143]	[Action:Closing mssql connection]	[Remarks:Success]
