[Date: 2018-09-06 07:43:56]	[UserID:]	[IP:10.128.12.113]	[Browser:Chrome - 68.0.3440.106]	[Action:Making connection to server]	[Remarks:Successful connection to server: S3]
[Date: 2018-09-06 07:43:56]	[UserID:]	[IP:10.128.12.113]	[Browser:Chrome - 68.0.3440.106]	[Action:GetProgramList ]	[Remarks:"no data"]
[Date: 2018-09-06 07:44:00]	[UserID:06/343]	[IP:10.128.12.113]	[Browser:Chrome - 68.0.3440.106]	[Action:Making connection to server]	[Remarks:Successful connection to server: S3]
[Date: 2018-09-06 07:44:00]	[UserID:06/343]	[IP:10.128.12.113]	[Browser:Chrome - 68.0.3440.106]	[Action:User 06/343]	[Remarks:Success]
[Date: 2018-09-06 07:44:00]	[UserID:06/343]	[IP:10.128.12.113]	[Browser:Chrome - 68.0.3440.106]	[Action:Filtering User : MasterData Username : 06/343]	[Remarks:Successful filter row count: 0]
[Date: 2018-09-06 07:44:00]	[UserID:06/343]	[IP:10.128.12.113]	[Browser:Chrome - 68.0.3440.106]	[Action:Filtering User : MasterData Username : 06/343]	[Remarks:Successful filter row count: 0]
[Date: 2018-09-06 07:44:00]	[UserID:06/343]	[IP:10.128.12.113]	[Browser:Chrome - 68.0.3440.106]	[Action:Filtering User : MasterData Username : 06/343]	[Remarks:Success]
[Date: 2018-09-06 07:44:00]	[UserID:06/343]	[IP:10.128.12.113]	[Browser:Chrome - 68.0.3440.106]	[Action:Closing mssql connection]	[Remarks:Success]
[Date: 2018-09-06 07:44:00]	[UserID:06/343]	[IP:10.128.12.113]	[Browser:Chrome - 68.0.3440.106]	[Action:Making connection to server]	[Remarks:Successful connection to server: S3]
[Date: 2018-09-06 07:44:00]	[UserID:06/343]	[IP:10.128.12.113]	[Browser:Chrome - 68.0.3440.106]	[Action:GetProgramList 06/343]	[Remarks:[{"ID":"1","ProgramIndex":"GST","ProgramName":"GST"}]]
[Date: 2018-09-06 07:44:00]	[UserID:06/343]	[IP:10.128.12.113]	[Browser:Chrome - 68.0.3440.106]	[Action:Making connection to server]	[Remarks:Successful connection to server: S3]
[Date: 2018-09-06 07:44:00]	[UserID:06/343]	[IP:10.128.12.113]	[Browser:Chrome - 68.0.3440.106]	[Action:GetProgramList 06/343]	[Remarks:[{"ID":"1","ProgramIndex":"GST","ProgramName":"GST"}]]
[Date: 2018-09-06 07:44:00]	[UserID:06/343]	[IP:10.128.12.113]	[Browser:Chrome - 68.0.3440.106]	[Action:Making connection to server]	[Remarks:Successful connection to server: S3]
[Date: 2018-09-06 07:44:00]	[UserID:06/343]	[IP:10.128.12.113]	[Browser:Chrome - 68.0.3440.106]	[Action:Filtering User : MasterData Username : 06/343]	[Remarks:Successful filter row count: 1]
[Date: 2018-09-06 07:44:00]	[UserID:06/343]	[IP:10.128.12.113]	[Browser:Chrome - 68.0.3440.106]	[Action:Making connection to server]	[Remarks:Successful connection to server: S3]
[Date: 2018-09-06 07:44:00]	[UserID:06/343]	[IP:10.128.12.113]	[Browser:Chrome - 68.0.3440.106]	[Action:GetGSTModules 06/343,1]	[Remarks:Successful filter row count: 6]
[Date: 2018-09-06 07:44:00]	[UserID:06/343]	[IP:10.128.12.113]	[Browser:Chrome - 68.0.3440.106]	[Action:Closing mssql connection]	[Remarks:Success]
[Date: 2018-09-06 08:01:43]	[UserID:06/343]	[IP:10.128.12.113]	[Browser:Chrome - 68.0.3440.106]	[Action:Making connection to server]	[Remarks:Successful connection to server: S3]
[Date: 2018-09-06 08:01:43]	[UserID:06/343]	[IP:10.128.12.113]	[Browser:Chrome - 68.0.3440.106]	[Action:GetGSTModules 06/343,1]	[Remarks:Successful filter row count: 6]
[Date: 2018-09-06 08:01:43]	[UserID:06/343]	[IP:10.128.12.113]	[Browser:Chrome - 68.0.3440.106]	[Action:Closing mssql connection]	[Remarks:Success]
[Date: 2018-09-06 08:52:40]	[UserID:06/343]	[IP:10.128.12.113]	[Browser:Chrome - 68.0.3440.106]	[Action:Making connection to server]	[Remarks:Successful connection to server: S3]
[Date: 2018-09-06 08:52:40]	[UserID:06/343]	[IP:10.128.12.113]	[Browser:Chrome - 68.0.3440.106]	[Action:GetGSTModules 06/343,1]	[Remarks:Successful filter row count: 6]
[Date: 2018-09-06 08:52:40]	[UserID:06/343]	[IP:10.128.12.113]	[Browser:Chrome - 68.0.3440.106]	[Action:Closing mssql connection]	[Remarks:Success]
[Date: 2018-09-06 09:44:18]	[UserID:]	[IP:10.128.12.113]	[Browser:Chrome - 68.0.3440.106]	[Action:Making connection to server]	[Remarks:Successful connection to server: S3]
[Date: 2018-09-06 09:44:18]	[UserID:]	[IP:10.128.12.113]	[Browser:Chrome - 68.0.3440.106]	[Action:GetProgramList ]	[Remarks:"no data"]
[Date: 2018-09-06 09:44:21]	[UserID:06/343]	[IP:10.128.12.113]	[Browser:Chrome - 68.0.3440.106]	[Action:Making connection to server]	[Remarks:Successful connection to server: S3]
[Date: 2018-09-06 09:44:21]	[UserID:06/343]	[IP:10.128.12.113]	[Browser:Chrome - 68.0.3440.106]	[Action:User 06/343]	[Remarks:Success]
[Date: 2018-09-06 09:44:21]	[UserID:06/343]	[IP:10.128.12.113]	[Browser:Chrome - 68.0.3440.106]	[Action:Filtering User : MasterData Username : 06/343]	[Remarks:Successful filter row count: 0]
[Date: 2018-09-06 09:44:21]	[UserID:06/343]	[IP:10.128.12.113]	[Browser:Chrome - 68.0.3440.106]	[Action:Filtering User : MasterData Username : 06/343]	[Remarks:Successful filter row count: 0]
[Date: 2018-09-06 09:44:21]	[UserID:06/343]	[IP:10.128.12.113]	[Browser:Chrome - 68.0.3440.106]	[Action:Filtering User : MasterData Username : 06/343]	[Remarks:Success]
[Date: 2018-09-06 09:44:21]	[UserID:06/343]	[IP:10.128.12.113]	[Browser:Chrome - 68.0.3440.106]	[Action:Closing mssql connection]	[Remarks:Success]
[Date: 2018-09-06 09:44:21]	[UserID:06/343]	[IP:10.128.12.113]	[Browser:Chrome - 68.0.3440.106]	[Action:Making connection to server]	[Remarks:Successful connection to server: S3]
[Date: 2018-09-06 09:44:21]	[UserID:06/343]	[IP:10.128.12.113]	[Browser:Chrome - 68.0.3440.106]	[Action:GetProgramList 06/343]	[Remarks:[{"ID":"1","ProgramIndex":"GST","ProgramName":"GST"}]]
[Date: 2018-09-06 09:44:21]	[UserID:06/343]	[IP:10.128.12.113]	[Browser:Chrome - 68.0.3440.106]	[Action:Making connection to server]	[Remarks:Successful connection to server: S3]
[Date: 2018-09-06 09:44:21]	[UserID:06/343]	[IP:10.128.12.113]	[Browser:Chrome - 68.0.3440.106]	[Action:GetProgramList 06/343]	[Remarks:[{"ID":"1","ProgramIndex":"GST","ProgramName":"GST"}]]
[Date: 2018-09-06 09:44:21]	[UserID:06/343]	[IP:10.128.12.113]	[Browser:Chrome - 68.0.3440.106]	[Action:Making connection to server]	[Remarks:Successful connection to server: S3]
[Date: 2018-09-06 09:44:21]	[UserID:06/343]	[IP:10.128.12.113]	[Browser:Chrome - 68.0.3440.106]	[Action:Filtering User : MasterData Username : 06/343]	[Remarks:Successful filter row count: 1]
[Date: 2018-09-06 09:44:22]	[UserID:06/343]	[IP:10.128.12.113]	[Browser:Chrome - 68.0.3440.106]	[Action:Making connection to server]	[Remarks:Successful connection to server: S3]
[Date: 2018-09-06 09:44:22]	[UserID:06/343]	[IP:10.128.12.113]	[Browser:Chrome - 68.0.3440.106]	[Action:GetGSTModules 06/343,1]	[Remarks:Successful filter row count: 6]
[Date: 2018-09-06 09:44:22]	[UserID:06/343]	[IP:10.128.12.113]	[Browser:Chrome - 68.0.3440.106]	[Action:Closing mssql connection]	[Remarks:Success]
[Date: 2018-09-06 10:12:20]	[UserID:06/343]	[IP:10.128.12.113]	[Browser:Chrome - 68.0.3440.106]	[Action:Making connection to server]	[Remarks:Successful connection to server: S3]
[Date: 2018-09-06 10:12:20]	[UserID:06/343]	[IP:10.128.12.113]	[Browser:Chrome - 68.0.3440.106]	[Action:GetGSTModules 06/343,1]	[Remarks:Successful filter row count: 6]
[Date: 2018-09-06 10:12:20]	[UserID:06/343]	[IP:10.128.12.113]	[Browser:Chrome - 68.0.3440.106]	[Action:Closing mssql connection]	[Remarks:Success]
[Date: 2018-09-06 10:19:45]	[UserID:06/343]	[IP:10.128.12.113]	[Browser:Chrome - 68.0.3440.106]	[Action:Making connection to server]	[Remarks:Successful connection to server: S3]
[Date: 2018-09-06 10:19:45]	[UserID:06/343]	[IP:10.128.12.113]	[Browser:Chrome - 68.0.3440.106]	[Action:GetGSTModules 06/343,1]	[Remarks:Successful filter row count: 6]
[Date: 2018-09-06 10:19:45]	[UserID:06/343]	[IP:10.128.12.113]	[Browser:Chrome - 68.0.3440.106]	[Action:Closing mssql connection]	[Remarks:Success]
[Date: 2018-09-06 10:27:20]	[UserID:06/343]	[IP:10.128.12.113]	[Browser:Chrome - 68.0.3440.106]	[Action:Making connection to server]	[Remarks:Successful connection to server: S3]
[Date: 2018-09-06 10:27:20]	[UserID:06/343]	[IP:10.128.12.113]	[Browser:Chrome - 68.0.3440.106]	[Action:GetGSTModules 06/343,1]	[Remarks:Successful filter row count: 6]
[Date: 2018-09-06 10:27:20]	[UserID:06/343]	[IP:10.128.12.113]	[Browser:Chrome - 68.0.3440.106]	[Action:Closing mssql connection]	[Remarks:Success]
[Date: 2018-09-06 10:30:03]	[UserID:06/343]	[IP:10.128.12.113]	[Browser:Chrome - 68.0.3440.106]	[Action:Making connection to server]	[Remarks:Successful connection to server: S3]
[Date: 2018-09-06 10:30:03]	[UserID:06/343]	[IP:10.128.12.113]	[Browser:Chrome - 68.0.3440.106]	[Action:GetGSTModules 06/343,1]	[Remarks:Successful filter row count: 6]
[Date: 2018-09-06 10:30:03]	[UserID:06/343]	[IP:10.128.12.113]	[Browser:Chrome - 68.0.3440.106]	[Action:Closing mssql connection]	[Remarks:Success]
[Date: 2018-09-06 10:31:46]	[UserID:06/343]	[IP:10.128.12.113]	[Browser:Chrome - 68.0.3440.106]	[Action:Making connection to server]	[Remarks:Successful connection to server: S3]
[Date: 2018-09-06 10:31:46]	[UserID:06/343]	[IP:10.128.12.113]	[Browser:Chrome - 68.0.3440.106]	[Action:GetGSTModules 06/343,1]	[Remarks:Successful filter row count: 6]
[Date: 2018-09-06 10:31:46]	[UserID:06/343]	[IP:10.128.12.113]	[Browser:Chrome - 68.0.3440.106]	[Action:Closing mssql connection]	[Remarks:Success]
[Date: 2018-09-06 10:31:51]	[UserID:06/343]	[IP:10.128.12.113]	[Browser:Chrome - 68.0.3440.106]	[Action:Making connection to server]	[Remarks:Successful connection to server: S3]
[Date: 2018-09-06 10:31:51]	[UserID:06/343]	[IP:10.128.12.113]	[Browser:Chrome - 68.0.3440.106]	[Action:GetGSTModules 06/343,1]	[Remarks:Successful filter row count: 6]
[Date: 2018-09-06 10:31:51]	[UserID:06/343]	[IP:10.128.12.113]	[Browser:Chrome - 68.0.3440.106]	[Action:Closing mssql connection]	[Remarks:Success]
[Date: 2018-09-06 10:32:07]	[UserID:06/343]	[IP:10.128.12.113]	[Browser:Chrome - 68.0.3440.106]	[Action:Making connection to server]	[Remarks:Successful connection to server: S3]
[Date: 2018-09-06 10:32:07]	[UserID:06/343]	[IP:10.128.12.113]	[Browser:Chrome - 68.0.3440.106]	[Action:GetGSTModules 06/343,1]	[Remarks:Successful filter row count: 6]
[Date: 2018-09-06 10:32:07]	[UserID:06/343]	[IP:10.128.12.113]	[Browser:Chrome - 68.0.3440.106]	[Action:Closing mssql connection]	[Remarks:Success]
[Date: 2018-09-06 11:09:31]	[UserID:06/343]	[IP:10.128.12.113]	[Browser:Chrome - 68.0.3440.106]	[Action:Making connection to server]	[Remarks:Successful connection to server: S3]
[Date: 2018-09-06 11:09:31]	[UserID:06/343]	[IP:10.128.12.113]	[Browser:Chrome - 68.0.3440.106]	[Action:GetGSTModules 06/343,1]	[Remarks:Successful filter row count: 6]
[Date: 2018-09-06 11:09:31]	[UserID:06/343]	[IP:10.128.12.113]	[Browser:Chrome - 68.0.3440.106]	[Action:Closing mssql connection]	[Remarks:Success]
[Date: 2018-09-06 13:27:50]	[UserID:]	[IP:10.128.12.210]	[Browser:Chrome - 68.0.3440.106]	[Action:Making connection to server]	[Remarks:Successful connection to server: S3]
[Date: 2018-09-06 13:27:50]	[UserID:]	[IP:10.128.12.210]	[Browser:Chrome - 68.0.3440.106]	[Action:GetProgramList ]	[Remarks:"no data"]
[Date: 2018-09-06 13:28:04]	[UserID:10/660]	[IP:10.128.12.210]	[Browser:Chrome - 68.0.3440.106]	[Action:Making connection to server]	[Remarks:Successful connection to server: S3]
[Date: 2018-09-06 13:28:04]	[UserID:10/660]	[IP:10.128.12.210]	[Browser:Chrome - 68.0.3440.106]	[Action:User 10/660]	[Remarks:Success]
[Date: 2018-09-06 13:28:04]	[UserID:10/660]	[IP:10.128.12.210]	[Browser:Chrome - 68.0.3440.106]	[Action:Filtering User : MasterData Username : 10/660]	[Remarks:Successful filter row count: 0]
[Date: 2018-09-06 13:28:04]	[UserID:10/660]	[IP:10.128.12.210]	[Browser:Chrome - 68.0.3440.106]	[Action:Filtering User : MasterData Username : 10/660]	[Remarks:Successful filter row count: 0]
[Date: 2018-09-06 13:28:04]	[UserID:10/660]	[IP:10.128.12.210]	[Browser:Chrome - 68.0.3440.106]	[Action:Filtering User : MasterData Username : 10/660]	[Remarks:Success]
[Date: 2018-09-06 13:28:04]	[UserID:10/660]	[IP:10.128.12.210]	[Browser:Chrome - 68.0.3440.106]	[Action:Closing mssql connection]	[Remarks:Success]
[Date: 2018-09-06 13:28:04]	[UserID:10/660]	[IP:10.128.12.210]	[Browser:Chrome - 68.0.3440.106]	[Action:Making connection to server]	[Remarks:Successful connection to server: S3]
[Date: 2018-09-06 13:28:04]	[UserID:10/660]	[IP:10.128.12.210]	[Browser:Chrome - 68.0.3440.106]	[Action:GetProgramList 10/660]	[Remarks:[{"ID":"1","ProgramIndex":"GST","ProgramName":"GST"}]]
[Date: 2018-09-06 13:28:04]	[UserID:10/660]	[IP:10.128.12.210]	[Browser:Chrome - 68.0.3440.106]	[Action:Making connection to server]	[Remarks:Successful connection to server: S3]
[Date: 2018-09-06 13:28:04]	[UserID:10/660]	[IP:10.128.12.210]	[Browser:Chrome - 68.0.3440.106]	[Action:GetProgramList 10/660]	[Remarks:[{"ID":"1","ProgramIndex":"GST","ProgramName":"GST"}]]
[Date: 2018-09-06 13:28:04]	[UserID:10/660]	[IP:10.128.12.210]	[Browser:Chrome - 68.0.3440.106]	[Action:Making connection to server]	[Remarks:Successful connection to server: S3]
[Date: 2018-09-06 13:28:04]	[UserID:10/660]	[IP:10.128.12.210]	[Browser:Chrome - 68.0.3440.106]	[Action:Filtering User : MasterData Username : 10/660]	[Remarks:Successful filter row count: 1]
[Date: 2018-09-06 13:28:04]	[UserID:10/660]	[IP:10.128.12.210]	[Browser:Chrome - 68.0.3440.106]	[Action:Making connection to server]	[Remarks:Successful connection to server: S3]
[Date: 2018-09-06 13:28:04]	[UserID:10/660]	[IP:10.128.12.210]	[Browser:Chrome - 68.0.3440.106]	[Action:GetGSTModules 10/660,1]	[Remarks:Successful filter row count: 5]
[Date: 2018-09-06 13:28:04]	[UserID:10/660]	[IP:10.128.12.210]	[Browser:Chrome - 68.0.3440.106]	[Action:Closing mssql connection]	[Remarks:Success]
[Date: 2018-09-06 13:41:40]	[UserID:10/660]	[IP:10.128.12.210]	[Browser:Chrome - 68.0.3440.106]	[Action:Making connection to server]	[Remarks:Successful connection to server: S3]
[Date: 2018-09-06 13:41:40]	[UserID:10/660]	[IP:10.128.12.210]	[Browser:Chrome - 68.0.3440.106]	[Action:GetGSTModules 10/660,1]	[Remarks:Successful filter row count: 5]
[Date: 2018-09-06 13:41:40]	[UserID:10/660]	[IP:10.128.12.210]	[Browser:Chrome - 68.0.3440.106]	[Action:Closing mssql connection]	[Remarks:Success]
[Date: 2018-09-06 13:56:12]	[UserID:10/660]	[IP:10.128.12.210]	[Browser:Chrome - 68.0.3440.106]	[Action:Making connection to server]	[Remarks:Successful connection to server: S3]
[Date: 2018-09-06 13:56:12]	[UserID:10/660]	[IP:10.128.12.210]	[Browser:Chrome - 68.0.3440.106]	[Action:GetGSTModules 10/660,1]	[Remarks:Successful filter row count: 5]
[Date: 2018-09-06 13:56:12]	[UserID:10/660]	[IP:10.128.12.210]	[Browser:Chrome - 68.0.3440.106]	[Action:Closing mssql connection]	[Remarks:Success]
[Date: 2018-09-06 13:56:43]	[UserID:10/660]	[IP:10.128.12.210]	[Browser:Chrome - 68.0.3440.106]	[Action:Making connection to server]	[Remarks:Successful connection to server: S3]
[Date: 2018-09-06 13:56:43]	[UserID:10/660]	[IP:10.128.12.210]	[Browser:Chrome - 68.0.3440.106]	[Action:GetGSTModules 10/660,1]	[Remarks:Successful filter row count: 5]
[Date: 2018-09-06 13:56:43]	[UserID:10/660]	[IP:10.128.12.210]	[Browser:Chrome - 68.0.3440.106]	[Action:Closing mssql connection]	[Remarks:Success]
[Date: 2018-09-06 14:05:23]	[UserID:10/660]	[IP:10.128.12.210]	[Browser:Chrome - 68.0.3440.106]	[Action:Making connection to server]	[Remarks:Successful connection to server: S3]
[Date: 2018-09-06 14:05:23]	[UserID:10/660]	[IP:10.128.12.210]	[Browser:Chrome - 68.0.3440.106]	[Action:GetProgramList 10/660]	[Remarks:[{"ID":"1","ProgramIndex":"GST","ProgramName":"GST"}]]
[Date: 2018-09-06 14:05:23]	[UserID:10/660]	[IP:10.128.12.210]	[Browser:Chrome - 68.0.3440.106]	[Action:Making connection to server]	[Remarks:Successful connection to server: S3]
[Date: 2018-09-06 14:05:23]	[UserID:10/660]	[IP:10.128.12.210]	[Browser:Chrome - 68.0.3440.106]	[Action:GetProgramList 10/660]	[Remarks:[{"ID":"1","ProgramIndex":"GST","ProgramName":"GST"}]]
[Date: 2018-09-06 14:05:23]	[UserID:10/660]	[IP:10.128.12.210]	[Browser:Chrome - 68.0.3440.106]	[Action:Making connection to server]	[Remarks:Successful connection to server: S3]
[Date: 2018-09-06 14:05:23]	[UserID:10/660]	[IP:10.128.12.210]	[Browser:Chrome - 68.0.3440.106]	[Action:Filtering User : MasterData Username : 10/660]	[Remarks:Successful filter row count: 1]
[Date: 2018-09-06 14:05:24]	[UserID:10/660]	[IP:10.128.12.210]	[Browser:Chrome - 68.0.3440.106]	[Action:Making connection to server]	[Remarks:Successful connection to server: S3]
[Date: 2018-09-06 14:05:24]	[UserID:10/660]	[IP:10.128.12.210]	[Browser:Chrome - 68.0.3440.106]	[Action:GetGSTModules 10/660,1]	[Remarks:Successful filter row count: 5]
[Date: 2018-09-06 14:05:24]	[UserID:10/660]	[IP:10.128.12.210]	[Browser:Chrome - 68.0.3440.106]	[Action:Closing mssql connection]	[Remarks:Success]
[Date: 2018-09-06 14:52:00]	[UserID:]	[IP:10.128.80.128]	[Browser:Safari - 10.1.1]	[Action:Making connection to server]	[Remarks:Successful connection to server: S3]
[Date: 2018-09-06 14:52:00]	[UserID:]	[IP:10.128.80.128]	[Browser:Safari - 10.1.1]	[Action:GetProgramList ]	[Remarks:"no data"]
[Date: 2018-09-06 14:52:06]	[UserID:reggie]	[IP:10.128.80.128]	[Browser:Safari - 10.1.1]	[Action:Making connection to server]	[Remarks:Successful connection to server: S3]
[Date: 2018-09-06 14:52:06]	[UserID:reggie]	[IP:10.128.80.128]	[Browser:Safari - 10.1.1]	[Action:User reggie]	[Remarks:Success]
[Date: 2018-09-06 14:52:06]	[UserID:reggie]	[IP:10.128.80.128]	[Browser:Safari - 10.1.1]	[Action:Filtering User : MasterData Username : reggie]	[Remarks:Successful filter row count: 0]
[Date: 2018-09-06 14:52:06]	[UserID:reggie]	[IP:10.128.80.128]	[Browser:Safari - 10.1.1]	[Action:Filtering User : MasterData Username : reggie]	[Remarks:Successful filter row count: 0]
[Date: 2018-09-06 14:52:06]	[UserID:reggie]	[IP:10.128.80.128]	[Browser:Safari - 10.1.1]	[Action:Filtering User : MasterData Username : reggie]	[Remarks:Success]
[Date: 2018-09-06 14:52:06]	[UserID:reggie]	[IP:10.128.80.128]	[Browser:Safari - 10.1.1]	[Action:Closing mssql connection]	[Remarks:Success]
[Date: 2018-09-06 14:52:08]	[UserID:reggie]	[IP:10.128.80.128]	[Browser:Safari - 10.1.1]	[Action:Making connection to server]	[Remarks:Successful connection to server: S3]
[Date: 2018-09-06 14:52:08]	[UserID:reggie]	[IP:10.128.80.128]	[Browser:Safari - 10.1.1]	[Action:GetProgramList reggie]	[Remarks:[{"ID":"1","ProgramIndex":"GST","ProgramName":"GST"},{"ID":"3","ProgramIndex":"PRD","ProgramName":"PRD"}]]
[Date: 2018-09-06 14:52:08]	[UserID:reggie]	[IP:10.128.80.128]	[Browser:Safari - 10.1.1]	[Action:Making connection to server]	[Remarks:Successful connection to server: S3]
[Date: 2018-09-06 14:52:08]	[UserID:reggie]	[IP:10.128.80.128]	[Browser:Safari - 10.1.1]	[Action:GetProgramList reggie]	[Remarks:[{"ID":"1","ProgramIndex":"GST","ProgramName":"GST"},{"ID":"3","ProgramIndex":"PRD","ProgramName":"PRD"}]]
[Date: 2018-09-06 14:52:08]	[UserID:reggie]	[IP:10.128.80.128]	[Browser:Safari - 10.1.1]	[Action:Making connection to server]	[Remarks:Successful connection to server: S3]
[Date: 2018-09-06 14:52:08]	[UserID:reggie]	[IP:10.128.80.128]	[Browser:Safari - 10.1.1]	[Action:Filtering User : MasterData Username : reggie]	[Remarks:Successful filter row count: 1]
[Date: 2018-09-06 14:52:16]	[UserID:reggie]	[IP:10.128.80.128]	[Browser:Safari - 10.1.1]	[Action:Making connection to server]	[Remarks:Successful connection to server: S3]
[Date: 2018-09-06 14:52:16]	[UserID:reggie]	[IP:10.128.80.128]	[Browser:Safari - 10.1.1]	[Action:GetGSTModules reggie,1]	[Remarks:Successful filter row count: 3]
[Date: 2018-09-06 14:52:16]	[UserID:reggie]	[IP:10.128.80.128]	[Browser:Safari - 10.1.1]	[Action:Closing mssql connection]	[Remarks:Success]
[Date: 2018-09-06 14:52:48]	[UserID:reggie]	[IP:10.128.80.128]	[Browser:Safari - 10.1.1]	[Action:Making connection to server]	[Remarks:Successful connection to server: S3]
[Date: 2018-09-06 14:52:48]	[UserID:reggie]	[IP:10.128.80.128]	[Browser:Safari - 10.1.1]	[Action:GetGSTModules reggie,1]	[Remarks:Successful filter row count: 3]
[Date: 2018-09-06 14:52:48]	[UserID:reggie]	[IP:10.128.80.128]	[Browser:Safari - 10.1.1]	[Action:Closing mssql connection]	[Remarks:Success]
[Date: 2018-09-06 14:53:25]	[UserID:reggie]	[IP:10.128.80.128]	[Browser:Safari - 10.1.1]	[Action:Making connection to server]	[Remarks:Successful connection to server: S3]
[Date: 2018-09-06 14:53:26]	[UserID:reggie]	[IP:10.128.80.128]	[Browser:Safari - 10.1.1]	[Action:GetGSTModules reggie,1]	[Remarks:Successful filter row count: 3]
[Date: 2018-09-06 14:53:26]	[UserID:reggie]	[IP:10.128.80.128]	[Browser:Safari - 10.1.1]	[Action:Closing mssql connection]	[Remarks:Success]
[Date: 2018-09-06 14:53:32]	[UserID:reggie]	[IP:10.128.80.128]	[Browser:Safari - 10.1.1]	[Action:Making connection to server]	[Remarks:Successful connection to server: S3]
[Date: 2018-09-06 14:53:32]	[UserID:reggie]	[IP:10.128.80.128]	[Browser:Safari - 10.1.1]	[Action:GetGSTModules reggie,1]	[Remarks:Successful filter row count: 3]
[Date: 2018-09-06 14:53:32]	[UserID:reggie]	[IP:10.128.80.128]	[Browser:Safari - 10.1.1]	[Action:Closing mssql connection]	[Remarks:Success]
[Date: 2018-09-06 15:15:38]	[UserID:]	[IP:10.128.80.128]	[Browser:Safari - 10.1.1]	[Action:Making connection to server]	[Remarks:Successful connection to server: S3]
[Date: 2018-09-06 15:15:38]	[UserID:]	[IP:10.128.80.128]	[Browser:Safari - 10.1.1]	[Action:GetProgramList ]	[Remarks:"no data"]
[Date: 2018-09-06 18:49:13]	[UserID:]	[IP:10.128.12.210]	[Browser:Chrome - 68.0.3440.106]	[Action:Making connection to server]	[Remarks:Successful connection to server: S3]
[Date: 2018-09-06 18:49:13]	[UserID:]	[IP:10.128.12.210]	[Browser:Chrome - 68.0.3440.106]	[Action:GetProgramList ]	[Remarks:"no data"]
[Date: 2018-09-06 18:49:22]	[UserID:10/660]	[IP:10.128.12.210]	[Browser:Chrome - 68.0.3440.106]	[Action:Making connection to server]	[Remarks:Successful connection to server: S3]
[Date: 2018-09-06 18:49:22]	[UserID:10/660]	[IP:10.128.12.210]	[Browser:Chrome - 68.0.3440.106]	[Action:User 10/660]	[Remarks:Success]
[Date: 2018-09-06 18:49:22]	[UserID:10/660]	[IP:10.128.12.210]	[Browser:Chrome - 68.0.3440.106]	[Action:Filtering User : MasterData Username : 10/660]	[Remarks:Successful filter row count: 0]
[Date: 2018-09-06 18:49:22]	[UserID:10/660]	[IP:10.128.12.210]	[Browser:Chrome - 68.0.3440.106]	[Action:Filtering User : MasterData Username : 10/660]	[Remarks:Successful filter row count: 0]
[Date: 2018-09-06 18:49:22]	[UserID:10/660]	[IP:10.128.12.210]	[Browser:Chrome - 68.0.3440.106]	[Action:Filtering User : MasterData Username : 10/660]	[Remarks:Success]
[Date: 2018-09-06 18:49:22]	[UserID:10/660]	[IP:10.128.12.210]	[Browser:Chrome - 68.0.3440.106]	[Action:Closing mssql connection]	[Remarks:Success]
[Date: 2018-09-06 18:49:22]	[UserID:10/660]	[IP:10.128.12.210]	[Browser:Chrome - 68.0.3440.106]	[Action:Making connection to server]	[Remarks:Successful connection to server: S3]
[Date: 2018-09-06 18:49:22]	[UserID:10/660]	[IP:10.128.12.210]	[Browser:Chrome - 68.0.3440.106]	[Action:GetProgramList 10/660]	[Remarks:[{"ID":"1","ProgramIndex":"GST","ProgramName":"GST"}]]
[Date: 2018-09-06 18:49:22]	[UserID:10/660]	[IP:10.128.12.210]	[Browser:Chrome - 68.0.3440.106]	[Action:Making connection to server]	[Remarks:Successful connection to server: S3]
[Date: 2018-09-06 18:49:22]	[UserID:10/660]	[IP:10.128.12.210]	[Browser:Chrome - 68.0.3440.106]	[Action:GetProgramList 10/660]	[Remarks:[{"ID":"1","ProgramIndex":"GST","ProgramName":"GST"}]]
[Date: 2018-09-06 18:49:22]	[UserID:10/660]	[IP:10.128.12.210]	[Browser:Chrome - 68.0.3440.106]	[Action:Making connection to server]	[Remarks:Successful connection to server: S3]
[Date: 2018-09-06 18:49:22]	[UserID:10/660]	[IP:10.128.12.210]	[Browser:Chrome - 68.0.3440.106]	[Action:Filtering User : MasterData Username : 10/660]	[Remarks:Successful filter row count: 1]
[Date: 2018-09-06 18:49:22]	[UserID:10/660]	[IP:10.128.12.210]	[Browser:Chrome - 68.0.3440.106]	[Action:Making connection to server]	[Remarks:Successful connection to server: S3]
[Date: 2018-09-06 18:49:22]	[UserID:10/660]	[IP:10.128.12.210]	[Browser:Chrome - 68.0.3440.106]	[Action:GetGSTModules 10/660,1]	[Remarks:Successful filter row count: 5]
[Date: 2018-09-06 18:49:22]	[UserID:10/660]	[IP:10.128.12.210]	[Browser:Chrome - 68.0.3440.106]	[Action:Closing mssql connection]	[Remarks:Success]
[Date: 2018-09-06 18:56:31]	[UserID:10/660]	[IP:10.128.12.210]	[Browser:Chrome - 68.0.3440.106]	[Action:Making connection to server]	[Remarks:Successful connection to server: S3]
[Date: 2018-09-06 18:56:31]	[UserID:10/660]	[IP:10.128.12.210]	[Browser:Chrome - 68.0.3440.106]	[Action:GetGSTModules 10/660,1]	[Remarks:Successful filter row count: 5]
[Date: 2018-09-06 18:56:31]	[UserID:10/660]	[IP:10.128.12.210]	[Browser:Chrome - 68.0.3440.106]	[Action:Closing mssql connection]	[Remarks:Success]
[Date: 2018-09-06 18:59:22]	[UserID:10/660]	[IP:10.128.12.210]	[Browser:Chrome - 68.0.3440.106]	[Action:Making connection to server]	[Remarks:Successful connection to server: S3]
[Date: 2018-09-06 18:59:22]	[UserID:10/660]	[IP:10.128.12.210]	[Browser:Chrome - 68.0.3440.106]	[Action:GetGSTModules 10/660,1]	[Remarks:Successful filter row count: 5]
[Date: 2018-09-06 18:59:22]	[UserID:10/660]	[IP:10.128.12.210]	[Browser:Chrome - 68.0.3440.106]	[Action:Closing mssql connection]	[Remarks:Success]
[Date: 2018-09-06 18:59:43]	[UserID:]	[IP:10.128.12.210]	[Browser:Chrome - 68.0.3440.106]	[Action:Making connection to server]	[Remarks:Successful connection to server: S3]
[Date: 2018-09-06 18:59:43]	[UserID:]	[IP:10.128.12.210]	[Browser:Chrome - 68.0.3440.106]	[Action:GetProgramList ]	[Remarks:"no data"]
