[Date: 2019-07-18 08:21:12]	[UserID:]	[IP:10.128.12.120]	[Browser:Chrome - 75.0.3770.142]	[Action:Making connection to server]	[Remarks:Successful connection to server: S3]
[Date: 2019-07-18 08:21:12]	[UserID:]	[IP:10.128.12.120]	[Browser:Chrome - 75.0.3770.142]	[Action:GetProgramList ]	[Remarks:"no data"]
[Date: 2019-07-18 08:21:20]	[UserID:14/1082]	[IP:10.128.12.120]	[Browser:Chrome - 75.0.3770.142]	[Action:Making connection to server]	[Remarks:Successful connection to server: S3]
[Date: 2019-07-18 08:21:20]	[UserID:14/1082]	[IP:10.128.12.120]	[Browser:Chrome - 75.0.3770.142]	[Action:User 14/1082]	[Remarks:Success]
[Date: 2019-07-18 08:21:20]	[UserID:14/1082]	[IP:10.128.12.120]	[Browser:Chrome - 75.0.3770.142]	[Action:Filtering User : MasterData Username : 14/1082]	[Remarks:Successful filter row count: 0]
[Date: 2019-07-18 08:21:20]	[UserID:14/1082]	[IP:10.128.12.120]	[Browser:Chrome - 75.0.3770.142]	[Action:Filtering User : MasterData Username : 14/1082]	[Remarks:Successful filter row count: 0]
[Date: 2019-07-18 08:21:20]	[UserID:14/1082]	[IP:10.128.12.120]	[Browser:Chrome - 75.0.3770.142]	[Action:Filtering User : MasterData Username : 14/1082]	[Remarks:Success]
[Date: 2019-07-18 08:21:20]	[UserID:14/1082]	[IP:10.128.12.120]	[Browser:Chrome - 75.0.3770.142]	[Action:Closing mssql connection]	[Remarks:Success]
[Date: 2019-07-18 08:21:20]	[UserID:14/1082]	[IP:10.128.12.120]	[Browser:Chrome - 75.0.3770.142]	[Action:Making connection to server]	[Remarks:Successful connection to server: S3]
[Date: 2019-07-18 08:21:20]	[UserID:14/1082]	[IP:10.128.12.120]	[Browser:Chrome - 75.0.3770.142]	[Action:GetProgramList 14/1082]	[Remarks:[{"ID":"1","ProgramIndex":"GST","ProgramName":"GST"}]]
[Date: 2019-07-18 08:21:20]	[UserID:14/1082]	[IP:10.128.12.120]	[Browser:Chrome - 75.0.3770.142]	[Action:Making connection to server]	[Remarks:Successful connection to server: S3]
[Date: 2019-07-18 08:21:20]	[UserID:14/1082]	[IP:10.128.12.120]	[Browser:Chrome - 75.0.3770.142]	[Action:GetProgramList 14/1082]	[Remarks:[{"ID":"1","ProgramIndex":"GST","ProgramName":"GST"}]]
[Date: 2019-07-18 08:21:20]	[UserID:14/1082]	[IP:10.128.12.120]	[Browser:Chrome - 75.0.3770.142]	[Action:Making connection to server]	[Remarks:Successful connection to server: S3]
[Date: 2019-07-18 08:21:20]	[UserID:14/1082]	[IP:10.128.12.120]	[Browser:Chrome - 75.0.3770.142]	[Action:Filtering User : MasterData Username : 14/1082]	[Remarks:Successful filter row count: 1]
[Date: 2019-07-18 08:21:20]	[UserID:14/1082]	[IP:10.128.12.120]	[Browser:Chrome - 75.0.3770.142]	[Action:Making connection to server]	[Remarks:Successful connection to server: S3]
[Date: 2019-07-18 08:21:20]	[UserID:14/1082]	[IP:10.128.12.120]	[Browser:Chrome - 75.0.3770.142]	[Action:GetGSTModules 14/1082,1]	[Remarks:Successful filter row count: 7]
[Date: 2019-07-18 08:21:20]	[UserID:14/1082]	[IP:10.128.12.120]	[Browser:Chrome - 75.0.3770.142]	[Action:Closing mssql connection]	[Remarks:Success]
[Date: 2019-07-18 08:28:08]	[UserID:]	[IP:10.139.5.105]	[Browser:Firefox - 67.0]	[Action:Making connection to server]	[Remarks:Successful connection to server: S3]
[Date: 2019-07-18 08:28:08]	[UserID:]	[IP:10.139.5.105]	[Browser:Firefox - 67.0]	[Action:GetProgramList ]	[Remarks:"no data"]
[Date: 2019-07-18 09:20:21]	[UserID:]	[IP:10.128.12.114]	[Browser:Chrome - 75.0.3770.142]	[Action:Making connection to server]	[Remarks:Successful connection to server: S3]
[Date: 2019-07-18 09:20:21]	[UserID:]	[IP:10.128.12.114]	[Browser:Chrome - 75.0.3770.142]	[Action:GetProgramList ]	[Remarks:"no data"]
[Date: 2019-07-18 09:20:25]	[UserID:14/1082]	[IP:10.128.12.114]	[Browser:Chrome - 75.0.3770.142]	[Action:Making connection to server]	[Remarks:Successful connection to server: S3]
[Date: 2019-07-18 09:20:25]	[UserID:14/1082]	[IP:10.128.12.114]	[Browser:Chrome - 75.0.3770.142]	[Action:User 14/1082]	[Remarks:Success]
[Date: 2019-07-18 09:20:25]	[UserID:14/1082]	[IP:10.128.12.114]	[Browser:Chrome - 75.0.3770.142]	[Action:Filtering User : MasterData Username : 14/1082]	[Remarks:Successful filter row count: 0]
[Date: 2019-07-18 09:20:25]	[UserID:14/1082]	[IP:10.128.12.114]	[Browser:Chrome - 75.0.3770.142]	[Action:Filtering User : MasterData Username : 14/1082]	[Remarks:Successful filter row count: 0]
[Date: 2019-07-18 09:20:25]	[UserID:14/1082]	[IP:10.128.12.114]	[Browser:Chrome - 75.0.3770.142]	[Action:Filtering User : MasterData Username : 14/1082]	[Remarks:Success]
[Date: 2019-07-18 09:20:25]	[UserID:14/1082]	[IP:10.128.12.114]	[Browser:Chrome - 75.0.3770.142]	[Action:Closing mssql connection]	[Remarks:Success]
[Date: 2019-07-18 09:20:25]	[UserID:14/1082]	[IP:10.128.12.114]	[Browser:Chrome - 75.0.3770.142]	[Action:Making connection to server]	[Remarks:Successful connection to server: S3]
[Date: 2019-07-18 09:20:25]	[UserID:14/1082]	[IP:10.128.12.114]	[Browser:Chrome - 75.0.3770.142]	[Action:GetProgramList 14/1082]	[Remarks:[{"ID":"1","ProgramIndex":"GST","ProgramName":"GST"}]]
[Date: 2019-07-18 09:20:25]	[UserID:14/1082]	[IP:10.128.12.114]	[Browser:Chrome - 75.0.3770.142]	[Action:Making connection to server]	[Remarks:Successful connection to server: S3]
[Date: 2019-07-18 09:20:25]	[UserID:14/1082]	[IP:10.128.12.114]	[Browser:Chrome - 75.0.3770.142]	[Action:GetProgramList 14/1082]	[Remarks:[{"ID":"1","ProgramIndex":"GST","ProgramName":"GST"}]]
[Date: 2019-07-18 09:20:25]	[UserID:14/1082]	[IP:10.128.12.114]	[Browser:Chrome - 75.0.3770.142]	[Action:Making connection to server]	[Remarks:Successful connection to server: S3]
[Date: 2019-07-18 09:20:25]	[UserID:14/1082]	[IP:10.128.12.114]	[Browser:Chrome - 75.0.3770.142]	[Action:Filtering User : MasterData Username : 14/1082]	[Remarks:Successful filter row count: 1]
[Date: 2019-07-18 09:20:26]	[UserID:14/1082]	[IP:10.128.12.114]	[Browser:Chrome - 75.0.3770.142]	[Action:Making connection to server]	[Remarks:Successful connection to server: S3]
[Date: 2019-07-18 09:20:26]	[UserID:14/1082]	[IP:10.128.12.114]	[Browser:Chrome - 75.0.3770.142]	[Action:GetGSTModules 14/1082,1]	[Remarks:Successful filter row count: 7]
[Date: 2019-07-18 09:20:26]	[UserID:14/1082]	[IP:10.128.12.114]	[Browser:Chrome - 75.0.3770.142]	[Action:Closing mssql connection]	[Remarks:Success]
[Date: 2019-07-18 09:33:27]	[UserID:]	[IP:10.128.12.113]	[Browser:Chrome - 75.0.3770.142]	[Action:Making connection to server]	[Remarks:Successful connection to server: S3]
[Date: 2019-07-18 09:33:27]	[UserID:]	[IP:10.128.12.113]	[Browser:Chrome - 75.0.3770.142]	[Action:GetProgramList ]	[Remarks:"no data"]
[Date: 2019-07-18 09:33:47]	[UserID:06/343]	[IP:10.128.12.113]	[Browser:Chrome - 75.0.3770.142]	[Action:Making connection to server]	[Remarks:Successful connection to server: S3]
[Date: 2019-07-18 09:33:47]	[UserID:06/343]	[IP:10.128.12.113]	[Browser:Chrome - 75.0.3770.142]	[Action:User 06/343]	[Remarks:Success]
[Date: 2019-07-18 09:33:47]	[UserID:06/343]	[IP:10.128.12.113]	[Browser:Chrome - 75.0.3770.142]	[Action:Filtering User : MasterData Username : 06/343]	[Remarks:Successful filter row count: 0]
[Date: 2019-07-18 09:33:47]	[UserID:06/343]	[IP:10.128.12.113]	[Browser:Chrome - 75.0.3770.142]	[Action:Filtering User : MasterData Username : 06/343]	[Remarks:Successful filter row count: 0]
[Date: 2019-07-18 09:33:47]	[UserID:06/343]	[IP:10.128.12.113]	[Browser:Chrome - 75.0.3770.142]	[Action:Filtering User : MasterData Username : 06/343]	[Remarks:Success]
[Date: 2019-07-18 09:33:47]	[UserID:06/343]	[IP:10.128.12.113]	[Browser:Chrome - 75.0.3770.142]	[Action:Closing mssql connection]	[Remarks:Success]
[Date: 2019-07-18 09:33:47]	[UserID:06/343]	[IP:10.128.12.113]	[Browser:Chrome - 75.0.3770.142]	[Action:Making connection to server]	[Remarks:Successful connection to server: S3]
[Date: 2019-07-18 09:33:47]	[UserID:06/343]	[IP:10.128.12.113]	[Browser:Chrome - 75.0.3770.142]	[Action:GetProgramList 06/343]	[Remarks:[{"ID":"1","ProgramIndex":"GST","ProgramName":"GST"}]]
[Date: 2019-07-18 09:33:47]	[UserID:06/343]	[IP:10.128.12.113]	[Browser:Chrome - 75.0.3770.142]	[Action:Making connection to server]	[Remarks:Successful connection to server: S3]
[Date: 2019-07-18 09:33:47]	[UserID:06/343]	[IP:10.128.12.113]	[Browser:Chrome - 75.0.3770.142]	[Action:GetProgramList 06/343]	[Remarks:[{"ID":"1","ProgramIndex":"GST","ProgramName":"GST"}]]
[Date: 2019-07-18 09:33:47]	[UserID:06/343]	[IP:10.128.12.113]	[Browser:Chrome - 75.0.3770.142]	[Action:Making connection to server]	[Remarks:Successful connection to server: S3]
[Date: 2019-07-18 09:33:47]	[UserID:06/343]	[IP:10.128.12.113]	[Browser:Chrome - 75.0.3770.142]	[Action:Filtering User : MasterData Username : 06/343]	[Remarks:Successful filter row count: 1]
[Date: 2019-07-18 09:33:48]	[UserID:06/343]	[IP:10.128.12.113]	[Browser:Chrome - 75.0.3770.142]	[Action:Making connection to server]	[Remarks:Successful connection to server: S3]
[Date: 2019-07-18 09:33:48]	[UserID:06/343]	[IP:10.128.12.113]	[Browser:Chrome - 75.0.3770.142]	[Action:GetGSTModules 06/343,1]	[Remarks:Successful filter row count: 6]
[Date: 2019-07-18 09:33:48]	[UserID:06/343]	[IP:10.128.12.113]	[Browser:Chrome - 75.0.3770.142]	[Action:Closing mssql connection]	[Remarks:Success]
[Date: 2019-07-18 09:35:51]	[UserID:06/343]	[IP:10.128.12.113]	[Browser:Chrome - 75.0.3770.142]	[Action:Making connection to server]	[Remarks:Successful connection to server: S3]
[Date: 2019-07-18 09:35:51]	[UserID:06/343]	[IP:10.128.12.113]	[Browser:Chrome - 75.0.3770.142]	[Action:GetGSTModules 06/343,1]	[Remarks:Successful filter row count: 6]
[Date: 2019-07-18 09:35:51]	[UserID:06/343]	[IP:10.128.12.113]	[Browser:Chrome - 75.0.3770.142]	[Action:Closing mssql connection]	[Remarks:Success]
[Date: 2019-07-18 09:41:05]	[UserID:06/343]	[IP:10.128.12.113]	[Browser:Chrome - 75.0.3770.142]	[Action:Making connection to server]	[Remarks:Successful connection to server: S3]
[Date: 2019-07-18 09:41:05]	[UserID:06/343]	[IP:10.128.12.113]	[Browser:Chrome - 75.0.3770.142]	[Action:GetGSTModules 06/343,1]	[Remarks:Successful filter row count: 6]
[Date: 2019-07-18 09:41:05]	[UserID:06/343]	[IP:10.128.12.113]	[Browser:Chrome - 75.0.3770.142]	[Action:Closing mssql connection]	[Remarks:Success]
[Date: 2019-07-18 10:12:15]	[UserID:14/1082]	[IP:10.128.12.114]	[Browser:Chrome - 75.0.3770.142]	[Action:Making connection to server]	[Remarks:Successful connection to server: S3]
[Date: 2019-07-18 10:12:15]	[UserID:14/1082]	[IP:10.128.12.114]	[Browser:Chrome - 75.0.3770.142]	[Action:GetGSTModules 14/1082,1]	[Remarks:Successful filter row count: 7]
[Date: 2019-07-18 10:12:15]	[UserID:14/1082]	[IP:10.128.12.114]	[Browser:Chrome - 75.0.3770.142]	[Action:Closing mssql connection]	[Remarks:Success]
[Date: 2019-07-18 10:12:21]	[UserID:14/1082]	[IP:10.128.12.114]	[Browser:Chrome - 75.0.3770.142]	[Action:Making connection to server]	[Remarks:Successful connection to server: S3]
[Date: 2019-07-18 10:12:21]	[UserID:14/1082]	[IP:10.128.12.114]	[Browser:Chrome - 75.0.3770.142]	[Action:GetGSTModules 14/1082,1]	[Remarks:Successful filter row count: 7]
[Date: 2019-07-18 10:12:21]	[UserID:14/1082]	[IP:10.128.12.114]	[Browser:Chrome - 75.0.3770.142]	[Action:Closing mssql connection]	[Remarks:Success]
[Date: 2019-07-18 10:16:12]	[UserID:14/1082]	[IP:10.128.12.120]	[Browser:Chrome - 75.0.3770.142]	[Action:Making connection to server]	[Remarks:Successful connection to server: S3]
[Date: 2019-07-18 10:16:12]	[UserID:14/1082]	[IP:10.128.12.120]	[Browser:Chrome - 75.0.3770.142]	[Action:GetGSTModules 14/1082,1]	[Remarks:Successful filter row count: 7]
[Date: 2019-07-18 10:16:12]	[UserID:14/1082]	[IP:10.128.12.120]	[Browser:Chrome - 75.0.3770.142]	[Action:Closing mssql connection]	[Remarks:Success]
[Date: 2019-07-18 10:17:48]	[UserID:14/1082]	[IP:10.128.12.120]	[Browser:Chrome - 75.0.3770.142]	[Action:Making connection to server]	[Remarks:Successful connection to server: S3]
[Date: 2019-07-18 10:17:48]	[UserID:14/1082]	[IP:10.128.12.120]	[Browser:Chrome - 75.0.3770.142]	[Action:GetGSTModules 14/1082,1]	[Remarks:Successful filter row count: 7]
[Date: 2019-07-18 10:17:48]	[UserID:14/1082]	[IP:10.128.12.120]	[Browser:Chrome - 75.0.3770.142]	[Action:Closing mssql connection]	[Remarks:Success]
[Date: 2019-07-18 11:41:37]	[UserID:06/343]	[IP:10.128.12.113]	[Browser:Chrome - 75.0.3770.142]	[Action:Making connection to server]	[Remarks:Successful connection to server: S3]
[Date: 2019-07-18 11:41:37]	[UserID:06/343]	[IP:10.128.12.113]	[Browser:Chrome - 75.0.3770.142]	[Action:GetGSTModules 06/343,1]	[Remarks:Successful filter row count: 6]
[Date: 2019-07-18 11:41:37]	[UserID:06/343]	[IP:10.128.12.113]	[Browser:Chrome - 75.0.3770.142]	[Action:Closing mssql connection]	[Remarks:Success]
[Date: 2019-07-18 13:45:56]	[UserID:06/343]	[IP:10.128.12.113]	[Browser:Chrome - 75.0.3770.142]	[Action:Making connection to server]	[Remarks:Successful connection to server: S3]
[Date: 2019-07-18 13:45:56]	[UserID:06/343]	[IP:10.128.12.113]	[Browser:Chrome - 75.0.3770.142]	[Action:GetGSTModules 06/343,1]	[Remarks:Successful filter row count: 6]
[Date: 2019-07-18 13:45:56]	[UserID:06/343]	[IP:10.128.12.113]	[Browser:Chrome - 75.0.3770.142]	[Action:Closing mssql connection]	[Remarks:Success]
[Date: 2019-07-18 13:46:53]	[UserID:06/343]	[IP:10.128.12.113]	[Browser:Chrome - 75.0.3770.142]	[Action:Making connection to server]	[Remarks:Successful connection to server: S3]
[Date: 2019-07-18 13:46:53]	[UserID:06/343]	[IP:10.128.12.113]	[Browser:Chrome - 75.0.3770.142]	[Action:GetGSTModules 06/343,1]	[Remarks:Successful filter row count: 6]
[Date: 2019-07-18 13:46:53]	[UserID:06/343]	[IP:10.128.12.113]	[Browser:Chrome - 75.0.3770.142]	[Action:Closing mssql connection]	[Remarks:Success]
[Date: 2019-07-18 14:05:13]	[UserID:T042]	[IP:10.128.12.120]	[Browser:Chrome - 75.0.3770.142]	[Action:Making connection to server]	[Remarks:Successful connection to server: S3]
[Date: 2019-07-18 14:05:13]	[UserID:T042]	[IP:10.128.12.120]	[Browser:Chrome - 75.0.3770.142]	[Action:GetGSTModules T042,1]	[Remarks:Successful filter row count: 5]
[Date: 2019-07-18 14:05:13]	[UserID:T042]	[IP:10.128.12.120]	[Browser:Chrome - 75.0.3770.142]	[Action:Closing mssql connection]	[Remarks:Success]
[Date: 2019-07-18 14:06:38]	[UserID:T042]	[IP:10.128.12.120]	[Browser:Chrome - 75.0.3770.142]	[Action:Making connection to server]	[Remarks:Successful connection to server: S3]
[Date: 2019-07-18 14:06:38]	[UserID:T042]	[IP:10.128.12.120]	[Browser:Chrome - 75.0.3770.142]	[Action:GetGSTModules T042,1]	[Remarks:Successful filter row count: 5]
[Date: 2019-07-18 14:06:38]	[UserID:T042]	[IP:10.128.12.120]	[Browser:Chrome - 75.0.3770.142]	[Action:Closing mssql connection]	[Remarks:Success]
[Date: 2019-07-18 14:35:57]	[UserID:T042]	[IP:10.128.12.120]	[Browser:Chrome - 75.0.3770.142]	[Action:Making connection to server]	[Remarks:Successful connection to server: S3]
[Date: 2019-07-18 14:35:57]	[UserID:T042]	[IP:10.128.12.120]	[Browser:Chrome - 75.0.3770.142]	[Action:GetGSTModules T042,1]	[Remarks:Successful filter row count: 5]
[Date: 2019-07-18 14:35:57]	[UserID:T042]	[IP:10.128.12.120]	[Browser:Chrome - 75.0.3770.142]	[Action:Closing mssql connection]	[Remarks:Success]
[Date: 2019-07-18 14:46:04]	[UserID:T042]	[IP:10.128.12.120]	[Browser:Chrome - 75.0.3770.142]	[Action:Making connection to server]	[Remarks:Successful connection to server: S3]
[Date: 2019-07-18 14:46:04]	[UserID:T042]	[IP:10.128.12.120]	[Browser:Chrome - 75.0.3770.142]	[Action:GetGSTModules T042,1]	[Remarks:Successful filter row count: 5]
[Date: 2019-07-18 14:46:04]	[UserID:T042]	[IP:10.128.12.120]	[Browser:Chrome - 75.0.3770.142]	[Action:Closing mssql connection]	[Remarks:Success]
[Date: 2019-07-18 14:46:09]	[UserID:T042]	[IP:10.128.12.120]	[Browser:Chrome - 75.0.3770.142]	[Action:Making connection to server]	[Remarks:Successful connection to server: S3]
[Date: 2019-07-18 14:46:09]	[UserID:T042]	[IP:10.128.12.120]	[Browser:Chrome - 75.0.3770.142]	[Action:GetGSTModules T042,1]	[Remarks:Successful filter row count: 5]
[Date: 2019-07-18 14:46:09]	[UserID:T042]	[IP:10.128.12.120]	[Browser:Chrome - 75.0.3770.142]	[Action:Closing mssql connection]	[Remarks:Success]
[Date: 2019-07-18 14:49:39]	[UserID:T042]	[IP:10.128.12.120]	[Browser:Chrome - 75.0.3770.142]	[Action:Making connection to server]	[Remarks:Successful connection to server: S3]
[Date: 2019-07-18 14:49:39]	[UserID:T042]	[IP:10.128.12.120]	[Browser:Chrome - 75.0.3770.142]	[Action:GetGSTModules T042,1]	[Remarks:Successful filter row count: 5]
[Date: 2019-07-18 14:49:39]	[UserID:T042]	[IP:10.128.12.120]	[Browser:Chrome - 75.0.3770.142]	[Action:Closing mssql connection]	[Remarks:Success]
[Date: 2019-07-18 16:22:35]	[UserID:T042]	[IP:10.128.12.120]	[Browser:Chrome - 75.0.3770.142]	[Action:Making connection to server]	[Remarks:Successful connection to server: S3]
[Date: 2019-07-18 16:22:35]	[UserID:T042]	[IP:10.128.12.120]	[Browser:Chrome - 75.0.3770.142]	[Action:GetGSTModules T042,1]	[Remarks:Successful filter row count: 5]
[Date: 2019-07-18 16:22:35]	[UserID:T042]	[IP:10.128.12.120]	[Browser:Chrome - 75.0.3770.142]	[Action:Closing mssql connection]	[Remarks:Success]
[Date: 2019-07-18 17:02:49]	[UserID:T042]	[IP:10.128.12.120]	[Browser:Chrome - 75.0.3770.142]	[Action:Making connection to server]	[Remarks:Successful connection to server: S3]
[Date: 2019-07-18 17:02:49]	[UserID:T042]	[IP:10.128.12.120]	[Browser:Chrome - 75.0.3770.142]	[Action:GetGSTModules T042,1]	[Remarks:Successful filter row count: 5]
[Date: 2019-07-18 17:02:49]	[UserID:T042]	[IP:10.128.12.120]	[Browser:Chrome - 75.0.3770.142]	[Action:Closing mssql connection]	[Remarks:Success]
[Date: 2019-07-18 17:03:08]	[UserID:T042]	[IP:10.128.12.120]	[Browser:Chrome - 75.0.3770.142]	[Action:Making connection to server]	[Remarks:Successful connection to server: S3]
[Date: 2019-07-18 17:03:08]	[UserID:T042]	[IP:10.128.12.120]	[Browser:Chrome - 75.0.3770.142]	[Action:GetGSTModules T042,1]	[Remarks:Successful filter row count: 5]
[Date: 2019-07-18 17:03:08]	[UserID:T042]	[IP:10.128.12.120]	[Browser:Chrome - 75.0.3770.142]	[Action:Closing mssql connection]	[Remarks:Success]
[Date: 2019-07-18 17:06:19]	[UserID:T042]	[IP:10.128.12.120]	[Browser:Chrome - 75.0.3770.142]	[Action:Making connection to server]	[Remarks:Successful connection to server: S3]
[Date: 2019-07-18 17:06:19]	[UserID:T042]	[IP:10.128.12.120]	[Browser:Chrome - 75.0.3770.142]	[Action:GetGSTModules T042,1]	[Remarks:Successful filter row count: 5]
[Date: 2019-07-18 17:06:19]	[UserID:T042]	[IP:10.128.12.120]	[Browser:Chrome - 75.0.3770.142]	[Action:Closing mssql connection]	[Remarks:Success]
[Date: 2019-07-18 17:07:52]	[UserID:T042]	[IP:10.128.12.120]	[Browser:Chrome - 75.0.3770.142]	[Action:Making connection to server]	[Remarks:Successful connection to server: S3]
[Date: 2019-07-18 17:07:52]	[UserID:T042]	[IP:10.128.12.120]	[Browser:Chrome - 75.0.3770.142]	[Action:GetGSTModules T042,1]	[Remarks:Successful filter row count: 5]
[Date: 2019-07-18 17:07:52]	[UserID:T042]	[IP:10.128.12.120]	[Browser:Chrome - 75.0.3770.142]	[Action:Closing mssql connection]	[Remarks:Success]
[Date: 2019-07-18 17:07:56]	[UserID:T042]	[IP:10.128.12.120]	[Browser:Chrome - 75.0.3770.142]	[Action:Making connection to server]	[Remarks:Successful connection to server: S3]
[Date: 2019-07-18 17:07:56]	[UserID:T042]	[IP:10.128.12.120]	[Browser:Chrome - 75.0.3770.142]	[Action:GetGSTModules T042,1]	[Remarks:Successful filter row count: 5]
[Date: 2019-07-18 17:07:56]	[UserID:T042]	[IP:10.128.12.120]	[Browser:Chrome - 75.0.3770.142]	[Action:Closing mssql connection]	[Remarks:Success]
[Date: 2019-07-18 17:30:23]	[UserID:]	[IP:10.128.12.120]	[Browser:Chrome - 75.0.3770.142]	[Action:Making connection to server]	[Remarks:Successful connection to server: S3]
[Date: 2019-07-18 17:30:23]	[UserID:]	[IP:10.128.12.120]	[Browser:Chrome - 75.0.3770.142]	[Action:GetProgramList ]	[Remarks:"no data"]
[Date: 2019-07-18 17:30:29]	[UserID:14/1082]	[IP:10.128.12.120]	[Browser:Chrome - 75.0.3770.142]	[Action:Making connection to server]	[Remarks:Successful connection to server: S3]
[Date: 2019-07-18 17:30:29]	[UserID:14/1082]	[IP:10.128.12.120]	[Browser:Chrome - 75.0.3770.142]	[Action:User 14/1082]	[Remarks:Success]
[Date: 2019-07-18 17:30:29]	[UserID:14/1082]	[IP:10.128.12.120]	[Browser:Chrome - 75.0.3770.142]	[Action:Filtering User : MasterData Username : 14/1082]	[Remarks:Successful filter row count: 0]
[Date: 2019-07-18 17:30:29]	[UserID:14/1082]	[IP:10.128.12.120]	[Browser:Chrome - 75.0.3770.142]	[Action:Filtering User : MasterData Username : 14/1082]	[Remarks:Successful filter row count: 0]
[Date: 2019-07-18 17:30:29]	[UserID:14/1082]	[IP:10.128.12.120]	[Browser:Chrome - 75.0.3770.142]	[Action:Filtering User : MasterData Username : 14/1082]	[Remarks:Success]
[Date: 2019-07-18 17:30:29]	[UserID:14/1082]	[IP:10.128.12.120]	[Browser:Chrome - 75.0.3770.142]	[Action:Closing mssql connection]	[Remarks:Success]
[Date: 2019-07-18 17:30:29]	[UserID:14/1082]	[IP:10.128.12.120]	[Browser:Chrome - 75.0.3770.142]	[Action:Making connection to server]	[Remarks:Successful connection to server: S3]
[Date: 2019-07-18 17:30:29]	[UserID:14/1082]	[IP:10.128.12.120]	[Browser:Chrome - 75.0.3770.142]	[Action:GetProgramList 14/1082]	[Remarks:[{"ID":"1","ProgramIndex":"GST","ProgramName":"GST"}]]
[Date: 2019-07-18 17:30:29]	[UserID:14/1082]	[IP:10.128.12.120]	[Browser:Chrome - 75.0.3770.142]	[Action:Making connection to server]	[Remarks:Successful connection to server: S3]
[Date: 2019-07-18 17:30:29]	[UserID:14/1082]	[IP:10.128.12.120]	[Browser:Chrome - 75.0.3770.142]	[Action:GetProgramList 14/1082]	[Remarks:[{"ID":"1","ProgramIndex":"GST","ProgramName":"GST"}]]
[Date: 2019-07-18 17:30:29]	[UserID:14/1082]	[IP:10.128.12.120]	[Browser:Chrome - 75.0.3770.142]	[Action:Making connection to server]	[Remarks:Successful connection to server: S3]
[Date: 2019-07-18 17:30:29]	[UserID:14/1082]	[IP:10.128.12.120]	[Browser:Chrome - 75.0.3770.142]	[Action:Filtering User : MasterData Username : 14/1082]	[Remarks:Successful filter row count: 1]
[Date: 2019-07-18 17:30:29]	[UserID:14/1082]	[IP:10.128.12.120]	[Browser:Chrome - 75.0.3770.142]	[Action:Making connection to server]	[Remarks:Successful connection to server: S3]
[Date: 2019-07-18 17:30:29]	[UserID:14/1082]	[IP:10.128.12.120]	[Browser:Chrome - 75.0.3770.142]	[Action:GetGSTModules 14/1082,1]	[Remarks:Successful filter row count: 7]
[Date: 2019-07-18 17:30:29]	[UserID:14/1082]	[IP:10.128.12.120]	[Browser:Chrome - 75.0.3770.142]	[Action:Closing mssql connection]	[Remarks:Success]
[Date: 2019-07-18 17:30:52]	[UserID:14/1082]	[IP:10.128.12.120]	[Browser:Chrome - 75.0.3770.142]	[Action:Making connection to server]	[Remarks:Successful connection to server: S3]
[Date: 2019-07-18 17:30:52]	[UserID:14/1082]	[IP:10.128.12.120]	[Browser:Chrome - 75.0.3770.142]	[Action:GetGSTModules 14/1082,1]	[Remarks:Successful filter row count: 7]
[Date: 2019-07-18 17:30:52]	[UserID:14/1082]	[IP:10.128.12.120]	[Browser:Chrome - 75.0.3770.142]	[Action:Closing mssql connection]	[Remarks:Success]
[Date: 2019-07-18 17:31:32]	[UserID:14/1082]	[IP:10.128.12.120]	[Browser:Chrome - 75.0.3770.142]	[Action:Making connection to server]	[Remarks:Successful connection to server: S3]
[Date: 2019-07-18 17:31:32]	[UserID:14/1082]	[IP:10.128.12.120]	[Browser:Chrome - 75.0.3770.142]	[Action:GetGSTModules 14/1082,1]	[Remarks:Successful filter row count: 7]
[Date: 2019-07-18 17:31:32]	[UserID:14/1082]	[IP:10.128.12.120]	[Browser:Chrome - 75.0.3770.142]	[Action:Closing mssql connection]	[Remarks:Success]
[Date: 2019-07-18 18:13:58]	[UserID:]	[IP:10.128.12.114]	[Browser:Chrome - 75.0.3770.142]	[Action:Making connection to server]	[Remarks:Successful connection to server: S3]
[Date: 2019-07-18 18:13:58]	[UserID:]	[IP:10.128.12.114]	[Browser:Chrome - 75.0.3770.142]	[Action:GetProgramList ]	[Remarks:"no data"]
