[Date: 2016-10-28 07:56:59]	[UserID:]	[IP:10.10.11.1]	[Browser:Chrome - 54.0.2840.71]	[Action:Making connection to server]	[Remarks:Successful connection to server: S3]
[Date: 2016-10-28 07:57:00]	[UserID:]	[IP:10.10.11.1]	[Browser:Chrome - 54.0.2840.71]	[Action:GetProgramList ]	[Remarks:"no data"]
[Date: 2016-10-28 08:49:51]	[UserID:06/343]	[IP:10.10.11.1]	[Browser:Chrome - 54.0.2840.71]	[Action:Making connection to server]	[Remarks:Successful connection to server: S3]
[Date: 2016-10-28 08:49:51]	[UserID:06/343]	[IP:10.10.11.1]	[Browser:Chrome - 54.0.2840.71]	[Action:User 06/343]	[Remarks:Success]
[Date: 2016-10-28 08:49:51]	[UserID:06/343]	[IP:10.10.11.1]	[Browser:Chrome - 54.0.2840.71]	[Action:Filtering User : MasterData Username : 06/343]	[Remarks:Successful filter row count: 0]
[Date: 2016-10-28 08:49:51]	[UserID:06/343]	[IP:10.10.11.1]	[Browser:Chrome - 54.0.2840.71]	[Action:Filtering User : MasterData Username : 06/343]	[Remarks:Successful filter row count: 0]
[Date: 2016-10-28 08:49:51]	[UserID:06/343]	[IP:10.10.11.1]	[Browser:Chrome - 54.0.2840.71]	[Action:Filtering User : MasterData Username : 06/343]	[Remarks:Success]
[Date: 2016-10-28 08:49:51]	[UserID:06/343]	[IP:10.10.11.1]	[Browser:Chrome - 54.0.2840.71]	[Action:Closing mssql connection]	[Remarks:Success]
[Date: 2016-10-28 08:49:52]	[UserID:06/343]	[IP:10.10.11.1]	[Browser:Chrome - 54.0.2840.71]	[Action:Making connection to server]	[Remarks:Successful connection to server: S3]
[Date: 2016-10-28 08:49:52]	[UserID:06/343]	[IP:10.10.11.1]	[Browser:Chrome - 54.0.2840.71]	[Action:GetProgramList 06/343]	[Remarks:[{"ID":"1","ProgramIndex":"GST","ProgramName":"GST"}]]
[Date: 2016-10-28 08:49:52]	[UserID:06/343]	[IP:10.10.11.1]	[Browser:Chrome - 54.0.2840.71]	[Action:Making connection to server]	[Remarks:Successful connection to server: S3]
[Date: 2016-10-28 08:49:52]	[UserID:06/343]	[IP:10.10.11.1]	[Browser:Chrome - 54.0.2840.71]	[Action:GetProgramList 06/343]	[Remarks:[{"ID":"1","ProgramIndex":"GST","ProgramName":"GST"}]]
[Date: 2016-10-28 08:49:52]	[UserID:06/343]	[IP:10.10.11.1]	[Browser:Chrome - 54.0.2840.71]	[Action:Making connection to server]	[Remarks:Successful connection to server: S3]
[Date: 2016-10-28 08:49:52]	[UserID:06/343]	[IP:10.10.11.1]	[Browser:Chrome - 54.0.2840.71]	[Action:Filtering User : MasterData Username : 06/343]	[Remarks:Successful filter row count: 1]
[Date: 2016-10-28 08:49:52]	[UserID:06/343]	[IP:10.10.11.1]	[Browser:Chrome - 54.0.2840.71]	[Action:Making connection to server]	[Remarks:Successful connection to server: S3]
[Date: 2016-10-28 08:49:52]	[UserID:06/343]	[IP:10.10.11.1]	[Browser:Chrome - 54.0.2840.71]	[Action:GetGSTModules 06/343,1]	[Remarks:Successful filter row count: 5]
[Date: 2016-10-28 08:49:52]	[UserID:06/343]	[IP:10.10.11.1]	[Browser:Chrome - 54.0.2840.71]	[Action:Closing mssql connection]	[Remarks:Success]
[Date: 2016-10-28 08:59:11]	[UserID:06/343]	[IP:10.10.11.1]	[Browser:Chrome - 54.0.2840.71]	[Action:Making connection to server]	[Remarks:Successful connection to server: S3]
[Date: 2016-10-28 08:59:11]	[UserID:06/343]	[IP:10.10.11.1]	[Browser:Chrome - 54.0.2840.71]	[Action:GetGSTModules 06/343,1]	[Remarks:Successful filter row count: 5]
[Date: 2016-10-28 08:59:11]	[UserID:06/343]	[IP:10.10.11.1]	[Browser:Chrome - 54.0.2840.71]	[Action:Closing mssql connection]	[Remarks:Success]
[Date: 2016-10-28 09:01:52]	[UserID:06/343]	[IP:10.10.11.1]	[Browser:Chrome - 54.0.2840.71]	[Action:Making connection to server]	[Remarks:Successful connection to server: S3]
[Date: 2016-10-28 09:01:52]	[UserID:06/343]	[IP:10.10.11.1]	[Browser:Chrome - 54.0.2840.71]	[Action:GetGSTModules 06/343,1]	[Remarks:Successful filter row count: 5]
[Date: 2016-10-28 09:01:52]	[UserID:06/343]	[IP:10.10.11.1]	[Browser:Chrome - 54.0.2840.71]	[Action:Closing mssql connection]	[Remarks:Success]
[Date: 2016-10-28 09:13:42]	[UserID:06/343]	[IP:10.10.11.1]	[Browser:Chrome - 54.0.2840.71]	[Action:Making connection to server]	[Remarks:Successful connection to server: S3]
[Date: 2016-10-28 09:13:43]	[UserID:06/343]	[IP:10.10.11.1]	[Browser:Chrome - 54.0.2840.71]	[Action:GetGSTModules 06/343,1]	[Remarks:Successful filter row count: 5]
[Date: 2016-10-28 09:13:43]	[UserID:06/343]	[IP:10.10.11.1]	[Browser:Chrome - 54.0.2840.71]	[Action:Closing mssql connection]	[Remarks:Success]
[Date: 2016-10-28 09:26:49]	[UserID:]	[IP:10.10.11.1]	[Browser:Chrome - 54.0.2840.71]	[Action:Making connection to server]	[Remarks:Successful connection to server: S3]
[Date: 2016-10-28 09:26:49]	[UserID:]	[IP:10.10.11.1]	[Browser:Chrome - 54.0.2840.71]	[Action:GetProgramList ]	[Remarks:"no data"]
[Date: 2016-10-28 09:26:51]	[UserID:10/660]	[IP:10.10.11.1]	[Browser:Chrome - 54.0.2840.71]	[Action:Making connection to server]	[Remarks:Successful connection to server: S3]
[Date: 2016-10-28 09:26:51]	[UserID:10/660]	[IP:10.10.11.1]	[Browser:Chrome - 54.0.2840.71]	[Action:User 10/660]	[Remarks:Success]
[Date: 2016-10-28 09:26:51]	[UserID:10/660]	[IP:10.10.11.1]	[Browser:Chrome - 54.0.2840.71]	[Action:Filtering User : MasterData Username : 10/660]	[Remarks:Successful filter row count: 0]
[Date: 2016-10-28 09:26:51]	[UserID:10/660]	[IP:10.10.11.1]	[Browser:Chrome - 54.0.2840.71]	[Action:Filtering User : MasterData Username : 10/660]	[Remarks:Successful filter row count: 0]
[Date: 2016-10-28 09:26:51]	[UserID:10/660]	[IP:10.10.11.1]	[Browser:Chrome - 54.0.2840.71]	[Action:Filtering User : MasterData Username : 10/660]	[Remarks:Success]
[Date: 2016-10-28 09:26:51]	[UserID:10/660]	[IP:10.10.11.1]	[Browser:Chrome - 54.0.2840.71]	[Action:Closing mssql connection]	[Remarks:Success]
[Date: 2016-10-28 09:26:51]	[UserID:10/660]	[IP:10.10.11.1]	[Browser:Chrome - 54.0.2840.71]	[Action:Making connection to server]	[Remarks:Successful connection to server: S3]
[Date: 2016-10-28 09:26:51]	[UserID:10/660]	[IP:10.10.11.1]	[Browser:Chrome - 54.0.2840.71]	[Action:GetProgramList 10/660]	[Remarks:[{"ID":"1","ProgramIndex":"GST","ProgramName":"GST"}]]
[Date: 2016-10-28 09:26:51]	[UserID:10/660]	[IP:10.10.11.1]	[Browser:Chrome - 54.0.2840.71]	[Action:Making connection to server]	[Remarks:Successful connection to server: S3]
[Date: 2016-10-28 09:26:52]	[UserID:10/660]	[IP:10.10.11.1]	[Browser:Chrome - 54.0.2840.71]	[Action:GetProgramList 10/660]	[Remarks:[{"ID":"1","ProgramIndex":"GST","ProgramName":"GST"}]]
[Date: 2016-10-28 09:26:52]	[UserID:10/660]	[IP:10.10.11.1]	[Browser:Chrome - 54.0.2840.71]	[Action:Making connection to server]	[Remarks:Successful connection to server: S3]
[Date: 2016-10-28 09:26:52]	[UserID:10/660]	[IP:10.10.11.1]	[Browser:Chrome - 54.0.2840.71]	[Action:Filtering User : MasterData Username : 10/660]	[Remarks:Successful filter row count: 1]
[Date: 2016-10-28 09:26:53]	[UserID:10/660]	[IP:10.10.11.1]	[Browser:Chrome - 54.0.2840.71]	[Action:Making connection to server]	[Remarks:Successful connection to server: S3]
[Date: 2016-10-28 09:27:01]	[UserID:10/660]	[IP:10.10.11.1]	[Browser:Chrome - 54.0.2840.71]	[Action:GetGSTModules 10/660,1]	[Remarks:Successful filter row count: 3]
[Date: 2016-10-28 09:27:01]	[UserID:10/660]	[IP:10.10.11.1]	[Browser:Chrome - 54.0.2840.71]	[Action:Closing mssql connection]	[Remarks:Success]
[Date: 2016-10-28 09:33:26]	[UserID:10/660]	[IP:10.10.11.1]	[Browser:Chrome - 54.0.2840.71]	[Action:Making connection to server]	[Remarks:Successful connection to server: S3]
[Date: 2016-10-28 09:33:26]	[UserID:10/660]	[IP:10.10.11.1]	[Browser:Chrome - 54.0.2840.71]	[Action:GetGSTModules 10/660,1]	[Remarks:Successful filter row count: 3]
[Date: 2016-10-28 09:33:26]	[UserID:10/660]	[IP:10.10.11.1]	[Browser:Chrome - 54.0.2840.71]	[Action:Closing mssql connection]	[Remarks:Success]
[Date: 2016-10-28 09:36:34]	[UserID:10/660]	[IP:10.10.11.1]	[Browser:Chrome - 54.0.2840.71]	[Action:Making connection to server]	[Remarks:Successful connection to server: S3]
[Date: 2016-10-28 09:36:34]	[UserID:10/660]	[IP:10.10.11.1]	[Browser:Chrome - 54.0.2840.71]	[Action:GetGSTModules 10/660,1]	[Remarks:Successful filter row count: 3]
[Date: 2016-10-28 09:36:34]	[UserID:10/660]	[IP:10.10.11.1]	[Browser:Chrome - 54.0.2840.71]	[Action:Closing mssql connection]	[Remarks:Success]
[Date: 2016-10-28 09:41:51]	[UserID:]	[IP:10.10.11.1]	[Browser:Chrome - 54.0.2840.71]	[Action:Making connection to server]	[Remarks:Successful connection to server: S3]
[Date: 2016-10-28 09:41:52]	[UserID:]	[IP:10.10.11.1]	[Browser:Chrome - 54.0.2840.71]	[Action:GetProgramList ]	[Remarks:"no data"]
[Date: 2016-10-28 09:54:52]	[UserID:]	[IP:10.10.11.1]	[Browser:Chrome - 54.0.2840.71]	[Action:Making connection to server]	[Remarks:Successful connection to server: S3]
[Date: 2016-10-28 09:54:52]	[UserID:]	[IP:10.10.11.1]	[Browser:Chrome - 54.0.2840.71]	[Action:GetProgramList ]	[Remarks:"no data"]
[Date: 2016-10-28 09:54:54]	[UserID:10/660]	[IP:10.10.11.1]	[Browser:Chrome - 54.0.2840.71]	[Action:Making connection to server]	[Remarks:Successful connection to server: S3]
[Date: 2016-10-28 09:54:54]	[UserID:10/660]	[IP:10.10.11.1]	[Browser:Chrome - 54.0.2840.71]	[Action:User 10/660]	[Remarks:Success]
[Date: 2016-10-28 09:54:54]	[UserID:10/660]	[IP:10.10.11.1]	[Browser:Chrome - 54.0.2840.71]	[Action:Filtering User : MasterData Username : 10/660]	[Remarks:Successful filter row count: 0]
[Date: 2016-10-28 09:54:54]	[UserID:10/660]	[IP:10.10.11.1]	[Browser:Chrome - 54.0.2840.71]	[Action:Filtering User : MasterData Username : 10/660]	[Remarks:Successful filter row count: 0]
[Date: 2016-10-28 09:54:54]	[UserID:10/660]	[IP:10.10.11.1]	[Browser:Chrome - 54.0.2840.71]	[Action:Filtering User : MasterData Username : 10/660]	[Remarks:Success]
[Date: 2016-10-28 09:54:54]	[UserID:10/660]	[IP:10.10.11.1]	[Browser:Chrome - 54.0.2840.71]	[Action:Closing mssql connection]	[Remarks:Success]
[Date: 2016-10-28 09:54:54]	[UserID:10/660]	[IP:10.10.11.1]	[Browser:Chrome - 54.0.2840.71]	[Action:Making connection to server]	[Remarks:Successful connection to server: S3]
[Date: 2016-10-28 09:54:54]	[UserID:10/660]	[IP:10.10.11.1]	[Browser:Chrome - 54.0.2840.71]	[Action:GetProgramList 10/660]	[Remarks:[{"ID":"1","ProgramIndex":"GST","ProgramName":"GST"}]]
[Date: 2016-10-28 09:54:54]	[UserID:10/660]	[IP:10.10.11.1]	[Browser:Chrome - 54.0.2840.71]	[Action:Making connection to server]	[Remarks:Successful connection to server: S3]
[Date: 2016-10-28 09:54:54]	[UserID:10/660]	[IP:10.10.11.1]	[Browser:Chrome - 54.0.2840.71]	[Action:GetProgramList 10/660]	[Remarks:[{"ID":"1","ProgramIndex":"GST","ProgramName":"GST"}]]
[Date: 2016-10-28 09:54:54]	[UserID:10/660]	[IP:10.10.11.1]	[Browser:Chrome - 54.0.2840.71]	[Action:Making connection to server]	[Remarks:Successful connection to server: S3]
[Date: 2016-10-28 09:54:54]	[UserID:10/660]	[IP:10.10.11.1]	[Browser:Chrome - 54.0.2840.71]	[Action:Filtering User : MasterData Username : 10/660]	[Remarks:Successful filter row count: 1]
[Date: 2016-10-28 09:54:55]	[UserID:10/660]	[IP:10.10.11.1]	[Browser:Chrome - 54.0.2840.71]	[Action:Making connection to server]	[Remarks:Successful connection to server: S3]
[Date: 2016-10-28 09:54:55]	[UserID:10/660]	[IP:10.10.11.1]	[Browser:Chrome - 54.0.2840.71]	[Action:GetGSTModules 10/660,1]	[Remarks:Successful filter row count: 3]
[Date: 2016-10-28 09:54:55]	[UserID:10/660]	[IP:10.10.11.1]	[Browser:Chrome - 54.0.2840.71]	[Action:Closing mssql connection]	[Remarks:Success]
[Date: 2016-10-28 09:56:26]	[UserID:10/660]	[IP:10.10.11.1]	[Browser:Chrome - 54.0.2840.71]	[Action:Making connection to server]	[Remarks:Successful connection to server: S3]
[Date: 2016-10-28 09:56:26]	[UserID:10/660]	[IP:10.10.11.1]	[Browser:Chrome - 54.0.2840.71]	[Action:GetGSTModules 10/660,1]	[Remarks:Successful filter row count: 3]
[Date: 2016-10-28 09:56:26]	[UserID:10/660]	[IP:10.10.11.1]	[Browser:Chrome - 54.0.2840.71]	[Action:Closing mssql connection]	[Remarks:Success]
[Date: 2016-10-28 09:56:58]	[UserID:]	[IP:10.10.11.1]	[Browser:Chrome - 54.0.2840.71]	[Action:Making connection to server]	[Remarks:Successful connection to server: S3]
[Date: 2016-10-28 09:56:58]	[UserID:]	[IP:10.10.11.1]	[Browser:Chrome - 54.0.2840.71]	[Action:GetProgramList ]	[Remarks:"no data"]
[Date: 2016-10-28 17:11:07]	[UserID:]	[IP:10.10.11.1]	[Browser:Chrome - 54.0.2840.71]	[Action:Making connection to server]	[Remarks:Successful connection to server: S3]
[Date: 2016-10-28 17:11:07]	[UserID:]	[IP:10.10.11.1]	[Browser:Chrome - 54.0.2840.71]	[Action:GetProgramList ]	[Remarks:"no data"]
[Date: 2016-10-28 17:11:13]	[UserID:06/343]	[IP:10.10.11.1]	[Browser:Chrome - 54.0.2840.71]	[Action:Making connection to server]	[Remarks:Successful connection to server: S3]
[Date: 2016-10-28 17:11:13]	[UserID:06/343]	[IP:10.10.11.1]	[Browser:Chrome - 54.0.2840.71]	[Action:User 06/343]	[Remarks:Success]
[Date: 2016-10-28 17:11:13]	[UserID:06/343]	[IP:10.10.11.1]	[Browser:Chrome - 54.0.2840.71]	[Action:Filtering User : MasterData Username : 06/343]	[Remarks:Successful filter row count: 0]
[Date: 2016-10-28 17:11:13]	[UserID:06/343]	[IP:10.10.11.1]	[Browser:Chrome - 54.0.2840.71]	[Action:Filtering User : MasterData Username : 06/343]	[Remarks:Successful filter row count: 0]
[Date: 2016-10-28 17:11:13]	[UserID:06/343]	[IP:10.10.11.1]	[Browser:Chrome - 54.0.2840.71]	[Action:Filtering User : MasterData Username : 06/343]	[Remarks:Success]
[Date: 2016-10-28 17:11:13]	[UserID:06/343]	[IP:10.10.11.1]	[Browser:Chrome - 54.0.2840.71]	[Action:Closing mssql connection]	[Remarks:Success]
[Date: 2016-10-28 17:11:13]	[UserID:06/343]	[IP:10.10.11.1]	[Browser:Chrome - 54.0.2840.71]	[Action:Making connection to server]	[Remarks:Successful connection to server: S3]
[Date: 2016-10-28 17:11:13]	[UserID:06/343]	[IP:10.10.11.1]	[Browser:Chrome - 54.0.2840.71]	[Action:GetProgramList 06/343]	[Remarks:[{"ID":"1","ProgramIndex":"GST","ProgramName":"GST"}]]
[Date: 2016-10-28 17:11:13]	[UserID:06/343]	[IP:10.10.11.1]	[Browser:Chrome - 54.0.2840.71]	[Action:Making connection to server]	[Remarks:Successful connection to server: S3]
[Date: 2016-10-28 17:11:13]	[UserID:06/343]	[IP:10.10.11.1]	[Browser:Chrome - 54.0.2840.71]	[Action:GetProgramList 06/343]	[Remarks:[{"ID":"1","ProgramIndex":"GST","ProgramName":"GST"}]]
[Date: 2016-10-28 17:11:13]	[UserID:06/343]	[IP:10.10.11.1]	[Browser:Chrome - 54.0.2840.71]	[Action:Making connection to server]	[Remarks:Successful connection to server: S3]
[Date: 2016-10-28 17:11:13]	[UserID:06/343]	[IP:10.10.11.1]	[Browser:Chrome - 54.0.2840.71]	[Action:Filtering User : MasterData Username : 06/343]	[Remarks:Successful filter row count: 1]
[Date: 2016-10-28 17:11:14]	[UserID:06/343]	[IP:10.10.11.1]	[Browser:Chrome - 54.0.2840.71]	[Action:Making connection to server]	[Remarks:Successful connection to server: S3]
[Date: 2016-10-28 17:11:14]	[UserID:06/343]	[IP:10.10.11.1]	[Browser:Chrome - 54.0.2840.71]	[Action:GetGSTModules 06/343,1]	[Remarks:Successful filter row count: 5]
[Date: 2016-10-28 17:11:14]	[UserID:06/343]	[IP:10.10.11.1]	[Browser:Chrome - 54.0.2840.71]	[Action:Closing mssql connection]	[Remarks:Success]
[Date: 2016-10-28 17:13:04]	[UserID:06/343]	[IP:10.10.11.1]	[Browser:Chrome - 54.0.2840.71]	[Action:Making connection to server]	[Remarks:Successful connection to server: S3]
[Date: 2016-10-28 17:13:04]	[UserID:06/343]	[IP:10.10.11.1]	[Browser:Chrome - 54.0.2840.71]	[Action:GetGSTModules 06/343,1]	[Remarks:Successful filter row count: 5]
[Date: 2016-10-28 17:13:05]	[UserID:06/343]	[IP:10.10.11.1]	[Browser:Chrome - 54.0.2840.71]	[Action:Closing mssql connection]	[Remarks:Success]
[Date: 2016-10-28 17:55:22]	[UserID:]	[IP:10.10.11.1]	[Browser:Chrome - 49.0.2623.75]	[Action:Making connection to server]	[Remarks:Successful connection to server: S3]
[Date: 2016-10-28 17:55:22]	[UserID:]	[IP:10.10.11.1]	[Browser:Chrome - 49.0.2623.75]	[Action:GetProgramList ]	[Remarks:"no data"]
