[Date: 2020-08-22 07:54:10]	[UserID:]	[IP:10.128.130.5]	[Browser:Chrome - 84.0.4147.125]	[Action:Making connection to server]	[Remarks:Successful connection to server: S3]
[Date: 2020-08-22 07:54:10]	[UserID:]	[IP:10.128.130.5]	[Browser:Chrome - 84.0.4147.125]	[Action:GetProgramList ]	[Remarks:"no data"]
[Date: 2020-08-22 08:42:53]	[UserID:]	[IP:10.128.12.114]	[Browser:Chrome - 84.0.4147.135]	[Action:Making connection to server]	[Remarks:Successful connection to server: S3]
[Date: 2020-08-22 08:42:53]	[UserID:]	[IP:10.128.12.114]	[Browser:Chrome - 84.0.4147.135]	[Action:GetProgramList ]	[Remarks:"no data"]
[Date: 2020-08-22 08:42:59]	[UserID:14/1082]	[IP:10.128.12.114]	[Browser:Chrome - 84.0.4147.135]	[Action:Making connection to server]	[Remarks:Successful connection to server: S3]
[Date: 2020-08-22 08:42:59]	[UserID:14/1082]	[IP:10.128.12.114]	[Browser:Chrome - 84.0.4147.135]	[Action:User 14/1082]	[Remarks:Success]
[Date: 2020-08-22 08:42:59]	[UserID:14/1082]	[IP:10.128.12.114]	[Browser:Chrome - 84.0.4147.135]	[Action:Filtering User : MasterData Username : 14/1082]	[Remarks:Successful filter row count: 0]
[Date: 2020-08-22 08:42:59]	[UserID:14/1082]	[IP:10.128.12.114]	[Browser:Chrome - 84.0.4147.135]	[Action:Filtering User : MasterData Username : 14/1082]	[Remarks:Successful filter row count: 0]
[Date: 2020-08-22 08:42:59]	[UserID:14/1082]	[IP:10.128.12.114]	[Browser:Chrome - 84.0.4147.135]	[Action:Filtering User : MasterData Username : 14/1082]	[Remarks:Success]
[Date: 2020-08-22 08:42:59]	[UserID:14/1082]	[IP:10.128.12.114]	[Browser:Chrome - 84.0.4147.135]	[Action:Closing mssql connection]	[Remarks:Success]
[Date: 2020-08-22 08:42:59]	[UserID:14/1082]	[IP:10.128.12.114]	[Browser:Chrome - 84.0.4147.135]	[Action:Making connection to server]	[Remarks:Successful connection to server: S3]
[Date: 2020-08-22 08:42:59]	[UserID:14/1082]	[IP:10.128.12.114]	[Browser:Chrome - 84.0.4147.135]	[Action:GetProgramList 14/1082]	[Remarks:[{"ID":"1","ProgramIndex":"GST","ProgramName":"GST"}]]
[Date: 2020-08-22 08:42:59]	[UserID:14/1082]	[IP:10.128.12.114]	[Browser:Chrome - 84.0.4147.135]	[Action:Making connection to server]	[Remarks:Successful connection to server: S3]
[Date: 2020-08-22 08:42:59]	[UserID:14/1082]	[IP:10.128.12.114]	[Browser:Chrome - 84.0.4147.135]	[Action:GetProgramList 14/1082]	[Remarks:[{"ID":"1","ProgramIndex":"GST","ProgramName":"GST"}]]
[Date: 2020-08-22 08:42:59]	[UserID:14/1082]	[IP:10.128.12.114]	[Browser:Chrome - 84.0.4147.135]	[Action:Making connection to server]	[Remarks:Successful connection to server: S3]
[Date: 2020-08-22 08:42:59]	[UserID:14/1082]	[IP:10.128.12.114]	[Browser:Chrome - 84.0.4147.135]	[Action:Filtering User : MasterData Username : 14/1082]	[Remarks:Successful filter row count: 1]
[Date: 2020-08-22 08:43:00]	[UserID:14/1082]	[IP:10.128.12.114]	[Browser:Chrome - 84.0.4147.135]	[Action:Making connection to server]	[Remarks:Successful connection to server: S3]
[Date: 2020-08-22 08:43:00]	[UserID:14/1082]	[IP:10.128.12.114]	[Browser:Chrome - 84.0.4147.135]	[Action:GetGSTModules 14/1082,1]	[Remarks:Successful filter row count: 8]
[Date: 2020-08-22 08:43:00]	[UserID:14/1082]	[IP:10.128.12.114]	[Browser:Chrome - 84.0.4147.135]	[Action:Closing mssql connection]	[Remarks:Success]
[Date: 2020-08-22 08:51:05]	[UserID:]	[IP:10.128.12.115]	[Browser:Chrome - 84.0.4147.135]	[Action:Making connection to server]	[Remarks:Successful connection to server: S3]
[Date: 2020-08-22 08:51:05]	[UserID:]	[IP:10.128.12.115]	[Browser:Chrome - 84.0.4147.135]	[Action:GetProgramList ]	[Remarks:"no data"]
[Date: 2020-08-22 08:51:10]	[UserID:17/1248]	[IP:10.128.12.115]	[Browser:Chrome - 84.0.4147.135]	[Action:Making connection to server]	[Remarks:Successful connection to server: S3]
[Date: 2020-08-22 08:51:10]	[UserID:17/1248]	[IP:10.128.12.115]	[Browser:Chrome - 84.0.4147.135]	[Action:User 17/1248]	[Remarks:Success]
[Date: 2020-08-22 08:51:10]	[UserID:17/1248]	[IP:10.128.12.115]	[Browser:Chrome - 84.0.4147.135]	[Action:Filtering User : MasterData Username : 17/1248]	[Remarks:Successful filter row count: 0]
[Date: 2020-08-22 08:51:10]	[UserID:17/1248]	[IP:10.128.12.115]	[Browser:Chrome - 84.0.4147.135]	[Action:Filtering User : MasterData Username : 17/1248]	[Remarks:Successful filter row count: 0]
[Date: 2020-08-22 08:51:10]	[UserID:17/1248]	[IP:10.128.12.115]	[Browser:Chrome - 84.0.4147.135]	[Action:Filtering User : MasterData Username : 17/1248]	[Remarks:Success]
[Date: 2020-08-22 08:51:10]	[UserID:17/1248]	[IP:10.128.12.115]	[Browser:Chrome - 84.0.4147.135]	[Action:Closing mssql connection]	[Remarks:Success]
[Date: 2020-08-22 08:51:10]	[UserID:17/1248]	[IP:10.128.12.115]	[Browser:Chrome - 84.0.4147.135]	[Action:Making connection to server]	[Remarks:Successful connection to server: S3]
[Date: 2020-08-22 08:51:10]	[UserID:17/1248]	[IP:10.128.12.115]	[Browser:Chrome - 84.0.4147.135]	[Action:GetProgramList 17/1248]	[Remarks:[{"ID":"1","ProgramIndex":"GST","ProgramName":"GST"}]]
[Date: 2020-08-22 08:51:10]	[UserID:17/1248]	[IP:10.128.12.115]	[Browser:Chrome - 84.0.4147.135]	[Action:Making connection to server]	[Remarks:Successful connection to server: S3]
[Date: 2020-08-22 08:51:10]	[UserID:17/1248]	[IP:10.128.12.115]	[Browser:Chrome - 84.0.4147.135]	[Action:GetProgramList 17/1248]	[Remarks:[{"ID":"1","ProgramIndex":"GST","ProgramName":"GST"}]]
[Date: 2020-08-22 08:51:10]	[UserID:17/1248]	[IP:10.128.12.115]	[Browser:Chrome - 84.0.4147.135]	[Action:Making connection to server]	[Remarks:Successful connection to server: S3]
[Date: 2020-08-22 08:51:10]	[UserID:17/1248]	[IP:10.128.12.115]	[Browser:Chrome - 84.0.4147.135]	[Action:Filtering User : MasterData Username : 17/1248]	[Remarks:Successful filter row count: 1]
[Date: 2020-08-22 08:51:10]	[UserID:17/1248]	[IP:10.128.12.115]	[Browser:Chrome - 84.0.4147.135]	[Action:Making connection to server]	[Remarks:Successful connection to server: S3]
[Date: 2020-08-22 08:51:10]	[UserID:17/1248]	[IP:10.128.12.115]	[Browser:Chrome - 84.0.4147.135]	[Action:GetGSTModules 17/1248,1]	[Remarks:Successful filter row count: 6]
[Date: 2020-08-22 08:51:10]	[UserID:17/1248]	[IP:10.128.12.115]	[Browser:Chrome - 84.0.4147.135]	[Action:Closing mssql connection]	[Remarks:Success]
[Date: 2020-08-22 08:51:13]	[UserID:17/1248]	[IP:10.128.12.115]	[Browser:Chrome - 84.0.4147.135]	[Action:Making connection to server]	[Remarks:Successful connection to server: S3]
[Date: 2020-08-22 08:51:13]	[UserID:17/1248]	[IP:10.128.12.115]	[Browser:Chrome - 84.0.4147.135]	[Action:GetGSTModules 17/1248,1]	[Remarks:Successful filter row count: 6]
[Date: 2020-08-22 08:51:13]	[UserID:17/1248]	[IP:10.128.12.115]	[Browser:Chrome - 84.0.4147.135]	[Action:Closing mssql connection]	[Remarks:Success]
[Date: 2020-08-22 10:42:53]	[UserID:14/1082]	[IP:10.128.12.114]	[Browser:Chrome - 84.0.4147.135]	[Action:Making connection to server]	[Remarks:Successful connection to server: S3]
[Date: 2020-08-22 10:42:53]	[UserID:14/1082]	[IP:10.128.12.114]	[Browser:Chrome - 84.0.4147.135]	[Action:GetGSTModules 14/1082,1]	[Remarks:Successful filter row count: 8]
[Date: 2020-08-22 10:42:53]	[UserID:14/1082]	[IP:10.128.12.114]	[Browser:Chrome - 84.0.4147.135]	[Action:Closing mssql connection]	[Remarks:Success]
[Date: 2020-08-22 10:42:56]	[UserID:14/1082]	[IP:10.128.12.114]	[Browser:Chrome - 84.0.4147.135]	[Action:Making connection to server]	[Remarks:Successful connection to server: S3]
[Date: 2020-08-22 10:42:56]	[UserID:14/1082]	[IP:10.128.12.114]	[Browser:Chrome - 84.0.4147.135]	[Action:GetGSTModules 14/1082,1]	[Remarks:Successful filter row count: 8]
[Date: 2020-08-22 10:42:56]	[UserID:14/1082]	[IP:10.128.12.114]	[Browser:Chrome - 84.0.4147.135]	[Action:Closing mssql connection]	[Remarks:Success]
[Date: 2020-08-22 10:43:41]	[UserID:14/1082]	[IP:10.128.12.114]	[Browser:Chrome - 84.0.4147.135]	[Action:Making connection to server]	[Remarks:Successful connection to server: S3]
[Date: 2020-08-22 10:43:41]	[UserID:14/1082]	[IP:10.128.12.114]	[Browser:Chrome - 84.0.4147.135]	[Action:GetGSTModules 14/1082,1]	[Remarks:Successful filter row count: 8]
[Date: 2020-08-22 10:43:41]	[UserID:14/1082]	[IP:10.128.12.114]	[Browser:Chrome - 84.0.4147.135]	[Action:Closing mssql connection]	[Remarks:Success]
[Date: 2020-08-22 12:32:28]	[UserID:]	[IP:10.128.12.210]	[Browser:Chrome - 84.0.4147.135]	[Action:Making connection to server]	[Remarks:Successful connection to server: S3]
[Date: 2020-08-22 12:32:28]	[UserID:]	[IP:10.128.12.210]	[Browser:Chrome - 84.0.4147.135]	[Action:GetProgramList ]	[Remarks:"no data"]
[Date: 2020-08-22 12:32:39]	[UserID:10/660]	[IP:10.128.12.210]	[Browser:Chrome - 84.0.4147.135]	[Action:Making connection to server]	[Remarks:Successful connection to server: S3]
[Date: 2020-08-22 12:32:39]	[UserID:10/660]	[IP:10.128.12.210]	[Browser:Chrome - 84.0.4147.135]	[Action:User 10/660]	[Remarks:Success]
[Date: 2020-08-22 12:32:39]	[UserID:10/660]	[IP:10.128.12.210]	[Browser:Chrome - 84.0.4147.135]	[Action:Filtering User : MasterData Username : 10/660]	[Remarks:Successful filter row count: 0]
[Date: 2020-08-22 12:32:39]	[UserID:10/660]	[IP:10.128.12.210]	[Browser:Chrome - 84.0.4147.135]	[Action:Filtering User : MasterData Username : 10/660]	[Remarks:Successful filter row count: 0]
[Date: 2020-08-22 12:32:39]	[UserID:10/660]	[IP:10.128.12.210]	[Browser:Chrome - 84.0.4147.135]	[Action:Filtering User : MasterData Username : 10/660]	[Remarks:Success]
[Date: 2020-08-22 12:32:39]	[UserID:10/660]	[IP:10.128.12.210]	[Browser:Chrome - 84.0.4147.135]	[Action:Closing mssql connection]	[Remarks:Success]
[Date: 2020-08-22 12:32:39]	[UserID:10/660]	[IP:10.128.12.210]	[Browser:Chrome - 84.0.4147.135]	[Action:Making connection to server]	[Remarks:Successful connection to server: S3]
[Date: 2020-08-22 12:32:39]	[UserID:10/660]	[IP:10.128.12.210]	[Browser:Chrome - 84.0.4147.135]	[Action:GetProgramList 10/660]	[Remarks:[{"ID":"1","ProgramIndex":"GST","ProgramName":"GST"}]]
[Date: 2020-08-22 12:32:39]	[UserID:10/660]	[IP:10.128.12.210]	[Browser:Chrome - 84.0.4147.135]	[Action:Making connection to server]	[Remarks:Successful connection to server: S3]
[Date: 2020-08-22 12:32:39]	[UserID:10/660]	[IP:10.128.12.210]	[Browser:Chrome - 84.0.4147.135]	[Action:GetProgramList 10/660]	[Remarks:[{"ID":"1","ProgramIndex":"GST","ProgramName":"GST"}]]
[Date: 2020-08-22 12:32:39]	[UserID:10/660]	[IP:10.128.12.210]	[Browser:Chrome - 84.0.4147.135]	[Action:Making connection to server]	[Remarks:Successful connection to server: S3]
[Date: 2020-08-22 12:32:39]	[UserID:10/660]	[IP:10.128.12.210]	[Browser:Chrome - 84.0.4147.135]	[Action:Filtering User : MasterData Username : 10/660]	[Remarks:Successful filter row count: 1]
[Date: 2020-08-22 12:32:40]	[UserID:10/660]	[IP:10.128.12.210]	[Browser:Chrome - 84.0.4147.135]	[Action:Making connection to server]	[Remarks:Successful connection to server: S3]
[Date: 2020-08-22 12:32:40]	[UserID:10/660]	[IP:10.128.12.210]	[Browser:Chrome - 84.0.4147.135]	[Action:GetGSTModules 10/660,1]	[Remarks:Successful filter row count: 5]
[Date: 2020-08-22 12:32:40]	[UserID:10/660]	[IP:10.128.12.210]	[Browser:Chrome - 84.0.4147.135]	[Action:Closing mssql connection]	[Remarks:Success]
[Date: 2020-08-22 12:33:15]	[UserID:]	[IP:10.128.12.117]	[Browser:Chrome - 84.0.4147.135]	[Action:Making connection to server]	[Remarks:Successful connection to server: S3]
[Date: 2020-08-22 12:33:15]	[UserID:]	[IP:10.128.12.117]	[Browser:Chrome - 84.0.4147.135]	[Action:GetProgramList ]	[Remarks:"no data"]
[Date: 2020-08-22 12:33:24]	[UserID:11/715]	[IP:10.128.12.117]	[Browser:Chrome - 84.0.4147.135]	[Action:Making connection to server]	[Remarks:Successful connection to server: S3]
[Date: 2020-08-22 12:33:24]	[UserID:11/715]	[IP:10.128.12.117]	[Browser:Chrome - 84.0.4147.135]	[Action:User 11/715]	[Remarks:Success]
[Date: 2020-08-22 12:33:24]	[UserID:11/715]	[IP:10.128.12.117]	[Browser:Chrome - 84.0.4147.135]	[Action:Filtering User : MasterData Username : 11/715]	[Remarks:Successful filter row count: 0]
[Date: 2020-08-22 12:33:24]	[UserID:11/715]	[IP:10.128.12.117]	[Browser:Chrome - 84.0.4147.135]	[Action:Filtering User : MasterData Username : 11/715]	[Remarks:Successful filter row count: 0]
[Date: 2020-08-22 12:33:24]	[UserID:11/715]	[IP:10.128.12.117]	[Browser:Chrome - 84.0.4147.135]	[Action:Filtering User : MasterData Username : 11/715]	[Remarks:Success]
[Date: 2020-08-22 12:33:24]	[UserID:11/715]	[IP:10.128.12.117]	[Browser:Chrome - 84.0.4147.135]	[Action:Closing mssql connection]	[Remarks:Success]
[Date: 2020-08-22 12:33:24]	[UserID:11/715]	[IP:10.128.12.117]	[Browser:Chrome - 84.0.4147.135]	[Action:Making connection to server]	[Remarks:Successful connection to server: S3]
[Date: 2020-08-22 12:33:24]	[UserID:11/715]	[IP:10.128.12.117]	[Browser:Chrome - 84.0.4147.135]	[Action:GetProgramList 11/715]	[Remarks:[{"ID":"1","ProgramIndex":"GST","ProgramName":"GST"}]]
[Date: 2020-08-22 12:33:24]	[UserID:11/715]	[IP:10.128.12.117]	[Browser:Chrome - 84.0.4147.135]	[Action:Making connection to server]	[Remarks:Successful connection to server: S3]
[Date: 2020-08-22 12:33:24]	[UserID:11/715]	[IP:10.128.12.117]	[Browser:Chrome - 84.0.4147.135]	[Action:GetProgramList 11/715]	[Remarks:[{"ID":"1","ProgramIndex":"GST","ProgramName":"GST"}]]
[Date: 2020-08-22 12:33:24]	[UserID:11/715]	[IP:10.128.12.117]	[Browser:Chrome - 84.0.4147.135]	[Action:Making connection to server]	[Remarks:Successful connection to server: S3]
[Date: 2020-08-22 12:33:24]	[UserID:11/715]	[IP:10.128.12.117]	[Browser:Chrome - 84.0.4147.135]	[Action:Filtering User : MasterData Username : 11/715]	[Remarks:Successful filter row count: 1]
[Date: 2020-08-22 12:33:25]	[UserID:11/715]	[IP:10.128.12.117]	[Browser:Chrome - 84.0.4147.135]	[Action:Making connection to server]	[Remarks:Successful connection to server: S3]
[Date: 2020-08-22 12:33:25]	[UserID:11/715]	[IP:10.128.12.117]	[Browser:Chrome - 84.0.4147.135]	[Action:GetGSTModules 11/715,1]	[Remarks:Successful filter row count: 5]
[Date: 2020-08-22 12:33:25]	[UserID:11/715]	[IP:10.128.12.117]	[Browser:Chrome - 84.0.4147.135]	[Action:Closing mssql connection]	[Remarks:Success]
[Date: 2020-08-22 13:25:25]	[UserID:14/1082]	[IP:10.128.12.114]	[Browser:Chrome - 84.0.4147.135]	[Action:Making connection to server]	[Remarks:Successful connection to server: S3]
[Date: 2020-08-22 13:25:25]	[UserID:14/1082]	[IP:10.128.12.114]	[Browser:Chrome - 84.0.4147.135]	[Action:GetGSTModules 14/1082,1]	[Remarks:Successful filter row count: 8]
[Date: 2020-08-22 13:25:25]	[UserID:14/1082]	[IP:10.128.12.114]	[Browser:Chrome - 84.0.4147.135]	[Action:Closing mssql connection]	[Remarks:Success]
[Date: 2020-08-22 13:44:45]	[UserID:]	[IP:10.128.12.115]	[Browser:Chrome - 84.0.4147.135]	[Action:Making connection to server]	[Remarks:Successful connection to server: S3]
[Date: 2020-08-22 13:44:45]	[UserID:]	[IP:10.128.12.115]	[Browser:Chrome - 84.0.4147.135]	[Action:GetProgramList ]	[Remarks:"no data"]
[Date: 2020-08-22 13:44:49]	[UserID:17/1248]	[IP:10.128.12.115]	[Browser:Chrome - 84.0.4147.135]	[Action:Making connection to server]	[Remarks:Successful connection to server: S3]
[Date: 2020-08-22 13:44:49]	[UserID:17/1248]	[IP:10.128.12.115]	[Browser:Chrome - 84.0.4147.135]	[Action:User 17/1248]	[Remarks:Success]
[Date: 2020-08-22 13:44:49]	[UserID:17/1248]	[IP:10.128.12.115]	[Browser:Chrome - 84.0.4147.135]	[Action:Filtering User : MasterData Username : 17/1248]	[Remarks:Successful filter row count: 0]
[Date: 2020-08-22 13:44:49]	[UserID:17/1248]	[IP:10.128.12.115]	[Browser:Chrome - 84.0.4147.135]	[Action:Filtering User : MasterData Username : 17/1248]	[Remarks:Successful filter row count: 0]
[Date: 2020-08-22 13:44:49]	[UserID:17/1248]	[IP:10.128.12.115]	[Browser:Chrome - 84.0.4147.135]	[Action:Filtering User : MasterData Username : 17/1248]	[Remarks:Success]
[Date: 2020-08-22 13:44:49]	[UserID:17/1248]	[IP:10.128.12.115]	[Browser:Chrome - 84.0.4147.135]	[Action:Closing mssql connection]	[Remarks:Success]
[Date: 2020-08-22 13:44:49]	[UserID:17/1248]	[IP:10.128.12.115]	[Browser:Chrome - 84.0.4147.135]	[Action:Making connection to server]	[Remarks:Successful connection to server: S3]
[Date: 2020-08-22 13:44:49]	[UserID:17/1248]	[IP:10.128.12.115]	[Browser:Chrome - 84.0.4147.135]	[Action:GetProgramList 17/1248]	[Remarks:[{"ID":"1","ProgramIndex":"GST","ProgramName":"GST"}]]
[Date: 2020-08-22 13:44:49]	[UserID:17/1248]	[IP:10.128.12.115]	[Browser:Chrome - 84.0.4147.135]	[Action:Making connection to server]	[Remarks:Successful connection to server: S3]
[Date: 2020-08-22 13:44:50]	[UserID:17/1248]	[IP:10.128.12.115]	[Browser:Chrome - 84.0.4147.135]	[Action:GetProgramList 17/1248]	[Remarks:[{"ID":"1","ProgramIndex":"GST","ProgramName":"GST"}]]
[Date: 2020-08-22 13:44:50]	[UserID:17/1248]	[IP:10.128.12.115]	[Browser:Chrome - 84.0.4147.135]	[Action:Making connection to server]	[Remarks:Successful connection to server: S3]
[Date: 2020-08-22 13:44:50]	[UserID:17/1248]	[IP:10.128.12.115]	[Browser:Chrome - 84.0.4147.135]	[Action:Filtering User : MasterData Username : 17/1248]	[Remarks:Successful filter row count: 1]
[Date: 2020-08-22 13:44:50]	[UserID:17/1248]	[IP:10.128.12.115]	[Browser:Chrome - 84.0.4147.135]	[Action:Making connection to server]	[Remarks:Successful connection to server: S3]
[Date: 2020-08-22 13:44:50]	[UserID:17/1248]	[IP:10.128.12.115]	[Browser:Chrome - 84.0.4147.135]	[Action:GetGSTModules 17/1248,1]	[Remarks:Successful filter row count: 6]
[Date: 2020-08-22 13:44:50]	[UserID:17/1248]	[IP:10.128.12.115]	[Browser:Chrome - 84.0.4147.135]	[Action:Closing mssql connection]	[Remarks:Success]
[Date: 2020-08-22 14:04:26]	[UserID:17/1248]	[IP:10.128.12.115]	[Browser:Chrome - 84.0.4147.135]	[Action:Making connection to server]	[Remarks:Successful connection to server: S3]
[Date: 2020-08-22 14:04:26]	[UserID:17/1248]	[IP:10.128.12.115]	[Browser:Chrome - 84.0.4147.135]	[Action:GetGSTModules 17/1248,1]	[Remarks:Successful filter row count: 6]
[Date: 2020-08-22 14:04:26]	[UserID:17/1248]	[IP:10.128.12.115]	[Browser:Chrome - 84.0.4147.135]	[Action:Closing mssql connection]	[Remarks:Success]
[Date: 2020-08-22 14:06:04]	[UserID:17/1248]	[IP:10.128.12.115]	[Browser:Chrome - 84.0.4147.135]	[Action:Making connection to server]	[Remarks:Successful connection to server: S3]
[Date: 2020-08-22 14:06:04]	[UserID:17/1248]	[IP:10.128.12.115]	[Browser:Chrome - 84.0.4147.135]	[Action:GetGSTModules 17/1248,1]	[Remarks:Successful filter row count: 6]
[Date: 2020-08-22 14:06:04]	[UserID:17/1248]	[IP:10.128.12.115]	[Browser:Chrome - 84.0.4147.135]	[Action:Closing mssql connection]	[Remarks:Success]
[Date: 2020-08-22 14:06:10]	[UserID:17/1248]	[IP:10.128.12.115]	[Browser:Chrome - 84.0.4147.135]	[Action:Making connection to server]	[Remarks:Successful connection to server: S3]
[Date: 2020-08-22 14:06:10]	[UserID:17/1248]	[IP:10.128.12.115]	[Browser:Chrome - 84.0.4147.135]	[Action:GetGSTModules 17/1248,1]	[Remarks:Successful filter row count: 6]
[Date: 2020-08-22 14:06:10]	[UserID:17/1248]	[IP:10.128.12.115]	[Browser:Chrome - 84.0.4147.135]	[Action:Closing mssql connection]	[Remarks:Success]
[Date: 2020-08-22 14:15:21]	[UserID:17/1248]	[IP:10.128.12.115]	[Browser:Chrome - 84.0.4147.135]	[Action:Making connection to server]	[Remarks:Successful connection to server: S3]
[Date: 2020-08-22 14:15:21]	[UserID:17/1248]	[IP:10.128.12.115]	[Browser:Chrome - 84.0.4147.135]	[Action:GetGSTModules 17/1248,1]	[Remarks:Successful filter row count: 6]
[Date: 2020-08-22 14:15:21]	[UserID:17/1248]	[IP:10.128.12.115]	[Browser:Chrome - 84.0.4147.135]	[Action:Closing mssql connection]	[Remarks:Success]
[Date: 2020-08-22 14:15:31]	[UserID:17/1248]	[IP:10.128.12.115]	[Browser:Chrome - 84.0.4147.135]	[Action:Making connection to server]	[Remarks:Successful connection to server: S3]
[Date: 2020-08-22 14:15:31]	[UserID:17/1248]	[IP:10.128.12.115]	[Browser:Chrome - 84.0.4147.135]	[Action:GetGSTModules 17/1248,1]	[Remarks:Successful filter row count: 6]
[Date: 2020-08-22 14:15:31]	[UserID:17/1248]	[IP:10.128.12.115]	[Browser:Chrome - 84.0.4147.135]	[Action:Closing mssql connection]	[Remarks:Success]
[Date: 2020-08-22 14:16:01]	[UserID:17/1248]	[IP:10.128.12.115]	[Browser:Chrome - 84.0.4147.135]	[Action:Making connection to server]	[Remarks:Successful connection to server: S3]
[Date: 2020-08-22 14:16:01]	[UserID:17/1248]	[IP:10.128.12.115]	[Browser:Chrome - 84.0.4147.135]	[Action:GetGSTModules 17/1248,1]	[Remarks:Successful filter row count: 6]
[Date: 2020-08-22 14:16:01]	[UserID:17/1248]	[IP:10.128.12.115]	[Browser:Chrome - 84.0.4147.135]	[Action:Closing mssql connection]	[Remarks:Success]
[Date: 2020-08-22 14:17:28]	[UserID:]	[IP:10.128.12.114]	[Browser:Chrome - 84.0.4147.135]	[Action:Making connection to server]	[Remarks:Successful connection to server: S3]
[Date: 2020-08-22 14:17:28]	[UserID:]	[IP:10.128.12.114]	[Browser:Chrome - 84.0.4147.135]	[Action:GetProgramList ]	[Remarks:"no data"]
[Date: 2020-08-22 14:19:25]	[UserID:]	[IP:10.128.12.115]	[Browser:Chrome - 84.0.4147.135]	[Action:Making connection to server]	[Remarks:Successful connection to server: S3]
[Date: 2020-08-22 14:19:25]	[UserID:]	[IP:10.128.12.115]	[Browser:Chrome - 84.0.4147.135]	[Action:GetProgramList ]	[Remarks:"no data"]
[Date: 2020-08-22 23:07:52]	[UserID:]	[IP:10.128.130.5]	[Browser:Chrome - 84.0.4147.135]	[Action:Making connection to server]	[Remarks:Successful connection to server: S3]
[Date: 2020-08-22 23:07:52]	[UserID:]	[IP:10.128.130.5]	[Browser:Chrome - 84.0.4147.135]	[Action:GetProgramList ]	[Remarks:"no data"]
