[Date: 2018-07-19 07:55:17]	[UserID:]	[IP:10.128.12.113]	[Browser:Chrome - 67.0.3396.99]	[Action:Making connection to server]	[Remarks:Successful connection to server: S3]
[Date: 2018-07-19 07:55:17]	[UserID:]	[IP:10.128.12.113]	[Browser:Chrome - 67.0.3396.99]	[Action:GetProgramList ]	[Remarks:"no data"]
[Date: 2018-07-19 08:08:02]	[UserID:06/343]	[IP:10.128.12.113]	[Browser:Chrome - 67.0.3396.99]	[Action:Making connection to server]	[Remarks:Successful connection to server: S3]
[Date: 2018-07-19 08:08:02]	[UserID:06/343]	[IP:10.128.12.113]	[Browser:Chrome - 67.0.3396.99]	[Action:User 06/343]	[Remarks:Success]
[Date: 2018-07-19 08:08:02]	[UserID:06/343]	[IP:10.128.12.113]	[Browser:Chrome - 67.0.3396.99]	[Action:Filtering User : MasterData Username : 06/343]	[Remarks:Successful filter row count: 0]
[Date: 2018-07-19 08:08:02]	[UserID:06/343]	[IP:10.128.12.113]	[Browser:Chrome - 67.0.3396.99]	[Action:Filtering User : MasterData Username : 06/343]	[Remarks:Successful filter row count: 0]
[Date: 2018-07-19 08:08:02]	[UserID:06/343]	[IP:10.128.12.113]	[Browser:Chrome - 67.0.3396.99]	[Action:Filtering User : MasterData Username : 06/343]	[Remarks:Success]
[Date: 2018-07-19 08:08:02]	[UserID:06/343]	[IP:10.128.12.113]	[Browser:Chrome - 67.0.3396.99]	[Action:Closing mssql connection]	[Remarks:Success]
[Date: 2018-07-19 08:08:02]	[UserID:06/343]	[IP:10.128.12.113]	[Browser:Chrome - 67.0.3396.99]	[Action:Making connection to server]	[Remarks:Successful connection to server: S3]
[Date: 2018-07-19 08:08:02]	[UserID:06/343]	[IP:10.128.12.113]	[Browser:Chrome - 67.0.3396.99]	[Action:GetProgramList 06/343]	[Remarks:[{"ID":"1","ProgramIndex":"GST","ProgramName":"GST"}]]
[Date: 2018-07-19 08:08:02]	[UserID:06/343]	[IP:10.128.12.113]	[Browser:Chrome - 67.0.3396.99]	[Action:Making connection to server]	[Remarks:Successful connection to server: S3]
[Date: 2018-07-19 08:08:02]	[UserID:06/343]	[IP:10.128.12.113]	[Browser:Chrome - 67.0.3396.99]	[Action:GetProgramList 06/343]	[Remarks:[{"ID":"1","ProgramIndex":"GST","ProgramName":"GST"}]]
[Date: 2018-07-19 08:08:02]	[UserID:06/343]	[IP:10.128.12.113]	[Browser:Chrome - 67.0.3396.99]	[Action:Making connection to server]	[Remarks:Successful connection to server: S3]
[Date: 2018-07-19 08:08:02]	[UserID:06/343]	[IP:10.128.12.113]	[Browser:Chrome - 67.0.3396.99]	[Action:Filtering User : MasterData Username : 06/343]	[Remarks:Successful filter row count: 1]
[Date: 2018-07-19 08:08:03]	[UserID:06/343]	[IP:10.128.12.113]	[Browser:Chrome - 67.0.3396.99]	[Action:Making connection to server]	[Remarks:Successful connection to server: S3]
[Date: 2018-07-19 08:08:03]	[UserID:06/343]	[IP:10.128.12.113]	[Browser:Chrome - 67.0.3396.99]	[Action:GetGSTModules 06/343,1]	[Remarks:Successful filter row count: 6]
[Date: 2018-07-19 08:08:03]	[UserID:06/343]	[IP:10.128.12.113]	[Browser:Chrome - 67.0.3396.99]	[Action:Closing mssql connection]	[Remarks:Success]
[Date: 2018-07-19 08:11:18]	[UserID:06/343]	[IP:10.128.12.113]	[Browser:Chrome - 67.0.3396.99]	[Action:Making connection to server]	[Remarks:Successful connection to server: S3]
[Date: 2018-07-19 08:11:18]	[UserID:06/343]	[IP:10.128.12.113]	[Browser:Chrome - 67.0.3396.99]	[Action:GetGSTModules 06/343,1]	[Remarks:Successful filter row count: 6]
[Date: 2018-07-19 08:11:18]	[UserID:06/343]	[IP:10.128.12.113]	[Browser:Chrome - 67.0.3396.99]	[Action:Closing mssql connection]	[Remarks:Success]
[Date: 2018-07-19 10:35:20]	[UserID:]	[IP:10.128.12.210]	[Browser:Chrome - 67.0.3396.99]	[Action:Making connection to server]	[Remarks:Successful connection to server: S3]
[Date: 2018-07-19 10:35:20]	[UserID:]	[IP:10.128.12.210]	[Browser:Chrome - 67.0.3396.99]	[Action:GetProgramList ]	[Remarks:"no data"]
[Date: 2018-07-19 10:35:27]	[UserID:10/660]	[IP:10.128.12.210]	[Browser:Chrome - 67.0.3396.99]	[Action:Making connection to server]	[Remarks:Successful connection to server: S3]
[Date: 2018-07-19 10:35:27]	[UserID:10/660]	[IP:10.128.12.210]	[Browser:Chrome - 67.0.3396.99]	[Action:User 10/660]	[Remarks:Success]
[Date: 2018-07-19 10:35:27]	[UserID:10/660]	[IP:10.128.12.210]	[Browser:Chrome - 67.0.3396.99]	[Action:Filtering User : MasterData Username : 10/660]	[Remarks:Successful filter row count: 0]
[Date: 2018-07-19 10:35:27]	[UserID:10/660]	[IP:10.128.12.210]	[Browser:Chrome - 67.0.3396.99]	[Action:Filtering User : MasterData Username : 10/660]	[Remarks:Successful filter row count: 0]
[Date: 2018-07-19 10:35:27]	[UserID:10/660]	[IP:10.128.12.210]	[Browser:Chrome - 67.0.3396.99]	[Action:Filtering User : MasterData Username : 10/660]	[Remarks:Success]
[Date: 2018-07-19 10:35:27]	[UserID:10/660]	[IP:10.128.12.210]	[Browser:Chrome - 67.0.3396.99]	[Action:Closing mssql connection]	[Remarks:Success]
[Date: 2018-07-19 10:35:27]	[UserID:10/660]	[IP:10.128.12.210]	[Browser:Chrome - 67.0.3396.99]	[Action:Making connection to server]	[Remarks:Successful connection to server: S3]
[Date: 2018-07-19 10:35:27]	[UserID:10/660]	[IP:10.128.12.210]	[Browser:Chrome - 67.0.3396.99]	[Action:GetProgramList 10/660]	[Remarks:[{"ID":"1","ProgramIndex":"GST","ProgramName":"GST"}]]
[Date: 2018-07-19 10:35:27]	[UserID:10/660]	[IP:10.128.12.210]	[Browser:Chrome - 67.0.3396.99]	[Action:Making connection to server]	[Remarks:Successful connection to server: S3]
[Date: 2018-07-19 10:35:27]	[UserID:10/660]	[IP:10.128.12.210]	[Browser:Chrome - 67.0.3396.99]	[Action:GetProgramList 10/660]	[Remarks:[{"ID":"1","ProgramIndex":"GST","ProgramName":"GST"}]]
[Date: 2018-07-19 10:35:27]	[UserID:10/660]	[IP:10.128.12.210]	[Browser:Chrome - 67.0.3396.99]	[Action:Making connection to server]	[Remarks:Successful connection to server: S3]
[Date: 2018-07-19 10:35:27]	[UserID:10/660]	[IP:10.128.12.210]	[Browser:Chrome - 67.0.3396.99]	[Action:Filtering User : MasterData Username : 10/660]	[Remarks:Successful filter row count: 1]
[Date: 2018-07-19 10:35:27]	[UserID:10/660]	[IP:10.128.12.210]	[Browser:Chrome - 67.0.3396.99]	[Action:Making connection to server]	[Remarks:Successful connection to server: S3]
[Date: 2018-07-19 10:35:27]	[UserID:10/660]	[IP:10.128.12.210]	[Browser:Chrome - 67.0.3396.99]	[Action:GetGSTModules 10/660,1]	[Remarks:Successful filter row count: 5]
[Date: 2018-07-19 10:35:27]	[UserID:10/660]	[IP:10.128.12.210]	[Browser:Chrome - 67.0.3396.99]	[Action:Closing mssql connection]	[Remarks:Success]
[Date: 2018-07-19 10:40:28]	[UserID:10/660]	[IP:10.128.12.210]	[Browser:Chrome - 67.0.3396.99]	[Action:Making connection to server]	[Remarks:Successful connection to server: S3]
[Date: 2018-07-19 10:40:28]	[UserID:10/660]	[IP:10.128.12.210]	[Browser:Chrome - 67.0.3396.99]	[Action:GetGSTModules 10/660,1]	[Remarks:Successful filter row count: 5]
[Date: 2018-07-19 10:40:28]	[UserID:10/660]	[IP:10.128.12.210]	[Browser:Chrome - 67.0.3396.99]	[Action:Closing mssql connection]	[Remarks:Success]
[Date: 2018-07-19 13:31:24]	[UserID:]	[IP:10.128.12.113]	[Browser:Chrome - 67.0.3396.99]	[Action:Making connection to server]	[Remarks:Successful connection to server: S3]
[Date: 2018-07-19 13:31:24]	[UserID:]	[IP:10.128.12.113]	[Browser:Chrome - 67.0.3396.99]	[Action:GetProgramList ]	[Remarks:"no data"]
[Date: 2018-07-19 13:31:30]	[UserID:06/343]	[IP:10.128.12.113]	[Browser:Chrome - 67.0.3396.99]	[Action:Making connection to server]	[Remarks:Successful connection to server: S3]
[Date: 2018-07-19 13:31:30]	[UserID:06/343]	[IP:10.128.12.113]	[Browser:Chrome - 67.0.3396.99]	[Action:User 06/343]	[Remarks:Success]
[Date: 2018-07-19 13:31:30]	[UserID:06/343]	[IP:10.128.12.113]	[Browser:Chrome - 67.0.3396.99]	[Action:Filtering User : MasterData Username : 06/343]	[Remarks:Successful filter row count: 0]
[Date: 2018-07-19 13:31:30]	[UserID:06/343]	[IP:10.128.12.113]	[Browser:Chrome - 67.0.3396.99]	[Action:Filtering User : MasterData Username : 06/343]	[Remarks:Successful filter row count: 0]
[Date: 2018-07-19 13:31:30]	[UserID:06/343]	[IP:10.128.12.113]	[Browser:Chrome - 67.0.3396.99]	[Action:Filtering User : MasterData Username : 06/343]	[Remarks:Success]
[Date: 2018-07-19 13:31:30]	[UserID:06/343]	[IP:10.128.12.113]	[Browser:Chrome - 67.0.3396.99]	[Action:Closing mssql connection]	[Remarks:Success]
[Date: 2018-07-19 13:31:30]	[UserID:06/343]	[IP:10.128.12.113]	[Browser:Chrome - 67.0.3396.99]	[Action:Making connection to server]	[Remarks:Successful connection to server: S3]
[Date: 2018-07-19 13:31:30]	[UserID:06/343]	[IP:10.128.12.113]	[Browser:Chrome - 67.0.3396.99]	[Action:GetProgramList 06/343]	[Remarks:[{"ID":"1","ProgramIndex":"GST","ProgramName":"GST"}]]
[Date: 2018-07-19 13:31:30]	[UserID:06/343]	[IP:10.128.12.113]	[Browser:Chrome - 67.0.3396.99]	[Action:Making connection to server]	[Remarks:Successful connection to server: S3]
[Date: 2018-07-19 13:31:30]	[UserID:06/343]	[IP:10.128.12.113]	[Browser:Chrome - 67.0.3396.99]	[Action:GetProgramList 06/343]	[Remarks:[{"ID":"1","ProgramIndex":"GST","ProgramName":"GST"}]]
[Date: 2018-07-19 13:31:30]	[UserID:06/343]	[IP:10.128.12.113]	[Browser:Chrome - 67.0.3396.99]	[Action:Making connection to server]	[Remarks:Successful connection to server: S3]
[Date: 2018-07-19 13:31:30]	[UserID:06/343]	[IP:10.128.12.113]	[Browser:Chrome - 67.0.3396.99]	[Action:Filtering User : MasterData Username : 06/343]	[Remarks:Successful filter row count: 1]
[Date: 2018-07-19 13:31:31]	[UserID:06/343]	[IP:10.128.12.113]	[Browser:Chrome - 67.0.3396.99]	[Action:Making connection to server]	[Remarks:Successful connection to server: S3]
[Date: 2018-07-19 13:31:31]	[UserID:06/343]	[IP:10.128.12.113]	[Browser:Chrome - 67.0.3396.99]	[Action:GetGSTModules 06/343,1]	[Remarks:Successful filter row count: 6]
[Date: 2018-07-19 13:31:31]	[UserID:06/343]	[IP:10.128.12.113]	[Browser:Chrome - 67.0.3396.99]	[Action:Closing mssql connection]	[Remarks:Success]
[Date: 2018-07-19 13:32:17]	[UserID:06/343]	[IP:10.128.12.113]	[Browser:Chrome - 67.0.3396.99]	[Action:Making connection to server]	[Remarks:Successful connection to server: S3]
[Date: 2018-07-19 13:32:17]	[UserID:06/343]	[IP:10.128.12.113]	[Browser:Chrome - 67.0.3396.99]	[Action:GetGSTModules 06/343,1]	[Remarks:Successful filter row count: 6]
[Date: 2018-07-19 13:32:17]	[UserID:06/343]	[IP:10.128.12.113]	[Browser:Chrome - 67.0.3396.99]	[Action:Closing mssql connection]	[Remarks:Success]
[Date: 2018-07-19 13:42:22]	[UserID:06/343]	[IP:10.128.12.113]	[Browser:Chrome - 67.0.3396.99]	[Action:Making connection to server]	[Remarks:Successful connection to server: S3]
[Date: 2018-07-19 13:42:22]	[UserID:06/343]	[IP:10.128.12.113]	[Browser:Chrome - 67.0.3396.99]	[Action:GetProgramList 06/343]	[Remarks:[{"ID":"1","ProgramIndex":"GST","ProgramName":"GST"}]]
[Date: 2018-07-19 13:42:22]	[UserID:06/343]	[IP:10.128.12.113]	[Browser:Chrome - 67.0.3396.99]	[Action:Making connection to server]	[Remarks:Successful connection to server: S3]
[Date: 2018-07-19 13:42:23]	[UserID:06/343]	[IP:10.128.12.113]	[Browser:Chrome - 67.0.3396.99]	[Action:GetProgramList 06/343]	[Remarks:[{"ID":"1","ProgramIndex":"GST","ProgramName":"GST"}]]
[Date: 2018-07-19 13:42:23]	[UserID:06/343]	[IP:10.128.12.113]	[Browser:Chrome - 67.0.3396.99]	[Action:Making connection to server]	[Remarks:Successful connection to server: S3]
[Date: 2018-07-19 13:42:23]	[UserID:06/343]	[IP:10.128.12.113]	[Browser:Chrome - 67.0.3396.99]	[Action:Filtering User : MasterData Username : 06/343]	[Remarks:Successful filter row count: 1]
[Date: 2018-07-19 13:42:23]	[UserID:06/343]	[IP:10.128.12.113]	[Browser:Chrome - 67.0.3396.99]	[Action:Making connection to server]	[Remarks:Successful connection to server: S3]
[Date: 2018-07-19 13:42:23]	[UserID:06/343]	[IP:10.128.12.113]	[Browser:Chrome - 67.0.3396.99]	[Action:GetGSTModules 06/343,1]	[Remarks:Successful filter row count: 6]
[Date: 2018-07-19 13:42:23]	[UserID:06/343]	[IP:10.128.12.113]	[Browser:Chrome - 67.0.3396.99]	[Action:Closing mssql connection]	[Remarks:Success]
[Date: 2018-07-19 13:43:09]	[UserID:06/343]	[IP:10.128.12.113]	[Browser:Chrome - 67.0.3396.99]	[Action:Making connection to server]	[Remarks:Successful connection to server: S3]
[Date: 2018-07-19 13:43:09]	[UserID:06/343]	[IP:10.128.12.113]	[Browser:Chrome - 67.0.3396.99]	[Action:GetGSTModules 06/343,1]	[Remarks:Successful filter row count: 6]
[Date: 2018-07-19 13:43:09]	[UserID:06/343]	[IP:10.128.12.113]	[Browser:Chrome - 67.0.3396.99]	[Action:Closing mssql connection]	[Remarks:Success]
