[Date: 2018-08-21 08:19:27]	[UserID:]	[IP:10.128.12.113]	[Browser:Chrome - 68.0.3440.106]	[Action:Making connection to server]	[Remarks:Successful connection to server: S3]
[Date: 2018-08-21 08:19:27]	[UserID:]	[IP:10.128.12.113]	[Browser:Chrome - 68.0.3440.106]	[Action:GetProgramList ]	[Remarks:"no data"]
[Date: 2018-08-21 08:19:29]	[UserID:06/343]	[IP:10.128.12.113]	[Browser:Chrome - 68.0.3440.106]	[Action:Making connection to server]	[Remarks:Successful connection to server: S3]
[Date: 2018-08-21 08:19:29]	[UserID:06/343]	[IP:10.128.12.113]	[Browser:Chrome - 68.0.3440.106]	[Action:User 06/343]	[Remarks:Success]
[Date: 2018-08-21 08:19:29]	[UserID:06/343]	[IP:10.128.12.113]	[Browser:Chrome - 68.0.3440.106]	[Action:Filtering User : MasterData Username : 06/343]	[Remarks:Successful filter row count: 0]
[Date: 2018-08-21 08:19:29]	[UserID:06/343]	[IP:10.128.12.113]	[Browser:Chrome - 68.0.3440.106]	[Action:Filtering User : MasterData Username : 06/343]	[Remarks:Successful filter row count: 0]
[Date: 2018-08-21 08:19:29]	[UserID:06/343]	[IP:10.128.12.113]	[Browser:Chrome - 68.0.3440.106]	[Action:Filtering User : MasterData Username : 06/343]	[Remarks:Success]
[Date: 2018-08-21 08:19:29]	[UserID:06/343]	[IP:10.128.12.113]	[Browser:Chrome - 68.0.3440.106]	[Action:Closing mssql connection]	[Remarks:Success]
[Date: 2018-08-21 08:19:29]	[UserID:06/343]	[IP:10.128.12.113]	[Browser:Chrome - 68.0.3440.106]	[Action:Making connection to server]	[Remarks:Successful connection to server: S3]
[Date: 2018-08-21 08:19:29]	[UserID:06/343]	[IP:10.128.12.113]	[Browser:Chrome - 68.0.3440.106]	[Action:GetProgramList 06/343]	[Remarks:[{"ID":"1","ProgramIndex":"GST","ProgramName":"GST"}]]
[Date: 2018-08-21 08:19:29]	[UserID:06/343]	[IP:10.128.12.113]	[Browser:Chrome - 68.0.3440.106]	[Action:Making connection to server]	[Remarks:Successful connection to server: S3]
[Date: 2018-08-21 08:19:29]	[UserID:06/343]	[IP:10.128.12.113]	[Browser:Chrome - 68.0.3440.106]	[Action:GetProgramList 06/343]	[Remarks:[{"ID":"1","ProgramIndex":"GST","ProgramName":"GST"}]]
[Date: 2018-08-21 08:19:29]	[UserID:06/343]	[IP:10.128.12.113]	[Browser:Chrome - 68.0.3440.106]	[Action:Making connection to server]	[Remarks:Successful connection to server: S3]
[Date: 2018-08-21 08:19:29]	[UserID:06/343]	[IP:10.128.12.113]	[Browser:Chrome - 68.0.3440.106]	[Action:Filtering User : MasterData Username : 06/343]	[Remarks:Successful filter row count: 1]
[Date: 2018-08-21 08:19:30]	[UserID:06/343]	[IP:10.128.12.113]	[Browser:Chrome - 68.0.3440.106]	[Action:Making connection to server]	[Remarks:Successful connection to server: S3]
[Date: 2018-08-21 08:19:30]	[UserID:06/343]	[IP:10.128.12.113]	[Browser:Chrome - 68.0.3440.106]	[Action:GetGSTModules 06/343,1]	[Remarks:Successful filter row count: 6]
[Date: 2018-08-21 08:19:30]	[UserID:06/343]	[IP:10.128.12.113]	[Browser:Chrome - 68.0.3440.106]	[Action:Closing mssql connection]	[Remarks:Success]
[Date: 2018-08-21 08:23:09]	[UserID:06/343]	[IP:10.128.12.113]	[Browser:Chrome - 68.0.3440.106]	[Action:Making connection to server]	[Remarks:Successful connection to server: S3]
[Date: 2018-08-21 08:23:09]	[UserID:06/343]	[IP:10.128.12.113]	[Browser:Chrome - 68.0.3440.106]	[Action:GetGSTModules 06/343,1]	[Remarks:Successful filter row count: 6]
[Date: 2018-08-21 08:23:09]	[UserID:06/343]	[IP:10.128.12.113]	[Browser:Chrome - 68.0.3440.106]	[Action:Closing mssql connection]	[Remarks:Success]
[Date: 2018-08-21 08:39:48]	[UserID:]	[IP:10.139.5.104]	[Browser:Firefox - 60.0]	[Action:Making connection to server]	[Remarks:Successful connection to server: S3]
[Date: 2018-08-21 08:39:48]	[UserID:]	[IP:10.139.5.104]	[Browser:Firefox - 60.0]	[Action:GetProgramList ]	[Remarks:"no data"]
[Date: 2018-08-21 14:45:18]	[UserID:]	[IP:10.128.12.113]	[Browser:Chrome - 68.0.3440.106]	[Action:Making connection to server]	[Remarks:Successful connection to server: S3]
[Date: 2018-08-21 14:45:18]	[UserID:]	[IP:10.128.12.113]	[Browser:Chrome - 68.0.3440.106]	[Action:GetProgramList ]	[Remarks:"no data"]
[Date: 2018-08-21 14:45:20]	[UserID:06/343]	[IP:10.128.12.113]	[Browser:Chrome - 68.0.3440.106]	[Action:Making connection to server]	[Remarks:Successful connection to server: S3]
[Date: 2018-08-21 14:45:20]	[UserID:06/343]	[IP:10.128.12.113]	[Browser:Chrome - 68.0.3440.106]	[Action:User 06/343]	[Remarks:Success]
[Date: 2018-08-21 14:45:20]	[UserID:06/343]	[IP:10.128.12.113]	[Browser:Chrome - 68.0.3440.106]	[Action:Filtering User : MasterData Username : 06/343]	[Remarks:Successful filter row count: 0]
[Date: 2018-08-21 14:45:20]	[UserID:06/343]	[IP:10.128.12.113]	[Browser:Chrome - 68.0.3440.106]	[Action:Filtering User : MasterData Username : 06/343]	[Remarks:Successful filter row count: 0]
[Date: 2018-08-21 14:45:20]	[UserID:06/343]	[IP:10.128.12.113]	[Browser:Chrome - 68.0.3440.106]	[Action:Filtering User : MasterData Username : 06/343]	[Remarks:Success]
[Date: 2018-08-21 14:45:20]	[UserID:06/343]	[IP:10.128.12.113]	[Browser:Chrome - 68.0.3440.106]	[Action:Closing mssql connection]	[Remarks:Success]
[Date: 2018-08-21 14:45:20]	[UserID:06/343]	[IP:10.128.12.113]	[Browser:Chrome - 68.0.3440.106]	[Action:Making connection to server]	[Remarks:Successful connection to server: S3]
[Date: 2018-08-21 14:45:20]	[UserID:06/343]	[IP:10.128.12.113]	[Browser:Chrome - 68.0.3440.106]	[Action:GetProgramList 06/343]	[Remarks:[{"ID":"1","ProgramIndex":"GST","ProgramName":"GST"}]]
[Date: 2018-08-21 14:45:20]	[UserID:06/343]	[IP:10.128.12.113]	[Browser:Chrome - 68.0.3440.106]	[Action:Making connection to server]	[Remarks:Successful connection to server: S3]
[Date: 2018-08-21 14:45:20]	[UserID:06/343]	[IP:10.128.12.113]	[Browser:Chrome - 68.0.3440.106]	[Action:GetProgramList 06/343]	[Remarks:[{"ID":"1","ProgramIndex":"GST","ProgramName":"GST"}]]
[Date: 2018-08-21 14:45:20]	[UserID:06/343]	[IP:10.128.12.113]	[Browser:Chrome - 68.0.3440.106]	[Action:Making connection to server]	[Remarks:Successful connection to server: S3]
[Date: 2018-08-21 14:45:20]	[UserID:06/343]	[IP:10.128.12.113]	[Browser:Chrome - 68.0.3440.106]	[Action:Filtering User : MasterData Username : 06/343]	[Remarks:Successful filter row count: 1]
[Date: 2018-08-21 14:45:20]	[UserID:06/343]	[IP:10.128.12.113]	[Browser:Chrome - 68.0.3440.106]	[Action:Making connection to server]	[Remarks:Successful connection to server: S3]
[Date: 2018-08-21 14:45:20]	[UserID:06/343]	[IP:10.128.12.113]	[Browser:Chrome - 68.0.3440.106]	[Action:GetGSTModules 06/343,1]	[Remarks:Successful filter row count: 6]
[Date: 2018-08-21 14:45:20]	[UserID:06/343]	[IP:10.128.12.113]	[Browser:Chrome - 68.0.3440.106]	[Action:Closing mssql connection]	[Remarks:Success]
[Date: 2018-08-21 14:49:20]	[UserID:06/343]	[IP:10.128.12.113]	[Browser:Chrome - 68.0.3440.106]	[Action:Making connection to server]	[Remarks:Successful connection to server: S3]
[Date: 2018-08-21 14:49:20]	[UserID:06/343]	[IP:10.128.12.113]	[Browser:Chrome - 68.0.3440.106]	[Action:GetGSTModules 06/343,1]	[Remarks:Successful filter row count: 6]
[Date: 2018-08-21 14:49:20]	[UserID:06/343]	[IP:10.128.12.113]	[Browser:Chrome - 68.0.3440.106]	[Action:Closing mssql connection]	[Remarks:Success]
[Date: 2018-08-21 16:05:27]	[UserID:]	[IP:10.128.12.210]	[Browser:Chrome - 68.0.3440.106]	[Action:Making connection to server]	[Remarks:Successful connection to server: S3]
[Date: 2018-08-21 16:05:27]	[UserID:]	[IP:10.128.12.210]	[Browser:Chrome - 68.0.3440.106]	[Action:GetProgramList ]	[Remarks:"no data"]
[Date: 2018-08-21 16:05:37]	[UserID:10/660]	[IP:10.128.12.210]	[Browser:Chrome - 68.0.3440.106]	[Action:Making connection to server]	[Remarks:Successful connection to server: S3]
[Date: 2018-08-21 16:05:37]	[UserID:10/660]	[IP:10.128.12.210]	[Browser:Chrome - 68.0.3440.106]	[Action:User 10/660]	[Remarks:Success]
[Date: 2018-08-21 16:05:37]	[UserID:10/660]	[IP:10.128.12.210]	[Browser:Chrome - 68.0.3440.106]	[Action:Filtering User : MasterData Username : 10/660]	[Remarks:Successful filter row count: 0]
[Date: 2018-08-21 16:05:37]	[UserID:10/660]	[IP:10.128.12.210]	[Browser:Chrome - 68.0.3440.106]	[Action:Filtering User : MasterData Username : 10/660]	[Remarks:Successful filter row count: 0]
[Date: 2018-08-21 16:05:37]	[UserID:10/660]	[IP:10.128.12.210]	[Browser:Chrome - 68.0.3440.106]	[Action:Filtering User : MasterData Username : 10/660]	[Remarks:Success]
[Date: 2018-08-21 16:05:37]	[UserID:10/660]	[IP:10.128.12.210]	[Browser:Chrome - 68.0.3440.106]	[Action:Closing mssql connection]	[Remarks:Success]
[Date: 2018-08-21 16:05:37]	[UserID:10/660]	[IP:10.128.12.210]	[Browser:Chrome - 68.0.3440.106]	[Action:Making connection to server]	[Remarks:Successful connection to server: S3]
[Date: 2018-08-21 16:05:37]	[UserID:10/660]	[IP:10.128.12.210]	[Browser:Chrome - 68.0.3440.106]	[Action:GetProgramList 10/660]	[Remarks:[{"ID":"1","ProgramIndex":"GST","ProgramName":"GST"}]]
[Date: 2018-08-21 16:05:37]	[UserID:10/660]	[IP:10.128.12.210]	[Browser:Chrome - 68.0.3440.106]	[Action:Making connection to server]	[Remarks:Successful connection to server: S3]
[Date: 2018-08-21 16:05:37]	[UserID:10/660]	[IP:10.128.12.210]	[Browser:Chrome - 68.0.3440.106]	[Action:GetProgramList 10/660]	[Remarks:[{"ID":"1","ProgramIndex":"GST","ProgramName":"GST"}]]
[Date: 2018-08-21 16:05:37]	[UserID:10/660]	[IP:10.128.12.210]	[Browser:Chrome - 68.0.3440.106]	[Action:Making connection to server]	[Remarks:Successful connection to server: S3]
[Date: 2018-08-21 16:05:37]	[UserID:10/660]	[IP:10.128.12.210]	[Browser:Chrome - 68.0.3440.106]	[Action:Filtering User : MasterData Username : 10/660]	[Remarks:Successful filter row count: 1]
[Date: 2018-08-21 16:05:38]	[UserID:10/660]	[IP:10.128.12.210]	[Browser:Chrome - 68.0.3440.106]	[Action:Making connection to server]	[Remarks:Successful connection to server: S3]
[Date: 2018-08-21 16:05:38]	[UserID:10/660]	[IP:10.128.12.210]	[Browser:Chrome - 68.0.3440.106]	[Action:GetGSTModules 10/660,1]	[Remarks:Successful filter row count: 5]
[Date: 2018-08-21 16:05:38]	[UserID:10/660]	[IP:10.128.12.210]	[Browser:Chrome - 68.0.3440.106]	[Action:Closing mssql connection]	[Remarks:Success]
[Date: 2018-08-21 20:32:50]	[UserID:10/660]	[IP:10.128.12.210]	[Browser:Chrome - 68.0.3440.106]	[Action:Making connection to server]	[Remarks:Successful connection to server: S3]
[Date: 2018-08-21 20:32:50]	[UserID:10/660]	[IP:10.128.12.210]	[Browser:Chrome - 68.0.3440.106]	[Action:GetProgramList 10/660]	[Remarks:[{"ID":"1","ProgramIndex":"GST","ProgramName":"GST"}]]
[Date: 2018-08-21 20:32:50]	[UserID:10/660]	[IP:10.128.12.210]	[Browser:Chrome - 68.0.3440.106]	[Action:Making connection to server]	[Remarks:Successful connection to server: S3]
[Date: 2018-08-21 20:32:50]	[UserID:10/660]	[IP:10.128.12.210]	[Browser:Chrome - 68.0.3440.106]	[Action:GetProgramList 10/660]	[Remarks:[{"ID":"1","ProgramIndex":"GST","ProgramName":"GST"}]]
[Date: 2018-08-21 20:32:50]	[UserID:10/660]	[IP:10.128.12.210]	[Browser:Chrome - 68.0.3440.106]	[Action:Making connection to server]	[Remarks:Successful connection to server: S3]
[Date: 2018-08-21 20:32:50]	[UserID:10/660]	[IP:10.128.12.210]	[Browser:Chrome - 68.0.3440.106]	[Action:Filtering User : MasterData Username : 10/660]	[Remarks:Successful filter row count: 1]
[Date: 2018-08-21 20:32:51]	[UserID:10/660]	[IP:10.128.12.210]	[Browser:Chrome - 68.0.3440.106]	[Action:Making connection to server]	[Remarks:Successful connection to server: S3]
[Date: 2018-08-21 20:32:51]	[UserID:10/660]	[IP:10.128.12.210]	[Browser:Chrome - 68.0.3440.106]	[Action:GetGSTModules 10/660,1]	[Remarks:Successful filter row count: 5]
[Date: 2018-08-21 20:32:51]	[UserID:10/660]	[IP:10.128.12.210]	[Browser:Chrome - 68.0.3440.106]	[Action:Closing mssql connection]	[Remarks:Success]
[Date: 2018-08-21 20:41:29]	[UserID:10/660]	[IP:10.128.12.210]	[Browser:Chrome - 68.0.3440.106]	[Action:Making connection to server]	[Remarks:Successful connection to server: S3]
[Date: 2018-08-21 20:41:29]	[UserID:10/660]	[IP:10.128.12.210]	[Browser:Chrome - 68.0.3440.106]	[Action:GetGSTModules 10/660,1]	[Remarks:Successful filter row count: 5]
[Date: 2018-08-21 20:41:29]	[UserID:10/660]	[IP:10.128.12.210]	[Browser:Chrome - 68.0.3440.106]	[Action:Closing mssql connection]	[Remarks:Success]
