[Date: 2020-05-12 07:45:31]	[UserID:]	[IP:10.128.130.5]	[Browser:Chrome - 81.0.4044.138]	[Action:Making connection to server]	[Remarks:Successful connection to server: S3]
[Date: 2020-05-12 07:45:31]	[UserID:]	[IP:10.128.130.5]	[Browser:Chrome - 81.0.4044.138]	[Action:GetProgramList ]	[Remarks:"no data"]
[Date: 2020-05-12 08:09:19]	[UserID:]	[IP:10.128.130.5]	[Browser:Firefox - 76.0]	[Action:Making connection to server]	[Remarks:Successful connection to server: S3]
[Date: 2020-05-12 08:09:19]	[UserID:]	[IP:10.128.130.5]	[Browser:Firefox - 76.0]	[Action:GetProgramList ]	[Remarks:"no data"]
[Date: 2020-05-12 08:51:13]	[UserID:]	[IP:10.128.12.114]	[Browser:Chrome - 81.0.4044.138]	[Action:Making connection to server]	[Remarks:Successful connection to server: S3]
[Date: 2020-05-12 08:51:13]	[UserID:]	[IP:10.128.12.114]	[Browser:Chrome - 81.0.4044.138]	[Action:GetProgramList ]	[Remarks:"no data"]
[Date: 2020-05-12 08:51:18]	[UserID:14/1082]	[IP:10.128.12.114]	[Browser:Chrome - 81.0.4044.138]	[Action:Making connection to server]	[Remarks:Successful connection to server: S3]
[Date: 2020-05-12 08:51:18]	[UserID:14/1082]	[IP:10.128.12.114]	[Browser:Chrome - 81.0.4044.138]	[Action:User 14/1082]	[Remarks:Success]
[Date: 2020-05-12 08:51:18]	[UserID:14/1082]	[IP:10.128.12.114]	[Browser:Chrome - 81.0.4044.138]	[Action:Filtering User : MasterData Username : 14/1082]	[Remarks:Successful filter row count: 0]
[Date: 2020-05-12 08:51:18]	[UserID:14/1082]	[IP:10.128.12.114]	[Browser:Chrome - 81.0.4044.138]	[Action:Filtering User : MasterData Username : 14/1082]	[Remarks:Successful filter row count: 0]
[Date: 2020-05-12 08:51:18]	[UserID:14/1082]	[IP:10.128.12.114]	[Browser:Chrome - 81.0.4044.138]	[Action:Filtering User : MasterData Username : 14/1082]	[Remarks:Success]
[Date: 2020-05-12 08:51:18]	[UserID:14/1082]	[IP:10.128.12.114]	[Browser:Chrome - 81.0.4044.138]	[Action:Closing mssql connection]	[Remarks:Success]
[Date: 2020-05-12 08:51:18]	[UserID:14/1082]	[IP:10.128.12.114]	[Browser:Chrome - 81.0.4044.138]	[Action:Making connection to server]	[Remarks:Successful connection to server: S3]
[Date: 2020-05-12 08:51:18]	[UserID:14/1082]	[IP:10.128.12.114]	[Browser:Chrome - 81.0.4044.138]	[Action:GetProgramList 14/1082]	[Remarks:[{"ID":"1","ProgramIndex":"GST","ProgramName":"GST"}]]
[Date: 2020-05-12 08:51:18]	[UserID:14/1082]	[IP:10.128.12.114]	[Browser:Chrome - 81.0.4044.138]	[Action:Making connection to server]	[Remarks:Successful connection to server: S3]
[Date: 2020-05-12 08:51:18]	[UserID:14/1082]	[IP:10.128.12.114]	[Browser:Chrome - 81.0.4044.138]	[Action:GetProgramList 14/1082]	[Remarks:[{"ID":"1","ProgramIndex":"GST","ProgramName":"GST"}]]
[Date: 2020-05-12 08:51:18]	[UserID:14/1082]	[IP:10.128.12.114]	[Browser:Chrome - 81.0.4044.138]	[Action:Making connection to server]	[Remarks:Successful connection to server: S3]
[Date: 2020-05-12 08:51:18]	[UserID:14/1082]	[IP:10.128.12.114]	[Browser:Chrome - 81.0.4044.138]	[Action:Filtering User : MasterData Username : 14/1082]	[Remarks:Successful filter row count: 1]
[Date: 2020-05-12 08:51:18]	[UserID:14/1082]	[IP:10.128.12.114]	[Browser:Chrome - 81.0.4044.138]	[Action:Making connection to server]	[Remarks:Successful connection to server: S3]
[Date: 2020-05-12 08:51:18]	[UserID:14/1082]	[IP:10.128.12.114]	[Browser:Chrome - 81.0.4044.138]	[Action:GetGSTModules 14/1082,1]	[Remarks:Successful filter row count: 8]
[Date: 2020-05-12 08:51:18]	[UserID:14/1082]	[IP:10.128.12.114]	[Browser:Chrome - 81.0.4044.138]	[Action:Closing mssql connection]	[Remarks:Success]
[Date: 2020-05-12 09:04:39]	[UserID:14/1082]	[IP:10.128.12.114]	[Browser:Chrome - 81.0.4044.138]	[Action:Making connection to server]	[Remarks:Successful connection to server: S3]
[Date: 2020-05-12 09:04:39]	[UserID:14/1082]	[IP:10.128.12.114]	[Browser:Chrome - 81.0.4044.138]	[Action:GetGSTModules 14/1082,1]	[Remarks:Successful filter row count: 8]
[Date: 2020-05-12 09:04:39]	[UserID:14/1082]	[IP:10.128.12.114]	[Browser:Chrome - 81.0.4044.138]	[Action:Closing mssql connection]	[Remarks:Success]
[Date: 2020-05-12 09:48:25]	[UserID:]	[IP:10.128.12.115]	[Browser:Chrome - 81.0.4044.138]	[Action:Making connection to server]	[Remarks:Successful connection to server: S3]
[Date: 2020-05-12 09:48:25]	[UserID:]	[IP:10.128.12.115]	[Browser:Chrome - 81.0.4044.138]	[Action:GetProgramList ]	[Remarks:"no data"]
[Date: 2020-05-12 09:48:35]	[UserID:17/1248]	[IP:10.128.12.115]	[Browser:Chrome - 81.0.4044.138]	[Action:Making connection to server]	[Remarks:Successful connection to server: S3]
[Date: 2020-05-12 09:48:35]	[UserID:17/1248]	[IP:10.128.12.115]	[Browser:Chrome - 81.0.4044.138]	[Action:User 17/1248]	[Remarks:Success]
[Date: 2020-05-12 09:48:35]	[UserID:17/1248]	[IP:10.128.12.115]	[Browser:Chrome - 81.0.4044.138]	[Action:Filtering User : MasterData Username : 17/1248]	[Remarks:Successful filter row count: 0]
[Date: 2020-05-12 09:48:35]	[UserID:17/1248]	[IP:10.128.12.115]	[Browser:Chrome - 81.0.4044.138]	[Action:Filtering User : MasterData Username : 17/1248]	[Remarks:Successful filter row count: 0]
[Date: 2020-05-12 09:48:35]	[UserID:17/1248]	[IP:10.128.12.115]	[Browser:Chrome - 81.0.4044.138]	[Action:Filtering User : MasterData Username : 17/1248]	[Remarks:Success]
[Date: 2020-05-12 09:48:35]	[UserID:17/1248]	[IP:10.128.12.115]	[Browser:Chrome - 81.0.4044.138]	[Action:Closing mssql connection]	[Remarks:Success]
[Date: 2020-05-12 09:48:35]	[UserID:17/1248]	[IP:10.128.12.115]	[Browser:Chrome - 81.0.4044.138]	[Action:Making connection to server]	[Remarks:Successful connection to server: S3]
[Date: 2020-05-12 09:48:35]	[UserID:17/1248]	[IP:10.128.12.115]	[Browser:Chrome - 81.0.4044.138]	[Action:GetProgramList 17/1248]	[Remarks:[{"ID":"1","ProgramIndex":"GST","ProgramName":"GST"}]]
[Date: 2020-05-12 09:48:35]	[UserID:17/1248]	[IP:10.128.12.115]	[Browser:Chrome - 81.0.4044.138]	[Action:Making connection to server]	[Remarks:Successful connection to server: S3]
[Date: 2020-05-12 09:48:35]	[UserID:17/1248]	[IP:10.128.12.115]	[Browser:Chrome - 81.0.4044.138]	[Action:GetProgramList 17/1248]	[Remarks:[{"ID":"1","ProgramIndex":"GST","ProgramName":"GST"}]]
[Date: 2020-05-12 09:48:35]	[UserID:17/1248]	[IP:10.128.12.115]	[Browser:Chrome - 81.0.4044.138]	[Action:Making connection to server]	[Remarks:Successful connection to server: S3]
[Date: 2020-05-12 09:48:35]	[UserID:17/1248]	[IP:10.128.12.115]	[Browser:Chrome - 81.0.4044.138]	[Action:Filtering User : MasterData Username : 17/1248]	[Remarks:Successful filter row count: 1]
[Date: 2020-05-12 09:48:36]	[UserID:17/1248]	[IP:10.128.12.115]	[Browser:Chrome - 81.0.4044.138]	[Action:Making connection to server]	[Remarks:Successful connection to server: S3]
[Date: 2020-05-12 09:48:36]	[UserID:17/1248]	[IP:10.128.12.115]	[Browser:Chrome - 81.0.4044.138]	[Action:GetGSTModules 17/1248,1]	[Remarks:Successful filter row count: 6]
[Date: 2020-05-12 09:48:36]	[UserID:17/1248]	[IP:10.128.12.115]	[Browser:Chrome - 81.0.4044.138]	[Action:Closing mssql connection]	[Remarks:Success]
[Date: 2020-05-12 11:24:12]	[UserID:]	[IP:10.128.130.5]	[Browser:Chrome - 81.0.4044.138]	[Action:Making connection to server]	[Remarks:Successful connection to server: S3]
[Date: 2020-05-12 11:24:12]	[UserID:]	[IP:10.128.130.5]	[Browser:Chrome - 81.0.4044.138]	[Action:GetProgramList ]	[Remarks:"no data"]
[Date: 2020-05-12 11:24:43]	[UserID:06/343]	[IP:10.128.130.5]	[Browser:Chrome - 81.0.4044.138]	[Action:Making connection to server]	[Remarks:Successful connection to server: S3]
[Date: 2020-05-12 11:24:43]	[UserID:06/343]	[IP:10.128.130.5]	[Browser:Chrome - 81.0.4044.138]	[Action:User 06/343]	[Remarks:Success]
[Date: 2020-05-12 11:24:43]	[UserID:06/343]	[IP:10.128.130.5]	[Browser:Chrome - 81.0.4044.138]	[Action:Filtering User : MasterData Username : 06/343]	[Remarks:Successful filter row count: 0]
[Date: 2020-05-12 11:24:43]	[UserID:06/343]	[IP:10.128.130.5]	[Browser:Chrome - 81.0.4044.138]	[Action:Filtering User : MasterData Username : 06/343]	[Remarks:Successful filter row count: 0]
[Date: 2020-05-12 11:24:43]	[UserID:06/343]	[IP:10.128.130.5]	[Browser:Chrome - 81.0.4044.138]	[Action:Filtering User : MasterData Username : 06/343]	[Remarks:Success]
[Date: 2020-05-12 11:24:43]	[UserID:06/343]	[IP:10.128.130.5]	[Browser:Chrome - 81.0.4044.138]	[Action:Closing mssql connection]	[Remarks:Success]
[Date: 2020-05-12 11:24:43]	[UserID:06/343]	[IP:10.128.130.5]	[Browser:Chrome - 81.0.4044.138]	[Action:Making connection to server]	[Remarks:Successful connection to server: S3]
[Date: 2020-05-12 11:24:43]	[UserID:06/343]	[IP:10.128.130.5]	[Browser:Chrome - 81.0.4044.138]	[Action:GetProgramList 06/343]	[Remarks:[{"ID":"1","ProgramIndex":"GST","ProgramName":"GST"}]]
[Date: 2020-05-12 11:24:43]	[UserID:06/343]	[IP:10.128.130.5]	[Browser:Chrome - 81.0.4044.138]	[Action:Making connection to server]	[Remarks:Successful connection to server: S3]
[Date: 2020-05-12 11:24:43]	[UserID:06/343]	[IP:10.128.130.5]	[Browser:Chrome - 81.0.4044.138]	[Action:GetProgramList 06/343]	[Remarks:[{"ID":"1","ProgramIndex":"GST","ProgramName":"GST"}]]
[Date: 2020-05-12 11:24:43]	[UserID:06/343]	[IP:10.128.130.5]	[Browser:Chrome - 81.0.4044.138]	[Action:Making connection to server]	[Remarks:Successful connection to server: S3]
[Date: 2020-05-12 11:24:43]	[UserID:06/343]	[IP:10.128.130.5]	[Browser:Chrome - 81.0.4044.138]	[Action:Filtering User : MasterData Username : 06/343]	[Remarks:Successful filter row count: 1]
[Date: 2020-05-12 11:24:44]	[UserID:06/343]	[IP:10.128.130.5]	[Browser:Chrome - 81.0.4044.138]	[Action:Making connection to server]	[Remarks:Successful connection to server: S3]
[Date: 2020-05-12 11:24:44]	[UserID:06/343]	[IP:10.128.130.5]	[Browser:Chrome - 81.0.4044.138]	[Action:GetGSTModules 06/343,1]	[Remarks:Successful filter row count: 7]
[Date: 2020-05-12 11:24:44]	[UserID:06/343]	[IP:10.128.130.5]	[Browser:Chrome - 81.0.4044.138]	[Action:Closing mssql connection]	[Remarks:Success]
[Date: 2020-05-12 12:17:19]	[UserID:06/343]	[IP:10.128.130.5]	[Browser:Chrome - 81.0.4044.138]	[Action:Making connection to server]	[Remarks:Successful connection to server: S3]
[Date: 2020-05-12 12:17:19]	[UserID:06/343]	[IP:10.128.130.5]	[Browser:Chrome - 81.0.4044.138]	[Action:GetGSTModules 06/343,1]	[Remarks:Successful filter row count: 7]
[Date: 2020-05-12 12:17:19]	[UserID:06/343]	[IP:10.128.130.5]	[Browser:Chrome - 81.0.4044.138]	[Action:Closing mssql connection]	[Remarks:Success]
[Date: 2020-05-12 12:21:44]	[UserID:06/343]	[IP:10.128.130.5]	[Browser:Chrome - 81.0.4044.138]	[Action:Making connection to server]	[Remarks:Successful connection to server: S3]
[Date: 2020-05-12 12:21:44]	[UserID:06/343]	[IP:10.128.130.5]	[Browser:Chrome - 81.0.4044.138]	[Action:GetGSTModules 06/343,1]	[Remarks:Successful filter row count: 7]
[Date: 2020-05-12 12:21:44]	[UserID:06/343]	[IP:10.128.130.5]	[Browser:Chrome - 81.0.4044.138]	[Action:Closing mssql connection]	[Remarks:Success]
[Date: 2020-05-12 12:30:14]	[UserID:06/343]	[IP:10.128.130.5]	[Browser:Chrome - 81.0.4044.138]	[Action:Making connection to server]	[Remarks:Successful connection to server: S3]
[Date: 2020-05-12 12:30:14]	[UserID:06/343]	[IP:10.128.130.5]	[Browser:Chrome - 81.0.4044.138]	[Action:GetGSTModules 06/343,1]	[Remarks:Successful filter row count: 7]
[Date: 2020-05-12 12:30:14]	[UserID:06/343]	[IP:10.128.130.5]	[Browser:Chrome - 81.0.4044.138]	[Action:Closing mssql connection]	[Remarks:Success]
[Date: 2020-05-12 12:52:12]	[UserID:06/343]	[IP:10.128.130.5]	[Browser:Chrome - 81.0.4044.138]	[Action:Making connection to server]	[Remarks:Successful connection to server: S3]
[Date: 2020-05-12 12:52:12]	[UserID:06/343]	[IP:10.128.130.5]	[Browser:Chrome - 81.0.4044.138]	[Action:GetGSTModules 06/343,1]	[Remarks:Successful filter row count: 7]
[Date: 2020-05-12 12:52:12]	[UserID:06/343]	[IP:10.128.130.5]	[Browser:Chrome - 81.0.4044.138]	[Action:Closing mssql connection]	[Remarks:Success]
[Date: 2020-05-12 13:03:53]	[UserID:06/343]	[IP:10.128.130.5]	[Browser:Chrome - 81.0.4044.138]	[Action:Making connection to server]	[Remarks:Successful connection to server: S3]
[Date: 2020-05-12 13:03:53]	[UserID:06/343]	[IP:10.128.130.5]	[Browser:Chrome - 81.0.4044.138]	[Action:GetGSTModules 06/343,1]	[Remarks:Successful filter row count: 7]
[Date: 2020-05-12 13:03:53]	[UserID:06/343]	[IP:10.128.130.5]	[Browser:Chrome - 81.0.4044.138]	[Action:Closing mssql connection]	[Remarks:Success]
[Date: 2020-05-12 13:05:21]	[UserID:06/343]	[IP:10.128.130.5]	[Browser:Chrome - 81.0.4044.138]	[Action:Making connection to server]	[Remarks:Successful connection to server: S3]
[Date: 2020-05-12 13:05:21]	[UserID:06/343]	[IP:10.128.130.5]	[Browser:Chrome - 81.0.4044.138]	[Action:GetGSTModules 06/343,1]	[Remarks:Successful filter row count: 7]
[Date: 2020-05-12 13:05:21]	[UserID:06/343]	[IP:10.128.130.5]	[Browser:Chrome - 81.0.4044.138]	[Action:Closing mssql connection]	[Remarks:Success]
[Date: 2020-05-12 13:05:47]	[UserID:06/343]	[IP:10.128.130.5]	[Browser:Chrome - 81.0.4044.138]	[Action:Making connection to server]	[Remarks:Successful connection to server: S3]
[Date: 2020-05-12 13:05:47]	[UserID:06/343]	[IP:10.128.130.5]	[Browser:Chrome - 81.0.4044.138]	[Action:GetGSTModules 06/343,1]	[Remarks:Successful filter row count: 7]
[Date: 2020-05-12 13:05:47]	[UserID:06/343]	[IP:10.128.130.5]	[Browser:Chrome - 81.0.4044.138]	[Action:Closing mssql connection]	[Remarks:Success]
[Date: 2020-05-12 13:53:25]	[UserID:]	[IP:10.128.12.115]	[Browser:Chrome - 81.0.4044.138]	[Action:Making connection to server]	[Remarks:Successful connection to server: S3]
[Date: 2020-05-12 13:53:25]	[UserID:]	[IP:10.128.12.115]	[Browser:Chrome - 81.0.4044.138]	[Action:GetProgramList ]	[Remarks:"no data"]
[Date: 2020-05-12 13:53:30]	[UserID:17/1248]	[IP:10.128.12.115]	[Browser:Chrome - 81.0.4044.138]	[Action:Making connection to server]	[Remarks:Successful connection to server: S3]
[Date: 2020-05-12 13:53:30]	[UserID:17/1248]	[IP:10.128.12.115]	[Browser:Chrome - 81.0.4044.138]	[Action:User 17/1248]	[Remarks:Success]
[Date: 2020-05-12 13:53:30]	[UserID:17/1248]	[IP:10.128.12.115]	[Browser:Chrome - 81.0.4044.138]	[Action:Filtering User : MasterData Username : 17/1248]	[Remarks:Successful filter row count: 0]
[Date: 2020-05-12 13:53:30]	[UserID:17/1248]	[IP:10.128.12.115]	[Browser:Chrome - 81.0.4044.138]	[Action:Filtering User : MasterData Username : 17/1248]	[Remarks:Successful filter row count: 0]
[Date: 2020-05-12 13:53:30]	[UserID:17/1248]	[IP:10.128.12.115]	[Browser:Chrome - 81.0.4044.138]	[Action:Filtering User : MasterData Username : 17/1248]	[Remarks:Success]
[Date: 2020-05-12 13:53:30]	[UserID:17/1248]	[IP:10.128.12.115]	[Browser:Chrome - 81.0.4044.138]	[Action:Closing mssql connection]	[Remarks:Success]
[Date: 2020-05-12 13:53:30]	[UserID:17/1248]	[IP:10.128.12.115]	[Browser:Chrome - 81.0.4044.138]	[Action:Making connection to server]	[Remarks:Successful connection to server: S3]
[Date: 2020-05-12 13:53:30]	[UserID:17/1248]	[IP:10.128.12.115]	[Browser:Chrome - 81.0.4044.138]	[Action:GetProgramList 17/1248]	[Remarks:[{"ID":"1","ProgramIndex":"GST","ProgramName":"GST"}]]
[Date: 2020-05-12 13:53:30]	[UserID:17/1248]	[IP:10.128.12.115]	[Browser:Chrome - 81.0.4044.138]	[Action:Making connection to server]	[Remarks:Successful connection to server: S3]
[Date: 2020-05-12 13:53:30]	[UserID:17/1248]	[IP:10.128.12.115]	[Browser:Chrome - 81.0.4044.138]	[Action:GetProgramList 17/1248]	[Remarks:[{"ID":"1","ProgramIndex":"GST","ProgramName":"GST"}]]
[Date: 2020-05-12 13:53:30]	[UserID:17/1248]	[IP:10.128.12.115]	[Browser:Chrome - 81.0.4044.138]	[Action:Making connection to server]	[Remarks:Successful connection to server: S3]
[Date: 2020-05-12 13:53:30]	[UserID:17/1248]	[IP:10.128.12.115]	[Browser:Chrome - 81.0.4044.138]	[Action:Filtering User : MasterData Username : 17/1248]	[Remarks:Successful filter row count: 1]
[Date: 2020-05-12 13:53:30]	[UserID:17/1248]	[IP:10.128.12.115]	[Browser:Chrome - 81.0.4044.138]	[Action:Making connection to server]	[Remarks:Successful connection to server: S3]
[Date: 2020-05-12 13:53:30]	[UserID:17/1248]	[IP:10.128.12.115]	[Browser:Chrome - 81.0.4044.138]	[Action:GetGSTModules 17/1248,1]	[Remarks:Successful filter row count: 6]
[Date: 2020-05-12 13:53:30]	[UserID:17/1248]	[IP:10.128.12.115]	[Browser:Chrome - 81.0.4044.138]	[Action:Closing mssql connection]	[Remarks:Success]
[Date: 2020-05-12 13:53:34]	[UserID:17/1248]	[IP:10.128.12.115]	[Browser:Chrome - 81.0.4044.138]	[Action:Making connection to server]	[Remarks:Successful connection to server: S3]
[Date: 2020-05-12 13:53:34]	[UserID:17/1248]	[IP:10.128.12.115]	[Browser:Chrome - 81.0.4044.138]	[Action:GetGSTModules 17/1248,1]	[Remarks:Successful filter row count: 6]
[Date: 2020-05-12 13:53:34]	[UserID:17/1248]	[IP:10.128.12.115]	[Browser:Chrome - 81.0.4044.138]	[Action:Closing mssql connection]	[Remarks:Success]
[Date: 2020-05-12 14:13:20]	[UserID:]	[IP:10.128.12.115]	[Browser:Chrome - 81.0.4044.138]	[Action:Making connection to server]	[Remarks:Successful connection to server: S3]
[Date: 2020-05-12 14:13:20]	[UserID:]	[IP:10.128.12.115]	[Browser:Chrome - 81.0.4044.138]	[Action:GetProgramList ]	[Remarks:"no data"]
[Date: 2020-05-12 16:03:43]	[UserID:]	[IP:10.128.12.114]	[Browser:Chrome - 81.0.4044.138]	[Action:Making connection to server]	[Remarks:Successful connection to server: S3]
[Date: 2020-05-12 16:03:43]	[UserID:]	[IP:10.128.12.114]	[Browser:Chrome - 81.0.4044.138]	[Action:GetProgramList ]	[Remarks:"no data"]
[Date: 2020-05-12 17:18:01]	[UserID:]	[IP:10.128.130.5]	[Browser:Chrome - 81.0.4044.138]	[Action:Making connection to server]	[Remarks:Successful connection to server: S3]
[Date: 2020-05-12 17:18:01]	[UserID:]	[IP:10.128.130.5]	[Browser:Chrome - 81.0.4044.138]	[Action:GetProgramList ]	[Remarks:"no data"]
[Date: 2020-05-12 17:18:07]	[UserID:06/343]	[IP:10.128.130.5]	[Browser:Chrome - 81.0.4044.138]	[Action:Making connection to server]	[Remarks:Successful connection to server: S3]
[Date: 2020-05-12 17:18:07]	[UserID:06/343]	[IP:10.128.130.5]	[Browser:Chrome - 81.0.4044.138]	[Action:LogMeIn 06/343,OMNI2020]	[Remarks:Failed]
[Date: 2020-05-12 17:18:07]	[UserID:06/343]	[IP:10.128.130.5]	[Browser:Chrome - 81.0.4044.138]	[Action:Closing mssql connection]	[Remarks:Success]
[Date: 2020-05-12 17:18:15]	[UserID:06/343]	[IP:10.128.130.5]	[Browser:Chrome - 81.0.4044.138]	[Action:Making connection to server]	[Remarks:Successful connection to server: S3]
[Date: 2020-05-12 17:18:15]	[UserID:06/343]	[IP:10.128.130.5]	[Browser:Chrome - 81.0.4044.138]	[Action:User 06/343]	[Remarks:Success]
[Date: 2020-05-12 17:18:15]	[UserID:06/343]	[IP:10.128.130.5]	[Browser:Chrome - 81.0.4044.138]	[Action:Filtering User : MasterData Username : 06/343]	[Remarks:Successful filter row count: 0]
[Date: 2020-05-12 17:18:15]	[UserID:06/343]	[IP:10.128.130.5]	[Browser:Chrome - 81.0.4044.138]	[Action:Filtering User : MasterData Username : 06/343]	[Remarks:Successful filter row count: 0]
[Date: 2020-05-12 17:18:15]	[UserID:06/343]	[IP:10.128.130.5]	[Browser:Chrome - 81.0.4044.138]	[Action:Filtering User : MasterData Username : 06/343]	[Remarks:Success]
[Date: 2020-05-12 17:18:15]	[UserID:06/343]	[IP:10.128.130.5]	[Browser:Chrome - 81.0.4044.138]	[Action:Closing mssql connection]	[Remarks:Success]
[Date: 2020-05-12 17:18:15]	[UserID:]	[IP:10.128.130.5]	[Browser:Chrome - 81.0.4044.138]	[Action:Making connection to server]	[Remarks:Successful connection to server: S3]
[Date: 2020-05-12 17:18:15]	[UserID:]	[IP:10.128.130.5]	[Browser:Chrome - 81.0.4044.138]	[Action:GetProgramList ]	[Remarks:"no data"]
[Date: 2020-05-12 17:18:22]	[UserID:06/343]	[IP:10.128.130.5]	[Browser:Chrome - 81.0.4044.138]	[Action:Making connection to server]	[Remarks:Successful connection to server: S3]
[Date: 2020-05-12 17:18:22]	[UserID:06/343]	[IP:10.128.130.5]	[Browser:Chrome - 81.0.4044.138]	[Action:User 06/343]	[Remarks:Success]
[Date: 2020-05-12 17:18:22]	[UserID:06/343]	[IP:10.128.130.5]	[Browser:Chrome - 81.0.4044.138]	[Action:Filtering User : MasterData Username : 06/343]	[Remarks:Successful filter row count: 0]
[Date: 2020-05-12 17:18:22]	[UserID:06/343]	[IP:10.128.130.5]	[Browser:Chrome - 81.0.4044.138]	[Action:Filtering User : MasterData Username : 06/343]	[Remarks:Successful filter row count: 0]
[Date: 2020-05-12 17:18:22]	[UserID:06/343]	[IP:10.128.130.5]	[Browser:Chrome - 81.0.4044.138]	[Action:Filtering User : MasterData Username : 06/343]	[Remarks:Success]
[Date: 2020-05-12 17:18:22]	[UserID:06/343]	[IP:10.128.130.5]	[Browser:Chrome - 81.0.4044.138]	[Action:Closing mssql connection]	[Remarks:Success]
[Date: 2020-05-12 17:18:22]	[UserID:06/343]	[IP:10.128.130.5]	[Browser:Chrome - 81.0.4044.138]	[Action:Making connection to server]	[Remarks:Successful connection to server: S3]
[Date: 2020-05-12 17:18:22]	[UserID:06/343]	[IP:10.128.130.5]	[Browser:Chrome - 81.0.4044.138]	[Action:GetProgramList 06/343]	[Remarks:[{"ID":"1","ProgramIndex":"GST","ProgramName":"GST"}]]
[Date: 2020-05-12 17:18:22]	[UserID:06/343]	[IP:10.128.130.5]	[Browser:Chrome - 81.0.4044.138]	[Action:Making connection to server]	[Remarks:Successful connection to server: S3]
[Date: 2020-05-12 17:18:22]	[UserID:06/343]	[IP:10.128.130.5]	[Browser:Chrome - 81.0.4044.138]	[Action:GetProgramList 06/343]	[Remarks:[{"ID":"1","ProgramIndex":"GST","ProgramName":"GST"}]]
[Date: 2020-05-12 17:18:22]	[UserID:06/343]	[IP:10.128.130.5]	[Browser:Chrome - 81.0.4044.138]	[Action:Making connection to server]	[Remarks:Successful connection to server: S3]
[Date: 2020-05-12 17:18:22]	[UserID:06/343]	[IP:10.128.130.5]	[Browser:Chrome - 81.0.4044.138]	[Action:Filtering User : MasterData Username : 06/343]	[Remarks:Successful filter row count: 1]
[Date: 2020-05-12 17:18:23]	[UserID:06/343]	[IP:10.128.130.5]	[Browser:Chrome - 81.0.4044.138]	[Action:Making connection to server]	[Remarks:Successful connection to server: S3]
[Date: 2020-05-12 17:18:23]	[UserID:06/343]	[IP:10.128.130.5]	[Browser:Chrome - 81.0.4044.138]	[Action:GetGSTModules 06/343,1]	[Remarks:Successful filter row count: 7]
[Date: 2020-05-12 17:18:23]	[UserID:06/343]	[IP:10.128.130.5]	[Browser:Chrome - 81.0.4044.138]	[Action:Closing mssql connection]	[Remarks:Success]
[Date: 2020-05-12 17:18:41]	[UserID:06/343]	[IP:10.128.130.5]	[Browser:Chrome - 81.0.4044.138]	[Action:Making connection to server]	[Remarks:Successful connection to server: S3]
[Date: 2020-05-12 17:18:41]	[UserID:06/343]	[IP:10.128.130.5]	[Browser:Chrome - 81.0.4044.138]	[Action:GetGSTModules 06/343,1]	[Remarks:Successful filter row count: 7]
[Date: 2020-05-12 17:18:41]	[UserID:06/343]	[IP:10.128.130.5]	[Browser:Chrome - 81.0.4044.138]	[Action:Closing mssql connection]	[Remarks:Success]
[Date: 2020-05-12 17:20:51]	[UserID:06/343]	[IP:10.128.130.5]	[Browser:Chrome - 81.0.4044.138]	[Action:Making connection to server]	[Remarks:Successful connection to server: S3]
[Date: 2020-05-12 17:20:51]	[UserID:06/343]	[IP:10.128.130.5]	[Browser:Chrome - 81.0.4044.138]	[Action:GetGSTModules 06/343,1]	[Remarks:Successful filter row count: 7]
[Date: 2020-05-12 17:20:51]	[UserID:06/343]	[IP:10.128.130.5]	[Browser:Chrome - 81.0.4044.138]	[Action:Closing mssql connection]	[Remarks:Success]
[Date: 2020-05-12 17:25:43]	[UserID:06/343]	[IP:10.128.130.5]	[Browser:Chrome - 81.0.4044.138]	[Action:Making connection to server]	[Remarks:Successful connection to server: S3]
[Date: 2020-05-12 17:25:43]	[UserID:06/343]	[IP:10.128.130.5]	[Browser:Chrome - 81.0.4044.138]	[Action:GetGSTModules 06/343,1]	[Remarks:Successful filter row count: 7]
[Date: 2020-05-12 17:25:43]	[UserID:06/343]	[IP:10.128.130.5]	[Browser:Chrome - 81.0.4044.138]	[Action:Closing mssql connection]	[Remarks:Success]
[Date: 2020-05-12 17:28:10]	[UserID:06/343]	[IP:10.128.130.5]	[Browser:Chrome - 81.0.4044.138]	[Action:Making connection to server]	[Remarks:Successful connection to server: S3]
[Date: 2020-05-12 17:28:10]	[UserID:06/343]	[IP:10.128.130.5]	[Browser:Chrome - 81.0.4044.138]	[Action:GetGSTModules 06/343,1]	[Remarks:Successful filter row count: 7]
[Date: 2020-05-12 17:28:10]	[UserID:06/343]	[IP:10.128.130.5]	[Browser:Chrome - 81.0.4044.138]	[Action:Closing mssql connection]	[Remarks:Success]
[Date: 2020-05-12 23:05:19]	[UserID:]	[IP:10.128.130.5]	[Browser:Chrome - 81.0.4044.138]	[Action:Making connection to server]	[Remarks:Successful connection to server: S3]
[Date: 2020-05-12 23:05:19]	[UserID:]	[IP:10.128.130.5]	[Browser:Chrome - 81.0.4044.138]	[Action:GetProgramList ]	[Remarks:"no data"]
