[Date: 2016-02-12 07:36:58]	[UserID:]	[IP:10.10.11.1]	[Browser:Chrome - 48.0.2564.109]	[Action:Making connection to server]	[Remarks:Successful connection to server: S3]
[Date: 2016-02-12 07:36:58]	[UserID:]	[IP:10.10.11.1]	[Browser:Chrome - 48.0.2564.109]	[Action:GetProgramList ]	[Remarks:"no data"]
[Date: 2016-02-12 09:39:04]	[UserID:06/343]	[IP:10.10.11.1]	[Browser:Chrome - 48.0.2564.109]	[Action:Making connection to server]	[Remarks:Successful connection to server: S3]
[Date: 2016-02-12 09:39:04]	[UserID:06/343]	[IP:10.10.11.1]	[Browser:Chrome - 48.0.2564.109]	[Action:User 06/343]	[Remarks:Success]
[Date: 2016-02-12 09:39:04]	[UserID:06/343]	[IP:10.10.11.1]	[Browser:Chrome - 48.0.2564.109]	[Action:Filtering User : MasterData Username : 06/343]	[Remarks:Successful filter row count: 0]
[Date: 2016-02-12 09:39:04]	[UserID:06/343]	[IP:10.10.11.1]	[Browser:Chrome - 48.0.2564.109]	[Action:Filtering User : MasterData Username : 06/343]	[Remarks:Successful filter row count: 0]
[Date: 2016-02-12 09:39:04]	[UserID:06/343]	[IP:10.10.11.1]	[Browser:Chrome - 48.0.2564.109]	[Action:Filtering User : MasterData Username : 06/343]	[Remarks:Success]
[Date: 2016-02-12 09:39:04]	[UserID:06/343]	[IP:10.10.11.1]	[Browser:Chrome - 48.0.2564.109]	[Action:Closing mssql connection]	[Remarks:Success]
[Date: 2016-02-12 09:39:04]	[UserID:06/343]	[IP:10.10.11.1]	[Browser:Chrome - 48.0.2564.109]	[Action:Making connection to server]	[Remarks:Successful connection to server: S3]
[Date: 2016-02-12 09:39:04]	[UserID:06/343]	[IP:10.10.11.1]	[Browser:Chrome - 48.0.2564.109]	[Action:GetProgramList 06/343]	[Remarks:[{"ID":"1","ProgramIndex":"GST","ProgramName":"GST"}]]
[Date: 2016-02-12 09:39:04]	[UserID:06/343]	[IP:10.10.11.1]	[Browser:Chrome - 48.0.2564.109]	[Action:Making connection to server]	[Remarks:Successful connection to server: S3]
[Date: 2016-02-12 09:39:04]	[UserID:06/343]	[IP:10.10.11.1]	[Browser:Chrome - 48.0.2564.109]	[Action:GetProgramList 06/343]	[Remarks:[{"ID":"1","ProgramIndex":"GST","ProgramName":"GST"}]]
[Date: 2016-02-12 09:39:04]	[UserID:06/343]	[IP:10.10.11.1]	[Browser:Chrome - 48.0.2564.109]	[Action:Making connection to server]	[Remarks:Successful connection to server: S3]
[Date: 2016-02-12 09:39:05]	[UserID:06/343]	[IP:10.10.11.1]	[Browser:Chrome - 48.0.2564.109]	[Action:Filtering User : MasterData Username : 06/343]	[Remarks:Successful filter row count: 1]
[Date: 2016-02-12 09:39:05]	[UserID:06/343]	[IP:10.10.11.1]	[Browser:Chrome - 48.0.2564.109]	[Action:Making connection to server]	[Remarks:Successful connection to server: S3]
[Date: 2016-02-12 09:39:05]	[UserID:06/343]	[IP:10.10.11.1]	[Browser:Chrome - 48.0.2564.109]	[Action:GetGSTModules 06/343,1]	[Remarks:Successful filter row count: 5]
[Date: 2016-02-12 09:39:05]	[UserID:06/343]	[IP:10.10.11.1]	[Browser:Chrome - 48.0.2564.109]	[Action:Closing mssql connection]	[Remarks:Success]
[Date: 2016-02-12 09:45:57]	[UserID:06/343]	[IP:10.10.11.1]	[Browser:Chrome - 48.0.2564.109]	[Action:Making connection to server]	[Remarks:Successful connection to server: S3]
[Date: 2016-02-12 09:45:57]	[UserID:06/343]	[IP:10.10.11.1]	[Browser:Chrome - 48.0.2564.109]	[Action:GetGSTModules 06/343,1]	[Remarks:Successful filter row count: 5]
[Date: 2016-02-12 09:45:57]	[UserID:06/343]	[IP:10.10.11.1]	[Browser:Chrome - 48.0.2564.109]	[Action:Closing mssql connection]	[Remarks:Success]
[Date: 2016-02-12 09:47:18]	[UserID:06/343]	[IP:10.10.11.1]	[Browser:Chrome - 48.0.2564.109]	[Action:Making connection to server]	[Remarks:Successful connection to server: S3]
[Date: 2016-02-12 09:47:18]	[UserID:06/343]	[IP:10.10.11.1]	[Browser:Chrome - 48.0.2564.109]	[Action:GetGSTModules 06/343,1]	[Remarks:Successful filter row count: 5]
[Date: 2016-02-12 09:47:18]	[UserID:06/343]	[IP:10.10.11.1]	[Browser:Chrome - 48.0.2564.109]	[Action:Closing mssql connection]	[Remarks:Success]
[Date: 2016-02-12 09:47:56]	[UserID:06/343]	[IP:10.10.11.1]	[Browser:Chrome - 48.0.2564.109]	[Action:Making connection to server]	[Remarks:Successful connection to server: S3]
[Date: 2016-02-12 09:47:56]	[UserID:06/343]	[IP:10.10.11.1]	[Browser:Chrome - 48.0.2564.109]	[Action:GetGSTModules 06/343,1]	[Remarks:Successful filter row count: 5]
[Date: 2016-02-12 09:47:56]	[UserID:06/343]	[IP:10.10.11.1]	[Browser:Chrome - 48.0.2564.109]	[Action:Closing mssql connection]	[Remarks:Success]
[Date: 2016-02-12 10:06:57]	[UserID:06/343]	[IP:10.10.11.1]	[Browser:Chrome - 48.0.2564.109]	[Action:Making connection to server]	[Remarks:Successful connection to server: S3]
[Date: 2016-02-12 10:06:58]	[UserID:06/343]	[IP:10.10.11.1]	[Browser:Chrome - 48.0.2564.109]	[Action:GetGSTModules 06/343,1]	[Remarks:Successful filter row count: 5]
[Date: 2016-02-12 10:06:58]	[UserID:06/343]	[IP:10.10.11.1]	[Browser:Chrome - 48.0.2564.109]	[Action:Closing mssql connection]	[Remarks:Success]
[Date: 2016-02-12 10:09:49]	[UserID:06/343]	[IP:10.10.11.1]	[Browser:Chrome - 48.0.2564.109]	[Action:Making connection to server]	[Remarks:Successful connection to server: S3]
[Date: 2016-02-12 10:09:49]	[UserID:06/343]	[IP:10.10.11.1]	[Browser:Chrome - 48.0.2564.109]	[Action:GetGSTModules 06/343,1]	[Remarks:Successful filter row count: 5]
[Date: 2016-02-12 10:09:49]	[UserID:06/343]	[IP:10.10.11.1]	[Browser:Chrome - 48.0.2564.109]	[Action:Closing mssql connection]	[Remarks:Success]
[Date: 2016-02-12 10:10:51]	[UserID:06/343]	[IP:10.10.11.1]	[Browser:Chrome - 48.0.2564.109]	[Action:Making connection to server]	[Remarks:Successful connection to server: S3]
[Date: 2016-02-12 10:10:51]	[UserID:06/343]	[IP:10.10.11.1]	[Browser:Chrome - 48.0.2564.109]	[Action:GetGSTModules 06/343,1]	[Remarks:Successful filter row count: 5]
[Date: 2016-02-12 10:10:51]	[UserID:06/343]	[IP:10.10.11.1]	[Browser:Chrome - 48.0.2564.109]	[Action:Closing mssql connection]	[Remarks:Success]
