[Date: 2020-09-12 08:15:17]	[UserID:]	[IP:10.128.130.5]	[Browser:Chrome - 85.0.4183.102]	[Action:Making connection to server]	[Remarks:Successful connection to server: S3]
[Date: 2020-09-12 08:15:17]	[UserID:]	[IP:10.128.130.5]	[Browser:Chrome - 85.0.4183.102]	[Action:GetProgramList ]	[Remarks:"no data"]
[Date: 2020-09-12 08:22:25]	[UserID:]	[IP:10.128.12.115]	[Browser:Chrome - 85.0.4183.102]	[Action:Making connection to server]	[Remarks:Successful connection to server: S3]
[Date: 2020-09-12 08:22:25]	[UserID:]	[IP:10.128.12.115]	[Browser:Chrome - 85.0.4183.102]	[Action:GetProgramList ]	[Remarks:"no data"]
[Date: 2020-09-12 08:23:45]	[UserID:]	[IP:10.128.12.114]	[Browser:Chrome - 85.0.4183.102]	[Action:Making connection to server]	[Remarks:Successful connection to server: S3]
[Date: 2020-09-12 08:23:45]	[UserID:]	[IP:10.128.12.114]	[Browser:Chrome - 85.0.4183.102]	[Action:GetProgramList ]	[Remarks:"no data"]
[Date: 2020-09-12 08:23:50]	[UserID:14/1082]	[IP:10.128.12.114]	[Browser:Chrome - 85.0.4183.102]	[Action:Making connection to server]	[Remarks:Successful connection to server: S3]
[Date: 2020-09-12 08:23:50]	[UserID:14/1082]	[IP:10.128.12.114]	[Browser:Chrome - 85.0.4183.102]	[Action:User 14/1082]	[Remarks:Success]
[Date: 2020-09-12 08:23:50]	[UserID:14/1082]	[IP:10.128.12.114]	[Browser:Chrome - 85.0.4183.102]	[Action:Filtering User : MasterData Username : 14/1082]	[Remarks:Successful filter row count: 0]
[Date: 2020-09-12 08:23:50]	[UserID:14/1082]	[IP:10.128.12.114]	[Browser:Chrome - 85.0.4183.102]	[Action:Filtering User : MasterData Username : 14/1082]	[Remarks:Successful filter row count: 0]
[Date: 2020-09-12 08:23:50]	[UserID:14/1082]	[IP:10.128.12.114]	[Browser:Chrome - 85.0.4183.102]	[Action:Filtering User : MasterData Username : 14/1082]	[Remarks:Success]
[Date: 2020-09-12 08:23:50]	[UserID:14/1082]	[IP:10.128.12.114]	[Browser:Chrome - 85.0.4183.102]	[Action:Closing mssql connection]	[Remarks:Success]
[Date: 2020-09-12 08:23:51]	[UserID:14/1082]	[IP:10.128.12.114]	[Browser:Chrome - 85.0.4183.102]	[Action:Making connection to server]	[Remarks:Successful connection to server: S3]
[Date: 2020-09-12 08:23:51]	[UserID:14/1082]	[IP:10.128.12.114]	[Browser:Chrome - 85.0.4183.102]	[Action:GetProgramList 14/1082]	[Remarks:[{"ID":"1","ProgramIndex":"GST","ProgramName":"GST"}]]
[Date: 2020-09-12 08:23:51]	[UserID:14/1082]	[IP:10.128.12.114]	[Browser:Chrome - 85.0.4183.102]	[Action:Making connection to server]	[Remarks:Successful connection to server: S3]
[Date: 2020-09-12 08:23:51]	[UserID:14/1082]	[IP:10.128.12.114]	[Browser:Chrome - 85.0.4183.102]	[Action:GetProgramList 14/1082]	[Remarks:[{"ID":"1","ProgramIndex":"GST","ProgramName":"GST"}]]
[Date: 2020-09-12 08:23:51]	[UserID:14/1082]	[IP:10.128.12.114]	[Browser:Chrome - 85.0.4183.102]	[Action:Making connection to server]	[Remarks:Successful connection to server: S3]
[Date: 2020-09-12 08:23:51]	[UserID:14/1082]	[IP:10.128.12.114]	[Browser:Chrome - 85.0.4183.102]	[Action:Filtering User : MasterData Username : 14/1082]	[Remarks:Successful filter row count: 1]
[Date: 2020-09-12 08:23:51]	[UserID:14/1082]	[IP:10.128.12.114]	[Browser:Chrome - 85.0.4183.102]	[Action:Making connection to server]	[Remarks:Successful connection to server: S3]
[Date: 2020-09-12 08:23:51]	[UserID:14/1082]	[IP:10.128.12.114]	[Browser:Chrome - 85.0.4183.102]	[Action:GetGSTModules 14/1082,1]	[Remarks:Successful filter row count: 8]
[Date: 2020-09-12 08:23:51]	[UserID:14/1082]	[IP:10.128.12.114]	[Browser:Chrome - 85.0.4183.102]	[Action:Closing mssql connection]	[Remarks:Success]
[Date: 2020-09-12 08:37:25]	[UserID:17/1248]	[IP:10.128.12.115]	[Browser:Chrome - 85.0.4183.102]	[Action:Making connection to server]	[Remarks:Successful connection to server: S3]
[Date: 2020-09-12 08:37:25]	[UserID:17/1248]	[IP:10.128.12.115]	[Browser:Chrome - 85.0.4183.102]	[Action:User 17/1248]	[Remarks:Success]
[Date: 2020-09-12 08:37:25]	[UserID:17/1248]	[IP:10.128.12.115]	[Browser:Chrome - 85.0.4183.102]	[Action:Filtering User : MasterData Username : 17/1248]	[Remarks:Successful filter row count: 0]
[Date: 2020-09-12 08:37:25]	[UserID:17/1248]	[IP:10.128.12.115]	[Browser:Chrome - 85.0.4183.102]	[Action:Filtering User : MasterData Username : 17/1248]	[Remarks:Successful filter row count: 0]
[Date: 2020-09-12 08:37:25]	[UserID:17/1248]	[IP:10.128.12.115]	[Browser:Chrome - 85.0.4183.102]	[Action:Filtering User : MasterData Username : 17/1248]	[Remarks:Success]
[Date: 2020-09-12 08:37:25]	[UserID:17/1248]	[IP:10.128.12.115]	[Browser:Chrome - 85.0.4183.102]	[Action:Closing mssql connection]	[Remarks:Success]
[Date: 2020-09-12 08:37:26]	[UserID:17/1248]	[IP:10.128.12.115]	[Browser:Chrome - 85.0.4183.102]	[Action:Making connection to server]	[Remarks:Successful connection to server: S3]
[Date: 2020-09-12 08:37:26]	[UserID:17/1248]	[IP:10.128.12.115]	[Browser:Chrome - 85.0.4183.102]	[Action:GetProgramList 17/1248]	[Remarks:[{"ID":"1","ProgramIndex":"GST","ProgramName":"GST"}]]
[Date: 2020-09-12 08:37:26]	[UserID:17/1248]	[IP:10.128.12.115]	[Browser:Chrome - 85.0.4183.102]	[Action:Making connection to server]	[Remarks:Successful connection to server: S3]
[Date: 2020-09-12 08:37:26]	[UserID:17/1248]	[IP:10.128.12.115]	[Browser:Chrome - 85.0.4183.102]	[Action:GetProgramList 17/1248]	[Remarks:[{"ID":"1","ProgramIndex":"GST","ProgramName":"GST"}]]
[Date: 2020-09-12 08:37:26]	[UserID:17/1248]	[IP:10.128.12.115]	[Browser:Chrome - 85.0.4183.102]	[Action:Making connection to server]	[Remarks:Successful connection to server: S3]
[Date: 2020-09-12 08:37:26]	[UserID:17/1248]	[IP:10.128.12.115]	[Browser:Chrome - 85.0.4183.102]	[Action:Filtering User : MasterData Username : 17/1248]	[Remarks:Successful filter row count: 1]
[Date: 2020-09-12 08:37:27]	[UserID:17/1248]	[IP:10.128.12.115]	[Browser:Chrome - 85.0.4183.102]	[Action:Making connection to server]	[Remarks:Successful connection to server: S3]
[Date: 2020-09-12 08:37:27]	[UserID:17/1248]	[IP:10.128.12.115]	[Browser:Chrome - 85.0.4183.102]	[Action:GetGSTModules 17/1248,1]	[Remarks:Successful filter row count: 6]
[Date: 2020-09-12 08:37:27]	[UserID:17/1248]	[IP:10.128.12.115]	[Browser:Chrome - 85.0.4183.102]	[Action:Closing mssql connection]	[Remarks:Success]
[Date: 2020-09-12 09:28:16]	[UserID:14/1082]	[IP:10.128.12.114]	[Browser:Chrome - 85.0.4183.102]	[Action:Making connection to server]	[Remarks:Successful connection to server: S3]
[Date: 2020-09-12 09:28:16]	[UserID:14/1082]	[IP:10.128.12.114]	[Browser:Chrome - 85.0.4183.102]	[Action:GetProgramList 14/1082]	[Remarks:[{"ID":"1","ProgramIndex":"GST","ProgramName":"GST"}]]
[Date: 2020-09-12 09:28:16]	[UserID:14/1082]	[IP:10.128.12.114]	[Browser:Chrome - 85.0.4183.102]	[Action:Making connection to server]	[Remarks:Successful connection to server: S3]
[Date: 2020-09-12 09:28:16]	[UserID:14/1082]	[IP:10.128.12.114]	[Browser:Chrome - 85.0.4183.102]	[Action:GetProgramList 14/1082]	[Remarks:[{"ID":"1","ProgramIndex":"GST","ProgramName":"GST"}]]
[Date: 2020-09-12 09:28:16]	[UserID:14/1082]	[IP:10.128.12.114]	[Browser:Chrome - 85.0.4183.102]	[Action:Making connection to server]	[Remarks:Successful connection to server: S3]
[Date: 2020-09-12 09:28:16]	[UserID:14/1082]	[IP:10.128.12.114]	[Browser:Chrome - 85.0.4183.102]	[Action:Filtering User : MasterData Username : 14/1082]	[Remarks:Successful filter row count: 1]
[Date: 2020-09-12 09:28:17]	[UserID:14/1082]	[IP:10.128.12.114]	[Browser:Chrome - 85.0.4183.102]	[Action:Making connection to server]	[Remarks:Successful connection to server: S3]
[Date: 2020-09-12 09:28:17]	[UserID:14/1082]	[IP:10.128.12.114]	[Browser:Chrome - 85.0.4183.102]	[Action:GetGSTModules 14/1082,1]	[Remarks:Successful filter row count: 8]
[Date: 2020-09-12 09:28:17]	[UserID:14/1082]	[IP:10.128.12.114]	[Browser:Chrome - 85.0.4183.102]	[Action:Closing mssql connection]	[Remarks:Success]
[Date: 2020-09-12 09:43:50]	[UserID:]	[IP:10.128.12.115]	[Browser:Chrome - 85.0.4183.102]	[Action:Making connection to server]	[Remarks:Successful connection to server: S3]
[Date: 2020-09-12 09:43:50]	[UserID:]	[IP:10.128.12.115]	[Browser:Chrome - 85.0.4183.102]	[Action:GetProgramList ]	[Remarks:"no data"]
[Date: 2020-09-12 09:45:46]	[UserID:14/1082]	[IP:10.128.12.114]	[Browser:Chrome - 85.0.4183.102]	[Action:Making connection to server]	[Remarks:Successful connection to server: S3]
[Date: 2020-09-12 09:45:46]	[UserID:14/1082]	[IP:10.128.12.114]	[Browser:Chrome - 85.0.4183.102]	[Action:GetGSTModules 14/1082,1]	[Remarks:Successful filter row count: 8]
[Date: 2020-09-12 09:45:46]	[UserID:14/1082]	[IP:10.128.12.114]	[Browser:Chrome - 85.0.4183.102]	[Action:Closing mssql connection]	[Remarks:Success]
[Date: 2020-09-12 09:46:00]	[UserID:]	[IP:10.128.12.114]	[Browser:Chrome - 85.0.4183.102]	[Action:Making connection to server]	[Remarks:Successful connection to server: S3]
[Date: 2020-09-12 09:46:00]	[UserID:]	[IP:10.128.12.114]	[Browser:Chrome - 85.0.4183.102]	[Action:GetProgramList ]	[Remarks:"no data"]
[Date: 2020-09-12 09:46:05]	[UserID:]	[IP:10.128.12.114]	[Browser:Chrome - 85.0.4183.102]	[Action:Making connection to server]	[Remarks:Successful connection to server: S3]
[Date: 2020-09-12 09:46:05]	[UserID:]	[IP:10.128.12.114]	[Browser:Chrome - 85.0.4183.102]	[Action:GetProgramList ]	[Remarks:"no data"]
[Date: 2020-09-12 09:46:13]	[UserID:14/1082]	[IP:10.128.12.114]	[Browser:Chrome - 85.0.4183.102]	[Action:Making connection to server]	[Remarks:Successful connection to server: S3]
[Date: 2020-09-12 09:46:13]	[UserID:14/1082]	[IP:10.128.12.114]	[Browser:Chrome - 85.0.4183.102]	[Action:User 14/1082]	[Remarks:Success]
[Date: 2020-09-12 09:46:13]	[UserID:14/1082]	[IP:10.128.12.114]	[Browser:Chrome - 85.0.4183.102]	[Action:Filtering User : MasterData Username : 14/1082]	[Remarks:Successful filter row count: 0]
[Date: 2020-09-12 09:46:13]	[UserID:14/1082]	[IP:10.128.12.114]	[Browser:Chrome - 85.0.4183.102]	[Action:Filtering User : MasterData Username : 14/1082]	[Remarks:Successful filter row count: 0]
[Date: 2020-09-12 09:46:13]	[UserID:14/1082]	[IP:10.128.12.114]	[Browser:Chrome - 85.0.4183.102]	[Action:Filtering User : MasterData Username : 14/1082]	[Remarks:Success]
[Date: 2020-09-12 09:46:13]	[UserID:14/1082]	[IP:10.128.12.114]	[Browser:Chrome - 85.0.4183.102]	[Action:Closing mssql connection]	[Remarks:Success]
[Date: 2020-09-12 09:46:13]	[UserID:14/1082]	[IP:10.128.12.114]	[Browser:Chrome - 85.0.4183.102]	[Action:Making connection to server]	[Remarks:Successful connection to server: S3]
[Date: 2020-09-12 09:46:14]	[UserID:14/1082]	[IP:10.128.12.114]	[Browser:Chrome - 85.0.4183.102]	[Action:GetProgramList 14/1082]	[Remarks:[{"ID":"1","ProgramIndex":"GST","ProgramName":"GST"}]]
[Date: 2020-09-12 09:46:14]	[UserID:14/1082]	[IP:10.128.12.114]	[Browser:Chrome - 85.0.4183.102]	[Action:Making connection to server]	[Remarks:Successful connection to server: S3]
[Date: 2020-09-12 09:46:14]	[UserID:14/1082]	[IP:10.128.12.114]	[Browser:Chrome - 85.0.4183.102]	[Action:GetProgramList 14/1082]	[Remarks:[{"ID":"1","ProgramIndex":"GST","ProgramName":"GST"}]]
[Date: 2020-09-12 09:46:14]	[UserID:14/1082]	[IP:10.128.12.114]	[Browser:Chrome - 85.0.4183.102]	[Action:Making connection to server]	[Remarks:Successful connection to server: S3]
[Date: 2020-09-12 09:46:14]	[UserID:14/1082]	[IP:10.128.12.114]	[Browser:Chrome - 85.0.4183.102]	[Action:Filtering User : MasterData Username : 14/1082]	[Remarks:Successful filter row count: 1]
[Date: 2020-09-12 09:46:14]	[UserID:14/1082]	[IP:10.128.12.114]	[Browser:Chrome - 85.0.4183.102]	[Action:Making connection to server]	[Remarks:Successful connection to server: S3]
[Date: 2020-09-12 09:46:14]	[UserID:14/1082]	[IP:10.128.12.114]	[Browser:Chrome - 85.0.4183.102]	[Action:GetGSTModules 14/1082,1]	[Remarks:Successful filter row count: 8]
[Date: 2020-09-12 09:46:14]	[UserID:14/1082]	[IP:10.128.12.114]	[Browser:Chrome - 85.0.4183.102]	[Action:Closing mssql connection]	[Remarks:Success]
[Date: 2020-09-12 12:45:08]	[UserID:14/1082]	[IP:10.128.12.114]	[Browser:Chrome - 85.0.4183.102]	[Action:Making connection to server]	[Remarks:Successful connection to server: S3]
[Date: 2020-09-12 12:45:08]	[UserID:14/1082]	[IP:10.128.12.114]	[Browser:Chrome - 85.0.4183.102]	[Action:GetGSTModules 14/1082,1]	[Remarks:Successful filter row count: 8]
[Date: 2020-09-12 12:45:08]	[UserID:14/1082]	[IP:10.128.12.114]	[Browser:Chrome - 85.0.4183.102]	[Action:Closing mssql connection]	[Remarks:Success]
[Date: 2020-09-12 12:59:28]	[UserID:14/1082]	[IP:10.128.12.114]	[Browser:Chrome - 85.0.4183.102]	[Action:Making connection to server]	[Remarks:Successful connection to server: S3]
[Date: 2020-09-12 12:59:28]	[UserID:14/1082]	[IP:10.128.12.114]	[Browser:Chrome - 85.0.4183.102]	[Action:GetGSTModules 14/1082,1]	[Remarks:Successful filter row count: 8]
[Date: 2020-09-12 12:59:28]	[UserID:14/1082]	[IP:10.128.12.114]	[Browser:Chrome - 85.0.4183.102]	[Action:Closing mssql connection]	[Remarks:Success]
[Date: 2020-09-12 13:22:47]	[UserID:]	[IP:10.128.12.114]	[Browser:Chrome - 85.0.4183.102]	[Action:Making connection to server]	[Remarks:Successful connection to server: S3]
[Date: 2020-09-12 13:22:47]	[UserID:]	[IP:10.128.12.114]	[Browser:Chrome - 85.0.4183.102]	[Action:GetProgramList ]	[Remarks:"no data"]
[Date: 2020-09-12 13:27:17]	[UserID:]	[IP:10.128.12.115]	[Browser:Chrome - 85.0.4183.102]	[Action:Making connection to server]	[Remarks:Successful connection to server: S3]
[Date: 2020-09-12 13:27:17]	[UserID:]	[IP:10.128.12.115]	[Browser:Chrome - 85.0.4183.102]	[Action:GetProgramList ]	[Remarks:"no data"]
[Date: 2020-09-12 13:27:22]	[UserID:17/1248]	[IP:10.128.12.115]	[Browser:Chrome - 85.0.4183.102]	[Action:Making connection to server]	[Remarks:Successful connection to server: S3]
[Date: 2020-09-12 13:27:22]	[UserID:17/1248]	[IP:10.128.12.115]	[Browser:Chrome - 85.0.4183.102]	[Action:User 17/1248]	[Remarks:Success]
[Date: 2020-09-12 13:27:22]	[UserID:17/1248]	[IP:10.128.12.115]	[Browser:Chrome - 85.0.4183.102]	[Action:Filtering User : MasterData Username : 17/1248]	[Remarks:Successful filter row count: 0]
[Date: 2020-09-12 13:27:22]	[UserID:17/1248]	[IP:10.128.12.115]	[Browser:Chrome - 85.0.4183.102]	[Action:Filtering User : MasterData Username : 17/1248]	[Remarks:Successful filter row count: 0]
[Date: 2020-09-12 13:27:22]	[UserID:17/1248]	[IP:10.128.12.115]	[Browser:Chrome - 85.0.4183.102]	[Action:Filtering User : MasterData Username : 17/1248]	[Remarks:Success]
[Date: 2020-09-12 13:27:22]	[UserID:17/1248]	[IP:10.128.12.115]	[Browser:Chrome - 85.0.4183.102]	[Action:Closing mssql connection]	[Remarks:Success]
[Date: 2020-09-12 13:27:22]	[UserID:17/1248]	[IP:10.128.12.115]	[Browser:Chrome - 85.0.4183.102]	[Action:Making connection to server]	[Remarks:Successful connection to server: S3]
[Date: 2020-09-12 13:27:22]	[UserID:17/1248]	[IP:10.128.12.115]	[Browser:Chrome - 85.0.4183.102]	[Action:GetProgramList 17/1248]	[Remarks:[{"ID":"1","ProgramIndex":"GST","ProgramName":"GST"}]]
[Date: 2020-09-12 13:27:22]	[UserID:17/1248]	[IP:10.128.12.115]	[Browser:Chrome - 85.0.4183.102]	[Action:Making connection to server]	[Remarks:Successful connection to server: S3]
[Date: 2020-09-12 13:27:22]	[UserID:17/1248]	[IP:10.128.12.115]	[Browser:Chrome - 85.0.4183.102]	[Action:GetProgramList 17/1248]	[Remarks:[{"ID":"1","ProgramIndex":"GST","ProgramName":"GST"}]]
[Date: 2020-09-12 13:27:22]	[UserID:17/1248]	[IP:10.128.12.115]	[Browser:Chrome - 85.0.4183.102]	[Action:Making connection to server]	[Remarks:Successful connection to server: S3]
[Date: 2020-09-12 13:27:22]	[UserID:17/1248]	[IP:10.128.12.115]	[Browser:Chrome - 85.0.4183.102]	[Action:Filtering User : MasterData Username : 17/1248]	[Remarks:Successful filter row count: 1]
[Date: 2020-09-12 13:27:23]	[UserID:17/1248]	[IP:10.128.12.115]	[Browser:Chrome - 85.0.4183.102]	[Action:Making connection to server]	[Remarks:Successful connection to server: S3]
[Date: 2020-09-12 13:27:23]	[UserID:17/1248]	[IP:10.128.12.115]	[Browser:Chrome - 85.0.4183.102]	[Action:GetGSTModules 17/1248,1]	[Remarks:Successful filter row count: 6]
[Date: 2020-09-12 13:27:23]	[UserID:17/1248]	[IP:10.128.12.115]	[Browser:Chrome - 85.0.4183.102]	[Action:Closing mssql connection]	[Remarks:Success]
[Date: 2020-09-12 14:14:58]	[UserID:]	[IP:10.128.12.115]	[Browser:Chrome - 85.0.4183.102]	[Action:Making connection to server]	[Remarks:Successful connection to server: S3]
[Date: 2020-09-12 14:14:58]	[UserID:]	[IP:10.128.12.115]	[Browser:Chrome - 85.0.4183.102]	[Action:GetProgramList ]	[Remarks:"no data"]
[Date: 2020-09-12 23:04:00]	[UserID:]	[IP:10.128.130.5]	[Browser:Chrome - 85.0.4183.83]	[Action:Making connection to server]	[Remarks:Successful connection to server: S3]
[Date: 2020-09-12 23:04:00]	[UserID:]	[IP:10.128.130.5]	[Browser:Chrome - 85.0.4183.83]	[Action:GetProgramList ]	[Remarks:"no data"]
