[Date: 2018-09-01 08:10:42]	[UserID:]	[IP:10.128.12.113]	[Browser:Chrome - 68.0.3440.106]	[Action:Making connection to server]	[Remarks:Successful connection to server: S3]
[Date: 2018-09-01 08:10:42]	[UserID:]	[IP:10.128.12.113]	[Browser:Chrome - 68.0.3440.106]	[Action:GetProgramList ]	[Remarks:"no data"]
[Date: 2018-09-01 08:13:46]	[UserID:06/343]	[IP:10.128.12.113]	[Browser:Chrome - 68.0.3440.106]	[Action:Making connection to server]	[Remarks:Successful connection to server: S3]
[Date: 2018-09-01 08:13:46]	[UserID:06/343]	[IP:10.128.12.113]	[Browser:Chrome - 68.0.3440.106]	[Action:User 06/343]	[Remarks:Success]
[Date: 2018-09-01 08:13:46]	[UserID:06/343]	[IP:10.128.12.113]	[Browser:Chrome - 68.0.3440.106]	[Action:Filtering User : MasterData Username : 06/343]	[Remarks:Successful filter row count: 0]
[Date: 2018-09-01 08:13:46]	[UserID:06/343]	[IP:10.128.12.113]	[Browser:Chrome - 68.0.3440.106]	[Action:Filtering User : MasterData Username : 06/343]	[Remarks:Successful filter row count: 0]
[Date: 2018-09-01 08:13:46]	[UserID:06/343]	[IP:10.128.12.113]	[Browser:Chrome - 68.0.3440.106]	[Action:Filtering User : MasterData Username : 06/343]	[Remarks:Success]
[Date: 2018-09-01 08:13:46]	[UserID:06/343]	[IP:10.128.12.113]	[Browser:Chrome - 68.0.3440.106]	[Action:Closing mssql connection]	[Remarks:Success]
[Date: 2018-09-01 08:14:00]	[UserID:06/343]	[IP:10.128.12.113]	[Browser:Chrome - 68.0.3440.106]	[Action:Making connection to server]	[Remarks:Successful connection to server: S3]
[Date: 2018-09-01 08:14:00]	[UserID:06/343]	[IP:10.128.12.113]	[Browser:Chrome - 68.0.3440.106]	[Action:GetProgramList 06/343]	[Remarks:[{"ID":"1","ProgramIndex":"GST","ProgramName":"GST"}]]
[Date: 2018-09-01 08:14:00]	[UserID:06/343]	[IP:10.128.12.113]	[Browser:Chrome - 68.0.3440.106]	[Action:Making connection to server]	[Remarks:Successful connection to server: S3]
[Date: 2018-09-01 08:14:00]	[UserID:06/343]	[IP:10.128.12.113]	[Browser:Chrome - 68.0.3440.106]	[Action:GetProgramList 06/343]	[Remarks:[{"ID":"1","ProgramIndex":"GST","ProgramName":"GST"}]]
[Date: 2018-09-01 08:14:00]	[UserID:06/343]	[IP:10.128.12.113]	[Browser:Chrome - 68.0.3440.106]	[Action:Making connection to server]	[Remarks:Successful connection to server: S3]
[Date: 2018-09-01 08:14:00]	[UserID:06/343]	[IP:10.128.12.113]	[Browser:Chrome - 68.0.3440.106]	[Action:Filtering User : MasterData Username : 06/343]	[Remarks:Successful filter row count: 1]
[Date: 2018-09-01 08:14:00]	[UserID:06/343]	[IP:10.128.12.113]	[Browser:Chrome - 68.0.3440.106]	[Action:Making connection to server]	[Remarks:Successful connection to server: S3]
[Date: 2018-09-01 08:14:00]	[UserID:06/343]	[IP:10.128.12.113]	[Browser:Chrome - 68.0.3440.106]	[Action:GetGSTModules 06/343,1]	[Remarks:Successful filter row count: 6]
[Date: 2018-09-01 08:14:00]	[UserID:06/343]	[IP:10.128.12.113]	[Browser:Chrome - 68.0.3440.106]	[Action:Closing mssql connection]	[Remarks:Success]
[Date: 2018-09-01 08:26:00]	[UserID:06/343]	[IP:10.128.12.113]	[Browser:Chrome - 68.0.3440.106]	[Action:Making connection to server]	[Remarks:Successful connection to server: S3]
[Date: 2018-09-01 08:26:00]	[UserID:06/343]	[IP:10.128.12.113]	[Browser:Chrome - 68.0.3440.106]	[Action:GetGSTModules 06/343,1]	[Remarks:Successful filter row count: 6]
[Date: 2018-09-01 08:26:00]	[UserID:06/343]	[IP:10.128.12.113]	[Browser:Chrome - 68.0.3440.106]	[Action:Closing mssql connection]	[Remarks:Success]
[Date: 2018-09-01 10:13:53]	[UserID:06/343]	[IP:10.128.12.113]	[Browser:Chrome - 68.0.3440.106]	[Action:Making connection to server]	[Remarks:Successful connection to server: S3]
[Date: 2018-09-01 10:13:53]	[UserID:06/343]	[IP:10.128.12.113]	[Browser:Chrome - 68.0.3440.106]	[Action:GetGSTModules 06/343,1]	[Remarks:Successful filter row count: 6]
[Date: 2018-09-01 10:13:53]	[UserID:06/343]	[IP:10.128.12.113]	[Browser:Chrome - 68.0.3440.106]	[Action:Closing mssql connection]	[Remarks:Success]
[Date: 2018-09-01 10:21:40]	[UserID:06/343]	[IP:10.128.12.113]	[Browser:Chrome - 68.0.3440.106]	[Action:Making connection to server]	[Remarks:Successful connection to server: S3]
[Date: 2018-09-01 10:21:40]	[UserID:06/343]	[IP:10.128.12.113]	[Browser:Chrome - 68.0.3440.106]	[Action:GetGSTModules 06/343,1]	[Remarks:Successful filter row count: 6]
[Date: 2018-09-01 10:21:41]	[UserID:06/343]	[IP:10.128.12.113]	[Browser:Chrome - 68.0.3440.106]	[Action:Closing mssql connection]	[Remarks:Success]
[Date: 2018-09-01 10:22:07]	[UserID:06/343]	[IP:10.128.12.113]	[Browser:Chrome - 68.0.3440.106]	[Action:Making connection to server]	[Remarks:Successful connection to server: S3]
[Date: 2018-09-01 10:22:07]	[UserID:06/343]	[IP:10.128.12.113]	[Browser:Chrome - 68.0.3440.106]	[Action:GetGSTModules 06/343,1]	[Remarks:Successful filter row count: 6]
[Date: 2018-09-01 10:22:07]	[UserID:06/343]	[IP:10.128.12.113]	[Browser:Chrome - 68.0.3440.106]	[Action:Closing mssql connection]	[Remarks:Success]
[Date: 2018-09-01 10:22:55]	[UserID:06/343]	[IP:10.128.12.113]	[Browser:Chrome - 68.0.3440.106]	[Action:Making connection to server]	[Remarks:Successful connection to server: S3]
[Date: 2018-09-01 10:22:55]	[UserID:06/343]	[IP:10.128.12.113]	[Browser:Chrome - 68.0.3440.106]	[Action:GetGSTModules 06/343,1]	[Remarks:Successful filter row count: 6]
[Date: 2018-09-01 10:22:55]	[UserID:06/343]	[IP:10.128.12.113]	[Browser:Chrome - 68.0.3440.106]	[Action:Closing mssql connection]	[Remarks:Success]
[Date: 2018-09-01 12:39:12]	[UserID:]	[IP:10.128.12.210]	[Browser:Chrome - 68.0.3440.106]	[Action:Making connection to server]	[Remarks:Successful connection to server: S3]
[Date: 2018-09-01 12:39:13]	[UserID:]	[IP:10.128.12.210]	[Browser:Chrome - 68.0.3440.106]	[Action:GetProgramList ]	[Remarks:"no data"]
[Date: 2018-09-01 12:39:19]	[UserID:10/660]	[IP:10.128.12.210]	[Browser:Chrome - 68.0.3440.106]	[Action:Making connection to server]	[Remarks:Successful connection to server: S3]
[Date: 2018-09-01 12:39:19]	[UserID:10/660]	[IP:10.128.12.210]	[Browser:Chrome - 68.0.3440.106]	[Action:User 10/660]	[Remarks:Success]
[Date: 2018-09-01 12:39:19]	[UserID:10/660]	[IP:10.128.12.210]	[Browser:Chrome - 68.0.3440.106]	[Action:Filtering User : MasterData Username : 10/660]	[Remarks:Successful filter row count: 0]
[Date: 2018-09-01 12:39:19]	[UserID:10/660]	[IP:10.128.12.210]	[Browser:Chrome - 68.0.3440.106]	[Action:Filtering User : MasterData Username : 10/660]	[Remarks:Successful filter row count: 0]
[Date: 2018-09-01 12:39:19]	[UserID:10/660]	[IP:10.128.12.210]	[Browser:Chrome - 68.0.3440.106]	[Action:Filtering User : MasterData Username : 10/660]	[Remarks:Success]
[Date: 2018-09-01 12:39:19]	[UserID:10/660]	[IP:10.128.12.210]	[Browser:Chrome - 68.0.3440.106]	[Action:Closing mssql connection]	[Remarks:Success]
[Date: 2018-09-01 12:39:19]	[UserID:10/660]	[IP:10.128.12.210]	[Browser:Chrome - 68.0.3440.106]	[Action:Making connection to server]	[Remarks:Successful connection to server: S3]
[Date: 2018-09-01 12:39:19]	[UserID:10/660]	[IP:10.128.12.210]	[Browser:Chrome - 68.0.3440.106]	[Action:GetProgramList 10/660]	[Remarks:[{"ID":"1","ProgramIndex":"GST","ProgramName":"GST"}]]
[Date: 2018-09-01 12:39:19]	[UserID:10/660]	[IP:10.128.12.210]	[Browser:Chrome - 68.0.3440.106]	[Action:Making connection to server]	[Remarks:Successful connection to server: S3]
[Date: 2018-09-01 12:39:19]	[UserID:10/660]	[IP:10.128.12.210]	[Browser:Chrome - 68.0.3440.106]	[Action:GetProgramList 10/660]	[Remarks:[{"ID":"1","ProgramIndex":"GST","ProgramName":"GST"}]]
[Date: 2018-09-01 12:39:19]	[UserID:10/660]	[IP:10.128.12.210]	[Browser:Chrome - 68.0.3440.106]	[Action:Making connection to server]	[Remarks:Successful connection to server: S3]
[Date: 2018-09-01 12:39:19]	[UserID:10/660]	[IP:10.128.12.210]	[Browser:Chrome - 68.0.3440.106]	[Action:Filtering User : MasterData Username : 10/660]	[Remarks:Successful filter row count: 1]
[Date: 2018-09-01 12:39:19]	[UserID:10/660]	[IP:10.128.12.210]	[Browser:Chrome - 68.0.3440.106]	[Action:Making connection to server]	[Remarks:Successful connection to server: S3]
[Date: 2018-09-01 12:39:19]	[UserID:10/660]	[IP:10.128.12.210]	[Browser:Chrome - 68.0.3440.106]	[Action:GetGSTModules 10/660,1]	[Remarks:Successful filter row count: 5]
[Date: 2018-09-01 12:39:19]	[UserID:10/660]	[IP:10.128.12.210]	[Browser:Chrome - 68.0.3440.106]	[Action:Closing mssql connection]	[Remarks:Success]
[Date: 2018-09-01 12:43:19]	[UserID:10/660]	[IP:10.128.12.210]	[Browser:Chrome - 68.0.3440.106]	[Action:Making connection to server]	[Remarks:Successful connection to server: S3]
[Date: 2018-09-01 12:43:19]	[UserID:10/660]	[IP:10.128.12.210]	[Browser:Chrome - 68.0.3440.106]	[Action:GetGSTModules 10/660,1]	[Remarks:Successful filter row count: 5]
[Date: 2018-09-01 12:43:19]	[UserID:10/660]	[IP:10.128.12.210]	[Browser:Chrome - 68.0.3440.106]	[Action:Closing mssql connection]	[Remarks:Success]
[Date: 2018-09-01 12:53:27]	[UserID:10/660]	[IP:10.128.12.210]	[Browser:Chrome - 68.0.3440.106]	[Action:Making connection to server]	[Remarks:Successful connection to server: S3]
[Date: 2018-09-01 12:53:27]	[UserID:10/660]	[IP:10.128.12.210]	[Browser:Chrome - 68.0.3440.106]	[Action:GetGSTModules 10/660,1]	[Remarks:Successful filter row count: 5]
[Date: 2018-09-01 12:53:27]	[UserID:10/660]	[IP:10.128.12.210]	[Browser:Chrome - 68.0.3440.106]	[Action:Closing mssql connection]	[Remarks:Success]
[Date: 2018-09-01 13:17:10]	[UserID:10/660]	[IP:10.128.12.210]	[Browser:Chrome - 68.0.3440.106]	[Action:Making connection to server]	[Remarks:Successful connection to server: S3]
[Date: 2018-09-01 13:17:10]	[UserID:10/660]	[IP:10.128.12.210]	[Browser:Chrome - 68.0.3440.106]	[Action:GetProgramList 10/660]	[Remarks:[{"ID":"1","ProgramIndex":"GST","ProgramName":"GST"}]]
[Date: 2018-09-01 13:17:10]	[UserID:10/660]	[IP:10.128.12.210]	[Browser:Chrome - 68.0.3440.106]	[Action:Making connection to server]	[Remarks:Successful connection to server: S3]
[Date: 2018-09-01 13:17:10]	[UserID:10/660]	[IP:10.128.12.210]	[Browser:Chrome - 68.0.3440.106]	[Action:GetProgramList 10/660]	[Remarks:[{"ID":"1","ProgramIndex":"GST","ProgramName":"GST"}]]
[Date: 2018-09-01 13:17:10]	[UserID:10/660]	[IP:10.128.12.210]	[Browser:Chrome - 68.0.3440.106]	[Action:Making connection to server]	[Remarks:Successful connection to server: S3]
[Date: 2018-09-01 13:17:10]	[UserID:10/660]	[IP:10.128.12.210]	[Browser:Chrome - 68.0.3440.106]	[Action:Filtering User : MasterData Username : 10/660]	[Remarks:Successful filter row count: 1]
[Date: 2018-09-01 13:17:11]	[UserID:10/660]	[IP:10.128.12.210]	[Browser:Chrome - 68.0.3440.106]	[Action:Making connection to server]	[Remarks:Successful connection to server: S3]
[Date: 2018-09-01 13:17:11]	[UserID:10/660]	[IP:10.128.12.210]	[Browser:Chrome - 68.0.3440.106]	[Action:GetGSTModules 10/660,1]	[Remarks:Successful filter row count: 5]
[Date: 2018-09-01 13:17:11]	[UserID:10/660]	[IP:10.128.12.210]	[Browser:Chrome - 68.0.3440.106]	[Action:Closing mssql connection]	[Remarks:Success]
