[Date: 2019-07-15 07:43:33]	[UserID:]	[IP:10.128.12.115]	[Browser:Chrome - 75.0.3770.100]	[Action:Making connection to server]	[Remarks:Successful connection to server: S3]
[Date: 2019-07-15 07:43:33]	[UserID:]	[IP:10.128.12.115]	[Browser:Chrome - 75.0.3770.100]	[Action:GetProgramList ]	[Remarks:"no data"]
[Date: 2019-07-15 07:43:38]	[UserID:17/1248]	[IP:10.128.12.115]	[Browser:Chrome - 75.0.3770.100]	[Action:Making connection to server]	[Remarks:Successful connection to server: S3]
[Date: 2019-07-15 07:43:38]	[UserID:17/1248]	[IP:10.128.12.115]	[Browser:Chrome - 75.0.3770.100]	[Action:User 17/1248]	[Remarks:Success]
[Date: 2019-07-15 07:43:38]	[UserID:17/1248]	[IP:10.128.12.115]	[Browser:Chrome - 75.0.3770.100]	[Action:Filtering User : MasterData Username : 17/1248]	[Remarks:Successful filter row count: 0]
[Date: 2019-07-15 07:43:38]	[UserID:17/1248]	[IP:10.128.12.115]	[Browser:Chrome - 75.0.3770.100]	[Action:Filtering User : MasterData Username : 17/1248]	[Remarks:Successful filter row count: 0]
[Date: 2019-07-15 07:43:38]	[UserID:17/1248]	[IP:10.128.12.115]	[Browser:Chrome - 75.0.3770.100]	[Action:Filtering User : MasterData Username : 17/1248]	[Remarks:Success]
[Date: 2019-07-15 07:43:38]	[UserID:17/1248]	[IP:10.128.12.115]	[Browser:Chrome - 75.0.3770.100]	[Action:Closing mssql connection]	[Remarks:Success]
[Date: 2019-07-15 07:43:38]	[UserID:17/1248]	[IP:10.128.12.115]	[Browser:Chrome - 75.0.3770.100]	[Action:Making connection to server]	[Remarks:Successful connection to server: S3]
[Date: 2019-07-15 07:43:38]	[UserID:17/1248]	[IP:10.128.12.115]	[Browser:Chrome - 75.0.3770.100]	[Action:GetProgramList 17/1248]	[Remarks:[{"ID":"1","ProgramIndex":"GST","ProgramName":"GST"}]]
[Date: 2019-07-15 07:43:38]	[UserID:17/1248]	[IP:10.128.12.115]	[Browser:Chrome - 75.0.3770.100]	[Action:Making connection to server]	[Remarks:Successful connection to server: S3]
[Date: 2019-07-15 07:43:38]	[UserID:17/1248]	[IP:10.128.12.115]	[Browser:Chrome - 75.0.3770.100]	[Action:GetProgramList 17/1248]	[Remarks:[{"ID":"1","ProgramIndex":"GST","ProgramName":"GST"}]]
[Date: 2019-07-15 07:43:38]	[UserID:17/1248]	[IP:10.128.12.115]	[Browser:Chrome - 75.0.3770.100]	[Action:Making connection to server]	[Remarks:Successful connection to server: S3]
[Date: 2019-07-15 07:43:38]	[UserID:17/1248]	[IP:10.128.12.115]	[Browser:Chrome - 75.0.3770.100]	[Action:Filtering User : MasterData Username : 17/1248]	[Remarks:Successful filter row count: 1]
[Date: 2019-07-15 07:43:39]	[UserID:17/1248]	[IP:10.128.12.115]	[Browser:Chrome - 75.0.3770.100]	[Action:Making connection to server]	[Remarks:Successful connection to server: S3]
[Date: 2019-07-15 07:43:39]	[UserID:17/1248]	[IP:10.128.12.115]	[Browser:Chrome - 75.0.3770.100]	[Action:GetGSTModules 17/1248,1]	[Remarks:Successful filter row count: 5]
[Date: 2019-07-15 07:43:39]	[UserID:17/1248]	[IP:10.128.12.115]	[Browser:Chrome - 75.0.3770.100]	[Action:Closing mssql connection]	[Remarks:Success]
[Date: 2019-07-15 07:51:43]	[UserID:]	[IP:10.128.12.120]	[Browser:Chrome - 75.0.3770.100]	[Action:Making connection to server]	[Remarks:Successful connection to server: S3]
[Date: 2019-07-15 07:51:43]	[UserID:]	[IP:10.128.12.120]	[Browser:Chrome - 75.0.3770.100]	[Action:GetProgramList ]	[Remarks:"no data"]
[Date: 2019-07-15 07:52:38]	[UserID:14/1082]	[IP:10.128.12.120]	[Browser:Chrome - 75.0.3770.100]	[Action:Making connection to server]	[Remarks:Successful connection to server: S3]
[Date: 2019-07-15 07:52:38]	[UserID:14/1082]	[IP:10.128.12.120]	[Browser:Chrome - 75.0.3770.100]	[Action:User 14/1082]	[Remarks:Success]
[Date: 2019-07-15 07:52:38]	[UserID:14/1082]	[IP:10.128.12.120]	[Browser:Chrome - 75.0.3770.100]	[Action:Filtering User : MasterData Username : 14/1082]	[Remarks:Successful filter row count: 0]
[Date: 2019-07-15 07:52:38]	[UserID:14/1082]	[IP:10.128.12.120]	[Browser:Chrome - 75.0.3770.100]	[Action:Filtering User : MasterData Username : 14/1082]	[Remarks:Successful filter row count: 0]
[Date: 2019-07-15 07:52:38]	[UserID:14/1082]	[IP:10.128.12.120]	[Browser:Chrome - 75.0.3770.100]	[Action:Filtering User : MasterData Username : 14/1082]	[Remarks:Success]
[Date: 2019-07-15 07:52:38]	[UserID:14/1082]	[IP:10.128.12.120]	[Browser:Chrome - 75.0.3770.100]	[Action:Closing mssql connection]	[Remarks:Success]
[Date: 2019-07-15 07:52:38]	[UserID:14/1082]	[IP:10.128.12.120]	[Browser:Chrome - 75.0.3770.100]	[Action:Making connection to server]	[Remarks:Successful connection to server: S3]
[Date: 2019-07-15 07:52:38]	[UserID:14/1082]	[IP:10.128.12.120]	[Browser:Chrome - 75.0.3770.100]	[Action:GetProgramList 14/1082]	[Remarks:[{"ID":"1","ProgramIndex":"GST","ProgramName":"GST"}]]
[Date: 2019-07-15 07:52:38]	[UserID:14/1082]	[IP:10.128.12.120]	[Browser:Chrome - 75.0.3770.100]	[Action:Making connection to server]	[Remarks:Successful connection to server: S3]
[Date: 2019-07-15 07:52:38]	[UserID:14/1082]	[IP:10.128.12.120]	[Browser:Chrome - 75.0.3770.100]	[Action:GetProgramList 14/1082]	[Remarks:[{"ID":"1","ProgramIndex":"GST","ProgramName":"GST"}]]
[Date: 2019-07-15 07:52:38]	[UserID:14/1082]	[IP:10.128.12.120]	[Browser:Chrome - 75.0.3770.100]	[Action:Making connection to server]	[Remarks:Successful connection to server: S3]
[Date: 2019-07-15 07:52:38]	[UserID:14/1082]	[IP:10.128.12.120]	[Browser:Chrome - 75.0.3770.100]	[Action:Filtering User : MasterData Username : 14/1082]	[Remarks:Successful filter row count: 1]
[Date: 2019-07-15 07:52:39]	[UserID:14/1082]	[IP:10.128.12.120]	[Browser:Chrome - 75.0.3770.100]	[Action:Making connection to server]	[Remarks:Successful connection to server: S3]
[Date: 2019-07-15 07:52:39]	[UserID:14/1082]	[IP:10.128.12.120]	[Browser:Chrome - 75.0.3770.100]	[Action:GetGSTModules 14/1082,1]	[Remarks:Successful filter row count: 7]
[Date: 2019-07-15 07:52:39]	[UserID:14/1082]	[IP:10.128.12.120]	[Browser:Chrome - 75.0.3770.100]	[Action:Closing mssql connection]	[Remarks:Success]
[Date: 2019-07-15 08:04:35]	[UserID:]	[IP:10.139.5.114]	[Browser:Firefox - 60.0]	[Action:Making connection to server]	[Remarks:Successful connection to server: S3]
[Date: 2019-07-15 08:04:35]	[UserID:]	[IP:10.139.5.114]	[Browser:Firefox - 60.0]	[Action:GetProgramList ]	[Remarks:"no data"]
[Date: 2019-07-15 08:41:38]	[UserID:14/1082]	[IP:10.128.12.120]	[Browser:Chrome - 75.0.3770.100]	[Action:Making connection to server]	[Remarks:Successful connection to server: S3]
[Date: 2019-07-15 08:41:38]	[UserID:14/1082]	[IP:10.128.12.120]	[Browser:Chrome - 75.0.3770.100]	[Action:GetGSTModules 14/1082,1]	[Remarks:Successful filter row count: 7]
[Date: 2019-07-15 08:41:38]	[UserID:14/1082]	[IP:10.128.12.120]	[Browser:Chrome - 75.0.3770.100]	[Action:Closing mssql connection]	[Remarks:Success]
[Date: 2019-07-15 09:03:07]	[UserID:14/1082]	[IP:10.128.12.120]	[Browser:Chrome - 75.0.3770.100]	[Action:Making connection to server]	[Remarks:Successful connection to server: S3]
[Date: 2019-07-15 09:03:07]	[UserID:14/1082]	[IP:10.128.12.120]	[Browser:Chrome - 75.0.3770.100]	[Action:GetGSTModules 14/1082,1]	[Remarks:Successful filter row count: 7]
[Date: 2019-07-15 09:03:07]	[UserID:14/1082]	[IP:10.128.12.120]	[Browser:Chrome - 75.0.3770.100]	[Action:Closing mssql connection]	[Remarks:Success]
[Date: 2019-07-15 09:13:03]	[UserID:]	[IP:10.139.5.114]	[Browser:Firefox - 60.0]	[Action:Making connection to server]	[Remarks:Successful connection to server: S3]
[Date: 2019-07-15 09:13:03]	[UserID:]	[IP:10.139.5.114]	[Browser:Firefox - 60.0]	[Action:GetProgramList ]	[Remarks:"no data"]
[Date: 2019-07-15 09:38:23]	[UserID:]	[IP:10.128.12.114]	[Browser:Chrome - 75.0.3770.100]	[Action:Making connection to server]	[Remarks:Successful connection to server: S3]
[Date: 2019-07-15 09:38:23]	[UserID:]	[IP:10.128.12.114]	[Browser:Chrome - 75.0.3770.100]	[Action:GetProgramList ]	[Remarks:"no data"]
[Date: 2019-07-15 09:40:35]	[UserID:]	[IP:10.128.12.114]	[Browser:Chrome - 75.0.3770.100]	[Action:Making connection to server]	[Remarks:Successful connection to server: S3]
[Date: 2019-07-15 09:40:35]	[UserID:]	[IP:10.128.12.114]	[Browser:Chrome - 75.0.3770.100]	[Action:GetProgramList ]	[Remarks:"no data"]
[Date: 2019-07-15 09:40:42]	[UserID:14/1082]	[IP:10.128.12.114]	[Browser:Chrome - 75.0.3770.100]	[Action:Making connection to server]	[Remarks:Successful connection to server: S3]
[Date: 2019-07-15 09:40:42]	[UserID:14/1082]	[IP:10.128.12.114]	[Browser:Chrome - 75.0.3770.100]	[Action:User 14/1082]	[Remarks:Success]
[Date: 2019-07-15 09:40:42]	[UserID:14/1082]	[IP:10.128.12.114]	[Browser:Chrome - 75.0.3770.100]	[Action:Filtering User : MasterData Username : 14/1082]	[Remarks:Successful filter row count: 0]
[Date: 2019-07-15 09:40:42]	[UserID:14/1082]	[IP:10.128.12.114]	[Browser:Chrome - 75.0.3770.100]	[Action:Filtering User : MasterData Username : 14/1082]	[Remarks:Successful filter row count: 0]
[Date: 2019-07-15 09:40:42]	[UserID:14/1082]	[IP:10.128.12.114]	[Browser:Chrome - 75.0.3770.100]	[Action:Filtering User : MasterData Username : 14/1082]	[Remarks:Success]
[Date: 2019-07-15 09:40:42]	[UserID:14/1082]	[IP:10.128.12.114]	[Browser:Chrome - 75.0.3770.100]	[Action:Closing mssql connection]	[Remarks:Success]
[Date: 2019-07-15 09:40:42]	[UserID:14/1082]	[IP:10.128.12.114]	[Browser:Chrome - 75.0.3770.100]	[Action:Making connection to server]	[Remarks:Successful connection to server: S3]
[Date: 2019-07-15 09:40:42]	[UserID:14/1082]	[IP:10.128.12.114]	[Browser:Chrome - 75.0.3770.100]	[Action:GetProgramList 14/1082]	[Remarks:[{"ID":"1","ProgramIndex":"GST","ProgramName":"GST"}]]
[Date: 2019-07-15 09:40:42]	[UserID:14/1082]	[IP:10.128.12.114]	[Browser:Chrome - 75.0.3770.100]	[Action:Making connection to server]	[Remarks:Successful connection to server: S3]
[Date: 2019-07-15 09:40:42]	[UserID:14/1082]	[IP:10.128.12.114]	[Browser:Chrome - 75.0.3770.100]	[Action:GetProgramList 14/1082]	[Remarks:[{"ID":"1","ProgramIndex":"GST","ProgramName":"GST"}]]
[Date: 2019-07-15 09:40:42]	[UserID:14/1082]	[IP:10.128.12.114]	[Browser:Chrome - 75.0.3770.100]	[Action:Making connection to server]	[Remarks:Successful connection to server: S3]
[Date: 2019-07-15 09:40:42]	[UserID:14/1082]	[IP:10.128.12.114]	[Browser:Chrome - 75.0.3770.100]	[Action:Filtering User : MasterData Username : 14/1082]	[Remarks:Successful filter row count: 1]
[Date: 2019-07-15 09:40:43]	[UserID:14/1082]	[IP:10.128.12.114]	[Browser:Chrome - 75.0.3770.100]	[Action:Making connection to server]	[Remarks:Successful connection to server: S3]
[Date: 2019-07-15 09:40:43]	[UserID:14/1082]	[IP:10.128.12.114]	[Browser:Chrome - 75.0.3770.100]	[Action:GetGSTModules 14/1082,1]	[Remarks:Successful filter row count: 7]
[Date: 2019-07-15 09:40:43]	[UserID:14/1082]	[IP:10.128.12.114]	[Browser:Chrome - 75.0.3770.100]	[Action:Closing mssql connection]	[Remarks:Success]
[Date: 2019-07-15 09:45:37]	[UserID:14/1082]	[IP:10.128.12.114]	[Browser:Chrome - 75.0.3770.100]	[Action:Making connection to server]	[Remarks:Successful connection to server: S3]
[Date: 2019-07-15 09:45:37]	[UserID:14/1082]	[IP:10.128.12.114]	[Browser:Chrome - 75.0.3770.100]	[Action:GetGSTModules 14/1082,1]	[Remarks:Successful filter row count: 7]
[Date: 2019-07-15 09:45:37]	[UserID:14/1082]	[IP:10.128.12.114]	[Browser:Chrome - 75.0.3770.100]	[Action:Closing mssql connection]	[Remarks:Success]
[Date: 2019-07-15 10:08:41]	[UserID:17/1248]	[IP:10.128.12.115]	[Browser:Chrome - 75.0.3770.100]	[Action:Making connection to server]	[Remarks:Successful connection to server: S3]
[Date: 2019-07-15 10:08:41]	[UserID:17/1248]	[IP:10.128.12.115]	[Browser:Chrome - 75.0.3770.100]	[Action:GetGSTModules 17/1248,1]	[Remarks:Successful filter row count: 5]
[Date: 2019-07-15 10:08:41]	[UserID:17/1248]	[IP:10.128.12.115]	[Browser:Chrome - 75.0.3770.100]	[Action:Closing mssql connection]	[Remarks:Success]
[Date: 2019-07-15 10:21:41]	[UserID:17/1248]	[IP:10.128.12.115]	[Browser:Chrome - 75.0.3770.100]	[Action:Making connection to server]	[Remarks:Successful connection to server: S3]
[Date: 2019-07-15 10:21:41]	[UserID:17/1248]	[IP:10.128.12.115]	[Browser:Chrome - 75.0.3770.100]	[Action:GetGSTModules 17/1248,1]	[Remarks:Successful filter row count: 5]
[Date: 2019-07-15 10:21:41]	[UserID:17/1248]	[IP:10.128.12.115]	[Browser:Chrome - 75.0.3770.100]	[Action:Closing mssql connection]	[Remarks:Success]
[Date: 2019-07-15 10:23:09]	[UserID:17/1248]	[IP:10.128.12.115]	[Browser:Chrome - 75.0.3770.100]	[Action:Making connection to server]	[Remarks:Successful connection to server: S3]
[Date: 2019-07-15 10:23:09]	[UserID:17/1248]	[IP:10.128.12.115]	[Browser:Chrome - 75.0.3770.100]	[Action:GetGSTModules 17/1248,1]	[Remarks:Successful filter row count: 5]
[Date: 2019-07-15 10:23:09]	[UserID:17/1248]	[IP:10.128.12.115]	[Browser:Chrome - 75.0.3770.100]	[Action:Closing mssql connection]	[Remarks:Success]
[Date: 2019-07-15 10:32:20]	[UserID:17/1248]	[IP:10.128.12.115]	[Browser:Chrome - 75.0.3770.100]	[Action:Making connection to server]	[Remarks:Successful connection to server: S3]
[Date: 2019-07-15 10:32:20]	[UserID:17/1248]	[IP:10.128.12.115]	[Browser:Chrome - 75.0.3770.100]	[Action:GetGSTModules 17/1248,1]	[Remarks:Successful filter row count: 5]
[Date: 2019-07-15 10:32:20]	[UserID:17/1248]	[IP:10.128.12.115]	[Browser:Chrome - 75.0.3770.100]	[Action:Closing mssql connection]	[Remarks:Success]
[Date: 2019-07-15 10:34:11]	[UserID:14/1082]	[IP:10.128.12.114]	[Browser:Chrome - 75.0.3770.100]	[Action:Making connection to server]	[Remarks:Successful connection to server: S3]
[Date: 2019-07-15 10:34:11]	[UserID:14/1082]	[IP:10.128.12.114]	[Browser:Chrome - 75.0.3770.100]	[Action:GetGSTModules 14/1082,1]	[Remarks:Successful filter row count: 7]
[Date: 2019-07-15 10:34:11]	[UserID:14/1082]	[IP:10.128.12.114]	[Browser:Chrome - 75.0.3770.100]	[Action:Closing mssql connection]	[Remarks:Success]
[Date: 2019-07-15 10:39:08]	[UserID:14/1082]	[IP:10.128.12.120]	[Browser:Chrome - 75.0.3770.100]	[Action:Making connection to server]	[Remarks:Successful connection to server: S3]
[Date: 2019-07-15 10:39:08]	[UserID:14/1082]	[IP:10.128.12.120]	[Browser:Chrome - 75.0.3770.100]	[Action:GetProgramList 14/1082]	[Remarks:[{"ID":"1","ProgramIndex":"GST","ProgramName":"GST"}]]
[Date: 2019-07-15 10:39:08]	[UserID:14/1082]	[IP:10.128.12.120]	[Browser:Chrome - 75.0.3770.100]	[Action:Making connection to server]	[Remarks:Successful connection to server: S3]
[Date: 2019-07-15 10:39:08]	[UserID:14/1082]	[IP:10.128.12.120]	[Browser:Chrome - 75.0.3770.100]	[Action:GetProgramList 14/1082]	[Remarks:[{"ID":"1","ProgramIndex":"GST","ProgramName":"GST"}]]
[Date: 2019-07-15 10:39:08]	[UserID:14/1082]	[IP:10.128.12.120]	[Browser:Chrome - 75.0.3770.100]	[Action:Making connection to server]	[Remarks:Successful connection to server: S3]
[Date: 2019-07-15 10:39:08]	[UserID:14/1082]	[IP:10.128.12.120]	[Browser:Chrome - 75.0.3770.100]	[Action:Filtering User : MasterData Username : 14/1082]	[Remarks:Successful filter row count: 1]
[Date: 2019-07-15 10:39:09]	[UserID:14/1082]	[IP:10.128.12.120]	[Browser:Chrome - 75.0.3770.100]	[Action:Making connection to server]	[Remarks:Successful connection to server: S3]
[Date: 2019-07-15 10:39:09]	[UserID:14/1082]	[IP:10.128.12.120]	[Browser:Chrome - 75.0.3770.100]	[Action:GetGSTModules 14/1082,1]	[Remarks:Successful filter row count: 7]
[Date: 2019-07-15 10:39:09]	[UserID:14/1082]	[IP:10.128.12.120]	[Browser:Chrome - 75.0.3770.100]	[Action:Closing mssql connection]	[Remarks:Success]
[Date: 2019-07-15 10:43:59]	[UserID:17/1248]	[IP:10.128.12.115]	[Browser:Chrome - 75.0.3770.100]	[Action:Making connection to server]	[Remarks:Successful connection to server: S3]
[Date: 2019-07-15 10:43:59]	[UserID:17/1248]	[IP:10.128.12.115]	[Browser:Chrome - 75.0.3770.100]	[Action:GetGSTModules 17/1248,1]	[Remarks:Successful filter row count: 5]
[Date: 2019-07-15 10:43:59]	[UserID:17/1248]	[IP:10.128.12.115]	[Browser:Chrome - 75.0.3770.100]	[Action:Closing mssql connection]	[Remarks:Success]
[Date: 2019-07-15 11:04:23]	[UserID:14/1082]	[IP:10.128.12.120]	[Browser:Chrome - 75.0.3770.100]	[Action:Making connection to server]	[Remarks:Successful connection to server: S3]
[Date: 2019-07-15 11:04:23]	[UserID:14/1082]	[IP:10.128.12.120]	[Browser:Chrome - 75.0.3770.100]	[Action:GetGSTModules 14/1082,1]	[Remarks:Successful filter row count: 7]
[Date: 2019-07-15 11:04:23]	[UserID:14/1082]	[IP:10.128.12.120]	[Browser:Chrome - 75.0.3770.100]	[Action:Closing mssql connection]	[Remarks:Success]
[Date: 2019-07-15 11:08:01]	[UserID:14/1082]	[IP:10.128.12.120]	[Browser:Chrome - 75.0.3770.100]	[Action:Making connection to server]	[Remarks:Successful connection to server: S3]
[Date: 2019-07-15 11:08:01]	[UserID:14/1082]	[IP:10.128.12.120]	[Browser:Chrome - 75.0.3770.100]	[Action:GetGSTModules 14/1082,1]	[Remarks:Successful filter row count: 7]
[Date: 2019-07-15 11:08:01]	[UserID:14/1082]	[IP:10.128.12.120]	[Browser:Chrome - 75.0.3770.100]	[Action:Closing mssql connection]	[Remarks:Success]
[Date: 2019-07-15 11:09:09]	[UserID:]	[IP:10.128.12.115]	[Browser:Chrome - 75.0.3770.100]	[Action:Making connection to server]	[Remarks:Successful connection to server: S3]
[Date: 2019-07-15 11:09:09]	[UserID:]	[IP:10.128.12.115]	[Browser:Chrome - 75.0.3770.100]	[Action:GetProgramList ]	[Remarks:"no data"]
[Date: 2019-07-15 11:09:17]	[UserID:17/1248]	[IP:10.128.12.115]	[Browser:Chrome - 75.0.3770.100]	[Action:Making connection to server]	[Remarks:Successful connection to server: S3]
[Date: 2019-07-15 11:09:17]	[UserID:17/1248]	[IP:10.128.12.115]	[Browser:Chrome - 75.0.3770.100]	[Action:User 17/1248]	[Remarks:Success]
[Date: 2019-07-15 11:09:17]	[UserID:17/1248]	[IP:10.128.12.115]	[Browser:Chrome - 75.0.3770.100]	[Action:Filtering User : MasterData Username : 17/1248]	[Remarks:Successful filter row count: 0]
[Date: 2019-07-15 11:09:17]	[UserID:17/1248]	[IP:10.128.12.115]	[Browser:Chrome - 75.0.3770.100]	[Action:Filtering User : MasterData Username : 17/1248]	[Remarks:Successful filter row count: 0]
[Date: 2019-07-15 11:09:17]	[UserID:17/1248]	[IP:10.128.12.115]	[Browser:Chrome - 75.0.3770.100]	[Action:Filtering User : MasterData Username : 17/1248]	[Remarks:Success]
[Date: 2019-07-15 11:09:17]	[UserID:17/1248]	[IP:10.128.12.115]	[Browser:Chrome - 75.0.3770.100]	[Action:Closing mssql connection]	[Remarks:Success]
[Date: 2019-07-15 11:09:17]	[UserID:17/1248]	[IP:10.128.12.115]	[Browser:Chrome - 75.0.3770.100]	[Action:Making connection to server]	[Remarks:Successful connection to server: S3]
[Date: 2019-07-15 11:09:17]	[UserID:17/1248]	[IP:10.128.12.115]	[Browser:Chrome - 75.0.3770.100]	[Action:GetProgramList 17/1248]	[Remarks:[{"ID":"1","ProgramIndex":"GST","ProgramName":"GST"}]]
[Date: 2019-07-15 11:09:17]	[UserID:17/1248]	[IP:10.128.12.115]	[Browser:Chrome - 75.0.3770.100]	[Action:Making connection to server]	[Remarks:Successful connection to server: S3]
[Date: 2019-07-15 11:09:17]	[UserID:17/1248]	[IP:10.128.12.115]	[Browser:Chrome - 75.0.3770.100]	[Action:GetProgramList 17/1248]	[Remarks:[{"ID":"1","ProgramIndex":"GST","ProgramName":"GST"}]]
[Date: 2019-07-15 11:09:17]	[UserID:17/1248]	[IP:10.128.12.115]	[Browser:Chrome - 75.0.3770.100]	[Action:Making connection to server]	[Remarks:Successful connection to server: S3]
[Date: 2019-07-15 11:09:17]	[UserID:17/1248]	[IP:10.128.12.115]	[Browser:Chrome - 75.0.3770.100]	[Action:Filtering User : MasterData Username : 17/1248]	[Remarks:Successful filter row count: 1]
[Date: 2019-07-15 11:09:17]	[UserID:17/1248]	[IP:10.128.12.115]	[Browser:Chrome - 75.0.3770.100]	[Action:Making connection to server]	[Remarks:Successful connection to server: S3]
[Date: 2019-07-15 11:09:17]	[UserID:17/1248]	[IP:10.128.12.115]	[Browser:Chrome - 75.0.3770.100]	[Action:GetGSTModules 17/1248,1]	[Remarks:Successful filter row count: 5]
[Date: 2019-07-15 11:09:17]	[UserID:17/1248]	[IP:10.128.12.115]	[Browser:Chrome - 75.0.3770.100]	[Action:Closing mssql connection]	[Remarks:Success]
[Date: 2019-07-15 11:10:45]	[UserID:]	[IP:10.128.81.157]	[Browser:Chrome - 75.0.3770.100]	[Action:Making connection to server]	[Remarks:Successful connection to server: S3]
[Date: 2019-07-15 11:10:45]	[UserID:]	[IP:10.128.81.157]	[Browser:Chrome - 75.0.3770.100]	[Action:GetProgramList ]	[Remarks:"no data"]
[Date: 2019-07-15 11:11:28]	[UserID:17/1257]	[IP:10.128.81.157]	[Browser:Chrome - 75.0.3770.100]	[Action:Making connection to server]	[Remarks:Successful connection to server: S3]
[Date: 2019-07-15 11:11:28]	[UserID:17/1257]	[IP:10.128.81.157]	[Browser:Chrome - 75.0.3770.100]	[Action:User 17/1257]	[Remarks:Success]
[Date: 2019-07-15 11:11:28]	[UserID:17/1257]	[IP:10.128.81.157]	[Browser:Chrome - 75.0.3770.100]	[Action:Filtering User : MasterData Username : 17/1257]	[Remarks:Successful filter row count: 0]
[Date: 2019-07-15 11:11:28]	[UserID:17/1257]	[IP:10.128.81.157]	[Browser:Chrome - 75.0.3770.100]	[Action:Filtering User : MasterData Username : 17/1257]	[Remarks:Successful filter row count: 0]
[Date: 2019-07-15 11:11:28]	[UserID:17/1257]	[IP:10.128.81.157]	[Browser:Chrome - 75.0.3770.100]	[Action:Filtering User : MasterData Username : 17/1257]	[Remarks:Success]
[Date: 2019-07-15 11:11:28]	[UserID:17/1257]	[IP:10.128.81.157]	[Browser:Chrome - 75.0.3770.100]	[Action:Closing mssql connection]	[Remarks:Success]
[Date: 2019-07-15 11:11:28]	[UserID:17/1257]	[IP:10.128.81.157]	[Browser:Chrome - 75.0.3770.100]	[Action:Making connection to server]	[Remarks:Successful connection to server: S3]
[Date: 2019-07-15 11:11:28]	[UserID:17/1257]	[IP:10.128.81.157]	[Browser:Chrome - 75.0.3770.100]	[Action:GetProgramList 17/1257]	[Remarks:[{"ID":"1","ProgramIndex":"GST","ProgramName":"GST"}]]
[Date: 2019-07-15 11:11:28]	[UserID:17/1257]	[IP:10.128.81.157]	[Browser:Chrome - 75.0.3770.100]	[Action:Making connection to server]	[Remarks:Successful connection to server: S3]
[Date: 2019-07-15 11:11:28]	[UserID:17/1257]	[IP:10.128.81.157]	[Browser:Chrome - 75.0.3770.100]	[Action:GetProgramList 17/1257]	[Remarks:[{"ID":"1","ProgramIndex":"GST","ProgramName":"GST"}]]
[Date: 2019-07-15 11:11:28]	[UserID:17/1257]	[IP:10.128.81.157]	[Browser:Chrome - 75.0.3770.100]	[Action:Making connection to server]	[Remarks:Successful connection to server: S3]
[Date: 2019-07-15 11:11:28]	[UserID:17/1257]	[IP:10.128.81.157]	[Browser:Chrome - 75.0.3770.100]	[Action:Filtering User : MasterData Username : 17/1257]	[Remarks:Successful filter row count: 1]
[Date: 2019-07-15 11:11:28]	[UserID:17/1257]	[IP:10.128.81.157]	[Browser:Chrome - 75.0.3770.100]	[Action:Making connection to server]	[Remarks:Successful connection to server: S3]
[Date: 2019-07-15 11:11:28]	[UserID:17/1257]	[IP:10.128.81.157]	[Browser:Chrome - 75.0.3770.100]	[Action:GetGSTModules 17/1257,1]	[Remarks:Successful filter row count: 4]
[Date: 2019-07-15 11:11:28]	[UserID:17/1257]	[IP:10.128.81.157]	[Browser:Chrome - 75.0.3770.100]	[Action:Closing mssql connection]	[Remarks:Success]
[Date: 2019-07-15 11:11:48]	[UserID:17/1257]	[IP:10.128.81.157]	[Browser:Chrome - 75.0.3770.100]	[Action:Making connection to server]	[Remarks:Successful connection to server: S3]
[Date: 2019-07-15 11:11:48]	[UserID:17/1257]	[IP:10.128.81.157]	[Browser:Chrome - 75.0.3770.100]	[Action:GetGSTModules 17/1257,1]	[Remarks:Successful filter row count: 4]
[Date: 2019-07-15 11:11:48]	[UserID:17/1257]	[IP:10.128.81.157]	[Browser:Chrome - 75.0.3770.100]	[Action:Closing mssql connection]	[Remarks:Success]
[Date: 2019-07-15 11:14:31]	[UserID:17/1248]	[IP:10.128.12.115]	[Browser:Chrome - 75.0.3770.100]	[Action:Making connection to server]	[Remarks:Successful connection to server: S3]
[Date: 2019-07-15 11:14:31]	[UserID:17/1248]	[IP:10.128.12.115]	[Browser:Chrome - 75.0.3770.100]	[Action:GetGSTModules 17/1248,1]	[Remarks:Successful filter row count: 5]
[Date: 2019-07-15 11:14:31]	[UserID:17/1248]	[IP:10.128.12.115]	[Browser:Chrome - 75.0.3770.100]	[Action:Closing mssql connection]	[Remarks:Success]
[Date: 2019-07-15 11:19:19]	[UserID:17/1257]	[IP:10.128.81.157]	[Browser:Chrome - 75.0.3770.100]	[Action:Making connection to server]	[Remarks:Successful connection to server: S3]
[Date: 2019-07-15 11:19:19]	[UserID:17/1257]	[IP:10.128.81.157]	[Browser:Chrome - 75.0.3770.100]	[Action:GetGSTModules 17/1257,1]	[Remarks:Successful filter row count: 4]
[Date: 2019-07-15 11:19:19]	[UserID:17/1257]	[IP:10.128.81.157]	[Browser:Chrome - 75.0.3770.100]	[Action:Closing mssql connection]	[Remarks:Success]
[Date: 2019-07-15 11:23:10]	[UserID:14/1082]	[IP:10.128.12.114]	[Browser:Chrome - 75.0.3770.100]	[Action:Making connection to server]	[Remarks:Successful connection to server: S3]
[Date: 2019-07-15 11:23:10]	[UserID:14/1082]	[IP:10.128.12.114]	[Browser:Chrome - 75.0.3770.100]	[Action:GetGSTModules 14/1082,1]	[Remarks:Successful filter row count: 7]
[Date: 2019-07-15 11:23:10]	[UserID:14/1082]	[IP:10.128.12.114]	[Browser:Chrome - 75.0.3770.100]	[Action:Closing mssql connection]	[Remarks:Success]
[Date: 2019-07-15 11:23:20]	[UserID:17/1257]	[IP:10.128.81.157]	[Browser:Chrome - 75.0.3770.100]	[Action:Making connection to server]	[Remarks:Successful connection to server: S3]
[Date: 2019-07-15 11:23:20]	[UserID:17/1257]	[IP:10.128.81.157]	[Browser:Chrome - 75.0.3770.100]	[Action:GetProgramList 17/1257]	[Remarks:[{"ID":"1","ProgramIndex":"GST","ProgramName":"GST"}]]
[Date: 2019-07-15 11:23:20]	[UserID:17/1257]	[IP:10.128.81.157]	[Browser:Chrome - 75.0.3770.100]	[Action:Making connection to server]	[Remarks:Successful connection to server: S3]
[Date: 2019-07-15 11:23:20]	[UserID:17/1257]	[IP:10.128.81.157]	[Browser:Chrome - 75.0.3770.100]	[Action:GetProgramList 17/1257]	[Remarks:[{"ID":"1","ProgramIndex":"GST","ProgramName":"GST"}]]
[Date: 2019-07-15 11:23:20]	[UserID:17/1257]	[IP:10.128.81.157]	[Browser:Chrome - 75.0.3770.100]	[Action:Making connection to server]	[Remarks:Successful connection to server: S3]
[Date: 2019-07-15 11:23:20]	[UserID:17/1257]	[IP:10.128.81.157]	[Browser:Chrome - 75.0.3770.100]	[Action:Filtering User : MasterData Username : 17/1257]	[Remarks:Successful filter row count: 1]
[Date: 2019-07-15 11:23:21]	[UserID:17/1257]	[IP:10.128.81.157]	[Browser:Chrome - 75.0.3770.100]	[Action:Making connection to server]	[Remarks:Successful connection to server: S3]
[Date: 2019-07-15 11:23:21]	[UserID:17/1257]	[IP:10.128.81.157]	[Browser:Chrome - 75.0.3770.100]	[Action:GetGSTModules 17/1257,1]	[Remarks:Successful filter row count: 4]
[Date: 2019-07-15 11:23:21]	[UserID:17/1257]	[IP:10.128.81.157]	[Browser:Chrome - 75.0.3770.100]	[Action:Closing mssql connection]	[Remarks:Success]
[Date: 2019-07-15 11:25:23]	[UserID:]	[IP:10.128.12.115]	[Browser:Chrome - 75.0.3770.100]	[Action:Making connection to server]	[Remarks:Successful connection to server: S3]
[Date: 2019-07-15 11:25:23]	[UserID:]	[IP:10.128.12.115]	[Browser:Chrome - 75.0.3770.100]	[Action:GetProgramList ]	[Remarks:"no data"]
[Date: 2019-07-15 11:25:29]	[UserID:17/1248]	[IP:10.128.12.115]	[Browser:Chrome - 75.0.3770.100]	[Action:Making connection to server]	[Remarks:Successful connection to server: S3]
[Date: 2019-07-15 11:25:29]	[UserID:17/1248]	[IP:10.128.12.115]	[Browser:Chrome - 75.0.3770.100]	[Action:User 17/1248]	[Remarks:Success]
[Date: 2019-07-15 11:25:29]	[UserID:17/1248]	[IP:10.128.12.115]	[Browser:Chrome - 75.0.3770.100]	[Action:Filtering User : MasterData Username : 17/1248]	[Remarks:Successful filter row count: 0]
[Date: 2019-07-15 11:25:29]	[UserID:17/1248]	[IP:10.128.12.115]	[Browser:Chrome - 75.0.3770.100]	[Action:Filtering User : MasterData Username : 17/1248]	[Remarks:Successful filter row count: 0]
[Date: 2019-07-15 11:25:29]	[UserID:17/1248]	[IP:10.128.12.115]	[Browser:Chrome - 75.0.3770.100]	[Action:Filtering User : MasterData Username : 17/1248]	[Remarks:Success]
[Date: 2019-07-15 11:25:29]	[UserID:17/1248]	[IP:10.128.12.115]	[Browser:Chrome - 75.0.3770.100]	[Action:Closing mssql connection]	[Remarks:Success]
[Date: 2019-07-15 11:25:29]	[UserID:17/1248]	[IP:10.128.12.115]	[Browser:Chrome - 75.0.3770.100]	[Action:Making connection to server]	[Remarks:Successful connection to server: S3]
[Date: 2019-07-15 11:25:29]	[UserID:17/1248]	[IP:10.128.12.115]	[Browser:Chrome - 75.0.3770.100]	[Action:GetProgramList 17/1248]	[Remarks:[{"ID":"1","ProgramIndex":"GST","ProgramName":"GST"}]]
[Date: 2019-07-15 11:25:29]	[UserID:17/1248]	[IP:10.128.12.115]	[Browser:Chrome - 75.0.3770.100]	[Action:Making connection to server]	[Remarks:Successful connection to server: S3]
[Date: 2019-07-15 11:25:29]	[UserID:17/1248]	[IP:10.128.12.115]	[Browser:Chrome - 75.0.3770.100]	[Action:GetProgramList 17/1248]	[Remarks:[{"ID":"1","ProgramIndex":"GST","ProgramName":"GST"}]]
[Date: 2019-07-15 11:25:29]	[UserID:17/1248]	[IP:10.128.12.115]	[Browser:Chrome - 75.0.3770.100]	[Action:Making connection to server]	[Remarks:Successful connection to server: S3]
[Date: 2019-07-15 11:25:29]	[UserID:17/1248]	[IP:10.128.12.115]	[Browser:Chrome - 75.0.3770.100]	[Action:Filtering User : MasterData Username : 17/1248]	[Remarks:Successful filter row count: 1]
[Date: 2019-07-15 11:25:30]	[UserID:17/1248]	[IP:10.128.12.115]	[Browser:Chrome - 75.0.3770.100]	[Action:Making connection to server]	[Remarks:Successful connection to server: S3]
[Date: 2019-07-15 11:25:30]	[UserID:17/1248]	[IP:10.128.12.115]	[Browser:Chrome - 75.0.3770.100]	[Action:GetGSTModules 17/1248,1]	[Remarks:Successful filter row count: 5]
[Date: 2019-07-15 11:25:30]	[UserID:17/1248]	[IP:10.128.12.115]	[Browser:Chrome - 75.0.3770.100]	[Action:Closing mssql connection]	[Remarks:Success]
[Date: 2019-07-15 11:26:10]	[UserID:17/1257]	[IP:10.128.81.157]	[Browser:Chrome - 75.0.3770.100]	[Action:Making connection to server]	[Remarks:Successful connection to server: S3]
[Date: 2019-07-15 11:26:10]	[UserID:17/1257]	[IP:10.128.81.157]	[Browser:Chrome - 75.0.3770.100]	[Action:GetGSTModules 17/1257,1]	[Remarks:Successful filter row count: 4]
[Date: 2019-07-15 11:26:10]	[UserID:17/1257]	[IP:10.128.81.157]	[Browser:Chrome - 75.0.3770.100]	[Action:Closing mssql connection]	[Remarks:Success]
[Date: 2019-07-15 11:37:40]	[UserID:14/1082]	[IP:10.128.12.114]	[Browser:Chrome - 75.0.3770.100]	[Action:Making connection to server]	[Remarks:Successful connection to server: S3]
[Date: 2019-07-15 11:37:40]	[UserID:14/1082]	[IP:10.128.12.114]	[Browser:Chrome - 75.0.3770.100]	[Action:GetGSTModules 14/1082,1]	[Remarks:Successful filter row count: 7]
[Date: 2019-07-15 11:37:40]	[UserID:14/1082]	[IP:10.128.12.114]	[Browser:Chrome - 75.0.3770.100]	[Action:Closing mssql connection]	[Remarks:Success]
[Date: 2019-07-15 11:38:54]	[UserID:17/1257]	[IP:10.128.81.157]	[Browser:Chrome - 75.0.3770.100]	[Action:Making connection to server]	[Remarks:Successful connection to server: S3]
[Date: 2019-07-15 11:38:54]	[UserID:17/1257]	[IP:10.128.81.157]	[Browser:Chrome - 75.0.3770.100]	[Action:GetProgramList 17/1257]	[Remarks:[{"ID":"1","ProgramIndex":"GST","ProgramName":"GST"}]]
[Date: 2019-07-15 11:38:54]	[UserID:17/1257]	[IP:10.128.81.157]	[Browser:Chrome - 75.0.3770.100]	[Action:Making connection to server]	[Remarks:Successful connection to server: S3]
[Date: 2019-07-15 11:38:54]	[UserID:17/1257]	[IP:10.128.81.157]	[Browser:Chrome - 75.0.3770.100]	[Action:GetProgramList 17/1257]	[Remarks:[{"ID":"1","ProgramIndex":"GST","ProgramName":"GST"}]]
[Date: 2019-07-15 11:38:54]	[UserID:17/1257]	[IP:10.128.81.157]	[Browser:Chrome - 75.0.3770.100]	[Action:Making connection to server]	[Remarks:Successful connection to server: S3]
[Date: 2019-07-15 11:38:54]	[UserID:17/1257]	[IP:10.128.81.157]	[Browser:Chrome - 75.0.3770.100]	[Action:Filtering User : MasterData Username : 17/1257]	[Remarks:Successful filter row count: 1]
[Date: 2019-07-15 11:38:54]	[UserID:17/1257]	[IP:10.128.81.157]	[Browser:Chrome - 75.0.3770.100]	[Action:Making connection to server]	[Remarks:Successful connection to server: S3]
[Date: 2019-07-15 11:38:54]	[UserID:17/1257]	[IP:10.128.81.157]	[Browser:Chrome - 75.0.3770.100]	[Action:GetGSTModules 17/1257,1]	[Remarks:Successful filter row count: 4]
[Date: 2019-07-15 11:38:54]	[UserID:17/1257]	[IP:10.128.81.157]	[Browser:Chrome - 75.0.3770.100]	[Action:Closing mssql connection]	[Remarks:Success]
[Date: 2019-07-15 11:50:52]	[UserID:14/1082]	[IP:10.128.12.114]	[Browser:Chrome - 75.0.3770.100]	[Action:Making connection to server]	[Remarks:Successful connection to server: S3]
[Date: 2019-07-15 11:50:52]	[UserID:14/1082]	[IP:10.128.12.114]	[Browser:Chrome - 75.0.3770.100]	[Action:GetGSTModules 14/1082,1]	[Remarks:Successful filter row count: 7]
[Date: 2019-07-15 11:50:52]	[UserID:14/1082]	[IP:10.128.12.114]	[Browser:Chrome - 75.0.3770.100]	[Action:Closing mssql connection]	[Remarks:Success]
[Date: 2019-07-15 13:52:14]	[UserID:17/1248]	[IP:10.128.12.115]	[Browser:Chrome - 75.0.3770.100]	[Action:Making connection to server]	[Remarks:Successful connection to server: S3]
[Date: 2019-07-15 13:52:14]	[UserID:17/1248]	[IP:10.128.12.115]	[Browser:Chrome - 75.0.3770.100]	[Action:GetGSTModules 17/1248,1]	[Remarks:Successful filter row count: 5]
[Date: 2019-07-15 13:52:14]	[UserID:17/1248]	[IP:10.128.12.115]	[Browser:Chrome - 75.0.3770.100]	[Action:Closing mssql connection]	[Remarks:Success]
[Date: 2019-07-15 13:52:45]	[UserID:17/1248]	[IP:10.128.12.115]	[Browser:Chrome - 75.0.3770.100]	[Action:Making connection to server]	[Remarks:Successful connection to server: S3]
[Date: 2019-07-15 13:52:45]	[UserID:17/1248]	[IP:10.128.12.115]	[Browser:Chrome - 75.0.3770.100]	[Action:GetGSTModules 17/1248,1]	[Remarks:Successful filter row count: 5]
[Date: 2019-07-15 13:52:45]	[UserID:17/1248]	[IP:10.128.12.115]	[Browser:Chrome - 75.0.3770.100]	[Action:Closing mssql connection]	[Remarks:Success]
[Date: 2019-07-15 13:52:51]	[UserID:17/1248]	[IP:10.128.12.115]	[Browser:Chrome - 75.0.3770.100]	[Action:Making connection to server]	[Remarks:Successful connection to server: S3]
[Date: 2019-07-15 13:52:51]	[UserID:17/1248]	[IP:10.128.12.115]	[Browser:Chrome - 75.0.3770.100]	[Action:GetProgramList 17/1248]	[Remarks:[{"ID":"1","ProgramIndex":"GST","ProgramName":"GST"}]]
[Date: 2019-07-15 13:52:51]	[UserID:17/1248]	[IP:10.128.12.115]	[Browser:Chrome - 75.0.3770.100]	[Action:Making connection to server]	[Remarks:Successful connection to server: S3]
[Date: 2019-07-15 13:52:51]	[UserID:17/1248]	[IP:10.128.12.115]	[Browser:Chrome - 75.0.3770.100]	[Action:GetProgramList 17/1248]	[Remarks:[{"ID":"1","ProgramIndex":"GST","ProgramName":"GST"}]]
[Date: 2019-07-15 13:52:51]	[UserID:17/1248]	[IP:10.128.12.115]	[Browser:Chrome - 75.0.3770.100]	[Action:Making connection to server]	[Remarks:Successful connection to server: S3]
[Date: 2019-07-15 13:52:51]	[UserID:17/1248]	[IP:10.128.12.115]	[Browser:Chrome - 75.0.3770.100]	[Action:Filtering User : MasterData Username : 17/1248]	[Remarks:Successful filter row count: 1]
[Date: 2019-07-15 13:52:51]	[UserID:17/1248]	[IP:10.128.12.115]	[Browser:Chrome - 75.0.3770.100]	[Action:Making connection to server]	[Remarks:Successful connection to server: S3]
[Date: 2019-07-15 13:52:51]	[UserID:17/1248]	[IP:10.128.12.115]	[Browser:Chrome - 75.0.3770.100]	[Action:GetGSTModules 17/1248,1]	[Remarks:Successful filter row count: 5]
[Date: 2019-07-15 13:52:51]	[UserID:17/1248]	[IP:10.128.12.115]	[Browser:Chrome - 75.0.3770.100]	[Action:Closing mssql connection]	[Remarks:Success]
[Date: 2019-07-15 13:57:54]	[UserID:14/1082]	[IP:10.128.12.114]	[Browser:Chrome - 75.0.3770.100]	[Action:Making connection to server]	[Remarks:Successful connection to server: S3]
[Date: 2019-07-15 13:57:54]	[UserID:14/1082]	[IP:10.128.12.114]	[Browser:Chrome - 75.0.3770.100]	[Action:GetGSTModules 14/1082,1]	[Remarks:Successful filter row count: 7]
[Date: 2019-07-15 13:57:54]	[UserID:14/1082]	[IP:10.128.12.114]	[Browser:Chrome - 75.0.3770.100]	[Action:Closing mssql connection]	[Remarks:Success]
[Date: 2019-07-15 13:58:45]	[UserID:14/1082]	[IP:10.128.12.114]	[Browser:Chrome - 75.0.3770.100]	[Action:Making connection to server]	[Remarks:Successful connection to server: S3]
[Date: 2019-07-15 13:58:45]	[UserID:14/1082]	[IP:10.128.12.114]	[Browser:Chrome - 75.0.3770.100]	[Action:GetGSTModules 14/1082,1]	[Remarks:Successful filter row count: 7]
[Date: 2019-07-15 13:58:45]	[UserID:14/1082]	[IP:10.128.12.114]	[Browser:Chrome - 75.0.3770.100]	[Action:Closing mssql connection]	[Remarks:Success]
[Date: 2019-07-15 13:58:54]	[UserID:17/1248]	[IP:10.128.12.115]	[Browser:Chrome - 75.0.3770.100]	[Action:Making connection to server]	[Remarks:Successful connection to server: S3]
[Date: 2019-07-15 13:58:54]	[UserID:17/1248]	[IP:10.128.12.115]	[Browser:Chrome - 75.0.3770.100]	[Action:GetGSTModules 17/1248,1]	[Remarks:Successful filter row count: 5]
[Date: 2019-07-15 13:58:54]	[UserID:17/1248]	[IP:10.128.12.115]	[Browser:Chrome - 75.0.3770.100]	[Action:Closing mssql connection]	[Remarks:Success]
[Date: 2019-07-15 14:01:18]	[UserID:17/1248]	[IP:10.128.12.115]	[Browser:Chrome - 75.0.3770.100]	[Action:Making connection to server]	[Remarks:Successful connection to server: S3]
[Date: 2019-07-15 14:01:18]	[UserID:17/1248]	[IP:10.128.12.115]	[Browser:Chrome - 75.0.3770.100]	[Action:GetProgramList 17/1248]	[Remarks:[{"ID":"1","ProgramIndex":"GST","ProgramName":"GST"}]]
[Date: 2019-07-15 14:01:18]	[UserID:17/1248]	[IP:10.128.12.115]	[Browser:Chrome - 75.0.3770.100]	[Action:Making connection to server]	[Remarks:Successful connection to server: S3]
[Date: 2019-07-15 14:01:18]	[UserID:17/1248]	[IP:10.128.12.115]	[Browser:Chrome - 75.0.3770.100]	[Action:GetProgramList 17/1248]	[Remarks:[{"ID":"1","ProgramIndex":"GST","ProgramName":"GST"}]]
[Date: 2019-07-15 14:01:18]	[UserID:17/1248]	[IP:10.128.12.115]	[Browser:Chrome - 75.0.3770.100]	[Action:Making connection to server]	[Remarks:Successful connection to server: S3]
[Date: 2019-07-15 14:01:18]	[UserID:17/1248]	[IP:10.128.12.115]	[Browser:Chrome - 75.0.3770.100]	[Action:Filtering User : MasterData Username : 17/1248]	[Remarks:Successful filter row count: 1]
[Date: 2019-07-15 14:01:18]	[UserID:17/1248]	[IP:10.128.12.115]	[Browser:Chrome - 75.0.3770.100]	[Action:Making connection to server]	[Remarks:Successful connection to server: S3]
[Date: 2019-07-15 14:01:18]	[UserID:17/1248]	[IP:10.128.12.115]	[Browser:Chrome - 75.0.3770.100]	[Action:GetGSTModules 17/1248,1]	[Remarks:Successful filter row count: 5]
[Date: 2019-07-15 14:01:18]	[UserID:17/1248]	[IP:10.128.12.115]	[Browser:Chrome - 75.0.3770.100]	[Action:Closing mssql connection]	[Remarks:Success]
[Date: 2019-07-15 14:09:29]	[UserID:14/1082]	[IP:10.128.12.114]	[Browser:Chrome - 75.0.3770.100]	[Action:Making connection to server]	[Remarks:Successful connection to server: S3]
[Date: 2019-07-15 14:09:29]	[UserID:14/1082]	[IP:10.128.12.114]	[Browser:Chrome - 75.0.3770.100]	[Action:GetGSTModules 14/1082,1]	[Remarks:Successful filter row count: 7]
[Date: 2019-07-15 14:09:30]	[UserID:14/1082]	[IP:10.128.12.114]	[Browser:Chrome - 75.0.3770.100]	[Action:Closing mssql connection]	[Remarks:Success]
[Date: 2019-07-15 14:09:59]	[UserID:17/1248]	[IP:10.128.12.115]	[Browser:Chrome - 75.0.3770.100]	[Action:Making connection to server]	[Remarks:Successful connection to server: S3]
[Date: 2019-07-15 14:09:59]	[UserID:17/1248]	[IP:10.128.12.115]	[Browser:Chrome - 75.0.3770.100]	[Action:GetGSTModules 17/1248,1]	[Remarks:Successful filter row count: 5]
[Date: 2019-07-15 14:09:59]	[UserID:17/1248]	[IP:10.128.12.115]	[Browser:Chrome - 75.0.3770.100]	[Action:Closing mssql connection]	[Remarks:Success]
[Date: 2019-07-15 14:41:56]	[UserID:14/1082]	[IP:10.128.12.114]	[Browser:Chrome - 75.0.3770.100]	[Action:Making connection to server]	[Remarks:Successful connection to server: S3]
[Date: 2019-07-15 14:41:56]	[UserID:14/1082]	[IP:10.128.12.114]	[Browser:Chrome - 75.0.3770.100]	[Action:GetGSTModules 14/1082,1]	[Remarks:Successful filter row count: 7]
[Date: 2019-07-15 14:41:56]	[UserID:14/1082]	[IP:10.128.12.114]	[Browser:Chrome - 75.0.3770.100]	[Action:Closing mssql connection]	[Remarks:Success]
[Date: 2019-07-15 14:49:13]	[UserID:]	[IP:10.128.12.115]	[Browser:Chrome - 75.0.3770.100]	[Action:Making connection to server]	[Remarks:Successful connection to server: S3]
[Date: 2019-07-15 14:49:13]	[UserID:]	[IP:10.128.12.115]	[Browser:Chrome - 75.0.3770.100]	[Action:GetProgramList ]	[Remarks:"no data"]
[Date: 2019-07-15 14:49:22]	[UserID:17/1248]	[IP:10.128.12.115]	[Browser:Chrome - 75.0.3770.100]	[Action:Making connection to server]	[Remarks:Successful connection to server: S3]
[Date: 2019-07-15 14:49:22]	[UserID:17/1248]	[IP:10.128.12.115]	[Browser:Chrome - 75.0.3770.100]	[Action:User 17/1248]	[Remarks:Success]
[Date: 2019-07-15 14:49:22]	[UserID:17/1248]	[IP:10.128.12.115]	[Browser:Chrome - 75.0.3770.100]	[Action:Filtering User : MasterData Username : 17/1248]	[Remarks:Successful filter row count: 0]
[Date: 2019-07-15 14:49:22]	[UserID:17/1248]	[IP:10.128.12.115]	[Browser:Chrome - 75.0.3770.100]	[Action:Filtering User : MasterData Username : 17/1248]	[Remarks:Successful filter row count: 0]
[Date: 2019-07-15 14:49:22]	[UserID:17/1248]	[IP:10.128.12.115]	[Browser:Chrome - 75.0.3770.100]	[Action:Filtering User : MasterData Username : 17/1248]	[Remarks:Success]
[Date: 2019-07-15 14:49:22]	[UserID:17/1248]	[IP:10.128.12.115]	[Browser:Chrome - 75.0.3770.100]	[Action:Closing mssql connection]	[Remarks:Success]
[Date: 2019-07-15 14:49:22]	[UserID:17/1248]	[IP:10.128.12.115]	[Browser:Chrome - 75.0.3770.100]	[Action:Making connection to server]	[Remarks:Successful connection to server: S3]
[Date: 2019-07-15 14:49:22]	[UserID:17/1248]	[IP:10.128.12.115]	[Browser:Chrome - 75.0.3770.100]	[Action:GetProgramList 17/1248]	[Remarks:[{"ID":"1","ProgramIndex":"GST","ProgramName":"GST"}]]
[Date: 2019-07-15 14:49:22]	[UserID:17/1248]	[IP:10.128.12.115]	[Browser:Chrome - 75.0.3770.100]	[Action:Making connection to server]	[Remarks:Successful connection to server: S3]
[Date: 2019-07-15 14:49:22]	[UserID:17/1248]	[IP:10.128.12.115]	[Browser:Chrome - 75.0.3770.100]	[Action:GetProgramList 17/1248]	[Remarks:[{"ID":"1","ProgramIndex":"GST","ProgramName":"GST"}]]
[Date: 2019-07-15 14:49:22]	[UserID:17/1248]	[IP:10.128.12.115]	[Browser:Chrome - 75.0.3770.100]	[Action:Making connection to server]	[Remarks:Successful connection to server: S3]
[Date: 2019-07-15 14:49:22]	[UserID:17/1248]	[IP:10.128.12.115]	[Browser:Chrome - 75.0.3770.100]	[Action:Filtering User : MasterData Username : 17/1248]	[Remarks:Successful filter row count: 1]
[Date: 2019-07-15 14:49:23]	[UserID:17/1248]	[IP:10.128.12.115]	[Browser:Chrome - 75.0.3770.100]	[Action:Making connection to server]	[Remarks:Successful connection to server: S3]
[Date: 2019-07-15 14:49:23]	[UserID:17/1248]	[IP:10.128.12.115]	[Browser:Chrome - 75.0.3770.100]	[Action:GetGSTModules 17/1248,1]	[Remarks:Successful filter row count: 5]
[Date: 2019-07-15 14:49:23]	[UserID:17/1248]	[IP:10.128.12.115]	[Browser:Chrome - 75.0.3770.100]	[Action:Closing mssql connection]	[Remarks:Success]
[Date: 2019-07-15 15:15:28]	[UserID:T042]	[IP:10.128.12.120]	[Browser:Chrome - 75.0.3770.100]	[Action:Making connection to server]	[Remarks:Successful connection to server: S3]
[Date: 2019-07-15 15:15:28]	[UserID:T042]	[IP:10.128.12.120]	[Browser:Chrome - 75.0.3770.100]	[Action:GetGSTModules T042,1]	[Remarks:Successful filter row count: 5]
[Date: 2019-07-15 15:15:28]	[UserID:T042]	[IP:10.128.12.120]	[Browser:Chrome - 75.0.3770.100]	[Action:Closing mssql connection]	[Remarks:Success]
[Date: 2019-07-15 15:15:38]	[UserID:T042]	[IP:10.128.12.120]	[Browser:Chrome - 75.0.3770.100]	[Action:Making connection to server]	[Remarks:Successful connection to server: S3]
[Date: 2019-07-15 15:15:38]	[UserID:T042]	[IP:10.128.12.120]	[Browser:Chrome - 75.0.3770.100]	[Action:GetGSTModules T042,1]	[Remarks:Successful filter row count: 5]
[Date: 2019-07-15 15:15:38]	[UserID:T042]	[IP:10.128.12.120]	[Browser:Chrome - 75.0.3770.100]	[Action:Closing mssql connection]	[Remarks:Success]
[Date: 2019-07-15 15:17:00]	[UserID:17/1248]	[IP:10.128.12.115]	[Browser:Chrome - 75.0.3770.100]	[Action:Making connection to server]	[Remarks:Successful connection to server: S3]
[Date: 2019-07-15 15:17:00]	[UserID:17/1248]	[IP:10.128.12.115]	[Browser:Chrome - 75.0.3770.100]	[Action:GetGSTModules 17/1248,1]	[Remarks:Successful filter row count: 5]
[Date: 2019-07-15 15:17:00]	[UserID:17/1248]	[IP:10.128.12.115]	[Browser:Chrome - 75.0.3770.100]	[Action:Closing mssql connection]	[Remarks:Success]
[Date: 2019-07-15 15:56:48]	[UserID:14/1082]	[IP:10.128.12.114]	[Browser:Chrome - 75.0.3770.100]	[Action:Making connection to server]	[Remarks:Successful connection to server: S3]
[Date: 2019-07-15 15:56:48]	[UserID:14/1082]	[IP:10.128.12.114]	[Browser:Chrome - 75.0.3770.100]	[Action:GetGSTModules 14/1082,1]	[Remarks:Successful filter row count: 7]
[Date: 2019-07-15 15:56:48]	[UserID:14/1082]	[IP:10.128.12.114]	[Browser:Chrome - 75.0.3770.100]	[Action:Closing mssql connection]	[Remarks:Success]
[Date: 2019-07-15 16:11:51]	[UserID:14/1082]	[IP:10.128.12.114]	[Browser:Chrome - 75.0.3770.100]	[Action:Making connection to server]	[Remarks:Successful connection to server: S3]
[Date: 2019-07-15 16:11:51]	[UserID:14/1082]	[IP:10.128.12.114]	[Browser:Chrome - 75.0.3770.100]	[Action:GetGSTModules 14/1082,1]	[Remarks:Successful filter row count: 7]
[Date: 2019-07-15 16:11:51]	[UserID:14/1082]	[IP:10.128.12.114]	[Browser:Chrome - 75.0.3770.100]	[Action:Closing mssql connection]	[Remarks:Success]
[Date: 2019-07-15 16:40:27]	[UserID:T042]	[IP:10.128.12.120]	[Browser:Chrome - 75.0.3770.100]	[Action:Making connection to server]	[Remarks:Successful connection to server: S3]
[Date: 2019-07-15 16:40:27]	[UserID:T042]	[IP:10.128.12.120]	[Browser:Chrome - 75.0.3770.100]	[Action:GetGSTModules T042,1]	[Remarks:Successful filter row count: 5]
[Date: 2019-07-15 16:40:27]	[UserID:T042]	[IP:10.128.12.120]	[Browser:Chrome - 75.0.3770.100]	[Action:Closing mssql connection]	[Remarks:Success]
[Date: 2019-07-15 16:44:35]	[UserID:T042]	[IP:10.128.12.120]	[Browser:Chrome - 75.0.3770.100]	[Action:Making connection to server]	[Remarks:Successful connection to server: S3]
[Date: 2019-07-15 16:44:35]	[UserID:T042]	[IP:10.128.12.120]	[Browser:Chrome - 75.0.3770.100]	[Action:GetGSTModules T042,1]	[Remarks:Successful filter row count: 5]
[Date: 2019-07-15 16:44:35]	[UserID:T042]	[IP:10.128.12.120]	[Browser:Chrome - 75.0.3770.100]	[Action:Closing mssql connection]	[Remarks:Success]
[Date: 2019-07-15 16:45:32]	[UserID:T042]	[IP:10.128.12.120]	[Browser:Chrome - 75.0.3770.100]	[Action:Making connection to server]	[Remarks:Successful connection to server: S3]
[Date: 2019-07-15 16:45:32]	[UserID:T042]	[IP:10.128.12.120]	[Browser:Chrome - 75.0.3770.100]	[Action:GetGSTModules T042,1]	[Remarks:Successful filter row count: 5]
[Date: 2019-07-15 16:45:32]	[UserID:T042]	[IP:10.128.12.120]	[Browser:Chrome - 75.0.3770.100]	[Action:Closing mssql connection]	[Remarks:Success]
[Date: 2019-07-15 16:54:55]	[UserID:T042]	[IP:10.128.12.120]	[Browser:Chrome - 75.0.3770.100]	[Action:Making connection to server]	[Remarks:Successful connection to server: S3]
[Date: 2019-07-15 16:54:55]	[UserID:T042]	[IP:10.128.12.120]	[Browser:Chrome - 75.0.3770.100]	[Action:GetGSTModules T042,1]	[Remarks:Successful filter row count: 5]
[Date: 2019-07-15 16:54:55]	[UserID:T042]	[IP:10.128.12.120]	[Browser:Chrome - 75.0.3770.100]	[Action:Closing mssql connection]	[Remarks:Success]
[Date: 2019-07-15 17:01:45]	[UserID:]	[IP:10.128.12.115]	[Browser:Chrome - 75.0.3770.100]	[Action:Making connection to server]	[Remarks:Successful connection to server: S3]
[Date: 2019-07-15 17:01:45]	[UserID:]	[IP:10.128.12.115]	[Browser:Chrome - 75.0.3770.100]	[Action:GetProgramList ]	[Remarks:"no data"]
[Date: 2019-07-15 17:31:36]	[UserID:]	[IP:10.128.12.115]	[Browser:Chrome - 75.0.3770.100]	[Action:Making connection to server]	[Remarks:Successful connection to server: S3]
[Date: 2019-07-15 17:31:37]	[UserID:]	[IP:10.128.12.115]	[Browser:Chrome - 75.0.3770.100]	[Action:GetProgramList ]	[Remarks:"no data"]
[Date: 2019-07-15 17:31:43]	[UserID:17/1248]	[IP:10.128.12.115]	[Browser:Chrome - 75.0.3770.100]	[Action:Making connection to server]	[Remarks:Successful connection to server: S3]
[Date: 2019-07-15 17:31:43]	[UserID:17/1248]	[IP:10.128.12.115]	[Browser:Chrome - 75.0.3770.100]	[Action:User 17/1248]	[Remarks:Success]
[Date: 2019-07-15 17:31:43]	[UserID:17/1248]	[IP:10.128.12.115]	[Browser:Chrome - 75.0.3770.100]	[Action:Filtering User : MasterData Username : 17/1248]	[Remarks:Successful filter row count: 0]
[Date: 2019-07-15 17:31:43]	[UserID:17/1248]	[IP:10.128.12.115]	[Browser:Chrome - 75.0.3770.100]	[Action:Filtering User : MasterData Username : 17/1248]	[Remarks:Successful filter row count: 0]
[Date: 2019-07-15 17:31:43]	[UserID:17/1248]	[IP:10.128.12.115]	[Browser:Chrome - 75.0.3770.100]	[Action:Filtering User : MasterData Username : 17/1248]	[Remarks:Success]
[Date: 2019-07-15 17:31:43]	[UserID:17/1248]	[IP:10.128.12.115]	[Browser:Chrome - 75.0.3770.100]	[Action:Closing mssql connection]	[Remarks:Success]
[Date: 2019-07-15 17:31:43]	[UserID:17/1248]	[IP:10.128.12.115]	[Browser:Chrome - 75.0.3770.100]	[Action:Making connection to server]	[Remarks:Successful connection to server: S3]
[Date: 2019-07-15 17:31:43]	[UserID:17/1248]	[IP:10.128.12.115]	[Browser:Chrome - 75.0.3770.100]	[Action:GetProgramList 17/1248]	[Remarks:[{"ID":"1","ProgramIndex":"GST","ProgramName":"GST"}]]
[Date: 2019-07-15 17:31:43]	[UserID:17/1248]	[IP:10.128.12.115]	[Browser:Chrome - 75.0.3770.100]	[Action:Making connection to server]	[Remarks:Successful connection to server: S3]
[Date: 2019-07-15 17:31:43]	[UserID:17/1248]	[IP:10.128.12.115]	[Browser:Chrome - 75.0.3770.100]	[Action:GetProgramList 17/1248]	[Remarks:[{"ID":"1","ProgramIndex":"GST","ProgramName":"GST"}]]
[Date: 2019-07-15 17:31:43]	[UserID:17/1248]	[IP:10.128.12.115]	[Browser:Chrome - 75.0.3770.100]	[Action:Making connection to server]	[Remarks:Successful connection to server: S3]
[Date: 2019-07-15 17:31:43]	[UserID:17/1248]	[IP:10.128.12.115]	[Browser:Chrome - 75.0.3770.100]	[Action:Filtering User : MasterData Username : 17/1248]	[Remarks:Successful filter row count: 1]
[Date: 2019-07-15 17:31:43]	[UserID:17/1248]	[IP:10.128.12.115]	[Browser:Chrome - 75.0.3770.100]	[Action:Making connection to server]	[Remarks:Successful connection to server: S3]
[Date: 2019-07-15 17:31:43]	[UserID:17/1248]	[IP:10.128.12.115]	[Browser:Chrome - 75.0.3770.100]	[Action:GetGSTModules 17/1248,1]	[Remarks:Successful filter row count: 5]
[Date: 2019-07-15 17:31:43]	[UserID:17/1248]	[IP:10.128.12.115]	[Browser:Chrome - 75.0.3770.100]	[Action:Closing mssql connection]	[Remarks:Success]
[Date: 2019-07-15 18:46:16]	[UserID:17/1248]	[IP:10.128.12.115]	[Browser:Chrome - 75.0.3770.100]	[Action:Making connection to server]	[Remarks:Successful connection to server: S3]
[Date: 2019-07-15 18:46:16]	[UserID:17/1248]	[IP:10.128.12.115]	[Browser:Chrome - 75.0.3770.100]	[Action:GetGSTModules 17/1248,1]	[Remarks:Successful filter row count: 5]
[Date: 2019-07-15 18:46:16]	[UserID:17/1248]	[IP:10.128.12.115]	[Browser:Chrome - 75.0.3770.100]	[Action:Closing mssql connection]	[Remarks:Success]
[Date: 2019-07-15 18:46:20]	[UserID:17/1248]	[IP:10.128.12.115]	[Browser:Chrome - 75.0.3770.100]	[Action:Making connection to server]	[Remarks:Successful connection to server: S3]
[Date: 2019-07-15 18:46:20]	[UserID:17/1248]	[IP:10.128.12.115]	[Browser:Chrome - 75.0.3770.100]	[Action:GetGSTModules 17/1248,1]	[Remarks:Successful filter row count: 5]
[Date: 2019-07-15 18:46:20]	[UserID:17/1248]	[IP:10.128.12.115]	[Browser:Chrome - 75.0.3770.100]	[Action:Closing mssql connection]	[Remarks:Success]
[Date: 2019-07-15 19:16:08]	[UserID:14/1082]	[IP:10.128.12.114]	[Browser:Chrome - 75.0.3770.100]	[Action:Making connection to server]	[Remarks:Successful connection to server: S3]
[Date: 2019-07-15 19:16:08]	[UserID:14/1082]	[IP:10.128.12.114]	[Browser:Chrome - 75.0.3770.100]	[Action:GetGSTModules 14/1082,1]	[Remarks:Successful filter row count: 7]
[Date: 2019-07-15 19:16:08]	[UserID:14/1082]	[IP:10.128.12.114]	[Browser:Chrome - 75.0.3770.100]	[Action:Closing mssql connection]	[Remarks:Success]
[Date: 2019-07-15 19:16:20]	[UserID:]	[IP:10.128.12.114]	[Browser:Chrome - 75.0.3770.100]	[Action:Making connection to server]	[Remarks:Successful connection to server: S3]
[Date: 2019-07-15 19:16:20]	[UserID:]	[IP:10.128.12.114]	[Browser:Chrome - 75.0.3770.100]	[Action:GetProgramList ]	[Remarks:"no data"]
[Date: 2019-07-15 19:21:05]	[UserID:]	[IP:10.128.12.115]	[Browser:Chrome - 75.0.3770.100]	[Action:Making connection to server]	[Remarks:Successful connection to server: S3]
[Date: 2019-07-15 19:21:05]	[UserID:]	[IP:10.128.12.115]	[Browser:Chrome - 75.0.3770.100]	[Action:GetProgramList ]	[Remarks:"no data"]
[Date: 2019-07-15 19:43:06]	[UserID:]	[IP:10.128.12.114]	[Browser:Chrome - 75.0.3770.100]	[Action:Making connection to server]	[Remarks:Successful connection to server: S3]
[Date: 2019-07-15 19:43:06]	[UserID:]	[IP:10.128.12.114]	[Browser:Chrome - 75.0.3770.100]	[Action:GetProgramList ]	[Remarks:"no data"]
[Date: 2019-07-15 19:43:11]	[UserID:14/1082]	[IP:10.128.12.114]	[Browser:Chrome - 75.0.3770.100]	[Action:Making connection to server]	[Remarks:Successful connection to server: S3]
[Date: 2019-07-15 19:43:11]	[UserID:14/1082]	[IP:10.128.12.114]	[Browser:Chrome - 75.0.3770.100]	[Action:User 14/1082]	[Remarks:Success]
[Date: 2019-07-15 19:43:11]	[UserID:14/1082]	[IP:10.128.12.114]	[Browser:Chrome - 75.0.3770.100]	[Action:Filtering User : MasterData Username : 14/1082]	[Remarks:Successful filter row count: 0]
[Date: 2019-07-15 19:43:11]	[UserID:14/1082]	[IP:10.128.12.114]	[Browser:Chrome - 75.0.3770.100]	[Action:Filtering User : MasterData Username : 14/1082]	[Remarks:Successful filter row count: 0]
[Date: 2019-07-15 19:43:11]	[UserID:14/1082]	[IP:10.128.12.114]	[Browser:Chrome - 75.0.3770.100]	[Action:Filtering User : MasterData Username : 14/1082]	[Remarks:Success]
[Date: 2019-07-15 19:43:11]	[UserID:14/1082]	[IP:10.128.12.114]	[Browser:Chrome - 75.0.3770.100]	[Action:Closing mssql connection]	[Remarks:Success]
[Date: 2019-07-15 19:43:11]	[UserID:14/1082]	[IP:10.128.12.114]	[Browser:Chrome - 75.0.3770.100]	[Action:Making connection to server]	[Remarks:Successful connection to server: S3]
[Date: 2019-07-15 19:43:11]	[UserID:14/1082]	[IP:10.128.12.114]	[Browser:Chrome - 75.0.3770.100]	[Action:GetProgramList 14/1082]	[Remarks:[{"ID":"1","ProgramIndex":"GST","ProgramName":"GST"}]]
[Date: 2019-07-15 19:43:11]	[UserID:14/1082]	[IP:10.128.12.114]	[Browser:Chrome - 75.0.3770.100]	[Action:Making connection to server]	[Remarks:Successful connection to server: S3]
[Date: 2019-07-15 19:43:11]	[UserID:14/1082]	[IP:10.128.12.114]	[Browser:Chrome - 75.0.3770.100]	[Action:GetProgramList 14/1082]	[Remarks:[{"ID":"1","ProgramIndex":"GST","ProgramName":"GST"}]]
[Date: 2019-07-15 19:43:11]	[UserID:14/1082]	[IP:10.128.12.114]	[Browser:Chrome - 75.0.3770.100]	[Action:Making connection to server]	[Remarks:Successful connection to server: S3]
[Date: 2019-07-15 19:43:11]	[UserID:14/1082]	[IP:10.128.12.114]	[Browser:Chrome - 75.0.3770.100]	[Action:Filtering User : MasterData Username : 14/1082]	[Remarks:Successful filter row count: 1]
[Date: 2019-07-15 19:43:11]	[UserID:14/1082]	[IP:10.128.12.114]	[Browser:Chrome - 75.0.3770.100]	[Action:Making connection to server]	[Remarks:Successful connection to server: S3]
[Date: 2019-07-15 19:43:11]	[UserID:14/1082]	[IP:10.128.12.114]	[Browser:Chrome - 75.0.3770.100]	[Action:GetGSTModules 14/1082,1]	[Remarks:Successful filter row count: 7]
[Date: 2019-07-15 19:43:11]	[UserID:14/1082]	[IP:10.128.12.114]	[Browser:Chrome - 75.0.3770.100]	[Action:Closing mssql connection]	[Remarks:Success]
[Date: 2019-07-15 20:05:01]	[UserID:]	[IP:10.128.12.114]	[Browser:Chrome - 75.0.3770.100]	[Action:Making connection to server]	[Remarks:Successful connection to server: S3]
[Date: 2019-07-15 20:05:01]	[UserID:]	[IP:10.128.12.114]	[Browser:Chrome - 75.0.3770.100]	[Action:GetProgramList ]	[Remarks:"no data"]
[Date: 2019-07-15 23:38:14]	[UserID:]	[IP:10.139.5.103]	[Browser:Chrome - 75.0.3770.100]	[Action:Making connection to server]	[Remarks:Successful connection to server: S3]
[Date: 2019-07-15 23:38:14]	[UserID:]	[IP:10.139.5.103]	[Browser:Chrome - 75.0.3770.100]	[Action:GetProgramList ]	[Remarks:"no data"]
