[Date: 2019-10-10 07:42:04]	[UserID:]	[IP:10.128.12.115]	[Browser:Chrome - 77.0.3865.90]	[Action:Making connection to server]	[Remarks:Successful connection to server: S3]
[Date: 2019-10-10 07:42:04]	[UserID:]	[IP:10.128.12.115]	[Browser:Chrome - 77.0.3865.90]	[Action:GetProgramList ]	[Remarks:"no data"]
[Date: 2019-10-10 07:42:34]	[UserID:17/1248]	[IP:10.128.12.115]	[Browser:Chrome - 77.0.3865.90]	[Action:Making connection to server]	[Remarks:Successful connection to server: S3]
[Date: 2019-10-10 07:42:34]	[UserID:17/1248]	[IP:10.128.12.115]	[Browser:Chrome - 77.0.3865.90]	[Action:User 17/1248]	[Remarks:Success]
[Date: 2019-10-10 07:42:34]	[UserID:17/1248]	[IP:10.128.12.115]	[Browser:Chrome - 77.0.3865.90]	[Action:Filtering User : MasterData Username : 17/1248]	[Remarks:Successful filter row count: 0]
[Date: 2019-10-10 07:42:34]	[UserID:17/1248]	[IP:10.128.12.115]	[Browser:Chrome - 77.0.3865.90]	[Action:Filtering User : MasterData Username : 17/1248]	[Remarks:Successful filter row count: 0]
[Date: 2019-10-10 07:42:34]	[UserID:17/1248]	[IP:10.128.12.115]	[Browser:Chrome - 77.0.3865.90]	[Action:Filtering User : MasterData Username : 17/1248]	[Remarks:Success]
[Date: 2019-10-10 07:42:34]	[UserID:17/1248]	[IP:10.128.12.115]	[Browser:Chrome - 77.0.3865.90]	[Action:Closing mssql connection]	[Remarks:Success]
[Date: 2019-10-10 07:42:34]	[UserID:17/1248]	[IP:10.128.12.115]	[Browser:Chrome - 77.0.3865.90]	[Action:Making connection to server]	[Remarks:Successful connection to server: S3]
[Date: 2019-10-10 07:42:34]	[UserID:17/1248]	[IP:10.128.12.115]	[Browser:Chrome - 77.0.3865.90]	[Action:GetProgramList 17/1248]	[Remarks:[{"ID":"1","ProgramIndex":"GST","ProgramName":"GST"}]]
[Date: 2019-10-10 07:42:34]	[UserID:17/1248]	[IP:10.128.12.115]	[Browser:Chrome - 77.0.3865.90]	[Action:Making connection to server]	[Remarks:Successful connection to server: S3]
[Date: 2019-10-10 07:42:34]	[UserID:17/1248]	[IP:10.128.12.115]	[Browser:Chrome - 77.0.3865.90]	[Action:GetProgramList 17/1248]	[Remarks:[{"ID":"1","ProgramIndex":"GST","ProgramName":"GST"}]]
[Date: 2019-10-10 07:42:34]	[UserID:17/1248]	[IP:10.128.12.115]	[Browser:Chrome - 77.0.3865.90]	[Action:Making connection to server]	[Remarks:Successful connection to server: S3]
[Date: 2019-10-10 07:42:34]	[UserID:17/1248]	[IP:10.128.12.115]	[Browser:Chrome - 77.0.3865.90]	[Action:Filtering User : MasterData Username : 17/1248]	[Remarks:Successful filter row count: 1]
[Date: 2019-10-10 07:42:35]	[UserID:17/1248]	[IP:10.128.12.115]	[Browser:Chrome - 77.0.3865.90]	[Action:Making connection to server]	[Remarks:Successful connection to server: S3]
[Date: 2019-10-10 07:42:35]	[UserID:17/1248]	[IP:10.128.12.115]	[Browser:Chrome - 77.0.3865.90]	[Action:GetGSTModules 17/1248,1]	[Remarks:Successful filter row count: 6]
[Date: 2019-10-10 07:42:35]	[UserID:17/1248]	[IP:10.128.12.115]	[Browser:Chrome - 77.0.3865.90]	[Action:Closing mssql connection]	[Remarks:Success]
[Date: 2019-10-10 08:58:59]	[UserID:]	[IP:10.139.5.103]	[Browser:Chrome - 77.0.3865.90]	[Action:Making connection to server]	[Remarks:Successful connection to server: S3]
[Date: 2019-10-10 08:58:59]	[UserID:]	[IP:10.139.5.103]	[Browser:Chrome - 77.0.3865.90]	[Action:GetProgramList ]	[Remarks:"no data"]
[Date: 2019-10-10 09:19:33]	[UserID:]	[IP:10.139.5.103]	[Browser:Chrome - 77.0.3865.90]	[Action:Making connection to server]	[Remarks:Successful connection to server: S3]
[Date: 2019-10-10 09:19:33]	[UserID:]	[IP:10.139.5.103]	[Browser:Chrome - 77.0.3865.90]	[Action:GetProgramList ]	[Remarks:"no data"]
[Date: 2019-10-10 09:37:46]	[UserID:17/1248]	[IP:10.128.12.115]	[Browser:Chrome - 77.0.3865.90]	[Action:Making connection to server]	[Remarks:Successful connection to server: S3]
[Date: 2019-10-10 09:37:46]	[UserID:17/1248]	[IP:10.128.12.115]	[Browser:Chrome - 77.0.3865.90]	[Action:GetProgramList 17/1248]	[Remarks:[{"ID":"1","ProgramIndex":"GST","ProgramName":"GST"}]]
[Date: 2019-10-10 09:37:46]	[UserID:17/1248]	[IP:10.128.12.115]	[Browser:Chrome - 77.0.3865.90]	[Action:Making connection to server]	[Remarks:Successful connection to server: S3]
[Date: 2019-10-10 09:37:46]	[UserID:17/1248]	[IP:10.128.12.115]	[Browser:Chrome - 77.0.3865.90]	[Action:GetProgramList 17/1248]	[Remarks:[{"ID":"1","ProgramIndex":"GST","ProgramName":"GST"}]]
[Date: 2019-10-10 09:37:46]	[UserID:17/1248]	[IP:10.128.12.115]	[Browser:Chrome - 77.0.3865.90]	[Action:Making connection to server]	[Remarks:Successful connection to server: S3]
[Date: 2019-10-10 09:37:46]	[UserID:17/1248]	[IP:10.128.12.115]	[Browser:Chrome - 77.0.3865.90]	[Action:Filtering User : MasterData Username : 17/1248]	[Remarks:Successful filter row count: 1]
[Date: 2019-10-10 09:37:46]	[UserID:17/1248]	[IP:10.128.12.115]	[Browser:Chrome - 77.0.3865.90]	[Action:Making connection to server]	[Remarks:Successful connection to server: S3]
[Date: 2019-10-10 09:37:46]	[UserID:17/1248]	[IP:10.128.12.115]	[Browser:Chrome - 77.0.3865.90]	[Action:GetGSTModules 17/1248,1]	[Remarks:Successful filter row count: 6]
[Date: 2019-10-10 09:37:46]	[UserID:17/1248]	[IP:10.128.12.115]	[Browser:Chrome - 77.0.3865.90]	[Action:Closing mssql connection]	[Remarks:Success]
[Date: 2019-10-10 10:26:45]	[UserID:]	[IP:10.139.5.115]	[Browser:Firefox - 60.0]	[Action:Making connection to server]	[Remarks:Successful connection to server: S3]
[Date: 2019-10-10 10:26:45]	[UserID:]	[IP:10.139.5.115]	[Browser:Firefox - 60.0]	[Action:GetProgramList ]	[Remarks:"no data"]
[Date: 2019-10-10 10:27:21]	[UserID:17/1248]	[IP:10.128.12.115]	[Browser:Chrome - 77.0.3865.90]	[Action:Making connection to server]	[Remarks:Successful connection to server: S3]
[Date: 2019-10-10 10:27:21]	[UserID:17/1248]	[IP:10.128.12.115]	[Browser:Chrome - 77.0.3865.90]	[Action:GetGSTModules 17/1248,1]	[Remarks:Successful filter row count: 6]
[Date: 2019-10-10 10:27:21]	[UserID:17/1248]	[IP:10.128.12.115]	[Browser:Chrome - 77.0.3865.90]	[Action:Closing mssql connection]	[Remarks:Success]
[Date: 2019-10-10 11:05:30]	[UserID:]	[IP:10.128.12.115]	[Browser:Chrome - 77.0.3865.90]	[Action:Making connection to server]	[Remarks:Successful connection to server: S3]
[Date: 2019-10-10 11:05:30]	[UserID:]	[IP:10.128.12.115]	[Browser:Chrome - 77.0.3865.90]	[Action:GetProgramList ]	[Remarks:"no data"]
[Date: 2019-10-10 14:14:51]	[UserID:]	[IP:10.128.12.114]	[Browser:Chrome - 77.0.3865.90]	[Action:Making connection to server]	[Remarks:Successful connection to server: S3]
[Date: 2019-10-10 14:14:52]	[UserID:]	[IP:10.128.12.114]	[Browser:Chrome - 77.0.3865.90]	[Action:GetProgramList ]	[Remarks:"no data"]
[Date: 2019-10-10 14:14:57]	[UserID:14/1082]	[IP:10.128.12.114]	[Browser:Chrome - 77.0.3865.90]	[Action:Making connection to server]	[Remarks:Successful connection to server: S3]
[Date: 2019-10-10 14:14:57]	[UserID:14/1082]	[IP:10.128.12.114]	[Browser:Chrome - 77.0.3865.90]	[Action:User 14/1082]	[Remarks:Success]
[Date: 2019-10-10 14:14:57]	[UserID:14/1082]	[IP:10.128.12.114]	[Browser:Chrome - 77.0.3865.90]	[Action:Filtering User : MasterData Username : 14/1082]	[Remarks:Successful filter row count: 0]
[Date: 2019-10-10 14:14:57]	[UserID:14/1082]	[IP:10.128.12.114]	[Browser:Chrome - 77.0.3865.90]	[Action:Filtering User : MasterData Username : 14/1082]	[Remarks:Successful filter row count: 0]
[Date: 2019-10-10 14:14:57]	[UserID:14/1082]	[IP:10.128.12.114]	[Browser:Chrome - 77.0.3865.90]	[Action:Filtering User : MasterData Username : 14/1082]	[Remarks:Success]
[Date: 2019-10-10 14:14:57]	[UserID:14/1082]	[IP:10.128.12.114]	[Browser:Chrome - 77.0.3865.90]	[Action:Closing mssql connection]	[Remarks:Success]
[Date: 2019-10-10 14:14:57]	[UserID:14/1082]	[IP:10.128.12.114]	[Browser:Chrome - 77.0.3865.90]	[Action:Making connection to server]	[Remarks:Successful connection to server: S3]
[Date: 2019-10-10 14:14:57]	[UserID:14/1082]	[IP:10.128.12.114]	[Browser:Chrome - 77.0.3865.90]	[Action:GetProgramList 14/1082]	[Remarks:[{"ID":"1","ProgramIndex":"GST","ProgramName":"GST"}]]
[Date: 2019-10-10 14:14:57]	[UserID:14/1082]	[IP:10.128.12.114]	[Browser:Chrome - 77.0.3865.90]	[Action:Making connection to server]	[Remarks:Successful connection to server: S3]
[Date: 2019-10-10 14:14:57]	[UserID:14/1082]	[IP:10.128.12.114]	[Browser:Chrome - 77.0.3865.90]	[Action:GetProgramList 14/1082]	[Remarks:[{"ID":"1","ProgramIndex":"GST","ProgramName":"GST"}]]
[Date: 2019-10-10 14:14:57]	[UserID:14/1082]	[IP:10.128.12.114]	[Browser:Chrome - 77.0.3865.90]	[Action:Making connection to server]	[Remarks:Successful connection to server: S3]
[Date: 2019-10-10 14:14:57]	[UserID:14/1082]	[IP:10.128.12.114]	[Browser:Chrome - 77.0.3865.90]	[Action:Filtering User : MasterData Username : 14/1082]	[Remarks:Successful filter row count: 1]
[Date: 2019-10-10 14:14:57]	[UserID:14/1082]	[IP:10.128.12.114]	[Browser:Chrome - 77.0.3865.90]	[Action:Making connection to server]	[Remarks:Successful connection to server: S3]
[Date: 2019-10-10 14:14:57]	[UserID:14/1082]	[IP:10.128.12.114]	[Browser:Chrome - 77.0.3865.90]	[Action:GetGSTModules 14/1082,1]	[Remarks:Successful filter row count: 8]
[Date: 2019-10-10 14:14:57]	[UserID:14/1082]	[IP:10.128.12.114]	[Browser:Chrome - 77.0.3865.90]	[Action:Closing mssql connection]	[Remarks:Success]
[Date: 2019-10-10 14:26:44]	[UserID:]	[IP:10.128.81.157]	[Browser:Chrome - 77.0.3865.90]	[Action:Making connection to server]	[Remarks:Successful connection to server: S3]
[Date: 2019-10-10 14:26:44]	[UserID:]	[IP:10.128.81.157]	[Browser:Chrome - 77.0.3865.90]	[Action:GetProgramList ]	[Remarks:"no data"]
[Date: 2019-10-10 14:26:54]	[UserID:17/1257]	[IP:10.128.81.157]	[Browser:Chrome - 77.0.3865.90]	[Action:Making connection to server]	[Remarks:Successful connection to server: S3]
[Date: 2019-10-10 14:26:54]	[UserID:17/1257]	[IP:10.128.81.157]	[Browser:Chrome - 77.0.3865.90]	[Action:User 17/1257]	[Remarks:Success]
[Date: 2019-10-10 14:26:54]	[UserID:17/1257]	[IP:10.128.81.157]	[Browser:Chrome - 77.0.3865.90]	[Action:Filtering User : MasterData Username : 17/1257]	[Remarks:Successful filter row count: 0]
[Date: 2019-10-10 14:26:54]	[UserID:17/1257]	[IP:10.128.81.157]	[Browser:Chrome - 77.0.3865.90]	[Action:Filtering User : MasterData Username : 17/1257]	[Remarks:Successful filter row count: 0]
[Date: 2019-10-10 14:26:54]	[UserID:17/1257]	[IP:10.128.81.157]	[Browser:Chrome - 77.0.3865.90]	[Action:Filtering User : MasterData Username : 17/1257]	[Remarks:Success]
[Date: 2019-10-10 14:26:54]	[UserID:17/1257]	[IP:10.128.81.157]	[Browser:Chrome - 77.0.3865.90]	[Action:Closing mssql connection]	[Remarks:Success]
[Date: 2019-10-10 14:26:54]	[UserID:17/1257]	[IP:10.128.81.157]	[Browser:Chrome - 77.0.3865.90]	[Action:Making connection to server]	[Remarks:Successful connection to server: S3]
[Date: 2019-10-10 14:26:54]	[UserID:17/1257]	[IP:10.128.81.157]	[Browser:Chrome - 77.0.3865.90]	[Action:GetProgramList 17/1257]	[Remarks:[{"ID":"1","ProgramIndex":"GST","ProgramName":"GST"}]]
[Date: 2019-10-10 14:26:54]	[UserID:17/1257]	[IP:10.128.81.157]	[Browser:Chrome - 77.0.3865.90]	[Action:Making connection to server]	[Remarks:Successful connection to server: S3]
[Date: 2019-10-10 14:26:54]	[UserID:17/1257]	[IP:10.128.81.157]	[Browser:Chrome - 77.0.3865.90]	[Action:GetProgramList 17/1257]	[Remarks:[{"ID":"1","ProgramIndex":"GST","ProgramName":"GST"}]]
[Date: 2019-10-10 14:26:54]	[UserID:17/1257]	[IP:10.128.81.157]	[Browser:Chrome - 77.0.3865.90]	[Action:Making connection to server]	[Remarks:Successful connection to server: S3]
[Date: 2019-10-10 14:26:54]	[UserID:17/1257]	[IP:10.128.81.157]	[Browser:Chrome - 77.0.3865.90]	[Action:Filtering User : MasterData Username : 17/1257]	[Remarks:Successful filter row count: 1]
[Date: 2019-10-10 14:26:54]	[UserID:17/1257]	[IP:10.128.81.157]	[Browser:Chrome - 77.0.3865.90]	[Action:Making connection to server]	[Remarks:Successful connection to server: S3]
[Date: 2019-10-10 14:26:54]	[UserID:17/1257]	[IP:10.128.81.157]	[Browser:Chrome - 77.0.3865.90]	[Action:GetGSTModules 17/1257,1]	[Remarks:Successful filter row count: 5]
[Date: 2019-10-10 14:26:54]	[UserID:17/1257]	[IP:10.128.81.157]	[Browser:Chrome - 77.0.3865.90]	[Action:Closing mssql connection]	[Remarks:Success]
[Date: 2019-10-10 14:27:05]	[UserID:17/1257]	[IP:10.128.81.157]	[Browser:Chrome - 77.0.3865.90]	[Action:Making connection to server]	[Remarks:Successful connection to server: S3]
[Date: 2019-10-10 14:27:05]	[UserID:17/1257]	[IP:10.128.81.157]	[Browser:Chrome - 77.0.3865.90]	[Action:GetProgramList 17/1257]	[Remarks:[{"ID":"1","ProgramIndex":"GST","ProgramName":"GST"}]]
[Date: 2019-10-10 14:27:05]	[UserID:17/1257]	[IP:10.128.81.157]	[Browser:Chrome - 77.0.3865.90]	[Action:Making connection to server]	[Remarks:Successful connection to server: S3]
[Date: 2019-10-10 14:27:05]	[UserID:17/1257]	[IP:10.128.81.157]	[Browser:Chrome - 77.0.3865.90]	[Action:GetProgramList 17/1257]	[Remarks:[{"ID":"1","ProgramIndex":"GST","ProgramName":"GST"}]]
[Date: 2019-10-10 14:27:05]	[UserID:17/1257]	[IP:10.128.81.157]	[Browser:Chrome - 77.0.3865.90]	[Action:Making connection to server]	[Remarks:Successful connection to server: S3]
[Date: 2019-10-10 14:27:05]	[UserID:17/1257]	[IP:10.128.81.157]	[Browser:Chrome - 77.0.3865.90]	[Action:Filtering User : MasterData Username : 17/1257]	[Remarks:Successful filter row count: 1]
[Date: 2019-10-10 14:27:05]	[UserID:17/1257]	[IP:10.128.81.157]	[Browser:Chrome - 77.0.3865.90]	[Action:Making connection to server]	[Remarks:Successful connection to server: S3]
[Date: 2019-10-10 14:27:05]	[UserID:17/1257]	[IP:10.128.81.157]	[Browser:Chrome - 77.0.3865.90]	[Action:GetGSTModules 17/1257,1]	[Remarks:Successful filter row count: 5]
[Date: 2019-10-10 14:27:05]	[UserID:17/1257]	[IP:10.128.81.157]	[Browser:Chrome - 77.0.3865.90]	[Action:Closing mssql connection]	[Remarks:Success]
[Date: 2019-10-10 16:17:24]	[UserID:14/1082]	[IP:10.128.12.114]	[Browser:Chrome - 77.0.3865.90]	[Action:Making connection to server]	[Remarks:Successful connection to server: S3]
[Date: 2019-10-10 16:17:25]	[UserID:14/1082]	[IP:10.128.12.114]	[Browser:Chrome - 77.0.3865.90]	[Action:GetGSTModules 14/1082,1]	[Remarks:Successful filter row count: 8]
[Date: 2019-10-10 16:17:25]	[UserID:14/1082]	[IP:10.128.12.114]	[Browser:Chrome - 77.0.3865.90]	[Action:Closing mssql connection]	[Remarks:Success]
[Date: 2019-10-10 16:17:34]	[UserID:14/1082]	[IP:10.128.12.114]	[Browser:Chrome - 77.0.3865.90]	[Action:Making connection to server]	[Remarks:Successful connection to server: S3]
[Date: 2019-10-10 16:17:34]	[UserID:14/1082]	[IP:10.128.12.114]	[Browser:Chrome - 77.0.3865.90]	[Action:GetGSTModules 14/1082,1]	[Remarks:Successful filter row count: 8]
[Date: 2019-10-10 16:17:34]	[UserID:14/1082]	[IP:10.128.12.114]	[Browser:Chrome - 77.0.3865.90]	[Action:Closing mssql connection]	[Remarks:Success]
[Date: 2019-10-10 17:13:54]	[UserID:]	[IP:10.139.5.115]	[Browser:Firefox - 60.0]	[Action:Making connection to server]	[Remarks:Successful connection to server: S3]
[Date: 2019-10-10 17:13:54]	[UserID:]	[IP:10.139.5.115]	[Browser:Firefox - 60.0]	[Action:GetProgramList ]	[Remarks:"no data"]
[Date: 2019-10-10 19:27:12]	[UserID:]	[IP:10.128.12.114]	[Browser:Chrome - 77.0.3865.90]	[Action:Making connection to server]	[Remarks:Successful connection to server: S3]
[Date: 2019-10-10 19:27:12]	[UserID:]	[IP:10.128.12.114]	[Browser:Chrome - 77.0.3865.90]	[Action:GetProgramList ]	[Remarks:"no data"]
[Date: 2019-10-10 23:03:26]	[UserID:]	[IP:10.139.5.105]	[Browser:Firefox - 69.0]	[Action:Making connection to server]	[Remarks:Successful connection to server: S3]
[Date: 2019-10-10 23:03:26]	[UserID:]	[IP:10.139.5.105]	[Browser:Firefox - 69.0]	[Action:GetProgramList ]	[Remarks:"no data"]
