[Date: 2021-05-22 16:11:58]	[UserID:]	[IP:10.128.130.5]	[Browser:Chrome - 90.0.4430.212]	[Action:Making connection to server]	[Remarks:Successful connection to server: S3]
[Date: 2021-05-22 16:11:58]	[UserID:]	[IP:10.128.130.5]	[Browser:Chrome - 90.0.4430.212]	[Action:GetProgramList ]	[Remarks:"no data"]
[Date: 2021-05-22 16:12:08]	[UserID:dev/jagustin]	[IP:10.128.130.5]	[Browser:Chrome - 90.0.4430.212]	[Action:Making connection to server]	[Remarks:Successful connection to server: S3]
[Date: 2021-05-22 16:12:08]	[UserID:dev/jagustin]	[IP:10.128.130.5]	[Browser:Chrome - 90.0.4430.212]	[Action:User dev/jagustin]	[Remarks:Success]
[Date: 2021-05-22 16:12:08]	[UserID:dev/jagustin]	[IP:10.128.130.5]	[Browser:Chrome - 90.0.4430.212]	[Action:Filtering User : MasterData Username : dev/jagustin]	[Remarks:Successful filter row count: 0]
[Date: 2021-05-22 16:12:08]	[UserID:dev/jagustin]	[IP:10.128.130.5]	[Browser:Chrome - 90.0.4430.212]	[Action:Filtering User : MasterData Username : dev/jagustin]	[Remarks:Successful filter row count: 0]
[Date: 2021-05-22 16:12:08]	[UserID:dev/jagustin]	[IP:10.128.130.5]	[Browser:Chrome - 90.0.4430.212]	[Action:Filtering User : MasterData Username : dev/jagustin]	[Remarks:Success]
[Date: 2021-05-22 16:12:08]	[UserID:dev/jagustin]	[IP:10.128.130.5]	[Browser:Chrome - 90.0.4430.212]	[Action:Closing mssql connection]	[Remarks:Success]
[Date: 2021-05-22 16:12:08]	[UserID:dev/jagustin]	[IP:10.128.130.5]	[Browser:Chrome - 90.0.4430.212]	[Action:Making connection to server]	[Remarks:Successful connection to server: S3]
[Date: 2021-05-22 16:12:09]	[UserID:dev/jagustin]	[IP:10.128.130.5]	[Browser:Chrome - 90.0.4430.212]	[Action:GetProgramList dev/jagustin]	[Remarks:[{"ID":"1","ProgramIndex":"GST","ProgramName":"GST"},{"ID":"3","ProgramIndex":"PRD","ProgramName":"PRD"}]]
[Date: 2021-05-22 16:12:09]	[UserID:dev/jagustin]	[IP:10.128.130.5]	[Browser:Chrome - 90.0.4430.212]	[Action:Making connection to server]	[Remarks:Successful connection to server: S3]
[Date: 2021-05-22 16:12:09]	[UserID:dev/jagustin]	[IP:10.128.130.5]	[Browser:Chrome - 90.0.4430.212]	[Action:GetProgramList dev/jagustin]	[Remarks:[{"ID":"1","ProgramIndex":"GST","ProgramName":"GST"},{"ID":"3","ProgramIndex":"PRD","ProgramName":"PRD"}]]
[Date: 2021-05-22 16:12:09]	[UserID:dev/jagustin]	[IP:10.128.130.5]	[Browser:Chrome - 90.0.4430.212]	[Action:Making connection to server]	[Remarks:Successful connection to server: S3]
[Date: 2021-05-22 16:12:09]	[UserID:dev/jagustin]	[IP:10.128.130.5]	[Browser:Chrome - 90.0.4430.212]	[Action:Filtering User : MasterData Username : dev/jagustin]	[Remarks:Successful filter row count: 1]
[Date: 2021-05-22 16:12:11]	[UserID:dev/jagustin]	[IP:10.128.130.5]	[Browser:Chrome - 90.0.4430.212]	[Action:Making connection to server]	[Remarks:Successful connection to server: S3]
[Date: 2021-05-22 16:12:11]	[UserID:dev/jagustin]	[IP:10.128.130.5]	[Browser:Chrome - 90.0.4430.212]	[Action:GetGSTModules dev/jagustin,1]	[Remarks:Successful filter row count: 14]
[Date: 2021-05-22 16:12:11]	[UserID:dev/jagustin]	[IP:10.128.130.5]	[Browser:Chrome - 90.0.4430.212]	[Action:Closing mssql connection]	[Remarks:Success]
[Date: 2021-05-22 18:42:26]	[UserID:dev/jagustin]	[IP:10.128.130.5]	[Browser:Chrome - 90.0.4430.212]	[Action:Making connection to server]	[Remarks:Successful connection to server: S3]
[Date: 2021-05-22 18:42:26]	[UserID:dev/jagustin]	[IP:10.128.130.5]	[Browser:Chrome - 90.0.4430.212]	[Action:GetProgramList dev/jagustin]	[Remarks:[{"ID":"1","ProgramIndex":"GST","ProgramName":"GST"},{"ID":"3","ProgramIndex":"PRD","ProgramName":"PRD"}]]
[Date: 2021-05-22 18:42:26]	[UserID:dev/jagustin]	[IP:10.128.130.5]	[Browser:Chrome - 90.0.4430.212]	[Action:Making connection to server]	[Remarks:Successful connection to server: S3]
[Date: 2021-05-22 18:42:26]	[UserID:dev/jagustin]	[IP:10.128.130.5]	[Browser:Chrome - 90.0.4430.212]	[Action:GetProgramList dev/jagustin]	[Remarks:[{"ID":"1","ProgramIndex":"GST","ProgramName":"GST"},{"ID":"3","ProgramIndex":"PRD","ProgramName":"PRD"}]]
[Date: 2021-05-22 18:42:26]	[UserID:dev/jagustin]	[IP:10.128.130.5]	[Browser:Chrome - 90.0.4430.212]	[Action:Making connection to server]	[Remarks:Successful connection to server: S3]
[Date: 2021-05-22 18:42:26]	[UserID:dev/jagustin]	[IP:10.128.130.5]	[Browser:Chrome - 90.0.4430.212]	[Action:Filtering User : MasterData Username : dev/jagustin]	[Remarks:Successful filter row count: 1]
[Date: 2021-05-22 18:42:36]	[UserID:dev/jagustin]	[IP:10.128.130.5]	[Browser:Chrome - 90.0.4430.212]	[Action:Making connection to server]	[Remarks:Successful connection to server: S3]
[Date: 2021-05-22 18:42:36]	[UserID:dev/jagustin]	[IP:10.128.130.5]	[Browser:Chrome - 90.0.4430.212]	[Action:GetGSTModules dev/jagustin,1]	[Remarks:Successful filter row count: 14]
[Date: 2021-05-22 18:42:36]	[UserID:dev/jagustin]	[IP:10.128.130.5]	[Browser:Chrome - 90.0.4430.212]	[Action:Closing mssql connection]	[Remarks:Success]
[Date: 2021-05-22 18:47:59]	[UserID:dev/jagustin]	[IP:10.128.130.5]	[Browser:Chrome - 90.0.4430.212]	[Action:Making connection to server]	[Remarks:Successful connection to server: S3]
[Date: 2021-05-22 18:47:59]	[UserID:dev/jagustin]	[IP:10.128.130.5]	[Browser:Chrome - 90.0.4430.212]	[Action:GetGSTModules dev/jagustin,1]	[Remarks:Successful filter row count: 14]
[Date: 2021-05-22 18:47:59]	[UserID:dev/jagustin]	[IP:10.128.130.5]	[Browser:Chrome - 90.0.4430.212]	[Action:Closing mssql connection]	[Remarks:Success]
[Date: 2021-05-22 18:50:35]	[UserID:dev/jagustin]	[IP:10.128.130.5]	[Browser:Chrome - 90.0.4430.212]	[Action:Making connection to server]	[Remarks:Successful connection to server: S3]
[Date: 2021-05-22 18:50:35]	[UserID:dev/jagustin]	[IP:10.128.130.5]	[Browser:Chrome - 90.0.4430.212]	[Action:GetGSTModules dev/jagustin,1]	[Remarks:Successful filter row count: 14]
[Date: 2021-05-22 18:50:35]	[UserID:dev/jagustin]	[IP:10.128.130.5]	[Browser:Chrome - 90.0.4430.212]	[Action:Closing mssql connection]	[Remarks:Success]
[Date: 2021-05-22 18:51:40]	[UserID:dev/jagustin]	[IP:10.128.130.5]	[Browser:Chrome - 90.0.4430.212]	[Action:Making connection to server]	[Remarks:Successful connection to server: S3]
[Date: 2021-05-22 18:51:40]	[UserID:dev/jagustin]	[IP:10.128.130.5]	[Browser:Chrome - 90.0.4430.212]	[Action:GetGSTModules dev/jagustin,1]	[Remarks:Successful filter row count: 14]
[Date: 2021-05-22 18:51:40]	[UserID:dev/jagustin]	[IP:10.128.130.5]	[Browser:Chrome - 90.0.4430.212]	[Action:Closing mssql connection]	[Remarks:Success]
[Date: 2021-05-22 19:13:40]	[UserID:dev/jagustin]	[IP:10.128.130.5]	[Browser:Chrome - 90.0.4430.212]	[Action:Making connection to server]	[Remarks:Successful connection to server: S3]
[Date: 2021-05-22 19:13:40]	[UserID:dev/jagustin]	[IP:10.128.130.5]	[Browser:Chrome - 90.0.4430.212]	[Action:GetGSTModules dev/jagustin,1]	[Remarks:Successful filter row count: 14]
[Date: 2021-05-22 19:13:40]	[UserID:dev/jagustin]	[IP:10.128.130.5]	[Browser:Chrome - 90.0.4430.212]	[Action:Closing mssql connection]	[Remarks:Success]
[Date: 2021-05-22 19:14:44]	[UserID:dev/jagustin]	[IP:10.128.130.5]	[Browser:Chrome - 90.0.4430.212]	[Action:Making connection to server]	[Remarks:Successful connection to server: S3]
[Date: 2021-05-22 19:14:44]	[UserID:dev/jagustin]	[IP:10.128.130.5]	[Browser:Chrome - 90.0.4430.212]	[Action:GetGSTModules dev/jagustin,1]	[Remarks:Successful filter row count: 14]
[Date: 2021-05-22 19:14:44]	[UserID:dev/jagustin]	[IP:10.128.130.5]	[Browser:Chrome - 90.0.4430.212]	[Action:Closing mssql connection]	[Remarks:Success]
[Date: 2021-05-22 19:16:08]	[UserID:dev/jagustin]	[IP:10.128.130.5]	[Browser:Chrome - 90.0.4430.212]	[Action:Making connection to server]	[Remarks:Successful connection to server: S3]
[Date: 2021-05-22 19:16:08]	[UserID:dev/jagustin]	[IP:10.128.130.5]	[Browser:Chrome - 90.0.4430.212]	[Action:GetGSTModules dev/jagustin,1]	[Remarks:Successful filter row count: 14]
[Date: 2021-05-22 19:16:08]	[UserID:dev/jagustin]	[IP:10.128.130.5]	[Browser:Chrome - 90.0.4430.212]	[Action:Closing mssql connection]	[Remarks:Success]
