[Date: 2015-07-06 08:01:01]	[UserID:]	[IP:10.10.11.1]	[Browser:Chrome - 43.0.2357.130]	[Action:Making connection to server]	[Remarks:Successful connection to server: S3]
[Date: 2015-07-06 08:01:01]	[UserID:]	[IP:10.10.11.1]	[Browser:Chrome - 43.0.2357.130]	[Action:Making connection to server]	[Remarks:Successful connection to server: S3]
[Date: 2015-07-06 08:01:01]	[UserID:]	[IP:10.10.11.1]	[Browser:Chrome - 43.0.2357.130]	[Action:GetProgramList ]	[Remarks:"no data"]
[Date: 2015-07-06 08:01:01]	[UserID:]	[IP:10.10.11.1]	[Browser:Chrome - 43.0.2357.130]	[Action:GetProgramList ]	[Remarks:"no data"]
[Date: 2015-07-06 08:02:46]	[UserID:06/343]	[IP:10.10.11.1]	[Browser:Chrome - 43.0.2357.130]	[Action:Making connection to server]	[Remarks:Successful connection to server: S3]
[Date: 2015-07-06 08:02:46]	[UserID:06/343]	[IP:10.10.11.1]	[Browser:Chrome - 43.0.2357.130]	[Action:User 06/343]	[Remarks:Success]
[Date: 2015-07-06 08:02:46]	[UserID:06/343]	[IP:10.10.11.1]	[Browser:Chrome - 43.0.2357.130]	[Action:Filtering User : MasterData Username : 06/343]	[Remarks:Successful filter row count: 0]
[Date: 2015-07-06 08:02:46]	[UserID:06/343]	[IP:10.10.11.1]	[Browser:Chrome - 43.0.2357.130]	[Action:Filtering User : MasterData Username : 06/343]	[Remarks:Successful filter row count: 0]
[Date: 2015-07-06 08:02:46]	[UserID:06/343]	[IP:10.10.11.1]	[Browser:Chrome - 43.0.2357.130]	[Action:Filtering User : MasterData Username : 06/343]	[Remarks:Success]
[Date: 2015-07-06 08:02:46]	[UserID:06/343]	[IP:10.10.11.1]	[Browser:Chrome - 43.0.2357.130]	[Action:Closing mssql connection]	[Remarks:Success]
[Date: 2015-07-06 08:02:46]	[UserID:06/343]	[IP:10.10.11.1]	[Browser:Chrome - 43.0.2357.130]	[Action:Making connection to server]	[Remarks:Successful connection to server: S3]
[Date: 2015-07-06 08:02:46]	[UserID:06/343]	[IP:10.10.11.1]	[Browser:Chrome - 43.0.2357.130]	[Action:GetProgramList 06/343]	[Remarks:[{"ID":"1","ProgramIndex":"GST","ProgramName":"GST"}]]
[Date: 2015-07-06 08:02:46]	[UserID:06/343]	[IP:10.10.11.1]	[Browser:Chrome - 43.0.2357.130]	[Action:Making connection to server]	[Remarks:Successful connection to server: S3]
[Date: 2015-07-06 08:02:46]	[UserID:06/343]	[IP:10.10.11.1]	[Browser:Chrome - 43.0.2357.130]	[Action:GetProgramList 06/343]	[Remarks:[{"ID":"1","ProgramIndex":"GST","ProgramName":"GST"}]]
[Date: 2015-07-06 08:02:46]	[UserID:06/343]	[IP:10.10.11.1]	[Browser:Chrome - 43.0.2357.130]	[Action:Making connection to server]	[Remarks:Successful connection to server: S3]
[Date: 2015-07-06 08:02:46]	[UserID:06/343]	[IP:10.10.11.1]	[Browser:Chrome - 43.0.2357.130]	[Action:Filtering User : MasterData Username : 06/343]	[Remarks:Successful filter row count: 1]
[Date: 2015-07-06 08:02:46]	[UserID:06/343]	[IP:10.10.11.1]	[Browser:Chrome - 43.0.2357.130]	[Action:Making connection to server]	[Remarks:Successful connection to server: S3]
[Date: 2015-07-06 08:02:47]	[UserID:06/343]	[IP:10.10.11.1]	[Browser:Chrome - 43.0.2357.130]	[Action:GetGSTModules 06/343,1]	[Remarks:Successful filter row count: 5]
[Date: 2015-07-06 08:02:47]	[UserID:06/343]	[IP:10.10.11.1]	[Browser:Chrome - 43.0.2357.130]	[Action:Closing mssql connection]	[Remarks:Success]
[Date: 2015-07-06 08:07:33]	[UserID:06/343]	[IP:10.10.11.1]	[Browser:Chrome - 43.0.2357.130]	[Action:Making connection to server]	[Remarks:Successful connection to server: S3]
[Date: 2015-07-06 08:07:33]	[UserID:06/343]	[IP:10.10.11.1]	[Browser:Chrome - 43.0.2357.130]	[Action:GetGSTModules 06/343,1]	[Remarks:Successful filter row count: 5]
[Date: 2015-07-06 08:07:33]	[UserID:06/343]	[IP:10.10.11.1]	[Browser:Chrome - 43.0.2357.130]	[Action:Closing mssql connection]	[Remarks:Success]
[Date: 2015-07-06 08:11:45]	[UserID:06/343]	[IP:10.10.11.1]	[Browser:Chrome - 43.0.2357.130]	[Action:Making connection to server]	[Remarks:Successful connection to server: S3]
[Date: 2015-07-06 08:11:46]	[UserID:06/343]	[IP:10.10.11.1]	[Browser:Chrome - 43.0.2357.130]	[Action:GetGSTModules 06/343,1]	[Remarks:Successful filter row count: 5]
[Date: 2015-07-06 08:11:46]	[UserID:06/343]	[IP:10.10.11.1]	[Browser:Chrome - 43.0.2357.130]	[Action:Closing mssql connection]	[Remarks:Success]
[Date: 2015-07-06 08:18:21]	[UserID:06/343]	[IP:10.10.11.1]	[Browser:Chrome - 43.0.2357.130]	[Action:Making connection to server]	[Remarks:Successful connection to server: S3]
[Date: 2015-07-06 08:18:21]	[UserID:06/343]	[IP:10.10.11.1]	[Browser:Chrome - 43.0.2357.130]	[Action:GetGSTModules 06/343,1]	[Remarks:Successful filter row count: 5]
[Date: 2015-07-06 08:18:21]	[UserID:06/343]	[IP:10.10.11.1]	[Browser:Chrome - 43.0.2357.130]	[Action:Closing mssql connection]	[Remarks:Success]
[Date: 2015-07-06 08:19:14]	[UserID:06/343]	[IP:10.10.11.1]	[Browser:Chrome - 43.0.2357.130]	[Action:Making connection to server]	[Remarks:Successful connection to server: S3]
[Date: 2015-07-06 08:19:14]	[UserID:06/343]	[IP:10.10.11.1]	[Browser:Chrome - 43.0.2357.130]	[Action:GetGSTModules 06/343,1]	[Remarks:Successful filter row count: 5]
[Date: 2015-07-06 08:19:14]	[UserID:06/343]	[IP:10.10.11.1]	[Browser:Chrome - 43.0.2357.130]	[Action:Closing mssql connection]	[Remarks:Success]
[Date: 2015-07-06 08:19:19]	[UserID:06/343]	[IP:10.10.11.1]	[Browser:Chrome - 43.0.2357.130]	[Action:Making connection to server]	[Remarks:Successful connection to server: S3]
[Date: 2015-07-06 08:19:20]	[UserID:06/343]	[IP:10.10.11.1]	[Browser:Chrome - 43.0.2357.130]	[Action:GetGSTModules 06/343,1]	[Remarks:Successful filter row count: 5]
[Date: 2015-07-06 08:19:20]	[UserID:06/343]	[IP:10.10.11.1]	[Browser:Chrome - 43.0.2357.130]	[Action:Closing mssql connection]	[Remarks:Success]
[Date: 2015-07-06 08:27:25]	[UserID:]	[IP:10.10.11.1]	[Browser:Firefox - 6.0]	[Action:Making connection to server]	[Remarks:Successful connection to server: S3]
[Date: 2015-07-06 08:27:25]	[UserID:]	[IP:10.10.11.1]	[Browser:Firefox - 6.0]	[Action:GetProgramList ]	[Remarks:"no data"]
[Date: 2015-07-06 08:38:41]	[UserID:]	[IP:10.10.11.1]	[Browser:Chrome - 43.0.2357.130]	[Action:Making connection to server]	[Remarks:Successful connection to server: S3]
[Date: 2015-07-06 08:38:41]	[UserID:]	[IP:10.10.11.1]	[Browser:Chrome - 43.0.2357.130]	[Action:GetProgramList ]	[Remarks:"no data"]
[Date: 2015-07-06 08:38:44]	[UserID:06/371]	[IP:10.10.11.1]	[Browser:Chrome - 43.0.2357.130]	[Action:Making connection to server]	[Remarks:Successful connection to server: S3]
[Date: 2015-07-06 08:38:44]	[UserID:06/371]	[IP:10.10.11.1]	[Browser:Chrome - 43.0.2357.130]	[Action:User 06/371]	[Remarks:Success]
[Date: 2015-07-06 08:38:44]	[UserID:06/371]	[IP:10.10.11.1]	[Browser:Chrome - 43.0.2357.130]	[Action:Filtering User : MasterData Username : 06/371]	[Remarks:Successful filter row count: 0]
[Date: 2015-07-06 08:38:44]	[UserID:06/371]	[IP:10.10.11.1]	[Browser:Chrome - 43.0.2357.130]	[Action:Filtering User : MasterData Username : 06/371]	[Remarks:Successful filter row count: 0]
[Date: 2015-07-06 08:38:44]	[UserID:06/371]	[IP:10.10.11.1]	[Browser:Chrome - 43.0.2357.130]	[Action:Filtering User : MasterData Username : 06/371]	[Remarks:Success]
[Date: 2015-07-06 08:38:44]	[UserID:06/371]	[IP:10.10.11.1]	[Browser:Chrome - 43.0.2357.130]	[Action:Closing mssql connection]	[Remarks:Success]
[Date: 2015-07-06 08:38:46]	[UserID:06/371]	[IP:10.10.11.1]	[Browser:Chrome - 43.0.2357.130]	[Action:Making connection to server]	[Remarks:Successful connection to server: S3]
[Date: 2015-07-06 08:38:46]	[UserID:06/371]	[IP:10.10.11.1]	[Browser:Chrome - 43.0.2357.130]	[Action:GetProgramList 06/371]	[Remarks:[{"ID":"1","ProgramIndex":"GST","ProgramName":"GST"}]]
[Date: 2015-07-06 08:38:46]	[UserID:06/371]	[IP:10.10.11.1]	[Browser:Chrome - 43.0.2357.130]	[Action:Making connection to server]	[Remarks:Successful connection to server: S3]
[Date: 2015-07-06 08:38:46]	[UserID:06/371]	[IP:10.10.11.1]	[Browser:Chrome - 43.0.2357.130]	[Action:GetProgramList 06/371]	[Remarks:[{"ID":"1","ProgramIndex":"GST","ProgramName":"GST"}]]
[Date: 2015-07-06 08:38:46]	[UserID:06/371]	[IP:10.10.11.1]	[Browser:Chrome - 43.0.2357.130]	[Action:Making connection to server]	[Remarks:Successful connection to server: S3]
[Date: 2015-07-06 08:38:46]	[UserID:06/371]	[IP:10.10.11.1]	[Browser:Chrome - 43.0.2357.130]	[Action:Filtering User : MasterData Username : 06/371]	[Remarks:Successful filter row count: 1]
[Date: 2015-07-06 08:38:47]	[UserID:06/371]	[IP:10.10.11.1]	[Browser:Chrome - 43.0.2357.130]	[Action:Making connection to server]	[Remarks:Successful connection to server: S3]
[Date: 2015-07-06 08:38:47]	[UserID:06/371]	[IP:10.10.11.1]	[Browser:Chrome - 43.0.2357.130]	[Action:GetGSTModules 06/371,1]	[Remarks:Successful filter row count: 5]
[Date: 2015-07-06 08:38:47]	[UserID:06/371]	[IP:10.10.11.1]	[Browser:Chrome - 43.0.2357.130]	[Action:Closing mssql connection]	[Remarks:Success]
[Date: 2015-07-06 08:44:45]	[UserID:06/371]	[IP:10.10.11.1]	[Browser:Chrome - 43.0.2357.130]	[Action:Making connection to server]	[Remarks:Successful connection to server: S3]
[Date: 2015-07-06 08:44:45]	[UserID:06/371]	[IP:10.10.11.1]	[Browser:Chrome - 43.0.2357.130]	[Action:GetGSTModules 06/371,1]	[Remarks:Successful filter row count: 5]
[Date: 2015-07-06 08:44:45]	[UserID:06/371]	[IP:10.10.11.1]	[Browser:Chrome - 43.0.2357.130]	[Action:Closing mssql connection]	[Remarks:Success]
[Date: 2015-07-06 08:47:10]	[UserID:06/371]	[IP:10.10.11.1]	[Browser:Chrome - 43.0.2357.130]	[Action:Making connection to server]	[Remarks:Successful connection to server: S3]
[Date: 2015-07-06 08:47:10]	[UserID:06/371]	[IP:10.10.11.1]	[Browser:Chrome - 43.0.2357.130]	[Action:GetGSTModules 06/371,1]	[Remarks:Successful filter row count: 5]
[Date: 2015-07-06 08:47:10]	[UserID:06/371]	[IP:10.10.11.1]	[Browser:Chrome - 43.0.2357.130]	[Action:Closing mssql connection]	[Remarks:Success]
[Date: 2015-07-06 08:59:20]	[UserID:06/343]	[IP:10.10.11.1]	[Browser:Chrome - 43.0.2357.130]	[Action:Making connection to server]	[Remarks:Successful connection to server: S3]
[Date: 2015-07-06 08:59:20]	[UserID:06/343]	[IP:10.10.11.1]	[Browser:Chrome - 43.0.2357.130]	[Action:GetGSTModules 06/343,1]	[Remarks:Successful filter row count: 5]
[Date: 2015-07-06 08:59:20]	[UserID:06/343]	[IP:10.10.11.1]	[Browser:Chrome - 43.0.2357.130]	[Action:Closing mssql connection]	[Remarks:Success]
[Date: 2015-07-06 09:53:48]	[UserID:06/343]	[IP:10.10.11.1]	[Browser:Chrome - 43.0.2357.130]	[Action:Making connection to server]	[Remarks:Successful connection to server: S3]
[Date: 2015-07-06 09:53:49]	[UserID:06/343]	[IP:10.10.11.1]	[Browser:Chrome - 43.0.2357.130]	[Action:GetGSTModules 06/343,1]	[Remarks:Successful filter row count: 5]
[Date: 2015-07-06 09:53:49]	[UserID:06/343]	[IP:10.10.11.1]	[Browser:Chrome - 43.0.2357.130]	[Action:Closing mssql connection]	[Remarks:Success]
[Date: 2015-07-06 09:54:14]	[UserID:]	[IP:10.10.11.1]	[Browser:Chrome - 43.0.2357.130]	[Action:Making connection to server]	[Remarks:Successful connection to server: S3]
[Date: 2015-07-06 09:54:14]	[UserID:]	[IP:10.10.11.1]	[Browser:Chrome - 43.0.2357.130]	[Action:GetProgramList ]	[Remarks:"no data"]
[Date: 2015-07-06 09:54:17]	[UserID:10/660]	[IP:10.10.11.1]	[Browser:Chrome - 43.0.2357.130]	[Action:Making connection to server]	[Remarks:Successful connection to server: S3]
[Date: 2015-07-06 09:54:17]	[UserID:10/660]	[IP:10.10.11.1]	[Browser:Chrome - 43.0.2357.130]	[Action:User 10/660]	[Remarks:Success]
[Date: 2015-07-06 09:54:17]	[UserID:10/660]	[IP:10.10.11.1]	[Browser:Chrome - 43.0.2357.130]	[Action:Filtering User : MasterData Username : 10/660]	[Remarks:Successful filter row count: 0]
[Date: 2015-07-06 09:54:17]	[UserID:10/660]	[IP:10.10.11.1]	[Browser:Chrome - 43.0.2357.130]	[Action:Filtering User : MasterData Username : 10/660]	[Remarks:Successful filter row count: 0]
[Date: 2015-07-06 09:54:17]	[UserID:10/660]	[IP:10.10.11.1]	[Browser:Chrome - 43.0.2357.130]	[Action:Filtering User : MasterData Username : 10/660]	[Remarks:Success]
[Date: 2015-07-06 09:54:17]	[UserID:10/660]	[IP:10.10.11.1]	[Browser:Chrome - 43.0.2357.130]	[Action:Closing mssql connection]	[Remarks:Success]
[Date: 2015-07-06 09:54:17]	[UserID:10/660]	[IP:10.10.11.1]	[Browser:Chrome - 43.0.2357.130]	[Action:Making connection to server]	[Remarks:Successful connection to server: S3]
[Date: 2015-07-06 09:54:17]	[UserID:10/660]	[IP:10.10.11.1]	[Browser:Chrome - 43.0.2357.130]	[Action:GetProgramList 10/660]	[Remarks:[{"ID":"1","ProgramIndex":"GST","ProgramName":"GST"}]]
[Date: 2015-07-06 09:54:17]	[UserID:10/660]	[IP:10.10.11.1]	[Browser:Chrome - 43.0.2357.130]	[Action:Making connection to server]	[Remarks:Successful connection to server: S3]
[Date: 2015-07-06 09:54:17]	[UserID:10/660]	[IP:10.10.11.1]	[Browser:Chrome - 43.0.2357.130]	[Action:GetProgramList 10/660]	[Remarks:[{"ID":"1","ProgramIndex":"GST","ProgramName":"GST"}]]
[Date: 2015-07-06 09:54:17]	[UserID:10/660]	[IP:10.10.11.1]	[Browser:Chrome - 43.0.2357.130]	[Action:Making connection to server]	[Remarks:Successful connection to server: S3]
[Date: 2015-07-06 09:54:17]	[UserID:10/660]	[IP:10.10.11.1]	[Browser:Chrome - 43.0.2357.130]	[Action:Filtering User : MasterData Username : 10/660]	[Remarks:Successful filter row count: 1]
[Date: 2015-07-06 09:54:17]	[UserID:10/660]	[IP:10.10.11.1]	[Browser:Chrome - 43.0.2357.130]	[Action:Making connection to server]	[Remarks:Successful connection to server: S3]
[Date: 2015-07-06 09:54:17]	[UserID:10/660]	[IP:10.10.11.1]	[Browser:Chrome - 43.0.2357.130]	[Action:GetGSTModules 10/660,1]	[Remarks:Successful filter row count: 3]
[Date: 2015-07-06 09:54:17]	[UserID:10/660]	[IP:10.10.11.1]	[Browser:Chrome - 43.0.2357.130]	[Action:Closing mssql connection]	[Remarks:Success]
[Date: 2015-07-06 10:00:29]	[UserID:06/343]	[IP:10.10.11.1]	[Browser:Chrome - 43.0.2357.130]	[Action:Making connection to server]	[Remarks:Successful connection to server: S3]
[Date: 2015-07-06 10:00:29]	[UserID:06/343]	[IP:10.10.11.1]	[Browser:Chrome - 43.0.2357.130]	[Action:GetGSTModules 06/343,1]	[Remarks:Successful filter row count: 5]
[Date: 2015-07-06 10:00:29]	[UserID:06/343]	[IP:10.10.11.1]	[Browser:Chrome - 43.0.2357.130]	[Action:Closing mssql connection]	[Remarks:Success]
[Date: 2015-07-06 10:04:27]	[UserID:06/343]	[IP:10.10.11.1]	[Browser:Chrome - 43.0.2357.130]	[Action:Making connection to server]	[Remarks:Successful connection to server: S3]
[Date: 2015-07-06 10:04:27]	[UserID:06/343]	[IP:10.10.11.1]	[Browser:Chrome - 43.0.2357.130]	[Action:GetGSTModules 06/343,1]	[Remarks:Successful filter row count: 5]
[Date: 2015-07-06 10:04:27]	[UserID:06/343]	[IP:10.10.11.1]	[Browser:Chrome - 43.0.2357.130]	[Action:Closing mssql connection]	[Remarks:Success]
[Date: 2015-07-06 10:10:31]	[UserID:10/660]	[IP:10.10.11.1]	[Browser:Chrome - 43.0.2357.130]	[Action:Making connection to server]	[Remarks:Successful connection to server: S3]
[Date: 2015-07-06 10:10:31]	[UserID:10/660]	[IP:10.10.11.1]	[Browser:Chrome - 43.0.2357.130]	[Action:GetGSTModules 10/660,1]	[Remarks:Successful filter row count: 3]
[Date: 2015-07-06 10:10:31]	[UserID:10/660]	[IP:10.10.11.1]	[Browser:Chrome - 43.0.2357.130]	[Action:Closing mssql connection]	[Remarks:Success]
[Date: 2015-07-06 10:51:52]	[UserID:10/660]	[IP:10.10.11.1]	[Browser:Chrome - 43.0.2357.130]	[Action:Making connection to server]	[Remarks:Successful connection to server: S3]
[Date: 2015-07-06 10:51:52]	[UserID:10/660]	[IP:10.10.11.1]	[Browser:Chrome - 43.0.2357.130]	[Action:GetGSTModules 10/660,1]	[Remarks:Successful filter row count: 3]
[Date: 2015-07-06 10:51:52]	[UserID:10/660]	[IP:10.10.11.1]	[Browser:Chrome - 43.0.2357.130]	[Action:Closing mssql connection]	[Remarks:Success]
[Date: 2015-07-06 10:52:20]	[UserID:]	[IP:10.10.11.1]	[Browser:Chrome - 43.0.2357.130]	[Action:Making connection to server]	[Remarks:Successful connection to server: S3]
[Date: 2015-07-06 10:52:20]	[UserID:]	[IP:10.10.11.1]	[Browser:Chrome - 43.0.2357.130]	[Action:GetProgramList ]	[Remarks:"no data"]
[Date: 2015-07-06 11:06:23]	[UserID:]	[IP:10.10.11.1]	[Browser:Chrome - 43.0.2357.130]	[Action:Making connection to server]	[Remarks:Successful connection to server: S3]
[Date: 2015-07-06 11:06:23]	[UserID:]	[IP:10.10.11.1]	[Browser:Chrome - 43.0.2357.130]	[Action:GetProgramList ]	[Remarks:"no data"]
[Date: 2015-07-06 11:06:26]	[UserID:10/660]	[IP:10.10.11.1]	[Browser:Chrome - 43.0.2357.130]	[Action:Making connection to server]	[Remarks:Successful connection to server: S3]
[Date: 2015-07-06 11:06:26]	[UserID:10/660]	[IP:10.10.11.1]	[Browser:Chrome - 43.0.2357.130]	[Action:User 10/660]	[Remarks:Success]
[Date: 2015-07-06 11:06:26]	[UserID:10/660]	[IP:10.10.11.1]	[Browser:Chrome - 43.0.2357.130]	[Action:Filtering User : MasterData Username : 10/660]	[Remarks:Successful filter row count: 0]
[Date: 2015-07-06 11:06:26]	[UserID:10/660]	[IP:10.10.11.1]	[Browser:Chrome - 43.0.2357.130]	[Action:Filtering User : MasterData Username : 10/660]	[Remarks:Successful filter row count: 0]
[Date: 2015-07-06 11:06:26]	[UserID:10/660]	[IP:10.10.11.1]	[Browser:Chrome - 43.0.2357.130]	[Action:Filtering User : MasterData Username : 10/660]	[Remarks:Success]
[Date: 2015-07-06 11:06:26]	[UserID:10/660]	[IP:10.10.11.1]	[Browser:Chrome - 43.0.2357.130]	[Action:Closing mssql connection]	[Remarks:Success]
[Date: 2015-07-06 11:06:26]	[UserID:10/660]	[IP:10.10.11.1]	[Browser:Chrome - 43.0.2357.130]	[Action:Making connection to server]	[Remarks:Successful connection to server: S3]
[Date: 2015-07-06 11:06:26]	[UserID:10/660]	[IP:10.10.11.1]	[Browser:Chrome - 43.0.2357.130]	[Action:GetProgramList 10/660]	[Remarks:[{"ID":"1","ProgramIndex":"GST","ProgramName":"GST"}]]
[Date: 2015-07-06 11:06:26]	[UserID:10/660]	[IP:10.10.11.1]	[Browser:Chrome - 43.0.2357.130]	[Action:Making connection to server]	[Remarks:Successful connection to server: S3]
[Date: 2015-07-06 11:06:26]	[UserID:10/660]	[IP:10.10.11.1]	[Browser:Chrome - 43.0.2357.130]	[Action:GetProgramList 10/660]	[Remarks:[{"ID":"1","ProgramIndex":"GST","ProgramName":"GST"}]]
[Date: 2015-07-06 11:06:26]	[UserID:10/660]	[IP:10.10.11.1]	[Browser:Chrome - 43.0.2357.130]	[Action:Making connection to server]	[Remarks:Successful connection to server: S3]
[Date: 2015-07-06 11:06:26]	[UserID:10/660]	[IP:10.10.11.1]	[Browser:Chrome - 43.0.2357.130]	[Action:Filtering User : MasterData Username : 10/660]	[Remarks:Successful filter row count: 1]
[Date: 2015-07-06 11:06:27]	[UserID:10/660]	[IP:10.10.11.1]	[Browser:Chrome - 43.0.2357.130]	[Action:Making connection to server]	[Remarks:Successful connection to server: S3]
[Date: 2015-07-06 11:06:27]	[UserID:10/660]	[IP:10.10.11.1]	[Browser:Chrome - 43.0.2357.130]	[Action:GetGSTModules 10/660,1]	[Remarks:Successful filter row count: 3]
[Date: 2015-07-06 11:06:27]	[UserID:10/660]	[IP:10.10.11.1]	[Browser:Chrome - 43.0.2357.130]	[Action:Closing mssql connection]	[Remarks:Success]
[Date: 2015-07-06 11:07:03]	[UserID:10/660]	[IP:10.10.11.1]	[Browser:Chrome - 43.0.2357.130]	[Action:Making connection to server]	[Remarks:Successful connection to server: S3]
[Date: 2015-07-06 11:07:03]	[UserID:10/660]	[IP:10.10.11.1]	[Browser:Chrome - 43.0.2357.130]	[Action:GetGSTModules 10/660,1]	[Remarks:Successful filter row count: 3]
[Date: 2015-07-06 11:07:03]	[UserID:10/660]	[IP:10.10.11.1]	[Browser:Chrome - 43.0.2357.130]	[Action:Closing mssql connection]	[Remarks:Success]
[Date: 2015-07-06 11:07:33]	[UserID:]	[IP:10.10.11.1]	[Browser:Chrome - 43.0.2357.130]	[Action:Making connection to server]	[Remarks:Successful connection to server: S3]
[Date: 2015-07-06 11:07:33]	[UserID:]	[IP:10.10.11.1]	[Browser:Chrome - 43.0.2357.130]	[Action:GetProgramList ]	[Remarks:"no data"]
[Date: 2015-07-06 11:25:48]	[UserID:06/343]	[IP:10.10.11.1]	[Browser:Chrome - 43.0.2357.130]	[Action:Making connection to server]	[Remarks:Successful connection to server: S3]
[Date: 2015-07-06 11:25:48]	[UserID:06/343]	[IP:10.10.11.1]	[Browser:Chrome - 43.0.2357.130]	[Action:GetProgramList 06/343]	[Remarks:[{"ID":"1","ProgramIndex":"GST","ProgramName":"GST"}]]
[Date: 2015-07-06 11:25:48]	[UserID:06/343]	[IP:10.10.11.1]	[Browser:Chrome - 43.0.2357.130]	[Action:Making connection to server]	[Remarks:Successful connection to server: S3]
[Date: 2015-07-06 11:25:48]	[UserID:06/343]	[IP:10.10.11.1]	[Browser:Chrome - 43.0.2357.130]	[Action:GetProgramList 06/343]	[Remarks:[{"ID":"1","ProgramIndex":"GST","ProgramName":"GST"}]]
[Date: 2015-07-06 11:25:48]	[UserID:06/343]	[IP:10.10.11.1]	[Browser:Chrome - 43.0.2357.130]	[Action:Making connection to server]	[Remarks:Successful connection to server: S3]
[Date: 2015-07-06 11:25:48]	[UserID:06/343]	[IP:10.10.11.1]	[Browser:Chrome - 43.0.2357.130]	[Action:Filtering User : MasterData Username : 06/343]	[Remarks:Successful filter row count: 1]
[Date: 2015-07-06 11:25:48]	[UserID:06/343]	[IP:10.10.11.1]	[Browser:Chrome - 43.0.2357.130]	[Action:Making connection to server]	[Remarks:Successful connection to server: S3]
[Date: 2015-07-06 11:25:48]	[UserID:06/343]	[IP:10.10.11.1]	[Browser:Chrome - 43.0.2357.130]	[Action:GetProgramList 06/343]	[Remarks:[{"ID":"1","ProgramIndex":"GST","ProgramName":"GST"}]]
[Date: 2015-07-06 11:25:48]	[UserID:06/343]	[IP:10.10.11.1]	[Browser:Chrome - 43.0.2357.130]	[Action:Making connection to server]	[Remarks:Successful connection to server: S3]
[Date: 2015-07-06 11:25:48]	[UserID:06/343]	[IP:10.10.11.1]	[Browser:Chrome - 43.0.2357.130]	[Action:GetProgramList 06/343]	[Remarks:[{"ID":"1","ProgramIndex":"GST","ProgramName":"GST"}]]
[Date: 2015-07-06 11:25:48]	[UserID:06/343]	[IP:10.10.11.1]	[Browser:Chrome - 43.0.2357.130]	[Action:Making connection to server]	[Remarks:Successful connection to server: S3]
[Date: 2015-07-06 11:25:48]	[UserID:06/343]	[IP:10.10.11.1]	[Browser:Chrome - 43.0.2357.130]	[Action:Filtering User : MasterData Username : 06/343]	[Remarks:Successful filter row count: 1]
[Date: 2015-07-06 11:25:49]	[UserID:06/343]	[IP:10.10.11.1]	[Browser:Chrome - 43.0.2357.130]	[Action:Making connection to server]	[Remarks:Successful connection to server: S3]
[Date: 2015-07-06 11:25:49]	[UserID:06/343]	[IP:10.10.11.1]	[Browser:Chrome - 43.0.2357.130]	[Action:GetGSTModules 06/343,1]	[Remarks:Successful filter row count: 5]
[Date: 2015-07-06 11:25:49]	[UserID:06/343]	[IP:10.10.11.1]	[Browser:Chrome - 43.0.2357.130]	[Action:Closing mssql connection]	[Remarks:Success]
[Date: 2015-07-06 14:09:31]	[UserID:]	[IP:10.10.11.1]	[Browser:Chrome - 43.0.2357.130]	[Action:Making connection to server]	[Remarks:Successful connection to server: S3]
[Date: 2015-07-06 14:09:31]	[UserID:]	[IP:10.10.11.1]	[Browser:Chrome - 43.0.2357.130]	[Action:GetProgramList ]	[Remarks:"no data"]
[Date: 2015-07-06 14:09:33]	[UserID:10/660]	[IP:10.10.11.1]	[Browser:Chrome - 43.0.2357.130]	[Action:Making connection to server]	[Remarks:Successful connection to server: S3]
[Date: 2015-07-06 14:09:33]	[UserID:10/660]	[IP:10.10.11.1]	[Browser:Chrome - 43.0.2357.130]	[Action:User 10/660]	[Remarks:Success]
[Date: 2015-07-06 14:09:33]	[UserID:10/660]	[IP:10.10.11.1]	[Browser:Chrome - 43.0.2357.130]	[Action:Filtering User : MasterData Username : 10/660]	[Remarks:Successful filter row count: 0]
[Date: 2015-07-06 14:09:33]	[UserID:10/660]	[IP:10.10.11.1]	[Browser:Chrome - 43.0.2357.130]	[Action:Filtering User : MasterData Username : 10/660]	[Remarks:Successful filter row count: 0]
[Date: 2015-07-06 14:09:33]	[UserID:10/660]	[IP:10.10.11.1]	[Browser:Chrome - 43.0.2357.130]	[Action:Filtering User : MasterData Username : 10/660]	[Remarks:Success]
[Date: 2015-07-06 14:09:33]	[UserID:10/660]	[IP:10.10.11.1]	[Browser:Chrome - 43.0.2357.130]	[Action:Closing mssql connection]	[Remarks:Success]
[Date: 2015-07-06 14:09:33]	[UserID:10/660]	[IP:10.10.11.1]	[Browser:Chrome - 43.0.2357.130]	[Action:Making connection to server]	[Remarks:Successful connection to server: S3]
[Date: 2015-07-06 14:09:33]	[UserID:10/660]	[IP:10.10.11.1]	[Browser:Chrome - 43.0.2357.130]	[Action:GetProgramList 10/660]	[Remarks:[{"ID":"1","ProgramIndex":"GST","ProgramName":"GST"}]]
[Date: 2015-07-06 14:09:33]	[UserID:10/660]	[IP:10.10.11.1]	[Browser:Chrome - 43.0.2357.130]	[Action:Making connection to server]	[Remarks:Successful connection to server: S3]
[Date: 2015-07-06 14:09:33]	[UserID:10/660]	[IP:10.10.11.1]	[Browser:Chrome - 43.0.2357.130]	[Action:GetProgramList 10/660]	[Remarks:[{"ID":"1","ProgramIndex":"GST","ProgramName":"GST"}]]
[Date: 2015-07-06 14:09:33]	[UserID:10/660]	[IP:10.10.11.1]	[Browser:Chrome - 43.0.2357.130]	[Action:Making connection to server]	[Remarks:Successful connection to server: S3]
[Date: 2015-07-06 14:09:33]	[UserID:10/660]	[IP:10.10.11.1]	[Browser:Chrome - 43.0.2357.130]	[Action:Filtering User : MasterData Username : 10/660]	[Remarks:Successful filter row count: 1]
[Date: 2015-07-06 14:09:33]	[UserID:10/660]	[IP:10.10.11.1]	[Browser:Chrome - 43.0.2357.130]	[Action:Making connection to server]	[Remarks:Successful connection to server: S3]
[Date: 2015-07-06 14:09:33]	[UserID:10/660]	[IP:10.10.11.1]	[Browser:Chrome - 43.0.2357.130]	[Action:GetGSTModules 10/660,1]	[Remarks:Successful filter row count: 3]
[Date: 2015-07-06 14:09:33]	[UserID:10/660]	[IP:10.10.11.1]	[Browser:Chrome - 43.0.2357.130]	[Action:Closing mssql connection]	[Remarks:Success]
[Date: 2015-07-06 14:10:55]	[UserID:10/660]	[IP:10.10.11.1]	[Browser:Chrome - 43.0.2357.130]	[Action:Making connection to server]	[Remarks:Successful connection to server: S3]
[Date: 2015-07-06 14:10:55]	[UserID:10/660]	[IP:10.10.11.1]	[Browser:Chrome - 43.0.2357.130]	[Action:GetGSTModules 10/660,1]	[Remarks:Successful filter row count: 3]
[Date: 2015-07-06 14:10:55]	[UserID:10/660]	[IP:10.10.11.1]	[Browser:Chrome - 43.0.2357.130]	[Action:Closing mssql connection]	[Remarks:Success]
[Date: 2015-07-06 14:12:30]	[UserID:]	[IP:10.10.11.1]	[Browser:Chrome - 43.0.2357.130]	[Action:Making connection to server]	[Remarks:Successful connection to server: S3]
[Date: 2015-07-06 14:12:30]	[UserID:]	[IP:10.10.11.1]	[Browser:Chrome - 43.0.2357.130]	[Action:GetProgramList ]	[Remarks:"no data"]
