[Date: 2016-05-26 08:06:37]	[UserID:]	[IP:10.10.11.1]	[Browser:Chrome - 50.0.2661.102]	[Action:Making connection to server]	[Remarks:Successful connection to server: S3]
[Date: 2016-05-26 08:06:38]	[UserID:]	[IP:10.10.11.1]	[Browser:Chrome - 50.0.2661.102]	[Action:GetProgramList ]	[Remarks:"no data"]
[Date: 2016-05-26 08:06:40]	[UserID:11/715]	[IP:10.10.11.1]	[Browser:Chrome - 50.0.2661.102]	[Action:Making connection to server]	[Remarks:Successful connection to server: S3]
[Date: 2016-05-26 08:06:41]	[UserID:11/715]	[IP:10.10.11.1]	[Browser:Chrome - 50.0.2661.102]	[Action:User 11/715]	[Remarks:Success]
[Date: 2016-05-26 08:06:41]	[UserID:11/715]	[IP:10.10.11.1]	[Browser:Chrome - 50.0.2661.102]	[Action:Filtering User : MasterData Username : 11/715]	[Remarks:Successful filter row count: 0]
[Date: 2016-05-26 08:06:41]	[UserID:11/715]	[IP:10.10.11.1]	[Browser:Chrome - 50.0.2661.102]	[Action:Filtering User : MasterData Username : 11/715]	[Remarks:Successful filter row count: 0]
[Date: 2016-05-26 08:06:41]	[UserID:11/715]	[IP:10.10.11.1]	[Browser:Chrome - 50.0.2661.102]	[Action:Filtering User : MasterData Username : 11/715]	[Remarks:Success]
[Date: 2016-05-26 08:06:41]	[UserID:11/715]	[IP:10.10.11.1]	[Browser:Chrome - 50.0.2661.102]	[Action:Closing mssql connection]	[Remarks:Success]
[Date: 2016-05-26 08:06:41]	[UserID:11/715]	[IP:10.10.11.1]	[Browser:Chrome - 50.0.2661.102]	[Action:Making connection to server]	[Remarks:Successful connection to server: S3]
[Date: 2016-05-26 08:06:41]	[UserID:11/715]	[IP:10.10.11.1]	[Browser:Chrome - 50.0.2661.102]	[Action:GetProgramList 11/715]	[Remarks:[{"ID":"1","ProgramIndex":"GST","ProgramName":"GST"}]]
[Date: 2016-05-26 08:06:41]	[UserID:11/715]	[IP:10.10.11.1]	[Browser:Chrome - 50.0.2661.102]	[Action:Making connection to server]	[Remarks:Successful connection to server: S3]
[Date: 2016-05-26 08:06:41]	[UserID:11/715]	[IP:10.10.11.1]	[Browser:Chrome - 50.0.2661.102]	[Action:GetProgramList 11/715]	[Remarks:[{"ID":"1","ProgramIndex":"GST","ProgramName":"GST"}]]
[Date: 2016-05-26 08:06:41]	[UserID:11/715]	[IP:10.10.11.1]	[Browser:Chrome - 50.0.2661.102]	[Action:Making connection to server]	[Remarks:Successful connection to server: S3]
[Date: 2016-05-26 08:06:41]	[UserID:11/715]	[IP:10.10.11.1]	[Browser:Chrome - 50.0.2661.102]	[Action:Filtering User : MasterData Username : 11/715]	[Remarks:Successful filter row count: 1]
[Date: 2016-05-26 08:06:41]	[UserID:11/715]	[IP:10.10.11.1]	[Browser:Chrome - 50.0.2661.102]	[Action:Making connection to server]	[Remarks:Successful connection to server: S3]
[Date: 2016-05-26 08:06:41]	[UserID:11/715]	[IP:10.10.11.1]	[Browser:Chrome - 50.0.2661.102]	[Action:GetGSTModules 11/715,1]	[Remarks:Successful filter row count: 3]
[Date: 2016-05-26 08:06:41]	[UserID:11/715]	[IP:10.10.11.1]	[Browser:Chrome - 50.0.2661.102]	[Action:Closing mssql connection]	[Remarks:Success]
[Date: 2016-05-26 08:11:18]	[UserID:11/715]	[IP:10.10.11.1]	[Browser:Chrome - 50.0.2661.102]	[Action:Making connection to server]	[Remarks:Successful connection to server: S3]
[Date: 2016-05-26 08:11:18]	[UserID:11/715]	[IP:10.10.11.1]	[Browser:Chrome - 50.0.2661.102]	[Action:GetGSTModules 11/715,1]	[Remarks:Successful filter row count: 3]
[Date: 2016-05-26 08:11:18]	[UserID:11/715]	[IP:10.10.11.1]	[Browser:Chrome - 50.0.2661.102]	[Action:Closing mssql connection]	[Remarks:Success]
[Date: 2016-05-26 08:43:57]	[UserID:]	[IP:10.10.11.1]	[Browser:Chrome - 50.0.2661.102]	[Action:Making connection to server]	[Remarks:Successful connection to server: S3]
[Date: 2016-05-26 08:43:57]	[UserID:]	[IP:10.10.11.1]	[Browser:Chrome - 50.0.2661.102]	[Action:GetProgramList ]	[Remarks:"no data"]
[Date: 2016-05-26 08:43:59]	[UserID:10/660]	[IP:10.10.11.1]	[Browser:Chrome - 50.0.2661.102]	[Action:Making connection to server]	[Remarks:Successful connection to server: S3]
[Date: 2016-05-26 08:43:59]	[UserID:10/660]	[IP:10.10.11.1]	[Browser:Chrome - 50.0.2661.102]	[Action:User 10/660]	[Remarks:Success]
[Date: 2016-05-26 08:43:59]	[UserID:10/660]	[IP:10.10.11.1]	[Browser:Chrome - 50.0.2661.102]	[Action:Filtering User : MasterData Username : 10/660]	[Remarks:Successful filter row count: 0]
[Date: 2016-05-26 08:43:59]	[UserID:10/660]	[IP:10.10.11.1]	[Browser:Chrome - 50.0.2661.102]	[Action:Filtering User : MasterData Username : 10/660]	[Remarks:Successful filter row count: 0]
[Date: 2016-05-26 08:43:59]	[UserID:10/660]	[IP:10.10.11.1]	[Browser:Chrome - 50.0.2661.102]	[Action:Filtering User : MasterData Username : 10/660]	[Remarks:Success]
[Date: 2016-05-26 08:43:59]	[UserID:10/660]	[IP:10.10.11.1]	[Browser:Chrome - 50.0.2661.102]	[Action:Closing mssql connection]	[Remarks:Success]
[Date: 2016-05-26 08:43:59]	[UserID:10/660]	[IP:10.10.11.1]	[Browser:Chrome - 50.0.2661.102]	[Action:Making connection to server]	[Remarks:Successful connection to server: S3]
[Date: 2016-05-26 08:43:59]	[UserID:10/660]	[IP:10.10.11.1]	[Browser:Chrome - 50.0.2661.102]	[Action:GetProgramList 10/660]	[Remarks:[{"ID":"1","ProgramIndex":"GST","ProgramName":"GST"}]]
[Date: 2016-05-26 08:43:59]	[UserID:10/660]	[IP:10.10.11.1]	[Browser:Chrome - 50.0.2661.102]	[Action:Making connection to server]	[Remarks:Successful connection to server: S3]
[Date: 2016-05-26 08:43:59]	[UserID:10/660]	[IP:10.10.11.1]	[Browser:Chrome - 50.0.2661.102]	[Action:GetProgramList 10/660]	[Remarks:[{"ID":"1","ProgramIndex":"GST","ProgramName":"GST"}]]
[Date: 2016-05-26 08:43:59]	[UserID:10/660]	[IP:10.10.11.1]	[Browser:Chrome - 50.0.2661.102]	[Action:Making connection to server]	[Remarks:Successful connection to server: S3]
[Date: 2016-05-26 08:43:59]	[UserID:10/660]	[IP:10.10.11.1]	[Browser:Chrome - 50.0.2661.102]	[Action:Filtering User : MasterData Username : 10/660]	[Remarks:Successful filter row count: 1]
[Date: 2016-05-26 08:44:00]	[UserID:10/660]	[IP:10.10.11.1]	[Browser:Chrome - 50.0.2661.102]	[Action:Making connection to server]	[Remarks:Successful connection to server: S3]
[Date: 2016-05-26 08:44:00]	[UserID:10/660]	[IP:10.10.11.1]	[Browser:Chrome - 50.0.2661.102]	[Action:GetGSTModules 10/660,1]	[Remarks:Successful filter row count: 3]
[Date: 2016-05-26 08:44:00]	[UserID:10/660]	[IP:10.10.11.1]	[Browser:Chrome - 50.0.2661.102]	[Action:Closing mssql connection]	[Remarks:Success]
[Date: 2016-05-26 08:48:18]	[UserID:10/660]	[IP:10.10.11.1]	[Browser:Chrome - 50.0.2661.102]	[Action:Making connection to server]	[Remarks:Successful connection to server: S3]
[Date: 2016-05-26 08:48:18]	[UserID:10/660]	[IP:10.10.11.1]	[Browser:Chrome - 50.0.2661.102]	[Action:GetGSTModules 10/660,1]	[Remarks:Successful filter row count: 3]
[Date: 2016-05-26 08:48:18]	[UserID:10/660]	[IP:10.10.11.1]	[Browser:Chrome - 50.0.2661.102]	[Action:Closing mssql connection]	[Remarks:Success]
[Date: 2016-05-26 08:54:58]	[UserID:10/660]	[IP:10.10.11.1]	[Browser:Chrome - 50.0.2661.102]	[Action:Making connection to server]	[Remarks:Successful connection to server: S3]
[Date: 2016-05-26 08:54:59]	[UserID:10/660]	[IP:10.10.11.1]	[Browser:Chrome - 50.0.2661.102]	[Action:GetGSTModules 10/660,1]	[Remarks:Successful filter row count: 3]
[Date: 2016-05-26 08:54:59]	[UserID:10/660]	[IP:10.10.11.1]	[Browser:Chrome - 50.0.2661.102]	[Action:Closing mssql connection]	[Remarks:Success]
[Date: 2016-05-26 08:55:35]	[UserID:]	[IP:10.10.11.1]	[Browser:Chrome - 50.0.2661.102]	[Action:Making connection to server]	[Remarks:Successful connection to server: S3]
[Date: 2016-05-26 08:55:35]	[UserID:]	[IP:10.10.11.1]	[Browser:Chrome - 50.0.2661.102]	[Action:GetProgramList ]	[Remarks:"no data"]
[Date: 2016-05-26 11:43:42]	[UserID:]	[IP:10.10.11.1]	[Browser:Chrome - 50.0.2661.102]	[Action:Making connection to server]	[Remarks:Successful connection to server: S3]
[Date: 2016-05-26 11:43:42]	[UserID:]	[IP:10.10.11.1]	[Browser:Chrome - 50.0.2661.102]	[Action:GetProgramList ]	[Remarks:"no data"]
[Date: 2016-05-26 11:43:43]	[UserID:11/715]	[IP:10.10.11.1]	[Browser:Chrome - 50.0.2661.102]	[Action:Making connection to server]	[Remarks:Successful connection to server: S3]
[Date: 2016-05-26 11:43:43]	[UserID:11/715]	[IP:10.10.11.1]	[Browser:Chrome - 50.0.2661.102]	[Action:User 11/715]	[Remarks:Success]
[Date: 2016-05-26 11:43:43]	[UserID:11/715]	[IP:10.10.11.1]	[Browser:Chrome - 50.0.2661.102]	[Action:Filtering User : MasterData Username : 11/715]	[Remarks:Successful filter row count: 0]
[Date: 2016-05-26 11:43:43]	[UserID:11/715]	[IP:10.10.11.1]	[Browser:Chrome - 50.0.2661.102]	[Action:Filtering User : MasterData Username : 11/715]	[Remarks:Successful filter row count: 0]
[Date: 2016-05-26 11:43:43]	[UserID:11/715]	[IP:10.10.11.1]	[Browser:Chrome - 50.0.2661.102]	[Action:Filtering User : MasterData Username : 11/715]	[Remarks:Success]
[Date: 2016-05-26 11:43:43]	[UserID:11/715]	[IP:10.10.11.1]	[Browser:Chrome - 50.0.2661.102]	[Action:Closing mssql connection]	[Remarks:Success]
[Date: 2016-05-26 11:43:44]	[UserID:11/715]	[IP:10.10.11.1]	[Browser:Chrome - 50.0.2661.102]	[Action:Making connection to server]	[Remarks:Successful connection to server: S3]
[Date: 2016-05-26 11:43:44]	[UserID:11/715]	[IP:10.10.11.1]	[Browser:Chrome - 50.0.2661.102]	[Action:GetProgramList 11/715]	[Remarks:[{"ID":"1","ProgramIndex":"GST","ProgramName":"GST"}]]
[Date: 2016-05-26 11:43:44]	[UserID:11/715]	[IP:10.10.11.1]	[Browser:Chrome - 50.0.2661.102]	[Action:Making connection to server]	[Remarks:Successful connection to server: S3]
[Date: 2016-05-26 11:43:44]	[UserID:11/715]	[IP:10.10.11.1]	[Browser:Chrome - 50.0.2661.102]	[Action:GetProgramList 11/715]	[Remarks:[{"ID":"1","ProgramIndex":"GST","ProgramName":"GST"}]]
[Date: 2016-05-26 11:43:44]	[UserID:11/715]	[IP:10.10.11.1]	[Browser:Chrome - 50.0.2661.102]	[Action:Making connection to server]	[Remarks:Successful connection to server: S3]
[Date: 2016-05-26 11:43:44]	[UserID:11/715]	[IP:10.10.11.1]	[Browser:Chrome - 50.0.2661.102]	[Action:Filtering User : MasterData Username : 11/715]	[Remarks:Successful filter row count: 1]
[Date: 2016-05-26 11:43:44]	[UserID:11/715]	[IP:10.10.11.1]	[Browser:Chrome - 50.0.2661.102]	[Action:Making connection to server]	[Remarks:Successful connection to server: S3]
[Date: 2016-05-26 11:43:44]	[UserID:11/715]	[IP:10.10.11.1]	[Browser:Chrome - 50.0.2661.102]	[Action:GetGSTModules 11/715,1]	[Remarks:Successful filter row count: 3]
[Date: 2016-05-26 11:43:44]	[UserID:11/715]	[IP:10.10.11.1]	[Browser:Chrome - 50.0.2661.102]	[Action:Closing mssql connection]	[Remarks:Success]
[Date: 2016-05-26 13:19:37]	[UserID:]	[IP:10.10.11.1]	[Browser:Chrome - 49.0.2623.75]	[Action:Making connection to server]	[Remarks:Successful connection to server: S3]
[Date: 2016-05-26 13:19:37]	[UserID:]	[IP:10.10.11.1]	[Browser:Chrome - 49.0.2623.75]	[Action:GetProgramList ]	[Remarks:"no data"]
[Date: 2016-05-26 13:27:03]	[UserID:]	[IP:10.10.11.1]	[Browser:Chrome - 50.0.2661.102]	[Action:Making connection to server]	[Remarks:Successful connection to server: S3]
[Date: 2016-05-26 13:27:03]	[UserID:]	[IP:10.10.11.1]	[Browser:Chrome - 50.0.2661.102]	[Action:GetProgramList ]	[Remarks:"no data"]
[Date: 2016-05-26 13:27:10]	[UserID:14/1082]	[IP:10.10.11.1]	[Browser:Chrome - 50.0.2661.102]	[Action:Making connection to server]	[Remarks:Successful connection to server: S3]
[Date: 2016-05-26 13:27:10]	[UserID:14/1082]	[IP:10.10.11.1]	[Browser:Chrome - 50.0.2661.102]	[Action:User 14/1082]	[Remarks:Success]
[Date: 2016-05-26 13:27:10]	[UserID:14/1082]	[IP:10.10.11.1]	[Browser:Chrome - 50.0.2661.102]	[Action:Filtering User : MasterData Username : 14/1082]	[Remarks:Successful filter row count: 0]
[Date: 2016-05-26 13:27:10]	[UserID:14/1082]	[IP:10.10.11.1]	[Browser:Chrome - 50.0.2661.102]	[Action:Filtering User : MasterData Username : 14/1082]	[Remarks:Successful filter row count: 0]
[Date: 2016-05-26 13:27:10]	[UserID:14/1082]	[IP:10.10.11.1]	[Browser:Chrome - 50.0.2661.102]	[Action:Filtering User : MasterData Username : 14/1082]	[Remarks:Success]
[Date: 2016-05-26 13:27:10]	[UserID:14/1082]	[IP:10.10.11.1]	[Browser:Chrome - 50.0.2661.102]	[Action:Closing mssql connection]	[Remarks:Success]
[Date: 2016-05-26 13:27:10]	[UserID:14/1082]	[IP:10.10.11.1]	[Browser:Chrome - 50.0.2661.102]	[Action:Making connection to server]	[Remarks:Successful connection to server: S3]
[Date: 2016-05-26 13:27:10]	[UserID:14/1082]	[IP:10.10.11.1]	[Browser:Chrome - 50.0.2661.102]	[Action:GetProgramList 14/1082]	[Remarks:[{"ID":"1","ProgramIndex":"GST","ProgramName":"GST"}]]
[Date: 2016-05-26 13:27:10]	[UserID:14/1082]	[IP:10.10.11.1]	[Browser:Chrome - 50.0.2661.102]	[Action:Making connection to server]	[Remarks:Successful connection to server: S3]
[Date: 2016-05-26 13:27:10]	[UserID:14/1082]	[IP:10.10.11.1]	[Browser:Chrome - 50.0.2661.102]	[Action:GetProgramList 14/1082]	[Remarks:[{"ID":"1","ProgramIndex":"GST","ProgramName":"GST"}]]
[Date: 2016-05-26 13:27:10]	[UserID:14/1082]	[IP:10.10.11.1]	[Browser:Chrome - 50.0.2661.102]	[Action:Making connection to server]	[Remarks:Successful connection to server: S3]
[Date: 2016-05-26 13:27:10]	[UserID:14/1082]	[IP:10.10.11.1]	[Browser:Chrome - 50.0.2661.102]	[Action:Filtering User : MasterData Username : 14/1082]	[Remarks:Successful filter row count: 1]
[Date: 2016-05-26 13:27:11]	[UserID:14/1082]	[IP:10.10.11.1]	[Browser:Chrome - 50.0.2661.102]	[Action:Making connection to server]	[Remarks:Successful connection to server: S3]
[Date: 2016-05-26 13:27:11]	[UserID:14/1082]	[IP:10.10.11.1]	[Browser:Chrome - 50.0.2661.102]	[Action:GetGSTModules 14/1082,1]	[Remarks:Successful filter row count: 7]
[Date: 2016-05-26 13:27:11]	[UserID:14/1082]	[IP:10.10.11.1]	[Browser:Chrome - 50.0.2661.102]	[Action:Closing mssql connection]	[Remarks:Success]
[Date: 2016-05-26 13:32:40]	[UserID:14/1082]	[IP:10.10.11.1]	[Browser:Chrome - 50.0.2661.102]	[Action:Making connection to server]	[Remarks:Successful connection to server: S3]
[Date: 2016-05-26 13:32:40]	[UserID:14/1082]	[IP:10.10.11.1]	[Browser:Chrome - 50.0.2661.102]	[Action:GetGSTModules 14/1082,1]	[Remarks:Successful filter row count: 7]
[Date: 2016-05-26 13:32:40]	[UserID:14/1082]	[IP:10.10.11.1]	[Browser:Chrome - 50.0.2661.102]	[Action:Closing mssql connection]	[Remarks:Success]
[Date: 2016-05-26 13:36:34]	[UserID:14/1082]	[IP:10.10.11.1]	[Browser:Chrome - 50.0.2661.102]	[Action:Making connection to server]	[Remarks:Successful connection to server: S3]
[Date: 2016-05-26 13:36:34]	[UserID:14/1082]	[IP:10.10.11.1]	[Browser:Chrome - 50.0.2661.102]	[Action:GetGSTModules 14/1082,1]	[Remarks:Successful filter row count: 7]
[Date: 2016-05-26 13:36:34]	[UserID:14/1082]	[IP:10.10.11.1]	[Browser:Chrome - 50.0.2661.102]	[Action:Closing mssql connection]	[Remarks:Success]
[Date: 2016-05-26 13:45:56]	[UserID:]	[IP:10.10.11.1]	[Browser:Chrome - 50.0.2661.102]	[Action:Making connection to server]	[Remarks:Successful connection to server: S3]
[Date: 2016-05-26 13:45:56]	[UserID:]	[IP:10.10.11.1]	[Browser:Chrome - 50.0.2661.102]	[Action:GetProgramList ]	[Remarks:"no data"]
[Date: 2016-05-26 13:56:13]	[UserID:]	[IP:10.10.11.1]	[Browser:Chrome - 50.0.2661.102]	[Action:Making connection to server]	[Remarks:Successful connection to server: S3]
[Date: 2016-05-26 13:56:13]	[UserID:]	[IP:10.10.11.1]	[Browser:Chrome - 50.0.2661.102]	[Action:GetProgramList ]	[Remarks:"no data"]
[Date: 2016-05-26 13:56:28]	[UserID:06/343]	[IP:10.10.11.1]	[Browser:Chrome - 50.0.2661.102]	[Action:Making connection to server]	[Remarks:Successful connection to server: S3]
[Date: 2016-05-26 13:56:28]	[UserID:06/343]	[IP:10.10.11.1]	[Browser:Chrome - 50.0.2661.102]	[Action:User 06/343]	[Remarks:Success]
[Date: 2016-05-26 13:56:28]	[UserID:06/343]	[IP:10.10.11.1]	[Browser:Chrome - 50.0.2661.102]	[Action:Filtering User : MasterData Username : 06/343]	[Remarks:Successful filter row count: 0]
[Date: 2016-05-26 13:56:28]	[UserID:06/343]	[IP:10.10.11.1]	[Browser:Chrome - 50.0.2661.102]	[Action:Filtering User : MasterData Username : 06/343]	[Remarks:Successful filter row count: 0]
[Date: 2016-05-26 13:56:28]	[UserID:06/343]	[IP:10.10.11.1]	[Browser:Chrome - 50.0.2661.102]	[Action:Filtering User : MasterData Username : 06/343]	[Remarks:Success]
[Date: 2016-05-26 13:56:28]	[UserID:06/343]	[IP:10.10.11.1]	[Browser:Chrome - 50.0.2661.102]	[Action:Closing mssql connection]	[Remarks:Success]
[Date: 2016-05-26 13:56:28]	[UserID:06/343]	[IP:10.10.11.1]	[Browser:Chrome - 50.0.2661.102]	[Action:Making connection to server]	[Remarks:Successful connection to server: S3]
[Date: 2016-05-26 13:56:28]	[UserID:06/343]	[IP:10.10.11.1]	[Browser:Chrome - 50.0.2661.102]	[Action:GetProgramList 06/343]	[Remarks:[{"ID":"1","ProgramIndex":"GST","ProgramName":"GST"}]]
[Date: 2016-05-26 13:56:28]	[UserID:06/343]	[IP:10.10.11.1]	[Browser:Chrome - 50.0.2661.102]	[Action:Making connection to server]	[Remarks:Successful connection to server: S3]
[Date: 2016-05-26 13:56:28]	[UserID:06/343]	[IP:10.10.11.1]	[Browser:Chrome - 50.0.2661.102]	[Action:GetProgramList 06/343]	[Remarks:[{"ID":"1","ProgramIndex":"GST","ProgramName":"GST"}]]
[Date: 2016-05-26 13:56:28]	[UserID:06/343]	[IP:10.10.11.1]	[Browser:Chrome - 50.0.2661.102]	[Action:Making connection to server]	[Remarks:Successful connection to server: S3]
[Date: 2016-05-26 13:56:28]	[UserID:06/343]	[IP:10.10.11.1]	[Browser:Chrome - 50.0.2661.102]	[Action:Filtering User : MasterData Username : 06/343]	[Remarks:Successful filter row count: 1]
[Date: 2016-05-26 13:56:29]	[UserID:06/343]	[IP:10.10.11.1]	[Browser:Chrome - 50.0.2661.102]	[Action:Making connection to server]	[Remarks:Successful connection to server: S3]
[Date: 2016-05-26 13:56:29]	[UserID:06/343]	[IP:10.10.11.1]	[Browser:Chrome - 50.0.2661.102]	[Action:GetGSTModules 06/343,1]	[Remarks:Successful filter row count: 5]
[Date: 2016-05-26 13:56:29]	[UserID:06/343]	[IP:10.10.11.1]	[Browser:Chrome - 50.0.2661.102]	[Action:Closing mssql connection]	[Remarks:Success]
[Date: 2016-05-26 13:56:51]	[UserID:06/343]	[IP:10.10.11.1]	[Browser:Chrome - 50.0.2661.102]	[Action:Making connection to server]	[Remarks:Successful connection to server: S3]
[Date: 2016-05-26 13:56:51]	[UserID:06/343]	[IP:10.10.11.1]	[Browser:Chrome - 50.0.2661.102]	[Action:GetGSTModules 06/343,1]	[Remarks:Successful filter row count: 5]
[Date: 2016-05-26 13:56:51]	[UserID:06/343]	[IP:10.10.11.1]	[Browser:Chrome - 50.0.2661.102]	[Action:Closing mssql connection]	[Remarks:Success]
[Date: 2016-05-26 13:59:35]	[UserID:06/343]	[IP:10.10.11.1]	[Browser:Chrome - 50.0.2661.102]	[Action:Making connection to server]	[Remarks:Successful connection to server: S3]
[Date: 2016-05-26 13:59:35]	[UserID:06/343]	[IP:10.10.11.1]	[Browser:Chrome - 50.0.2661.102]	[Action:GetGSTModules 06/343,1]	[Remarks:Successful filter row count: 5]
[Date: 2016-05-26 13:59:35]	[UserID:06/343]	[IP:10.10.11.1]	[Browser:Chrome - 50.0.2661.102]	[Action:Closing mssql connection]	[Remarks:Success]
[Date: 2016-05-26 14:03:09]	[UserID:06/343]	[IP:10.10.11.1]	[Browser:Chrome - 50.0.2661.102]	[Action:Making connection to server]	[Remarks:Successful connection to server: S3]
[Date: 2016-05-26 14:03:09]	[UserID:06/343]	[IP:10.10.11.1]	[Browser:Chrome - 50.0.2661.102]	[Action:GetGSTModules 06/343,1]	[Remarks:Successful filter row count: 5]
[Date: 2016-05-26 14:03:09]	[UserID:06/343]	[IP:10.10.11.1]	[Browser:Chrome - 50.0.2661.102]	[Action:Closing mssql connection]	[Remarks:Success]
[Date: 2016-05-26 17:01:31]	[UserID:]	[IP:10.10.11.1]	[Browser:Chrome - 50.0.2661.102]	[Action:Making connection to server]	[Remarks:Successful connection to server: S3]
[Date: 2016-05-26 17:01:31]	[UserID:]	[IP:10.10.11.1]	[Browser:Chrome - 50.0.2661.102]	[Action:GetProgramList ]	[Remarks:"no data"]
[Date: 2016-05-26 17:01:33]	[UserID:14/1082]	[IP:10.10.11.1]	[Browser:Chrome - 50.0.2661.102]	[Action:Making connection to server]	[Remarks:Successful connection to server: S3]
[Date: 2016-05-26 17:01:33]	[UserID:14/1082]	[IP:10.10.11.1]	[Browser:Chrome - 50.0.2661.102]	[Action:User 14/1082]	[Remarks:Success]
[Date: 2016-05-26 17:01:33]	[UserID:14/1082]	[IP:10.10.11.1]	[Browser:Chrome - 50.0.2661.102]	[Action:Filtering User : MasterData Username : 14/1082]	[Remarks:Successful filter row count: 0]
[Date: 2016-05-26 17:01:33]	[UserID:14/1082]	[IP:10.10.11.1]	[Browser:Chrome - 50.0.2661.102]	[Action:Filtering User : MasterData Username : 14/1082]	[Remarks:Successful filter row count: 0]
[Date: 2016-05-26 17:01:33]	[UserID:14/1082]	[IP:10.10.11.1]	[Browser:Chrome - 50.0.2661.102]	[Action:Filtering User : MasterData Username : 14/1082]	[Remarks:Success]
[Date: 2016-05-26 17:01:33]	[UserID:14/1082]	[IP:10.10.11.1]	[Browser:Chrome - 50.0.2661.102]	[Action:Closing mssql connection]	[Remarks:Success]
[Date: 2016-05-26 17:01:33]	[UserID:14/1082]	[IP:10.10.11.1]	[Browser:Chrome - 50.0.2661.102]	[Action:Making connection to server]	[Remarks:Successful connection to server: S3]
[Date: 2016-05-26 17:01:33]	[UserID:14/1082]	[IP:10.10.11.1]	[Browser:Chrome - 50.0.2661.102]	[Action:GetProgramList 14/1082]	[Remarks:[{"ID":"1","ProgramIndex":"GST","ProgramName":"GST"}]]
[Date: 2016-05-26 17:01:33]	[UserID:14/1082]	[IP:10.10.11.1]	[Browser:Chrome - 50.0.2661.102]	[Action:Making connection to server]	[Remarks:Successful connection to server: S3]
[Date: 2016-05-26 17:01:33]	[UserID:14/1082]	[IP:10.10.11.1]	[Browser:Chrome - 50.0.2661.102]	[Action:GetProgramList 14/1082]	[Remarks:[{"ID":"1","ProgramIndex":"GST","ProgramName":"GST"}]]
[Date: 2016-05-26 17:01:33]	[UserID:14/1082]	[IP:10.10.11.1]	[Browser:Chrome - 50.0.2661.102]	[Action:Making connection to server]	[Remarks:Successful connection to server: S3]
[Date: 2016-05-26 17:01:33]	[UserID:14/1082]	[IP:10.10.11.1]	[Browser:Chrome - 50.0.2661.102]	[Action:Filtering User : MasterData Username : 14/1082]	[Remarks:Successful filter row count: 1]
[Date: 2016-05-26 17:01:34]	[UserID:14/1082]	[IP:10.10.11.1]	[Browser:Chrome - 50.0.2661.102]	[Action:Making connection to server]	[Remarks:Successful connection to server: S3]
[Date: 2016-05-26 17:01:34]	[UserID:14/1082]	[IP:10.10.11.1]	[Browser:Chrome - 50.0.2661.102]	[Action:GetGSTModules 14/1082,1]	[Remarks:Successful filter row count: 7]
[Date: 2016-05-26 17:01:34]	[UserID:14/1082]	[IP:10.10.11.1]	[Browser:Chrome - 50.0.2661.102]	[Action:Closing mssql connection]	[Remarks:Success]
[Date: 2016-05-26 17:11:17]	[UserID:14/1082]	[IP:10.10.11.1]	[Browser:Chrome - 50.0.2661.102]	[Action:Making connection to server]	[Remarks:Successful connection to server: S3]
[Date: 2016-05-26 17:11:17]	[UserID:14/1082]	[IP:10.10.11.1]	[Browser:Chrome - 50.0.2661.102]	[Action:GetGSTModules 14/1082,1]	[Remarks:Successful filter row count: 7]
[Date: 2016-05-26 17:11:17]	[UserID:14/1082]	[IP:10.10.11.1]	[Browser:Chrome - 50.0.2661.102]	[Action:Closing mssql connection]	[Remarks:Success]
[Date: 2016-05-26 17:16:04]	[UserID:]	[IP:10.10.11.1]	[Browser:Chrome - 50.0.2661.102]	[Action:Making connection to server]	[Remarks:Successful connection to server: S3]
[Date: 2016-05-26 17:16:04]	[UserID:]	[IP:10.10.11.1]	[Browser:Chrome - 50.0.2661.102]	[Action:GetProgramList ]	[Remarks:"no data"]
