[Date: 2019-11-12 01:56:36]	[UserID:]	[IP:10.130.25.202]	[Browser:Firefox - 60.0]	[Action:Making connection to server]	[Remarks:Successful connection to server: S3]
[Date: 2019-11-12 01:56:36]	[UserID:]	[IP:10.130.25.202]	[Browser:Firefox - 60.0]	[Action:GetProgramList ]	[Remarks:"no data"]
[Date: 2019-11-12 02:12:00]	[UserID:]	[IP:10.130.25.202]	[Browser:Firefox - 60.0]	[Action:Making connection to server]	[Remarks:Successful connection to server: S3]
[Date: 2019-11-12 02:12:00]	[UserID:]	[IP:10.130.25.202]	[Browser:Firefox - 60.0]	[Action:GetProgramList ]	[Remarks:"no data"]
[Date: 2019-11-12 08:21:22]	[UserID:]	[IP:10.130.25.202]	[Browser:Chrome - 78.0.3904.97]	[Action:Making connection to server]	[Remarks:Successful connection to server: S3]
[Date: 2019-11-12 08:21:22]	[UserID:]	[IP:10.130.25.202]	[Browser:Chrome - 78.0.3904.97]	[Action:GetProgramList ]	[Remarks:"no data"]
[Date: 2019-11-12 08:27:32]	[UserID:]	[IP:10.128.12.120]	[Browser:Chrome - 78.0.3904.97]	[Action:Making connection to server]	[Remarks:Successful connection to server: S3]
[Date: 2019-11-12 08:27:32]	[UserID:]	[IP:10.128.12.120]	[Browser:Chrome - 78.0.3904.97]	[Action:GetProgramList ]	[Remarks:"no data"]
[Date: 2019-11-12 08:27:39]	[UserID:14/1082]	[IP:10.128.12.120]	[Browser:Chrome - 78.0.3904.97]	[Action:Making connection to server]	[Remarks:Successful connection to server: S3]
[Date: 2019-11-12 08:27:39]	[UserID:14/1082]	[IP:10.128.12.120]	[Browser:Chrome - 78.0.3904.97]	[Action:User 14/1082]	[Remarks:Success]
[Date: 2019-11-12 08:27:39]	[UserID:14/1082]	[IP:10.128.12.120]	[Browser:Chrome - 78.0.3904.97]	[Action:Filtering User : MasterData Username : 14/1082]	[Remarks:Successful filter row count: 0]
[Date: 2019-11-12 08:27:39]	[UserID:14/1082]	[IP:10.128.12.120]	[Browser:Chrome - 78.0.3904.97]	[Action:Filtering User : MasterData Username : 14/1082]	[Remarks:Successful filter row count: 0]
[Date: 2019-11-12 08:27:39]	[UserID:14/1082]	[IP:10.128.12.120]	[Browser:Chrome - 78.0.3904.97]	[Action:Filtering User : MasterData Username : 14/1082]	[Remarks:Success]
[Date: 2019-11-12 08:27:39]	[UserID:14/1082]	[IP:10.128.12.120]	[Browser:Chrome - 78.0.3904.97]	[Action:Closing mssql connection]	[Remarks:Success]
[Date: 2019-11-12 08:27:39]	[UserID:14/1082]	[IP:10.128.12.120]	[Browser:Chrome - 78.0.3904.97]	[Action:Making connection to server]	[Remarks:Successful connection to server: S3]
[Date: 2019-11-12 08:27:39]	[UserID:14/1082]	[IP:10.128.12.120]	[Browser:Chrome - 78.0.3904.97]	[Action:GetProgramList 14/1082]	[Remarks:[{"ID":"1","ProgramIndex":"GST","ProgramName":"GST"}]]
[Date: 2019-11-12 08:27:39]	[UserID:14/1082]	[IP:10.128.12.120]	[Browser:Chrome - 78.0.3904.97]	[Action:Making connection to server]	[Remarks:Successful connection to server: S3]
[Date: 2019-11-12 08:27:39]	[UserID:14/1082]	[IP:10.128.12.120]	[Browser:Chrome - 78.0.3904.97]	[Action:GetProgramList 14/1082]	[Remarks:[{"ID":"1","ProgramIndex":"GST","ProgramName":"GST"}]]
[Date: 2019-11-12 08:27:39]	[UserID:14/1082]	[IP:10.128.12.120]	[Browser:Chrome - 78.0.3904.97]	[Action:Making connection to server]	[Remarks:Successful connection to server: S3]
[Date: 2019-11-12 08:27:39]	[UserID:14/1082]	[IP:10.128.12.120]	[Browser:Chrome - 78.0.3904.97]	[Action:Filtering User : MasterData Username : 14/1082]	[Remarks:Successful filter row count: 1]
[Date: 2019-11-12 08:27:41]	[UserID:14/1082]	[IP:10.128.12.120]	[Browser:Chrome - 78.0.3904.97]	[Action:Making connection to server]	[Remarks:Successful connection to server: S3]
[Date: 2019-11-12 08:27:41]	[UserID:14/1082]	[IP:10.128.12.120]	[Browser:Chrome - 78.0.3904.97]	[Action:GetGSTModules 14/1082,1]	[Remarks:Successful filter row count: 8]
[Date: 2019-11-12 08:27:41]	[UserID:14/1082]	[IP:10.128.12.120]	[Browser:Chrome - 78.0.3904.97]	[Action:Closing mssql connection]	[Remarks:Success]
[Date: 2019-11-12 09:53:45]	[UserID:14/1082]	[IP:10.128.12.120]	[Browser:Chrome - 78.0.3904.97]	[Action:Making connection to server]	[Remarks:Successful connection to server: S3]
[Date: 2019-11-12 09:53:45]	[UserID:14/1082]	[IP:10.128.12.120]	[Browser:Chrome - 78.0.3904.97]	[Action:GetGSTModules 14/1082,1]	[Remarks:Successful filter row count: 8]
[Date: 2019-11-12 09:53:45]	[UserID:14/1082]	[IP:10.128.12.120]	[Browser:Chrome - 78.0.3904.97]	[Action:Closing mssql connection]	[Remarks:Success]
[Date: 2019-11-12 09:57:33]	[UserID:]	[IP:10.128.81.219]	[Browser:Chrome - 78.0.3904.97]	[Action:Making connection to server]	[Remarks:Successful connection to server: S3]
[Date: 2019-11-12 09:57:33]	[UserID:]	[IP:10.128.81.219]	[Browser:Chrome - 78.0.3904.97]	[Action:GetProgramList ]	[Remarks:"no data"]
[Date: 2019-11-12 09:57:42]	[UserID:17/1257]	[IP:10.128.81.219]	[Browser:Chrome - 78.0.3904.97]	[Action:Making connection to server]	[Remarks:Successful connection to server: S3]
[Date: 2019-11-12 09:57:42]	[UserID:17/1257]	[IP:10.128.81.219]	[Browser:Chrome - 78.0.3904.97]	[Action:User 17/1257]	[Remarks:Success]
[Date: 2019-11-12 09:57:42]	[UserID:17/1257]	[IP:10.128.81.219]	[Browser:Chrome - 78.0.3904.97]	[Action:Filtering User : MasterData Username : 17/1257]	[Remarks:Successful filter row count: 0]
[Date: 2019-11-12 09:57:42]	[UserID:17/1257]	[IP:10.128.81.219]	[Browser:Chrome - 78.0.3904.97]	[Action:Filtering User : MasterData Username : 17/1257]	[Remarks:Successful filter row count: 0]
[Date: 2019-11-12 09:57:42]	[UserID:17/1257]	[IP:10.128.81.219]	[Browser:Chrome - 78.0.3904.97]	[Action:Filtering User : MasterData Username : 17/1257]	[Remarks:Success]
[Date: 2019-11-12 09:57:42]	[UserID:17/1257]	[IP:10.128.81.219]	[Browser:Chrome - 78.0.3904.97]	[Action:Closing mssql connection]	[Remarks:Success]
[Date: 2019-11-12 09:57:42]	[UserID:17/1257]	[IP:10.128.81.219]	[Browser:Chrome - 78.0.3904.97]	[Action:Making connection to server]	[Remarks:Successful connection to server: S3]
[Date: 2019-11-12 09:57:42]	[UserID:17/1257]	[IP:10.128.81.219]	[Browser:Chrome - 78.0.3904.97]	[Action:GetProgramList 17/1257]	[Remarks:[{"ID":"1","ProgramIndex":"GST","ProgramName":"GST"}]]
[Date: 2019-11-12 09:57:42]	[UserID:17/1257]	[IP:10.128.81.219]	[Browser:Chrome - 78.0.3904.97]	[Action:Making connection to server]	[Remarks:Successful connection to server: S3]
[Date: 2019-11-12 09:57:42]	[UserID:17/1257]	[IP:10.128.81.219]	[Browser:Chrome - 78.0.3904.97]	[Action:GetProgramList 17/1257]	[Remarks:[{"ID":"1","ProgramIndex":"GST","ProgramName":"GST"}]]
[Date: 2019-11-12 09:57:42]	[UserID:17/1257]	[IP:10.128.81.219]	[Browser:Chrome - 78.0.3904.97]	[Action:Making connection to server]	[Remarks:Successful connection to server: S3]
[Date: 2019-11-12 09:57:42]	[UserID:17/1257]	[IP:10.128.81.219]	[Browser:Chrome - 78.0.3904.97]	[Action:Filtering User : MasterData Username : 17/1257]	[Remarks:Successful filter row count: 1]
[Date: 2019-11-12 09:57:42]	[UserID:17/1257]	[IP:10.128.81.219]	[Browser:Chrome - 78.0.3904.97]	[Action:Making connection to server]	[Remarks:Successful connection to server: S3]
[Date: 2019-11-12 09:57:42]	[UserID:17/1257]	[IP:10.128.81.219]	[Browser:Chrome - 78.0.3904.97]	[Action:GetGSTModules 17/1257,1]	[Remarks:Successful filter row count: 5]
[Date: 2019-11-12 09:57:42]	[UserID:17/1257]	[IP:10.128.81.219]	[Browser:Chrome - 78.0.3904.97]	[Action:Closing mssql connection]	[Remarks:Success]
[Date: 2019-11-12 09:58:11]	[UserID:17/1257]	[IP:10.128.81.219]	[Browser:Chrome - 78.0.3904.97]	[Action:Making connection to server]	[Remarks:Successful connection to server: S3]
[Date: 2019-11-12 09:58:11]	[UserID:17/1257]	[IP:10.128.81.219]	[Browser:Chrome - 78.0.3904.97]	[Action:GetGSTModules 17/1257,1]	[Remarks:Successful filter row count: 5]
[Date: 2019-11-12 09:58:11]	[UserID:17/1257]	[IP:10.128.81.219]	[Browser:Chrome - 78.0.3904.97]	[Action:Closing mssql connection]	[Remarks:Success]
[Date: 2019-11-12 09:59:17]	[UserID:14/1082]	[IP:10.128.12.120]	[Browser:Chrome - 78.0.3904.97]	[Action:Making connection to server]	[Remarks:Successful connection to server: S3]
[Date: 2019-11-12 09:59:17]	[UserID:14/1082]	[IP:10.128.12.120]	[Browser:Chrome - 78.0.3904.97]	[Action:GetGSTModules 14/1082,1]	[Remarks:Successful filter row count: 8]
[Date: 2019-11-12 09:59:17]	[UserID:14/1082]	[IP:10.128.12.120]	[Browser:Chrome - 78.0.3904.97]	[Action:Closing mssql connection]	[Remarks:Success]
[Date: 2019-11-12 13:40:48]	[UserID:14/1082]	[IP:10.128.12.120]	[Browser:Chrome - 78.0.3904.97]	[Action:Making connection to server]	[Remarks:Successful connection to server: S3]
[Date: 2019-11-12 13:40:48]	[UserID:14/1082]	[IP:10.128.12.120]	[Browser:Chrome - 78.0.3904.97]	[Action:GetGSTModules 14/1082,1]	[Remarks:Successful filter row count: 8]
[Date: 2019-11-12 13:40:48]	[UserID:14/1082]	[IP:10.128.12.120]	[Browser:Chrome - 78.0.3904.97]	[Action:Closing mssql connection]	[Remarks:Success]
[Date: 2019-11-12 15:07:56]	[UserID:14/1082]	[IP:10.128.12.120]	[Browser:Chrome - 78.0.3904.97]	[Action:Making connection to server]	[Remarks:Successful connection to server: S3]
[Date: 2019-11-12 15:07:56]	[UserID:14/1082]	[IP:10.128.12.120]	[Browser:Chrome - 78.0.3904.97]	[Action:GetGSTModules 14/1082,1]	[Remarks:Successful filter row count: 8]
[Date: 2019-11-12 15:07:56]	[UserID:14/1082]	[IP:10.128.12.120]	[Browser:Chrome - 78.0.3904.97]	[Action:Closing mssql connection]	[Remarks:Success]
[Date: 2019-11-12 15:13:57]	[UserID:14/1082]	[IP:10.128.12.120]	[Browser:Chrome - 78.0.3904.97]	[Action:Making connection to server]	[Remarks:Successful connection to server: S3]
[Date: 2019-11-12 15:13:57]	[UserID:14/1082]	[IP:10.128.12.120]	[Browser:Chrome - 78.0.3904.97]	[Action:GetGSTModules 14/1082,1]	[Remarks:Successful filter row count: 8]
[Date: 2019-11-12 15:13:57]	[UserID:14/1082]	[IP:10.128.12.120]	[Browser:Chrome - 78.0.3904.97]	[Action:Closing mssql connection]	[Remarks:Success]
[Date: 2019-11-12 16:36:46]	[UserID:14/1082]	[IP:10.128.12.120]	[Browser:Chrome - 78.0.3904.97]	[Action:Making connection to server]	[Remarks:Successful connection to server: S3]
[Date: 2019-11-12 16:36:46]	[UserID:14/1082]	[IP:10.128.12.120]	[Browser:Chrome - 78.0.3904.97]	[Action:GetGSTModules 14/1082,1]	[Remarks:Successful filter row count: 8]
[Date: 2019-11-12 16:36:46]	[UserID:14/1082]	[IP:10.128.12.120]	[Browser:Chrome - 78.0.3904.97]	[Action:Closing mssql connection]	[Remarks:Success]
[Date: 2019-11-12 16:45:40]	[UserID:14/1082]	[IP:10.128.12.120]	[Browser:Chrome - 78.0.3904.97]	[Action:Making connection to server]	[Remarks:Successful connection to server: S3]
[Date: 2019-11-12 16:45:40]	[UserID:14/1082]	[IP:10.128.12.120]	[Browser:Chrome - 78.0.3904.97]	[Action:GetGSTModules 14/1082,1]	[Remarks:Successful filter row count: 8]
[Date: 2019-11-12 16:45:40]	[UserID:14/1082]	[IP:10.128.12.120]	[Browser:Chrome - 78.0.3904.97]	[Action:Closing mssql connection]	[Remarks:Success]
[Date: 2019-11-12 23:04:57]	[UserID:]	[IP:10.130.25.202]	[Browser:Firefox - 70.0]	[Action:Making connection to server]	[Remarks:Successful connection to server: S3]
[Date: 2019-11-12 23:04:57]	[UserID:]	[IP:10.130.25.202]	[Browser:Firefox - 70.0]	[Action:GetProgramList ]	[Remarks:"no data"]
