[Date: 2016-08-12 09:13:41]	[UserID:]	[IP:10.10.11.1]	[Browser:Chrome - 52.0.2743.116]	[Action:Making connection to server]	[Remarks:Successful connection to server: S3]
[Date: 2016-08-12 09:13:41]	[UserID:]	[IP:10.10.11.1]	[Browser:Chrome - 52.0.2743.116]	[Action:GetProgramList ]	[Remarks:"no data"]
[Date: 2016-08-12 09:13:49]	[UserID:08/504]	[IP:10.10.11.1]	[Browser:Chrome - 52.0.2743.116]	[Action:Making connection to server]	[Remarks:Successful connection to server: S3]
[Date: 2016-08-12 09:13:49]	[UserID:08/504]	[IP:10.10.11.1]	[Browser:Chrome - 52.0.2743.116]	[Action:User 08/504]	[Remarks:Success]
[Date: 2016-08-12 09:13:49]	[UserID:08/504]	[IP:10.10.11.1]	[Browser:Chrome - 52.0.2743.116]	[Action:Filtering User : MasterData Username : 08/504]	[Remarks:Successful filter row count: 0]
[Date: 2016-08-12 09:13:49]	[UserID:08/504]	[IP:10.10.11.1]	[Browser:Chrome - 52.0.2743.116]	[Action:Filtering User : MasterData Username : 08/504]	[Remarks:Successful filter row count: 0]
[Date: 2016-08-12 09:13:49]	[UserID:08/504]	[IP:10.10.11.1]	[Browser:Chrome - 52.0.2743.116]	[Action:Filtering User : MasterData Username : 08/504]	[Remarks:Success]
[Date: 2016-08-12 09:13:49]	[UserID:08/504]	[IP:10.10.11.1]	[Browser:Chrome - 52.0.2743.116]	[Action:Closing mssql connection]	[Remarks:Success]
[Date: 2016-08-12 09:13:49]	[UserID:08/504]	[IP:10.10.11.1]	[Browser:Chrome - 52.0.2743.116]	[Action:Making connection to server]	[Remarks:Successful connection to server: S3]
[Date: 2016-08-12 09:13:49]	[UserID:08/504]	[IP:10.10.11.1]	[Browser:Chrome - 52.0.2743.116]	[Action:GetProgramList 08/504]	[Remarks:[{"ID":"1","ProgramIndex":"GST","ProgramName":"GST"}]]
[Date: 2016-08-12 09:13:49]	[UserID:08/504]	[IP:10.10.11.1]	[Browser:Chrome - 52.0.2743.116]	[Action:Making connection to server]	[Remarks:Successful connection to server: S3]
[Date: 2016-08-12 09:13:49]	[UserID:08/504]	[IP:10.10.11.1]	[Browser:Chrome - 52.0.2743.116]	[Action:GetProgramList 08/504]	[Remarks:[{"ID":"1","ProgramIndex":"GST","ProgramName":"GST"}]]
[Date: 2016-08-12 09:13:49]	[UserID:08/504]	[IP:10.10.11.1]	[Browser:Chrome - 52.0.2743.116]	[Action:Making connection to server]	[Remarks:Successful connection to server: S3]
[Date: 2016-08-12 09:13:49]	[UserID:08/504]	[IP:10.10.11.1]	[Browser:Chrome - 52.0.2743.116]	[Action:Filtering User : MasterData Username : 08/504]	[Remarks:Successful filter row count: 1]
[Date: 2016-08-12 09:13:50]	[UserID:08/504]	[IP:10.10.11.1]	[Browser:Chrome - 52.0.2743.116]	[Action:Making connection to server]	[Remarks:Successful connection to server: S3]
[Date: 2016-08-12 09:13:50]	[UserID:08/504]	[IP:10.10.11.1]	[Browser:Chrome - 52.0.2743.116]	[Action:GetGSTModules 08/504,1]	[Remarks:Successful filter row count: 5]
[Date: 2016-08-12 09:13:50]	[UserID:08/504]	[IP:10.10.11.1]	[Browser:Chrome - 52.0.2743.116]	[Action:Closing mssql connection]	[Remarks:Success]
[Date: 2016-08-12 09:21:04]	[UserID:08/504]	[IP:10.10.11.1]	[Browser:Chrome - 52.0.2743.116]	[Action:Making connection to server]	[Remarks:Successful connection to server: S3]
[Date: 2016-08-12 09:21:04]	[UserID:08/504]	[IP:10.10.11.1]	[Browser:Chrome - 52.0.2743.116]	[Action:GetGSTModules 08/504,1]	[Remarks:Successful filter row count: 5]
[Date: 2016-08-12 09:21:04]	[UserID:08/504]	[IP:10.10.11.1]	[Browser:Chrome - 52.0.2743.116]	[Action:Closing mssql connection]	[Remarks:Success]
[Date: 2016-08-12 09:22:40]	[UserID:08/504]	[IP:10.10.11.1]	[Browser:Chrome - 52.0.2743.116]	[Action:Making connection to server]	[Remarks:Successful connection to server: S3]
[Date: 2016-08-12 09:22:41]	[UserID:08/504]	[IP:10.10.11.1]	[Browser:Chrome - 52.0.2743.116]	[Action:GetGSTModules 08/504,1]	[Remarks:Successful filter row count: 5]
[Date: 2016-08-12 09:22:41]	[UserID:08/504]	[IP:10.10.11.1]	[Browser:Chrome - 52.0.2743.116]	[Action:Closing mssql connection]	[Remarks:Success]
[Date: 2016-08-12 09:25:19]	[UserID:08/504]	[IP:10.10.11.1]	[Browser:Chrome - 52.0.2743.116]	[Action:Making connection to server]	[Remarks:Successful connection to server: S3]
[Date: 2016-08-12 09:25:19]	[UserID:08/504]	[IP:10.10.11.1]	[Browser:Chrome - 52.0.2743.116]	[Action:GetGSTModules 08/504,1]	[Remarks:Successful filter row count: 5]
[Date: 2016-08-12 09:25:19]	[UserID:08/504]	[IP:10.10.11.1]	[Browser:Chrome - 52.0.2743.116]	[Action:Closing mssql connection]	[Remarks:Success]
[Date: 2016-08-12 09:41:42]	[UserID:08/504]	[IP:10.10.11.1]	[Browser:Chrome - 52.0.2743.116]	[Action:Making connection to server]	[Remarks:Successful connection to server: S3]
[Date: 2016-08-12 09:41:42]	[UserID:08/504]	[IP:10.10.11.1]	[Browser:Chrome - 52.0.2743.116]	[Action:GetGSTModules 08/504,1]	[Remarks:Successful filter row count: 5]
[Date: 2016-08-12 09:41:42]	[UserID:08/504]	[IP:10.10.11.1]	[Browser:Chrome - 52.0.2743.116]	[Action:Closing mssql connection]	[Remarks:Success]
[Date: 2016-08-12 09:46:12]	[UserID:08/504]	[IP:10.10.11.1]	[Browser:Chrome - 52.0.2743.116]	[Action:Making connection to server]	[Remarks:Successful connection to server: S3]
[Date: 2016-08-12 09:46:12]	[UserID:08/504]	[IP:10.10.11.1]	[Browser:Chrome - 52.0.2743.116]	[Action:GetGSTModules 08/504,1]	[Remarks:Successful filter row count: 5]
[Date: 2016-08-12 09:46:12]	[UserID:08/504]	[IP:10.10.11.1]	[Browser:Chrome - 52.0.2743.116]	[Action:Closing mssql connection]	[Remarks:Success]
[Date: 2016-08-12 09:54:02]	[UserID:08/504]	[IP:10.10.11.1]	[Browser:Chrome - 52.0.2743.116]	[Action:Making connection to server]	[Remarks:Successful connection to server: S3]
[Date: 2016-08-12 09:54:02]	[UserID:08/504]	[IP:10.10.11.1]	[Browser:Chrome - 52.0.2743.116]	[Action:GetGSTModules 08/504,1]	[Remarks:Successful filter row count: 5]
[Date: 2016-08-12 09:54:02]	[UserID:08/504]	[IP:10.10.11.1]	[Browser:Chrome - 52.0.2743.116]	[Action:Closing mssql connection]	[Remarks:Success]
[Date: 2016-08-12 09:54:22]	[UserID:08/504]	[IP:10.10.11.1]	[Browser:Chrome - 52.0.2743.116]	[Action:Making connection to server]	[Remarks:Successful connection to server: S3]
[Date: 2016-08-12 09:54:22]	[UserID:08/504]	[IP:10.10.11.1]	[Browser:Chrome - 52.0.2743.116]	[Action:GetGSTModules 08/504,1]	[Remarks:Successful filter row count: 5]
[Date: 2016-08-12 09:54:22]	[UserID:08/504]	[IP:10.10.11.1]	[Browser:Chrome - 52.0.2743.116]	[Action:Closing mssql connection]	[Remarks:Success]
[Date: 2016-08-12 10:23:56]	[UserID:08/504]	[IP:10.10.11.1]	[Browser:Chrome - 52.0.2743.116]	[Action:Making connection to server]	[Remarks:Successful connection to server: S3]
[Date: 2016-08-12 10:23:56]	[UserID:08/504]	[IP:10.10.11.1]	[Browser:Chrome - 52.0.2743.116]	[Action:GetGSTModules 08/504,1]	[Remarks:Successful filter row count: 5]
[Date: 2016-08-12 10:23:56]	[UserID:08/504]	[IP:10.10.11.1]	[Browser:Chrome - 52.0.2743.116]	[Action:Closing mssql connection]	[Remarks:Success]
[Date: 2016-08-12 10:31:19]	[UserID:]	[IP:10.10.11.1]	[Browser:Chrome - 52.0.2743.116]	[Action:Making connection to server]	[Remarks:Successful connection to server: S3]
[Date: 2016-08-12 10:31:19]	[UserID:]	[IP:10.10.11.1]	[Browser:Chrome - 52.0.2743.116]	[Action:GetProgramList ]	[Remarks:"no data"]
[Date: 2016-08-12 10:31:21]	[UserID:10/660]	[IP:10.10.11.1]	[Browser:Chrome - 52.0.2743.116]	[Action:Making connection to server]	[Remarks:Successful connection to server: S3]
[Date: 2016-08-12 10:31:21]	[UserID:10/660]	[IP:10.10.11.1]	[Browser:Chrome - 52.0.2743.116]	[Action:User 10/660]	[Remarks:Success]
[Date: 2016-08-12 10:31:21]	[UserID:10/660]	[IP:10.10.11.1]	[Browser:Chrome - 52.0.2743.116]	[Action:Filtering User : MasterData Username : 10/660]	[Remarks:Successful filter row count: 0]
[Date: 2016-08-12 10:31:21]	[UserID:10/660]	[IP:10.10.11.1]	[Browser:Chrome - 52.0.2743.116]	[Action:Filtering User : MasterData Username : 10/660]	[Remarks:Successful filter row count: 0]
[Date: 2016-08-12 10:31:21]	[UserID:10/660]	[IP:10.10.11.1]	[Browser:Chrome - 52.0.2743.116]	[Action:Filtering User : MasterData Username : 10/660]	[Remarks:Success]
[Date: 2016-08-12 10:31:21]	[UserID:10/660]	[IP:10.10.11.1]	[Browser:Chrome - 52.0.2743.116]	[Action:Closing mssql connection]	[Remarks:Success]
[Date: 2016-08-12 10:31:22]	[UserID:10/660]	[IP:10.10.11.1]	[Browser:Chrome - 52.0.2743.116]	[Action:Making connection to server]	[Remarks:Successful connection to server: S3]
[Date: 2016-08-12 10:31:22]	[UserID:10/660]	[IP:10.10.11.1]	[Browser:Chrome - 52.0.2743.116]	[Action:GetProgramList 10/660]	[Remarks:[{"ID":"1","ProgramIndex":"GST","ProgramName":"GST"}]]
[Date: 2016-08-12 10:31:22]	[UserID:10/660]	[IP:10.10.11.1]	[Browser:Chrome - 52.0.2743.116]	[Action:Making connection to server]	[Remarks:Successful connection to server: S3]
[Date: 2016-08-12 10:31:22]	[UserID:10/660]	[IP:10.10.11.1]	[Browser:Chrome - 52.0.2743.116]	[Action:GetProgramList 10/660]	[Remarks:[{"ID":"1","ProgramIndex":"GST","ProgramName":"GST"}]]
[Date: 2016-08-12 10:31:22]	[UserID:10/660]	[IP:10.10.11.1]	[Browser:Chrome - 52.0.2743.116]	[Action:Making connection to server]	[Remarks:Successful connection to server: S3]
[Date: 2016-08-12 10:31:22]	[UserID:10/660]	[IP:10.10.11.1]	[Browser:Chrome - 52.0.2743.116]	[Action:Filtering User : MasterData Username : 10/660]	[Remarks:Successful filter row count: 1]
[Date: 2016-08-12 10:31:22]	[UserID:10/660]	[IP:10.10.11.1]	[Browser:Chrome - 52.0.2743.116]	[Action:Making connection to server]	[Remarks:Successful connection to server: S3]
[Date: 2016-08-12 10:31:22]	[UserID:10/660]	[IP:10.10.11.1]	[Browser:Chrome - 52.0.2743.116]	[Action:GetGSTModules 10/660,1]	[Remarks:Successful filter row count: 3]
[Date: 2016-08-12 10:31:22]	[UserID:10/660]	[IP:10.10.11.1]	[Browser:Chrome - 52.0.2743.116]	[Action:Closing mssql connection]	[Remarks:Success]
[Date: 2016-08-12 10:33:15]	[UserID:08/504]	[IP:10.10.11.1]	[Browser:Chrome - 52.0.2743.116]	[Action:Making connection to server]	[Remarks:Successful connection to server: S3]
[Date: 2016-08-12 10:33:15]	[UserID:08/504]	[IP:10.10.11.1]	[Browser:Chrome - 52.0.2743.116]	[Action:GetGSTModules 08/504,1]	[Remarks:Successful filter row count: 5]
[Date: 2016-08-12 10:33:15]	[UserID:08/504]	[IP:10.10.11.1]	[Browser:Chrome - 52.0.2743.116]	[Action:Closing mssql connection]	[Remarks:Success]
[Date: 2016-08-12 10:35:33]	[UserID:10/660]	[IP:10.10.11.1]	[Browser:Chrome - 52.0.2743.116]	[Action:Making connection to server]	[Remarks:Successful connection to server: S3]
[Date: 2016-08-12 10:35:33]	[UserID:10/660]	[IP:10.10.11.1]	[Browser:Chrome - 52.0.2743.116]	[Action:GetGSTModules 10/660,1]	[Remarks:Successful filter row count: 3]
[Date: 2016-08-12 10:35:33]	[UserID:10/660]	[IP:10.10.11.1]	[Browser:Chrome - 52.0.2743.116]	[Action:Closing mssql connection]	[Remarks:Success]
[Date: 2016-08-12 10:37:45]	[UserID:10/660]	[IP:10.10.11.1]	[Browser:Chrome - 52.0.2743.116]	[Action:Making connection to server]	[Remarks:Successful connection to server: S3]
[Date: 2016-08-12 10:37:45]	[UserID:10/660]	[IP:10.10.11.1]	[Browser:Chrome - 52.0.2743.116]	[Action:GetGSTModules 10/660,1]	[Remarks:Successful filter row count: 3]
[Date: 2016-08-12 10:37:45]	[UserID:10/660]	[IP:10.10.11.1]	[Browser:Chrome - 52.0.2743.116]	[Action:Closing mssql connection]	[Remarks:Success]
[Date: 2016-08-12 10:50:38]	[UserID:10/660]	[IP:10.10.11.1]	[Browser:Chrome - 52.0.2743.116]	[Action:Making connection to server]	[Remarks:Successful connection to server: S3]
[Date: 2016-08-12 10:50:40]	[UserID:10/660]	[IP:10.10.11.1]	[Browser:Chrome - 52.0.2743.116]	[Action:GetGSTModules 10/660,1]	[Remarks:Successful filter row count: 3]
[Date: 2016-08-12 10:50:40]	[UserID:10/660]	[IP:10.10.11.1]	[Browser:Chrome - 52.0.2743.116]	[Action:Closing mssql connection]	[Remarks:Success]
[Date: 2016-08-12 10:51:04]	[UserID:08/504]	[IP:10.10.11.1]	[Browser:Chrome - 52.0.2743.116]	[Action:Making connection to server]	[Remarks:Successful connection to server: S3]
[Date: 2016-08-12 10:51:04]	[UserID:08/504]	[IP:10.10.11.1]	[Browser:Chrome - 52.0.2743.116]	[Action:GetGSTModules 08/504,1]	[Remarks:Successful filter row count: 5]
[Date: 2016-08-12 10:51:04]	[UserID:08/504]	[IP:10.10.11.1]	[Browser:Chrome - 52.0.2743.116]	[Action:Closing mssql connection]	[Remarks:Success]
[Date: 2016-08-12 10:57:42]	[UserID:]	[IP:10.10.11.1]	[Browser:Chrome - 52.0.2743.116]	[Action:Making connection to server]	[Remarks:Successful connection to server: S3]
[Date: 2016-08-12 10:57:43]	[UserID:]	[IP:10.10.11.1]	[Browser:Chrome - 52.0.2743.116]	[Action:GetProgramList ]	[Remarks:"no data"]
[Date: 2016-08-12 11:19:30]	[UserID:]	[IP:10.10.11.1]	[Browser:Chrome - 52.0.2743.116]	[Action:Making connection to server]	[Remarks:Successful connection to server: S3]
[Date: 2016-08-12 11:19:30]	[UserID:]	[IP:10.10.11.1]	[Browser:Chrome - 52.0.2743.116]	[Action:GetProgramList ]	[Remarks:"no data"]
[Date: 2016-08-12 11:19:38]	[UserID:10/660]	[IP:10.10.11.1]	[Browser:Chrome - 52.0.2743.116]	[Action:Making connection to server]	[Remarks:Successful connection to server: S3]
[Date: 2016-08-12 11:19:38]	[UserID:10/660]	[IP:10.10.11.1]	[Browser:Chrome - 52.0.2743.116]	[Action:User 10/660]	[Remarks:Success]
[Date: 2016-08-12 11:19:38]	[UserID:10/660]	[IP:10.10.11.1]	[Browser:Chrome - 52.0.2743.116]	[Action:Filtering User : MasterData Username : 10/660]	[Remarks:Successful filter row count: 0]
[Date: 2016-08-12 11:19:38]	[UserID:10/660]	[IP:10.10.11.1]	[Browser:Chrome - 52.0.2743.116]	[Action:Filtering User : MasterData Username : 10/660]	[Remarks:Successful filter row count: 0]
[Date: 2016-08-12 11:19:38]	[UserID:10/660]	[IP:10.10.11.1]	[Browser:Chrome - 52.0.2743.116]	[Action:Filtering User : MasterData Username : 10/660]	[Remarks:Success]
[Date: 2016-08-12 11:19:38]	[UserID:10/660]	[IP:10.10.11.1]	[Browser:Chrome - 52.0.2743.116]	[Action:Closing mssql connection]	[Remarks:Success]
[Date: 2016-08-12 11:19:39]	[UserID:10/660]	[IP:10.10.11.1]	[Browser:Chrome - 52.0.2743.116]	[Action:Making connection to server]	[Remarks:Successful connection to server: S3]
[Date: 2016-08-12 11:19:39]	[UserID:10/660]	[IP:10.10.11.1]	[Browser:Chrome - 52.0.2743.116]	[Action:GetProgramList 10/660]	[Remarks:[{"ID":"1","ProgramIndex":"GST","ProgramName":"GST"}]]
[Date: 2016-08-12 11:19:39]	[UserID:10/660]	[IP:10.10.11.1]	[Browser:Chrome - 52.0.2743.116]	[Action:Making connection to server]	[Remarks:Successful connection to server: S3]
[Date: 2016-08-12 11:19:39]	[UserID:10/660]	[IP:10.10.11.1]	[Browser:Chrome - 52.0.2743.116]	[Action:GetProgramList 10/660]	[Remarks:[{"ID":"1","ProgramIndex":"GST","ProgramName":"GST"}]]
[Date: 2016-08-12 11:19:39]	[UserID:10/660]	[IP:10.10.11.1]	[Browser:Chrome - 52.0.2743.116]	[Action:Making connection to server]	[Remarks:Successful connection to server: S3]
[Date: 2016-08-12 11:19:39]	[UserID:10/660]	[IP:10.10.11.1]	[Browser:Chrome - 52.0.2743.116]	[Action:Filtering User : MasterData Username : 10/660]	[Remarks:Successful filter row count: 1]
[Date: 2016-08-12 11:19:39]	[UserID:10/660]	[IP:10.10.11.1]	[Browser:Chrome - 52.0.2743.116]	[Action:Making connection to server]	[Remarks:Successful connection to server: S3]
[Date: 2016-08-12 11:19:39]	[UserID:10/660]	[IP:10.10.11.1]	[Browser:Chrome - 52.0.2743.116]	[Action:GetGSTModules 10/660,1]	[Remarks:Successful filter row count: 3]
[Date: 2016-08-12 11:19:39]	[UserID:10/660]	[IP:10.10.11.1]	[Browser:Chrome - 52.0.2743.116]	[Action:Closing mssql connection]	[Remarks:Success]
[Date: 2016-08-12 11:20:03]	[UserID:]	[IP:10.10.11.1]	[Browser:Chrome - 52.0.2743.116]	[Action:Making connection to server]	[Remarks:Successful connection to server: S3]
[Date: 2016-08-12 11:20:03]	[UserID:]	[IP:10.10.11.1]	[Browser:Chrome - 52.0.2743.116]	[Action:GetProgramList ]	[Remarks:"no data"]
[Date: 2016-08-12 11:27:00]	[UserID:]	[IP:10.10.11.1]	[Browser:Chrome - 52.0.2743.116]	[Action:Making connection to server]	[Remarks:Successful connection to server: S3]
[Date: 2016-08-12 11:27:00]	[UserID:]	[IP:10.10.11.1]	[Browser:Chrome - 52.0.2743.116]	[Action:GetProgramList ]	[Remarks:"no data"]
[Date: 2016-08-12 11:27:02]	[UserID:10/660]	[IP:10.10.11.1]	[Browser:Chrome - 52.0.2743.116]	[Action:Making connection to server]	[Remarks:Successful connection to server: S3]
[Date: 2016-08-12 11:27:02]	[UserID:10/660]	[IP:10.10.11.1]	[Browser:Chrome - 52.0.2743.116]	[Action:User 10/660]	[Remarks:Success]
[Date: 2016-08-12 11:27:02]	[UserID:10/660]	[IP:10.10.11.1]	[Browser:Chrome - 52.0.2743.116]	[Action:Filtering User : MasterData Username : 10/660]	[Remarks:Successful filter row count: 0]
[Date: 2016-08-12 11:27:02]	[UserID:10/660]	[IP:10.10.11.1]	[Browser:Chrome - 52.0.2743.116]	[Action:Filtering User : MasterData Username : 10/660]	[Remarks:Successful filter row count: 0]
[Date: 2016-08-12 11:27:02]	[UserID:10/660]	[IP:10.10.11.1]	[Browser:Chrome - 52.0.2743.116]	[Action:Filtering User : MasterData Username : 10/660]	[Remarks:Success]
[Date: 2016-08-12 11:27:02]	[UserID:10/660]	[IP:10.10.11.1]	[Browser:Chrome - 52.0.2743.116]	[Action:Closing mssql connection]	[Remarks:Success]
[Date: 2016-08-12 11:27:03]	[UserID:10/660]	[IP:10.10.11.1]	[Browser:Chrome - 52.0.2743.116]	[Action:Making connection to server]	[Remarks:Successful connection to server: S3]
[Date: 2016-08-12 11:27:03]	[UserID:10/660]	[IP:10.10.11.1]	[Browser:Chrome - 52.0.2743.116]	[Action:GetProgramList 10/660]	[Remarks:[{"ID":"1","ProgramIndex":"GST","ProgramName":"GST"}]]
[Date: 2016-08-12 11:27:03]	[UserID:10/660]	[IP:10.10.11.1]	[Browser:Chrome - 52.0.2743.116]	[Action:Making connection to server]	[Remarks:Successful connection to server: S3]
[Date: 2016-08-12 11:27:03]	[UserID:10/660]	[IP:10.10.11.1]	[Browser:Chrome - 52.0.2743.116]	[Action:GetProgramList 10/660]	[Remarks:[{"ID":"1","ProgramIndex":"GST","ProgramName":"GST"}]]
[Date: 2016-08-12 11:27:03]	[UserID:10/660]	[IP:10.10.11.1]	[Browser:Chrome - 52.0.2743.116]	[Action:Making connection to server]	[Remarks:Successful connection to server: S3]
[Date: 2016-08-12 11:27:03]	[UserID:10/660]	[IP:10.10.11.1]	[Browser:Chrome - 52.0.2743.116]	[Action:Filtering User : MasterData Username : 10/660]	[Remarks:Successful filter row count: 1]
[Date: 2016-08-12 11:27:03]	[UserID:10/660]	[IP:10.10.11.1]	[Browser:Chrome - 52.0.2743.116]	[Action:Making connection to server]	[Remarks:Successful connection to server: S3]
[Date: 2016-08-12 11:27:03]	[UserID:10/660]	[IP:10.10.11.1]	[Browser:Chrome - 52.0.2743.116]	[Action:GetGSTModules 10/660,1]	[Remarks:Successful filter row count: 3]
[Date: 2016-08-12 11:27:03]	[UserID:10/660]	[IP:10.10.11.1]	[Browser:Chrome - 52.0.2743.116]	[Action:Closing mssql connection]	[Remarks:Success]
[Date: 2016-08-12 11:30:33]	[UserID:]	[IP:10.10.11.1]	[Browser:Chrome - 52.0.2743.116]	[Action:Making connection to server]	[Remarks:Successful connection to server: S3]
[Date: 2016-08-12 11:30:33]	[UserID:]	[IP:10.10.11.1]	[Browser:Chrome - 52.0.2743.116]	[Action:GetProgramList ]	[Remarks:"no data"]
[Date: 2016-08-12 11:30:43]	[UserID:08/504]	[IP:10.10.11.1]	[Browser:Chrome - 52.0.2743.116]	[Action:Making connection to server]	[Remarks:Successful connection to server: S3]
[Date: 2016-08-12 11:30:43]	[UserID:08/504]	[IP:10.10.11.1]	[Browser:Chrome - 52.0.2743.116]	[Action:GetGSTModules 08/504,1]	[Remarks:Successful filter row count: 5]
[Date: 2016-08-12 11:30:43]	[UserID:08/504]	[IP:10.10.11.1]	[Browser:Chrome - 52.0.2743.116]	[Action:Closing mssql connection]	[Remarks:Success]
[Date: 2016-08-12 11:33:17]	[UserID:08/504]	[IP:10.10.11.1]	[Browser:Chrome - 52.0.2743.116]	[Action:Making connection to server]	[Remarks:Successful connection to server: S3]
[Date: 2016-08-12 11:33:17]	[UserID:08/504]	[IP:10.10.11.1]	[Browser:Chrome - 52.0.2743.116]	[Action:GetGSTModules 08/504,1]	[Remarks:Successful filter row count: 5]
[Date: 2016-08-12 11:33:17]	[UserID:08/504]	[IP:10.10.11.1]	[Browser:Chrome - 52.0.2743.116]	[Action:Closing mssql connection]	[Remarks:Success]
[Date: 2016-08-12 11:39:01]	[UserID:08/504]	[IP:10.10.11.1]	[Browser:Chrome - 52.0.2743.116]	[Action:Making connection to server]	[Remarks:Successful connection to server: S3]
[Date: 2016-08-12 11:39:02]	[UserID:08/504]	[IP:10.10.11.1]	[Browser:Chrome - 52.0.2743.116]	[Action:GetGSTModules 08/504,1]	[Remarks:Successful filter row count: 5]
[Date: 2016-08-12 11:39:02]	[UserID:08/504]	[IP:10.10.11.1]	[Browser:Chrome - 52.0.2743.116]	[Action:Closing mssql connection]	[Remarks:Success]
[Date: 2016-08-12 11:44:38]	[UserID:08/504]	[IP:10.10.11.1]	[Browser:Chrome - 52.0.2743.116]	[Action:Making connection to server]	[Remarks:Successful connection to server: S3]
[Date: 2016-08-12 11:44:38]	[UserID:08/504]	[IP:10.10.11.1]	[Browser:Chrome - 52.0.2743.116]	[Action:GetGSTModules 08/504,1]	[Remarks:Successful filter row count: 5]
[Date: 2016-08-12 11:44:38]	[UserID:08/504]	[IP:10.10.11.1]	[Browser:Chrome - 52.0.2743.116]	[Action:Closing mssql connection]	[Remarks:Success]
[Date: 2016-08-12 11:47:29]	[UserID:08/504]	[IP:10.10.11.1]	[Browser:Chrome - 52.0.2743.116]	[Action:Making connection to server]	[Remarks:Successful connection to server: S3]
[Date: 2016-08-12 11:47:29]	[UserID:08/504]	[IP:10.10.11.1]	[Browser:Chrome - 52.0.2743.116]	[Action:GetGSTModules 08/504,1]	[Remarks:Successful filter row count: 5]
[Date: 2016-08-12 11:47:29]	[UserID:08/504]	[IP:10.10.11.1]	[Browser:Chrome - 52.0.2743.116]	[Action:Closing mssql connection]	[Remarks:Success]
[Date: 2016-08-12 13:30:15]	[UserID:08/504]	[IP:10.10.11.1]	[Browser:Chrome - 52.0.2743.116]	[Action:Making connection to server]	[Remarks:Successful connection to server: S3]
[Date: 2016-08-12 13:30:16]	[UserID:08/504]	[IP:10.10.11.1]	[Browser:Chrome - 52.0.2743.116]	[Action:GetGSTModules 08/504,1]	[Remarks:Successful filter row count: 5]
[Date: 2016-08-12 13:30:16]	[UserID:08/504]	[IP:10.10.11.1]	[Browser:Chrome - 52.0.2743.116]	[Action:Closing mssql connection]	[Remarks:Success]
[Date: 2016-08-12 13:58:01]	[UserID:08/504]	[IP:10.10.11.1]	[Browser:Chrome - 52.0.2743.116]	[Action:Making connection to server]	[Remarks:Successful connection to server: S3]
[Date: 2016-08-12 13:58:03]	[UserID:08/504]	[IP:10.10.11.1]	[Browser:Chrome - 52.0.2743.116]	[Action:GetGSTModules 08/504,1]	[Remarks:Successful filter row count: 5]
[Date: 2016-08-12 13:58:03]	[UserID:08/504]	[IP:10.10.11.1]	[Browser:Chrome - 52.0.2743.116]	[Action:Closing mssql connection]	[Remarks:Success]
[Date: 2016-08-12 14:08:35]	[UserID:08/504]	[IP:10.10.11.1]	[Browser:Chrome - 52.0.2743.116]	[Action:Making connection to server]	[Remarks:Successful connection to server: S3]
[Date: 2016-08-12 14:08:35]	[UserID:08/504]	[IP:10.10.11.1]	[Browser:Chrome - 52.0.2743.116]	[Action:GetGSTModules 08/504,1]	[Remarks:Successful filter row count: 5]
[Date: 2016-08-12 14:08:35]	[UserID:08/504]	[IP:10.10.11.1]	[Browser:Chrome - 52.0.2743.116]	[Action:Closing mssql connection]	[Remarks:Success]
[Date: 2016-08-12 14:16:34]	[UserID:08/504]	[IP:10.10.11.1]	[Browser:Chrome - 52.0.2743.116]	[Action:Making connection to server]	[Remarks:Successful connection to server: S3]
[Date: 2016-08-12 14:16:34]	[UserID:08/504]	[IP:10.10.11.1]	[Browser:Chrome - 52.0.2743.116]	[Action:GetGSTModules 08/504,1]	[Remarks:Successful filter row count: 5]
[Date: 2016-08-12 14:16:34]	[UserID:08/504]	[IP:10.10.11.1]	[Browser:Chrome - 52.0.2743.116]	[Action:Closing mssql connection]	[Remarks:Success]
[Date: 2016-08-12 14:23:55]	[UserID:08/504]	[IP:10.10.11.1]	[Browser:Chrome - 52.0.2743.116]	[Action:Making connection to server]	[Remarks:Successful connection to server: S3]
[Date: 2016-08-12 14:23:56]	[UserID:08/504]	[IP:10.10.11.1]	[Browser:Chrome - 52.0.2743.116]	[Action:GetGSTModules 08/504,1]	[Remarks:Successful filter row count: 5]
[Date: 2016-08-12 14:23:56]	[UserID:08/504]	[IP:10.10.11.1]	[Browser:Chrome - 52.0.2743.116]	[Action:Closing mssql connection]	[Remarks:Success]
[Date: 2016-08-12 14:28:23]	[UserID:08/504]	[IP:10.10.11.1]	[Browser:Chrome - 52.0.2743.116]	[Action:Making connection to server]	[Remarks:Successful connection to server: S3]
[Date: 2016-08-12 14:28:23]	[UserID:08/504]	[IP:10.10.11.1]	[Browser:Chrome - 52.0.2743.116]	[Action:GetGSTModules 08/504,1]	[Remarks:Successful filter row count: 5]
[Date: 2016-08-12 14:28:23]	[UserID:08/504]	[IP:10.10.11.1]	[Browser:Chrome - 52.0.2743.116]	[Action:Closing mssql connection]	[Remarks:Success]
[Date: 2016-08-12 14:37:55]	[UserID:08/504]	[IP:10.10.11.1]	[Browser:Chrome - 52.0.2743.116]	[Action:Making connection to server]	[Remarks:Successful connection to server: S3]
[Date: 2016-08-12 14:37:55]	[UserID:08/504]	[IP:10.10.11.1]	[Browser:Chrome - 52.0.2743.116]	[Action:GetGSTModules 08/504,1]	[Remarks:Successful filter row count: 5]
[Date: 2016-08-12 14:37:55]	[UserID:08/504]	[IP:10.10.11.1]	[Browser:Chrome - 52.0.2743.116]	[Action:Closing mssql connection]	[Remarks:Success]
[Date: 2016-08-12 14:38:23]	[UserID:08/504]	[IP:10.10.11.1]	[Browser:Chrome - 52.0.2743.116]	[Action:Making connection to server]	[Remarks:Successful connection to server: S3]
[Date: 2016-08-12 14:38:23]	[UserID:08/504]	[IP:10.10.11.1]	[Browser:Chrome - 52.0.2743.116]	[Action:GetGSTModules 08/504,1]	[Remarks:Successful filter row count: 5]
[Date: 2016-08-12 14:38:23]	[UserID:08/504]	[IP:10.10.11.1]	[Browser:Chrome - 52.0.2743.116]	[Action:Closing mssql connection]	[Remarks:Success]
[Date: 2016-08-12 14:41:49]	[UserID:08/504]	[IP:10.10.11.1]	[Browser:Chrome - 52.0.2743.116]	[Action:Making connection to server]	[Remarks:Successful connection to server: S3]
[Date: 2016-08-12 14:41:49]	[UserID:08/504]	[IP:10.10.11.1]	[Browser:Chrome - 52.0.2743.116]	[Action:GetGSTModules 08/504,1]	[Remarks:Successful filter row count: 5]
[Date: 2016-08-12 14:41:49]	[UserID:08/504]	[IP:10.10.11.1]	[Browser:Chrome - 52.0.2743.116]	[Action:Closing mssql connection]	[Remarks:Success]
[Date: 2016-08-12 14:44:43]	[UserID:08/504]	[IP:10.10.11.1]	[Browser:Chrome - 52.0.2743.116]	[Action:Making connection to server]	[Remarks:Successful connection to server: S3]
[Date: 2016-08-12 14:44:43]	[UserID:08/504]	[IP:10.10.11.1]	[Browser:Chrome - 52.0.2743.116]	[Action:GetGSTModules 08/504,1]	[Remarks:Successful filter row count: 5]
[Date: 2016-08-12 14:44:43]	[UserID:08/504]	[IP:10.10.11.1]	[Browser:Chrome - 52.0.2743.116]	[Action:Closing mssql connection]	[Remarks:Success]
[Date: 2016-08-12 14:46:51]	[UserID:08/504]	[IP:10.10.11.1]	[Browser:Chrome - 52.0.2743.116]	[Action:Making connection to server]	[Remarks:Successful connection to server: S3]
[Date: 2016-08-12 14:46:51]	[UserID:08/504]	[IP:10.10.11.1]	[Browser:Chrome - 52.0.2743.116]	[Action:GetGSTModules 08/504,1]	[Remarks:Successful filter row count: 5]
[Date: 2016-08-12 14:46:51]	[UserID:08/504]	[IP:10.10.11.1]	[Browser:Chrome - 52.0.2743.116]	[Action:Closing mssql connection]	[Remarks:Success]
[Date: 2016-08-12 14:52:57]	[UserID:]	[IP:10.10.11.1]	[Browser:Chrome - 52.0.2743.116]	[Action:Making connection to server]	[Remarks:Successful connection to server: S3]
[Date: 2016-08-12 14:52:58]	[UserID:]	[IP:10.10.11.1]	[Browser:Chrome - 52.0.2743.116]	[Action:GetProgramList ]	[Remarks:"no data"]
[Date: 2016-08-12 14:52:58]	[UserID:]	[IP:10.10.11.1]	[Browser:Chrome - 52.0.2743.116]	[Action:Making connection to server]	[Remarks:Successful connection to server: S3]
[Date: 2016-08-12 14:52:58]	[UserID:]	[IP:10.10.11.1]	[Browser:Chrome - 52.0.2743.116]	[Action:GetProgramList ]	[Remarks:"no data"]
[Date: 2016-08-12 14:52:59]	[UserID:08/504]	[IP:10.10.11.1]	[Browser:Chrome - 52.0.2743.116]	[Action:Making connection to server]	[Remarks:Successful connection to server: S3]
[Date: 2016-08-12 14:52:59]	[UserID:08/504]	[IP:10.10.11.1]	[Browser:Chrome - 52.0.2743.116]	[Action:GetGSTModules 08/504,1]	[Remarks:Successful filter row count: 5]
[Date: 2016-08-12 14:52:59]	[UserID:08/504]	[IP:10.10.11.1]	[Browser:Chrome - 52.0.2743.116]	[Action:Closing mssql connection]	[Remarks:Success]
[Date: 2016-08-12 14:53:07]	[UserID:06/343]	[IP:10.10.11.1]	[Browser:Chrome - 52.0.2743.116]	[Action:Making connection to server]	[Remarks:Successful connection to server: S3]
[Date: 2016-08-12 14:53:07]	[UserID:06/343]	[IP:10.10.11.1]	[Browser:Chrome - 52.0.2743.116]	[Action:User 06/343]	[Remarks:Success]
[Date: 2016-08-12 14:53:07]	[UserID:06/343]	[IP:10.10.11.1]	[Browser:Chrome - 52.0.2743.116]	[Action:Filtering User : MasterData Username : 06/343]	[Remarks:Successful filter row count: 0]
[Date: 2016-08-12 14:53:07]	[UserID:06/343]	[IP:10.10.11.1]	[Browser:Chrome - 52.0.2743.116]	[Action:Filtering User : MasterData Username : 06/343]	[Remarks:Successful filter row count: 0]
[Date: 2016-08-12 14:53:07]	[UserID:06/343]	[IP:10.10.11.1]	[Browser:Chrome - 52.0.2743.116]	[Action:Filtering User : MasterData Username : 06/343]	[Remarks:Success]
[Date: 2016-08-12 14:53:07]	[UserID:06/343]	[IP:10.10.11.1]	[Browser:Chrome - 52.0.2743.116]	[Action:Closing mssql connection]	[Remarks:Success]
[Date: 2016-08-12 14:53:07]	[UserID:06/343]	[IP:10.10.11.1]	[Browser:Chrome - 52.0.2743.116]	[Action:Making connection to server]	[Remarks:Successful connection to server: S3]
[Date: 2016-08-12 14:53:07]	[UserID:06/343]	[IP:10.10.11.1]	[Browser:Chrome - 52.0.2743.116]	[Action:GetProgramList 06/343]	[Remarks:[{"ID":"1","ProgramIndex":"GST","ProgramName":"GST"}]]
[Date: 2016-08-12 14:53:07]	[UserID:06/343]	[IP:10.10.11.1]	[Browser:Chrome - 52.0.2743.116]	[Action:Making connection to server]	[Remarks:Successful connection to server: S3]
[Date: 2016-08-12 14:53:07]	[UserID:06/343]	[IP:10.10.11.1]	[Browser:Chrome - 52.0.2743.116]	[Action:GetProgramList 06/343]	[Remarks:[{"ID":"1","ProgramIndex":"GST","ProgramName":"GST"}]]
[Date: 2016-08-12 14:53:07]	[UserID:06/343]	[IP:10.10.11.1]	[Browser:Chrome - 52.0.2743.116]	[Action:Making connection to server]	[Remarks:Successful connection to server: S3]
[Date: 2016-08-12 14:53:07]	[UserID:06/343]	[IP:10.10.11.1]	[Browser:Chrome - 52.0.2743.116]	[Action:Filtering User : MasterData Username : 06/343]	[Remarks:Successful filter row count: 1]
[Date: 2016-08-12 14:53:08]	[UserID:06/343]	[IP:10.10.11.1]	[Browser:Chrome - 52.0.2743.116]	[Action:Making connection to server]	[Remarks:Successful connection to server: S3]
[Date: 2016-08-12 14:53:08]	[UserID:06/343]	[IP:10.10.11.1]	[Browser:Chrome - 52.0.2743.116]	[Action:GetGSTModules 06/343,1]	[Remarks:Successful filter row count: 5]
[Date: 2016-08-12 14:53:08]	[UserID:06/343]	[IP:10.10.11.1]	[Browser:Chrome - 52.0.2743.116]	[Action:Closing mssql connection]	[Remarks:Success]
[Date: 2016-08-12 15:02:32]	[UserID:06/343]	[IP:10.10.11.1]	[Browser:Chrome - 52.0.2743.116]	[Action:Making connection to server]	[Remarks:Successful connection to server: S3]
[Date: 2016-08-12 15:02:32]	[UserID:06/343]	[IP:10.10.11.1]	[Browser:Chrome - 52.0.2743.116]	[Action:GetGSTModules 06/343,1]	[Remarks:Successful filter row count: 5]
[Date: 2016-08-12 15:02:32]	[UserID:06/343]	[IP:10.10.11.1]	[Browser:Chrome - 52.0.2743.116]	[Action:Closing mssql connection]	[Remarks:Success]
[Date: 2016-08-12 15:04:05]	[UserID:06/343]	[IP:10.10.11.1]	[Browser:Chrome - 52.0.2743.116]	[Action:Making connection to server]	[Remarks:Successful connection to server: S3]
[Date: 2016-08-12 15:04:05]	[UserID:06/343]	[IP:10.10.11.1]	[Browser:Chrome - 52.0.2743.116]	[Action:GetGSTModules 06/343,1]	[Remarks:Successful filter row count: 5]
[Date: 2016-08-12 15:04:05]	[UserID:06/343]	[IP:10.10.11.1]	[Browser:Chrome - 52.0.2743.116]	[Action:Closing mssql connection]	[Remarks:Success]
[Date: 2016-08-12 15:10:41]	[UserID:06/343]	[IP:10.10.11.1]	[Browser:Chrome - 52.0.2743.116]	[Action:Making connection to server]	[Remarks:Successful connection to server: S3]
[Date: 2016-08-12 15:10:42]	[UserID:06/343]	[IP:10.10.11.1]	[Browser:Chrome - 52.0.2743.116]	[Action:GetGSTModules 06/343,1]	[Remarks:Successful filter row count: 5]
[Date: 2016-08-12 15:10:42]	[UserID:06/343]	[IP:10.10.11.1]	[Browser:Chrome - 52.0.2743.116]	[Action:Closing mssql connection]	[Remarks:Success]
[Date: 2016-08-12 15:12:49]	[UserID:06/343]	[IP:10.10.11.1]	[Browser:Chrome - 52.0.2743.116]	[Action:Making connection to server]	[Remarks:Successful connection to server: S3]
[Date: 2016-08-12 15:12:49]	[UserID:06/343]	[IP:10.10.11.1]	[Browser:Chrome - 52.0.2743.116]	[Action:GetGSTModules 06/343,1]	[Remarks:Successful filter row count: 5]
[Date: 2016-08-12 15:12:49]	[UserID:06/343]	[IP:10.10.11.1]	[Browser:Chrome - 52.0.2743.116]	[Action:Closing mssql connection]	[Remarks:Success]
[Date: 2016-08-12 15:15:15]	[UserID:06/343]	[IP:10.10.11.1]	[Browser:Chrome - 52.0.2743.116]	[Action:Making connection to server]	[Remarks:Successful connection to server: S3]
[Date: 2016-08-12 15:15:15]	[UserID:06/343]	[IP:10.10.11.1]	[Browser:Chrome - 52.0.2743.116]	[Action:GetGSTModules 06/343,1]	[Remarks:Successful filter row count: 5]
[Date: 2016-08-12 15:15:15]	[UserID:06/343]	[IP:10.10.11.1]	[Browser:Chrome - 52.0.2743.116]	[Action:Closing mssql connection]	[Remarks:Success]
[Date: 2016-08-12 15:20:35]	[UserID:06/343]	[IP:10.10.11.1]	[Browser:Chrome - 52.0.2743.116]	[Action:Making connection to server]	[Remarks:Successful connection to server: S3]
[Date: 2016-08-12 15:20:35]	[UserID:06/343]	[IP:10.10.11.1]	[Browser:Chrome - 52.0.2743.116]	[Action:GetGSTModules 06/343,1]	[Remarks:Successful filter row count: 5]
[Date: 2016-08-12 15:20:35]	[UserID:06/343]	[IP:10.10.11.1]	[Browser:Chrome - 52.0.2743.116]	[Action:Closing mssql connection]	[Remarks:Success]
[Date: 2016-08-12 15:25:35]	[UserID:08/504]	[IP:10.10.11.1]	[Browser:Chrome - 52.0.2743.116]	[Action:Making connection to server]	[Remarks:Successful connection to server: S3]
[Date: 2016-08-12 15:25:36]	[UserID:08/504]	[IP:10.10.11.1]	[Browser:Chrome - 52.0.2743.116]	[Action:GetGSTModules 08/504,1]	[Remarks:Successful filter row count: 5]
[Date: 2016-08-12 15:25:36]	[UserID:08/504]	[IP:10.10.11.1]	[Browser:Chrome - 52.0.2743.116]	[Action:Closing mssql connection]	[Remarks:Success]
[Date: 2016-08-12 15:28:51]	[UserID:06/343]	[IP:10.10.11.1]	[Browser:Chrome - 52.0.2743.116]	[Action:Making connection to server]	[Remarks:Successful connection to server: S3]
[Date: 2016-08-12 15:28:51]	[UserID:06/343]	[IP:10.10.11.1]	[Browser:Chrome - 52.0.2743.116]	[Action:GetGSTModules 06/343,1]	[Remarks:Successful filter row count: 5]
[Date: 2016-08-12 15:28:51]	[UserID:06/343]	[IP:10.10.11.1]	[Browser:Chrome - 52.0.2743.116]	[Action:Closing mssql connection]	[Remarks:Success]
