[Date: 2016-10-24 07:53:11]	[UserID:]	[IP:10.10.11.1]	[Browser:Chrome - 53.0.2785.143]	[Action:Making connection to server]	[Remarks:Successful connection to server: S3]
[Date: 2016-10-24 07:53:12]	[UserID:]	[IP:10.10.11.1]	[Browser:Chrome - 53.0.2785.143]	[Action:GetProgramList ]	[Remarks:"no data"]
[Date: 2016-10-24 08:03:26]	[UserID:06/343]	[IP:10.10.11.1]	[Browser:Chrome - 53.0.2785.143]	[Action:Making connection to server]	[Remarks:Successful connection to server: S3]
[Date: 2016-10-24 08:03:26]	[UserID:06/343]	[IP:10.10.11.1]	[Browser:Chrome - 53.0.2785.143]	[Action:User 06/343]	[Remarks:Success]
[Date: 2016-10-24 08:03:26]	[UserID:06/343]	[IP:10.10.11.1]	[Browser:Chrome - 53.0.2785.143]	[Action:Filtering User : MasterData Username : 06/343]	[Remarks:Successful filter row count: 0]
[Date: 2016-10-24 08:03:26]	[UserID:06/343]	[IP:10.10.11.1]	[Browser:Chrome - 53.0.2785.143]	[Action:Filtering User : MasterData Username : 06/343]	[Remarks:Successful filter row count: 0]
[Date: 2016-10-24 08:03:26]	[UserID:06/343]	[IP:10.10.11.1]	[Browser:Chrome - 53.0.2785.143]	[Action:Filtering User : MasterData Username : 06/343]	[Remarks:Success]
[Date: 2016-10-24 08:03:26]	[UserID:06/343]	[IP:10.10.11.1]	[Browser:Chrome - 53.0.2785.143]	[Action:Closing mssql connection]	[Remarks:Success]
[Date: 2016-10-24 08:03:28]	[UserID:06/343]	[IP:10.10.11.1]	[Browser:Chrome - 53.0.2785.143]	[Action:Making connection to server]	[Remarks:Successful connection to server: S3]
[Date: 2016-10-24 08:03:28]	[UserID:06/343]	[IP:10.10.11.1]	[Browser:Chrome - 53.0.2785.143]	[Action:GetProgramList 06/343]	[Remarks:[{"ID":"1","ProgramIndex":"GST","ProgramName":"GST"}]]
[Date: 2016-10-24 08:03:28]	[UserID:06/343]	[IP:10.10.11.1]	[Browser:Chrome - 53.0.2785.143]	[Action:Making connection to server]	[Remarks:Successful connection to server: S3]
[Date: 2016-10-24 08:03:28]	[UserID:06/343]	[IP:10.10.11.1]	[Browser:Chrome - 53.0.2785.143]	[Action:GetProgramList 06/343]	[Remarks:[{"ID":"1","ProgramIndex":"GST","ProgramName":"GST"}]]
[Date: 2016-10-24 08:03:28]	[UserID:06/343]	[IP:10.10.11.1]	[Browser:Chrome - 53.0.2785.143]	[Action:Making connection to server]	[Remarks:Successful connection to server: S3]
[Date: 2016-10-24 08:03:28]	[UserID:06/343]	[IP:10.10.11.1]	[Browser:Chrome - 53.0.2785.143]	[Action:Filtering User : MasterData Username : 06/343]	[Remarks:Successful filter row count: 1]
[Date: 2016-10-24 08:03:29]	[UserID:06/343]	[IP:10.10.11.1]	[Browser:Chrome - 53.0.2785.143]	[Action:Making connection to server]	[Remarks:Successful connection to server: S3]
[Date: 2016-10-24 08:03:29]	[UserID:06/343]	[IP:10.10.11.1]	[Browser:Chrome - 53.0.2785.143]	[Action:GetGSTModules 06/343,1]	[Remarks:Successful filter row count: 5]
[Date: 2016-10-24 08:03:29]	[UserID:06/343]	[IP:10.10.11.1]	[Browser:Chrome - 53.0.2785.143]	[Action:Closing mssql connection]	[Remarks:Success]
[Date: 2016-10-24 08:46:48]	[UserID:06/343]	[IP:10.10.11.1]	[Browser:Chrome - 53.0.2785.143]	[Action:Making connection to server]	[Remarks:Successful connection to server: S3]
[Date: 2016-10-24 08:46:48]	[UserID:06/343]	[IP:10.10.11.1]	[Browser:Chrome - 53.0.2785.143]	[Action:GetGSTModules 06/343,1]	[Remarks:Successful filter row count: 5]
[Date: 2016-10-24 08:46:48]	[UserID:06/343]	[IP:10.10.11.1]	[Browser:Chrome - 53.0.2785.143]	[Action:Closing mssql connection]	[Remarks:Success]
[Date: 2016-10-24 08:52:26]	[UserID:06/343]	[IP:10.10.11.1]	[Browser:Chrome - 53.0.2785.143]	[Action:Making connection to server]	[Remarks:Successful connection to server: S3]
[Date: 2016-10-24 08:52:26]	[UserID:06/343]	[IP:10.10.11.1]	[Browser:Chrome - 53.0.2785.143]	[Action:GetGSTModules 06/343,1]	[Remarks:Successful filter row count: 5]
[Date: 2016-10-24 08:52:26]	[UserID:06/343]	[IP:10.10.11.1]	[Browser:Chrome - 53.0.2785.143]	[Action:Closing mssql connection]	[Remarks:Success]
[Date: 2016-10-24 09:25:16]	[UserID:]	[IP:10.10.11.1]	[Browser:Chrome - 53.0.2785.143]	[Action:Making connection to server]	[Remarks:Successful connection to server: S3]
[Date: 2016-10-24 09:25:16]	[UserID:]	[IP:10.10.11.1]	[Browser:Chrome - 53.0.2785.143]	[Action:GetProgramList ]	[Remarks:"no data"]
[Date: 2016-10-24 09:25:19]	[UserID:08/504]	[IP:10.10.11.1]	[Browser:Chrome - 53.0.2785.143]	[Action:Making connection to server]	[Remarks:Successful connection to server: S3]
[Date: 2016-10-24 09:25:19]	[UserID:08/504]	[IP:10.10.11.1]	[Browser:Chrome - 53.0.2785.143]	[Action:User 08/504]	[Remarks:Success]
[Date: 2016-10-24 09:25:19]	[UserID:08/504]	[IP:10.10.11.1]	[Browser:Chrome - 53.0.2785.143]	[Action:Filtering User : MasterData Username : 08/504]	[Remarks:Successful filter row count: 0]
[Date: 2016-10-24 09:25:19]	[UserID:08/504]	[IP:10.10.11.1]	[Browser:Chrome - 53.0.2785.143]	[Action:Filtering User : MasterData Username : 08/504]	[Remarks:Successful filter row count: 0]
[Date: 2016-10-24 09:25:19]	[UserID:08/504]	[IP:10.10.11.1]	[Browser:Chrome - 53.0.2785.143]	[Action:Filtering User : MasterData Username : 08/504]	[Remarks:Success]
[Date: 2016-10-24 09:25:19]	[UserID:08/504]	[IP:10.10.11.1]	[Browser:Chrome - 53.0.2785.143]	[Action:Closing mssql connection]	[Remarks:Success]
[Date: 2016-10-24 09:25:19]	[UserID:08/504]	[IP:10.10.11.1]	[Browser:Chrome - 53.0.2785.143]	[Action:Making connection to server]	[Remarks:Successful connection to server: S3]
[Date: 2016-10-24 09:25:19]	[UserID:08/504]	[IP:10.10.11.1]	[Browser:Chrome - 53.0.2785.143]	[Action:GetProgramList 08/504]	[Remarks:[{"ID":"1","ProgramIndex":"GST","ProgramName":"GST"}]]
[Date: 2016-10-24 09:25:19]	[UserID:08/504]	[IP:10.10.11.1]	[Browser:Chrome - 53.0.2785.143]	[Action:Making connection to server]	[Remarks:Successful connection to server: S3]
[Date: 2016-10-24 09:25:19]	[UserID:08/504]	[IP:10.10.11.1]	[Browser:Chrome - 53.0.2785.143]	[Action:GetProgramList 08/504]	[Remarks:[{"ID":"1","ProgramIndex":"GST","ProgramName":"GST"}]]
[Date: 2016-10-24 09:25:19]	[UserID:08/504]	[IP:10.10.11.1]	[Browser:Chrome - 53.0.2785.143]	[Action:Making connection to server]	[Remarks:Successful connection to server: S3]
[Date: 2016-10-24 09:25:19]	[UserID:08/504]	[IP:10.10.11.1]	[Browser:Chrome - 53.0.2785.143]	[Action:Filtering User : MasterData Username : 08/504]	[Remarks:Successful filter row count: 1]
[Date: 2016-10-24 09:25:20]	[UserID:08/504]	[IP:10.10.11.1]	[Browser:Chrome - 53.0.2785.143]	[Action:Making connection to server]	[Remarks:Successful connection to server: S3]
[Date: 2016-10-24 09:25:20]	[UserID:08/504]	[IP:10.10.11.1]	[Browser:Chrome - 53.0.2785.143]	[Action:GetGSTModules 08/504,1]	[Remarks:Successful filter row count: 5]
[Date: 2016-10-24 09:25:20]	[UserID:08/504]	[IP:10.10.11.1]	[Browser:Chrome - 53.0.2785.143]	[Action:Closing mssql connection]	[Remarks:Success]
[Date: 2016-10-24 09:25:28]	[UserID:06/343]	[IP:10.10.11.1]	[Browser:Chrome - 53.0.2785.143]	[Action:Making connection to server]	[Remarks:Successful connection to server: S3]
[Date: 2016-10-24 09:25:28]	[UserID:06/343]	[IP:10.10.11.1]	[Browser:Chrome - 53.0.2785.143]	[Action:GetGSTModules 06/343,1]	[Remarks:Successful filter row count: 5]
[Date: 2016-10-24 09:25:28]	[UserID:06/343]	[IP:10.10.11.1]	[Browser:Chrome - 53.0.2785.143]	[Action:Closing mssql connection]	[Remarks:Success]
[Date: 2016-10-24 09:28:09]	[UserID:08/504]	[IP:10.10.11.1]	[Browser:Chrome - 53.0.2785.143]	[Action:Making connection to server]	[Remarks:Successful connection to server: S3]
[Date: 2016-10-24 09:28:09]	[UserID:08/504]	[IP:10.10.11.1]	[Browser:Chrome - 53.0.2785.143]	[Action:GetGSTModules 08/504,1]	[Remarks:Successful filter row count: 5]
[Date: 2016-10-24 09:28:09]	[UserID:08/504]	[IP:10.10.11.1]	[Browser:Chrome - 53.0.2785.143]	[Action:Closing mssql connection]	[Remarks:Success]
[Date: 2016-10-24 09:29:05]	[UserID:06/343]	[IP:10.10.11.1]	[Browser:Chrome - 53.0.2785.143]	[Action:Making connection to server]	[Remarks:Successful connection to server: S3]
[Date: 2016-10-24 09:29:06]	[UserID:06/343]	[IP:10.10.11.1]	[Browser:Chrome - 53.0.2785.143]	[Action:GetGSTModules 06/343,1]	[Remarks:Successful filter row count: 5]
[Date: 2016-10-24 09:29:06]	[UserID:06/343]	[IP:10.10.11.1]	[Browser:Chrome - 53.0.2785.143]	[Action:Closing mssql connection]	[Remarks:Success]
[Date: 2016-10-24 09:48:13]	[UserID:08/504]	[IP:10.10.11.1]	[Browser:Chrome - 53.0.2785.143]	[Action:Making connection to server]	[Remarks:Successful connection to server: S3]
[Date: 2016-10-24 09:48:13]	[UserID:08/504]	[IP:10.10.11.1]	[Browser:Chrome - 53.0.2785.143]	[Action:GetGSTModules 08/504,1]	[Remarks:Successful filter row count: 5]
[Date: 2016-10-24 09:48:13]	[UserID:08/504]	[IP:10.10.11.1]	[Browser:Chrome - 53.0.2785.143]	[Action:Closing mssql connection]	[Remarks:Success]
[Date: 2016-10-24 09:52:45]	[UserID:08/504]	[IP:10.10.11.1]	[Browser:Chrome - 53.0.2785.143]	[Action:Making connection to server]	[Remarks:Successful connection to server: S3]
[Date: 2016-10-24 09:52:45]	[UserID:08/504]	[IP:10.10.11.1]	[Browser:Chrome - 53.0.2785.143]	[Action:GetGSTModules 08/504,1]	[Remarks:Successful filter row count: 5]
[Date: 2016-10-24 09:52:45]	[UserID:08/504]	[IP:10.10.11.1]	[Browser:Chrome - 53.0.2785.143]	[Action:Closing mssql connection]	[Remarks:Success]
[Date: 2016-10-24 09:58:44]	[UserID:08/504]	[IP:10.10.11.1]	[Browser:Chrome - 53.0.2785.143]	[Action:Making connection to server]	[Remarks:Successful connection to server: S3]
[Date: 2016-10-24 09:58:44]	[UserID:08/504]	[IP:10.10.11.1]	[Browser:Chrome - 53.0.2785.143]	[Action:GetGSTModules 08/504,1]	[Remarks:Successful filter row count: 5]
[Date: 2016-10-24 09:58:44]	[UserID:08/504]	[IP:10.10.11.1]	[Browser:Chrome - 53.0.2785.143]	[Action:Closing mssql connection]	[Remarks:Success]
[Date: 2016-10-24 10:17:45]	[UserID:06/343]	[IP:10.10.11.1]	[Browser:Chrome - 53.0.2785.143]	[Action:Making connection to server]	[Remarks:Successful connection to server: S3]
[Date: 2016-10-24 10:17:45]	[UserID:06/343]	[IP:10.10.11.1]	[Browser:Chrome - 53.0.2785.143]	[Action:GetGSTModules 06/343,1]	[Remarks:Successful filter row count: 5]
[Date: 2016-10-24 10:17:45]	[UserID:06/343]	[IP:10.10.11.1]	[Browser:Chrome - 53.0.2785.143]	[Action:Closing mssql connection]	[Remarks:Success]
[Date: 2016-10-24 10:27:10]	[UserID:08/504]	[IP:10.10.11.1]	[Browser:Chrome - 53.0.2785.143]	[Action:Making connection to server]	[Remarks:Successful connection to server: S3]
[Date: 2016-10-24 10:27:10]	[UserID:08/504]	[IP:10.10.11.1]	[Browser:Chrome - 53.0.2785.143]	[Action:GetGSTModules 08/504,1]	[Remarks:Successful filter row count: 5]
[Date: 2016-10-24 10:27:10]	[UserID:08/504]	[IP:10.10.11.1]	[Browser:Chrome - 53.0.2785.143]	[Action:Closing mssql connection]	[Remarks:Success]
[Date: 2016-10-24 10:36:59]	[UserID:08/504]	[IP:10.10.11.1]	[Browser:Chrome - 53.0.2785.143]	[Action:Making connection to server]	[Remarks:Successful connection to server: S3]
[Date: 2016-10-24 10:36:59]	[UserID:08/504]	[IP:10.10.11.1]	[Browser:Chrome - 53.0.2785.143]	[Action:GetGSTModules 08/504,1]	[Remarks:Successful filter row count: 5]
[Date: 2016-10-24 10:36:59]	[UserID:08/504]	[IP:10.10.11.1]	[Browser:Chrome - 53.0.2785.143]	[Action:Closing mssql connection]	[Remarks:Success]
[Date: 2016-10-24 12:00:50]	[UserID:08/504]	[IP:10.10.11.1]	[Browser:Chrome - 53.0.2785.143]	[Action:Making connection to server]	[Remarks:Successful connection to server: S3]
[Date: 2016-10-24 12:00:50]	[UserID:08/504]	[IP:10.10.11.1]	[Browser:Chrome - 53.0.2785.143]	[Action:GetGSTModules 08/504,1]	[Remarks:Successful filter row count: 5]
[Date: 2016-10-24 12:00:50]	[UserID:08/504]	[IP:10.10.11.1]	[Browser:Chrome - 53.0.2785.143]	[Action:Closing mssql connection]	[Remarks:Success]
[Date: 2016-10-24 12:03:20]	[UserID:08/504]	[IP:10.10.11.1]	[Browser:Chrome - 53.0.2785.143]	[Action:Making connection to server]	[Remarks:Successful connection to server: S3]
[Date: 2016-10-24 12:03:20]	[UserID:08/504]	[IP:10.10.11.1]	[Browser:Chrome - 53.0.2785.143]	[Action:GetGSTModules 08/504,1]	[Remarks:Successful filter row count: 5]
[Date: 2016-10-24 12:03:20]	[UserID:08/504]	[IP:10.10.11.1]	[Browser:Chrome - 53.0.2785.143]	[Action:Closing mssql connection]	[Remarks:Success]
[Date: 2016-10-24 12:05:24]	[UserID:08/504]	[IP:10.10.11.1]	[Browser:Chrome - 53.0.2785.143]	[Action:Making connection to server]	[Remarks:Successful connection to server: S3]
[Date: 2016-10-24 12:05:24]	[UserID:08/504]	[IP:10.10.11.1]	[Browser:Chrome - 53.0.2785.143]	[Action:GetGSTModules 08/504,1]	[Remarks:Successful filter row count: 5]
[Date: 2016-10-24 12:05:24]	[UserID:08/504]	[IP:10.10.11.1]	[Browser:Chrome - 53.0.2785.143]	[Action:Closing mssql connection]	[Remarks:Success]
[Date: 2016-10-24 13:15:30]	[UserID:08/504]	[IP:10.10.11.1]	[Browser:Chrome - 53.0.2785.143]	[Action:Making connection to server]	[Remarks:Successful connection to server: S3]
[Date: 2016-10-24 13:15:30]	[UserID:08/504]	[IP:10.10.11.1]	[Browser:Chrome - 53.0.2785.143]	[Action:GetGSTModules 08/504,1]	[Remarks:Successful filter row count: 5]
[Date: 2016-10-24 13:15:30]	[UserID:08/504]	[IP:10.10.11.1]	[Browser:Chrome - 53.0.2785.143]	[Action:Closing mssql connection]	[Remarks:Success]
[Date: 2016-10-24 13:53:51]	[UserID:]	[IP:10.10.11.1]	[Browser:Chrome - 49.0.2623.75]	[Action:Making connection to server]	[Remarks:Successful connection to server: S3]
[Date: 2016-10-24 13:53:51]	[UserID:]	[IP:10.10.11.1]	[Browser:Chrome - 49.0.2623.75]	[Action:GetProgramList ]	[Remarks:"no data"]
[Date: 2016-10-24 13:53:51]	[UserID:]	[IP:10.10.11.1]	[Browser:Chrome - 53.0.2785.143]	[Action:Making connection to server]	[Remarks:Successful connection to server: S3]
[Date: 2016-10-24 13:53:51]	[UserID:]	[IP:10.10.11.1]	[Browser:Chrome - 53.0.2785.143]	[Action:GetProgramList ]	[Remarks:"no data"]
[Date: 2016-10-24 13:53:53]	[UserID:14/1082]	[IP:10.10.11.1]	[Browser:Chrome - 53.0.2785.143]	[Action:Making connection to server]	[Remarks:Successful connection to server: S3]
[Date: 2016-10-24 13:53:53]	[UserID:14/1082]	[IP:10.10.11.1]	[Browser:Chrome - 53.0.2785.143]	[Action:User 14/1082]	[Remarks:Success]
[Date: 2016-10-24 13:53:53]	[UserID:14/1082]	[IP:10.10.11.1]	[Browser:Chrome - 53.0.2785.143]	[Action:Filtering User : MasterData Username : 14/1082]	[Remarks:Successful filter row count: 0]
[Date: 2016-10-24 13:53:53]	[UserID:14/1082]	[IP:10.10.11.1]	[Browser:Chrome - 53.0.2785.143]	[Action:Filtering User : MasterData Username : 14/1082]	[Remarks:Successful filter row count: 0]
[Date: 2016-10-24 13:53:53]	[UserID:14/1082]	[IP:10.10.11.1]	[Browser:Chrome - 53.0.2785.143]	[Action:Filtering User : MasterData Username : 14/1082]	[Remarks:Success]
[Date: 2016-10-24 13:53:53]	[UserID:14/1082]	[IP:10.10.11.1]	[Browser:Chrome - 53.0.2785.143]	[Action:Closing mssql connection]	[Remarks:Success]
[Date: 2016-10-24 13:53:53]	[UserID:14/1082]	[IP:10.10.11.1]	[Browser:Chrome - 53.0.2785.143]	[Action:Making connection to server]	[Remarks:Successful connection to server: S3]
[Date: 2016-10-24 13:53:53]	[UserID:14/1082]	[IP:10.10.11.1]	[Browser:Chrome - 53.0.2785.143]	[Action:GetProgramList 14/1082]	[Remarks:[{"ID":"1","ProgramIndex":"GST","ProgramName":"GST"}]]
[Date: 2016-10-24 13:53:53]	[UserID:14/1082]	[IP:10.10.11.1]	[Browser:Chrome - 53.0.2785.143]	[Action:Making connection to server]	[Remarks:Successful connection to server: S3]
[Date: 2016-10-24 13:53:53]	[UserID:14/1082]	[IP:10.10.11.1]	[Browser:Chrome - 53.0.2785.143]	[Action:GetProgramList 14/1082]	[Remarks:[{"ID":"1","ProgramIndex":"GST","ProgramName":"GST"}]]
[Date: 2016-10-24 13:53:53]	[UserID:14/1082]	[IP:10.10.11.1]	[Browser:Chrome - 53.0.2785.143]	[Action:Making connection to server]	[Remarks:Successful connection to server: S3]
[Date: 2016-10-24 13:53:53]	[UserID:14/1082]	[IP:10.10.11.1]	[Browser:Chrome - 53.0.2785.143]	[Action:Filtering User : MasterData Username : 14/1082]	[Remarks:Successful filter row count: 1]
[Date: 2016-10-24 13:53:54]	[UserID:14/1082]	[IP:10.10.11.1]	[Browser:Chrome - 53.0.2785.143]	[Action:Making connection to server]	[Remarks:Successful connection to server: S3]
[Date: 2016-10-24 13:53:54]	[UserID:14/1082]	[IP:10.10.11.1]	[Browser:Chrome - 53.0.2785.143]	[Action:GetGSTModules 14/1082,1]	[Remarks:Successful filter row count: 7]
[Date: 2016-10-24 13:53:54]	[UserID:14/1082]	[IP:10.10.11.1]	[Browser:Chrome - 53.0.2785.143]	[Action:Closing mssql connection]	[Remarks:Success]
[Date: 2016-10-24 13:53:57]	[UserID:14/1082]	[IP:10.10.11.1]	[Browser:Chrome - 53.0.2785.143]	[Action:Making connection to server]	[Remarks:Successful connection to server: S3]
[Date: 2016-10-24 13:53:57]	[UserID:14/1082]	[IP:10.10.11.1]	[Browser:Chrome - 53.0.2785.143]	[Action:GetGSTModules 14/1082,1]	[Remarks:Successful filter row count: 7]
[Date: 2016-10-24 13:53:57]	[UserID:14/1082]	[IP:10.10.11.1]	[Browser:Chrome - 53.0.2785.143]	[Action:Closing mssql connection]	[Remarks:Success]
[Date: 2016-10-24 13:57:06]	[UserID:14/1082]	[IP:10.10.11.1]	[Browser:Chrome - 53.0.2785.143]	[Action:Making connection to server]	[Remarks:Successful connection to server: S3]
[Date: 2016-10-24 13:57:06]	[UserID:14/1082]	[IP:10.10.11.1]	[Browser:Chrome - 53.0.2785.143]	[Action:GetGSTModules 14/1082,1]	[Remarks:Successful filter row count: 7]
[Date: 2016-10-24 13:57:06]	[UserID:14/1082]	[IP:10.10.11.1]	[Browser:Chrome - 53.0.2785.143]	[Action:Closing mssql connection]	[Remarks:Success]
[Date: 2016-10-24 14:07:34]	[UserID:]	[IP:10.10.11.1]	[Browser:Chrome - 53.0.2785.143]	[Action:Making connection to server]	[Remarks:Successful connection to server: S3]
[Date: 2016-10-24 14:07:34]	[UserID:]	[IP:10.10.11.1]	[Browser:Chrome - 53.0.2785.143]	[Action:GetProgramList ]	[Remarks:"no data"]
[Date: 2016-10-24 14:23:38]	[UserID:]	[IP:10.10.11.1]	[Browser:Chrome - 53.0.2785.143]	[Action:Making connection to server]	[Remarks:Successful connection to server: S3]
[Date: 2016-10-24 14:23:39]	[UserID:]	[IP:10.10.11.1]	[Browser:Chrome - 53.0.2785.143]	[Action:GetProgramList ]	[Remarks:"no data"]
[Date: 2016-10-24 14:29:04]	[UserID:10/660]	[IP:10.10.11.1]	[Browser:Chrome - 53.0.2785.143]	[Action:Making connection to server]	[Remarks:Successful connection to server: S3]
[Date: 2016-10-24 14:29:04]	[UserID:10/660]	[IP:10.10.11.1]	[Browser:Chrome - 53.0.2785.143]	[Action:User 10/660]	[Remarks:Success]
[Date: 2016-10-24 14:29:05]	[UserID:10/660]	[IP:10.10.11.1]	[Browser:Chrome - 53.0.2785.143]	[Action:Filtering User : MasterData Username : 10/660]	[Remarks:Successful filter row count: 0]
[Date: 2016-10-24 14:29:05]	[UserID:10/660]	[IP:10.10.11.1]	[Browser:Chrome - 53.0.2785.143]	[Action:Filtering User : MasterData Username : 10/660]	[Remarks:Successful filter row count: 0]
[Date: 2016-10-24 14:29:05]	[UserID:10/660]	[IP:10.10.11.1]	[Browser:Chrome - 53.0.2785.143]	[Action:Filtering User : MasterData Username : 10/660]	[Remarks:Success]
[Date: 2016-10-24 14:29:05]	[UserID:10/660]	[IP:10.10.11.1]	[Browser:Chrome - 53.0.2785.143]	[Action:Closing mssql connection]	[Remarks:Success]
[Date: 2016-10-24 14:29:05]	[UserID:10/660]	[IP:10.10.11.1]	[Browser:Chrome - 53.0.2785.143]	[Action:Making connection to server]	[Remarks:Successful connection to server: S3]
[Date: 2016-10-24 14:29:05]	[UserID:10/660]	[IP:10.10.11.1]	[Browser:Chrome - 53.0.2785.143]	[Action:GetProgramList 10/660]	[Remarks:[{"ID":"1","ProgramIndex":"GST","ProgramName":"GST"}]]
[Date: 2016-10-24 14:29:05]	[UserID:10/660]	[IP:10.10.11.1]	[Browser:Chrome - 53.0.2785.143]	[Action:Making connection to server]	[Remarks:Successful connection to server: S3]
[Date: 2016-10-24 14:29:05]	[UserID:10/660]	[IP:10.10.11.1]	[Browser:Chrome - 53.0.2785.143]	[Action:GetProgramList 10/660]	[Remarks:[{"ID":"1","ProgramIndex":"GST","ProgramName":"GST"}]]
[Date: 2016-10-24 14:29:05]	[UserID:10/660]	[IP:10.10.11.1]	[Browser:Chrome - 53.0.2785.143]	[Action:Making connection to server]	[Remarks:Successful connection to server: S3]
[Date: 2016-10-24 14:29:05]	[UserID:10/660]	[IP:10.10.11.1]	[Browser:Chrome - 53.0.2785.143]	[Action:Filtering User : MasterData Username : 10/660]	[Remarks:Successful filter row count: 1]
[Date: 2016-10-24 14:29:06]	[UserID:10/660]	[IP:10.10.11.1]	[Browser:Chrome - 53.0.2785.143]	[Action:Making connection to server]	[Remarks:Successful connection to server: S3]
[Date: 2016-10-24 14:29:06]	[UserID:10/660]	[IP:10.10.11.1]	[Browser:Chrome - 53.0.2785.143]	[Action:GetGSTModules 10/660,1]	[Remarks:Successful filter row count: 3]
[Date: 2016-10-24 14:29:06]	[UserID:10/660]	[IP:10.10.11.1]	[Browser:Chrome - 53.0.2785.143]	[Action:Closing mssql connection]	[Remarks:Success]
[Date: 2016-10-24 14:33:06]	[UserID:10/660]	[IP:10.10.11.1]	[Browser:Chrome - 53.0.2785.143]	[Action:Making connection to server]	[Remarks:Successful connection to server: S3]
[Date: 2016-10-24 14:33:07]	[UserID:10/660]	[IP:10.10.11.1]	[Browser:Chrome - 53.0.2785.143]	[Action:GetGSTModules 10/660,1]	[Remarks:Successful filter row count: 3]
[Date: 2016-10-24 14:33:07]	[UserID:10/660]	[IP:10.10.11.1]	[Browser:Chrome - 53.0.2785.143]	[Action:Closing mssql connection]	[Remarks:Success]
[Date: 2016-10-24 14:45:15]	[UserID:10/660]	[IP:10.10.11.1]	[Browser:Chrome - 53.0.2785.143]	[Action:Making connection to server]	[Remarks:Successful connection to server: S3]
[Date: 2016-10-24 14:45:16]	[UserID:10/660]	[IP:10.10.11.1]	[Browser:Chrome - 53.0.2785.143]	[Action:GetGSTModules 10/660,1]	[Remarks:Successful filter row count: 3]
[Date: 2016-10-24 14:45:16]	[UserID:10/660]	[IP:10.10.11.1]	[Browser:Chrome - 53.0.2785.143]	[Action:Closing mssql connection]	[Remarks:Success]
[Date: 2016-10-24 14:47:50]	[UserID:10/660]	[IP:10.10.11.1]	[Browser:Chrome - 53.0.2785.143]	[Action:Making connection to server]	[Remarks:Successful connection to server: S3]
[Date: 2016-10-24 14:47:50]	[UserID:10/660]	[IP:10.10.11.1]	[Browser:Chrome - 53.0.2785.143]	[Action:GetGSTModules 10/660,1]	[Remarks:Successful filter row count: 3]
[Date: 2016-10-24 14:47:50]	[UserID:10/660]	[IP:10.10.11.1]	[Browser:Chrome - 53.0.2785.143]	[Action:Closing mssql connection]	[Remarks:Success]
[Date: 2016-10-24 14:47:52]	[UserID:]	[IP:10.10.11.1]	[Browser:Chrome - 53.0.2785.143]	[Action:Making connection to server]	[Remarks:Successful connection to server: S3]
[Date: 2016-10-24 14:47:52]	[UserID:]	[IP:10.10.11.1]	[Browser:Chrome - 53.0.2785.143]	[Action:GetProgramList ]	[Remarks:"no data"]
[Date: 2016-10-24 15:29:03]	[UserID:]	[IP:10.10.11.1]	[Browser:Chrome - 53.0.2785.143]	[Action:Making connection to server]	[Remarks:Successful connection to server: S3]
[Date: 2016-10-24 15:29:03]	[UserID:]	[IP:10.10.11.1]	[Browser:Chrome - 53.0.2785.143]	[Action:GetProgramList ]	[Remarks:"no data"]
[Date: 2016-10-24 15:29:05]	[UserID:14/1082]	[IP:10.10.11.1]	[Browser:Chrome - 53.0.2785.143]	[Action:Making connection to server]	[Remarks:Successful connection to server: S3]
[Date: 2016-10-24 15:29:05]	[UserID:14/1082]	[IP:10.10.11.1]	[Browser:Chrome - 53.0.2785.143]	[Action:User 14/1082]	[Remarks:Success]
[Date: 2016-10-24 15:29:05]	[UserID:14/1082]	[IP:10.10.11.1]	[Browser:Chrome - 53.0.2785.143]	[Action:Filtering User : MasterData Username : 14/1082]	[Remarks:Successful filter row count: 0]
[Date: 2016-10-24 15:29:05]	[UserID:14/1082]	[IP:10.10.11.1]	[Browser:Chrome - 53.0.2785.143]	[Action:Filtering User : MasterData Username : 14/1082]	[Remarks:Successful filter row count: 0]
[Date: 2016-10-24 15:29:05]	[UserID:14/1082]	[IP:10.10.11.1]	[Browser:Chrome - 53.0.2785.143]	[Action:Filtering User : MasterData Username : 14/1082]	[Remarks:Success]
[Date: 2016-10-24 15:29:05]	[UserID:14/1082]	[IP:10.10.11.1]	[Browser:Chrome - 53.0.2785.143]	[Action:Closing mssql connection]	[Remarks:Success]
[Date: 2016-10-24 15:29:05]	[UserID:14/1082]	[IP:10.10.11.1]	[Browser:Chrome - 53.0.2785.143]	[Action:Making connection to server]	[Remarks:Successful connection to server: S3]
[Date: 2016-10-24 15:29:05]	[UserID:14/1082]	[IP:10.10.11.1]	[Browser:Chrome - 53.0.2785.143]	[Action:GetProgramList 14/1082]	[Remarks:[{"ID":"1","ProgramIndex":"GST","ProgramName":"GST"}]]
[Date: 2016-10-24 15:29:05]	[UserID:14/1082]	[IP:10.10.11.1]	[Browser:Chrome - 53.0.2785.143]	[Action:Making connection to server]	[Remarks:Successful connection to server: S3]
[Date: 2016-10-24 15:29:05]	[UserID:14/1082]	[IP:10.10.11.1]	[Browser:Chrome - 53.0.2785.143]	[Action:GetProgramList 14/1082]	[Remarks:[{"ID":"1","ProgramIndex":"GST","ProgramName":"GST"}]]
[Date: 2016-10-24 15:29:05]	[UserID:14/1082]	[IP:10.10.11.1]	[Browser:Chrome - 53.0.2785.143]	[Action:Making connection to server]	[Remarks:Successful connection to server: S3]
[Date: 2016-10-24 15:29:05]	[UserID:14/1082]	[IP:10.10.11.1]	[Browser:Chrome - 53.0.2785.143]	[Action:Filtering User : MasterData Username : 14/1082]	[Remarks:Successful filter row count: 1]
[Date: 2016-10-24 15:29:05]	[UserID:14/1082]	[IP:10.10.11.1]	[Browser:Chrome - 53.0.2785.143]	[Action:Making connection to server]	[Remarks:Successful connection to server: S3]
[Date: 2016-10-24 15:29:06]	[UserID:14/1082]	[IP:10.10.11.1]	[Browser:Chrome - 53.0.2785.143]	[Action:GetGSTModules 14/1082,1]	[Remarks:Successful filter row count: 7]
[Date: 2016-10-24 15:29:06]	[UserID:14/1082]	[IP:10.10.11.1]	[Browser:Chrome - 53.0.2785.143]	[Action:Closing mssql connection]	[Remarks:Success]
[Date: 2016-10-24 15:41:20]	[UserID:14/1082]	[IP:10.10.11.1]	[Browser:Chrome - 53.0.2785.143]	[Action:Making connection to server]	[Remarks:Successful connection to server: S3]
[Date: 2016-10-24 15:41:20]	[UserID:14/1082]	[IP:10.10.11.1]	[Browser:Chrome - 53.0.2785.143]	[Action:GetGSTModules 14/1082,1]	[Remarks:Successful filter row count: 7]
[Date: 2016-10-24 15:41:20]	[UserID:14/1082]	[IP:10.10.11.1]	[Browser:Chrome - 53.0.2785.143]	[Action:Closing mssql connection]	[Remarks:Success]
[Date: 2016-10-24 15:42:08]	[UserID:14/1082]	[IP:10.10.11.1]	[Browser:Chrome - 53.0.2785.143]	[Action:Making connection to server]	[Remarks:Successful connection to server: S3]
[Date: 2016-10-24 15:42:14]	[UserID:14/1082]	[IP:10.10.11.1]	[Browser:Chrome - 53.0.2785.143]	[Action:GetGSTModules 14/1082,1]	[Remarks:Successful filter row count: 7]
[Date: 2016-10-24 15:42:14]	[UserID:14/1082]	[IP:10.10.11.1]	[Browser:Chrome - 53.0.2785.143]	[Action:Closing mssql connection]	[Remarks:Success]
[Date: 2016-10-24 15:52:11]	[UserID:14/1082]	[IP:10.10.11.1]	[Browser:Chrome - 53.0.2785.143]	[Action:Making connection to server]	[Remarks:Successful connection to server: S3]
[Date: 2016-10-24 15:52:11]	[UserID:14/1082]	[IP:10.10.11.1]	[Browser:Chrome - 53.0.2785.143]	[Action:GetGSTModules 14/1082,1]	[Remarks:Successful filter row count: 7]
[Date: 2016-10-24 15:52:11]	[UserID:14/1082]	[IP:10.10.11.1]	[Browser:Chrome - 53.0.2785.143]	[Action:Closing mssql connection]	[Remarks:Success]
[Date: 2016-10-24 16:49:09]	[UserID:14/1082]	[IP:10.10.11.1]	[Browser:Chrome - 53.0.2785.143]	[Action:Making connection to server]	[Remarks:Successful connection to server: S3]
[Date: 2016-10-24 16:49:13]	[UserID:14/1082]	[IP:10.10.11.1]	[Browser:Chrome - 53.0.2785.143]	[Action:GetGSTModules 14/1082,1]	[Remarks:Successful filter row count: 7]
[Date: 2016-10-24 16:49:13]	[UserID:14/1082]	[IP:10.10.11.1]	[Browser:Chrome - 53.0.2785.143]	[Action:Closing mssql connection]	[Remarks:Success]
[Date: 2016-10-24 17:01:17]	[UserID:]	[IP:10.10.11.1]	[Browser:Chrome - 53.0.2785.143]	[Action:Making connection to server]	[Remarks:Successful connection to server: S3]
[Date: 2016-10-24 17:01:17]	[UserID:]	[IP:10.10.11.1]	[Browser:Chrome - 53.0.2785.143]	[Action:GetProgramList ]	[Remarks:"no data"]
