[Date: 2020-07-13 08:06:29]	[UserID:]	[IP:10.128.130.5]	[Browser:Firefox - 78.0]	[Action:Making connection to server]	[Remarks:Successful connection to server: S3]
[Date: 2020-07-13 08:06:29]	[UserID:]	[IP:10.128.130.5]	[Browser:Firefox - 78.0]	[Action:GetProgramList ]	[Remarks:"no data"]
[Date: 2020-07-13 09:07:26]	[UserID:]	[IP:10.128.12.114]	[Browser:Chrome - 83.0.4103.116]	[Action:Making connection to server]	[Remarks:Successful connection to server: S3]
[Date: 2020-07-13 09:07:26]	[UserID:]	[IP:10.128.12.114]	[Browser:Chrome - 83.0.4103.116]	[Action:GetProgramList ]	[Remarks:"no data"]
[Date: 2020-07-13 09:07:32]	[UserID:14/1082]	[IP:10.128.12.114]	[Browser:Chrome - 83.0.4103.116]	[Action:Making connection to server]	[Remarks:Successful connection to server: S3]
[Date: 2020-07-13 09:07:32]	[UserID:14/1082]	[IP:10.128.12.114]	[Browser:Chrome - 83.0.4103.116]	[Action:User 14/1082]	[Remarks:Success]
[Date: 2020-07-13 09:07:32]	[UserID:14/1082]	[IP:10.128.12.114]	[Browser:Chrome - 83.0.4103.116]	[Action:Filtering User : MasterData Username : 14/1082]	[Remarks:Successful filter row count: 0]
[Date: 2020-07-13 09:07:32]	[UserID:14/1082]	[IP:10.128.12.114]	[Browser:Chrome - 83.0.4103.116]	[Action:Filtering User : MasterData Username : 14/1082]	[Remarks:Successful filter row count: 0]
[Date: 2020-07-13 09:07:32]	[UserID:14/1082]	[IP:10.128.12.114]	[Browser:Chrome - 83.0.4103.116]	[Action:Filtering User : MasterData Username : 14/1082]	[Remarks:Success]
[Date: 2020-07-13 09:07:32]	[UserID:14/1082]	[IP:10.128.12.114]	[Browser:Chrome - 83.0.4103.116]	[Action:Closing mssql connection]	[Remarks:Success]
[Date: 2020-07-13 09:07:32]	[UserID:14/1082]	[IP:10.128.12.114]	[Browser:Chrome - 83.0.4103.116]	[Action:Making connection to server]	[Remarks:Successful connection to server: S3]
[Date: 2020-07-13 09:07:32]	[UserID:14/1082]	[IP:10.128.12.114]	[Browser:Chrome - 83.0.4103.116]	[Action:GetProgramList 14/1082]	[Remarks:[{"ID":"1","ProgramIndex":"GST","ProgramName":"GST"}]]
[Date: 2020-07-13 09:07:32]	[UserID:14/1082]	[IP:10.128.12.114]	[Browser:Chrome - 83.0.4103.116]	[Action:Making connection to server]	[Remarks:Successful connection to server: S3]
[Date: 2020-07-13 09:07:32]	[UserID:14/1082]	[IP:10.128.12.114]	[Browser:Chrome - 83.0.4103.116]	[Action:GetProgramList 14/1082]	[Remarks:[{"ID":"1","ProgramIndex":"GST","ProgramName":"GST"}]]
[Date: 2020-07-13 09:07:32]	[UserID:14/1082]	[IP:10.128.12.114]	[Browser:Chrome - 83.0.4103.116]	[Action:Making connection to server]	[Remarks:Successful connection to server: S3]
[Date: 2020-07-13 09:07:32]	[UserID:14/1082]	[IP:10.128.12.114]	[Browser:Chrome - 83.0.4103.116]	[Action:Filtering User : MasterData Username : 14/1082]	[Remarks:Successful filter row count: 1]
[Date: 2020-07-13 09:07:32]	[UserID:14/1082]	[IP:10.128.12.114]	[Browser:Chrome - 83.0.4103.116]	[Action:Making connection to server]	[Remarks:Successful connection to server: S3]
[Date: 2020-07-13 09:07:33]	[UserID:14/1082]	[IP:10.128.12.114]	[Browser:Chrome - 83.0.4103.116]	[Action:GetGSTModules 14/1082,1]	[Remarks:Successful filter row count: 8]
[Date: 2020-07-13 09:07:33]	[UserID:14/1082]	[IP:10.128.12.114]	[Browser:Chrome - 83.0.4103.116]	[Action:Closing mssql connection]	[Remarks:Success]
[Date: 2020-07-13 11:16:17]	[UserID:14/1082]	[IP:10.128.12.114]	[Browser:Chrome - 83.0.4103.116]	[Action:Making connection to server]	[Remarks:Successful connection to server: S3]
[Date: 2020-07-13 11:16:17]	[UserID:14/1082]	[IP:10.128.12.114]	[Browser:Chrome - 83.0.4103.116]	[Action:GetGSTModules 14/1082,1]	[Remarks:Successful filter row count: 8]
[Date: 2020-07-13 11:16:17]	[UserID:14/1082]	[IP:10.128.12.114]	[Browser:Chrome - 83.0.4103.116]	[Action:Closing mssql connection]	[Remarks:Success]
[Date: 2020-07-13 11:16:19]	[UserID:]	[IP:10.128.12.114]	[Browser:Chrome - 83.0.4103.116]	[Action:Making connection to server]	[Remarks:Successful connection to server: S3]
[Date: 2020-07-13 11:16:19]	[UserID:]	[IP:10.128.12.114]	[Browser:Chrome - 83.0.4103.116]	[Action:GetProgramList ]	[Remarks:"no data"]
[Date: 2020-07-13 11:16:24]	[UserID:]	[IP:10.128.12.114]	[Browser:Chrome - 83.0.4103.116]	[Action:Making connection to server]	[Remarks:Successful connection to server: S3]
[Date: 2020-07-13 11:16:24]	[UserID:]	[IP:10.128.12.114]	[Browser:Chrome - 83.0.4103.116]	[Action:GetProgramList ]	[Remarks:"no data"]
[Date: 2020-07-13 11:16:29]	[UserID:14/1082]	[IP:10.128.12.114]	[Browser:Chrome - 83.0.4103.116]	[Action:Making connection to server]	[Remarks:Successful connection to server: S3]
[Date: 2020-07-13 11:16:29]	[UserID:14/1082]	[IP:10.128.12.114]	[Browser:Chrome - 83.0.4103.116]	[Action:User 14/1082]	[Remarks:Success]
[Date: 2020-07-13 11:16:29]	[UserID:14/1082]	[IP:10.128.12.114]	[Browser:Chrome - 83.0.4103.116]	[Action:Filtering User : MasterData Username : 14/1082]	[Remarks:Successful filter row count: 0]
[Date: 2020-07-13 11:16:29]	[UserID:14/1082]	[IP:10.128.12.114]	[Browser:Chrome - 83.0.4103.116]	[Action:Filtering User : MasterData Username : 14/1082]	[Remarks:Successful filter row count: 0]
[Date: 2020-07-13 11:16:29]	[UserID:14/1082]	[IP:10.128.12.114]	[Browser:Chrome - 83.0.4103.116]	[Action:Filtering User : MasterData Username : 14/1082]	[Remarks:Success]
[Date: 2020-07-13 11:16:29]	[UserID:14/1082]	[IP:10.128.12.114]	[Browser:Chrome - 83.0.4103.116]	[Action:Closing mssql connection]	[Remarks:Success]
[Date: 2020-07-13 11:16:29]	[UserID:14/1082]	[IP:10.128.12.114]	[Browser:Chrome - 83.0.4103.116]	[Action:Making connection to server]	[Remarks:Successful connection to server: S3]
[Date: 2020-07-13 11:16:29]	[UserID:14/1082]	[IP:10.128.12.114]	[Browser:Chrome - 83.0.4103.116]	[Action:GetProgramList 14/1082]	[Remarks:[{"ID":"1","ProgramIndex":"GST","ProgramName":"GST"}]]
[Date: 2020-07-13 11:16:29]	[UserID:14/1082]	[IP:10.128.12.114]	[Browser:Chrome - 83.0.4103.116]	[Action:Making connection to server]	[Remarks:Successful connection to server: S3]
[Date: 2020-07-13 11:16:29]	[UserID:14/1082]	[IP:10.128.12.114]	[Browser:Chrome - 83.0.4103.116]	[Action:GetProgramList 14/1082]	[Remarks:[{"ID":"1","ProgramIndex":"GST","ProgramName":"GST"}]]
[Date: 2020-07-13 11:16:29]	[UserID:14/1082]	[IP:10.128.12.114]	[Browser:Chrome - 83.0.4103.116]	[Action:Making connection to server]	[Remarks:Successful connection to server: S3]
[Date: 2020-07-13 11:16:29]	[UserID:14/1082]	[IP:10.128.12.114]	[Browser:Chrome - 83.0.4103.116]	[Action:Filtering User : MasterData Username : 14/1082]	[Remarks:Successful filter row count: 1]
[Date: 2020-07-13 11:16:30]	[UserID:14/1082]	[IP:10.128.12.114]	[Browser:Chrome - 83.0.4103.116]	[Action:Making connection to server]	[Remarks:Successful connection to server: S3]
[Date: 2020-07-13 11:16:30]	[UserID:14/1082]	[IP:10.128.12.114]	[Browser:Chrome - 83.0.4103.116]	[Action:GetGSTModules 14/1082,1]	[Remarks:Successful filter row count: 8]
[Date: 2020-07-13 11:16:30]	[UserID:14/1082]	[IP:10.128.12.114]	[Browser:Chrome - 83.0.4103.116]	[Action:Closing mssql connection]	[Remarks:Success]
[Date: 2020-07-13 15:58:19]	[UserID:]	[IP:10.128.12.114]	[Browser:Chrome - 83.0.4103.116]	[Action:Making connection to server]	[Remarks:Successful connection to server: S3]
[Date: 2020-07-13 15:58:19]	[UserID:]	[IP:10.128.12.114]	[Browser:Chrome - 83.0.4103.116]	[Action:GetProgramList ]	[Remarks:"no data"]
[Date: 2020-07-13 23:23:42]	[UserID:]	[IP:10.128.130.5]	[Browser:Chrome - 83.0.4103.116]	[Action:Making connection to server]	[Remarks:Successful connection to server: S3]
[Date: 2020-07-13 23:23:42]	[UserID:]	[IP:10.128.130.5]	[Browser:Chrome - 83.0.4103.116]	[Action:GetProgramList ]	[Remarks:"no data"]
