[Date: 2015-08-25 08:41:30]	[UserID:]	[IP:10.10.11.1]	[Browser:Chrome - 44.0.2403.157]	[Action:Making connection to server]	[Remarks:Successful connection to server: S3]
[Date: 2015-08-25 08:41:30]	[UserID:]	[IP:10.10.11.1]	[Browser:Chrome - 44.0.2403.157]	[Action:GetProgramList ]	[Remarks:"no data"]
[Date: 2015-08-25 08:41:32]	[UserID:08/504]	[IP:10.10.11.1]	[Browser:Chrome - 44.0.2403.157]	[Action:Making connection to server]	[Remarks:Successful connection to server: S3]
[Date: 2015-08-25 08:41:32]	[UserID:08/504]	[IP:10.10.11.1]	[Browser:Chrome - 44.0.2403.157]	[Action:User 08/504]	[Remarks:Success]
[Date: 2015-08-25 08:41:32]	[UserID:08/504]	[IP:10.10.11.1]	[Browser:Chrome - 44.0.2403.157]	[Action:Filtering User : MasterData Username : 08/504]	[Remarks:Successful filter row count: 0]
[Date: 2015-08-25 08:41:32]	[UserID:08/504]	[IP:10.10.11.1]	[Browser:Chrome - 44.0.2403.157]	[Action:Filtering User : MasterData Username : 08/504]	[Remarks:Successful filter row count: 0]
[Date: 2015-08-25 08:41:32]	[UserID:08/504]	[IP:10.10.11.1]	[Browser:Chrome - 44.0.2403.157]	[Action:Filtering User : MasterData Username : 08/504]	[Remarks:Success]
[Date: 2015-08-25 08:41:32]	[UserID:08/504]	[IP:10.10.11.1]	[Browser:Chrome - 44.0.2403.157]	[Action:Closing mssql connection]	[Remarks:Success]
[Date: 2015-08-25 08:41:33]	[UserID:08/504]	[IP:10.10.11.1]	[Browser:Chrome - 44.0.2403.157]	[Action:Making connection to server]	[Remarks:Successful connection to server: S3]
[Date: 2015-08-25 08:41:33]	[UserID:08/504]	[IP:10.10.11.1]	[Browser:Chrome - 44.0.2403.157]	[Action:GetProgramList 08/504]	[Remarks:[{"ID":"1","ProgramIndex":"GST","ProgramName":"GST"}]]
[Date: 2015-08-25 08:41:33]	[UserID:08/504]	[IP:10.10.11.1]	[Browser:Chrome - 44.0.2403.157]	[Action:Making connection to server]	[Remarks:Successful connection to server: S3]
[Date: 2015-08-25 08:41:33]	[UserID:08/504]	[IP:10.10.11.1]	[Browser:Chrome - 44.0.2403.157]	[Action:GetProgramList 08/504]	[Remarks:[{"ID":"1","ProgramIndex":"GST","ProgramName":"GST"}]]
[Date: 2015-08-25 08:41:33]	[UserID:08/504]	[IP:10.10.11.1]	[Browser:Chrome - 44.0.2403.157]	[Action:Making connection to server]	[Remarks:Successful connection to server: S3]
[Date: 2015-08-25 08:41:33]	[UserID:08/504]	[IP:10.10.11.1]	[Browser:Chrome - 44.0.2403.157]	[Action:Filtering User : MasterData Username : 08/504]	[Remarks:Successful filter row count: 1]
[Date: 2015-08-25 08:41:34]	[UserID:08/504]	[IP:10.10.11.1]	[Browser:Chrome - 44.0.2403.157]	[Action:Making connection to server]	[Remarks:Successful connection to server: S3]
[Date: 2015-08-25 08:41:34]	[UserID:08/504]	[IP:10.10.11.1]	[Browser:Chrome - 44.0.2403.157]	[Action:GetGSTModules 08/504,1]	[Remarks:Successful filter row count: 3]
[Date: 2015-08-25 08:41:34]	[UserID:08/504]	[IP:10.10.11.1]	[Browser:Chrome - 44.0.2403.157]	[Action:Closing mssql connection]	[Remarks:Success]
[Date: 2015-08-25 08:45:20]	[UserID:08/504]	[IP:10.10.11.1]	[Browser:Chrome - 44.0.2403.157]	[Action:Making connection to server]	[Remarks:Successful connection to server: S3]
[Date: 2015-08-25 08:45:20]	[UserID:08/504]	[IP:10.10.11.1]	[Browser:Chrome - 44.0.2403.157]	[Action:GetGSTModules 08/504,1]	[Remarks:Successful filter row count: 3]
[Date: 2015-08-25 08:45:20]	[UserID:08/504]	[IP:10.10.11.1]	[Browser:Chrome - 44.0.2403.157]	[Action:Closing mssql connection]	[Remarks:Success]
[Date: 2015-08-25 08:48:21]	[UserID:08/504]	[IP:10.10.11.1]	[Browser:Chrome - 44.0.2403.157]	[Action:Making connection to server]	[Remarks:Successful connection to server: S3]
[Date: 2015-08-25 08:48:21]	[UserID:08/504]	[IP:10.10.11.1]	[Browser:Chrome - 44.0.2403.157]	[Action:GetGSTModules 08/504,1]	[Remarks:Successful filter row count: 3]
[Date: 2015-08-25 08:48:21]	[UserID:08/504]	[IP:10.10.11.1]	[Browser:Chrome - 44.0.2403.157]	[Action:Closing mssql connection]	[Remarks:Success]
[Date: 2015-08-25 08:48:44]	[UserID:08/504]	[IP:10.10.11.1]	[Browser:Chrome - 44.0.2403.157]	[Action:Making connection to server]	[Remarks:Successful connection to server: S3]
[Date: 2015-08-25 08:48:44]	[UserID:08/504]	[IP:10.10.11.1]	[Browser:Chrome - 44.0.2403.157]	[Action:GetGSTModules 08/504,1]	[Remarks:Successful filter row count: 3]
[Date: 2015-08-25 08:48:44]	[UserID:08/504]	[IP:10.10.11.1]	[Browser:Chrome - 44.0.2403.157]	[Action:Closing mssql connection]	[Remarks:Success]
[Date: 2015-08-25 08:59:44]	[UserID:]	[IP:10.10.11.1]	[Browser:Chrome - 44.0.2403.157]	[Action:Making connection to server]	[Remarks:Successful connection to server: S3]
[Date: 2015-08-25 08:59:45]	[UserID:]	[IP:10.10.11.1]	[Browser:Chrome - 44.0.2403.157]	[Action:GetProgramList ]	[Remarks:"no data"]
[Date: 2015-08-25 08:59:47]	[UserID:06/371]	[IP:10.10.11.1]	[Browser:Chrome - 44.0.2403.157]	[Action:Making connection to server]	[Remarks:Successful connection to server: S3]
[Date: 2015-08-25 08:59:47]	[UserID:06/371]	[IP:10.10.11.1]	[Browser:Chrome - 44.0.2403.157]	[Action:User 06/371]	[Remarks:Success]
[Date: 2015-08-25 08:59:47]	[UserID:06/371]	[IP:10.10.11.1]	[Browser:Chrome - 44.0.2403.157]	[Action:Filtering User : MasterData Username : 06/371]	[Remarks:Successful filter row count: 0]
[Date: 2015-08-25 08:59:47]	[UserID:06/371]	[IP:10.10.11.1]	[Browser:Chrome - 44.0.2403.157]	[Action:Filtering User : MasterData Username : 06/371]	[Remarks:Successful filter row count: 0]
[Date: 2015-08-25 08:59:47]	[UserID:06/371]	[IP:10.10.11.1]	[Browser:Chrome - 44.0.2403.157]	[Action:Filtering User : MasterData Username : 06/371]	[Remarks:Success]
[Date: 2015-08-25 08:59:47]	[UserID:06/371]	[IP:10.10.11.1]	[Browser:Chrome - 44.0.2403.157]	[Action:Closing mssql connection]	[Remarks:Success]
[Date: 2015-08-25 08:59:47]	[UserID:06/371]	[IP:10.10.11.1]	[Browser:Chrome - 44.0.2403.157]	[Action:Making connection to server]	[Remarks:Successful connection to server: S3]
[Date: 2015-08-25 08:59:47]	[UserID:06/371]	[IP:10.10.11.1]	[Browser:Chrome - 44.0.2403.157]	[Action:GetProgramList 06/371]	[Remarks:[{"ID":"1","ProgramIndex":"GST","ProgramName":"GST"}]]
[Date: 2015-08-25 08:59:47]	[UserID:06/371]	[IP:10.10.11.1]	[Browser:Chrome - 44.0.2403.157]	[Action:Making connection to server]	[Remarks:Successful connection to server: S3]
[Date: 2015-08-25 08:59:47]	[UserID:06/371]	[IP:10.10.11.1]	[Browser:Chrome - 44.0.2403.157]	[Action:GetProgramList 06/371]	[Remarks:[{"ID":"1","ProgramIndex":"GST","ProgramName":"GST"}]]
[Date: 2015-08-25 08:59:47]	[UserID:06/371]	[IP:10.10.11.1]	[Browser:Chrome - 44.0.2403.157]	[Action:Making connection to server]	[Remarks:Successful connection to server: S3]
[Date: 2015-08-25 08:59:47]	[UserID:06/371]	[IP:10.10.11.1]	[Browser:Chrome - 44.0.2403.157]	[Action:Filtering User : MasterData Username : 06/371]	[Remarks:Successful filter row count: 1]
[Date: 2015-08-25 08:59:48]	[UserID:06/371]	[IP:10.10.11.1]	[Browser:Chrome - 44.0.2403.157]	[Action:Making connection to server]	[Remarks:Successful connection to server: S3]
[Date: 2015-08-25 08:59:48]	[UserID:06/371]	[IP:10.10.11.1]	[Browser:Chrome - 44.0.2403.157]	[Action:GetGSTModules 06/371,1]	[Remarks:Successful filter row count: 5]
[Date: 2015-08-25 08:59:48]	[UserID:06/371]	[IP:10.10.11.1]	[Browser:Chrome - 44.0.2403.157]	[Action:Closing mssql connection]	[Remarks:Success]
[Date: 2015-08-25 09:09:20]	[UserID:06/371]	[IP:10.10.11.1]	[Browser:Chrome - 44.0.2403.157]	[Action:Making connection to server]	[Remarks:Successful connection to server: S3]
[Date: 2015-08-25 09:09:20]	[UserID:06/371]	[IP:10.10.11.1]	[Browser:Chrome - 44.0.2403.157]	[Action:GetGSTModules 06/371,1]	[Remarks:Successful filter row count: 5]
[Date: 2015-08-25 09:09:20]	[UserID:06/371]	[IP:10.10.11.1]	[Browser:Chrome - 44.0.2403.157]	[Action:Closing mssql connection]	[Remarks:Success]
[Date: 2015-08-25 09:12:57]	[UserID:08/504]	[IP:10.10.11.1]	[Browser:Chrome - 44.0.2403.157]	[Action:Making connection to server]	[Remarks:Successful connection to server: S3]
[Date: 2015-08-25 09:12:57]	[UserID:08/504]	[IP:10.10.11.1]	[Browser:Chrome - 44.0.2403.157]	[Action:GetProgramList 08/504]	[Remarks:[{"ID":"1","ProgramIndex":"GST","ProgramName":"GST"}]]
[Date: 2015-08-25 09:12:57]	[UserID:08/504]	[IP:10.10.11.1]	[Browser:Chrome - 44.0.2403.157]	[Action:Making connection to server]	[Remarks:Successful connection to server: S3]
[Date: 2015-08-25 09:12:57]	[UserID:08/504]	[IP:10.10.11.1]	[Browser:Chrome - 44.0.2403.157]	[Action:GetProgramList 08/504]	[Remarks:[{"ID":"1","ProgramIndex":"GST","ProgramName":"GST"}]]
[Date: 2015-08-25 09:12:57]	[UserID:08/504]	[IP:10.10.11.1]	[Browser:Chrome - 44.0.2403.157]	[Action:Making connection to server]	[Remarks:Successful connection to server: S3]
[Date: 2015-08-25 09:12:57]	[UserID:08/504]	[IP:10.10.11.1]	[Browser:Chrome - 44.0.2403.157]	[Action:Filtering User : MasterData Username : 08/504]	[Remarks:Successful filter row count: 1]
[Date: 2015-08-25 09:12:58]	[UserID:08/504]	[IP:10.10.11.1]	[Browser:Chrome - 44.0.2403.157]	[Action:Making connection to server]	[Remarks:Successful connection to server: S3]
[Date: 2015-08-25 09:12:58]	[UserID:08/504]	[IP:10.10.11.1]	[Browser:Chrome - 44.0.2403.157]	[Action:GetGSTModules 08/504,1]	[Remarks:Successful filter row count: 3]
[Date: 2015-08-25 09:12:58]	[UserID:08/504]	[IP:10.10.11.1]	[Browser:Chrome - 44.0.2403.157]	[Action:Closing mssql connection]	[Remarks:Success]
[Date: 2015-08-25 09:13:28]	[UserID:06/371]	[IP:10.10.11.1]	[Browser:Chrome - 44.0.2403.157]	[Action:Making connection to server]	[Remarks:Successful connection to server: S3]
[Date: 2015-08-25 09:13:29]	[UserID:06/371]	[IP:10.10.11.1]	[Browser:Chrome - 44.0.2403.157]	[Action:GetGSTModules 06/371,1]	[Remarks:Successful filter row count: 5]
[Date: 2015-08-25 09:13:29]	[UserID:06/371]	[IP:10.10.11.1]	[Browser:Chrome - 44.0.2403.157]	[Action:Closing mssql connection]	[Remarks:Success]
[Date: 2015-08-25 09:13:57]	[UserID:06/371]	[IP:10.10.11.1]	[Browser:Chrome - 44.0.2403.157]	[Action:Making connection to server]	[Remarks:Successful connection to server: S3]
[Date: 2015-08-25 09:13:57]	[UserID:06/371]	[IP:10.10.11.1]	[Browser:Chrome - 44.0.2403.157]	[Action:GetGSTModules 06/371,1]	[Remarks:Successful filter row count: 5]
[Date: 2015-08-25 09:13:57]	[UserID:06/371]	[IP:10.10.11.1]	[Browser:Chrome - 44.0.2403.157]	[Action:Closing mssql connection]	[Remarks:Success]
[Date: 2015-08-25 09:14:35]	[UserID:06/371]	[IP:10.10.11.1]	[Browser:Chrome - 44.0.2403.157]	[Action:Making connection to server]	[Remarks:Successful connection to server: S3]
[Date: 2015-08-25 09:14:36]	[UserID:06/371]	[IP:10.10.11.1]	[Browser:Chrome - 44.0.2403.157]	[Action:GetGSTModules 06/371,1]	[Remarks:Successful filter row count: 5]
[Date: 2015-08-25 09:14:36]	[UserID:06/371]	[IP:10.10.11.1]	[Browser:Chrome - 44.0.2403.157]	[Action:Closing mssql connection]	[Remarks:Success]
[Date: 2015-08-25 09:14:51]	[UserID:06/371]	[IP:10.10.11.1]	[Browser:Chrome - 44.0.2403.157]	[Action:Making connection to server]	[Remarks:Successful connection to server: S3]
[Date: 2015-08-25 09:14:51]	[UserID:06/371]	[IP:10.10.11.1]	[Browser:Chrome - 44.0.2403.157]	[Action:GetGSTModules 06/371,1]	[Remarks:Successful filter row count: 5]
[Date: 2015-08-25 09:14:51]	[UserID:06/371]	[IP:10.10.11.1]	[Browser:Chrome - 44.0.2403.157]	[Action:Closing mssql connection]	[Remarks:Success]
[Date: 2015-08-25 09:15:18]	[UserID:06/371]	[IP:10.10.11.1]	[Browser:Chrome - 44.0.2403.157]	[Action:Making connection to server]	[Remarks:Successful connection to server: S3]
[Date: 2015-08-25 09:15:18]	[UserID:06/371]	[IP:10.10.11.1]	[Browser:Chrome - 44.0.2403.157]	[Action:GetGSTModules 06/371,1]	[Remarks:Successful filter row count: 5]
[Date: 2015-08-25 09:15:18]	[UserID:06/371]	[IP:10.10.11.1]	[Browser:Chrome - 44.0.2403.157]	[Action:Closing mssql connection]	[Remarks:Success]
[Date: 2015-08-25 09:16:31]	[UserID:06/371]	[IP:10.10.11.1]	[Browser:Chrome - 44.0.2403.157]	[Action:Making connection to server]	[Remarks:Successful connection to server: S3]
[Date: 2015-08-25 09:16:31]	[UserID:06/371]	[IP:10.10.11.1]	[Browser:Chrome - 44.0.2403.157]	[Action:GetGSTModules 06/371,1]	[Remarks:Successful filter row count: 5]
[Date: 2015-08-25 09:16:31]	[UserID:06/371]	[IP:10.10.11.1]	[Browser:Chrome - 44.0.2403.157]	[Action:Closing mssql connection]	[Remarks:Success]
[Date: 2015-08-25 09:20:04]	[UserID:06/371]	[IP:10.10.11.1]	[Browser:Chrome - 44.0.2403.157]	[Action:Making connection to server]	[Remarks:Successful connection to server: S3]
[Date: 2015-08-25 09:20:04]	[UserID:06/371]	[IP:10.10.11.1]	[Browser:Chrome - 44.0.2403.157]	[Action:GetGSTModules 06/371,1]	[Remarks:Successful filter row count: 5]
[Date: 2015-08-25 09:20:04]	[UserID:06/371]	[IP:10.10.11.1]	[Browser:Chrome - 44.0.2403.157]	[Action:Closing mssql connection]	[Remarks:Success]
[Date: 2015-08-25 09:21:12]	[UserID:06/371]	[IP:10.10.11.1]	[Browser:Chrome - 44.0.2403.157]	[Action:Making connection to server]	[Remarks:Successful connection to server: S3]
[Date: 2015-08-25 09:21:13]	[UserID:06/371]	[IP:10.10.11.1]	[Browser:Chrome - 44.0.2403.157]	[Action:GetGSTModules 06/371,1]	[Remarks:Successful filter row count: 5]
[Date: 2015-08-25 09:21:13]	[UserID:06/371]	[IP:10.10.11.1]	[Browser:Chrome - 44.0.2403.157]	[Action:Closing mssql connection]	[Remarks:Success]
[Date: 2015-08-25 09:23:38]	[UserID:06/371]	[IP:10.10.11.1]	[Browser:Chrome - 44.0.2403.157]	[Action:Making connection to server]	[Remarks:Successful connection to server: S3]
[Date: 2015-08-25 09:23:38]	[UserID:06/371]	[IP:10.10.11.1]	[Browser:Chrome - 44.0.2403.157]	[Action:GetGSTModules 06/371,1]	[Remarks:Successful filter row count: 5]
[Date: 2015-08-25 09:23:38]	[UserID:06/371]	[IP:10.10.11.1]	[Browser:Chrome - 44.0.2403.157]	[Action:Closing mssql connection]	[Remarks:Success]
[Date: 2015-08-25 09:25:48]	[UserID:]	[IP:10.10.11.1]	[Browser:Chrome - 44.0.2403.157]	[Action:Making connection to server]	[Remarks:Successful connection to server: S3]
[Date: 2015-08-25 09:25:48]	[UserID:]	[IP:10.10.11.1]	[Browser:Chrome - 44.0.2403.157]	[Action:GetProgramList ]	[Remarks:"no data"]
[Date: 2015-08-25 09:25:49]	[UserID:]	[IP:10.10.11.1]	[Browser:Chrome - 44.0.2403.157]	[Action:Making connection to server]	[Remarks:Successful connection to server: S3]
[Date: 2015-08-25 09:25:49]	[UserID:]	[IP:10.10.11.1]	[Browser:Chrome - 44.0.2403.157]	[Action:GetProgramList ]	[Remarks:"no data"]
[Date: 2015-08-25 09:25:56]	[UserID:06/343]	[IP:10.10.11.1]	[Browser:Chrome - 44.0.2403.157]	[Action:Making connection to server]	[Remarks:Successful connection to server: S3]
[Date: 2015-08-25 09:25:56]	[UserID:06/343]	[IP:10.10.11.1]	[Browser:Chrome - 44.0.2403.157]	[Action:User 06/343]	[Remarks:Success]
[Date: 2015-08-25 09:25:56]	[UserID:06/343]	[IP:10.10.11.1]	[Browser:Chrome - 44.0.2403.157]	[Action:Filtering User : MasterData Username : 06/343]	[Remarks:Successful filter row count: 0]
[Date: 2015-08-25 09:25:56]	[UserID:06/343]	[IP:10.10.11.1]	[Browser:Chrome - 44.0.2403.157]	[Action:Filtering User : MasterData Username : 06/343]	[Remarks:Successful filter row count: 0]
[Date: 2015-08-25 09:25:56]	[UserID:06/343]	[IP:10.10.11.1]	[Browser:Chrome - 44.0.2403.157]	[Action:Filtering User : MasterData Username : 06/343]	[Remarks:Success]
[Date: 2015-08-25 09:25:56]	[UserID:06/343]	[IP:10.10.11.1]	[Browser:Chrome - 44.0.2403.157]	[Action:Closing mssql connection]	[Remarks:Success]
[Date: 2015-08-25 09:25:56]	[UserID:06/343]	[IP:10.10.11.1]	[Browser:Chrome - 44.0.2403.157]	[Action:Making connection to server]	[Remarks:Successful connection to server: S3]
[Date: 2015-08-25 09:25:56]	[UserID:06/343]	[IP:10.10.11.1]	[Browser:Chrome - 44.0.2403.157]	[Action:GetProgramList 06/343]	[Remarks:[{"ID":"1","ProgramIndex":"GST","ProgramName":"GST"}]]
[Date: 2015-08-25 09:25:56]	[UserID:06/343]	[IP:10.10.11.1]	[Browser:Chrome - 44.0.2403.157]	[Action:Making connection to server]	[Remarks:Successful connection to server: S3]
[Date: 2015-08-25 09:25:56]	[UserID:06/343]	[IP:10.10.11.1]	[Browser:Chrome - 44.0.2403.157]	[Action:GetProgramList 06/343]	[Remarks:[{"ID":"1","ProgramIndex":"GST","ProgramName":"GST"}]]
[Date: 2015-08-25 09:25:56]	[UserID:06/343]	[IP:10.10.11.1]	[Browser:Chrome - 44.0.2403.157]	[Action:Making connection to server]	[Remarks:Successful connection to server: S3]
[Date: 2015-08-25 09:25:56]	[UserID:06/343]	[IP:10.10.11.1]	[Browser:Chrome - 44.0.2403.157]	[Action:Filtering User : MasterData Username : 06/343]	[Remarks:Successful filter row count: 1]
[Date: 2015-08-25 09:25:57]	[UserID:06/343]	[IP:10.10.11.1]	[Browser:Chrome - 44.0.2403.157]	[Action:Making connection to server]	[Remarks:Successful connection to server: S3]
[Date: 2015-08-25 09:25:57]	[UserID:06/343]	[IP:10.10.11.1]	[Browser:Chrome - 44.0.2403.157]	[Action:GetGSTModules 06/343,1]	[Remarks:Successful filter row count: 5]
[Date: 2015-08-25 09:25:57]	[UserID:06/343]	[IP:10.10.11.1]	[Browser:Chrome - 44.0.2403.157]	[Action:Closing mssql connection]	[Remarks:Success]
[Date: 2015-08-25 09:49:09]	[UserID:06/371]	[IP:10.10.11.1]	[Browser:Chrome - 44.0.2403.157]	[Action:Making connection to server]	[Remarks:Successful connection to server: S3]
[Date: 2015-08-25 09:49:09]	[UserID:06/371]	[IP:10.10.11.1]	[Browser:Chrome - 44.0.2403.157]	[Action:GetProgramList 06/371]	[Remarks:[{"ID":"1","ProgramIndex":"GST","ProgramName":"GST"}]]
[Date: 2015-08-25 09:49:09]	[UserID:06/371]	[IP:10.10.11.1]	[Browser:Chrome - 44.0.2403.157]	[Action:Making connection to server]	[Remarks:Successful connection to server: S3]
[Date: 2015-08-25 09:49:09]	[UserID:06/371]	[IP:10.10.11.1]	[Browser:Chrome - 44.0.2403.157]	[Action:GetProgramList 06/371]	[Remarks:[{"ID":"1","ProgramIndex":"GST","ProgramName":"GST"}]]
[Date: 2015-08-25 09:49:09]	[UserID:06/371]	[IP:10.10.11.1]	[Browser:Chrome - 44.0.2403.157]	[Action:Making connection to server]	[Remarks:Successful connection to server: S3]
[Date: 2015-08-25 09:49:09]	[UserID:06/371]	[IP:10.10.11.1]	[Browser:Chrome - 44.0.2403.157]	[Action:Filtering User : MasterData Username : 06/371]	[Remarks:Successful filter row count: 1]
[Date: 2015-08-25 09:49:10]	[UserID:06/371]	[IP:10.10.11.1]	[Browser:Chrome - 44.0.2403.157]	[Action:Making connection to server]	[Remarks:Successful connection to server: S3]
[Date: 2015-08-25 09:49:10]	[UserID:06/371]	[IP:10.10.11.1]	[Browser:Chrome - 44.0.2403.157]	[Action:GetGSTModules 06/371,1]	[Remarks:Successful filter row count: 5]
[Date: 2015-08-25 09:49:10]	[UserID:06/371]	[IP:10.10.11.1]	[Browser:Chrome - 44.0.2403.157]	[Action:Closing mssql connection]	[Remarks:Success]
[Date: 2015-08-25 10:00:37]	[UserID:06/371]	[IP:10.10.11.1]	[Browser:Chrome - 44.0.2403.157]	[Action:Making connection to server]	[Remarks:Successful connection to server: S3]
[Date: 2015-08-25 10:00:37]	[UserID:06/371]	[IP:10.10.11.1]	[Browser:Chrome - 44.0.2403.157]	[Action:GetGSTModules 06/371,1]	[Remarks:Successful filter row count: 5]
[Date: 2015-08-25 10:00:37]	[UserID:06/371]	[IP:10.10.11.1]	[Browser:Chrome - 44.0.2403.157]	[Action:Closing mssql connection]	[Remarks:Success]
[Date: 2015-08-25 10:35:33]	[UserID:]	[IP:10.10.11.1]	[Browser:Chrome - 44.0.2403.157]	[Action:Making connection to server]	[Remarks:Successful connection to server: S3]
[Date: 2015-08-25 10:35:33]	[UserID:]	[IP:10.10.11.1]	[Browser:Chrome - 44.0.2403.157]	[Action:GetProgramList ]	[Remarks:"no data"]
[Date: 2015-08-25 10:35:41]	[UserID:10/660]	[IP:10.10.11.1]	[Browser:Chrome - 44.0.2403.157]	[Action:Making connection to server]	[Remarks:Successful connection to server: S3]
[Date: 2015-08-25 10:35:41]	[UserID:10/660]	[IP:10.10.11.1]	[Browser:Chrome - 44.0.2403.157]	[Action:User 10/660]	[Remarks:Success]
[Date: 2015-08-25 10:35:41]	[UserID:10/660]	[IP:10.10.11.1]	[Browser:Chrome - 44.0.2403.157]	[Action:Filtering User : MasterData Username : 10/660]	[Remarks:Successful filter row count: 0]
[Date: 2015-08-25 10:35:41]	[UserID:10/660]	[IP:10.10.11.1]	[Browser:Chrome - 44.0.2403.157]	[Action:Filtering User : MasterData Username : 10/660]	[Remarks:Successful filter row count: 0]
[Date: 2015-08-25 10:35:41]	[UserID:10/660]	[IP:10.10.11.1]	[Browser:Chrome - 44.0.2403.157]	[Action:Filtering User : MasterData Username : 10/660]	[Remarks:Success]
[Date: 2015-08-25 10:35:41]	[UserID:10/660]	[IP:10.10.11.1]	[Browser:Chrome - 44.0.2403.157]	[Action:Closing mssql connection]	[Remarks:Success]
[Date: 2015-08-25 10:35:41]	[UserID:10/660]	[IP:10.10.11.1]	[Browser:Chrome - 44.0.2403.157]	[Action:Making connection to server]	[Remarks:Successful connection to server: S3]
[Date: 2015-08-25 10:35:41]	[UserID:10/660]	[IP:10.10.11.1]	[Browser:Chrome - 44.0.2403.157]	[Action:GetProgramList 10/660]	[Remarks:[{"ID":"1","ProgramIndex":"GST","ProgramName":"GST"}]]
[Date: 2015-08-25 10:35:41]	[UserID:10/660]	[IP:10.10.11.1]	[Browser:Chrome - 44.0.2403.157]	[Action:Making connection to server]	[Remarks:Successful connection to server: S3]
[Date: 2015-08-25 10:35:41]	[UserID:10/660]	[IP:10.10.11.1]	[Browser:Chrome - 44.0.2403.157]	[Action:GetProgramList 10/660]	[Remarks:[{"ID":"1","ProgramIndex":"GST","ProgramName":"GST"}]]
[Date: 2015-08-25 10:35:41]	[UserID:10/660]	[IP:10.10.11.1]	[Browser:Chrome - 44.0.2403.157]	[Action:Making connection to server]	[Remarks:Successful connection to server: S3]
[Date: 2015-08-25 10:35:41]	[UserID:10/660]	[IP:10.10.11.1]	[Browser:Chrome - 44.0.2403.157]	[Action:Filtering User : MasterData Username : 10/660]	[Remarks:Successful filter row count: 1]
[Date: 2015-08-25 10:35:42]	[UserID:10/660]	[IP:10.10.11.1]	[Browser:Chrome - 44.0.2403.157]	[Action:Making connection to server]	[Remarks:Successful connection to server: S3]
[Date: 2015-08-25 10:35:43]	[UserID:10/660]	[IP:10.10.11.1]	[Browser:Chrome - 44.0.2403.157]	[Action:GetGSTModules 10/660,1]	[Remarks:Successful filter row count: 3]
[Date: 2015-08-25 10:35:43]	[UserID:10/660]	[IP:10.10.11.1]	[Browser:Chrome - 44.0.2403.157]	[Action:Closing mssql connection]	[Remarks:Success]
[Date: 2015-08-25 11:04:07]	[UserID:10/660]	[IP:10.10.11.1]	[Browser:Chrome - 44.0.2403.157]	[Action:Making connection to server]	[Remarks:Successful connection to server: S3]
[Date: 2015-08-25 11:04:08]	[UserID:10/660]	[IP:10.10.11.1]	[Browser:Chrome - 44.0.2403.157]	[Action:GetGSTModules 10/660,1]	[Remarks:Successful filter row count: 3]
[Date: 2015-08-25 11:04:08]	[UserID:10/660]	[IP:10.10.11.1]	[Browser:Chrome - 44.0.2403.157]	[Action:Closing mssql connection]	[Remarks:Success]
[Date: 2015-08-25 11:08:39]	[UserID:10/660]	[IP:10.10.11.1]	[Browser:Chrome - 44.0.2403.157]	[Action:Making connection to server]	[Remarks:Successful connection to server: S3]
[Date: 2015-08-25 11:08:39]	[UserID:10/660]	[IP:10.10.11.1]	[Browser:Chrome - 44.0.2403.157]	[Action:GetGSTModules 10/660,1]	[Remarks:Successful filter row count: 3]
[Date: 2015-08-25 11:08:39]	[UserID:10/660]	[IP:10.10.11.1]	[Browser:Chrome - 44.0.2403.157]	[Action:Closing mssql connection]	[Remarks:Success]
[Date: 2015-08-25 11:09:03]	[UserID:]	[IP:10.10.11.1]	[Browser:Chrome - 44.0.2403.157]	[Action:Making connection to server]	[Remarks:Successful connection to server: S3]
[Date: 2015-08-25 11:09:03]	[UserID:]	[IP:10.10.11.1]	[Browser:Chrome - 44.0.2403.157]	[Action:GetProgramList ]	[Remarks:"no data"]
[Date: 2015-08-25 13:27:05]	[UserID:]	[IP:10.10.11.1]	[Browser:Chrome - 44.0.2403.157]	[Action:Making connection to server]	[Remarks:Successful connection to server: S3]
[Date: 2015-08-25 13:27:05]	[UserID:]	[IP:10.10.11.1]	[Browser:Chrome - 44.0.2403.157]	[Action:GetProgramList ]	[Remarks:"no data"]
[Date: 2015-08-25 13:27:07]	[UserID:10/660]	[IP:10.10.11.1]	[Browser:Chrome - 44.0.2403.157]	[Action:Making connection to server]	[Remarks:Successful connection to server: S3]
[Date: 2015-08-25 13:27:08]	[UserID:10/660]	[IP:10.10.11.1]	[Browser:Chrome - 44.0.2403.157]	[Action:User 10/660]	[Remarks:Success]
[Date: 2015-08-25 13:27:08]	[UserID:10/660]	[IP:10.10.11.1]	[Browser:Chrome - 44.0.2403.157]	[Action:Filtering User : MasterData Username : 10/660]	[Remarks:Successful filter row count: 0]
[Date: 2015-08-25 13:27:08]	[UserID:10/660]	[IP:10.10.11.1]	[Browser:Chrome - 44.0.2403.157]	[Action:Filtering User : MasterData Username : 10/660]	[Remarks:Successful filter row count: 0]
[Date: 2015-08-25 13:27:08]	[UserID:10/660]	[IP:10.10.11.1]	[Browser:Chrome - 44.0.2403.157]	[Action:Filtering User : MasterData Username : 10/660]	[Remarks:Success]
[Date: 2015-08-25 13:27:08]	[UserID:10/660]	[IP:10.10.11.1]	[Browser:Chrome - 44.0.2403.157]	[Action:Closing mssql connection]	[Remarks:Success]
[Date: 2015-08-25 13:27:08]	[UserID:10/660]	[IP:10.10.11.1]	[Browser:Chrome - 44.0.2403.157]	[Action:Making connection to server]	[Remarks:Successful connection to server: S3]
[Date: 2015-08-25 13:27:08]	[UserID:10/660]	[IP:10.10.11.1]	[Browser:Chrome - 44.0.2403.157]	[Action:GetProgramList 10/660]	[Remarks:[{"ID":"1","ProgramIndex":"GST","ProgramName":"GST"}]]
[Date: 2015-08-25 13:27:08]	[UserID:10/660]	[IP:10.10.11.1]	[Browser:Chrome - 44.0.2403.157]	[Action:Making connection to server]	[Remarks:Successful connection to server: S3]
[Date: 2015-08-25 13:27:08]	[UserID:10/660]	[IP:10.10.11.1]	[Browser:Chrome - 44.0.2403.157]	[Action:GetProgramList 10/660]	[Remarks:[{"ID":"1","ProgramIndex":"GST","ProgramName":"GST"}]]
[Date: 2015-08-25 13:27:08]	[UserID:10/660]	[IP:10.10.11.1]	[Browser:Chrome - 44.0.2403.157]	[Action:Making connection to server]	[Remarks:Successful connection to server: S3]
[Date: 2015-08-25 13:27:08]	[UserID:10/660]	[IP:10.10.11.1]	[Browser:Chrome - 44.0.2403.157]	[Action:Filtering User : MasterData Username : 10/660]	[Remarks:Successful filter row count: 1]
[Date: 2015-08-25 13:27:09]	[UserID:10/660]	[IP:10.10.11.1]	[Browser:Chrome - 44.0.2403.157]	[Action:Making connection to server]	[Remarks:Successful connection to server: S3]
[Date: 2015-08-25 13:27:09]	[UserID:10/660]	[IP:10.10.11.1]	[Browser:Chrome - 44.0.2403.157]	[Action:GetGSTModules 10/660,1]	[Remarks:Successful filter row count: 3]
[Date: 2015-08-25 13:27:09]	[UserID:10/660]	[IP:10.10.11.1]	[Browser:Chrome - 44.0.2403.157]	[Action:Closing mssql connection]	[Remarks:Success]
[Date: 2015-08-25 13:29:01]	[UserID:]	[IP:10.10.11.1]	[Browser:Chrome - 44.0.2403.157]	[Action:Making connection to server]	[Remarks:Successful connection to server: S3]
[Date: 2015-08-25 13:29:01]	[UserID:]	[IP:10.10.11.1]	[Browser:Chrome - 44.0.2403.157]	[Action:GetProgramList ]	[Remarks:"no data"]
[Date: 2015-08-25 15:14:18]	[UserID:]	[IP:10.10.11.1]	[Browser:Chrome - 44.0.2403.157]	[Action:Making connection to server]	[Remarks:Successful connection to server: S3]
[Date: 2015-08-25 15:14:18]	[UserID:]	[IP:10.10.11.1]	[Browser:Chrome - 44.0.2403.157]	[Action:GetProgramList ]	[Remarks:"no data"]
[Date: 2015-08-25 15:14:18]	[UserID:]	[IP:10.10.11.1]	[Browser:Chrome - 44.0.2403.157]	[Action:Making connection to server]	[Remarks:Successful connection to server: S3]
[Date: 2015-08-25 15:14:18]	[UserID:]	[IP:10.10.11.1]	[Browser:Chrome - 44.0.2403.157]	[Action:GetProgramList ]	[Remarks:"no data"]
[Date: 2015-08-25 15:14:35]	[UserID:06/343]	[IP:10.10.11.1]	[Browser:Chrome - 44.0.2403.157]	[Action:Making connection to server]	[Remarks:Successful connection to server: S3]
[Date: 2015-08-25 15:14:35]	[UserID:06/343]	[IP:10.10.11.1]	[Browser:Chrome - 44.0.2403.157]	[Action:User 06/343]	[Remarks:Success]
[Date: 2015-08-25 15:14:35]	[UserID:06/343]	[IP:10.10.11.1]	[Browser:Chrome - 44.0.2403.157]	[Action:Filtering User : MasterData Username : 06/343]	[Remarks:Successful filter row count: 0]
[Date: 2015-08-25 15:14:35]	[UserID:06/343]	[IP:10.10.11.1]	[Browser:Chrome - 44.0.2403.157]	[Action:Filtering User : MasterData Username : 06/343]	[Remarks:Successful filter row count: 0]
[Date: 2015-08-25 15:14:35]	[UserID:06/343]	[IP:10.10.11.1]	[Browser:Chrome - 44.0.2403.157]	[Action:Filtering User : MasterData Username : 06/343]	[Remarks:Success]
[Date: 2015-08-25 15:14:35]	[UserID:06/343]	[IP:10.10.11.1]	[Browser:Chrome - 44.0.2403.157]	[Action:Closing mssql connection]	[Remarks:Success]
[Date: 2015-08-25 15:14:35]	[UserID:06/343]	[IP:10.10.11.1]	[Browser:Chrome - 44.0.2403.157]	[Action:Making connection to server]	[Remarks:Successful connection to server: S3]
[Date: 2015-08-25 15:14:35]	[UserID:06/343]	[IP:10.10.11.1]	[Browser:Chrome - 44.0.2403.157]	[Action:GetProgramList 06/343]	[Remarks:[{"ID":"1","ProgramIndex":"GST","ProgramName":"GST"}]]
[Date: 2015-08-25 15:14:35]	[UserID:06/343]	[IP:10.10.11.1]	[Browser:Chrome - 44.0.2403.157]	[Action:Making connection to server]	[Remarks:Successful connection to server: S3]
[Date: 2015-08-25 15:14:36]	[UserID:06/343]	[IP:10.10.11.1]	[Browser:Chrome - 44.0.2403.157]	[Action:GetProgramList 06/343]	[Remarks:[{"ID":"1","ProgramIndex":"GST","ProgramName":"GST"}]]
[Date: 2015-08-25 15:14:36]	[UserID:06/343]	[IP:10.10.11.1]	[Browser:Chrome - 44.0.2403.157]	[Action:Making connection to server]	[Remarks:Successful connection to server: S3]
[Date: 2015-08-25 15:14:36]	[UserID:06/343]	[IP:10.10.11.1]	[Browser:Chrome - 44.0.2403.157]	[Action:Filtering User : MasterData Username : 06/343]	[Remarks:Successful filter row count: 1]
[Date: 2015-08-25 15:14:36]	[UserID:06/343]	[IP:10.10.11.1]	[Browser:Chrome - 44.0.2403.157]	[Action:Making connection to server]	[Remarks:Successful connection to server: S3]
[Date: 2015-08-25 15:14:36]	[UserID:06/343]	[IP:10.10.11.1]	[Browser:Chrome - 44.0.2403.157]	[Action:GetGSTModules 06/343,1]	[Remarks:Successful filter row count: 5]
[Date: 2015-08-25 15:14:36]	[UserID:06/343]	[IP:10.10.11.1]	[Browser:Chrome - 44.0.2403.157]	[Action:Closing mssql connection]	[Remarks:Success]
[Date: 2015-08-25 15:16:35]	[UserID:06/343]	[IP:10.10.11.1]	[Browser:Chrome - 44.0.2403.157]	[Action:Making connection to server]	[Remarks:Successful connection to server: S3]
[Date: 2015-08-25 15:16:36]	[UserID:06/343]	[IP:10.10.11.1]	[Browser:Chrome - 44.0.2403.157]	[Action:GetGSTModules 06/343,1]	[Remarks:Successful filter row count: 5]
[Date: 2015-08-25 15:16:36]	[UserID:06/343]	[IP:10.10.11.1]	[Browser:Chrome - 44.0.2403.157]	[Action:Closing mssql connection]	[Remarks:Success]
