[Date: 2016-03-02 07:27:49]	[UserID:]	[IP:10.10.11.1]	[Browser:Chrome - 48.0.2564.116]	[Action:Making connection to server]	[Remarks:Successful connection to server: S3]
[Date: 2016-03-02 07:27:50]	[UserID:]	[IP:10.10.11.1]	[Browser:Chrome - 48.0.2564.116]	[Action:GetProgramList ]	[Remarks:"no data"]
[Date: 2016-03-02 07:34:17]	[UserID:06/343]	[IP:10.10.11.1]	[Browser:Chrome - 48.0.2564.116]	[Action:Making connection to server]	[Remarks:Successful connection to server: S3]
[Date: 2016-03-02 07:34:17]	[UserID:06/343]	[IP:10.10.11.1]	[Browser:Chrome - 48.0.2564.116]	[Action:User 06/343]	[Remarks:Success]
[Date: 2016-03-02 07:34:18]	[UserID:06/343]	[IP:10.10.11.1]	[Browser:Chrome - 48.0.2564.116]	[Action:Filtering User : MasterData Username : 06/343]	[Remarks:Successful filter row count: 0]
[Date: 2016-03-02 07:34:18]	[UserID:06/343]	[IP:10.10.11.1]	[Browser:Chrome - 48.0.2564.116]	[Action:Filtering User : MasterData Username : 06/343]	[Remarks:Successful filter row count: 0]
[Date: 2016-03-02 07:34:18]	[UserID:06/343]	[IP:10.10.11.1]	[Browser:Chrome - 48.0.2564.116]	[Action:Filtering User : MasterData Username : 06/343]	[Remarks:Success]
[Date: 2016-03-02 07:34:18]	[UserID:06/343]	[IP:10.10.11.1]	[Browser:Chrome - 48.0.2564.116]	[Action:Closing mssql connection]	[Remarks:Success]
[Date: 2016-03-02 07:34:18]	[UserID:06/343]	[IP:10.10.11.1]	[Browser:Chrome - 48.0.2564.116]	[Action:Making connection to server]	[Remarks:Successful connection to server: S3]
[Date: 2016-03-02 07:34:19]	[UserID:06/343]	[IP:10.10.11.1]	[Browser:Chrome - 48.0.2564.116]	[Action:GetProgramList 06/343]	[Remarks:[{"ID":"1","ProgramIndex":"GST","ProgramName":"GST"}]]
[Date: 2016-03-02 07:34:19]	[UserID:06/343]	[IP:10.10.11.1]	[Browser:Chrome - 48.0.2564.116]	[Action:Making connection to server]	[Remarks:Successful connection to server: S3]
[Date: 2016-03-02 07:34:19]	[UserID:06/343]	[IP:10.10.11.1]	[Browser:Chrome - 48.0.2564.116]	[Action:GetProgramList 06/343]	[Remarks:[{"ID":"1","ProgramIndex":"GST","ProgramName":"GST"}]]
[Date: 2016-03-02 07:34:19]	[UserID:06/343]	[IP:10.10.11.1]	[Browser:Chrome - 48.0.2564.116]	[Action:Making connection to server]	[Remarks:Successful connection to server: S3]
[Date: 2016-03-02 07:34:19]	[UserID:06/343]	[IP:10.10.11.1]	[Browser:Chrome - 48.0.2564.116]	[Action:Filtering User : MasterData Username : 06/343]	[Remarks:Successful filter row count: 1]
[Date: 2016-03-02 07:34:19]	[UserID:06/343]	[IP:10.10.11.1]	[Browser:Chrome - 48.0.2564.116]	[Action:Making connection to server]	[Remarks:Successful connection to server: S3]
[Date: 2016-03-02 07:34:20]	[UserID:06/343]	[IP:10.10.11.1]	[Browser:Chrome - 48.0.2564.116]	[Action:GetGSTModules 06/343,1]	[Remarks:Successful filter row count: 5]
[Date: 2016-03-02 07:34:20]	[UserID:06/343]	[IP:10.10.11.1]	[Browser:Chrome - 48.0.2564.116]	[Action:Closing mssql connection]	[Remarks:Success]
[Date: 2016-03-02 07:36:34]	[UserID:06/343]	[IP:10.10.11.1]	[Browser:Chrome - 48.0.2564.116]	[Action:Making connection to server]	[Remarks:Successful connection to server: S3]
[Date: 2016-03-02 07:36:34]	[UserID:06/343]	[IP:10.10.11.1]	[Browser:Chrome - 48.0.2564.116]	[Action:GetGSTModules 06/343,1]	[Remarks:Successful filter row count: 5]
[Date: 2016-03-02 07:36:34]	[UserID:06/343]	[IP:10.10.11.1]	[Browser:Chrome - 48.0.2564.116]	[Action:Closing mssql connection]	[Remarks:Success]
[Date: 2016-03-02 07:38:24]	[UserID:06/343]	[IP:10.10.11.1]	[Browser:Chrome - 48.0.2564.116]	[Action:Making connection to server]	[Remarks:Successful connection to server: S3]
[Date: 2016-03-02 07:38:24]	[UserID:06/343]	[IP:10.10.11.1]	[Browser:Chrome - 48.0.2564.116]	[Action:GetGSTModules 06/343,1]	[Remarks:Successful filter row count: 5]
[Date: 2016-03-02 07:38:24]	[UserID:06/343]	[IP:10.10.11.1]	[Browser:Chrome - 48.0.2564.116]	[Action:Closing mssql connection]	[Remarks:Success]
[Date: 2016-03-02 08:39:56]	[UserID:]	[IP:10.10.11.1]	[Browser:Chrome - 48.0.2564.116]	[Action:Making connection to server]	[Remarks:Successful connection to server: S3]
[Date: 2016-03-02 08:39:56]	[UserID:]	[IP:10.10.11.1]	[Browser:Chrome - 48.0.2564.116]	[Action:GetProgramList ]	[Remarks:"no data"]
[Date: 2016-03-02 08:40:03]	[UserID:10/660]	[IP:10.10.11.1]	[Browser:Chrome - 48.0.2564.116]	[Action:Making connection to server]	[Remarks:Successful connection to server: S3]
[Date: 2016-03-02 08:40:03]	[UserID:10/660]	[IP:10.10.11.1]	[Browser:Chrome - 48.0.2564.116]	[Action:User 10/660]	[Remarks:Success]
[Date: 2016-03-02 08:40:03]	[UserID:10/660]	[IP:10.10.11.1]	[Browser:Chrome - 48.0.2564.116]	[Action:Filtering User : MasterData Username : 10/660]	[Remarks:Successful filter row count: 0]
[Date: 2016-03-02 08:40:03]	[UserID:10/660]	[IP:10.10.11.1]	[Browser:Chrome - 48.0.2564.116]	[Action:Filtering User : MasterData Username : 10/660]	[Remarks:Successful filter row count: 0]
[Date: 2016-03-02 08:40:03]	[UserID:10/660]	[IP:10.10.11.1]	[Browser:Chrome - 48.0.2564.116]	[Action:Filtering User : MasterData Username : 10/660]	[Remarks:Success]
[Date: 2016-03-02 08:40:03]	[UserID:10/660]	[IP:10.10.11.1]	[Browser:Chrome - 48.0.2564.116]	[Action:Closing mssql connection]	[Remarks:Success]
[Date: 2016-03-02 08:40:03]	[UserID:10/660]	[IP:10.10.11.1]	[Browser:Chrome - 48.0.2564.116]	[Action:Making connection to server]	[Remarks:Successful connection to server: S3]
[Date: 2016-03-02 08:40:03]	[UserID:10/660]	[IP:10.10.11.1]	[Browser:Chrome - 48.0.2564.116]	[Action:GetProgramList 10/660]	[Remarks:[{"ID":"1","ProgramIndex":"GST","ProgramName":"GST"}]]
[Date: 2016-03-02 08:40:03]	[UserID:10/660]	[IP:10.10.11.1]	[Browser:Chrome - 48.0.2564.116]	[Action:Making connection to server]	[Remarks:Successful connection to server: S3]
[Date: 2016-03-02 08:40:03]	[UserID:10/660]	[IP:10.10.11.1]	[Browser:Chrome - 48.0.2564.116]	[Action:GetProgramList 10/660]	[Remarks:[{"ID":"1","ProgramIndex":"GST","ProgramName":"GST"}]]
[Date: 2016-03-02 08:40:03]	[UserID:10/660]	[IP:10.10.11.1]	[Browser:Chrome - 48.0.2564.116]	[Action:Making connection to server]	[Remarks:Successful connection to server: S3]
[Date: 2016-03-02 08:40:03]	[UserID:10/660]	[IP:10.10.11.1]	[Browser:Chrome - 48.0.2564.116]	[Action:Filtering User : MasterData Username : 10/660]	[Remarks:Successful filter row count: 1]
[Date: 2016-03-02 08:40:04]	[UserID:10/660]	[IP:10.10.11.1]	[Browser:Chrome - 48.0.2564.116]	[Action:Making connection to server]	[Remarks:Successful connection to server: S3]
[Date: 2016-03-02 08:40:04]	[UserID:10/660]	[IP:10.10.11.1]	[Browser:Chrome - 48.0.2564.116]	[Action:GetGSTModules 10/660,1]	[Remarks:Successful filter row count: 3]
[Date: 2016-03-02 08:40:04]	[UserID:10/660]	[IP:10.10.11.1]	[Browser:Chrome - 48.0.2564.116]	[Action:Closing mssql connection]	[Remarks:Success]
[Date: 2016-03-02 08:46:32]	[UserID:]	[IP:10.10.11.1]	[Browser:Chrome - 48.0.2564.116]	[Action:Making connection to server]	[Remarks:Successful connection to server: S3]
[Date: 2016-03-02 08:46:32]	[UserID:]	[IP:10.10.11.1]	[Browser:Chrome - 48.0.2564.116]	[Action:GetProgramList ]	[Remarks:"no data"]
[Date: 2016-03-02 09:03:15]	[UserID:]	[IP:10.10.11.1]	[Browser:Chrome - 48.0.2564.116]	[Action:Making connection to server]	[Remarks:Successful connection to server: S3]
[Date: 2016-03-02 09:03:15]	[UserID:]	[IP:10.10.11.1]	[Browser:Chrome - 48.0.2564.116]	[Action:GetProgramList ]	[Remarks:"no data"]
[Date: 2016-03-02 09:03:17]	[UserID:11/715]	[IP:10.10.11.1]	[Browser:Chrome - 48.0.2564.116]	[Action:Making connection to server]	[Remarks:Successful connection to server: S3]
[Date: 2016-03-02 09:03:17]	[UserID:11/715]	[IP:10.10.11.1]	[Browser:Chrome - 48.0.2564.116]	[Action:User 11/715]	[Remarks:Success]
[Date: 2016-03-02 09:03:17]	[UserID:11/715]	[IP:10.10.11.1]	[Browser:Chrome - 48.0.2564.116]	[Action:Filtering User : MasterData Username : 11/715]	[Remarks:Successful filter row count: 0]
[Date: 2016-03-02 09:03:17]	[UserID:11/715]	[IP:10.10.11.1]	[Browser:Chrome - 48.0.2564.116]	[Action:Filtering User : MasterData Username : 11/715]	[Remarks:Successful filter row count: 0]
[Date: 2016-03-02 09:03:17]	[UserID:11/715]	[IP:10.10.11.1]	[Browser:Chrome - 48.0.2564.116]	[Action:Filtering User : MasterData Username : 11/715]	[Remarks:Success]
[Date: 2016-03-02 09:03:17]	[UserID:11/715]	[IP:10.10.11.1]	[Browser:Chrome - 48.0.2564.116]	[Action:Closing mssql connection]	[Remarks:Success]
[Date: 2016-03-02 09:03:18]	[UserID:11/715]	[IP:10.10.11.1]	[Browser:Chrome - 48.0.2564.116]	[Action:Making connection to server]	[Remarks:Successful connection to server: S3]
[Date: 2016-03-02 09:03:18]	[UserID:11/715]	[IP:10.10.11.1]	[Browser:Chrome - 48.0.2564.116]	[Action:GetProgramList 11/715]	[Remarks:[{"ID":"1","ProgramIndex":"GST","ProgramName":"GST"}]]
[Date: 2016-03-02 09:03:18]	[UserID:11/715]	[IP:10.10.11.1]	[Browser:Chrome - 48.0.2564.116]	[Action:Making connection to server]	[Remarks:Successful connection to server: S3]
[Date: 2016-03-02 09:03:18]	[UserID:11/715]	[IP:10.10.11.1]	[Browser:Chrome - 48.0.2564.116]	[Action:GetProgramList 11/715]	[Remarks:[{"ID":"1","ProgramIndex":"GST","ProgramName":"GST"}]]
[Date: 2016-03-02 09:03:18]	[UserID:11/715]	[IP:10.10.11.1]	[Browser:Chrome - 48.0.2564.116]	[Action:Making connection to server]	[Remarks:Successful connection to server: S3]
[Date: 2016-03-02 09:03:18]	[UserID:11/715]	[IP:10.10.11.1]	[Browser:Chrome - 48.0.2564.116]	[Action:Filtering User : MasterData Username : 11/715]	[Remarks:Successful filter row count: 1]
[Date: 2016-03-02 09:03:18]	[UserID:11/715]	[IP:10.10.11.1]	[Browser:Chrome - 48.0.2564.116]	[Action:Making connection to server]	[Remarks:Successful connection to server: S3]
[Date: 2016-03-02 09:03:18]	[UserID:11/715]	[IP:10.10.11.1]	[Browser:Chrome - 48.0.2564.116]	[Action:GetGSTModules 11/715,1]	[Remarks:Successful filter row count: 3]
[Date: 2016-03-02 09:03:18]	[UserID:11/715]	[IP:10.10.11.1]	[Browser:Chrome - 48.0.2564.116]	[Action:Closing mssql connection]	[Remarks:Success]
[Date: 2016-03-02 09:03:38]	[UserID:11/715]	[IP:10.10.11.1]	[Browser:Chrome - 48.0.2564.116]	[Action:Making connection to server]	[Remarks:Successful connection to server: S3]
[Date: 2016-03-02 09:03:38]	[UserID:11/715]	[IP:10.10.11.1]	[Browser:Chrome - 48.0.2564.116]	[Action:GetGSTModules 11/715,1]	[Remarks:Successful filter row count: 3]
[Date: 2016-03-02 09:03:38]	[UserID:11/715]	[IP:10.10.11.1]	[Browser:Chrome - 48.0.2564.116]	[Action:Closing mssql connection]	[Remarks:Success]
[Date: 2016-03-02 09:04:02]	[UserID:11/715]	[IP:10.10.11.1]	[Browser:Chrome - 48.0.2564.116]	[Action:Making connection to server]	[Remarks:Successful connection to server: S3]
[Date: 2016-03-02 09:04:02]	[UserID:11/715]	[IP:10.10.11.1]	[Browser:Chrome - 48.0.2564.116]	[Action:GetGSTModules 11/715,1]	[Remarks:Successful filter row count: 3]
[Date: 2016-03-02 09:04:02]	[UserID:11/715]	[IP:10.10.11.1]	[Browser:Chrome - 48.0.2564.116]	[Action:Closing mssql connection]	[Remarks:Success]
[Date: 2016-03-02 09:25:42]	[UserID:]	[IP:10.10.11.1]	[Browser:Chrome - 48.0.2564.116]	[Action:Making connection to server]	[Remarks:Successful connection to server: S3]
[Date: 2016-03-02 09:25:42]	[UserID:]	[IP:10.10.11.1]	[Browser:Chrome - 48.0.2564.116]	[Action:GetProgramList ]	[Remarks:"no data"]
[Date: 2016-03-02 09:25:44]	[UserID:10/660]	[IP:10.10.11.1]	[Browser:Chrome - 48.0.2564.116]	[Action:Making connection to server]	[Remarks:Successful connection to server: S3]
[Date: 2016-03-02 09:25:44]	[UserID:10/660]	[IP:10.10.11.1]	[Browser:Chrome - 48.0.2564.116]	[Action:User 10/660]	[Remarks:Success]
[Date: 2016-03-02 09:25:44]	[UserID:10/660]	[IP:10.10.11.1]	[Browser:Chrome - 48.0.2564.116]	[Action:Filtering User : MasterData Username : 10/660]	[Remarks:Successful filter row count: 0]
[Date: 2016-03-02 09:25:44]	[UserID:10/660]	[IP:10.10.11.1]	[Browser:Chrome - 48.0.2564.116]	[Action:Filtering User : MasterData Username : 10/660]	[Remarks:Successful filter row count: 0]
[Date: 2016-03-02 09:25:44]	[UserID:10/660]	[IP:10.10.11.1]	[Browser:Chrome - 48.0.2564.116]	[Action:Filtering User : MasterData Username : 10/660]	[Remarks:Success]
[Date: 2016-03-02 09:25:44]	[UserID:10/660]	[IP:10.10.11.1]	[Browser:Chrome - 48.0.2564.116]	[Action:Closing mssql connection]	[Remarks:Success]
[Date: 2016-03-02 09:25:44]	[UserID:10/660]	[IP:10.10.11.1]	[Browser:Chrome - 48.0.2564.116]	[Action:Making connection to server]	[Remarks:Successful connection to server: S3]
[Date: 2016-03-02 09:25:44]	[UserID:10/660]	[IP:10.10.11.1]	[Browser:Chrome - 48.0.2564.116]	[Action:GetProgramList 10/660]	[Remarks:[{"ID":"1","ProgramIndex":"GST","ProgramName":"GST"}]]
[Date: 2016-03-02 09:25:44]	[UserID:10/660]	[IP:10.10.11.1]	[Browser:Chrome - 48.0.2564.116]	[Action:Making connection to server]	[Remarks:Successful connection to server: S3]
[Date: 2016-03-02 09:25:45]	[UserID:10/660]	[IP:10.10.11.1]	[Browser:Chrome - 48.0.2564.116]	[Action:GetProgramList 10/660]	[Remarks:[{"ID":"1","ProgramIndex":"GST","ProgramName":"GST"}]]
[Date: 2016-03-02 09:25:45]	[UserID:10/660]	[IP:10.10.11.1]	[Browser:Chrome - 48.0.2564.116]	[Action:Making connection to server]	[Remarks:Successful connection to server: S3]
[Date: 2016-03-02 09:25:45]	[UserID:10/660]	[IP:10.10.11.1]	[Browser:Chrome - 48.0.2564.116]	[Action:Filtering User : MasterData Username : 10/660]	[Remarks:Successful filter row count: 1]
[Date: 2016-03-02 09:25:45]	[UserID:10/660]	[IP:10.10.11.1]	[Browser:Chrome - 48.0.2564.116]	[Action:Making connection to server]	[Remarks:Successful connection to server: S3]
[Date: 2016-03-02 09:25:45]	[UserID:10/660]	[IP:10.10.11.1]	[Browser:Chrome - 48.0.2564.116]	[Action:GetGSTModules 10/660,1]	[Remarks:Successful filter row count: 3]
[Date: 2016-03-02 09:25:45]	[UserID:10/660]	[IP:10.10.11.1]	[Browser:Chrome - 48.0.2564.116]	[Action:Closing mssql connection]	[Remarks:Success]
[Date: 2016-03-02 09:34:18]	[UserID:10/660]	[IP:10.10.11.1]	[Browser:Chrome - 48.0.2564.116]	[Action:Making connection to server]	[Remarks:Successful connection to server: S3]
[Date: 2016-03-02 09:34:18]	[UserID:10/660]	[IP:10.10.11.1]	[Browser:Chrome - 48.0.2564.116]	[Action:GetGSTModules 10/660,1]	[Remarks:Successful filter row count: 3]
[Date: 2016-03-02 09:34:18]	[UserID:10/660]	[IP:10.10.11.1]	[Browser:Chrome - 48.0.2564.116]	[Action:Closing mssql connection]	[Remarks:Success]
[Date: 2016-03-02 09:34:44]	[UserID:]	[IP:10.10.11.1]	[Browser:Chrome - 48.0.2564.116]	[Action:Making connection to server]	[Remarks:Successful connection to server: S3]
[Date: 2016-03-02 09:34:44]	[UserID:]	[IP:10.10.11.1]	[Browser:Chrome - 48.0.2564.116]	[Action:GetProgramList ]	[Remarks:"no data"]
[Date: 2016-03-02 10:47:04]	[UserID:]	[IP:10.10.11.1]	[Browser:Chrome - 48.0.2564.116]	[Action:Making connection to server]	[Remarks:Successful connection to server: S3]
[Date: 2016-03-02 10:47:04]	[UserID:]	[IP:10.10.11.1]	[Browser:Chrome - 48.0.2564.116]	[Action:GetProgramList ]	[Remarks:"no data"]
[Date: 2016-03-02 10:47:06]	[UserID:06/371]	[IP:10.10.11.1]	[Browser:Chrome - 48.0.2564.116]	[Action:Making connection to server]	[Remarks:Successful connection to server: S3]
[Date: 2016-03-02 10:47:06]	[UserID:06/371]	[IP:10.10.11.1]	[Browser:Chrome - 48.0.2564.116]	[Action:User 06/371]	[Remarks:Success]
[Date: 2016-03-02 10:47:06]	[UserID:06/371]	[IP:10.10.11.1]	[Browser:Chrome - 48.0.2564.116]	[Action:Filtering User : MasterData Username : 06/371]	[Remarks:Successful filter row count: 0]
[Date: 2016-03-02 10:47:06]	[UserID:06/371]	[IP:10.10.11.1]	[Browser:Chrome - 48.0.2564.116]	[Action:Filtering User : MasterData Username : 06/371]	[Remarks:Successful filter row count: 0]
[Date: 2016-03-02 10:47:06]	[UserID:06/371]	[IP:10.10.11.1]	[Browser:Chrome - 48.0.2564.116]	[Action:Filtering User : MasterData Username : 06/371]	[Remarks:Success]
[Date: 2016-03-02 10:47:06]	[UserID:06/371]	[IP:10.10.11.1]	[Browser:Chrome - 48.0.2564.116]	[Action:Closing mssql connection]	[Remarks:Success]
[Date: 2016-03-02 10:47:06]	[UserID:06/371]	[IP:10.10.11.1]	[Browser:Chrome - 48.0.2564.116]	[Action:Making connection to server]	[Remarks:Successful connection to server: S3]
[Date: 2016-03-02 10:47:06]	[UserID:06/371]	[IP:10.10.11.1]	[Browser:Chrome - 48.0.2564.116]	[Action:GetProgramList 06/371]	[Remarks:[{"ID":"1","ProgramIndex":"GST","ProgramName":"GST"}]]
[Date: 2016-03-02 10:47:06]	[UserID:06/371]	[IP:10.10.11.1]	[Browser:Chrome - 48.0.2564.116]	[Action:Making connection to server]	[Remarks:Successful connection to server: S3]
[Date: 2016-03-02 10:47:06]	[UserID:06/371]	[IP:10.10.11.1]	[Browser:Chrome - 48.0.2564.116]	[Action:GetProgramList 06/371]	[Remarks:[{"ID":"1","ProgramIndex":"GST","ProgramName":"GST"}]]
[Date: 2016-03-02 10:47:06]	[UserID:06/371]	[IP:10.10.11.1]	[Browser:Chrome - 48.0.2564.116]	[Action:Making connection to server]	[Remarks:Successful connection to server: S3]
[Date: 2016-03-02 10:47:06]	[UserID:06/371]	[IP:10.10.11.1]	[Browser:Chrome - 48.0.2564.116]	[Action:Filtering User : MasterData Username : 06/371]	[Remarks:Successful filter row count: 1]
[Date: 2016-03-02 10:47:07]	[UserID:06/371]	[IP:10.10.11.1]	[Browser:Chrome - 48.0.2564.116]	[Action:Making connection to server]	[Remarks:Successful connection to server: S3]
[Date: 2016-03-02 10:47:07]	[UserID:06/371]	[IP:10.10.11.1]	[Browser:Chrome - 48.0.2564.116]	[Action:GetGSTModules 06/371,1]	[Remarks:Successful filter row count: 5]
[Date: 2016-03-02 10:47:07]	[UserID:06/371]	[IP:10.10.11.1]	[Browser:Chrome - 48.0.2564.116]	[Action:Closing mssql connection]	[Remarks:Success]
[Date: 2016-03-02 10:47:17]	[UserID:06/371]	[IP:10.10.11.1]	[Browser:Chrome - 48.0.2564.116]	[Action:Making connection to server]	[Remarks:Successful connection to server: S3]
[Date: 2016-03-02 10:47:17]	[UserID:06/371]	[IP:10.10.11.1]	[Browser:Chrome - 48.0.2564.116]	[Action:GetGSTModules 06/371,1]	[Remarks:Successful filter row count: 5]
[Date: 2016-03-02 10:47:17]	[UserID:06/371]	[IP:10.10.11.1]	[Browser:Chrome - 48.0.2564.116]	[Action:Closing mssql connection]	[Remarks:Success]
[Date: 2016-03-02 11:11:48]	[UserID:06/371]	[IP:10.10.11.1]	[Browser:Chrome - 48.0.2564.116]	[Action:Making connection to server]	[Remarks:Successful connection to server: S3]
[Date: 2016-03-02 11:11:50]	[UserID:06/371]	[IP:10.10.11.1]	[Browser:Chrome - 48.0.2564.116]	[Action:GetGSTModules 06/371,1]	[Remarks:Successful filter row count: 5]
[Date: 2016-03-02 11:11:50]	[UserID:06/371]	[IP:10.10.11.1]	[Browser:Chrome - 48.0.2564.116]	[Action:Closing mssql connection]	[Remarks:Success]
[Date: 2016-03-02 11:12:43]	[UserID:]	[IP:10.10.11.1]	[Browser:Chrome - 48.0.2564.116]	[Action:Making connection to server]	[Remarks:Successful connection to server: S3]
[Date: 2016-03-02 11:12:45]	[UserID:]	[IP:10.10.11.1]	[Browser:Chrome - 48.0.2564.116]	[Action:GetProgramList ]	[Remarks:"no data"]
[Date: 2016-03-02 11:16:11]	[UserID:06/343]	[IP:10.10.11.1]	[Browser:Chrome - 48.0.2564.116]	[Action:Making connection to server]	[Remarks:Successful connection to server: S3]
[Date: 2016-03-02 11:16:11]	[UserID:06/343]	[IP:10.10.11.1]	[Browser:Chrome - 48.0.2564.116]	[Action:GetGSTModules 06/343,1]	[Remarks:Successful filter row count: 5]
[Date: 2016-03-02 11:16:11]	[UserID:06/343]	[IP:10.10.11.1]	[Browser:Chrome - 48.0.2564.116]	[Action:Closing mssql connection]	[Remarks:Success]
[Date: 2016-03-02 11:16:30]	[UserID:08/504]	[IP:10.10.11.1]	[Browser:Chrome - 48.0.2564.116]	[Action:Making connection to server]	[Remarks:Successful connection to server: S3]
[Date: 2016-03-02 11:16:30]	[UserID:08/504]	[IP:10.10.11.1]	[Browser:Chrome - 48.0.2564.116]	[Action:User 08/504]	[Remarks:Success]
[Date: 2016-03-02 11:16:30]	[UserID:08/504]	[IP:10.10.11.1]	[Browser:Chrome - 48.0.2564.116]	[Action:Filtering User : MasterData Username : 08/504]	[Remarks:Successful filter row count: 0]
[Date: 2016-03-02 11:16:30]	[UserID:08/504]	[IP:10.10.11.1]	[Browser:Chrome - 48.0.2564.116]	[Action:Filtering User : MasterData Username : 08/504]	[Remarks:Successful filter row count: 0]
[Date: 2016-03-02 11:16:30]	[UserID:08/504]	[IP:10.10.11.1]	[Browser:Chrome - 48.0.2564.116]	[Action:Filtering User : MasterData Username : 08/504]	[Remarks:Success]
[Date: 2016-03-02 11:16:30]	[UserID:08/504]	[IP:10.10.11.1]	[Browser:Chrome - 48.0.2564.116]	[Action:Closing mssql connection]	[Remarks:Success]
[Date: 2016-03-02 11:16:30]	[UserID:08/504]	[IP:10.10.11.1]	[Browser:Chrome - 48.0.2564.116]	[Action:Making connection to server]	[Remarks:Successful connection to server: S3]
[Date: 2016-03-02 11:16:30]	[UserID:08/504]	[IP:10.10.11.1]	[Browser:Chrome - 48.0.2564.116]	[Action:GetProgramList 08/504]	[Remarks:[{"ID":"1","ProgramIndex":"GST","ProgramName":"GST"}]]
[Date: 2016-03-02 11:16:30]	[UserID:08/504]	[IP:10.10.11.1]	[Browser:Chrome - 48.0.2564.116]	[Action:Making connection to server]	[Remarks:Successful connection to server: S3]
[Date: 2016-03-02 11:16:30]	[UserID:08/504]	[IP:10.10.11.1]	[Browser:Chrome - 48.0.2564.116]	[Action:GetProgramList 08/504]	[Remarks:[{"ID":"1","ProgramIndex":"GST","ProgramName":"GST"}]]
[Date: 2016-03-02 11:16:30]	[UserID:08/504]	[IP:10.10.11.1]	[Browser:Chrome - 48.0.2564.116]	[Action:Making connection to server]	[Remarks:Successful connection to server: S3]
[Date: 2016-03-02 11:16:30]	[UserID:08/504]	[IP:10.10.11.1]	[Browser:Chrome - 48.0.2564.116]	[Action:Filtering User : MasterData Username : 08/504]	[Remarks:Successful filter row count: 1]
[Date: 2016-03-02 11:16:31]	[UserID:08/504]	[IP:10.10.11.1]	[Browser:Chrome - 48.0.2564.116]	[Action:Making connection to server]	[Remarks:Successful connection to server: S3]
[Date: 2016-03-02 11:16:31]	[UserID:08/504]	[IP:10.10.11.1]	[Browser:Chrome - 48.0.2564.116]	[Action:GetGSTModules 08/504,1]	[Remarks:Successful filter row count: 3]
[Date: 2016-03-02 11:16:31]	[UserID:08/504]	[IP:10.10.11.1]	[Browser:Chrome - 48.0.2564.116]	[Action:Closing mssql connection]	[Remarks:Success]
[Date: 2016-03-02 11:18:43]	[UserID:06/371]	[IP:10.10.11.1]	[Browser:Chrome - 48.0.2564.116]	[Action:Making connection to server]	[Remarks:Successful connection to server: S3]
[Date: 2016-03-02 11:18:44]	[UserID:06/371]	[IP:10.10.11.1]	[Browser:Chrome - 48.0.2564.116]	[Action:GetProgramList 06/371]	[Remarks:[{"ID":"1","ProgramIndex":"GST","ProgramName":"GST"}]]
[Date: 2016-03-02 11:18:44]	[UserID:06/371]	[IP:10.10.11.1]	[Browser:Chrome - 48.0.2564.116]	[Action:Making connection to server]	[Remarks:Successful connection to server: S3]
[Date: 2016-03-02 11:18:44]	[UserID:06/371]	[IP:10.10.11.1]	[Browser:Chrome - 48.0.2564.116]	[Action:GetProgramList 06/371]	[Remarks:[{"ID":"1","ProgramIndex":"GST","ProgramName":"GST"}]]
[Date: 2016-03-02 11:18:44]	[UserID:06/371]	[IP:10.10.11.1]	[Browser:Chrome - 48.0.2564.116]	[Action:Making connection to server]	[Remarks:Successful connection to server: S3]
[Date: 2016-03-02 11:18:44]	[UserID:06/371]	[IP:10.10.11.1]	[Browser:Chrome - 48.0.2564.116]	[Action:Filtering User : MasterData Username : 06/371]	[Remarks:Successful filter row count: 1]
[Date: 2016-03-02 11:18:44]	[UserID:06/371]	[IP:10.10.11.1]	[Browser:Chrome - 48.0.2564.116]	[Action:Making connection to server]	[Remarks:Successful connection to server: S3]
[Date: 2016-03-02 11:18:44]	[UserID:06/371]	[IP:10.10.11.1]	[Browser:Chrome - 48.0.2564.116]	[Action:GetGSTModules 06/371,1]	[Remarks:Successful filter row count: 5]
[Date: 2016-03-02 11:18:44]	[UserID:06/371]	[IP:10.10.11.1]	[Browser:Chrome - 48.0.2564.116]	[Action:Closing mssql connection]	[Remarks:Success]
[Date: 2016-03-02 11:20:13]	[UserID:06/371]	[IP:10.10.11.1]	[Browser:Chrome - 48.0.2564.116]	[Action:Making connection to server]	[Remarks:Successful connection to server: S3]
[Date: 2016-03-02 11:20:13]	[UserID:06/371]	[IP:10.10.11.1]	[Browser:Chrome - 48.0.2564.116]	[Action:GetGSTModules 06/371,1]	[Remarks:Successful filter row count: 5]
[Date: 2016-03-02 11:20:13]	[UserID:06/371]	[IP:10.10.11.1]	[Browser:Chrome - 48.0.2564.116]	[Action:Closing mssql connection]	[Remarks:Success]
[Date: 2016-03-02 11:22:17]	[UserID:06/343]	[IP:10.10.11.1]	[Browser:Chrome - 48.0.2564.116]	[Action:Making connection to server]	[Remarks:Successful connection to server: S3]
[Date: 2016-03-02 11:22:17]	[UserID:06/343]	[IP:10.10.11.1]	[Browser:Chrome - 48.0.2564.116]	[Action:GetGSTModules 06/343,1]	[Remarks:Successful filter row count: 5]
[Date: 2016-03-02 11:22:17]	[UserID:06/343]	[IP:10.10.11.1]	[Browser:Chrome - 48.0.2564.116]	[Action:Closing mssql connection]	[Remarks:Success]
[Date: 2016-03-02 12:31:49]	[UserID:08/504]	[IP:10.10.11.1]	[Browser:Chrome - 48.0.2564.116]	[Action:Making connection to server]	[Remarks:Successful connection to server: S3]
[Date: 2016-03-02 12:31:50]	[UserID:08/504]	[IP:10.10.11.1]	[Browser:Chrome - 48.0.2564.116]	[Action:GetGSTModules 08/504,1]	[Remarks:Successful filter row count: 3]
[Date: 2016-03-02 12:31:50]	[UserID:08/504]	[IP:10.10.11.1]	[Browser:Chrome - 48.0.2564.116]	[Action:Closing mssql connection]	[Remarks:Success]
[Date: 2016-03-02 12:35:23]	[UserID:08/504]	[IP:10.10.11.1]	[Browser:Chrome - 48.0.2564.116]	[Action:Making connection to server]	[Remarks:Successful connection to server: S3]
[Date: 2016-03-02 12:35:23]	[UserID:08/504]	[IP:10.10.11.1]	[Browser:Chrome - 48.0.2564.116]	[Action:GetGSTModules 08/504,1]	[Remarks:Successful filter row count: 3]
[Date: 2016-03-02 12:35:23]	[UserID:08/504]	[IP:10.10.11.1]	[Browser:Chrome - 48.0.2564.116]	[Action:Closing mssql connection]	[Remarks:Success]
[Date: 2016-03-02 12:35:34]	[UserID:08/504]	[IP:10.10.11.1]	[Browser:Chrome - 48.0.2564.116]	[Action:Making connection to server]	[Remarks:Successful connection to server: S3]
[Date: 2016-03-02 12:35:34]	[UserID:08/504]	[IP:10.10.11.1]	[Browser:Chrome - 48.0.2564.116]	[Action:GetGSTModules 08/504,1]	[Remarks:Successful filter row count: 3]
[Date: 2016-03-02 12:35:34]	[UserID:08/504]	[IP:10.10.11.1]	[Browser:Chrome - 48.0.2564.116]	[Action:Closing mssql connection]	[Remarks:Success]
[Date: 2016-03-02 12:36:51]	[UserID:08/504]	[IP:10.10.11.1]	[Browser:Chrome - 48.0.2564.116]	[Action:Making connection to server]	[Remarks:Successful connection to server: S3]
[Date: 2016-03-02 12:36:51]	[UserID:08/504]	[IP:10.10.11.1]	[Browser:Chrome - 48.0.2564.116]	[Action:GetGSTModules 08/504,1]	[Remarks:Successful filter row count: 3]
[Date: 2016-03-02 12:36:51]	[UserID:08/504]	[IP:10.10.11.1]	[Browser:Chrome - 48.0.2564.116]	[Action:Closing mssql connection]	[Remarks:Success]
[Date: 2016-03-02 12:37:44]	[UserID:08/504]	[IP:10.10.11.1]	[Browser:Chrome - 48.0.2564.116]	[Action:Making connection to server]	[Remarks:Successful connection to server: S3]
[Date: 2016-03-02 12:37:44]	[UserID:08/504]	[IP:10.10.11.1]	[Browser:Chrome - 48.0.2564.116]	[Action:GetGSTModules 08/504,1]	[Remarks:Successful filter row count: 3]
[Date: 2016-03-02 12:37:44]	[UserID:08/504]	[IP:10.10.11.1]	[Browser:Chrome - 48.0.2564.116]	[Action:Closing mssql connection]	[Remarks:Success]
[Date: 2016-03-02 14:31:03]	[UserID:]	[IP:10.10.11.1]	[Browser:Firefox - 6.0]	[Action:Making connection to server]	[Remarks:Successful connection to server: S3]
[Date: 2016-03-02 14:31:03]	[UserID:]	[IP:10.10.11.1]	[Browser:Firefox - 6.0]	[Action:GetProgramList ]	[Remarks:"no data"]
[Date: 2016-03-02 16:40:04]	[UserID:]	[IP:10.10.11.1]	[Browser:Chrome - 48.0.2564.116]	[Action:Making connection to server]	[Remarks:Successful connection to server: S3]
[Date: 2016-03-02 16:40:04]	[UserID:]	[IP:10.10.11.1]	[Browser:Chrome - 48.0.2564.116]	[Action:GetProgramList ]	[Remarks:"no data"]
[Date: 2016-03-02 16:40:05]	[UserID:]	[IP:10.10.11.1]	[Browser:Chrome - 48.0.2564.116]	[Action:Making connection to server]	[Remarks:Successful connection to server: S3]
[Date: 2016-03-02 16:40:05]	[UserID:]	[IP:10.10.11.1]	[Browser:Chrome - 48.0.2564.116]	[Action:GetProgramList ]	[Remarks:"no data"]
[Date: 2016-03-02 16:40:19]	[UserID:06/343]	[IP:10.10.11.1]	[Browser:Chrome - 48.0.2564.116]	[Action:Making connection to server]	[Remarks:Successful connection to server: S3]
[Date: 2016-03-02 16:40:19]	[UserID:06/343]	[IP:10.10.11.1]	[Browser:Chrome - 48.0.2564.116]	[Action:User 06/343]	[Remarks:Success]
[Date: 2016-03-02 16:40:19]	[UserID:06/343]	[IP:10.10.11.1]	[Browser:Chrome - 48.0.2564.116]	[Action:Filtering User : MasterData Username : 06/343]	[Remarks:Successful filter row count: 0]
[Date: 2016-03-02 16:40:19]	[UserID:06/343]	[IP:10.10.11.1]	[Browser:Chrome - 48.0.2564.116]	[Action:Filtering User : MasterData Username : 06/343]	[Remarks:Successful filter row count: 0]
[Date: 2016-03-02 16:40:19]	[UserID:06/343]	[IP:10.10.11.1]	[Browser:Chrome - 48.0.2564.116]	[Action:Filtering User : MasterData Username : 06/343]	[Remarks:Success]
[Date: 2016-03-02 16:40:19]	[UserID:06/343]	[IP:10.10.11.1]	[Browser:Chrome - 48.0.2564.116]	[Action:Closing mssql connection]	[Remarks:Success]
[Date: 2016-03-02 16:40:19]	[UserID:06/343]	[IP:10.10.11.1]	[Browser:Chrome - 48.0.2564.116]	[Action:Making connection to server]	[Remarks:Successful connection to server: S3]
[Date: 2016-03-02 16:40:19]	[UserID:06/343]	[IP:10.10.11.1]	[Browser:Chrome - 48.0.2564.116]	[Action:GetProgramList 06/343]	[Remarks:[{"ID":"1","ProgramIndex":"GST","ProgramName":"GST"}]]
[Date: 2016-03-02 16:40:19]	[UserID:06/343]	[IP:10.10.11.1]	[Browser:Chrome - 48.0.2564.116]	[Action:Making connection to server]	[Remarks:Successful connection to server: S3]
[Date: 2016-03-02 16:40:19]	[UserID:06/343]	[IP:10.10.11.1]	[Browser:Chrome - 48.0.2564.116]	[Action:GetProgramList 06/343]	[Remarks:[{"ID":"1","ProgramIndex":"GST","ProgramName":"GST"}]]
[Date: 2016-03-02 16:40:19]	[UserID:06/343]	[IP:10.10.11.1]	[Browser:Chrome - 48.0.2564.116]	[Action:Making connection to server]	[Remarks:Successful connection to server: S3]
[Date: 2016-03-02 16:40:19]	[UserID:06/343]	[IP:10.10.11.1]	[Browser:Chrome - 48.0.2564.116]	[Action:Filtering User : MasterData Username : 06/343]	[Remarks:Successful filter row count: 1]
[Date: 2016-03-02 16:40:20]	[UserID:06/343]	[IP:10.10.11.1]	[Browser:Chrome - 48.0.2564.116]	[Action:Making connection to server]	[Remarks:Successful connection to server: S3]
[Date: 2016-03-02 16:40:20]	[UserID:06/343]	[IP:10.10.11.1]	[Browser:Chrome - 48.0.2564.116]	[Action:GetGSTModules 06/343,1]	[Remarks:Successful filter row count: 5]
[Date: 2016-03-02 16:40:20]	[UserID:06/343]	[IP:10.10.11.1]	[Browser:Chrome - 48.0.2564.116]	[Action:Closing mssql connection]	[Remarks:Success]
[Date: 2016-03-02 16:45:35]	[UserID:06/343]	[IP:10.10.11.1]	[Browser:Chrome - 48.0.2564.116]	[Action:Making connection to server]	[Remarks:Successful connection to server: S3]
[Date: 2016-03-02 16:45:40]	[UserID:06/343]	[IP:10.10.11.1]	[Browser:Chrome - 48.0.2564.116]	[Action:GetGSTModules 06/343,1]	[Remarks:Successful filter row count: 5]
[Date: 2016-03-02 16:45:40]	[UserID:06/343]	[IP:10.10.11.1]	[Browser:Chrome - 48.0.2564.116]	[Action:Closing mssql connection]	[Remarks:Success]
