[Date: 2019-06-20 08:45:43]	[UserID:]	[IP:10.128.12.120]	[Browser:Chrome - 74.0.3729.169]	[Action:Making connection to server]	[Remarks:Successful connection to server: S3]
[Date: 2019-06-20 08:45:43]	[UserID:]	[IP:10.128.12.120]	[Browser:Chrome - 74.0.3729.169]	[Action:GetProgramList ]	[Remarks:"no data"]
[Date: 2019-06-20 08:45:50]	[UserID:14/1082]	[IP:10.128.12.120]	[Browser:Chrome - 74.0.3729.169]	[Action:Making connection to server]	[Remarks:Successful connection to server: S3]
[Date: 2019-06-20 08:45:50]	[UserID:14/1082]	[IP:10.128.12.120]	[Browser:Chrome - 74.0.3729.169]	[Action:User 14/1082]	[Remarks:Success]
[Date: 2019-06-20 08:45:50]	[UserID:14/1082]	[IP:10.128.12.120]	[Browser:Chrome - 74.0.3729.169]	[Action:Filtering User : MasterData Username : 14/1082]	[Remarks:Successful filter row count: 0]
[Date: 2019-06-20 08:45:50]	[UserID:14/1082]	[IP:10.128.12.120]	[Browser:Chrome - 74.0.3729.169]	[Action:Filtering User : MasterData Username : 14/1082]	[Remarks:Successful filter row count: 0]
[Date: 2019-06-20 08:45:50]	[UserID:14/1082]	[IP:10.128.12.120]	[Browser:Chrome - 74.0.3729.169]	[Action:Filtering User : MasterData Username : 14/1082]	[Remarks:Success]
[Date: 2019-06-20 08:45:50]	[UserID:14/1082]	[IP:10.128.12.120]	[Browser:Chrome - 74.0.3729.169]	[Action:Closing mssql connection]	[Remarks:Success]
[Date: 2019-06-20 08:45:50]	[UserID:14/1082]	[IP:10.128.12.120]	[Browser:Chrome - 74.0.3729.169]	[Action:Making connection to server]	[Remarks:Successful connection to server: S3]
[Date: 2019-06-20 08:45:50]	[UserID:14/1082]	[IP:10.128.12.120]	[Browser:Chrome - 74.0.3729.169]	[Action:GetProgramList 14/1082]	[Remarks:[{"ID":"1","ProgramIndex":"GST","ProgramName":"GST"}]]
[Date: 2019-06-20 08:45:50]	[UserID:14/1082]	[IP:10.128.12.120]	[Browser:Chrome - 74.0.3729.169]	[Action:Making connection to server]	[Remarks:Successful connection to server: S3]
[Date: 2019-06-20 08:45:51]	[UserID:14/1082]	[IP:10.128.12.120]	[Browser:Chrome - 74.0.3729.169]	[Action:GetProgramList 14/1082]	[Remarks:[{"ID":"1","ProgramIndex":"GST","ProgramName":"GST"}]]
[Date: 2019-06-20 08:45:51]	[UserID:14/1082]	[IP:10.128.12.120]	[Browser:Chrome - 74.0.3729.169]	[Action:Making connection to server]	[Remarks:Successful connection to server: S3]
[Date: 2019-06-20 08:45:51]	[UserID:14/1082]	[IP:10.128.12.120]	[Browser:Chrome - 74.0.3729.169]	[Action:Filtering User : MasterData Username : 14/1082]	[Remarks:Successful filter row count: 1]
[Date: 2019-06-20 08:45:51]	[UserID:14/1082]	[IP:10.128.12.120]	[Browser:Chrome - 74.0.3729.169]	[Action:Making connection to server]	[Remarks:Successful connection to server: S3]
[Date: 2019-06-20 08:45:51]	[UserID:14/1082]	[IP:10.128.12.120]	[Browser:Chrome - 74.0.3729.169]	[Action:GetGSTModules 14/1082,1]	[Remarks:Successful filter row count: 7]
[Date: 2019-06-20 08:45:51]	[UserID:14/1082]	[IP:10.128.12.120]	[Browser:Chrome - 74.0.3729.169]	[Action:Closing mssql connection]	[Remarks:Success]
[Date: 2019-06-20 09:16:15]	[UserID:14/1082]	[IP:10.128.12.120]	[Browser:Chrome - 74.0.3729.169]	[Action:Making connection to server]	[Remarks:Successful connection to server: S3]
[Date: 2019-06-20 09:16:15]	[UserID:14/1082]	[IP:10.128.12.120]	[Browser:Chrome - 74.0.3729.169]	[Action:GetProgramList 14/1082]	[Remarks:[{"ID":"1","ProgramIndex":"GST","ProgramName":"GST"}]]
[Date: 2019-06-20 09:16:15]	[UserID:14/1082]	[IP:10.128.12.120]	[Browser:Chrome - 74.0.3729.169]	[Action:Making connection to server]	[Remarks:Successful connection to server: S3]
[Date: 2019-06-20 09:16:15]	[UserID:14/1082]	[IP:10.128.12.120]	[Browser:Chrome - 74.0.3729.169]	[Action:GetProgramList 14/1082]	[Remarks:[{"ID":"1","ProgramIndex":"GST","ProgramName":"GST"}]]
[Date: 2019-06-20 09:16:15]	[UserID:14/1082]	[IP:10.128.12.120]	[Browser:Chrome - 74.0.3729.169]	[Action:Making connection to server]	[Remarks:Successful connection to server: S3]
[Date: 2019-06-20 09:16:15]	[UserID:14/1082]	[IP:10.128.12.120]	[Browser:Chrome - 74.0.3729.169]	[Action:Filtering User : MasterData Username : 14/1082]	[Remarks:Successful filter row count: 1]
[Date: 2019-06-20 09:16:16]	[UserID:14/1082]	[IP:10.128.12.120]	[Browser:Chrome - 74.0.3729.169]	[Action:Making connection to server]	[Remarks:Successful connection to server: S3]
[Date: 2019-06-20 09:16:16]	[UserID:14/1082]	[IP:10.128.12.120]	[Browser:Chrome - 74.0.3729.169]	[Action:GetGSTModules 14/1082,1]	[Remarks:Successful filter row count: 7]
[Date: 2019-06-20 09:16:16]	[UserID:14/1082]	[IP:10.128.12.120]	[Browser:Chrome - 74.0.3729.169]	[Action:Closing mssql connection]	[Remarks:Success]
[Date: 2019-06-20 09:25:55]	[UserID:]	[IP:10.128.80.129]	[Browser:Chrome - 75.0.3770.100]	[Action:Making connection to server]	[Remarks:Successful connection to server: S3]
[Date: 2019-06-20 09:25:55]	[UserID:]	[IP:10.128.80.129]	[Browser:Chrome - 75.0.3770.100]	[Action:GetProgramList ]	[Remarks:"no data"]
[Date: 2019-06-20 09:26:07]	[UserID:17/1257]	[IP:10.128.80.129]	[Browser:Chrome - 75.0.3770.100]	[Action:Making connection to server]	[Remarks:Successful connection to server: S3]
[Date: 2019-06-20 09:26:08]	[UserID:17/1257]	[IP:10.128.80.129]	[Browser:Chrome - 75.0.3770.100]	[Action:LogMeIn 17/1257,WMS1257]	[Remarks:Failed]
[Date: 2019-06-20 09:26:08]	[UserID:17/1257]	[IP:10.128.80.129]	[Browser:Chrome - 75.0.3770.100]	[Action:Closing mssql connection]	[Remarks:Success]
[Date: 2019-06-20 09:26:16]	[UserID:17/1257]	[IP:10.128.80.129]	[Browser:Chrome - 75.0.3770.100]	[Action:Making connection to server]	[Remarks:Successful connection to server: S3]
[Date: 2019-06-20 09:26:16]	[UserID:17/1257]	[IP:10.128.80.129]	[Browser:Chrome - 75.0.3770.100]	[Action:User 17/1257]	[Remarks:Success]
[Date: 2019-06-20 09:26:16]	[UserID:17/1257]	[IP:10.128.80.129]	[Browser:Chrome - 75.0.3770.100]	[Action:Filtering User : MasterData Username : 17/1257]	[Remarks:Successful filter row count: 0]
[Date: 2019-06-20 09:26:16]	[UserID:17/1257]	[IP:10.128.80.129]	[Browser:Chrome - 75.0.3770.100]	[Action:Filtering User : MasterData Username : 17/1257]	[Remarks:Successful filter row count: 0]
[Date: 2019-06-20 09:26:16]	[UserID:17/1257]	[IP:10.128.80.129]	[Browser:Chrome - 75.0.3770.100]	[Action:Filtering User : MasterData Username : 17/1257]	[Remarks:Success]
[Date: 2019-06-20 09:26:16]	[UserID:17/1257]	[IP:10.128.80.129]	[Browser:Chrome - 75.0.3770.100]	[Action:Closing mssql connection]	[Remarks:Success]
[Date: 2019-06-20 09:26:16]	[UserID:]	[IP:10.128.80.129]	[Browser:Chrome - 75.0.3770.100]	[Action:Making connection to server]	[Remarks:Successful connection to server: S3]
[Date: 2019-06-20 09:26:16]	[UserID:]	[IP:10.128.80.129]	[Browser:Chrome - 75.0.3770.100]	[Action:GetProgramList ]	[Remarks:"no data"]
[Date: 2019-06-20 09:26:33]	[UserID:17/1257]	[IP:10.128.80.129]	[Browser:Chrome - 75.0.3770.100]	[Action:Making connection to server]	[Remarks:Successful connection to server: S3]
[Date: 2019-06-20 09:26:33]	[UserID:17/1257]	[IP:10.128.80.129]	[Browser:Chrome - 75.0.3770.100]	[Action:User 17/1257]	[Remarks:Success]
[Date: 2019-06-20 09:26:33]	[UserID:17/1257]	[IP:10.128.80.129]	[Browser:Chrome - 75.0.3770.100]	[Action:Filtering User : MasterData Username : 17/1257]	[Remarks:Successful filter row count: 0]
[Date: 2019-06-20 09:26:33]	[UserID:17/1257]	[IP:10.128.80.129]	[Browser:Chrome - 75.0.3770.100]	[Action:Filtering User : MasterData Username : 17/1257]	[Remarks:Successful filter row count: 0]
[Date: 2019-06-20 09:26:33]	[UserID:17/1257]	[IP:10.128.80.129]	[Browser:Chrome - 75.0.3770.100]	[Action:Filtering User : MasterData Username : 17/1257]	[Remarks:Success]
[Date: 2019-06-20 09:26:33]	[UserID:17/1257]	[IP:10.128.80.129]	[Browser:Chrome - 75.0.3770.100]	[Action:Closing mssql connection]	[Remarks:Success]
[Date: 2019-06-20 09:26:33]	[UserID:17/1257]	[IP:10.128.80.129]	[Browser:Chrome - 75.0.3770.100]	[Action:Making connection to server]	[Remarks:Successful connection to server: S3]
[Date: 2019-06-20 09:26:33]	[UserID:17/1257]	[IP:10.128.80.129]	[Browser:Chrome - 75.0.3770.100]	[Action:GetProgramList 17/1257]	[Remarks:[{"ID":"1","ProgramIndex":"GST","ProgramName":"GST"}]]
[Date: 2019-06-20 09:26:33]	[UserID:17/1257]	[IP:10.128.80.129]	[Browser:Chrome - 75.0.3770.100]	[Action:Making connection to server]	[Remarks:Successful connection to server: S3]
[Date: 2019-06-20 09:26:33]	[UserID:17/1257]	[IP:10.128.80.129]	[Browser:Chrome - 75.0.3770.100]	[Action:GetProgramList 17/1257]	[Remarks:[{"ID":"1","ProgramIndex":"GST","ProgramName":"GST"}]]
[Date: 2019-06-20 09:26:33]	[UserID:17/1257]	[IP:10.128.80.129]	[Browser:Chrome - 75.0.3770.100]	[Action:Making connection to server]	[Remarks:Successful connection to server: S3]
[Date: 2019-06-20 09:26:33]	[UserID:17/1257]	[IP:10.128.80.129]	[Browser:Chrome - 75.0.3770.100]	[Action:Filtering User : MasterData Username : 17/1257]	[Remarks:Successful filter row count: 1]
[Date: 2019-06-20 09:26:34]	[UserID:17/1257]	[IP:10.128.80.129]	[Browser:Chrome - 75.0.3770.100]	[Action:Making connection to server]	[Remarks:Successful connection to server: S3]
[Date: 2019-06-20 09:26:34]	[UserID:17/1257]	[IP:10.128.80.129]	[Browser:Chrome - 75.0.3770.100]	[Action:GetGSTModules 17/1257,1]	[Remarks:Successful filter row count: 4]
[Date: 2019-06-20 09:26:34]	[UserID:17/1257]	[IP:10.128.80.129]	[Browser:Chrome - 75.0.3770.100]	[Action:Closing mssql connection]	[Remarks:Success]
[Date: 2019-06-20 09:26:49]	[UserID:17/1257]	[IP:10.128.80.129]	[Browser:Chrome - 75.0.3770.100]	[Action:Making connection to server]	[Remarks:Successful connection to server: S3]
[Date: 2019-06-20 09:26:49]	[UserID:17/1257]	[IP:10.128.80.129]	[Browser:Chrome - 75.0.3770.100]	[Action:GetGSTModules 17/1257,1]	[Remarks:Successful filter row count: 4]
[Date: 2019-06-20 09:26:49]	[UserID:17/1257]	[IP:10.128.80.129]	[Browser:Chrome - 75.0.3770.100]	[Action:Closing mssql connection]	[Remarks:Success]
[Date: 2019-06-20 09:27:29]	[UserID:17/1257]	[IP:10.128.80.129]	[Browser:Chrome - 75.0.3770.100]	[Action:Making connection to server]	[Remarks:Successful connection to server: S3]
[Date: 2019-06-20 09:27:29]	[UserID:17/1257]	[IP:10.128.80.129]	[Browser:Chrome - 75.0.3770.100]	[Action:GetProgramList 17/1257]	[Remarks:[{"ID":"1","ProgramIndex":"GST","ProgramName":"GST"}]]
[Date: 2019-06-20 09:27:29]	[UserID:17/1257]	[IP:10.128.80.129]	[Browser:Chrome - 75.0.3770.100]	[Action:Making connection to server]	[Remarks:Successful connection to server: S3]
[Date: 2019-06-20 09:27:29]	[UserID:17/1257]	[IP:10.128.80.129]	[Browser:Chrome - 75.0.3770.100]	[Action:GetProgramList 17/1257]	[Remarks:[{"ID":"1","ProgramIndex":"GST","ProgramName":"GST"}]]
[Date: 2019-06-20 09:27:29]	[UserID:17/1257]	[IP:10.128.80.129]	[Browser:Chrome - 75.0.3770.100]	[Action:Making connection to server]	[Remarks:Successful connection to server: S3]
[Date: 2019-06-20 09:27:29]	[UserID:17/1257]	[IP:10.128.80.129]	[Browser:Chrome - 75.0.3770.100]	[Action:Filtering User : MasterData Username : 17/1257]	[Remarks:Successful filter row count: 1]
[Date: 2019-06-20 09:27:31]	[UserID:17/1257]	[IP:10.128.80.129]	[Browser:Chrome - 75.0.3770.100]	[Action:Making connection to server]	[Remarks:Successful connection to server: S3]
[Date: 2019-06-20 09:27:31]	[UserID:17/1257]	[IP:10.128.80.129]	[Browser:Chrome - 75.0.3770.100]	[Action:GetGSTModules 17/1257,1]	[Remarks:Successful filter row count: 4]
[Date: 2019-06-20 09:27:31]	[UserID:17/1257]	[IP:10.128.80.129]	[Browser:Chrome - 75.0.3770.100]	[Action:Closing mssql connection]	[Remarks:Success]
[Date: 2019-06-20 09:29:15]	[UserID:17/1257]	[IP:10.128.80.129]	[Browser:Chrome - 75.0.3770.100]	[Action:Making connection to server]	[Remarks:Successful connection to server: S3]
[Date: 2019-06-20 09:29:15]	[UserID:17/1257]	[IP:10.128.80.129]	[Browser:Chrome - 75.0.3770.100]	[Action:GetGSTModules 17/1257,1]	[Remarks:Successful filter row count: 4]
[Date: 2019-06-20 09:29:15]	[UserID:17/1257]	[IP:10.128.80.129]	[Browser:Chrome - 75.0.3770.100]	[Action:Closing mssql connection]	[Remarks:Success]
[Date: 2019-06-20 09:43:51]	[UserID:]	[IP:10.128.12.113]	[Browser:Chrome - 74.0.3729.169]	[Action:Making connection to server]	[Remarks:Successful connection to server: S3]
[Date: 2019-06-20 09:43:51]	[UserID:]	[IP:10.128.12.113]	[Browser:Chrome - 74.0.3729.169]	[Action:GetProgramList ]	[Remarks:"no data"]
[Date: 2019-06-20 09:43:57]	[UserID:06/343]	[IP:10.128.12.113]	[Browser:Chrome - 74.0.3729.169]	[Action:Making connection to server]	[Remarks:Successful connection to server: S3]
[Date: 2019-06-20 09:43:57]	[UserID:06/343]	[IP:10.128.12.113]	[Browser:Chrome - 74.0.3729.169]	[Action:User 06/343]	[Remarks:Success]
[Date: 2019-06-20 09:43:57]	[UserID:06/343]	[IP:10.128.12.113]	[Browser:Chrome - 74.0.3729.169]	[Action:Filtering User : MasterData Username : 06/343]	[Remarks:Successful filter row count: 0]
[Date: 2019-06-20 09:43:57]	[UserID:06/343]	[IP:10.128.12.113]	[Browser:Chrome - 74.0.3729.169]	[Action:Filtering User : MasterData Username : 06/343]	[Remarks:Successful filter row count: 0]
[Date: 2019-06-20 09:43:57]	[UserID:06/343]	[IP:10.128.12.113]	[Browser:Chrome - 74.0.3729.169]	[Action:Filtering User : MasterData Username : 06/343]	[Remarks:Success]
[Date: 2019-06-20 09:43:57]	[UserID:06/343]	[IP:10.128.12.113]	[Browser:Chrome - 74.0.3729.169]	[Action:Closing mssql connection]	[Remarks:Success]
[Date: 2019-06-20 09:43:58]	[UserID:06/343]	[IP:10.128.12.113]	[Browser:Chrome - 74.0.3729.169]	[Action:Making connection to server]	[Remarks:Successful connection to server: S3]
[Date: 2019-06-20 09:43:58]	[UserID:06/343]	[IP:10.128.12.113]	[Browser:Chrome - 74.0.3729.169]	[Action:GetProgramList 06/343]	[Remarks:[{"ID":"1","ProgramIndex":"GST","ProgramName":"GST"}]]
[Date: 2019-06-20 09:43:58]	[UserID:06/343]	[IP:10.128.12.113]	[Browser:Chrome - 74.0.3729.169]	[Action:Making connection to server]	[Remarks:Successful connection to server: S3]
[Date: 2019-06-20 09:43:58]	[UserID:06/343]	[IP:10.128.12.113]	[Browser:Chrome - 74.0.3729.169]	[Action:GetProgramList 06/343]	[Remarks:[{"ID":"1","ProgramIndex":"GST","ProgramName":"GST"}]]
[Date: 2019-06-20 09:43:58]	[UserID:06/343]	[IP:10.128.12.113]	[Browser:Chrome - 74.0.3729.169]	[Action:Making connection to server]	[Remarks:Successful connection to server: S3]
[Date: 2019-06-20 09:43:58]	[UserID:06/343]	[IP:10.128.12.113]	[Browser:Chrome - 74.0.3729.169]	[Action:Filtering User : MasterData Username : 06/343]	[Remarks:Successful filter row count: 1]
[Date: 2019-06-20 09:43:58]	[UserID:06/343]	[IP:10.128.12.113]	[Browser:Chrome - 74.0.3729.169]	[Action:Making connection to server]	[Remarks:Successful connection to server: S3]
[Date: 2019-06-20 09:43:58]	[UserID:06/343]	[IP:10.128.12.113]	[Browser:Chrome - 74.0.3729.169]	[Action:GetGSTModules 06/343,1]	[Remarks:Successful filter row count: 6]
[Date: 2019-06-20 09:43:58]	[UserID:06/343]	[IP:10.128.12.113]	[Browser:Chrome - 74.0.3729.169]	[Action:Closing mssql connection]	[Remarks:Success]
[Date: 2019-06-20 09:44:20]	[UserID:17/1257]	[IP:10.128.80.129]	[Browser:Chrome - 75.0.3770.100]	[Action:Making connection to server]	[Remarks:Successful connection to server: S3]
[Date: 2019-06-20 09:44:20]	[UserID:17/1257]	[IP:10.128.80.129]	[Browser:Chrome - 75.0.3770.100]	[Action:GetGSTModules 17/1257,1]	[Remarks:Successful filter row count: 4]
[Date: 2019-06-20 09:44:20]	[UserID:17/1257]	[IP:10.128.80.129]	[Browser:Chrome - 75.0.3770.100]	[Action:Closing mssql connection]	[Remarks:Success]
[Date: 2019-06-20 09:44:53]	[UserID:]	[IP:10.128.12.120]	[Browser:Chrome - 74.0.3729.169]	[Action:Making connection to server]	[Remarks:Successful connection to server: S3]
[Date: 2019-06-20 09:44:53]	[UserID:]	[IP:10.128.12.120]	[Browser:Chrome - 74.0.3729.169]	[Action:GetProgramList ]	[Remarks:"no data"]
[Date: 2019-06-20 09:44:58]	[UserID:14/1082]	[IP:10.128.12.120]	[Browser:Chrome - 74.0.3729.169]	[Action:Making connection to server]	[Remarks:Successful connection to server: S3]
[Date: 2019-06-20 09:44:58]	[UserID:14/1082]	[IP:10.128.12.120]	[Browser:Chrome - 74.0.3729.169]	[Action:User 14/1082]	[Remarks:Success]
[Date: 2019-06-20 09:44:58]	[UserID:14/1082]	[IP:10.128.12.120]	[Browser:Chrome - 74.0.3729.169]	[Action:Filtering User : MasterData Username : 14/1082]	[Remarks:Successful filter row count: 0]
[Date: 2019-06-20 09:44:58]	[UserID:14/1082]	[IP:10.128.12.120]	[Browser:Chrome - 74.0.3729.169]	[Action:Filtering User : MasterData Username : 14/1082]	[Remarks:Successful filter row count: 0]
[Date: 2019-06-20 09:44:58]	[UserID:14/1082]	[IP:10.128.12.120]	[Browser:Chrome - 74.0.3729.169]	[Action:Filtering User : MasterData Username : 14/1082]	[Remarks:Success]
[Date: 2019-06-20 09:44:58]	[UserID:14/1082]	[IP:10.128.12.120]	[Browser:Chrome - 74.0.3729.169]	[Action:Closing mssql connection]	[Remarks:Success]
[Date: 2019-06-20 09:44:58]	[UserID:14/1082]	[IP:10.128.12.120]	[Browser:Chrome - 74.0.3729.169]	[Action:Making connection to server]	[Remarks:Successful connection to server: S3]
[Date: 2019-06-20 09:44:58]	[UserID:14/1082]	[IP:10.128.12.120]	[Browser:Chrome - 74.0.3729.169]	[Action:GetProgramList 14/1082]	[Remarks:[{"ID":"1","ProgramIndex":"GST","ProgramName":"GST"}]]
[Date: 2019-06-20 09:44:58]	[UserID:14/1082]	[IP:10.128.12.120]	[Browser:Chrome - 74.0.3729.169]	[Action:Making connection to server]	[Remarks:Successful connection to server: S3]
[Date: 2019-06-20 09:44:58]	[UserID:14/1082]	[IP:10.128.12.120]	[Browser:Chrome - 74.0.3729.169]	[Action:GetProgramList 14/1082]	[Remarks:[{"ID":"1","ProgramIndex":"GST","ProgramName":"GST"}]]
[Date: 2019-06-20 09:44:58]	[UserID:14/1082]	[IP:10.128.12.120]	[Browser:Chrome - 74.0.3729.169]	[Action:Making connection to server]	[Remarks:Successful connection to server: S3]
[Date: 2019-06-20 09:44:58]	[UserID:14/1082]	[IP:10.128.12.120]	[Browser:Chrome - 74.0.3729.169]	[Action:Filtering User : MasterData Username : 14/1082]	[Remarks:Successful filter row count: 1]
[Date: 2019-06-20 09:44:58]	[UserID:14/1082]	[IP:10.128.12.120]	[Browser:Chrome - 74.0.3729.169]	[Action:Making connection to server]	[Remarks:Successful connection to server: S3]
[Date: 2019-06-20 09:44:58]	[UserID:14/1082]	[IP:10.128.12.120]	[Browser:Chrome - 74.0.3729.169]	[Action:GetGSTModules 14/1082,1]	[Remarks:Successful filter row count: 7]
[Date: 2019-06-20 09:44:58]	[UserID:14/1082]	[IP:10.128.12.120]	[Browser:Chrome - 74.0.3729.169]	[Action:Closing mssql connection]	[Remarks:Success]
[Date: 2019-06-20 09:45:48]	[UserID:17/1257]	[IP:10.128.80.129]	[Browser:Chrome - 75.0.3770.100]	[Action:Making connection to server]	[Remarks:Successful connection to server: S3]
[Date: 2019-06-20 09:45:48]	[UserID:17/1257]	[IP:10.128.80.129]	[Browser:Chrome - 75.0.3770.100]	[Action:GetGSTModules 17/1257,1]	[Remarks:Successful filter row count: 4]
[Date: 2019-06-20 09:45:48]	[UserID:17/1257]	[IP:10.128.80.129]	[Browser:Chrome - 75.0.3770.100]	[Action:Closing mssql connection]	[Remarks:Success]
[Date: 2019-06-20 09:46:30]	[UserID:17/1257]	[IP:10.128.80.129]	[Browser:Chrome - 75.0.3770.100]	[Action:Making connection to server]	[Remarks:Successful connection to server: S3]
[Date: 2019-06-20 09:46:30]	[UserID:17/1257]	[IP:10.128.80.129]	[Browser:Chrome - 75.0.3770.100]	[Action:GetGSTModules 17/1257,1]	[Remarks:Successful filter row count: 4]
[Date: 2019-06-20 09:46:30]	[UserID:17/1257]	[IP:10.128.80.129]	[Browser:Chrome - 75.0.3770.100]	[Action:Closing mssql connection]	[Remarks:Success]
[Date: 2019-06-20 09:47:27]	[UserID:]	[IP:10.128.80.129]	[Browser:Chrome - 75.0.3770.100]	[Action:Making connection to server]	[Remarks:Successful connection to server: S3]
[Date: 2019-06-20 09:47:27]	[UserID:]	[IP:10.128.80.129]	[Browser:Chrome - 75.0.3770.100]	[Action:GetProgramList ]	[Remarks:"no data"]
[Date: 2019-06-20 09:50:07]	[UserID:06/343]	[IP:10.128.12.113]	[Browser:Chrome - 74.0.3729.169]	[Action:Making connection to server]	[Remarks:Successful connection to server: S3]
[Date: 2019-06-20 09:50:07]	[UserID:06/343]	[IP:10.128.12.113]	[Browser:Chrome - 74.0.3729.169]	[Action:GetGSTModules 06/343,1]	[Remarks:Successful filter row count: 6]
[Date: 2019-06-20 09:50:07]	[UserID:06/343]	[IP:10.128.12.113]	[Browser:Chrome - 74.0.3729.169]	[Action:Closing mssql connection]	[Remarks:Success]
[Date: 2019-06-20 09:53:12]	[UserID:06/343]	[IP:10.128.12.113]	[Browser:Chrome - 74.0.3729.169]	[Action:Making connection to server]	[Remarks:Successful connection to server: S3]
[Date: 2019-06-20 09:53:12]	[UserID:06/343]	[IP:10.128.12.113]	[Browser:Chrome - 74.0.3729.169]	[Action:GetGSTModules 06/343,1]	[Remarks:Successful filter row count: 6]
[Date: 2019-06-20 09:53:12]	[UserID:06/343]	[IP:10.128.12.113]	[Browser:Chrome - 74.0.3729.169]	[Action:Closing mssql connection]	[Remarks:Success]
[Date: 2019-06-20 09:54:32]	[UserID:06/343]	[IP:10.128.12.113]	[Browser:Chrome - 74.0.3729.169]	[Action:Making connection to server]	[Remarks:Successful connection to server: S3]
[Date: 2019-06-20 09:54:32]	[UserID:06/343]	[IP:10.128.12.113]	[Browser:Chrome - 74.0.3729.169]	[Action:GetGSTModules 06/343,1]	[Remarks:Successful filter row count: 6]
[Date: 2019-06-20 09:54:32]	[UserID:06/343]	[IP:10.128.12.113]	[Browser:Chrome - 74.0.3729.169]	[Action:Closing mssql connection]	[Remarks:Success]
[Date: 2019-06-20 10:09:44]	[UserID:]	[IP:10.139.5.103]	[Browser:Firefox - 67.0]	[Action:Making connection to server]	[Remarks:Successful connection to server: S3]
[Date: 2019-06-20 10:09:44]	[UserID:]	[IP:10.139.5.103]	[Browser:Firefox - 67.0]	[Action:GetProgramList ]	[Remarks:"no data"]
[Date: 2019-06-20 10:11:55]	[UserID:17/1257]	[IP:10.128.80.129]	[Browser:Chrome - 75.0.3770.100]	[Action:Making connection to server]	[Remarks:Successful connection to server: S3]
[Date: 2019-06-20 10:11:55]	[UserID:17/1257]	[IP:10.128.80.129]	[Browser:Chrome - 75.0.3770.100]	[Action:User 17/1257]	[Remarks:Success]
[Date: 2019-06-20 10:11:55]	[UserID:17/1257]	[IP:10.128.80.129]	[Browser:Chrome - 75.0.3770.100]	[Action:Filtering User : MasterData Username : 17/1257]	[Remarks:Successful filter row count: 0]
[Date: 2019-06-20 10:11:55]	[UserID:17/1257]	[IP:10.128.80.129]	[Browser:Chrome - 75.0.3770.100]	[Action:Filtering User : MasterData Username : 17/1257]	[Remarks:Successful filter row count: 0]
[Date: 2019-06-20 10:11:55]	[UserID:17/1257]	[IP:10.128.80.129]	[Browser:Chrome - 75.0.3770.100]	[Action:Filtering User : MasterData Username : 17/1257]	[Remarks:Success]
[Date: 2019-06-20 10:11:55]	[UserID:17/1257]	[IP:10.128.80.129]	[Browser:Chrome - 75.0.3770.100]	[Action:Closing mssql connection]	[Remarks:Success]
[Date: 2019-06-20 10:11:55]	[UserID:17/1257]	[IP:10.128.80.129]	[Browser:Chrome - 75.0.3770.100]	[Action:Making connection to server]	[Remarks:Successful connection to server: S3]
[Date: 2019-06-20 10:11:55]	[UserID:17/1257]	[IP:10.128.80.129]	[Browser:Chrome - 75.0.3770.100]	[Action:GetProgramList 17/1257]	[Remarks:[{"ID":"1","ProgramIndex":"GST","ProgramName":"GST"}]]
[Date: 2019-06-20 10:11:55]	[UserID:17/1257]	[IP:10.128.80.129]	[Browser:Chrome - 75.0.3770.100]	[Action:Making connection to server]	[Remarks:Successful connection to server: S3]
[Date: 2019-06-20 10:11:55]	[UserID:17/1257]	[IP:10.128.80.129]	[Browser:Chrome - 75.0.3770.100]	[Action:GetProgramList 17/1257]	[Remarks:[{"ID":"1","ProgramIndex":"GST","ProgramName":"GST"}]]
[Date: 2019-06-20 10:11:55]	[UserID:17/1257]	[IP:10.128.80.129]	[Browser:Chrome - 75.0.3770.100]	[Action:Making connection to server]	[Remarks:Successful connection to server: S3]
[Date: 2019-06-20 10:11:55]	[UserID:17/1257]	[IP:10.128.80.129]	[Browser:Chrome - 75.0.3770.100]	[Action:Filtering User : MasterData Username : 17/1257]	[Remarks:Successful filter row count: 1]
[Date: 2019-06-20 10:11:57]	[UserID:17/1257]	[IP:10.128.80.129]	[Browser:Chrome - 75.0.3770.100]	[Action:Making connection to server]	[Remarks:Successful connection to server: S3]
[Date: 2019-06-20 10:11:57]	[UserID:17/1257]	[IP:10.128.80.129]	[Browser:Chrome - 75.0.3770.100]	[Action:GetGSTModules 17/1257,1]	[Remarks:Successful filter row count: 4]
[Date: 2019-06-20 10:11:57]	[UserID:17/1257]	[IP:10.128.80.129]	[Browser:Chrome - 75.0.3770.100]	[Action:Closing mssql connection]	[Remarks:Success]
[Date: 2019-06-20 10:14:08]	[UserID:]	[IP:10.139.5.103]	[Browser:Firefox - 67.0]	[Action:Making connection to server]	[Remarks:Successful connection to server: S3]
[Date: 2019-06-20 10:14:08]	[UserID:]	[IP:10.139.5.103]	[Browser:Firefox - 67.0]	[Action:GetProgramList ]	[Remarks:"no data"]
[Date: 2019-06-20 10:48:05]	[UserID:17/1257]	[IP:10.128.80.129]	[Browser:Chrome - 75.0.3770.100]	[Action:Making connection to server]	[Remarks:Successful connection to server: S3]
[Date: 2019-06-20 10:48:05]	[UserID:17/1257]	[IP:10.128.80.129]	[Browser:Chrome - 75.0.3770.100]	[Action:GetGSTModules 17/1257,1]	[Remarks:Successful filter row count: 4]
[Date: 2019-06-20 10:48:05]	[UserID:17/1257]	[IP:10.128.80.129]	[Browser:Chrome - 75.0.3770.100]	[Action:Closing mssql connection]	[Remarks:Success]
[Date: 2019-06-20 11:01:43]	[UserID:17/1257]	[IP:10.128.80.129]	[Browser:Chrome - 75.0.3770.100]	[Action:Making connection to server]	[Remarks:Successful connection to server: S3]
[Date: 2019-06-20 11:01:43]	[UserID:17/1257]	[IP:10.128.80.129]	[Browser:Chrome - 75.0.3770.100]	[Action:GetGSTModules 17/1257,1]	[Remarks:Successful filter row count: 4]
[Date: 2019-06-20 11:01:43]	[UserID:17/1257]	[IP:10.128.80.129]	[Browser:Chrome - 75.0.3770.100]	[Action:Closing mssql connection]	[Remarks:Success]
[Date: 2019-06-20 11:04:44]	[UserID:17/1257]	[IP:10.128.80.129]	[Browser:Chrome - 75.0.3770.100]	[Action:Making connection to server]	[Remarks:Successful connection to server: S3]
[Date: 2019-06-20 11:04:44]	[UserID:17/1257]	[IP:10.128.80.129]	[Browser:Chrome - 75.0.3770.100]	[Action:GetGSTModules 17/1257,1]	[Remarks:Successful filter row count: 4]
[Date: 2019-06-20 11:04:44]	[UserID:17/1257]	[IP:10.128.80.129]	[Browser:Chrome - 75.0.3770.100]	[Action:Closing mssql connection]	[Remarks:Success]
[Date: 2019-06-20 11:07:05]	[UserID:17/1257]	[IP:10.128.80.129]	[Browser:Chrome - 75.0.3770.100]	[Action:Making connection to server]	[Remarks:Successful connection to server: S3]
[Date: 2019-06-20 11:07:05]	[UserID:17/1257]	[IP:10.128.80.129]	[Browser:Chrome - 75.0.3770.100]	[Action:GetGSTModules 17/1257,1]	[Remarks:Successful filter row count: 4]
[Date: 2019-06-20 11:07:05]	[UserID:17/1257]	[IP:10.128.80.129]	[Browser:Chrome - 75.0.3770.100]	[Action:Closing mssql connection]	[Remarks:Success]
[Date: 2019-06-20 11:33:10]	[UserID:06/343]	[IP:10.128.12.113]	[Browser:Chrome - 74.0.3729.169]	[Action:Making connection to server]	[Remarks:Successful connection to server: S3]
[Date: 2019-06-20 11:33:10]	[UserID:06/343]	[IP:10.128.12.113]	[Browser:Chrome - 74.0.3729.169]	[Action:GetGSTModules 06/343,1]	[Remarks:Successful filter row count: 6]
[Date: 2019-06-20 11:33:10]	[UserID:06/343]	[IP:10.128.12.113]	[Browser:Chrome - 74.0.3729.169]	[Action:Closing mssql connection]	[Remarks:Success]
[Date: 2019-06-20 11:34:21]	[UserID:06/343]	[IP:10.128.12.113]	[Browser:Chrome - 74.0.3729.169]	[Action:Making connection to server]	[Remarks:Successful connection to server: S3]
[Date: 2019-06-20 11:34:21]	[UserID:06/343]	[IP:10.128.12.113]	[Browser:Chrome - 74.0.3729.169]	[Action:GetGSTModules 06/343,1]	[Remarks:Successful filter row count: 6]
[Date: 2019-06-20 11:34:21]	[UserID:06/343]	[IP:10.128.12.113]	[Browser:Chrome - 74.0.3729.169]	[Action:Closing mssql connection]	[Remarks:Success]
[Date: 2019-06-20 11:35:42]	[UserID:06/343]	[IP:10.128.12.113]	[Browser:Chrome - 74.0.3729.169]	[Action:Making connection to server]	[Remarks:Successful connection to server: S3]
[Date: 2019-06-20 11:35:42]	[UserID:06/343]	[IP:10.128.12.113]	[Browser:Chrome - 74.0.3729.169]	[Action:GetGSTModules 06/343,1]	[Remarks:Successful filter row count: 6]
[Date: 2019-06-20 11:35:42]	[UserID:06/343]	[IP:10.128.12.113]	[Browser:Chrome - 74.0.3729.169]	[Action:Closing mssql connection]	[Remarks:Success]
[Date: 2019-06-20 12:13:44]	[UserID:17/1257]	[IP:10.128.80.129]	[Browser:Chrome - 75.0.3770.100]	[Action:Making connection to server]	[Remarks:Successful connection to server: S3]
[Date: 2019-06-20 12:13:44]	[UserID:17/1257]	[IP:10.128.80.129]	[Browser:Chrome - 75.0.3770.100]	[Action:GetGSTModules 17/1257,1]	[Remarks:Successful filter row count: 4]
[Date: 2019-06-20 12:13:44]	[UserID:17/1257]	[IP:10.128.80.129]	[Browser:Chrome - 75.0.3770.100]	[Action:Closing mssql connection]	[Remarks:Success]
[Date: 2019-06-20 12:17:33]	[UserID:17/1257]	[IP:10.128.80.129]	[Browser:Chrome - 75.0.3770.100]	[Action:Making connection to server]	[Remarks:Successful connection to server: S3]
[Date: 2019-06-20 12:17:33]	[UserID:17/1257]	[IP:10.128.80.129]	[Browser:Chrome - 75.0.3770.100]	[Action:GetGSTModules 17/1257,1]	[Remarks:Successful filter row count: 4]
[Date: 2019-06-20 12:17:33]	[UserID:17/1257]	[IP:10.128.80.129]	[Browser:Chrome - 75.0.3770.100]	[Action:Closing mssql connection]	[Remarks:Success]
[Date: 2019-06-20 13:38:46]	[UserID:]	[IP:10.128.130.5]	[Browser:Chrome - 74.0.3729.169]	[Action:Making connection to server]	[Remarks:Successful connection to server: S3]
[Date: 2019-06-20 13:38:46]	[UserID:]	[IP:10.128.130.5]	[Browser:Chrome - 74.0.3729.169]	[Action:GetProgramList ]	[Remarks:"no data"]
[Date: 2019-06-20 13:38:54]	[UserID:dev/nsosa]	[IP:10.128.130.5]	[Browser:Chrome - 74.0.3729.169]	[Action:Making connection to server]	[Remarks:Successful connection to server: S3]
[Date: 2019-06-20 13:38:54]	[UserID:dev/nsosa]	[IP:10.128.130.5]	[Browser:Chrome - 74.0.3729.169]	[Action:User dev/nsosa]	[Remarks:Success]
[Date: 2019-06-20 13:38:54]	[UserID:dev/nsosa]	[IP:10.128.130.5]	[Browser:Chrome - 74.0.3729.169]	[Action:Filtering User : MasterData Username : dev/nsosa]	[Remarks:Successful filter row count: 0]
[Date: 2019-06-20 13:38:54]	[UserID:dev/nsosa]	[IP:10.128.130.5]	[Browser:Chrome - 74.0.3729.169]	[Action:Filtering User : MasterData Username : dev/nsosa]	[Remarks:Successful filter row count: 0]
[Date: 2019-06-20 13:38:54]	[UserID:dev/nsosa]	[IP:10.128.130.5]	[Browser:Chrome - 74.0.3729.169]	[Action:Filtering User : MasterData Username : dev/nsosa]	[Remarks:Success]
[Date: 2019-06-20 13:38:54]	[UserID:dev/nsosa]	[IP:10.128.130.5]	[Browser:Chrome - 74.0.3729.169]	[Action:Closing mssql connection]	[Remarks:Success]
[Date: 2019-06-20 13:38:54]	[UserID:dev/nsosa]	[IP:10.128.130.5]	[Browser:Chrome - 74.0.3729.169]	[Action:Making connection to server]	[Remarks:Successful connection to server: S3]
[Date: 2019-06-20 13:38:54]	[UserID:dev/nsosa]	[IP:10.128.130.5]	[Browser:Chrome - 74.0.3729.169]	[Action:GetProgramList dev/nsosa]	[Remarks:[{"ID":"1","ProgramIndex":"GST","ProgramName":"GST"},{"ID":"3","ProgramIndex":"PRD","ProgramName":"PRD"}]]
[Date: 2019-06-20 13:38:54]	[UserID:dev/nsosa]	[IP:10.128.130.5]	[Browser:Chrome - 74.0.3729.169]	[Action:Making connection to server]	[Remarks:Successful connection to server: S3]
[Date: 2019-06-20 13:38:54]	[UserID:dev/nsosa]	[IP:10.128.130.5]	[Browser:Chrome - 74.0.3729.169]	[Action:GetProgramList dev/nsosa]	[Remarks:[{"ID":"1","ProgramIndex":"GST","ProgramName":"GST"},{"ID":"3","ProgramIndex":"PRD","ProgramName":"PRD"}]]
[Date: 2019-06-20 13:38:54]	[UserID:dev/nsosa]	[IP:10.128.130.5]	[Browser:Chrome - 74.0.3729.169]	[Action:Making connection to server]	[Remarks:Successful connection to server: S3]
[Date: 2019-06-20 13:38:54]	[UserID:dev/nsosa]	[IP:10.128.130.5]	[Browser:Chrome - 74.0.3729.169]	[Action:Filtering User : MasterData Username : dev/nsosa]	[Remarks:Successful filter row count: 1]
[Date: 2019-06-20 13:38:56]	[UserID:dev/nsosa]	[IP:10.128.130.5]	[Browser:Chrome - 74.0.3729.169]	[Action:Making connection to server]	[Remarks:Successful connection to server: S3]
[Date: 2019-06-20 13:38:56]	[UserID:dev/nsosa]	[IP:10.128.130.5]	[Browser:Chrome - 74.0.3729.169]	[Action:GetGSTModules dev/nsosa,1]	[Remarks:Successful filter row count: 9]
[Date: 2019-06-20 13:38:56]	[UserID:dev/nsosa]	[IP:10.128.130.5]	[Browser:Chrome - 74.0.3729.169]	[Action:Closing mssql connection]	[Remarks:Success]
[Date: 2019-06-20 13:39:51]	[UserID:dev/nsosa]	[IP:10.128.130.5]	[Browser:Chrome - 74.0.3729.169]	[Action:Making connection to server]	[Remarks:Successful connection to server: S3]
[Date: 2019-06-20 13:39:51]	[UserID:dev/nsosa]	[IP:10.128.130.5]	[Browser:Chrome - 74.0.3729.169]	[Action:GetGSTModules dev/nsosa,1]	[Remarks:Successful filter row count: 9]
[Date: 2019-06-20 13:39:51]	[UserID:dev/nsosa]	[IP:10.128.130.5]	[Browser:Chrome - 74.0.3729.169]	[Action:Closing mssql connection]	[Remarks:Success]
[Date: 2019-06-20 22:41:45]	[UserID:]	[IP:10.139.5.103]	[Browser:Firefox - 67.0]	[Action:Making connection to server]	[Remarks:Successful connection to server: S3]
[Date: 2019-06-20 22:41:45]	[UserID:]	[IP:10.139.5.103]	[Browser:Firefox - 67.0]	[Action:GetProgramList ]	[Remarks:"no data"]
