[Date: 2016-03-21 08:02:14]	[UserID:]	[IP:10.10.11.1]	[Browser:Chrome - 49.0.2623.87]	[Action:Making connection to server]	[Remarks:Successful connection to server: S3]
[Date: 2016-03-21 08:02:14]	[UserID:]	[IP:10.10.11.1]	[Browser:Chrome - 49.0.2623.87]	[Action:GetProgramList ]	[Remarks:"no data"]
[Date: 2016-03-21 08:12:30]	[UserID:06/343]	[IP:10.10.11.1]	[Browser:Chrome - 49.0.2623.87]	[Action:Making connection to server]	[Remarks:Successful connection to server: S3]
[Date: 2016-03-21 08:12:30]	[UserID:06/343]	[IP:10.10.11.1]	[Browser:Chrome - 49.0.2623.87]	[Action:User 06/343]	[Remarks:Success]
[Date: 2016-03-21 08:12:30]	[UserID:06/343]	[IP:10.10.11.1]	[Browser:Chrome - 49.0.2623.87]	[Action:Filtering User : MasterData Username : 06/343]	[Remarks:Successful filter row count: 0]
[Date: 2016-03-21 08:12:30]	[UserID:06/343]	[IP:10.10.11.1]	[Browser:Chrome - 49.0.2623.87]	[Action:Filtering User : MasterData Username : 06/343]	[Remarks:Successful filter row count: 0]
[Date: 2016-03-21 08:12:30]	[UserID:06/343]	[IP:10.10.11.1]	[Browser:Chrome - 49.0.2623.87]	[Action:Filtering User : MasterData Username : 06/343]	[Remarks:Success]
[Date: 2016-03-21 08:12:30]	[UserID:06/343]	[IP:10.10.11.1]	[Browser:Chrome - 49.0.2623.87]	[Action:Closing mssql connection]	[Remarks:Success]
[Date: 2016-03-21 08:12:30]	[UserID:06/343]	[IP:10.10.11.1]	[Browser:Chrome - 49.0.2623.87]	[Action:Making connection to server]	[Remarks:Successful connection to server: S3]
[Date: 2016-03-21 08:12:31]	[UserID:06/343]	[IP:10.10.11.1]	[Browser:Chrome - 49.0.2623.87]	[Action:GetProgramList 06/343]	[Remarks:[{"ID":"1","ProgramIndex":"GST","ProgramName":"GST"}]]
[Date: 2016-03-21 08:12:31]	[UserID:06/343]	[IP:10.10.11.1]	[Browser:Chrome - 49.0.2623.87]	[Action:Making connection to server]	[Remarks:Successful connection to server: S3]
[Date: 2016-03-21 08:12:31]	[UserID:06/343]	[IP:10.10.11.1]	[Browser:Chrome - 49.0.2623.87]	[Action:GetProgramList 06/343]	[Remarks:[{"ID":"1","ProgramIndex":"GST","ProgramName":"GST"}]]
[Date: 2016-03-21 08:12:31]	[UserID:06/343]	[IP:10.10.11.1]	[Browser:Chrome - 49.0.2623.87]	[Action:Making connection to server]	[Remarks:Successful connection to server: S3]
[Date: 2016-03-21 08:12:31]	[UserID:06/343]	[IP:10.10.11.1]	[Browser:Chrome - 49.0.2623.87]	[Action:Filtering User : MasterData Username : 06/343]	[Remarks:Successful filter row count: 1]
[Date: 2016-03-21 08:12:31]	[UserID:06/343]	[IP:10.10.11.1]	[Browser:Chrome - 49.0.2623.87]	[Action:Making connection to server]	[Remarks:Successful connection to server: S3]
[Date: 2016-03-21 08:12:31]	[UserID:06/343]	[IP:10.10.11.1]	[Browser:Chrome - 49.0.2623.87]	[Action:GetGSTModules 06/343,1]	[Remarks:Successful filter row count: 5]
[Date: 2016-03-21 08:12:31]	[UserID:06/343]	[IP:10.10.11.1]	[Browser:Chrome - 49.0.2623.87]	[Action:Closing mssql connection]	[Remarks:Success]
[Date: 2016-03-21 08:18:28]	[UserID:06/343]	[IP:10.10.11.1]	[Browser:Chrome - 49.0.2623.87]	[Action:Making connection to server]	[Remarks:Successful connection to server: S3]
[Date: 2016-03-21 08:18:28]	[UserID:06/343]	[IP:10.10.11.1]	[Browser:Chrome - 49.0.2623.87]	[Action:GetGSTModules 06/343,1]	[Remarks:Successful filter row count: 5]
[Date: 2016-03-21 08:18:28]	[UserID:06/343]	[IP:10.10.11.1]	[Browser:Chrome - 49.0.2623.87]	[Action:Closing mssql connection]	[Remarks:Success]
[Date: 2016-03-21 08:22:46]	[UserID:06/343]	[IP:10.10.11.1]	[Browser:Chrome - 49.0.2623.87]	[Action:Making connection to server]	[Remarks:Successful connection to server: S3]
[Date: 2016-03-21 08:22:48]	[UserID:06/343]	[IP:10.10.11.1]	[Browser:Chrome - 49.0.2623.87]	[Action:GetGSTModules 06/343,1]	[Remarks:Successful filter row count: 5]
[Date: 2016-03-21 08:22:48]	[UserID:06/343]	[IP:10.10.11.1]	[Browser:Chrome - 49.0.2623.87]	[Action:Closing mssql connection]	[Remarks:Success]
[Date: 2016-03-21 08:33:59]	[UserID:06/343]	[IP:10.10.11.1]	[Browser:Chrome - 49.0.2623.87]	[Action:Making connection to server]	[Remarks:Successful connection to server: S3]
[Date: 2016-03-21 08:33:59]	[UserID:06/343]	[IP:10.10.11.1]	[Browser:Chrome - 49.0.2623.87]	[Action:GetGSTModules 06/343,1]	[Remarks:Successful filter row count: 5]
[Date: 2016-03-21 08:33:59]	[UserID:06/343]	[IP:10.10.11.1]	[Browser:Chrome - 49.0.2623.87]	[Action:Closing mssql connection]	[Remarks:Success]
[Date: 2016-03-21 08:38:42]	[UserID:06/343]	[IP:10.10.11.1]	[Browser:Chrome - 49.0.2623.87]	[Action:Making connection to server]	[Remarks:Successful connection to server: S3]
[Date: 2016-03-21 08:38:42]	[UserID:06/343]	[IP:10.10.11.1]	[Browser:Chrome - 49.0.2623.87]	[Action:GetGSTModules 06/343,1]	[Remarks:Successful filter row count: 5]
[Date: 2016-03-21 08:38:42]	[UserID:06/343]	[IP:10.10.11.1]	[Browser:Chrome - 49.0.2623.87]	[Action:Closing mssql connection]	[Remarks:Success]
[Date: 2016-03-21 08:42:48]	[UserID:]	[IP:10.10.11.1]	[Browser:Chrome - 49.0.2623.87]	[Action:Making connection to server]	[Remarks:Successful connection to server: S3]
[Date: 2016-03-21 08:42:48]	[UserID:]	[IP:10.10.11.1]	[Browser:Chrome - 49.0.2623.87]	[Action:GetProgramList ]	[Remarks:"no data"]
[Date: 2016-03-21 08:42:50]	[UserID:11/715]	[IP:10.10.11.1]	[Browser:Chrome - 49.0.2623.87]	[Action:Making connection to server]	[Remarks:Successful connection to server: S3]
[Date: 2016-03-21 08:42:50]	[UserID:11/715]	[IP:10.10.11.1]	[Browser:Chrome - 49.0.2623.87]	[Action:User 11/715]	[Remarks:Success]
[Date: 2016-03-21 08:42:50]	[UserID:11/715]	[IP:10.10.11.1]	[Browser:Chrome - 49.0.2623.87]	[Action:Filtering User : MasterData Username : 11/715]	[Remarks:Successful filter row count: 0]
[Date: 2016-03-21 08:42:50]	[UserID:11/715]	[IP:10.10.11.1]	[Browser:Chrome - 49.0.2623.87]	[Action:Filtering User : MasterData Username : 11/715]	[Remarks:Successful filter row count: 0]
[Date: 2016-03-21 08:42:50]	[UserID:11/715]	[IP:10.10.11.1]	[Browser:Chrome - 49.0.2623.87]	[Action:Filtering User : MasterData Username : 11/715]	[Remarks:Success]
[Date: 2016-03-21 08:42:50]	[UserID:11/715]	[IP:10.10.11.1]	[Browser:Chrome - 49.0.2623.87]	[Action:Closing mssql connection]	[Remarks:Success]
[Date: 2016-03-21 08:42:50]	[UserID:11/715]	[IP:10.10.11.1]	[Browser:Chrome - 49.0.2623.87]	[Action:Making connection to server]	[Remarks:Successful connection to server: S3]
[Date: 2016-03-21 08:42:50]	[UserID:11/715]	[IP:10.10.11.1]	[Browser:Chrome - 49.0.2623.87]	[Action:GetProgramList 11/715]	[Remarks:[{"ID":"1","ProgramIndex":"GST","ProgramName":"GST"}]]
[Date: 2016-03-21 08:42:50]	[UserID:11/715]	[IP:10.10.11.1]	[Browser:Chrome - 49.0.2623.87]	[Action:Making connection to server]	[Remarks:Successful connection to server: S3]
[Date: 2016-03-21 08:42:50]	[UserID:11/715]	[IP:10.10.11.1]	[Browser:Chrome - 49.0.2623.87]	[Action:GetProgramList 11/715]	[Remarks:[{"ID":"1","ProgramIndex":"GST","ProgramName":"GST"}]]
[Date: 2016-03-21 08:42:50]	[UserID:11/715]	[IP:10.10.11.1]	[Browser:Chrome - 49.0.2623.87]	[Action:Making connection to server]	[Remarks:Successful connection to server: S3]
[Date: 2016-03-21 08:42:50]	[UserID:11/715]	[IP:10.10.11.1]	[Browser:Chrome - 49.0.2623.87]	[Action:Filtering User : MasterData Username : 11/715]	[Remarks:Successful filter row count: 1]
[Date: 2016-03-21 08:42:51]	[UserID:11/715]	[IP:10.10.11.1]	[Browser:Chrome - 49.0.2623.87]	[Action:Making connection to server]	[Remarks:Successful connection to server: S3]
[Date: 2016-03-21 08:42:51]	[UserID:11/715]	[IP:10.10.11.1]	[Browser:Chrome - 49.0.2623.87]	[Action:GetGSTModules 11/715,1]	[Remarks:Successful filter row count: 3]
[Date: 2016-03-21 08:42:51]	[UserID:11/715]	[IP:10.10.11.1]	[Browser:Chrome - 49.0.2623.87]	[Action:Closing mssql connection]	[Remarks:Success]
[Date: 2016-03-21 08:44:08]	[UserID:11/715]	[IP:10.10.11.1]	[Browser:Chrome - 49.0.2623.87]	[Action:Making connection to server]	[Remarks:Successful connection to server: S3]
[Date: 2016-03-21 08:44:08]	[UserID:11/715]	[IP:10.10.11.1]	[Browser:Chrome - 49.0.2623.87]	[Action:GetGSTModules 11/715,1]	[Remarks:Successful filter row count: 3]
[Date: 2016-03-21 08:44:08]	[UserID:11/715]	[IP:10.10.11.1]	[Browser:Chrome - 49.0.2623.87]	[Action:Closing mssql connection]	[Remarks:Success]
[Date: 2016-03-21 08:53:55]	[UserID:06/343]	[IP:10.10.11.1]	[Browser:Chrome - 49.0.2623.87]	[Action:Making connection to server]	[Remarks:Successful connection to server: S3]
[Date: 2016-03-21 08:53:55]	[UserID:06/343]	[IP:10.10.11.1]	[Browser:Chrome - 49.0.2623.87]	[Action:GetGSTModules 06/343,1]	[Remarks:Successful filter row count: 5]
[Date: 2016-03-21 08:53:55]	[UserID:06/343]	[IP:10.10.11.1]	[Browser:Chrome - 49.0.2623.87]	[Action:Closing mssql connection]	[Remarks:Success]
[Date: 2016-03-21 08:55:06]	[UserID:06/343]	[IP:10.10.11.1]	[Browser:Chrome - 49.0.2623.87]	[Action:Making connection to server]	[Remarks:Successful connection to server: S3]
[Date: 2016-03-21 08:55:06]	[UserID:06/343]	[IP:10.10.11.1]	[Browser:Chrome - 49.0.2623.87]	[Action:GetGSTModules 06/343,1]	[Remarks:Successful filter row count: 5]
[Date: 2016-03-21 08:55:06]	[UserID:06/343]	[IP:10.10.11.1]	[Browser:Chrome - 49.0.2623.87]	[Action:Closing mssql connection]	[Remarks:Success]
[Date: 2016-03-21 08:56:56]	[UserID:06/343]	[IP:10.10.11.1]	[Browser:Chrome - 49.0.2623.87]	[Action:Making connection to server]	[Remarks:Successful connection to server: S3]
[Date: 2016-03-21 08:56:56]	[UserID:06/343]	[IP:10.10.11.1]	[Browser:Chrome - 49.0.2623.87]	[Action:GetGSTModules 06/343,1]	[Remarks:Successful filter row count: 5]
[Date: 2016-03-21 08:56:56]	[UserID:06/343]	[IP:10.10.11.1]	[Browser:Chrome - 49.0.2623.87]	[Action:Closing mssql connection]	[Remarks:Success]
[Date: 2016-03-21 09:54:06]	[UserID:]	[IP:10.10.11.1]	[Browser:Chrome - 49.0.2623.87]	[Action:Making connection to server]	[Remarks:Successful connection to server: S3]
[Date: 2016-03-21 09:54:06]	[UserID:]	[IP:10.10.11.1]	[Browser:Chrome - 49.0.2623.87]	[Action:GetProgramList ]	[Remarks:"no data"]
[Date: 2016-03-21 09:54:09]	[UserID:08/504]	[IP:10.10.11.1]	[Browser:Chrome - 49.0.2623.87]	[Action:Making connection to server]	[Remarks:Successful connection to server: S3]
[Date: 2016-03-21 09:54:09]	[UserID:08/504]	[IP:10.10.11.1]	[Browser:Chrome - 49.0.2623.87]	[Action:User 08/504]	[Remarks:Success]
[Date: 2016-03-21 09:54:09]	[UserID:08/504]	[IP:10.10.11.1]	[Browser:Chrome - 49.0.2623.87]	[Action:Filtering User : MasterData Username : 08/504]	[Remarks:Successful filter row count: 0]
[Date: 2016-03-21 09:54:09]	[UserID:08/504]	[IP:10.10.11.1]	[Browser:Chrome - 49.0.2623.87]	[Action:Filtering User : MasterData Username : 08/504]	[Remarks:Successful filter row count: 0]
[Date: 2016-03-21 09:54:09]	[UserID:08/504]	[IP:10.10.11.1]	[Browser:Chrome - 49.0.2623.87]	[Action:Filtering User : MasterData Username : 08/504]	[Remarks:Success]
[Date: 2016-03-21 09:54:09]	[UserID:08/504]	[IP:10.10.11.1]	[Browser:Chrome - 49.0.2623.87]	[Action:Closing mssql connection]	[Remarks:Success]
[Date: 2016-03-21 09:54:10]	[UserID:08/504]	[IP:10.10.11.1]	[Browser:Chrome - 49.0.2623.87]	[Action:Making connection to server]	[Remarks:Successful connection to server: S3]
[Date: 2016-03-21 09:54:10]	[UserID:08/504]	[IP:10.10.11.1]	[Browser:Chrome - 49.0.2623.87]	[Action:GetProgramList 08/504]	[Remarks:[{"ID":"1","ProgramIndex":"GST","ProgramName":"GST"}]]
[Date: 2016-03-21 09:54:10]	[UserID:08/504]	[IP:10.10.11.1]	[Browser:Chrome - 49.0.2623.87]	[Action:Making connection to server]	[Remarks:Successful connection to server: S3]
[Date: 2016-03-21 09:54:10]	[UserID:08/504]	[IP:10.10.11.1]	[Browser:Chrome - 49.0.2623.87]	[Action:GetProgramList 08/504]	[Remarks:[{"ID":"1","ProgramIndex":"GST","ProgramName":"GST"}]]
[Date: 2016-03-21 09:54:10]	[UserID:08/504]	[IP:10.10.11.1]	[Browser:Chrome - 49.0.2623.87]	[Action:Making connection to server]	[Remarks:Successful connection to server: S3]
[Date: 2016-03-21 09:54:10]	[UserID:08/504]	[IP:10.10.11.1]	[Browser:Chrome - 49.0.2623.87]	[Action:Filtering User : MasterData Username : 08/504]	[Remarks:Successful filter row count: 1]
[Date: 2016-03-21 09:54:10]	[UserID:08/504]	[IP:10.10.11.1]	[Browser:Chrome - 49.0.2623.87]	[Action:Making connection to server]	[Remarks:Successful connection to server: S3]
[Date: 2016-03-21 09:54:10]	[UserID:08/504]	[IP:10.10.11.1]	[Browser:Chrome - 49.0.2623.87]	[Action:GetGSTModules 08/504,1]	[Remarks:Successful filter row count: 3]
[Date: 2016-03-21 09:54:10]	[UserID:08/504]	[IP:10.10.11.1]	[Browser:Chrome - 49.0.2623.87]	[Action:Closing mssql connection]	[Remarks:Success]
[Date: 2016-03-21 10:35:06]	[UserID:08/504]	[IP:10.10.11.1]	[Browser:Chrome - 49.0.2623.87]	[Action:Making connection to server]	[Remarks:Successful connection to server: S3]
[Date: 2016-03-21 10:35:06]	[UserID:08/504]	[IP:10.10.11.1]	[Browser:Chrome - 49.0.2623.87]	[Action:GetGSTModules 08/504,1]	[Remarks:Successful filter row count: 3]
[Date: 2016-03-21 10:35:06]	[UserID:08/504]	[IP:10.10.11.1]	[Browser:Chrome - 49.0.2623.87]	[Action:Closing mssql connection]	[Remarks:Success]
[Date: 2016-03-21 10:36:50]	[UserID:08/504]	[IP:10.10.11.1]	[Browser:Chrome - 49.0.2623.87]	[Action:Making connection to server]	[Remarks:Successful connection to server: S3]
[Date: 2016-03-21 10:36:50]	[UserID:08/504]	[IP:10.10.11.1]	[Browser:Chrome - 49.0.2623.87]	[Action:GetGSTModules 08/504,1]	[Remarks:Successful filter row count: 3]
[Date: 2016-03-21 10:36:50]	[UserID:08/504]	[IP:10.10.11.1]	[Browser:Chrome - 49.0.2623.87]	[Action:Closing mssql connection]	[Remarks:Success]
[Date: 2016-03-21 10:44:08]	[UserID:08/504]	[IP:10.10.11.1]	[Browser:Chrome - 49.0.2623.87]	[Action:Making connection to server]	[Remarks:Successful connection to server: S3]
[Date: 2016-03-21 10:44:08]	[UserID:08/504]	[IP:10.10.11.1]	[Browser:Chrome - 49.0.2623.87]	[Action:GetGSTModules 08/504,1]	[Remarks:Successful filter row count: 3]
[Date: 2016-03-21 10:44:08]	[UserID:08/504]	[IP:10.10.11.1]	[Browser:Chrome - 49.0.2623.87]	[Action:Closing mssql connection]	[Remarks:Success]
[Date: 2016-03-21 10:52:19]	[UserID:08/504]	[IP:10.10.11.1]	[Browser:Chrome - 49.0.2623.87]	[Action:Making connection to server]	[Remarks:Successful connection to server: S3]
[Date: 2016-03-21 10:52:19]	[UserID:08/504]	[IP:10.10.11.1]	[Browser:Chrome - 49.0.2623.87]	[Action:GetGSTModules 08/504,1]	[Remarks:Successful filter row count: 3]
[Date: 2016-03-21 10:52:19]	[UserID:08/504]	[IP:10.10.11.1]	[Browser:Chrome - 49.0.2623.87]	[Action:Closing mssql connection]	[Remarks:Success]
[Date: 2016-03-21 10:55:05]	[UserID:08/504]	[IP:10.10.11.1]	[Browser:Chrome - 49.0.2623.87]	[Action:Making connection to server]	[Remarks:Successful connection to server: S3]
[Date: 2016-03-21 10:55:05]	[UserID:08/504]	[IP:10.10.11.1]	[Browser:Chrome - 49.0.2623.87]	[Action:GetGSTModules 08/504,1]	[Remarks:Successful filter row count: 3]
[Date: 2016-03-21 10:55:05]	[UserID:08/504]	[IP:10.10.11.1]	[Browser:Chrome - 49.0.2623.87]	[Action:Closing mssql connection]	[Remarks:Success]
[Date: 2016-03-21 11:06:36]	[UserID:]	[IP:10.10.11.1]	[Browser:Chrome - 49.0.2623.75]	[Action:Making connection to server]	[Remarks:Successful connection to server: S3]
[Date: 2016-03-21 11:06:36]	[UserID:]	[IP:10.10.11.1]	[Browser:Chrome - 49.0.2623.75]	[Action:GetProgramList ]	[Remarks:"no data"]
[Date: 2016-03-21 11:08:33]	[UserID:08/504]	[IP:10.10.11.1]	[Browser:Chrome - 49.0.2623.87]	[Action:Making connection to server]	[Remarks:Successful connection to server: S3]
[Date: 2016-03-21 11:08:34]	[UserID:08/504]	[IP:10.10.11.1]	[Browser:Chrome - 49.0.2623.87]	[Action:GetGSTModules 08/504,1]	[Remarks:Successful filter row count: 3]
[Date: 2016-03-21 11:08:34]	[UserID:08/504]	[IP:10.10.11.1]	[Browser:Chrome - 49.0.2623.87]	[Action:Closing mssql connection]	[Remarks:Success]
[Date: 2016-03-21 11:24:32]	[UserID:08/504]	[IP:10.10.11.1]	[Browser:Chrome - 49.0.2623.87]	[Action:Making connection to server]	[Remarks:Successful connection to server: S3]
[Date: 2016-03-21 11:24:32]	[UserID:08/504]	[IP:10.10.11.1]	[Browser:Chrome - 49.0.2623.87]	[Action:GetGSTModules 08/504,1]	[Remarks:Successful filter row count: 3]
[Date: 2016-03-21 11:24:32]	[UserID:08/504]	[IP:10.10.11.1]	[Browser:Chrome - 49.0.2623.87]	[Action:Closing mssql connection]	[Remarks:Success]
[Date: 2016-03-21 11:24:51]	[UserID:06/343]	[IP:10.10.11.1]	[Browser:Chrome - 49.0.2623.87]	[Action:Making connection to server]	[Remarks:Successful connection to server: S3]
[Date: 2016-03-21 11:24:51]	[UserID:06/343]	[IP:10.10.11.1]	[Browser:Chrome - 49.0.2623.87]	[Action:GetGSTModules 06/343,1]	[Remarks:Successful filter row count: 5]
[Date: 2016-03-21 11:24:51]	[UserID:06/343]	[IP:10.10.11.1]	[Browser:Chrome - 49.0.2623.87]	[Action:Closing mssql connection]	[Remarks:Success]
[Date: 2016-03-21 11:29:23]	[UserID:06/343]	[IP:10.10.11.1]	[Browser:Chrome - 49.0.2623.87]	[Action:Making connection to server]	[Remarks:Successful connection to server: S3]
[Date: 2016-03-21 11:29:23]	[UserID:06/343]	[IP:10.10.11.1]	[Browser:Chrome - 49.0.2623.87]	[Action:GetGSTModules 06/343,1]	[Remarks:Successful filter row count: 5]
[Date: 2016-03-21 11:29:23]	[UserID:06/343]	[IP:10.10.11.1]	[Browser:Chrome - 49.0.2623.87]	[Action:Closing mssql connection]	[Remarks:Success]
[Date: 2016-03-21 13:44:27]	[UserID:]	[IP:10.10.11.1]	[Browser:Chrome - 49.0.2623.87]	[Action:Making connection to server]	[Remarks:Successful connection to server: S3]
[Date: 2016-03-21 13:44:27]	[UserID:]	[IP:10.10.11.1]	[Browser:Chrome - 49.0.2623.87]	[Action:GetProgramList ]	[Remarks:"no data"]
[Date: 2016-03-21 13:44:29]	[UserID:06/371]	[IP:10.10.11.1]	[Browser:Chrome - 49.0.2623.87]	[Action:Making connection to server]	[Remarks:Successful connection to server: S3]
[Date: 2016-03-21 13:44:29]	[UserID:06/371]	[IP:10.10.11.1]	[Browser:Chrome - 49.0.2623.87]	[Action:User 06/371]	[Remarks:Success]
[Date: 2016-03-21 13:44:29]	[UserID:06/371]	[IP:10.10.11.1]	[Browser:Chrome - 49.0.2623.87]	[Action:Filtering User : MasterData Username : 06/371]	[Remarks:Successful filter row count: 0]
[Date: 2016-03-21 13:44:29]	[UserID:06/371]	[IP:10.10.11.1]	[Browser:Chrome - 49.0.2623.87]	[Action:Filtering User : MasterData Username : 06/371]	[Remarks:Successful filter row count: 0]
[Date: 2016-03-21 13:44:29]	[UserID:06/371]	[IP:10.10.11.1]	[Browser:Chrome - 49.0.2623.87]	[Action:Filtering User : MasterData Username : 06/371]	[Remarks:Success]
[Date: 2016-03-21 13:44:29]	[UserID:06/371]	[IP:10.10.11.1]	[Browser:Chrome - 49.0.2623.87]	[Action:Closing mssql connection]	[Remarks:Success]
[Date: 2016-03-21 13:44:29]	[UserID:06/371]	[IP:10.10.11.1]	[Browser:Chrome - 49.0.2623.87]	[Action:Making connection to server]	[Remarks:Successful connection to server: S3]
[Date: 2016-03-21 13:44:29]	[UserID:06/371]	[IP:10.10.11.1]	[Browser:Chrome - 49.0.2623.87]	[Action:GetProgramList 06/371]	[Remarks:[{"ID":"1","ProgramIndex":"GST","ProgramName":"GST"}]]
[Date: 2016-03-21 13:44:29]	[UserID:06/371]	[IP:10.10.11.1]	[Browser:Chrome - 49.0.2623.87]	[Action:Making connection to server]	[Remarks:Successful connection to server: S3]
[Date: 2016-03-21 13:44:29]	[UserID:06/371]	[IP:10.10.11.1]	[Browser:Chrome - 49.0.2623.87]	[Action:GetProgramList 06/371]	[Remarks:[{"ID":"1","ProgramIndex":"GST","ProgramName":"GST"}]]
[Date: 2016-03-21 13:44:29]	[UserID:06/371]	[IP:10.10.11.1]	[Browser:Chrome - 49.0.2623.87]	[Action:Making connection to server]	[Remarks:Successful connection to server: S3]
[Date: 2016-03-21 13:44:29]	[UserID:06/371]	[IP:10.10.11.1]	[Browser:Chrome - 49.0.2623.87]	[Action:Filtering User : MasterData Username : 06/371]	[Remarks:Successful filter row count: 1]
[Date: 2016-03-21 13:44:30]	[UserID:06/371]	[IP:10.10.11.1]	[Browser:Chrome - 49.0.2623.87]	[Action:Making connection to server]	[Remarks:Successful connection to server: S3]
[Date: 2016-03-21 13:44:30]	[UserID:06/371]	[IP:10.10.11.1]	[Browser:Chrome - 49.0.2623.87]	[Action:GetGSTModules 06/371,1]	[Remarks:Successful filter row count: 5]
[Date: 2016-03-21 13:44:30]	[UserID:06/371]	[IP:10.10.11.1]	[Browser:Chrome - 49.0.2623.87]	[Action:Closing mssql connection]	[Remarks:Success]
[Date: 2016-03-21 13:52:39]	[UserID:06/371]	[IP:10.10.11.1]	[Browser:Chrome - 49.0.2623.87]	[Action:Making connection to server]	[Remarks:Successful connection to server: S3]
[Date: 2016-03-21 13:52:39]	[UserID:06/371]	[IP:10.10.11.1]	[Browser:Chrome - 49.0.2623.87]	[Action:GetGSTModules 06/371,1]	[Remarks:Successful filter row count: 5]
[Date: 2016-03-21 13:52:39]	[UserID:06/371]	[IP:10.10.11.1]	[Browser:Chrome - 49.0.2623.87]	[Action:Closing mssql connection]	[Remarks:Success]
[Date: 2016-03-21 14:25:05]	[UserID:08/504]	[IP:10.10.11.1]	[Browser:Chrome - 49.0.2623.87]	[Action:Making connection to server]	[Remarks:Successful connection to server: S3]
[Date: 2016-03-21 14:25:05]	[UserID:08/504]	[IP:10.10.11.1]	[Browser:Chrome - 49.0.2623.87]	[Action:GetGSTModules 08/504,1]	[Remarks:Successful filter row count: 3]
[Date: 2016-03-21 14:25:05]	[UserID:08/504]	[IP:10.10.11.1]	[Browser:Chrome - 49.0.2623.87]	[Action:Closing mssql connection]	[Remarks:Success]
[Date: 2016-03-21 14:46:06]	[UserID:08/504]	[IP:10.10.11.1]	[Browser:Chrome - 49.0.2623.87]	[Action:Making connection to server]	[Remarks:Successful connection to server: S3]
[Date: 2016-03-21 14:46:06]	[UserID:08/504]	[IP:10.10.11.1]	[Browser:Chrome - 49.0.2623.87]	[Action:GetGSTModules 08/504,1]	[Remarks:Successful filter row count: 3]
[Date: 2016-03-21 14:46:06]	[UserID:08/504]	[IP:10.10.11.1]	[Browser:Chrome - 49.0.2623.87]	[Action:Closing mssql connection]	[Remarks:Success]
[Date: 2016-03-21 14:46:53]	[UserID:08/504]	[IP:10.10.11.1]	[Browser:Chrome - 49.0.2623.87]	[Action:Making connection to server]	[Remarks:Successful connection to server: S3]
[Date: 2016-03-21 14:46:53]	[UserID:08/504]	[IP:10.10.11.1]	[Browser:Chrome - 49.0.2623.87]	[Action:GetGSTModules 08/504,1]	[Remarks:Successful filter row count: 3]
[Date: 2016-03-21 14:46:53]	[UserID:08/504]	[IP:10.10.11.1]	[Browser:Chrome - 49.0.2623.87]	[Action:Closing mssql connection]	[Remarks:Success]
[Date: 2016-03-21 14:51:27]	[UserID:06/343]	[IP:10.10.11.1]	[Browser:Chrome - 49.0.2623.87]	[Action:Making connection to server]	[Remarks:Successful connection to server: S3]
[Date: 2016-03-21 14:51:28]	[UserID:06/343]	[IP:10.10.11.1]	[Browser:Chrome - 49.0.2623.87]	[Action:GetGSTModules 06/343,1]	[Remarks:Successful filter row count: 5]
[Date: 2016-03-21 14:51:28]	[UserID:06/343]	[IP:10.10.11.1]	[Browser:Chrome - 49.0.2623.87]	[Action:Closing mssql connection]	[Remarks:Success]
[Date: 2016-03-21 15:05:32]	[UserID:08/504]	[IP:10.10.11.1]	[Browser:Chrome - 49.0.2623.87]	[Action:Making connection to server]	[Remarks:Successful connection to server: S3]
[Date: 2016-03-21 15:05:33]	[UserID:08/504]	[IP:10.10.11.1]	[Browser:Chrome - 49.0.2623.87]	[Action:GetGSTModules 08/504,1]	[Remarks:Successful filter row count: 3]
[Date: 2016-03-21 15:05:33]	[UserID:08/504]	[IP:10.10.11.1]	[Browser:Chrome - 49.0.2623.87]	[Action:Closing mssql connection]	[Remarks:Success]
[Date: 2016-03-21 15:20:38]	[UserID:06/343]	[IP:10.10.11.1]	[Browser:Chrome - 49.0.2623.87]	[Action:Making connection to server]	[Remarks:Successful connection to server: S3]
[Date: 2016-03-21 15:20:38]	[UserID:06/343]	[IP:10.10.11.1]	[Browser:Chrome - 49.0.2623.87]	[Action:GetProgramList 06/343]	[Remarks:[{"ID":"1","ProgramIndex":"GST","ProgramName":"GST"}]]
[Date: 2016-03-21 15:20:38]	[UserID:06/343]	[IP:10.10.11.1]	[Browser:Chrome - 49.0.2623.87]	[Action:Making connection to server]	[Remarks:Successful connection to server: S3]
[Date: 2016-03-21 15:20:38]	[UserID:06/343]	[IP:10.10.11.1]	[Browser:Chrome - 49.0.2623.87]	[Action:GetProgramList 06/343]	[Remarks:[{"ID":"1","ProgramIndex":"GST","ProgramName":"GST"}]]
[Date: 2016-03-21 15:20:38]	[UserID:06/343]	[IP:10.10.11.1]	[Browser:Chrome - 49.0.2623.87]	[Action:Making connection to server]	[Remarks:Successful connection to server: S3]
[Date: 2016-03-21 15:20:38]	[UserID:06/343]	[IP:10.10.11.1]	[Browser:Chrome - 49.0.2623.87]	[Action:Filtering User : MasterData Username : 06/343]	[Remarks:Successful filter row count: 1]
[Date: 2016-03-21 15:20:39]	[UserID:06/343]	[IP:10.10.11.1]	[Browser:Chrome - 49.0.2623.87]	[Action:Making connection to server]	[Remarks:Successful connection to server: S3]
[Date: 2016-03-21 15:20:39]	[UserID:06/343]	[IP:10.10.11.1]	[Browser:Chrome - 49.0.2623.87]	[Action:GetGSTModules 06/343,1]	[Remarks:Successful filter row count: 5]
[Date: 2016-03-21 15:20:39]	[UserID:06/343]	[IP:10.10.11.1]	[Browser:Chrome - 49.0.2623.87]	[Action:Closing mssql connection]	[Remarks:Success]
[Date: 2016-03-21 16:12:17]	[UserID:]	[IP:10.10.11.1]	[Browser:Chrome - 49.0.2623.87]	[Action:Making connection to server]	[Remarks:Successful connection to server: S3]
[Date: 2016-03-21 16:12:18]	[UserID:]	[IP:10.10.11.1]	[Browser:Chrome - 49.0.2623.87]	[Action:GetProgramList ]	[Remarks:"no data"]
[Date: 2016-03-21 16:12:25]	[UserID:15/1125]	[IP:10.10.11.1]	[Browser:Chrome - 49.0.2623.87]	[Action:Making connection to server]	[Remarks:Successful connection to server: S3]
[Date: 2016-03-21 16:12:25]	[UserID:15/1125]	[IP:10.10.11.1]	[Browser:Chrome - 49.0.2623.87]	[Action:User 15/1125]	[Remarks:Success]
[Date: 2016-03-21 16:12:25]	[UserID:15/1125]	[IP:10.10.11.1]	[Browser:Chrome - 49.0.2623.87]	[Action:Filtering User : MasterData Username : 15/1125]	[Remarks:Successful filter row count: 0]
[Date: 2016-03-21 16:12:25]	[UserID:15/1125]	[IP:10.10.11.1]	[Browser:Chrome - 49.0.2623.87]	[Action:Filtering User : MasterData Username : 15/1125]	[Remarks:Successful filter row count: 0]
[Date: 2016-03-21 16:12:25]	[UserID:15/1125]	[IP:10.10.11.1]	[Browser:Chrome - 49.0.2623.87]	[Action:Filtering User : MasterData Username : 15/1125]	[Remarks:Success]
[Date: 2016-03-21 16:12:25]	[UserID:15/1125]	[IP:10.10.11.1]	[Browser:Chrome - 49.0.2623.87]	[Action:Closing mssql connection]	[Remarks:Success]
[Date: 2016-03-21 16:12:25]	[UserID:15/1125]	[IP:10.10.11.1]	[Browser:Chrome - 49.0.2623.87]	[Action:Making connection to server]	[Remarks:Successful connection to server: S3]
[Date: 2016-03-21 16:12:25]	[UserID:15/1125]	[IP:10.10.11.1]	[Browser:Chrome - 49.0.2623.87]	[Action:GetProgramList 15/1125]	[Remarks:[{"ID":"1","ProgramIndex":"GST","ProgramName":"GST"}]]
[Date: 2016-03-21 16:12:25]	[UserID:15/1125]	[IP:10.10.11.1]	[Browser:Chrome - 49.0.2623.87]	[Action:Making connection to server]	[Remarks:Successful connection to server: S3]
[Date: 2016-03-21 16:12:25]	[UserID:15/1125]	[IP:10.10.11.1]	[Browser:Chrome - 49.0.2623.87]	[Action:GetProgramList 15/1125]	[Remarks:[{"ID":"1","ProgramIndex":"GST","ProgramName":"GST"}]]
[Date: 2016-03-21 16:12:25]	[UserID:15/1125]	[IP:10.10.11.1]	[Browser:Chrome - 49.0.2623.87]	[Action:Making connection to server]	[Remarks:Successful connection to server: S3]
[Date: 2016-03-21 16:12:25]	[UserID:15/1125]	[IP:10.10.11.1]	[Browser:Chrome - 49.0.2623.87]	[Action:Filtering User : MasterData Username : 15/1125]	[Remarks:Successful filter row count: 1]
[Date: 2016-03-21 16:12:26]	[UserID:15/1125]	[IP:10.10.11.1]	[Browser:Chrome - 49.0.2623.87]	[Action:Making connection to server]	[Remarks:Successful connection to server: S3]
[Date: 2016-03-21 16:12:26]	[UserID:15/1125]	[IP:10.10.11.1]	[Browser:Chrome - 49.0.2623.87]	[Action:GetGSTModules 15/1125,1]	[Remarks:Successful filter row count: 6]
[Date: 2016-03-21 16:12:26]	[UserID:15/1125]	[IP:10.10.11.1]	[Browser:Chrome - 49.0.2623.87]	[Action:Closing mssql connection]	[Remarks:Success]
[Date: 2016-03-21 16:12:29]	[UserID:]	[IP:10.10.11.1]	[Browser:Chrome - 49.0.2623.87]	[Action:Making connection to server]	[Remarks:Successful connection to server: S3]
[Date: 2016-03-21 16:12:29]	[UserID:]	[IP:10.10.11.1]	[Browser:Chrome - 49.0.2623.87]	[Action:GetProgramList ]	[Remarks:"no data"]
[Date: 2016-03-21 16:12:32]	[UserID:15/1125]	[IP:10.10.11.1]	[Browser:Chrome - 49.0.2623.87]	[Action:Making connection to server]	[Remarks:Successful connection to server: S3]
[Date: 2016-03-21 16:12:32]	[UserID:15/1125]	[IP:10.10.11.1]	[Browser:Chrome - 49.0.2623.87]	[Action:User 15/1125]	[Remarks:Success]
[Date: 2016-03-21 16:12:32]	[UserID:15/1125]	[IP:10.10.11.1]	[Browser:Chrome - 49.0.2623.87]	[Action:Filtering User : MasterData Username : 15/1125]	[Remarks:Successful filter row count: 0]
[Date: 2016-03-21 16:12:32]	[UserID:15/1125]	[IP:10.10.11.1]	[Browser:Chrome - 49.0.2623.87]	[Action:Filtering User : MasterData Username : 15/1125]	[Remarks:Successful filter row count: 0]
[Date: 2016-03-21 16:12:32]	[UserID:15/1125]	[IP:10.10.11.1]	[Browser:Chrome - 49.0.2623.87]	[Action:Filtering User : MasterData Username : 15/1125]	[Remarks:Success]
[Date: 2016-03-21 16:12:32]	[UserID:15/1125]	[IP:10.10.11.1]	[Browser:Chrome - 49.0.2623.87]	[Action:Closing mssql connection]	[Remarks:Success]
[Date: 2016-03-21 16:12:32]	[UserID:15/1125]	[IP:10.10.11.1]	[Browser:Chrome - 49.0.2623.87]	[Action:Making connection to server]	[Remarks:Successful connection to server: S3]
[Date: 2016-03-21 16:12:32]	[UserID:15/1125]	[IP:10.10.11.1]	[Browser:Chrome - 49.0.2623.87]	[Action:GetProgramList 15/1125]	[Remarks:[{"ID":"1","ProgramIndex":"GST","ProgramName":"GST"}]]
[Date: 2016-03-21 16:12:32]	[UserID:15/1125]	[IP:10.10.11.1]	[Browser:Chrome - 49.0.2623.87]	[Action:Making connection to server]	[Remarks:Successful connection to server: S3]
[Date: 2016-03-21 16:12:32]	[UserID:15/1125]	[IP:10.10.11.1]	[Browser:Chrome - 49.0.2623.87]	[Action:GetProgramList 15/1125]	[Remarks:[{"ID":"1","ProgramIndex":"GST","ProgramName":"GST"}]]
[Date: 2016-03-21 16:12:32]	[UserID:15/1125]	[IP:10.10.11.1]	[Browser:Chrome - 49.0.2623.87]	[Action:Making connection to server]	[Remarks:Successful connection to server: S3]
[Date: 2016-03-21 16:12:32]	[UserID:15/1125]	[IP:10.10.11.1]	[Browser:Chrome - 49.0.2623.87]	[Action:Filtering User : MasterData Username : 15/1125]	[Remarks:Successful filter row count: 1]
[Date: 2016-03-21 16:12:33]	[UserID:15/1125]	[IP:10.10.11.1]	[Browser:Chrome - 49.0.2623.87]	[Action:Making connection to server]	[Remarks:Successful connection to server: S3]
[Date: 2016-03-21 16:12:33]	[UserID:15/1125]	[IP:10.10.11.1]	[Browser:Chrome - 49.0.2623.87]	[Action:GetGSTModules 15/1125,1]	[Remarks:Successful filter row count: 6]
[Date: 2016-03-21 16:12:33]	[UserID:15/1125]	[IP:10.10.11.1]	[Browser:Chrome - 49.0.2623.87]	[Action:Closing mssql connection]	[Remarks:Success]
[Date: 2016-03-21 16:12:34]	[UserID:]	[IP:10.10.11.1]	[Browser:Chrome - 49.0.2623.87]	[Action:Making connection to server]	[Remarks:Successful connection to server: S3]
[Date: 2016-03-21 16:12:34]	[UserID:]	[IP:10.10.11.1]	[Browser:Chrome - 49.0.2623.87]	[Action:GetProgramList ]	[Remarks:"no data"]
[Date: 2016-03-21 16:26:53]	[UserID:08/504]	[IP:10.10.11.1]	[Browser:Chrome - 49.0.2623.87]	[Action:Making connection to server]	[Remarks:Successful connection to server: S3]
[Date: 2016-03-21 16:26:53]	[UserID:08/504]	[IP:10.10.11.1]	[Browser:Chrome - 49.0.2623.87]	[Action:GetProgramList 08/504]	[Remarks:[{"ID":"1","ProgramIndex":"GST","ProgramName":"GST"}]]
[Date: 2016-03-21 16:26:53]	[UserID:08/504]	[IP:10.10.11.1]	[Browser:Chrome - 49.0.2623.87]	[Action:Making connection to server]	[Remarks:Successful connection to server: S3]
[Date: 2016-03-21 16:26:53]	[UserID:08/504]	[IP:10.10.11.1]	[Browser:Chrome - 49.0.2623.87]	[Action:GetProgramList 08/504]	[Remarks:[{"ID":"1","ProgramIndex":"GST","ProgramName":"GST"}]]
[Date: 2016-03-21 16:26:53]	[UserID:08/504]	[IP:10.10.11.1]	[Browser:Chrome - 49.0.2623.87]	[Action:Making connection to server]	[Remarks:Successful connection to server: S3]
[Date: 2016-03-21 16:26:53]	[UserID:08/504]	[IP:10.10.11.1]	[Browser:Chrome - 49.0.2623.87]	[Action:Filtering User : MasterData Username : 08/504]	[Remarks:Successful filter row count: 1]
[Date: 2016-03-21 16:26:54]	[UserID:08/504]	[IP:10.10.11.1]	[Browser:Chrome - 49.0.2623.87]	[Action:Making connection to server]	[Remarks:Successful connection to server: S3]
[Date: 2016-03-21 16:26:54]	[UserID:08/504]	[IP:10.10.11.1]	[Browser:Chrome - 49.0.2623.87]	[Action:GetGSTModules 08/504,1]	[Remarks:Successful filter row count: 5]
[Date: 2016-03-21 16:26:54]	[UserID:08/504]	[IP:10.10.11.1]	[Browser:Chrome - 49.0.2623.87]	[Action:Closing mssql connection]	[Remarks:Success]
[Date: 2016-03-21 17:31:57]	[UserID:]	[IP:10.10.11.1]	[Browser:Chrome - 49.0.2623.87]	[Action:Making connection to server]	[Remarks:Successful connection to server: S3]
[Date: 2016-03-21 17:31:57]	[UserID:]	[IP:10.10.11.1]	[Browser:Chrome - 49.0.2623.87]	[Action:GetProgramList ]	[Remarks:"no data"]
[Date: 2016-03-21 17:32:00]	[UserID:14/1082]	[IP:10.10.11.1]	[Browser:Chrome - 49.0.2623.87]	[Action:Making connection to server]	[Remarks:Successful connection to server: S3]
[Date: 2016-03-21 17:32:00]	[UserID:14/1082]	[IP:10.10.11.1]	[Browser:Chrome - 49.0.2623.87]	[Action:User 14/1082]	[Remarks:Success]
[Date: 2016-03-21 17:32:00]	[UserID:14/1082]	[IP:10.10.11.1]	[Browser:Chrome - 49.0.2623.87]	[Action:Filtering User : MasterData Username : 14/1082]	[Remarks:Successful filter row count: 0]
[Date: 2016-03-21 17:32:00]	[UserID:14/1082]	[IP:10.10.11.1]	[Browser:Chrome - 49.0.2623.87]	[Action:Filtering User : MasterData Username : 14/1082]	[Remarks:Successful filter row count: 0]
[Date: 2016-03-21 17:32:00]	[UserID:14/1082]	[IP:10.10.11.1]	[Browser:Chrome - 49.0.2623.87]	[Action:Filtering User : MasterData Username : 14/1082]	[Remarks:Success]
[Date: 2016-03-21 17:32:00]	[UserID:14/1082]	[IP:10.10.11.1]	[Browser:Chrome - 49.0.2623.87]	[Action:Closing mssql connection]	[Remarks:Success]
[Date: 2016-03-21 17:32:01]	[UserID:14/1082]	[IP:10.10.11.1]	[Browser:Chrome - 49.0.2623.87]	[Action:Making connection to server]	[Remarks:Successful connection to server: S3]
[Date: 2016-03-21 17:32:01]	[UserID:14/1082]	[IP:10.10.11.1]	[Browser:Chrome - 49.0.2623.87]	[Action:GetProgramList 14/1082]	[Remarks:[{"ID":"1","ProgramIndex":"GST","ProgramName":"GST"}]]
[Date: 2016-03-21 17:32:01]	[UserID:14/1082]	[IP:10.10.11.1]	[Browser:Chrome - 49.0.2623.87]	[Action:Making connection to server]	[Remarks:Successful connection to server: S3]
[Date: 2016-03-21 17:32:01]	[UserID:14/1082]	[IP:10.10.11.1]	[Browser:Chrome - 49.0.2623.87]	[Action:GetProgramList 14/1082]	[Remarks:[{"ID":"1","ProgramIndex":"GST","ProgramName":"GST"}]]
[Date: 2016-03-21 17:32:01]	[UserID:14/1082]	[IP:10.10.11.1]	[Browser:Chrome - 49.0.2623.87]	[Action:Making connection to server]	[Remarks:Successful connection to server: S3]
[Date: 2016-03-21 17:32:01]	[UserID:14/1082]	[IP:10.10.11.1]	[Browser:Chrome - 49.0.2623.87]	[Action:Filtering User : MasterData Username : 14/1082]	[Remarks:Successful filter row count: 1]
[Date: 2016-03-21 17:32:01]	[UserID:14/1082]	[IP:10.10.11.1]	[Browser:Chrome - 49.0.2623.87]	[Action:Making connection to server]	[Remarks:Successful connection to server: S3]
[Date: 2016-03-21 17:32:01]	[UserID:14/1082]	[IP:10.10.11.1]	[Browser:Chrome - 49.0.2623.87]	[Action:GetGSTModules 14/1082,1]	[Remarks:Successful filter row count: 7]
[Date: 2016-03-21 17:32:01]	[UserID:14/1082]	[IP:10.10.11.1]	[Browser:Chrome - 49.0.2623.87]	[Action:Closing mssql connection]	[Remarks:Success]
[Date: 2016-03-21 17:55:02]	[UserID:]	[IP:10.10.11.1]	[Browser:Chrome - 49.0.2623.87]	[Action:Making connection to server]	[Remarks:Successful connection to server: S3]
[Date: 2016-03-21 17:55:02]	[UserID:]	[IP:10.10.11.1]	[Browser:Chrome - 49.0.2623.87]	[Action:GetProgramList ]	[Remarks:"no data"]
