[Date: 2016-06-03 07:40:13]	[UserID:]	[IP:10.10.11.1]	[Browser:Chrome - 50.0.2661.102]	[Action:Making connection to server]	[Remarks:Successful connection to server: S3]
[Date: 2016-06-03 07:40:14]	[UserID:]	[IP:10.10.11.1]	[Browser:Chrome - 50.0.2661.102]	[Action:GetProgramList ]	[Remarks:"no data"]
[Date: 2016-06-03 09:10:35]	[UserID:]	[IP:10.10.11.1]	[Browser:Chrome - 50.0.2661.102]	[Action:Making connection to server]	[Remarks:Successful connection to server: S3]
[Date: 2016-06-03 09:10:35]	[UserID:]	[IP:10.10.11.1]	[Browser:Chrome - 50.0.2661.102]	[Action:GetProgramList ]	[Remarks:"no data"]
[Date: 2016-06-03 09:10:38]	[UserID:08/504]	[IP:10.10.11.1]	[Browser:Chrome - 50.0.2661.102]	[Action:Making connection to server]	[Remarks:Successful connection to server: S3]
[Date: 2016-06-03 09:10:38]	[UserID:08/504]	[IP:10.10.11.1]	[Browser:Chrome - 50.0.2661.102]	[Action:User 08/504]	[Remarks:Success]
[Date: 2016-06-03 09:10:38]	[UserID:08/504]	[IP:10.10.11.1]	[Browser:Chrome - 50.0.2661.102]	[Action:Filtering User : MasterData Username : 08/504]	[Remarks:Successful filter row count: 0]
[Date: 2016-06-03 09:10:38]	[UserID:08/504]	[IP:10.10.11.1]	[Browser:Chrome - 50.0.2661.102]	[Action:Filtering User : MasterData Username : 08/504]	[Remarks:Successful filter row count: 0]
[Date: 2016-06-03 09:10:38]	[UserID:08/504]	[IP:10.10.11.1]	[Browser:Chrome - 50.0.2661.102]	[Action:Filtering User : MasterData Username : 08/504]	[Remarks:Success]
[Date: 2016-06-03 09:10:38]	[UserID:08/504]	[IP:10.10.11.1]	[Browser:Chrome - 50.0.2661.102]	[Action:Closing mssql connection]	[Remarks:Success]
[Date: 2016-06-03 09:10:38]	[UserID:08/504]	[IP:10.10.11.1]	[Browser:Chrome - 50.0.2661.102]	[Action:Making connection to server]	[Remarks:Successful connection to server: S3]
[Date: 2016-06-03 09:10:39]	[UserID:08/504]	[IP:10.10.11.1]	[Browser:Chrome - 50.0.2661.102]	[Action:GetProgramList 08/504]	[Remarks:[{"ID":"1","ProgramIndex":"GST","ProgramName":"GST"}]]
[Date: 2016-06-03 09:10:39]	[UserID:08/504]	[IP:10.10.11.1]	[Browser:Chrome - 50.0.2661.102]	[Action:Making connection to server]	[Remarks:Successful connection to server: S3]
[Date: 2016-06-03 09:10:39]	[UserID:08/504]	[IP:10.10.11.1]	[Browser:Chrome - 50.0.2661.102]	[Action:GetProgramList 08/504]	[Remarks:[{"ID":"1","ProgramIndex":"GST","ProgramName":"GST"}]]
[Date: 2016-06-03 09:10:39]	[UserID:08/504]	[IP:10.10.11.1]	[Browser:Chrome - 50.0.2661.102]	[Action:Making connection to server]	[Remarks:Successful connection to server: S3]
[Date: 2016-06-03 09:10:39]	[UserID:08/504]	[IP:10.10.11.1]	[Browser:Chrome - 50.0.2661.102]	[Action:Filtering User : MasterData Username : 08/504]	[Remarks:Successful filter row count: 1]
[Date: 2016-06-03 09:10:39]	[UserID:08/504]	[IP:10.10.11.1]	[Browser:Chrome - 50.0.2661.102]	[Action:Making connection to server]	[Remarks:Successful connection to server: S3]
[Date: 2016-06-03 09:10:39]	[UserID:08/504]	[IP:10.10.11.1]	[Browser:Chrome - 50.0.2661.102]	[Action:GetGSTModules 08/504,1]	[Remarks:Successful filter row count: 5]
[Date: 2016-06-03 09:10:39]	[UserID:08/504]	[IP:10.10.11.1]	[Browser:Chrome - 50.0.2661.102]	[Action:Closing mssql connection]	[Remarks:Success]
[Date: 2016-06-03 09:13:08]	[UserID:08/504]	[IP:10.10.11.1]	[Browser:Chrome - 50.0.2661.102]	[Action:Making connection to server]	[Remarks:Successful connection to server: S3]
[Date: 2016-06-03 09:13:08]	[UserID:08/504]	[IP:10.10.11.1]	[Browser:Chrome - 50.0.2661.102]	[Action:GetGSTModules 08/504,1]	[Remarks:Successful filter row count: 5]
[Date: 2016-06-03 09:13:08]	[UserID:08/504]	[IP:10.10.11.1]	[Browser:Chrome - 50.0.2661.102]	[Action:Closing mssql connection]	[Remarks:Success]
[Date: 2016-06-03 09:42:02]	[UserID:08/504]	[IP:10.10.11.1]	[Browser:Chrome - 50.0.2661.102]	[Action:Making connection to server]	[Remarks:Successful connection to server: S3]
[Date: 2016-06-03 09:42:02]	[UserID:08/504]	[IP:10.10.11.1]	[Browser:Chrome - 50.0.2661.102]	[Action:GetGSTModules 08/504,1]	[Remarks:Successful filter row count: 5]
[Date: 2016-06-03 09:42:02]	[UserID:08/504]	[IP:10.10.11.1]	[Browser:Chrome - 50.0.2661.102]	[Action:Closing mssql connection]	[Remarks:Success]
[Date: 2016-06-03 09:43:12]	[UserID:08/504]	[IP:10.10.11.1]	[Browser:Chrome - 50.0.2661.102]	[Action:Making connection to server]	[Remarks:Successful connection to server: S3]
[Date: 2016-06-03 09:43:12]	[UserID:08/504]	[IP:10.10.11.1]	[Browser:Chrome - 50.0.2661.102]	[Action:GetGSTModules 08/504,1]	[Remarks:Successful filter row count: 5]
[Date: 2016-06-03 09:43:12]	[UserID:08/504]	[IP:10.10.11.1]	[Browser:Chrome - 50.0.2661.102]	[Action:Closing mssql connection]	[Remarks:Success]
[Date: 2016-06-03 09:43:28]	[UserID:08/504]	[IP:10.10.11.1]	[Browser:Chrome - 50.0.2661.102]	[Action:Making connection to server]	[Remarks:Successful connection to server: S3]
[Date: 2016-06-03 09:43:28]	[UserID:08/504]	[IP:10.10.11.1]	[Browser:Chrome - 50.0.2661.102]	[Action:GetGSTModules 08/504,1]	[Remarks:Successful filter row count: 5]
[Date: 2016-06-03 09:43:28]	[UserID:08/504]	[IP:10.10.11.1]	[Browser:Chrome - 50.0.2661.102]	[Action:Closing mssql connection]	[Remarks:Success]
[Date: 2016-06-03 09:46:12]	[UserID:08/504]	[IP:10.10.11.1]	[Browser:Chrome - 50.0.2661.102]	[Action:Making connection to server]	[Remarks:Successful connection to server: S3]
[Date: 2016-06-03 09:46:12]	[UserID:08/504]	[IP:10.10.11.1]	[Browser:Chrome - 50.0.2661.102]	[Action:GetGSTModules 08/504,1]	[Remarks:Successful filter row count: 5]
[Date: 2016-06-03 09:46:12]	[UserID:08/504]	[IP:10.10.11.1]	[Browser:Chrome - 50.0.2661.102]	[Action:Closing mssql connection]	[Remarks:Success]
[Date: 2016-06-03 09:46:44]	[UserID:08/504]	[IP:10.10.11.1]	[Browser:Chrome - 50.0.2661.102]	[Action:Making connection to server]	[Remarks:Successful connection to server: S3]
[Date: 2016-06-03 09:46:44]	[UserID:08/504]	[IP:10.10.11.1]	[Browser:Chrome - 50.0.2661.102]	[Action:GetGSTModules 08/504,1]	[Remarks:Successful filter row count: 5]
[Date: 2016-06-03 09:46:44]	[UserID:08/504]	[IP:10.10.11.1]	[Browser:Chrome - 50.0.2661.102]	[Action:Closing mssql connection]	[Remarks:Success]
[Date: 2016-06-03 10:02:41]	[UserID:08/504]	[IP:10.10.11.1]	[Browser:Chrome - 50.0.2661.102]	[Action:Making connection to server]	[Remarks:Successful connection to server: S3]
[Date: 2016-06-03 10:02:41]	[UserID:08/504]	[IP:10.10.11.1]	[Browser:Chrome - 50.0.2661.102]	[Action:GetGSTModules 08/504,1]	[Remarks:Successful filter row count: 5]
[Date: 2016-06-03 10:02:41]	[UserID:08/504]	[IP:10.10.11.1]	[Browser:Chrome - 50.0.2661.102]	[Action:Closing mssql connection]	[Remarks:Success]
[Date: 2016-06-03 10:05:33]	[UserID:08/504]	[IP:10.10.11.1]	[Browser:Chrome - 50.0.2661.102]	[Action:Making connection to server]	[Remarks:Successful connection to server: S3]
[Date: 2016-06-03 10:05:33]	[UserID:08/504]	[IP:10.10.11.1]	[Browser:Chrome - 50.0.2661.102]	[Action:GetGSTModules 08/504,1]	[Remarks:Successful filter row count: 5]
[Date: 2016-06-03 10:05:33]	[UserID:08/504]	[IP:10.10.11.1]	[Browser:Chrome - 50.0.2661.102]	[Action:Closing mssql connection]	[Remarks:Success]
[Date: 2016-06-03 10:12:49]	[UserID:08/504]	[IP:10.10.11.1]	[Browser:Chrome - 50.0.2661.102]	[Action:Making connection to server]	[Remarks:Successful connection to server: S3]
[Date: 2016-06-03 10:12:49]	[UserID:08/504]	[IP:10.10.11.1]	[Browser:Chrome - 50.0.2661.102]	[Action:GetGSTModules 08/504,1]	[Remarks:Successful filter row count: 5]
[Date: 2016-06-03 10:12:49]	[UserID:08/504]	[IP:10.10.11.1]	[Browser:Chrome - 50.0.2661.102]	[Action:Closing mssql connection]	[Remarks:Success]
[Date: 2016-06-03 10:14:17]	[UserID:08/504]	[IP:10.10.11.1]	[Browser:Chrome - 50.0.2661.102]	[Action:Making connection to server]	[Remarks:Successful connection to server: S3]
[Date: 2016-06-03 10:14:17]	[UserID:08/504]	[IP:10.10.11.1]	[Browser:Chrome - 50.0.2661.102]	[Action:GetGSTModules 08/504,1]	[Remarks:Successful filter row count: 5]
[Date: 2016-06-03 10:14:17]	[UserID:08/504]	[IP:10.10.11.1]	[Browser:Chrome - 50.0.2661.102]	[Action:Closing mssql connection]	[Remarks:Success]
[Date: 2016-06-03 10:59:02]	[UserID:]	[IP:10.10.11.1]	[Browser:Chrome - 50.0.2661.102]	[Action:Making connection to server]	[Remarks:Successful connection to server: S3]
[Date: 2016-06-03 10:59:02]	[UserID:]	[IP:10.10.11.1]	[Browser:Chrome - 50.0.2661.102]	[Action:GetProgramList ]	[Remarks:"no data"]
[Date: 2016-06-03 10:59:08]	[UserID:10/660]	[IP:10.10.11.1]	[Browser:Chrome - 50.0.2661.102]	[Action:Making connection to server]	[Remarks:Successful connection to server: S3]
[Date: 2016-06-03 10:59:08]	[UserID:10/660]	[IP:10.10.11.1]	[Browser:Chrome - 50.0.2661.102]	[Action:User 10/660]	[Remarks:Success]
[Date: 2016-06-03 10:59:08]	[UserID:10/660]	[IP:10.10.11.1]	[Browser:Chrome - 50.0.2661.102]	[Action:Filtering User : MasterData Username : 10/660]	[Remarks:Successful filter row count: 0]
[Date: 2016-06-03 10:59:08]	[UserID:10/660]	[IP:10.10.11.1]	[Browser:Chrome - 50.0.2661.102]	[Action:Filtering User : MasterData Username : 10/660]	[Remarks:Successful filter row count: 0]
[Date: 2016-06-03 10:59:08]	[UserID:10/660]	[IP:10.10.11.1]	[Browser:Chrome - 50.0.2661.102]	[Action:Filtering User : MasterData Username : 10/660]	[Remarks:Success]
[Date: 2016-06-03 10:59:08]	[UserID:10/660]	[IP:10.10.11.1]	[Browser:Chrome - 50.0.2661.102]	[Action:Closing mssql connection]	[Remarks:Success]
[Date: 2016-06-03 10:59:08]	[UserID:10/660]	[IP:10.10.11.1]	[Browser:Chrome - 50.0.2661.102]	[Action:Making connection to server]	[Remarks:Successful connection to server: S3]
[Date: 2016-06-03 10:59:08]	[UserID:10/660]	[IP:10.10.11.1]	[Browser:Chrome - 50.0.2661.102]	[Action:GetProgramList 10/660]	[Remarks:[{"ID":"1","ProgramIndex":"GST","ProgramName":"GST"}]]
[Date: 2016-06-03 10:59:08]	[UserID:10/660]	[IP:10.10.11.1]	[Browser:Chrome - 50.0.2661.102]	[Action:Making connection to server]	[Remarks:Successful connection to server: S3]
[Date: 2016-06-03 10:59:08]	[UserID:10/660]	[IP:10.10.11.1]	[Browser:Chrome - 50.0.2661.102]	[Action:GetProgramList 10/660]	[Remarks:[{"ID":"1","ProgramIndex":"GST","ProgramName":"GST"}]]
[Date: 2016-06-03 10:59:08]	[UserID:10/660]	[IP:10.10.11.1]	[Browser:Chrome - 50.0.2661.102]	[Action:Making connection to server]	[Remarks:Successful connection to server: S3]
[Date: 2016-06-03 10:59:08]	[UserID:10/660]	[IP:10.10.11.1]	[Browser:Chrome - 50.0.2661.102]	[Action:Filtering User : MasterData Username : 10/660]	[Remarks:Successful filter row count: 1]
[Date: 2016-06-03 10:59:08]	[UserID:10/660]	[IP:10.10.11.1]	[Browser:Chrome - 50.0.2661.102]	[Action:Making connection to server]	[Remarks:Successful connection to server: S3]
[Date: 2016-06-03 10:59:08]	[UserID:10/660]	[IP:10.10.11.1]	[Browser:Chrome - 50.0.2661.102]	[Action:GetGSTModules 10/660,1]	[Remarks:Successful filter row count: 3]
[Date: 2016-06-03 10:59:08]	[UserID:10/660]	[IP:10.10.11.1]	[Browser:Chrome - 50.0.2661.102]	[Action:Closing mssql connection]	[Remarks:Success]
[Date: 2016-06-03 11:25:05]	[UserID:10/660]	[IP:10.10.11.1]	[Browser:Chrome - 50.0.2661.102]	[Action:Making connection to server]	[Remarks:Successful connection to server: S3]
[Date: 2016-06-03 11:25:06]	[UserID:10/660]	[IP:10.10.11.1]	[Browser:Chrome - 50.0.2661.102]	[Action:GetGSTModules 10/660,1]	[Remarks:Successful filter row count: 3]
[Date: 2016-06-03 11:25:06]	[UserID:10/660]	[IP:10.10.11.1]	[Browser:Chrome - 50.0.2661.102]	[Action:Closing mssql connection]	[Remarks:Success]
[Date: 2016-06-03 11:26:34]	[UserID:10/660]	[IP:10.10.11.1]	[Browser:Chrome - 50.0.2661.102]	[Action:Making connection to server]	[Remarks:Successful connection to server: S3]
[Date: 2016-06-03 11:26:34]	[UserID:10/660]	[IP:10.10.11.1]	[Browser:Chrome - 50.0.2661.102]	[Action:GetGSTModules 10/660,1]	[Remarks:Successful filter row count: 3]
[Date: 2016-06-03 11:26:34]	[UserID:10/660]	[IP:10.10.11.1]	[Browser:Chrome - 50.0.2661.102]	[Action:Closing mssql connection]	[Remarks:Success]
[Date: 2016-06-03 11:28:05]	[UserID:]	[IP:10.10.11.1]	[Browser:Chrome - 50.0.2661.102]	[Action:Making connection to server]	[Remarks:Successful connection to server: S3]
[Date: 2016-06-03 11:28:05]	[UserID:]	[IP:10.10.11.1]	[Browser:Chrome - 50.0.2661.102]	[Action:GetProgramList ]	[Remarks:"no data"]
[Date: 2016-06-03 11:30:25]	[UserID:]	[IP:10.10.11.1]	[Browser:Chrome - 50.0.2661.102]	[Action:Making connection to server]	[Remarks:Successful connection to server: S3]
[Date: 2016-06-03 11:30:25]	[UserID:]	[IP:10.10.11.1]	[Browser:Chrome - 50.0.2661.102]	[Action:GetProgramList ]	[Remarks:"no data"]
[Date: 2016-06-03 13:15:05]	[UserID:]	[IP:10.10.11.1]	[Browser:Chrome - 50.0.2661.102]	[Action:Making connection to server]	[Remarks:Successful connection to server: S3]
[Date: 2016-06-03 13:15:05]	[UserID:]	[IP:10.10.11.1]	[Browser:Chrome - 50.0.2661.102]	[Action:GetProgramList ]	[Remarks:"no data"]
[Date: 2016-06-03 13:15:08]	[UserID:08/504]	[IP:10.10.11.1]	[Browser:Chrome - 50.0.2661.102]	[Action:Making connection to server]	[Remarks:Successful connection to server: S3]
[Date: 2016-06-03 13:15:08]	[UserID:08/504]	[IP:10.10.11.1]	[Browser:Chrome - 50.0.2661.102]	[Action:User 08/504]	[Remarks:Success]
[Date: 2016-06-03 13:15:08]	[UserID:08/504]	[IP:10.10.11.1]	[Browser:Chrome - 50.0.2661.102]	[Action:Filtering User : MasterData Username : 08/504]	[Remarks:Successful filter row count: 0]
[Date: 2016-06-03 13:15:08]	[UserID:08/504]	[IP:10.10.11.1]	[Browser:Chrome - 50.0.2661.102]	[Action:Filtering User : MasterData Username : 08/504]	[Remarks:Successful filter row count: 0]
[Date: 2016-06-03 13:15:08]	[UserID:08/504]	[IP:10.10.11.1]	[Browser:Chrome - 50.0.2661.102]	[Action:Filtering User : MasterData Username : 08/504]	[Remarks:Success]
[Date: 2016-06-03 13:15:08]	[UserID:08/504]	[IP:10.10.11.1]	[Browser:Chrome - 50.0.2661.102]	[Action:Closing mssql connection]	[Remarks:Success]
[Date: 2016-06-03 13:15:08]	[UserID:08/504]	[IP:10.10.11.1]	[Browser:Chrome - 50.0.2661.102]	[Action:Making connection to server]	[Remarks:Successful connection to server: S3]
[Date: 2016-06-03 13:15:08]	[UserID:08/504]	[IP:10.10.11.1]	[Browser:Chrome - 50.0.2661.102]	[Action:GetProgramList 08/504]	[Remarks:[{"ID":"1","ProgramIndex":"GST","ProgramName":"GST"}]]
[Date: 2016-06-03 13:15:08]	[UserID:08/504]	[IP:10.10.11.1]	[Browser:Chrome - 50.0.2661.102]	[Action:Making connection to server]	[Remarks:Successful connection to server: S3]
[Date: 2016-06-03 13:15:08]	[UserID:08/504]	[IP:10.10.11.1]	[Browser:Chrome - 50.0.2661.102]	[Action:GetProgramList 08/504]	[Remarks:[{"ID":"1","ProgramIndex":"GST","ProgramName":"GST"}]]
[Date: 2016-06-03 13:15:08]	[UserID:08/504]	[IP:10.10.11.1]	[Browser:Chrome - 50.0.2661.102]	[Action:Making connection to server]	[Remarks:Successful connection to server: S3]
[Date: 2016-06-03 13:15:08]	[UserID:08/504]	[IP:10.10.11.1]	[Browser:Chrome - 50.0.2661.102]	[Action:Filtering User : MasterData Username : 08/504]	[Remarks:Successful filter row count: 1]
[Date: 2016-06-03 13:15:09]	[UserID:08/504]	[IP:10.10.11.1]	[Browser:Chrome - 50.0.2661.102]	[Action:Making connection to server]	[Remarks:Successful connection to server: S3]
[Date: 2016-06-03 13:15:09]	[UserID:08/504]	[IP:10.10.11.1]	[Browser:Chrome - 50.0.2661.102]	[Action:GetGSTModules 08/504,1]	[Remarks:Successful filter row count: 5]
[Date: 2016-06-03 13:15:09]	[UserID:08/504]	[IP:10.10.11.1]	[Browser:Chrome - 50.0.2661.102]	[Action:Closing mssql connection]	[Remarks:Success]
[Date: 2016-06-03 13:17:33]	[UserID:08/504]	[IP:10.10.11.1]	[Browser:Chrome - 50.0.2661.102]	[Action:Making connection to server]	[Remarks:Successful connection to server: S3]
[Date: 2016-06-03 13:17:33]	[UserID:08/504]	[IP:10.10.11.1]	[Browser:Chrome - 50.0.2661.102]	[Action:GetProgramList 08/504]	[Remarks:[{"ID":"1","ProgramIndex":"GST","ProgramName":"GST"}]]
[Date: 2016-06-03 13:17:33]	[UserID:08/504]	[IP:10.10.11.1]	[Browser:Chrome - 50.0.2661.102]	[Action:Making connection to server]	[Remarks:Successful connection to server: S3]
[Date: 2016-06-03 13:17:33]	[UserID:08/504]	[IP:10.10.11.1]	[Browser:Chrome - 50.0.2661.102]	[Action:GetProgramList 08/504]	[Remarks:[{"ID":"1","ProgramIndex":"GST","ProgramName":"GST"}]]
[Date: 2016-06-03 13:17:33]	[UserID:08/504]	[IP:10.10.11.1]	[Browser:Chrome - 50.0.2661.102]	[Action:Making connection to server]	[Remarks:Successful connection to server: S3]
[Date: 2016-06-03 13:17:33]	[UserID:08/504]	[IP:10.10.11.1]	[Browser:Chrome - 50.0.2661.102]	[Action:Filtering User : MasterData Username : 08/504]	[Remarks:Successful filter row count: 1]
[Date: 2016-06-03 13:18:01]	[UserID:08/504]	[IP:10.10.11.1]	[Browser:Chrome - 50.0.2661.102]	[Action:Making connection to server]	[Remarks:Successful connection to server: S3]
[Date: 2016-06-03 13:18:01]	[UserID:08/504]	[IP:10.10.11.1]	[Browser:Chrome - 50.0.2661.102]	[Action:GetProgramList 08/504]	[Remarks:[{"ID":"1","ProgramIndex":"GST","ProgramName":"GST"}]]
[Date: 2016-06-03 13:18:01]	[UserID:08/504]	[IP:10.10.11.1]	[Browser:Chrome - 50.0.2661.102]	[Action:Making connection to server]	[Remarks:Successful connection to server: S3]
[Date: 2016-06-03 13:18:01]	[UserID:08/504]	[IP:10.10.11.1]	[Browser:Chrome - 50.0.2661.102]	[Action:GetProgramList 08/504]	[Remarks:[{"ID":"1","ProgramIndex":"GST","ProgramName":"GST"}]]
[Date: 2016-06-03 13:18:01]	[UserID:08/504]	[IP:10.10.11.1]	[Browser:Chrome - 50.0.2661.102]	[Action:Making connection to server]	[Remarks:Successful connection to server: S3]
[Date: 2016-06-03 13:18:01]	[UserID:08/504]	[IP:10.10.11.1]	[Browser:Chrome - 50.0.2661.102]	[Action:Filtering User : MasterData Username : 08/504]	[Remarks:Successful filter row count: 1]
[Date: 2016-06-03 13:18:02]	[UserID:08/504]	[IP:10.10.11.1]	[Browser:Chrome - 50.0.2661.102]	[Action:Making connection to server]	[Remarks:Successful connection to server: S3]
[Date: 2016-06-03 13:18:02]	[UserID:08/504]	[IP:10.10.11.1]	[Browser:Chrome - 50.0.2661.102]	[Action:GetGSTModules 08/504,1]	[Remarks:Successful filter row count: 5]
[Date: 2016-06-03 13:18:02]	[UserID:08/504]	[IP:10.10.11.1]	[Browser:Chrome - 50.0.2661.102]	[Action:Closing mssql connection]	[Remarks:Success]
[Date: 2016-06-03 13:18:05]	[UserID:]	[IP:10.10.11.1]	[Browser:Chrome - 50.0.2661.102]	[Action:Making connection to server]	[Remarks:Successful connection to server: S3]
[Date: 2016-06-03 13:18:05]	[UserID:]	[IP:10.10.11.1]	[Browser:Chrome - 50.0.2661.102]	[Action:GetProgramList ]	[Remarks:"no data"]
[Date: 2016-06-03 13:18:23]	[UserID:08/504]	[IP:10.10.11.1]	[Browser:Chrome - 50.0.2661.102]	[Action:Making connection to server]	[Remarks:Successful connection to server: S3]
[Date: 2016-06-03 13:18:23]	[UserID:08/504]	[IP:10.10.11.1]	[Browser:Chrome - 50.0.2661.102]	[Action:User 08/504]	[Remarks:Success]
[Date: 2016-06-03 13:18:23]	[UserID:08/504]	[IP:10.10.11.1]	[Browser:Chrome - 50.0.2661.102]	[Action:Filtering User : MasterData Username : 08/504]	[Remarks:Successful filter row count: 0]
[Date: 2016-06-03 13:18:23]	[UserID:08/504]	[IP:10.10.11.1]	[Browser:Chrome - 50.0.2661.102]	[Action:Filtering User : MasterData Username : 08/504]	[Remarks:Successful filter row count: 0]
[Date: 2016-06-03 13:18:23]	[UserID:08/504]	[IP:10.10.11.1]	[Browser:Chrome - 50.0.2661.102]	[Action:Filtering User : MasterData Username : 08/504]	[Remarks:Success]
[Date: 2016-06-03 13:18:23]	[UserID:08/504]	[IP:10.10.11.1]	[Browser:Chrome - 50.0.2661.102]	[Action:Closing mssql connection]	[Remarks:Success]
[Date: 2016-06-03 13:18:23]	[UserID:08/504]	[IP:10.10.11.1]	[Browser:Chrome - 50.0.2661.102]	[Action:Making connection to server]	[Remarks:Successful connection to server: S3]
[Date: 2016-06-03 13:18:23]	[UserID:08/504]	[IP:10.10.11.1]	[Browser:Chrome - 50.0.2661.102]	[Action:GetProgramList 08/504]	[Remarks:[{"ID":"1","ProgramIndex":"GST","ProgramName":"GST"}]]
[Date: 2016-06-03 13:18:23]	[UserID:08/504]	[IP:10.10.11.1]	[Browser:Chrome - 50.0.2661.102]	[Action:Making connection to server]	[Remarks:Successful connection to server: S3]
[Date: 2016-06-03 13:18:23]	[UserID:08/504]	[IP:10.10.11.1]	[Browser:Chrome - 50.0.2661.102]	[Action:GetProgramList 08/504]	[Remarks:[{"ID":"1","ProgramIndex":"GST","ProgramName":"GST"}]]
[Date: 2016-06-03 13:18:23]	[UserID:08/504]	[IP:10.10.11.1]	[Browser:Chrome - 50.0.2661.102]	[Action:Making connection to server]	[Remarks:Successful connection to server: S3]
[Date: 2016-06-03 13:18:23]	[UserID:08/504]	[IP:10.10.11.1]	[Browser:Chrome - 50.0.2661.102]	[Action:Filtering User : MasterData Username : 08/504]	[Remarks:Successful filter row count: 1]
[Date: 2016-06-03 13:18:23]	[UserID:08/504]	[IP:10.10.11.1]	[Browser:Chrome - 50.0.2661.102]	[Action:Making connection to server]	[Remarks:Successful connection to server: S3]
[Date: 2016-06-03 13:18:23]	[UserID:08/504]	[IP:10.10.11.1]	[Browser:Chrome - 50.0.2661.102]	[Action:GetGSTModules 08/504,1]	[Remarks:Successful filter row count: 5]
[Date: 2016-06-03 13:18:23]	[UserID:08/504]	[IP:10.10.11.1]	[Browser:Chrome - 50.0.2661.102]	[Action:Closing mssql connection]	[Remarks:Success]
[Date: 2016-06-03 14:36:05]	[UserID:]	[IP:10.10.11.1]	[Browser:Chrome - 50.0.2661.102]	[Action:Making connection to server]	[Remarks:Successful connection to server: S3]
[Date: 2016-06-03 14:36:06]	[UserID:]	[IP:10.10.11.1]	[Browser:Chrome - 50.0.2661.102]	[Action:GetProgramList ]	[Remarks:"no data"]
[Date: 2016-06-03 14:36:08]	[UserID:10/660]	[IP:10.10.11.1]	[Browser:Chrome - 50.0.2661.102]	[Action:Making connection to server]	[Remarks:Successful connection to server: S3]
[Date: 2016-06-03 14:36:10]	[UserID:10/660]	[IP:10.10.11.1]	[Browser:Chrome - 50.0.2661.102]	[Action:User 10/660]	[Remarks:Success]
[Date: 2016-06-03 14:36:10]	[UserID:10/660]	[IP:10.10.11.1]	[Browser:Chrome - 50.0.2661.102]	[Action:Filtering User : MasterData Username : 10/660]	[Remarks:Successful filter row count: 0]
[Date: 2016-06-03 14:36:10]	[UserID:10/660]	[IP:10.10.11.1]	[Browser:Chrome - 50.0.2661.102]	[Action:Filtering User : MasterData Username : 10/660]	[Remarks:Successful filter row count: 0]
[Date: 2016-06-03 14:36:10]	[UserID:10/660]	[IP:10.10.11.1]	[Browser:Chrome - 50.0.2661.102]	[Action:Filtering User : MasterData Username : 10/660]	[Remarks:Success]
[Date: 2016-06-03 14:36:10]	[UserID:10/660]	[IP:10.10.11.1]	[Browser:Chrome - 50.0.2661.102]	[Action:Closing mssql connection]	[Remarks:Success]
[Date: 2016-06-03 14:36:11]	[UserID:10/660]	[IP:10.10.11.1]	[Browser:Chrome - 50.0.2661.102]	[Action:Making connection to server]	[Remarks:Successful connection to server: S3]
[Date: 2016-06-03 14:36:11]	[UserID:10/660]	[IP:10.10.11.1]	[Browser:Chrome - 50.0.2661.102]	[Action:GetProgramList 10/660]	[Remarks:[{"ID":"1","ProgramIndex":"GST","ProgramName":"GST"}]]
[Date: 2016-06-03 14:36:11]	[UserID:10/660]	[IP:10.10.11.1]	[Browser:Chrome - 50.0.2661.102]	[Action:Making connection to server]	[Remarks:Successful connection to server: S3]
[Date: 2016-06-03 14:36:11]	[UserID:10/660]	[IP:10.10.11.1]	[Browser:Chrome - 50.0.2661.102]	[Action:GetProgramList 10/660]	[Remarks:[{"ID":"1","ProgramIndex":"GST","ProgramName":"GST"}]]
[Date: 2016-06-03 14:36:11]	[UserID:10/660]	[IP:10.10.11.1]	[Browser:Chrome - 50.0.2661.102]	[Action:Making connection to server]	[Remarks:Successful connection to server: S3]
[Date: 2016-06-03 14:36:11]	[UserID:10/660]	[IP:10.10.11.1]	[Browser:Chrome - 50.0.2661.102]	[Action:Filtering User : MasterData Username : 10/660]	[Remarks:Successful filter row count: 1]
[Date: 2016-06-03 14:36:11]	[UserID:10/660]	[IP:10.10.11.1]	[Browser:Chrome - 50.0.2661.102]	[Action:Making connection to server]	[Remarks:Successful connection to server: S3]
[Date: 2016-06-03 14:36:12]	[UserID:10/660]	[IP:10.10.11.1]	[Browser:Chrome - 50.0.2661.102]	[Action:GetGSTModules 10/660,1]	[Remarks:Successful filter row count: 3]
[Date: 2016-06-03 14:36:12]	[UserID:10/660]	[IP:10.10.11.1]	[Browser:Chrome - 50.0.2661.102]	[Action:Closing mssql connection]	[Remarks:Success]
[Date: 2016-06-03 14:43:44]	[UserID:10/660]	[IP:10.10.11.1]	[Browser:Chrome - 50.0.2661.102]	[Action:Making connection to server]	[Remarks:Successful connection to server: S3]
[Date: 2016-06-03 14:43:45]	[UserID:10/660]	[IP:10.10.11.1]	[Browser:Chrome - 50.0.2661.102]	[Action:GetGSTModules 10/660,1]	[Remarks:Successful filter row count: 3]
[Date: 2016-06-03 14:43:45]	[UserID:10/660]	[IP:10.10.11.1]	[Browser:Chrome - 50.0.2661.102]	[Action:Closing mssql connection]	[Remarks:Success]
[Date: 2016-06-03 14:45:03]	[UserID:]	[IP:10.10.11.1]	[Browser:Chrome - 50.0.2661.102]	[Action:Making connection to server]	[Remarks:Successful connection to server: S3]
[Date: 2016-06-03 14:45:03]	[UserID:]	[IP:10.10.11.1]	[Browser:Chrome - 50.0.2661.102]	[Action:GetProgramList ]	[Remarks:"no data"]
