[Date: 2019-03-26 08:38:51]	[UserID:]	[IP:10.128.12.113]	[Browser:Chrome - 72.0.3626.121]	[Action:Making connection to server]	[Remarks:Successful connection to server: S3]
[Date: 2019-03-26 08:38:51]	[UserID:]	[IP:10.128.12.113]	[Browser:Chrome - 72.0.3626.121]	[Action:GetProgramList ]	[Remarks:"no data"]
[Date: 2019-03-26 08:39:02]	[UserID:06/343]	[IP:10.128.12.113]	[Browser:Chrome - 72.0.3626.121]	[Action:Making connection to server]	[Remarks:Successful connection to server: S3]
[Date: 2019-03-26 08:39:02]	[UserID:06/343]	[IP:10.128.12.113]	[Browser:Chrome - 72.0.3626.121]	[Action:User 06/343]	[Remarks:Success]
[Date: 2019-03-26 08:39:02]	[UserID:06/343]	[IP:10.128.12.113]	[Browser:Chrome - 72.0.3626.121]	[Action:Filtering User : MasterData Username : 06/343]	[Remarks:Successful filter row count: 0]
[Date: 2019-03-26 08:39:02]	[UserID:06/343]	[IP:10.128.12.113]	[Browser:Chrome - 72.0.3626.121]	[Action:Filtering User : MasterData Username : 06/343]	[Remarks:Successful filter row count: 0]
[Date: 2019-03-26 08:39:02]	[UserID:06/343]	[IP:10.128.12.113]	[Browser:Chrome - 72.0.3626.121]	[Action:Filtering User : MasterData Username : 06/343]	[Remarks:Success]
[Date: 2019-03-26 08:39:02]	[UserID:06/343]	[IP:10.128.12.113]	[Browser:Chrome - 72.0.3626.121]	[Action:Closing mssql connection]	[Remarks:Success]
[Date: 2019-03-26 08:39:02]	[UserID:06/343]	[IP:10.128.12.113]	[Browser:Chrome - 72.0.3626.121]	[Action:Making connection to server]	[Remarks:Successful connection to server: S3]
[Date: 2019-03-26 08:39:03]	[UserID:06/343]	[IP:10.128.12.113]	[Browser:Chrome - 72.0.3626.121]	[Action:GetProgramList 06/343]	[Remarks:[{"ID":"1","ProgramIndex":"GST","ProgramName":"GST"}]]
[Date: 2019-03-26 08:39:03]	[UserID:06/343]	[IP:10.128.12.113]	[Browser:Chrome - 72.0.3626.121]	[Action:Making connection to server]	[Remarks:Successful connection to server: S3]
[Date: 2019-03-26 08:39:03]	[UserID:06/343]	[IP:10.128.12.113]	[Browser:Chrome - 72.0.3626.121]	[Action:GetProgramList 06/343]	[Remarks:[{"ID":"1","ProgramIndex":"GST","ProgramName":"GST"}]]
[Date: 2019-03-26 08:39:03]	[UserID:06/343]	[IP:10.128.12.113]	[Browser:Chrome - 72.0.3626.121]	[Action:Making connection to server]	[Remarks:Successful connection to server: S3]
[Date: 2019-03-26 08:39:03]	[UserID:06/343]	[IP:10.128.12.113]	[Browser:Chrome - 72.0.3626.121]	[Action:Filtering User : MasterData Username : 06/343]	[Remarks:Successful filter row count: 1]
[Date: 2019-03-26 08:39:03]	[UserID:06/343]	[IP:10.128.12.113]	[Browser:Chrome - 72.0.3626.121]	[Action:Making connection to server]	[Remarks:Successful connection to server: S3]
[Date: 2019-03-26 08:39:03]	[UserID:06/343]	[IP:10.128.12.113]	[Browser:Chrome - 72.0.3626.121]	[Action:GetGSTModules 06/343,1]	[Remarks:Successful filter row count: 6]
[Date: 2019-03-26 08:39:03]	[UserID:06/343]	[IP:10.128.12.113]	[Browser:Chrome - 72.0.3626.121]	[Action:Closing mssql connection]	[Remarks:Success]
[Date: 2019-03-26 08:41:46]	[UserID:06/343]	[IP:10.128.12.113]	[Browser:Chrome - 72.0.3626.121]	[Action:Making connection to server]	[Remarks:Successful connection to server: S3]
[Date: 2019-03-26 08:41:46]	[UserID:06/343]	[IP:10.128.12.113]	[Browser:Chrome - 72.0.3626.121]	[Action:GetGSTModules 06/343,1]	[Remarks:Successful filter row count: 6]
[Date: 2019-03-26 08:41:46]	[UserID:06/343]	[IP:10.128.12.113]	[Browser:Chrome - 72.0.3626.121]	[Action:Closing mssql connection]	[Remarks:Success]
[Date: 2019-03-26 08:44:22]	[UserID:06/343]	[IP:10.128.12.113]	[Browser:Chrome - 72.0.3626.121]	[Action:Making connection to server]	[Remarks:Successful connection to server: S3]
[Date: 2019-03-26 08:44:22]	[UserID:06/343]	[IP:10.128.12.113]	[Browser:Chrome - 72.0.3626.121]	[Action:GetGSTModules 06/343,1]	[Remarks:Successful filter row count: 6]
[Date: 2019-03-26 08:44:22]	[UserID:06/343]	[IP:10.128.12.113]	[Browser:Chrome - 72.0.3626.121]	[Action:Closing mssql connection]	[Remarks:Success]
[Date: 2019-03-26 09:10:05]	[UserID:06/343]	[IP:10.128.12.113]	[Browser:Chrome - 72.0.3626.121]	[Action:Making connection to server]	[Remarks:Successful connection to server: S3]
[Date: 2019-03-26 09:10:05]	[UserID:06/343]	[IP:10.128.12.113]	[Browser:Chrome - 72.0.3626.121]	[Action:GetGSTModules 06/343,1]	[Remarks:Successful filter row count: 6]
[Date: 2019-03-26 09:10:05]	[UserID:06/343]	[IP:10.128.12.113]	[Browser:Chrome - 72.0.3626.121]	[Action:Closing mssql connection]	[Remarks:Success]
[Date: 2019-03-26 09:37:51]	[UserID:06/343]	[IP:10.128.12.113]	[Browser:Chrome - 72.0.3626.121]	[Action:Making connection to server]	[Remarks:Successful connection to server: S3]
[Date: 2019-03-26 09:37:51]	[UserID:06/343]	[IP:10.128.12.113]	[Browser:Chrome - 72.0.3626.121]	[Action:GetGSTModules 06/343,1]	[Remarks:Successful filter row count: 6]
[Date: 2019-03-26 09:37:51]	[UserID:06/343]	[IP:10.128.12.113]	[Browser:Chrome - 72.0.3626.121]	[Action:Closing mssql connection]	[Remarks:Success]
[Date: 2019-03-26 11:15:00]	[UserID:06/343]	[IP:10.128.12.113]	[Browser:Chrome - 72.0.3626.121]	[Action:Making connection to server]	[Remarks:Successful connection to server: S3]
[Date: 2019-03-26 11:15:00]	[UserID:06/343]	[IP:10.128.12.113]	[Browser:Chrome - 72.0.3626.121]	[Action:GetGSTModules 06/343,1]	[Remarks:Successful filter row count: 6]
[Date: 2019-03-26 11:15:00]	[UserID:06/343]	[IP:10.128.12.113]	[Browser:Chrome - 72.0.3626.121]	[Action:Closing mssql connection]	[Remarks:Success]
[Date: 2019-03-26 11:19:14]	[UserID:06/343]	[IP:10.128.12.113]	[Browser:Chrome - 72.0.3626.121]	[Action:Making connection to server]	[Remarks:Successful connection to server: S3]
[Date: 2019-03-26 11:19:14]	[UserID:06/343]	[IP:10.128.12.113]	[Browser:Chrome - 72.0.3626.121]	[Action:GetGSTModules 06/343,1]	[Remarks:Successful filter row count: 6]
[Date: 2019-03-26 11:19:14]	[UserID:06/343]	[IP:10.128.12.113]	[Browser:Chrome - 72.0.3626.121]	[Action:Closing mssql connection]	[Remarks:Success]
[Date: 2019-03-26 11:39:48]	[UserID:06/343]	[IP:10.128.12.113]	[Browser:Chrome - 72.0.3626.121]	[Action:Making connection to server]	[Remarks:Successful connection to server: S3]
[Date: 2019-03-26 11:39:48]	[UserID:06/343]	[IP:10.128.12.113]	[Browser:Chrome - 72.0.3626.121]	[Action:GetGSTModules 06/343,1]	[Remarks:Successful filter row count: 6]
[Date: 2019-03-26 11:39:48]	[UserID:06/343]	[IP:10.128.12.113]	[Browser:Chrome - 72.0.3626.121]	[Action:Closing mssql connection]	[Remarks:Success]
[Date: 2019-03-26 11:41:41]	[UserID:06/343]	[IP:10.128.12.113]	[Browser:Chrome - 72.0.3626.121]	[Action:Making connection to server]	[Remarks:Successful connection to server: S3]
[Date: 2019-03-26 11:41:41]	[UserID:06/343]	[IP:10.128.12.113]	[Browser:Chrome - 72.0.3626.121]	[Action:GetGSTModules 06/343,1]	[Remarks:Successful filter row count: 6]
[Date: 2019-03-26 11:41:41]	[UserID:06/343]	[IP:10.128.12.113]	[Browser:Chrome - 72.0.3626.121]	[Action:Closing mssql connection]	[Remarks:Success]
[Date: 2019-03-26 11:43:55]	[UserID:06/343]	[IP:10.128.12.113]	[Browser:Chrome - 72.0.3626.121]	[Action:Making connection to server]	[Remarks:Successful connection to server: S3]
[Date: 2019-03-26 11:43:55]	[UserID:06/343]	[IP:10.128.12.113]	[Browser:Chrome - 72.0.3626.121]	[Action:GetGSTModules 06/343,1]	[Remarks:Successful filter row count: 6]
[Date: 2019-03-26 11:43:55]	[UserID:06/343]	[IP:10.128.12.113]	[Browser:Chrome - 72.0.3626.121]	[Action:Closing mssql connection]	[Remarks:Success]
[Date: 2019-03-26 11:44:44]	[UserID:06/343]	[IP:10.128.12.113]	[Browser:Chrome - 72.0.3626.121]	[Action:Making connection to server]	[Remarks:Successful connection to server: S3]
[Date: 2019-03-26 11:44:44]	[UserID:06/343]	[IP:10.128.12.113]	[Browser:Chrome - 72.0.3626.121]	[Action:GetGSTModules 06/343,1]	[Remarks:Successful filter row count: 6]
[Date: 2019-03-26 11:44:44]	[UserID:06/343]	[IP:10.128.12.113]	[Browser:Chrome - 72.0.3626.121]	[Action:Closing mssql connection]	[Remarks:Success]
[Date: 2019-03-26 11:45:03]	[UserID:06/343]	[IP:10.128.12.113]	[Browser:Chrome - 72.0.3626.121]	[Action:Making connection to server]	[Remarks:Successful connection to server: S3]
[Date: 2019-03-26 11:45:03]	[UserID:06/343]	[IP:10.128.12.113]	[Browser:Chrome - 72.0.3626.121]	[Action:GetGSTModules 06/343,1]	[Remarks:Successful filter row count: 6]
[Date: 2019-03-26 11:45:03]	[UserID:06/343]	[IP:10.128.12.113]	[Browser:Chrome - 72.0.3626.121]	[Action:Closing mssql connection]	[Remarks:Success]
[Date: 2019-03-26 14:20:04]	[UserID:06/343]	[IP:10.128.12.113]	[Browser:Chrome - 72.0.3626.121]	[Action:Making connection to server]	[Remarks:Successful connection to server: S3]
[Date: 2019-03-26 14:20:04]	[UserID:06/343]	[IP:10.128.12.113]	[Browser:Chrome - 72.0.3626.121]	[Action:GetGSTModules 06/343,1]	[Remarks:Successful filter row count: 6]
[Date: 2019-03-26 14:20:04]	[UserID:06/343]	[IP:10.128.12.113]	[Browser:Chrome - 72.0.3626.121]	[Action:Closing mssql connection]	[Remarks:Success]
[Date: 2019-03-26 14:27:24]	[UserID:06/343]	[IP:10.128.12.113]	[Browser:Chrome - 72.0.3626.121]	[Action:Making connection to server]	[Remarks:Successful connection to server: S3]
[Date: 2019-03-26 14:27:24]	[UserID:06/343]	[IP:10.128.12.113]	[Browser:Chrome - 72.0.3626.121]	[Action:GetGSTModules 06/343,1]	[Remarks:Successful filter row count: 6]
[Date: 2019-03-26 14:27:24]	[UserID:06/343]	[IP:10.128.12.113]	[Browser:Chrome - 72.0.3626.121]	[Action:Closing mssql connection]	[Remarks:Success]
[Date: 2019-03-26 15:05:23]	[UserID:06/343]	[IP:10.128.12.113]	[Browser:Chrome - 72.0.3626.121]	[Action:Making connection to server]	[Remarks:Successful connection to server: S3]
[Date: 2019-03-26 15:05:23]	[UserID:06/343]	[IP:10.128.12.113]	[Browser:Chrome - 72.0.3626.121]	[Action:GetGSTModules 06/343,1]	[Remarks:Successful filter row count: 6]
[Date: 2019-03-26 15:05:23]	[UserID:06/343]	[IP:10.128.12.113]	[Browser:Chrome - 72.0.3626.121]	[Action:Closing mssql connection]	[Remarks:Success]
[Date: 2019-03-26 15:05:27]	[UserID:06/343]	[IP:10.128.12.113]	[Browser:Chrome - 72.0.3626.121]	[Action:Making connection to server]	[Remarks:Successful connection to server: S3]
[Date: 2019-03-26 15:05:27]	[UserID:06/343]	[IP:10.128.12.113]	[Browser:Chrome - 72.0.3626.121]	[Action:GetGSTModules 06/343,1]	[Remarks:Successful filter row count: 6]
[Date: 2019-03-26 15:05:27]	[UserID:06/343]	[IP:10.128.12.113]	[Browser:Chrome - 72.0.3626.121]	[Action:Closing mssql connection]	[Remarks:Success]
[Date: 2019-03-26 15:07:46]	[UserID:06/343]	[IP:10.128.12.113]	[Browser:Chrome - 72.0.3626.121]	[Action:Making connection to server]	[Remarks:Successful connection to server: S3]
[Date: 2019-03-26 15:07:46]	[UserID:06/343]	[IP:10.128.12.113]	[Browser:Chrome - 72.0.3626.121]	[Action:GetGSTModules 06/343,1]	[Remarks:Successful filter row count: 6]
[Date: 2019-03-26 15:07:46]	[UserID:06/343]	[IP:10.128.12.113]	[Browser:Chrome - 72.0.3626.121]	[Action:Closing mssql connection]	[Remarks:Success]
[Date: 2019-03-26 15:43:54]	[UserID:06/343]	[IP:10.128.12.113]	[Browser:Chrome - 72.0.3626.121]	[Action:Making connection to server]	[Remarks:Successful connection to server: S3]
[Date: 2019-03-26 15:43:54]	[UserID:06/343]	[IP:10.128.12.113]	[Browser:Chrome - 72.0.3626.121]	[Action:GetGSTModules 06/343,1]	[Remarks:Successful filter row count: 6]
[Date: 2019-03-26 15:43:54]	[UserID:06/343]	[IP:10.128.12.113]	[Browser:Chrome - 72.0.3626.121]	[Action:Closing mssql connection]	[Remarks:Success]
[Date: 2019-03-26 15:48:11]	[UserID:06/343]	[IP:10.128.12.113]	[Browser:Chrome - 72.0.3626.121]	[Action:Making connection to server]	[Remarks:Successful connection to server: S3]
[Date: 2019-03-26 15:48:11]	[UserID:06/343]	[IP:10.128.12.113]	[Browser:Chrome - 72.0.3626.121]	[Action:GetGSTModules 06/343,1]	[Remarks:Successful filter row count: 6]
[Date: 2019-03-26 15:48:11]	[UserID:06/343]	[IP:10.128.12.113]	[Browser:Chrome - 72.0.3626.121]	[Action:Closing mssql connection]	[Remarks:Success]
[Date: 2019-03-26 15:50:29]	[UserID:06/343]	[IP:10.128.12.113]	[Browser:Chrome - 72.0.3626.121]	[Action:Making connection to server]	[Remarks:Successful connection to server: S3]
[Date: 2019-03-26 15:50:29]	[UserID:06/343]	[IP:10.128.12.113]	[Browser:Chrome - 72.0.3626.121]	[Action:GetGSTModules 06/343,1]	[Remarks:Successful filter row count: 6]
[Date: 2019-03-26 15:50:29]	[UserID:06/343]	[IP:10.128.12.113]	[Browser:Chrome - 72.0.3626.121]	[Action:Closing mssql connection]	[Remarks:Success]
