[Date: 2015-10-02 07:36:50]	[UserID:]	[IP:10.10.11.1]	[Browser:Chrome - 45.0.2454.101]	[Action:Making connection to server]	[Remarks:Successful connection to server: S3]
[Date: 2015-10-02 07:36:50]	[UserID:]	[IP:10.10.11.1]	[Browser:Chrome - 45.0.2454.101]	[Action:GetProgramList ]	[Remarks:"no data"]
[Date: 2015-10-02 07:56:03]	[UserID:]	[IP:10.10.11.1]	[Browser:Chrome - 45.0.2454.101]	[Action:Making connection to server]	[Remarks:Successful connection to server: S3]
[Date: 2015-10-02 07:56:03]	[UserID:]	[IP:10.10.11.1]	[Browser:Chrome - 45.0.2454.101]	[Action:GetProgramList ]	[Remarks:"no data"]
[Date: 2015-10-02 07:56:07]	[UserID:08/504]	[IP:10.10.11.1]	[Browser:Chrome - 45.0.2454.101]	[Action:Making connection to server]	[Remarks:Successful connection to server: S3]
[Date: 2015-10-02 07:56:07]	[UserID:08/504]	[IP:10.10.11.1]	[Browser:Chrome - 45.0.2454.101]	[Action:User 08/504]	[Remarks:Success]
[Date: 2015-10-02 07:56:07]	[UserID:08/504]	[IP:10.10.11.1]	[Browser:Chrome - 45.0.2454.101]	[Action:Filtering User : MasterData Username : 08/504]	[Remarks:Successful filter row count: 0]
[Date: 2015-10-02 07:56:07]	[UserID:08/504]	[IP:10.10.11.1]	[Browser:Chrome - 45.0.2454.101]	[Action:Filtering User : MasterData Username : 08/504]	[Remarks:Successful filter row count: 0]
[Date: 2015-10-02 07:56:07]	[UserID:08/504]	[IP:10.10.11.1]	[Browser:Chrome - 45.0.2454.101]	[Action:Filtering User : MasterData Username : 08/504]	[Remarks:Success]
[Date: 2015-10-02 07:56:07]	[UserID:08/504]	[IP:10.10.11.1]	[Browser:Chrome - 45.0.2454.101]	[Action:Closing mssql connection]	[Remarks:Success]
[Date: 2015-10-02 07:56:07]	[UserID:08/504]	[IP:10.10.11.1]	[Browser:Chrome - 45.0.2454.101]	[Action:Making connection to server]	[Remarks:Successful connection to server: S3]
[Date: 2015-10-02 07:56:07]	[UserID:08/504]	[IP:10.10.11.1]	[Browser:Chrome - 45.0.2454.101]	[Action:GetProgramList 08/504]	[Remarks:[{"ID":"1","ProgramIndex":"GST","ProgramName":"GST"}]]
[Date: 2015-10-02 07:56:07]	[UserID:08/504]	[IP:10.10.11.1]	[Browser:Chrome - 45.0.2454.101]	[Action:Making connection to server]	[Remarks:Successful connection to server: S3]
[Date: 2015-10-02 07:56:07]	[UserID:08/504]	[IP:10.10.11.1]	[Browser:Chrome - 45.0.2454.101]	[Action:GetProgramList 08/504]	[Remarks:[{"ID":"1","ProgramIndex":"GST","ProgramName":"GST"}]]
[Date: 2015-10-02 07:56:07]	[UserID:08/504]	[IP:10.10.11.1]	[Browser:Chrome - 45.0.2454.101]	[Action:Making connection to server]	[Remarks:Successful connection to server: S3]
[Date: 2015-10-02 07:56:07]	[UserID:08/504]	[IP:10.10.11.1]	[Browser:Chrome - 45.0.2454.101]	[Action:Filtering User : MasterData Username : 08/504]	[Remarks:Successful filter row count: 1]
[Date: 2015-10-02 07:56:08]	[UserID:08/504]	[IP:10.10.11.1]	[Browser:Chrome - 45.0.2454.101]	[Action:Making connection to server]	[Remarks:Successful connection to server: S3]
[Date: 2015-10-02 07:56:08]	[UserID:08/504]	[IP:10.10.11.1]	[Browser:Chrome - 45.0.2454.101]	[Action:GetGSTModules 08/504,1]	[Remarks:Successful filter row count: 3]
[Date: 2015-10-02 07:56:08]	[UserID:08/504]	[IP:10.10.11.1]	[Browser:Chrome - 45.0.2454.101]	[Action:Closing mssql connection]	[Remarks:Success]
[Date: 2015-10-02 08:05:51]	[UserID:08/504]	[IP:10.10.11.1]	[Browser:Chrome - 45.0.2454.101]	[Action:Making connection to server]	[Remarks:Successful connection to server: S3]
[Date: 2015-10-02 08:05:51]	[UserID:08/504]	[IP:10.10.11.1]	[Browser:Chrome - 45.0.2454.101]	[Action:GetGSTModules 08/504,1]	[Remarks:Successful filter row count: 3]
[Date: 2015-10-02 08:05:51]	[UserID:08/504]	[IP:10.10.11.1]	[Browser:Chrome - 45.0.2454.101]	[Action:Closing mssql connection]	[Remarks:Success]
[Date: 2015-10-02 08:11:22]	[UserID:08/504]	[IP:10.10.11.1]	[Browser:Chrome - 45.0.2454.101]	[Action:Making connection to server]	[Remarks:Successful connection to server: S3]
[Date: 2015-10-02 08:11:22]	[UserID:08/504]	[IP:10.10.11.1]	[Browser:Chrome - 45.0.2454.101]	[Action:GetGSTModules 08/504,1]	[Remarks:Successful filter row count: 3]
[Date: 2015-10-02 08:11:22]	[UserID:08/504]	[IP:10.10.11.1]	[Browser:Chrome - 45.0.2454.101]	[Action:Closing mssql connection]	[Remarks:Success]
[Date: 2015-10-02 08:32:23]	[UserID:]	[IP:10.10.11.1]	[Browser:Chrome - 45.0.2454.101]	[Action:Making connection to server]	[Remarks:Successful connection to server: S3]
[Date: 2015-10-02 08:32:23]	[UserID:]	[IP:10.10.11.1]	[Browser:Chrome - 45.0.2454.101]	[Action:GetProgramList ]	[Remarks:"no data"]
[Date: 2015-10-02 08:32:26]	[UserID:10/660]	[IP:10.10.11.1]	[Browser:Chrome - 45.0.2454.101]	[Action:Making connection to server]	[Remarks:Successful connection to server: S3]
[Date: 2015-10-02 08:32:26]	[UserID:10/660]	[IP:10.10.11.1]	[Browser:Chrome - 45.0.2454.101]	[Action:User 10/660]	[Remarks:Success]
[Date: 2015-10-02 08:32:26]	[UserID:10/660]	[IP:10.10.11.1]	[Browser:Chrome - 45.0.2454.101]	[Action:Filtering User : MasterData Username : 10/660]	[Remarks:Successful filter row count: 0]
[Date: 2015-10-02 08:32:26]	[UserID:10/660]	[IP:10.10.11.1]	[Browser:Chrome - 45.0.2454.101]	[Action:Filtering User : MasterData Username : 10/660]	[Remarks:Successful filter row count: 0]
[Date: 2015-10-02 08:32:26]	[UserID:10/660]	[IP:10.10.11.1]	[Browser:Chrome - 45.0.2454.101]	[Action:Filtering User : MasterData Username : 10/660]	[Remarks:Success]
[Date: 2015-10-02 08:32:26]	[UserID:10/660]	[IP:10.10.11.1]	[Browser:Chrome - 45.0.2454.101]	[Action:Closing mssql connection]	[Remarks:Success]
[Date: 2015-10-02 08:32:26]	[UserID:10/660]	[IP:10.10.11.1]	[Browser:Chrome - 45.0.2454.101]	[Action:Making connection to server]	[Remarks:Successful connection to server: S3]
[Date: 2015-10-02 08:32:26]	[UserID:10/660]	[IP:10.10.11.1]	[Browser:Chrome - 45.0.2454.101]	[Action:GetProgramList 10/660]	[Remarks:[{"ID":"1","ProgramIndex":"GST","ProgramName":"GST"}]]
[Date: 2015-10-02 08:32:26]	[UserID:10/660]	[IP:10.10.11.1]	[Browser:Chrome - 45.0.2454.101]	[Action:Making connection to server]	[Remarks:Successful connection to server: S3]
[Date: 2015-10-02 08:32:26]	[UserID:10/660]	[IP:10.10.11.1]	[Browser:Chrome - 45.0.2454.101]	[Action:GetProgramList 10/660]	[Remarks:[{"ID":"1","ProgramIndex":"GST","ProgramName":"GST"}]]
[Date: 2015-10-02 08:32:26]	[UserID:10/660]	[IP:10.10.11.1]	[Browser:Chrome - 45.0.2454.101]	[Action:Making connection to server]	[Remarks:Successful connection to server: S3]
[Date: 2015-10-02 08:32:26]	[UserID:10/660]	[IP:10.10.11.1]	[Browser:Chrome - 45.0.2454.101]	[Action:Filtering User : MasterData Username : 10/660]	[Remarks:Successful filter row count: 1]
[Date: 2015-10-02 08:32:27]	[UserID:10/660]	[IP:10.10.11.1]	[Browser:Chrome - 45.0.2454.101]	[Action:Making connection to server]	[Remarks:Successful connection to server: S3]
[Date: 2015-10-02 08:32:27]	[UserID:10/660]	[IP:10.10.11.1]	[Browser:Chrome - 45.0.2454.101]	[Action:GetGSTModules 10/660,1]	[Remarks:Successful filter row count: 3]
[Date: 2015-10-02 08:32:27]	[UserID:10/660]	[IP:10.10.11.1]	[Browser:Chrome - 45.0.2454.101]	[Action:Closing mssql connection]	[Remarks:Success]
[Date: 2015-10-02 08:35:07]	[UserID:08/504]	[IP:10.10.11.1]	[Browser:Chrome - 45.0.2454.101]	[Action:Making connection to server]	[Remarks:Successful connection to server: S3]
[Date: 2015-10-02 08:35:08]	[UserID:08/504]	[IP:10.10.11.1]	[Browser:Chrome - 45.0.2454.101]	[Action:GetGSTModules 08/504,1]	[Remarks:Successful filter row count: 3]
[Date: 2015-10-02 08:35:08]	[UserID:08/504]	[IP:10.10.11.1]	[Browser:Chrome - 45.0.2454.101]	[Action:Closing mssql connection]	[Remarks:Success]
[Date: 2015-10-02 08:42:39]	[UserID:10/660]	[IP:10.10.11.1]	[Browser:Chrome - 45.0.2454.101]	[Action:Making connection to server]	[Remarks:Successful connection to server: S3]
[Date: 2015-10-02 08:42:39]	[UserID:10/660]	[IP:10.10.11.1]	[Browser:Chrome - 45.0.2454.101]	[Action:GetGSTModules 10/660,1]	[Remarks:Successful filter row count: 3]
[Date: 2015-10-02 08:42:39]	[UserID:10/660]	[IP:10.10.11.1]	[Browser:Chrome - 45.0.2454.101]	[Action:Closing mssql connection]	[Remarks:Success]
[Date: 2015-10-02 08:42:43]	[UserID:10/660]	[IP:10.10.11.1]	[Browser:Chrome - 45.0.2454.101]	[Action:Making connection to server]	[Remarks:Successful connection to server: S3]
[Date: 2015-10-02 08:42:43]	[UserID:10/660]	[IP:10.10.11.1]	[Browser:Chrome - 45.0.2454.101]	[Action:GetGSTModules 10/660,1]	[Remarks:Successful filter row count: 3]
[Date: 2015-10-02 08:42:43]	[UserID:10/660]	[IP:10.10.11.1]	[Browser:Chrome - 45.0.2454.101]	[Action:Closing mssql connection]	[Remarks:Success]
[Date: 2015-10-02 08:43:07]	[UserID:]	[IP:10.10.11.1]	[Browser:Chrome - 45.0.2454.101]	[Action:Making connection to server]	[Remarks:Successful connection to server: S3]
[Date: 2015-10-02 08:43:07]	[UserID:]	[IP:10.10.11.1]	[Browser:Chrome - 45.0.2454.101]	[Action:GetProgramList ]	[Remarks:"no data"]
[Date: 2015-10-02 09:37:32]	[UserID:]	[IP:10.10.11.1]	[Browser:Chrome - 45.0.2454.101]	[Action:Making connection to server]	[Remarks:Successful connection to server: S3]
[Date: 2015-10-02 09:37:32]	[UserID:]	[IP:10.10.11.1]	[Browser:Chrome - 45.0.2454.101]	[Action:GetProgramList ]	[Remarks:"no data"]
[Date: 2015-10-02 09:37:35]	[UserID:10/660]	[IP:10.10.11.1]	[Browser:Chrome - 45.0.2454.101]	[Action:Making connection to server]	[Remarks:Successful connection to server: S3]
[Date: 2015-10-02 09:37:35]	[UserID:10/660]	[IP:10.10.11.1]	[Browser:Chrome - 45.0.2454.101]	[Action:User 10/660]	[Remarks:Success]
[Date: 2015-10-02 09:37:35]	[UserID:10/660]	[IP:10.10.11.1]	[Browser:Chrome - 45.0.2454.101]	[Action:Filtering User : MasterData Username : 10/660]	[Remarks:Successful filter row count: 0]
[Date: 2015-10-02 09:37:35]	[UserID:10/660]	[IP:10.10.11.1]	[Browser:Chrome - 45.0.2454.101]	[Action:Filtering User : MasterData Username : 10/660]	[Remarks:Successful filter row count: 0]
[Date: 2015-10-02 09:37:35]	[UserID:10/660]	[IP:10.10.11.1]	[Browser:Chrome - 45.0.2454.101]	[Action:Filtering User : MasterData Username : 10/660]	[Remarks:Success]
[Date: 2015-10-02 09:37:35]	[UserID:10/660]	[IP:10.10.11.1]	[Browser:Chrome - 45.0.2454.101]	[Action:Closing mssql connection]	[Remarks:Success]
[Date: 2015-10-02 09:37:35]	[UserID:10/660]	[IP:10.10.11.1]	[Browser:Chrome - 45.0.2454.101]	[Action:Making connection to server]	[Remarks:Successful connection to server: S3]
[Date: 2015-10-02 09:37:35]	[UserID:10/660]	[IP:10.10.11.1]	[Browser:Chrome - 45.0.2454.101]	[Action:GetProgramList 10/660]	[Remarks:[{"ID":"1","ProgramIndex":"GST","ProgramName":"GST"}]]
[Date: 2015-10-02 09:37:35]	[UserID:10/660]	[IP:10.10.11.1]	[Browser:Chrome - 45.0.2454.101]	[Action:Making connection to server]	[Remarks:Successful connection to server: S3]
[Date: 2015-10-02 09:37:35]	[UserID:10/660]	[IP:10.10.11.1]	[Browser:Chrome - 45.0.2454.101]	[Action:GetProgramList 10/660]	[Remarks:[{"ID":"1","ProgramIndex":"GST","ProgramName":"GST"}]]
[Date: 2015-10-02 09:37:35]	[UserID:10/660]	[IP:10.10.11.1]	[Browser:Chrome - 45.0.2454.101]	[Action:Making connection to server]	[Remarks:Successful connection to server: S3]
[Date: 2015-10-02 09:37:35]	[UserID:10/660]	[IP:10.10.11.1]	[Browser:Chrome - 45.0.2454.101]	[Action:Filtering User : MasterData Username : 10/660]	[Remarks:Successful filter row count: 1]
[Date: 2015-10-02 09:37:36]	[UserID:10/660]	[IP:10.10.11.1]	[Browser:Chrome - 45.0.2454.101]	[Action:Making connection to server]	[Remarks:Successful connection to server: S3]
[Date: 2015-10-02 09:37:36]	[UserID:10/660]	[IP:10.10.11.1]	[Browser:Chrome - 45.0.2454.101]	[Action:GetGSTModules 10/660,1]	[Remarks:Successful filter row count: 3]
[Date: 2015-10-02 09:37:36]	[UserID:10/660]	[IP:10.10.11.1]	[Browser:Chrome - 45.0.2454.101]	[Action:Closing mssql connection]	[Remarks:Success]
[Date: 2015-10-02 09:38:34]	[UserID:10/660]	[IP:10.10.11.1]	[Browser:Chrome - 45.0.2454.101]	[Action:Making connection to server]	[Remarks:Successful connection to server: S3]
[Date: 2015-10-02 09:38:34]	[UserID:10/660]	[IP:10.10.11.1]	[Browser:Chrome - 45.0.2454.101]	[Action:GetGSTModules 10/660,1]	[Remarks:Successful filter row count: 3]
[Date: 2015-10-02 09:38:34]	[UserID:10/660]	[IP:10.10.11.1]	[Browser:Chrome - 45.0.2454.101]	[Action:Closing mssql connection]	[Remarks:Success]
[Date: 2015-10-02 09:39:19]	[UserID:]	[IP:10.10.11.1]	[Browser:Chrome - 45.0.2454.101]	[Action:Making connection to server]	[Remarks:Successful connection to server: S3]
[Date: 2015-10-02 09:39:21]	[UserID:]	[IP:10.10.11.1]	[Browser:Chrome - 45.0.2454.101]	[Action:GetProgramList ]	[Remarks:"no data"]
[Date: 2015-10-02 09:45:12]	[UserID:]	[IP:10.10.11.1]	[Browser:Chrome - 45.0.2454.101]	[Action:Making connection to server]	[Remarks:Successful connection to server: S3]
[Date: 2015-10-02 09:45:13]	[UserID:]	[IP:10.10.11.1]	[Browser:Chrome - 45.0.2454.101]	[Action:GetProgramList ]	[Remarks:"no data"]
[Date: 2015-10-02 09:45:21]	[UserID:10/660]	[IP:10.10.11.1]	[Browser:Chrome - 45.0.2454.101]	[Action:Making connection to server]	[Remarks:Successful connection to server: S3]
[Date: 2015-10-02 09:45:21]	[UserID:10/660]	[IP:10.10.11.1]	[Browser:Chrome - 45.0.2454.101]	[Action:User 10/660]	[Remarks:Success]
[Date: 2015-10-02 09:45:21]	[UserID:10/660]	[IP:10.10.11.1]	[Browser:Chrome - 45.0.2454.101]	[Action:Filtering User : MasterData Username : 10/660]	[Remarks:Successful filter row count: 0]
[Date: 2015-10-02 09:45:21]	[UserID:10/660]	[IP:10.10.11.1]	[Browser:Chrome - 45.0.2454.101]	[Action:Filtering User : MasterData Username : 10/660]	[Remarks:Successful filter row count: 0]
[Date: 2015-10-02 09:45:21]	[UserID:10/660]	[IP:10.10.11.1]	[Browser:Chrome - 45.0.2454.101]	[Action:Filtering User : MasterData Username : 10/660]	[Remarks:Success]
[Date: 2015-10-02 09:45:21]	[UserID:10/660]	[IP:10.10.11.1]	[Browser:Chrome - 45.0.2454.101]	[Action:Closing mssql connection]	[Remarks:Success]
[Date: 2015-10-02 09:45:21]	[UserID:10/660]	[IP:10.10.11.1]	[Browser:Chrome - 45.0.2454.101]	[Action:Making connection to server]	[Remarks:Successful connection to server: S3]
[Date: 2015-10-02 09:45:21]	[UserID:10/660]	[IP:10.10.11.1]	[Browser:Chrome - 45.0.2454.101]	[Action:GetProgramList 10/660]	[Remarks:[{"ID":"1","ProgramIndex":"GST","ProgramName":"GST"}]]
[Date: 2015-10-02 09:45:21]	[UserID:10/660]	[IP:10.10.11.1]	[Browser:Chrome - 45.0.2454.101]	[Action:Making connection to server]	[Remarks:Successful connection to server: S3]
[Date: 2015-10-02 09:45:21]	[UserID:10/660]	[IP:10.10.11.1]	[Browser:Chrome - 45.0.2454.101]	[Action:GetProgramList 10/660]	[Remarks:[{"ID":"1","ProgramIndex":"GST","ProgramName":"GST"}]]
[Date: 2015-10-02 09:45:21]	[UserID:10/660]	[IP:10.10.11.1]	[Browser:Chrome - 45.0.2454.101]	[Action:Making connection to server]	[Remarks:Successful connection to server: S3]
[Date: 2015-10-02 09:45:21]	[UserID:10/660]	[IP:10.10.11.1]	[Browser:Chrome - 45.0.2454.101]	[Action:Filtering User : MasterData Username : 10/660]	[Remarks:Successful filter row count: 1]
[Date: 2015-10-02 09:45:22]	[UserID:10/660]	[IP:10.10.11.1]	[Browser:Chrome - 45.0.2454.101]	[Action:Making connection to server]	[Remarks:Successful connection to server: S3]
[Date: 2015-10-02 09:45:22]	[UserID:10/660]	[IP:10.10.11.1]	[Browser:Chrome - 45.0.2454.101]	[Action:GetGSTModules 10/660,1]	[Remarks:Successful filter row count: 3]
[Date: 2015-10-02 09:45:22]	[UserID:10/660]	[IP:10.10.11.1]	[Browser:Chrome - 45.0.2454.101]	[Action:Closing mssql connection]	[Remarks:Success]
[Date: 2015-10-02 09:51:06]	[UserID:10/660]	[IP:10.10.11.1]	[Browser:Chrome - 45.0.2454.101]	[Action:Making connection to server]	[Remarks:Successful connection to server: S3]
[Date: 2015-10-02 09:51:06]	[UserID:10/660]	[IP:10.10.11.1]	[Browser:Chrome - 45.0.2454.101]	[Action:GetGSTModules 10/660,1]	[Remarks:Successful filter row count: 3]
[Date: 2015-10-02 09:51:06]	[UserID:10/660]	[IP:10.10.11.1]	[Browser:Chrome - 45.0.2454.101]	[Action:Closing mssql connection]	[Remarks:Success]
[Date: 2015-10-02 09:54:50]	[UserID:]	[IP:10.10.11.1]	[Browser:Chrome - 45.0.2454.101]	[Action:Making connection to server]	[Remarks:Successful connection to server: S3]
[Date: 2015-10-02 09:54:50]	[UserID:]	[IP:10.10.11.1]	[Browser:Chrome - 45.0.2454.101]	[Action:GetProgramList ]	[Remarks:"no data"]
[Date: 2015-10-02 10:09:17]	[UserID:06/343]	[IP:10.10.11.1]	[Browser:Chrome - 45.0.2454.101]	[Action:Making connection to server]	[Remarks:Successful connection to server: S3]
[Date: 2015-10-02 10:09:17]	[UserID:06/343]	[IP:10.10.11.1]	[Browser:Chrome - 45.0.2454.101]	[Action:User 06/343]	[Remarks:Success]
[Date: 2015-10-02 10:09:17]	[UserID:06/343]	[IP:10.10.11.1]	[Browser:Chrome - 45.0.2454.101]	[Action:Filtering User : MasterData Username : 06/343]	[Remarks:Successful filter row count: 0]
[Date: 2015-10-02 10:09:17]	[UserID:06/343]	[IP:10.10.11.1]	[Browser:Chrome - 45.0.2454.101]	[Action:Filtering User : MasterData Username : 06/343]	[Remarks:Successful filter row count: 0]
[Date: 2015-10-02 10:09:17]	[UserID:06/343]	[IP:10.10.11.1]	[Browser:Chrome - 45.0.2454.101]	[Action:Filtering User : MasterData Username : 06/343]	[Remarks:Success]
[Date: 2015-10-02 10:09:17]	[UserID:06/343]	[IP:10.10.11.1]	[Browser:Chrome - 45.0.2454.101]	[Action:Closing mssql connection]	[Remarks:Success]
[Date: 2015-10-02 10:09:18]	[UserID:06/343]	[IP:10.10.11.1]	[Browser:Chrome - 45.0.2454.101]	[Action:Making connection to server]	[Remarks:Successful connection to server: S3]
[Date: 2015-10-02 10:09:18]	[UserID:06/343]	[IP:10.10.11.1]	[Browser:Chrome - 45.0.2454.101]	[Action:GetProgramList 06/343]	[Remarks:[{"ID":"1","ProgramIndex":"GST","ProgramName":"GST"}]]
[Date: 2015-10-02 10:09:18]	[UserID:06/343]	[IP:10.10.11.1]	[Browser:Chrome - 45.0.2454.101]	[Action:Making connection to server]	[Remarks:Successful connection to server: S3]
[Date: 2015-10-02 10:09:18]	[UserID:06/343]	[IP:10.10.11.1]	[Browser:Chrome - 45.0.2454.101]	[Action:GetProgramList 06/343]	[Remarks:[{"ID":"1","ProgramIndex":"GST","ProgramName":"GST"}]]
[Date: 2015-10-02 10:09:18]	[UserID:06/343]	[IP:10.10.11.1]	[Browser:Chrome - 45.0.2454.101]	[Action:Making connection to server]	[Remarks:Successful connection to server: S3]
[Date: 2015-10-02 10:09:18]	[UserID:06/343]	[IP:10.10.11.1]	[Browser:Chrome - 45.0.2454.101]	[Action:Filtering User : MasterData Username : 06/343]	[Remarks:Successful filter row count: 1]
[Date: 2015-10-02 10:09:18]	[UserID:06/343]	[IP:10.10.11.1]	[Browser:Chrome - 45.0.2454.101]	[Action:Making connection to server]	[Remarks:Successful connection to server: S3]
[Date: 2015-10-02 10:09:18]	[UserID:06/343]	[IP:10.10.11.1]	[Browser:Chrome - 45.0.2454.101]	[Action:GetGSTModules 06/343,1]	[Remarks:Successful filter row count: 5]
[Date: 2015-10-02 10:09:18]	[UserID:06/343]	[IP:10.10.11.1]	[Browser:Chrome - 45.0.2454.101]	[Action:Closing mssql connection]	[Remarks:Success]
[Date: 2015-10-02 10:12:22]	[UserID:06/343]	[IP:10.10.11.1]	[Browser:Chrome - 45.0.2454.101]	[Action:Making connection to server]	[Remarks:Successful connection to server: S3]
[Date: 2015-10-02 10:12:22]	[UserID:06/343]	[IP:10.10.11.1]	[Browser:Chrome - 45.0.2454.101]	[Action:GetGSTModules 06/343,1]	[Remarks:Successful filter row count: 5]
[Date: 2015-10-02 10:12:22]	[UserID:06/343]	[IP:10.10.11.1]	[Browser:Chrome - 45.0.2454.101]	[Action:Closing mssql connection]	[Remarks:Success]
[Date: 2015-10-02 10:23:46]	[UserID:06/343]	[IP:10.10.11.1]	[Browser:Chrome - 45.0.2454.101]	[Action:Making connection to server]	[Remarks:Successful connection to server: S3]
[Date: 2015-10-02 10:23:46]	[UserID:06/343]	[IP:10.10.11.1]	[Browser:Chrome - 45.0.2454.101]	[Action:GetGSTModules 06/343,1]	[Remarks:Successful filter row count: 5]
[Date: 2015-10-02 10:23:46]	[UserID:06/343]	[IP:10.10.11.1]	[Browser:Chrome - 45.0.2454.101]	[Action:Closing mssql connection]	[Remarks:Success]
[Date: 2015-10-02 10:23:54]	[UserID:]	[IP:10.10.11.1]	[Browser:Chrome - 45.0.2454.101]	[Action:Making connection to server]	[Remarks:Successful connection to server: S3]
[Date: 2015-10-02 10:23:54]	[UserID:]	[IP:10.10.11.1]	[Browser:Chrome - 45.0.2454.101]	[Action:GetProgramList ]	[Remarks:"no data"]
[Date: 2015-10-02 10:23:57]	[UserID:10/660]	[IP:10.10.11.1]	[Browser:Chrome - 45.0.2454.101]	[Action:Making connection to server]	[Remarks:Successful connection to server: S3]
[Date: 2015-10-02 10:23:57]	[UserID:10/660]	[IP:10.10.11.1]	[Browser:Chrome - 45.0.2454.101]	[Action:User 10/660]	[Remarks:Success]
[Date: 2015-10-02 10:23:57]	[UserID:10/660]	[IP:10.10.11.1]	[Browser:Chrome - 45.0.2454.101]	[Action:Filtering User : MasterData Username : 10/660]	[Remarks:Successful filter row count: 0]
[Date: 2015-10-02 10:23:57]	[UserID:10/660]	[IP:10.10.11.1]	[Browser:Chrome - 45.0.2454.101]	[Action:Filtering User : MasterData Username : 10/660]	[Remarks:Successful filter row count: 0]
[Date: 2015-10-02 10:23:57]	[UserID:10/660]	[IP:10.10.11.1]	[Browser:Chrome - 45.0.2454.101]	[Action:Filtering User : MasterData Username : 10/660]	[Remarks:Success]
[Date: 2015-10-02 10:23:57]	[UserID:10/660]	[IP:10.10.11.1]	[Browser:Chrome - 45.0.2454.101]	[Action:Closing mssql connection]	[Remarks:Success]
[Date: 2015-10-02 10:23:57]	[UserID:10/660]	[IP:10.10.11.1]	[Browser:Chrome - 45.0.2454.101]	[Action:Making connection to server]	[Remarks:Successful connection to server: S3]
[Date: 2015-10-02 10:23:57]	[UserID:10/660]	[IP:10.10.11.1]	[Browser:Chrome - 45.0.2454.101]	[Action:GetProgramList 10/660]	[Remarks:[{"ID":"1","ProgramIndex":"GST","ProgramName":"GST"}]]
[Date: 2015-10-02 10:23:57]	[UserID:10/660]	[IP:10.10.11.1]	[Browser:Chrome - 45.0.2454.101]	[Action:Making connection to server]	[Remarks:Successful connection to server: S3]
[Date: 2015-10-02 10:23:57]	[UserID:10/660]	[IP:10.10.11.1]	[Browser:Chrome - 45.0.2454.101]	[Action:GetProgramList 10/660]	[Remarks:[{"ID":"1","ProgramIndex":"GST","ProgramName":"GST"}]]
[Date: 2015-10-02 10:23:57]	[UserID:10/660]	[IP:10.10.11.1]	[Browser:Chrome - 45.0.2454.101]	[Action:Making connection to server]	[Remarks:Successful connection to server: S3]
[Date: 2015-10-02 10:23:57]	[UserID:10/660]	[IP:10.10.11.1]	[Browser:Chrome - 45.0.2454.101]	[Action:Filtering User : MasterData Username : 10/660]	[Remarks:Successful filter row count: 1]
[Date: 2015-10-02 10:23:58]	[UserID:10/660]	[IP:10.10.11.1]	[Browser:Chrome - 45.0.2454.101]	[Action:Making connection to server]	[Remarks:Successful connection to server: S3]
[Date: 2015-10-02 10:23:58]	[UserID:10/660]	[IP:10.10.11.1]	[Browser:Chrome - 45.0.2454.101]	[Action:GetGSTModules 10/660,1]	[Remarks:Successful filter row count: 3]
[Date: 2015-10-02 10:23:58]	[UserID:10/660]	[IP:10.10.11.1]	[Browser:Chrome - 45.0.2454.101]	[Action:Closing mssql connection]	[Remarks:Success]
[Date: 2015-10-02 10:35:05]	[UserID:10/660]	[IP:10.10.11.1]	[Browser:Chrome - 45.0.2454.101]	[Action:Making connection to server]	[Remarks:Successful connection to server: S3]
[Date: 2015-10-02 10:35:07]	[UserID:10/660]	[IP:10.10.11.1]	[Browser:Chrome - 45.0.2454.101]	[Action:GetGSTModules 10/660,1]	[Remarks:Successful filter row count: 3]
[Date: 2015-10-02 10:35:07]	[UserID:10/660]	[IP:10.10.11.1]	[Browser:Chrome - 45.0.2454.101]	[Action:Closing mssql connection]	[Remarks:Success]
[Date: 2015-10-02 10:37:37]	[UserID:]	[IP:10.10.11.1]	[Browser:Chrome - 45.0.2454.101]	[Action:Making connection to server]	[Remarks:Successful connection to server: S3]
[Date: 2015-10-02 10:37:37]	[UserID:]	[IP:10.10.11.1]	[Browser:Chrome - 45.0.2454.101]	[Action:GetProgramList ]	[Remarks:"no data"]
[Date: 2015-10-02 10:57:49]	[UserID:]	[IP:10.10.11.1]	[Browser:Chrome - 45.0.2454.101]	[Action:Making connection to server]	[Remarks:Successful connection to server: S3]
[Date: 2015-10-02 10:57:49]	[UserID:]	[IP:10.10.11.1]	[Browser:Chrome - 45.0.2454.101]	[Action:GetProgramList ]	[Remarks:"no data"]
[Date: 2015-10-02 10:57:51]	[UserID:11/715]	[IP:10.10.11.1]	[Browser:Chrome - 45.0.2454.101]	[Action:Making connection to server]	[Remarks:Successful connection to server: S3]
[Date: 2015-10-02 10:57:51]	[UserID:11/715]	[IP:10.10.11.1]	[Browser:Chrome - 45.0.2454.101]	[Action:User 11/715]	[Remarks:Success]
[Date: 2015-10-02 10:57:51]	[UserID:11/715]	[IP:10.10.11.1]	[Browser:Chrome - 45.0.2454.101]	[Action:Filtering User : MasterData Username : 11/715]	[Remarks:Successful filter row count: 0]
[Date: 2015-10-02 10:57:51]	[UserID:11/715]	[IP:10.10.11.1]	[Browser:Chrome - 45.0.2454.101]	[Action:Filtering User : MasterData Username : 11/715]	[Remarks:Successful filter row count: 0]
[Date: 2015-10-02 10:57:51]	[UserID:11/715]	[IP:10.10.11.1]	[Browser:Chrome - 45.0.2454.101]	[Action:Filtering User : MasterData Username : 11/715]	[Remarks:Success]
[Date: 2015-10-02 10:57:51]	[UserID:11/715]	[IP:10.10.11.1]	[Browser:Chrome - 45.0.2454.101]	[Action:Closing mssql connection]	[Remarks:Success]
[Date: 2015-10-02 10:57:51]	[UserID:11/715]	[IP:10.10.11.1]	[Browser:Chrome - 45.0.2454.101]	[Action:Making connection to server]	[Remarks:Successful connection to server: S3]
[Date: 2015-10-02 10:57:51]	[UserID:11/715]	[IP:10.10.11.1]	[Browser:Chrome - 45.0.2454.101]	[Action:GetProgramList 11/715]	[Remarks:[{"ID":"1","ProgramIndex":"GST","ProgramName":"GST"}]]
[Date: 2015-10-02 10:57:51]	[UserID:11/715]	[IP:10.10.11.1]	[Browser:Chrome - 45.0.2454.101]	[Action:Making connection to server]	[Remarks:Successful connection to server: S3]
[Date: 2015-10-02 10:57:51]	[UserID:11/715]	[IP:10.10.11.1]	[Browser:Chrome - 45.0.2454.101]	[Action:GetProgramList 11/715]	[Remarks:[{"ID":"1","ProgramIndex":"GST","ProgramName":"GST"}]]
[Date: 2015-10-02 10:57:51]	[UserID:11/715]	[IP:10.10.11.1]	[Browser:Chrome - 45.0.2454.101]	[Action:Making connection to server]	[Remarks:Successful connection to server: S3]
[Date: 2015-10-02 10:57:51]	[UserID:11/715]	[IP:10.10.11.1]	[Browser:Chrome - 45.0.2454.101]	[Action:Filtering User : MasterData Username : 11/715]	[Remarks:Successful filter row count: 1]
[Date: 2015-10-02 10:57:52]	[UserID:11/715]	[IP:10.10.11.1]	[Browser:Chrome - 45.0.2454.101]	[Action:Making connection to server]	[Remarks:Successful connection to server: S3]
[Date: 2015-10-02 10:57:52]	[UserID:11/715]	[IP:10.10.11.1]	[Browser:Chrome - 45.0.2454.101]	[Action:GetGSTModules 11/715,1]	[Remarks:Successful filter row count: 3]
[Date: 2015-10-02 10:57:52]	[UserID:11/715]	[IP:10.10.11.1]	[Browser:Chrome - 45.0.2454.101]	[Action:Closing mssql connection]	[Remarks:Success]
[Date: 2015-10-02 11:02:46]	[UserID:11/715]	[IP:10.10.11.1]	[Browser:Chrome - 45.0.2454.101]	[Action:Making connection to server]	[Remarks:Successful connection to server: S3]
[Date: 2015-10-02 11:02:46]	[UserID:11/715]	[IP:10.10.11.1]	[Browser:Chrome - 45.0.2454.101]	[Action:GetGSTModules 11/715,1]	[Remarks:Successful filter row count: 3]
[Date: 2015-10-02 11:02:46]	[UserID:11/715]	[IP:10.10.11.1]	[Browser:Chrome - 45.0.2454.101]	[Action:Closing mssql connection]	[Remarks:Success]
[Date: 2015-10-02 11:04:11]	[UserID:11/715]	[IP:10.10.11.1]	[Browser:Chrome - 45.0.2454.101]	[Action:Making connection to server]	[Remarks:Successful connection to server: S3]
[Date: 2015-10-02 11:04:11]	[UserID:11/715]	[IP:10.10.11.1]	[Browser:Chrome - 45.0.2454.101]	[Action:GetGSTModules 11/715,1]	[Remarks:Successful filter row count: 3]
[Date: 2015-10-02 11:04:11]	[UserID:11/715]	[IP:10.10.11.1]	[Browser:Chrome - 45.0.2454.101]	[Action:Closing mssql connection]	[Remarks:Success]
[Date: 2015-10-02 11:51:35]	[UserID:08/504]	[IP:10.10.11.1]	[Browser:Chrome - 45.0.2454.101]	[Action:Making connection to server]	[Remarks:Successful connection to server: S3]
[Date: 2015-10-02 11:51:35]	[UserID:08/504]	[IP:10.10.11.1]	[Browser:Chrome - 45.0.2454.101]	[Action:GetProgramList 08/504]	[Remarks:[{"ID":"1","ProgramIndex":"GST","ProgramName":"GST"}]]
[Date: 2015-10-02 11:51:35]	[UserID:08/504]	[IP:10.10.11.1]	[Browser:Chrome - 45.0.2454.101]	[Action:Making connection to server]	[Remarks:Successful connection to server: S3]
[Date: 2015-10-02 11:51:35]	[UserID:08/504]	[IP:10.10.11.1]	[Browser:Chrome - 45.0.2454.101]	[Action:GetProgramList 08/504]	[Remarks:[{"ID":"1","ProgramIndex":"GST","ProgramName":"GST"}]]
[Date: 2015-10-02 11:51:35]	[UserID:08/504]	[IP:10.10.11.1]	[Browser:Chrome - 45.0.2454.101]	[Action:Making connection to server]	[Remarks:Successful connection to server: S3]
[Date: 2015-10-02 11:51:35]	[UserID:08/504]	[IP:10.10.11.1]	[Browser:Chrome - 45.0.2454.101]	[Action:Filtering User : MasterData Username : 08/504]	[Remarks:Successful filter row count: 1]
[Date: 2015-10-02 11:51:36]	[UserID:08/504]	[IP:10.10.11.1]	[Browser:Chrome - 45.0.2454.101]	[Action:Making connection to server]	[Remarks:Successful connection to server: S3]
[Date: 2015-10-02 11:51:36]	[UserID:08/504]	[IP:10.10.11.1]	[Browser:Chrome - 45.0.2454.101]	[Action:GetGSTModules 08/504,1]	[Remarks:Successful filter row count: 3]
[Date: 2015-10-02 11:51:36]	[UserID:08/504]	[IP:10.10.11.1]	[Browser:Chrome - 45.0.2454.101]	[Action:Closing mssql connection]	[Remarks:Success]
[Date: 2015-10-02 13:31:44]	[UserID:]	[IP:10.10.11.1]	[Browser:Google favicon]	[Action:Making connection to server]	[Remarks:Successful connection to server: S3]
[Date: 2015-10-02 13:31:44]	[UserID:]	[IP:10.10.11.1]	[Browser:Google favicon]	[Action:GetProgramList ]	[Remarks:"no data"]
