[Date: 2018-10-04 09:09:42]	[UserID:]	[IP:10.128.12.113]	[Browser:Chrome - 69.0.3497.100]	[Action:Making connection to server]	[Remarks:Successful connection to server: S3]
[Date: 2018-10-04 09:09:42]	[UserID:]	[IP:10.128.12.113]	[Browser:Chrome - 69.0.3497.100]	[Action:GetProgramList ]	[Remarks:"no data"]
[Date: 2018-10-04 09:09:44]	[UserID:06/343]	[IP:10.128.12.113]	[Browser:Chrome - 69.0.3497.100]	[Action:Making connection to server]	[Remarks:Successful connection to server: S3]
[Date: 2018-10-04 09:09:44]	[UserID:06/343]	[IP:10.128.12.113]	[Browser:Chrome - 69.0.3497.100]	[Action:User 06/343]	[Remarks:Success]
[Date: 2018-10-04 09:09:44]	[UserID:06/343]	[IP:10.128.12.113]	[Browser:Chrome - 69.0.3497.100]	[Action:Filtering User : MasterData Username : 06/343]	[Remarks:Successful filter row count: 0]
[Date: 2018-10-04 09:09:44]	[UserID:06/343]	[IP:10.128.12.113]	[Browser:Chrome - 69.0.3497.100]	[Action:Filtering User : MasterData Username : 06/343]	[Remarks:Successful filter row count: 0]
[Date: 2018-10-04 09:09:44]	[UserID:06/343]	[IP:10.128.12.113]	[Browser:Chrome - 69.0.3497.100]	[Action:Filtering User : MasterData Username : 06/343]	[Remarks:Success]
[Date: 2018-10-04 09:09:44]	[UserID:06/343]	[IP:10.128.12.113]	[Browser:Chrome - 69.0.3497.100]	[Action:Closing mssql connection]	[Remarks:Success]
[Date: 2018-10-04 09:09:44]	[UserID:06/343]	[IP:10.128.12.113]	[Browser:Chrome - 69.0.3497.100]	[Action:Making connection to server]	[Remarks:Successful connection to server: S3]
[Date: 2018-10-04 09:09:44]	[UserID:06/343]	[IP:10.128.12.113]	[Browser:Chrome - 69.0.3497.100]	[Action:GetProgramList 06/343]	[Remarks:[{"ID":"1","ProgramIndex":"GST","ProgramName":"GST"}]]
[Date: 2018-10-04 09:09:44]	[UserID:06/343]	[IP:10.128.12.113]	[Browser:Chrome - 69.0.3497.100]	[Action:Making connection to server]	[Remarks:Successful connection to server: S3]
[Date: 2018-10-04 09:09:44]	[UserID:06/343]	[IP:10.128.12.113]	[Browser:Chrome - 69.0.3497.100]	[Action:GetProgramList 06/343]	[Remarks:[{"ID":"1","ProgramIndex":"GST","ProgramName":"GST"}]]
[Date: 2018-10-04 09:09:44]	[UserID:06/343]	[IP:10.128.12.113]	[Browser:Chrome - 69.0.3497.100]	[Action:Making connection to server]	[Remarks:Successful connection to server: S3]
[Date: 2018-10-04 09:09:44]	[UserID:06/343]	[IP:10.128.12.113]	[Browser:Chrome - 69.0.3497.100]	[Action:Filtering User : MasterData Username : 06/343]	[Remarks:Successful filter row count: 1]
[Date: 2018-10-04 09:09:45]	[UserID:06/343]	[IP:10.128.12.113]	[Browser:Chrome - 69.0.3497.100]	[Action:Making connection to server]	[Remarks:Successful connection to server: S3]
[Date: 2018-10-04 09:09:45]	[UserID:06/343]	[IP:10.128.12.113]	[Browser:Chrome - 69.0.3497.100]	[Action:GetGSTModules 06/343,1]	[Remarks:Successful filter row count: 6]
[Date: 2018-10-04 09:09:45]	[UserID:06/343]	[IP:10.128.12.113]	[Browser:Chrome - 69.0.3497.100]	[Action:Closing mssql connection]	[Remarks:Success]
[Date: 2018-10-04 09:15:04]	[UserID:06/343]	[IP:10.128.12.113]	[Browser:Chrome - 69.0.3497.100]	[Action:Making connection to server]	[Remarks:Successful connection to server: S3]
[Date: 2018-10-04 09:15:04]	[UserID:06/343]	[IP:10.128.12.113]	[Browser:Chrome - 69.0.3497.100]	[Action:GetGSTModules 06/343,1]	[Remarks:Successful filter row count: 6]
[Date: 2018-10-04 09:15:04]	[UserID:06/343]	[IP:10.128.12.113]	[Browser:Chrome - 69.0.3497.100]	[Action:Closing mssql connection]	[Remarks:Success]
[Date: 2018-10-04 09:17:03]	[UserID:06/343]	[IP:10.128.12.113]	[Browser:Chrome - 69.0.3497.100]	[Action:Making connection to server]	[Remarks:Successful connection to server: S3]
[Date: 2018-10-04 09:17:03]	[UserID:06/343]	[IP:10.128.12.113]	[Browser:Chrome - 69.0.3497.100]	[Action:GetGSTModules 06/343,1]	[Remarks:Successful filter row count: 6]
[Date: 2018-10-04 09:17:03]	[UserID:06/343]	[IP:10.128.12.113]	[Browser:Chrome - 69.0.3497.100]	[Action:Closing mssql connection]	[Remarks:Success]
[Date: 2018-10-04 09:33:32]	[UserID:06/343]	[IP:10.128.12.113]	[Browser:Chrome - 69.0.3497.100]	[Action:Making connection to server]	[Remarks:Successful connection to server: S3]
[Date: 2018-10-04 09:33:32]	[UserID:06/343]	[IP:10.128.12.113]	[Browser:Chrome - 69.0.3497.100]	[Action:GetGSTModules 06/343,1]	[Remarks:Successful filter row count: 6]
[Date: 2018-10-04 09:33:32]	[UserID:06/343]	[IP:10.128.12.113]	[Browser:Chrome - 69.0.3497.100]	[Action:Closing mssql connection]	[Remarks:Success]
[Date: 2018-10-04 09:37:26]	[UserID:06/343]	[IP:10.128.12.113]	[Browser:Chrome - 69.0.3497.100]	[Action:Making connection to server]	[Remarks:Successful connection to server: S3]
[Date: 2018-10-04 09:37:26]	[UserID:06/343]	[IP:10.128.12.113]	[Browser:Chrome - 69.0.3497.100]	[Action:GetGSTModules 06/343,1]	[Remarks:Successful filter row count: 6]
[Date: 2018-10-04 09:37:26]	[UserID:06/343]	[IP:10.128.12.113]	[Browser:Chrome - 69.0.3497.100]	[Action:Closing mssql connection]	[Remarks:Success]
[Date: 2018-10-04 09:38:02]	[UserID:06/343]	[IP:10.128.12.113]	[Browser:Chrome - 69.0.3497.100]	[Action:Making connection to server]	[Remarks:Successful connection to server: S3]
[Date: 2018-10-04 09:38:02]	[UserID:06/343]	[IP:10.128.12.113]	[Browser:Chrome - 69.0.3497.100]	[Action:GetGSTModules 06/343,1]	[Remarks:Successful filter row count: 6]
[Date: 2018-10-04 09:38:02]	[UserID:06/343]	[IP:10.128.12.113]	[Browser:Chrome - 69.0.3497.100]	[Action:Closing mssql connection]	[Remarks:Success]
[Date: 2018-10-04 11:51:23]	[UserID:06/343]	[IP:10.128.12.113]	[Browser:Chrome - 69.0.3497.100]	[Action:Making connection to server]	[Remarks:Successful connection to server: S3]
[Date: 2018-10-04 11:51:23]	[UserID:06/343]	[IP:10.128.12.113]	[Browser:Chrome - 69.0.3497.100]	[Action:GetProgramList 06/343]	[Remarks:[{"ID":"1","ProgramIndex":"GST","ProgramName":"GST"}]]
[Date: 2018-10-04 11:51:23]	[UserID:06/343]	[IP:10.128.12.113]	[Browser:Chrome - 69.0.3497.100]	[Action:Making connection to server]	[Remarks:Successful connection to server: S3]
[Date: 2018-10-04 11:51:23]	[UserID:06/343]	[IP:10.128.12.113]	[Browser:Chrome - 69.0.3497.100]	[Action:GetProgramList 06/343]	[Remarks:[{"ID":"1","ProgramIndex":"GST","ProgramName":"GST"}]]
[Date: 2018-10-04 11:51:23]	[UserID:06/343]	[IP:10.128.12.113]	[Browser:Chrome - 69.0.3497.100]	[Action:Making connection to server]	[Remarks:Successful connection to server: S3]
[Date: 2018-10-04 11:51:23]	[UserID:06/343]	[IP:10.128.12.113]	[Browser:Chrome - 69.0.3497.100]	[Action:Filtering User : MasterData Username : 06/343]	[Remarks:Successful filter row count: 1]
[Date: 2018-10-04 11:51:24]	[UserID:06/343]	[IP:10.128.12.113]	[Browser:Chrome - 69.0.3497.100]	[Action:Making connection to server]	[Remarks:Successful connection to server: S3]
[Date: 2018-10-04 11:51:24]	[UserID:06/343]	[IP:10.128.12.113]	[Browser:Chrome - 69.0.3497.100]	[Action:GetGSTModules 06/343,1]	[Remarks:Successful filter row count: 6]
[Date: 2018-10-04 11:51:24]	[UserID:06/343]	[IP:10.128.12.113]	[Browser:Chrome - 69.0.3497.100]	[Action:Closing mssql connection]	[Remarks:Success]
[Date: 2018-10-04 11:56:38]	[UserID:06/343]	[IP:10.128.12.113]	[Browser:Chrome - 69.0.3497.100]	[Action:Making connection to server]	[Remarks:Successful connection to server: S3]
[Date: 2018-10-04 11:56:38]	[UserID:06/343]	[IP:10.128.12.113]	[Browser:Chrome - 69.0.3497.100]	[Action:GetGSTModules 06/343,1]	[Remarks:Successful filter row count: 6]
[Date: 2018-10-04 11:56:38]	[UserID:06/343]	[IP:10.128.12.113]	[Browser:Chrome - 69.0.3497.100]	[Action:Closing mssql connection]	[Remarks:Success]
[Date: 2018-10-04 12:24:10]	[UserID:06/343]	[IP:10.128.12.113]	[Browser:Chrome - 69.0.3497.100]	[Action:Making connection to server]	[Remarks:Successful connection to server: S3]
[Date: 2018-10-04 12:24:10]	[UserID:06/343]	[IP:10.128.12.113]	[Browser:Chrome - 69.0.3497.100]	[Action:GetProgramList 06/343]	[Remarks:[{"ID":"1","ProgramIndex":"GST","ProgramName":"GST"}]]
[Date: 2018-10-04 12:24:10]	[UserID:06/343]	[IP:10.128.12.113]	[Browser:Chrome - 69.0.3497.100]	[Action:Making connection to server]	[Remarks:Successful connection to server: S3]
[Date: 2018-10-04 12:24:10]	[UserID:06/343]	[IP:10.128.12.113]	[Browser:Chrome - 69.0.3497.100]	[Action:GetProgramList 06/343]	[Remarks:[{"ID":"1","ProgramIndex":"GST","ProgramName":"GST"}]]
[Date: 2018-10-04 12:24:10]	[UserID:06/343]	[IP:10.128.12.113]	[Browser:Chrome - 69.0.3497.100]	[Action:Making connection to server]	[Remarks:Successful connection to server: S3]
[Date: 2018-10-04 12:24:10]	[UserID:06/343]	[IP:10.128.12.113]	[Browser:Chrome - 69.0.3497.100]	[Action:Filtering User : MasterData Username : 06/343]	[Remarks:Successful filter row count: 1]
[Date: 2018-10-04 12:24:10]	[UserID:06/343]	[IP:10.128.12.113]	[Browser:Chrome - 69.0.3497.100]	[Action:Making connection to server]	[Remarks:Successful connection to server: S3]
[Date: 2018-10-04 12:24:10]	[UserID:06/343]	[IP:10.128.12.113]	[Browser:Chrome - 69.0.3497.100]	[Action:GetGSTModules 06/343,1]	[Remarks:Successful filter row count: 6]
[Date: 2018-10-04 12:24:10]	[UserID:06/343]	[IP:10.128.12.113]	[Browser:Chrome - 69.0.3497.100]	[Action:Closing mssql connection]	[Remarks:Success]
[Date: 2018-10-04 12:34:33]	[UserID:06/343]	[IP:10.128.12.113]	[Browser:Chrome - 69.0.3497.100]	[Action:Making connection to server]	[Remarks:Successful connection to server: S3]
[Date: 2018-10-04 12:34:33]	[UserID:06/343]	[IP:10.128.12.113]	[Browser:Chrome - 69.0.3497.100]	[Action:GetGSTModules 06/343,1]	[Remarks:Successful filter row count: 6]
[Date: 2018-10-04 12:34:33]	[UserID:06/343]	[IP:10.128.12.113]	[Browser:Chrome - 69.0.3497.100]	[Action:Closing mssql connection]	[Remarks:Success]
[Date: 2018-10-04 12:34:38]	[UserID:06/343]	[IP:10.128.12.113]	[Browser:Chrome - 69.0.3497.100]	[Action:Making connection to server]	[Remarks:Successful connection to server: S3]
[Date: 2018-10-04 12:34:39]	[UserID:06/343]	[IP:10.128.12.113]	[Browser:Chrome - 69.0.3497.100]	[Action:GetGSTModules 06/343,1]	[Remarks:Successful filter row count: 6]
[Date: 2018-10-04 12:34:39]	[UserID:06/343]	[IP:10.128.12.113]	[Browser:Chrome - 69.0.3497.100]	[Action:Closing mssql connection]	[Remarks:Success]
[Date: 2018-10-04 12:39:41]	[UserID:06/343]	[IP:10.128.12.113]	[Browser:Chrome - 69.0.3497.100]	[Action:Making connection to server]	[Remarks:Successful connection to server: S3]
[Date: 2018-10-04 12:39:42]	[UserID:06/343]	[IP:10.128.12.113]	[Browser:Chrome - 69.0.3497.100]	[Action:GetGSTModules 06/343,1]	[Remarks:Successful filter row count: 6]
[Date: 2018-10-04 12:39:42]	[UserID:06/343]	[IP:10.128.12.113]	[Browser:Chrome - 69.0.3497.100]	[Action:Closing mssql connection]	[Remarks:Success]
[Date: 2018-10-04 12:40:53]	[UserID:06/343]	[IP:10.128.12.113]	[Browser:Chrome - 69.0.3497.100]	[Action:Making connection to server]	[Remarks:Successful connection to server: S3]
[Date: 2018-10-04 12:40:53]	[UserID:06/343]	[IP:10.128.12.113]	[Browser:Chrome - 69.0.3497.100]	[Action:GetGSTModules 06/343,1]	[Remarks:Successful filter row count: 6]
[Date: 2018-10-04 12:40:53]	[UserID:06/343]	[IP:10.128.12.113]	[Browser:Chrome - 69.0.3497.100]	[Action:Closing mssql connection]	[Remarks:Success]
[Date: 2018-10-04 12:41:09]	[UserID:06/343]	[IP:10.128.12.113]	[Browser:Chrome - 69.0.3497.100]	[Action:Making connection to server]	[Remarks:Successful connection to server: S3]
[Date: 2018-10-04 12:41:09]	[UserID:06/343]	[IP:10.128.12.113]	[Browser:Chrome - 69.0.3497.100]	[Action:GetGSTModules 06/343,1]	[Remarks:Successful filter row count: 6]
[Date: 2018-10-04 12:41:09]	[UserID:06/343]	[IP:10.128.12.113]	[Browser:Chrome - 69.0.3497.100]	[Action:Closing mssql connection]	[Remarks:Success]
[Date: 2018-10-04 14:35:49]	[UserID:]	[IP:10.128.12.210]	[Browser:Chrome - 69.0.3497.100]	[Action:Making connection to server]	[Remarks:Successful connection to server: S3]
[Date: 2018-10-04 14:35:49]	[UserID:]	[IP:10.128.12.210]	[Browser:Chrome - 69.0.3497.100]	[Action:GetProgramList ]	[Remarks:"no data"]
[Date: 2018-10-04 14:36:00]	[UserID:10/660]	[IP:10.128.12.210]	[Browser:Chrome - 69.0.3497.100]	[Action:Making connection to server]	[Remarks:Successful connection to server: S3]
[Date: 2018-10-04 14:36:00]	[UserID:10/660]	[IP:10.128.12.210]	[Browser:Chrome - 69.0.3497.100]	[Action:User 10/660]	[Remarks:Success]
[Date: 2018-10-04 14:36:00]	[UserID:10/660]	[IP:10.128.12.210]	[Browser:Chrome - 69.0.3497.100]	[Action:Filtering User : MasterData Username : 10/660]	[Remarks:Successful filter row count: 0]
[Date: 2018-10-04 14:36:00]	[UserID:10/660]	[IP:10.128.12.210]	[Browser:Chrome - 69.0.3497.100]	[Action:Filtering User : MasterData Username : 10/660]	[Remarks:Successful filter row count: 0]
[Date: 2018-10-04 14:36:00]	[UserID:10/660]	[IP:10.128.12.210]	[Browser:Chrome - 69.0.3497.100]	[Action:Filtering User : MasterData Username : 10/660]	[Remarks:Success]
[Date: 2018-10-04 14:36:00]	[UserID:10/660]	[IP:10.128.12.210]	[Browser:Chrome - 69.0.3497.100]	[Action:Closing mssql connection]	[Remarks:Success]
[Date: 2018-10-04 14:36:00]	[UserID:10/660]	[IP:10.128.12.210]	[Browser:Chrome - 69.0.3497.100]	[Action:Making connection to server]	[Remarks:Successful connection to server: S3]
[Date: 2018-10-04 14:36:00]	[UserID:10/660]	[IP:10.128.12.210]	[Browser:Chrome - 69.0.3497.100]	[Action:GetProgramList 10/660]	[Remarks:[{"ID":"1","ProgramIndex":"GST","ProgramName":"GST"}]]
[Date: 2018-10-04 14:36:00]	[UserID:10/660]	[IP:10.128.12.210]	[Browser:Chrome - 69.0.3497.100]	[Action:Making connection to server]	[Remarks:Successful connection to server: S3]
[Date: 2018-10-04 14:36:00]	[UserID:10/660]	[IP:10.128.12.210]	[Browser:Chrome - 69.0.3497.100]	[Action:GetProgramList 10/660]	[Remarks:[{"ID":"1","ProgramIndex":"GST","ProgramName":"GST"}]]
[Date: 2018-10-04 14:36:00]	[UserID:10/660]	[IP:10.128.12.210]	[Browser:Chrome - 69.0.3497.100]	[Action:Making connection to server]	[Remarks:Successful connection to server: S3]
[Date: 2018-10-04 14:36:00]	[UserID:10/660]	[IP:10.128.12.210]	[Browser:Chrome - 69.0.3497.100]	[Action:Filtering User : MasterData Username : 10/660]	[Remarks:Successful filter row count: 1]
[Date: 2018-10-04 14:36:01]	[UserID:10/660]	[IP:10.128.12.210]	[Browser:Chrome - 69.0.3497.100]	[Action:Making connection to server]	[Remarks:Successful connection to server: S3]
[Date: 2018-10-04 14:36:01]	[UserID:10/660]	[IP:10.128.12.210]	[Browser:Chrome - 69.0.3497.100]	[Action:GetGSTModules 10/660,1]	[Remarks:Successful filter row count: 5]
[Date: 2018-10-04 14:36:01]	[UserID:10/660]	[IP:10.128.12.210]	[Browser:Chrome - 69.0.3497.100]	[Action:Closing mssql connection]	[Remarks:Success]
[Date: 2018-10-04 14:40:04]	[UserID:10/660]	[IP:10.128.12.210]	[Browser:Chrome - 69.0.3497.100]	[Action:Making connection to server]	[Remarks:Successful connection to server: S3]
[Date: 2018-10-04 14:40:04]	[UserID:10/660]	[IP:10.128.12.210]	[Browser:Chrome - 69.0.3497.100]	[Action:GetGSTModules 10/660,1]	[Remarks:Successful filter row count: 5]
[Date: 2018-10-04 14:40:04]	[UserID:10/660]	[IP:10.128.12.210]	[Browser:Chrome - 69.0.3497.100]	[Action:Closing mssql connection]	[Remarks:Success]
[Date: 2018-10-04 14:40:24]	[UserID:]	[IP:10.128.12.210]	[Browser:Chrome - 69.0.3497.100]	[Action:Making connection to server]	[Remarks:Successful connection to server: S3]
[Date: 2018-10-04 14:40:24]	[UserID:]	[IP:10.128.12.210]	[Browser:Chrome - 69.0.3497.100]	[Action:GetProgramList ]	[Remarks:"no data"]
[Date: 2018-10-04 17:55:44]	[UserID:]	[IP:10.128.12.210]	[Browser:Chrome - 69.0.3497.100]	[Action:Making connection to server]	[Remarks:Successful connection to server: S3]
[Date: 2018-10-04 17:55:44]	[UserID:]	[IP:10.128.12.210]	[Browser:Chrome - 69.0.3497.100]	[Action:GetProgramList ]	[Remarks:"no data"]
[Date: 2018-10-04 17:55:57]	[UserID:10/660]	[IP:10.128.12.210]	[Browser:Chrome - 69.0.3497.100]	[Action:Making connection to server]	[Remarks:Successful connection to server: S3]
[Date: 2018-10-04 17:55:57]	[UserID:10/660]	[IP:10.128.12.210]	[Browser:Chrome - 69.0.3497.100]	[Action:User 10/660]	[Remarks:Success]
[Date: 2018-10-04 17:55:57]	[UserID:10/660]	[IP:10.128.12.210]	[Browser:Chrome - 69.0.3497.100]	[Action:Filtering User : MasterData Username : 10/660]	[Remarks:Successful filter row count: 0]
[Date: 2018-10-04 17:55:57]	[UserID:10/660]	[IP:10.128.12.210]	[Browser:Chrome - 69.0.3497.100]	[Action:Filtering User : MasterData Username : 10/660]	[Remarks:Successful filter row count: 0]
[Date: 2018-10-04 17:55:57]	[UserID:10/660]	[IP:10.128.12.210]	[Browser:Chrome - 69.0.3497.100]	[Action:Filtering User : MasterData Username : 10/660]	[Remarks:Success]
[Date: 2018-10-04 17:55:57]	[UserID:10/660]	[IP:10.128.12.210]	[Browser:Chrome - 69.0.3497.100]	[Action:Closing mssql connection]	[Remarks:Success]
[Date: 2018-10-04 17:55:58]	[UserID:10/660]	[IP:10.128.12.210]	[Browser:Chrome - 69.0.3497.100]	[Action:Making connection to server]	[Remarks:Successful connection to server: S3]
[Date: 2018-10-04 17:55:58]	[UserID:10/660]	[IP:10.128.12.210]	[Browser:Chrome - 69.0.3497.100]	[Action:GetProgramList 10/660]	[Remarks:[{"ID":"1","ProgramIndex":"GST","ProgramName":"GST"}]]
[Date: 2018-10-04 17:55:58]	[UserID:10/660]	[IP:10.128.12.210]	[Browser:Chrome - 69.0.3497.100]	[Action:Making connection to server]	[Remarks:Successful connection to server: S3]
[Date: 2018-10-04 17:55:58]	[UserID:10/660]	[IP:10.128.12.210]	[Browser:Chrome - 69.0.3497.100]	[Action:GetProgramList 10/660]	[Remarks:[{"ID":"1","ProgramIndex":"GST","ProgramName":"GST"}]]
[Date: 2018-10-04 17:55:58]	[UserID:10/660]	[IP:10.128.12.210]	[Browser:Chrome - 69.0.3497.100]	[Action:Making connection to server]	[Remarks:Successful connection to server: S3]
[Date: 2018-10-04 17:55:58]	[UserID:10/660]	[IP:10.128.12.210]	[Browser:Chrome - 69.0.3497.100]	[Action:Filtering User : MasterData Username : 10/660]	[Remarks:Successful filter row count: 1]
[Date: 2018-10-04 17:55:58]	[UserID:10/660]	[IP:10.128.12.210]	[Browser:Chrome - 69.0.3497.100]	[Action:Making connection to server]	[Remarks:Successful connection to server: S3]
[Date: 2018-10-04 17:55:58]	[UserID:10/660]	[IP:10.128.12.210]	[Browser:Chrome - 69.0.3497.100]	[Action:GetGSTModules 10/660,1]	[Remarks:Successful filter row count: 5]
[Date: 2018-10-04 17:55:58]	[UserID:10/660]	[IP:10.128.12.210]	[Browser:Chrome - 69.0.3497.100]	[Action:Closing mssql connection]	[Remarks:Success]
[Date: 2018-10-04 17:58:06]	[UserID:10/660]	[IP:10.128.12.210]	[Browser:Chrome - 69.0.3497.100]	[Action:Making connection to server]	[Remarks:Successful connection to server: S3]
[Date: 2018-10-04 17:58:06]	[UserID:10/660]	[IP:10.128.12.210]	[Browser:Chrome - 69.0.3497.100]	[Action:GetGSTModules 10/660,1]	[Remarks:Successful filter row count: 5]
[Date: 2018-10-04 17:58:06]	[UserID:10/660]	[IP:10.128.12.210]	[Browser:Chrome - 69.0.3497.100]	[Action:Closing mssql connection]	[Remarks:Success]
[Date: 2018-10-04 17:58:32]	[UserID:]	[IP:10.128.12.210]	[Browser:Chrome - 69.0.3497.100]	[Action:Making connection to server]	[Remarks:Successful connection to server: S3]
[Date: 2018-10-04 17:58:32]	[UserID:]	[IP:10.128.12.210]	[Browser:Chrome - 69.0.3497.100]	[Action:GetProgramList ]	[Remarks:"no data"]
[Date: 2018-10-04 18:48:12]	[UserID:]	[IP:10.128.8.171]	[Browser:Chrome - 69.0.3497.100]	[Action:Making connection to server]	[Remarks:Successful connection to server: S3]
[Date: 2018-10-04 18:48:12]	[UserID:]	[IP:10.128.8.171]	[Browser:Chrome - 69.0.3497.100]	[Action:GetProgramList ]	[Remarks:"no data"]
