[Date: 2018-02-07 08:09:33]	[UserID:]	[IP:10.128.12.113]	[Browser:Chrome - 63.0.3239.132]	[Action:Making connection to server]	[Remarks:Successful connection to server: S3]
[Date: 2018-02-07 08:09:33]	[UserID:]	[IP:10.128.12.113]	[Browser:Chrome - 63.0.3239.132]	[Action:Making connection to server]	[Remarks:Successful connection to server: S3]
[Date: 2018-02-07 08:09:33]	[UserID:]	[IP:10.128.12.113]	[Browser:Chrome - 63.0.3239.132]	[Action:GetProgramList ]	[Remarks:"no data"]
[Date: 2018-02-07 08:09:33]	[UserID:]	[IP:10.128.12.113]	[Browser:Chrome - 63.0.3239.132]	[Action:GetProgramList ]	[Remarks:"no data"]
[Date: 2018-02-07 08:09:35]	[UserID:06/343]	[IP:10.128.12.113]	[Browser:Chrome - 63.0.3239.132]	[Action:Making connection to server]	[Remarks:Successful connection to server: S3]
[Date: 2018-02-07 08:09:35]	[UserID:06/343]	[IP:10.128.12.113]	[Browser:Chrome - 63.0.3239.132]	[Action:User 06/343]	[Remarks:Success]
[Date: 2018-02-07 08:09:35]	[UserID:06/343]	[IP:10.128.12.113]	[Browser:Chrome - 63.0.3239.132]	[Action:Filtering User : MasterData Username : 06/343]	[Remarks:Successful filter row count: 0]
[Date: 2018-02-07 08:09:35]	[UserID:06/343]	[IP:10.128.12.113]	[Browser:Chrome - 63.0.3239.132]	[Action:Filtering User : MasterData Username : 06/343]	[Remarks:Successful filter row count: 0]
[Date: 2018-02-07 08:09:35]	[UserID:06/343]	[IP:10.128.12.113]	[Browser:Chrome - 63.0.3239.132]	[Action:Filtering User : MasterData Username : 06/343]	[Remarks:Success]
[Date: 2018-02-07 08:09:35]	[UserID:06/343]	[IP:10.128.12.113]	[Browser:Chrome - 63.0.3239.132]	[Action:Closing mssql connection]	[Remarks:Success]
[Date: 2018-02-07 08:09:35]	[UserID:06/343]	[IP:10.128.12.113]	[Browser:Chrome - 63.0.3239.132]	[Action:Making connection to server]	[Remarks:Successful connection to server: S3]
[Date: 2018-02-07 08:09:35]	[UserID:06/343]	[IP:10.128.12.113]	[Browser:Chrome - 63.0.3239.132]	[Action:GetProgramList 06/343]	[Remarks:[{"ID":"1","ProgramIndex":"GST","ProgramName":"GST"}]]
[Date: 2018-02-07 08:09:35]	[UserID:06/343]	[IP:10.128.12.113]	[Browser:Chrome - 63.0.3239.132]	[Action:Making connection to server]	[Remarks:Successful connection to server: S3]
[Date: 2018-02-07 08:09:35]	[UserID:06/343]	[IP:10.128.12.113]	[Browser:Chrome - 63.0.3239.132]	[Action:GetProgramList 06/343]	[Remarks:[{"ID":"1","ProgramIndex":"GST","ProgramName":"GST"}]]
[Date: 2018-02-07 08:09:35]	[UserID:06/343]	[IP:10.128.12.113]	[Browser:Chrome - 63.0.3239.132]	[Action:Making connection to server]	[Remarks:Successful connection to server: S3]
[Date: 2018-02-07 08:09:35]	[UserID:06/343]	[IP:10.128.12.113]	[Browser:Chrome - 63.0.3239.132]	[Action:Filtering User : MasterData Username : 06/343]	[Remarks:Successful filter row count: 1]
[Date: 2018-02-07 08:09:36]	[UserID:06/343]	[IP:10.128.12.113]	[Browser:Chrome - 63.0.3239.132]	[Action:Making connection to server]	[Remarks:Successful connection to server: S3]
[Date: 2018-02-07 08:09:36]	[UserID:06/343]	[IP:10.128.12.113]	[Browser:Chrome - 63.0.3239.132]	[Action:GetGSTModules 06/343,1]	[Remarks:Successful filter row count: 5]
[Date: 2018-02-07 08:09:36]	[UserID:06/343]	[IP:10.128.12.113]	[Browser:Chrome - 63.0.3239.132]	[Action:Closing mssql connection]	[Remarks:Success]
[Date: 2018-02-07 08:48:38]	[UserID:06/343]	[IP:10.128.12.113]	[Browser:Chrome - 63.0.3239.132]	[Action:Making connection to server]	[Remarks:Successful connection to server: S3]
[Date: 2018-02-07 08:48:38]	[UserID:06/343]	[IP:10.128.12.113]	[Browser:Chrome - 63.0.3239.132]	[Action:GetGSTModules 06/343,1]	[Remarks:Successful filter row count: 5]
[Date: 2018-02-07 08:48:38]	[UserID:06/343]	[IP:10.128.12.113]	[Browser:Chrome - 63.0.3239.132]	[Action:Closing mssql connection]	[Remarks:Success]
[Date: 2018-02-07 09:03:33]	[UserID:06/343]	[IP:10.128.12.113]	[Browser:Chrome - 63.0.3239.132]	[Action:Making connection to server]	[Remarks:Successful connection to server: S3]
[Date: 2018-02-07 09:03:33]	[UserID:06/343]	[IP:10.128.12.113]	[Browser:Chrome - 63.0.3239.132]	[Action:GetGSTModules 06/343,1]	[Remarks:Successful filter row count: 5]
[Date: 2018-02-07 09:03:33]	[UserID:06/343]	[IP:10.128.12.113]	[Browser:Chrome - 63.0.3239.132]	[Action:Closing mssql connection]	[Remarks:Success]
[Date: 2018-02-07 10:38:42]	[UserID:]	[IP:10.128.12.210]	[Browser:Chrome - 63.0.3239.132]	[Action:Making connection to server]	[Remarks:Successful connection to server: S3]
[Date: 2018-02-07 10:38:42]	[UserID:]	[IP:10.128.12.210]	[Browser:Chrome - 63.0.3239.132]	[Action:GetProgramList ]	[Remarks:"no data"]
[Date: 2018-02-07 10:38:52]	[UserID:10/660]	[IP:10.128.12.210]	[Browser:Chrome - 63.0.3239.132]	[Action:Making connection to server]	[Remarks:Successful connection to server: S3]
[Date: 2018-02-07 10:38:52]	[UserID:10/660]	[IP:10.128.12.210]	[Browser:Chrome - 63.0.3239.132]	[Action:User 10/660]	[Remarks:Success]
[Date: 2018-02-07 10:38:52]	[UserID:10/660]	[IP:10.128.12.210]	[Browser:Chrome - 63.0.3239.132]	[Action:Filtering User : MasterData Username : 10/660]	[Remarks:Successful filter row count: 0]
[Date: 2018-02-07 10:38:52]	[UserID:10/660]	[IP:10.128.12.210]	[Browser:Chrome - 63.0.3239.132]	[Action:Filtering User : MasterData Username : 10/660]	[Remarks:Successful filter row count: 0]
[Date: 2018-02-07 10:38:52]	[UserID:10/660]	[IP:10.128.12.210]	[Browser:Chrome - 63.0.3239.132]	[Action:Filtering User : MasterData Username : 10/660]	[Remarks:Success]
[Date: 2018-02-07 10:38:52]	[UserID:10/660]	[IP:10.128.12.210]	[Browser:Chrome - 63.0.3239.132]	[Action:Closing mssql connection]	[Remarks:Success]
[Date: 2018-02-07 10:38:52]	[UserID:10/660]	[IP:10.128.12.210]	[Browser:Chrome - 63.0.3239.132]	[Action:Making connection to server]	[Remarks:Successful connection to server: S3]
[Date: 2018-02-07 10:38:52]	[UserID:10/660]	[IP:10.128.12.210]	[Browser:Chrome - 63.0.3239.132]	[Action:GetProgramList 10/660]	[Remarks:[{"ID":"1","ProgramIndex":"GST","ProgramName":"GST"}]]
[Date: 2018-02-07 10:38:52]	[UserID:10/660]	[IP:10.128.12.210]	[Browser:Chrome - 63.0.3239.132]	[Action:Making connection to server]	[Remarks:Successful connection to server: S3]
[Date: 2018-02-07 10:38:52]	[UserID:10/660]	[IP:10.128.12.210]	[Browser:Chrome - 63.0.3239.132]	[Action:GetProgramList 10/660]	[Remarks:[{"ID":"1","ProgramIndex":"GST","ProgramName":"GST"}]]
[Date: 2018-02-07 10:38:52]	[UserID:10/660]	[IP:10.128.12.210]	[Browser:Chrome - 63.0.3239.132]	[Action:Making connection to server]	[Remarks:Successful connection to server: S3]
[Date: 2018-02-07 10:38:52]	[UserID:10/660]	[IP:10.128.12.210]	[Browser:Chrome - 63.0.3239.132]	[Action:Filtering User : MasterData Username : 10/660]	[Remarks:Successful filter row count: 1]
[Date: 2018-02-07 10:38:53]	[UserID:10/660]	[IP:10.128.12.210]	[Browser:Chrome - 63.0.3239.132]	[Action:Making connection to server]	[Remarks:Successful connection to server: S3]
[Date: 2018-02-07 10:38:53]	[UserID:10/660]	[IP:10.128.12.210]	[Browser:Chrome - 63.0.3239.132]	[Action:GetGSTModules 10/660,1]	[Remarks:Successful filter row count: 5]
[Date: 2018-02-07 10:38:53]	[UserID:10/660]	[IP:10.128.12.210]	[Browser:Chrome - 63.0.3239.132]	[Action:Closing mssql connection]	[Remarks:Success]
[Date: 2018-02-07 10:40:55]	[UserID:10/660]	[IP:10.128.12.210]	[Browser:Chrome - 63.0.3239.132]	[Action:Making connection to server]	[Remarks:Successful connection to server: S3]
[Date: 2018-02-07 10:40:55]	[UserID:10/660]	[IP:10.128.12.210]	[Browser:Chrome - 63.0.3239.132]	[Action:GetGSTModules 10/660,1]	[Remarks:Successful filter row count: 5]
[Date: 2018-02-07 10:40:55]	[UserID:10/660]	[IP:10.128.12.210]	[Browser:Chrome - 63.0.3239.132]	[Action:Closing mssql connection]	[Remarks:Success]
[Date: 2018-02-07 10:57:30]	[UserID:10/660]	[IP:10.128.12.210]	[Browser:Chrome - 63.0.3239.132]	[Action:Making connection to server]	[Remarks:Successful connection to server: S3]
[Date: 2018-02-07 10:57:30]	[UserID:10/660]	[IP:10.128.12.210]	[Browser:Chrome - 63.0.3239.132]	[Action:GetGSTModules 10/660,1]	[Remarks:Successful filter row count: 5]
[Date: 2018-02-07 10:57:30]	[UserID:10/660]	[IP:10.128.12.210]	[Browser:Chrome - 63.0.3239.132]	[Action:Closing mssql connection]	[Remarks:Success]
[Date: 2018-02-07 10:57:46]	[UserID:]	[IP:10.128.12.210]	[Browser:Chrome - 63.0.3239.132]	[Action:Making connection to server]	[Remarks:Successful connection to server: S3]
[Date: 2018-02-07 10:57:47]	[UserID:]	[IP:10.128.12.210]	[Browser:Chrome - 63.0.3239.132]	[Action:GetProgramList ]	[Remarks:"no data"]
[Date: 2018-02-07 13:27:29]	[UserID:06/343]	[IP:10.128.12.113]	[Browser:Chrome - 63.0.3239.132]	[Action:Making connection to server]	[Remarks:Successful connection to server: S3]
[Date: 2018-02-07 13:27:29]	[UserID:06/343]	[IP:10.128.12.113]	[Browser:Chrome - 63.0.3239.132]	[Action:GetProgramList 06/343]	[Remarks:[{"ID":"1","ProgramIndex":"GST","ProgramName":"GST"}]]
[Date: 2018-02-07 13:27:29]	[UserID:06/343]	[IP:10.128.12.113]	[Browser:Chrome - 63.0.3239.132]	[Action:Making connection to server]	[Remarks:Successful connection to server: S3]
[Date: 2018-02-07 13:27:29]	[UserID:06/343]	[IP:10.128.12.113]	[Browser:Chrome - 63.0.3239.132]	[Action:GetProgramList 06/343]	[Remarks:[{"ID":"1","ProgramIndex":"GST","ProgramName":"GST"}]]
[Date: 2018-02-07 13:27:29]	[UserID:06/343]	[IP:10.128.12.113]	[Browser:Chrome - 63.0.3239.132]	[Action:Making connection to server]	[Remarks:Successful connection to server: S3]
[Date: 2018-02-07 13:27:29]	[UserID:06/343]	[IP:10.128.12.113]	[Browser:Chrome - 63.0.3239.132]	[Action:Filtering User : MasterData Username : 06/343]	[Remarks:Successful filter row count: 1]
[Date: 2018-02-07 13:27:30]	[UserID:06/343]	[IP:10.128.12.113]	[Browser:Chrome - 63.0.3239.132]	[Action:Making connection to server]	[Remarks:Successful connection to server: S3]
[Date: 2018-02-07 13:27:30]	[UserID:06/343]	[IP:10.128.12.113]	[Browser:Chrome - 63.0.3239.132]	[Action:GetGSTModules 06/343,1]	[Remarks:Successful filter row count: 5]
[Date: 2018-02-07 13:27:30]	[UserID:06/343]	[IP:10.128.12.113]	[Browser:Chrome - 63.0.3239.132]	[Action:Closing mssql connection]	[Remarks:Success]
[Date: 2018-02-07 13:28:05]	[UserID:06/343]	[IP:10.128.12.113]	[Browser:Chrome - 63.0.3239.132]	[Action:Making connection to server]	[Remarks:Successful connection to server: S3]
[Date: 2018-02-07 13:28:05]	[UserID:06/343]	[IP:10.128.12.113]	[Browser:Chrome - 63.0.3239.132]	[Action:GetGSTModules 06/343,1]	[Remarks:Successful filter row count: 5]
[Date: 2018-02-07 13:28:05]	[UserID:06/343]	[IP:10.128.12.113]	[Browser:Chrome - 63.0.3239.132]	[Action:Closing mssql connection]	[Remarks:Success]
[Date: 2018-02-07 13:31:18]	[UserID:06/343]	[IP:10.128.12.113]	[Browser:Chrome - 63.0.3239.132]	[Action:Making connection to server]	[Remarks:Successful connection to server: S3]
[Date: 2018-02-07 13:31:18]	[UserID:06/343]	[IP:10.128.12.113]	[Browser:Chrome - 63.0.3239.132]	[Action:GetGSTModules 06/343,1]	[Remarks:Successful filter row count: 5]
[Date: 2018-02-07 13:31:18]	[UserID:06/343]	[IP:10.128.12.113]	[Browser:Chrome - 63.0.3239.132]	[Action:Closing mssql connection]	[Remarks:Success]
[Date: 2018-02-07 13:32:44]	[UserID:06/343]	[IP:10.128.12.113]	[Browser:Chrome - 63.0.3239.132]	[Action:Making connection to server]	[Remarks:Successful connection to server: S3]
[Date: 2018-02-07 13:32:44]	[UserID:06/343]	[IP:10.128.12.113]	[Browser:Chrome - 63.0.3239.132]	[Action:GetGSTModules 06/343,1]	[Remarks:Successful filter row count: 5]
[Date: 2018-02-07 13:32:44]	[UserID:06/343]	[IP:10.128.12.113]	[Browser:Chrome - 63.0.3239.132]	[Action:Closing mssql connection]	[Remarks:Success]
[Date: 2018-02-07 13:56:16]	[UserID:06/343]	[IP:10.128.12.113]	[Browser:Chrome - 63.0.3239.132]	[Action:Making connection to server]	[Remarks:Successful connection to server: S3]
[Date: 2018-02-07 13:56:16]	[UserID:06/343]	[IP:10.128.12.113]	[Browser:Chrome - 63.0.3239.132]	[Action:GetGSTModules 06/343,1]	[Remarks:Successful filter row count: 5]
[Date: 2018-02-07 13:56:16]	[UserID:06/343]	[IP:10.128.12.113]	[Browser:Chrome - 63.0.3239.132]	[Action:Closing mssql connection]	[Remarks:Success]
[Date: 2018-02-07 14:06:04]	[UserID:06/343]	[IP:10.128.12.113]	[Browser:Chrome - 63.0.3239.132]	[Action:Making connection to server]	[Remarks:Successful connection to server: S3]
[Date: 2018-02-07 14:06:04]	[UserID:06/343]	[IP:10.128.12.113]	[Browser:Chrome - 63.0.3239.132]	[Action:GetGSTModules 06/343,1]	[Remarks:Successful filter row count: 5]
[Date: 2018-02-07 14:06:04]	[UserID:06/343]	[IP:10.128.12.113]	[Browser:Chrome - 63.0.3239.132]	[Action:Closing mssql connection]	[Remarks:Success]
[Date: 2018-02-07 14:08:12]	[UserID:06/343]	[IP:10.128.12.113]	[Browser:Chrome - 63.0.3239.132]	[Action:Making connection to server]	[Remarks:Successful connection to server: S3]
[Date: 2018-02-07 14:08:12]	[UserID:06/343]	[IP:10.128.12.113]	[Browser:Chrome - 63.0.3239.132]	[Action:GetGSTModules 06/343,1]	[Remarks:Successful filter row count: 5]
[Date: 2018-02-07 14:08:12]	[UserID:06/343]	[IP:10.128.12.113]	[Browser:Chrome - 63.0.3239.132]	[Action:Closing mssql connection]	[Remarks:Success]
[Date: 2018-02-07 14:08:35]	[UserID:06/343]	[IP:10.128.12.113]	[Browser:Chrome - 63.0.3239.132]	[Action:Making connection to server]	[Remarks:Successful connection to server: S3]
[Date: 2018-02-07 14:08:35]	[UserID:06/343]	[IP:10.128.12.113]	[Browser:Chrome - 63.0.3239.132]	[Action:GetGSTModules 06/343,1]	[Remarks:Successful filter row count: 5]
[Date: 2018-02-07 14:08:35]	[UserID:06/343]	[IP:10.128.12.113]	[Browser:Chrome - 63.0.3239.132]	[Action:Closing mssql connection]	[Remarks:Success]
[Date: 2018-02-07 14:09:00]	[UserID:06/343]	[IP:10.128.12.113]	[Browser:Chrome - 63.0.3239.132]	[Action:Making connection to server]	[Remarks:Successful connection to server: S3]
[Date: 2018-02-07 14:09:00]	[UserID:06/343]	[IP:10.128.12.113]	[Browser:Chrome - 63.0.3239.132]	[Action:GetGSTModules 06/343,1]	[Remarks:Successful filter row count: 5]
[Date: 2018-02-07 14:09:00]	[UserID:06/343]	[IP:10.128.12.113]	[Browser:Chrome - 63.0.3239.132]	[Action:Closing mssql connection]	[Remarks:Success]
[Date: 2018-02-07 20:30:39]	[UserID:]	[IP:10.128.12.120]	[Browser:Chrome - 64.0.3282.140]	[Action:Making connection to server]	[Remarks:Successful connection to server: S3]
[Date: 2018-02-07 20:30:39]	[UserID:]	[IP:10.128.12.120]	[Browser:Chrome - 64.0.3282.140]	[Action:GetProgramList ]	[Remarks:"no data"]
[Date: 2018-02-07 20:30:41]	[UserID:08/504]	[IP:10.128.12.120]	[Browser:Chrome - 64.0.3282.140]	[Action:Making connection to server]	[Remarks:Successful connection to server: S3]
[Date: 2018-02-07 20:30:41]	[UserID:08/504]	[IP:10.128.12.120]	[Browser:Chrome - 64.0.3282.140]	[Action:User 08/504]	[Remarks:Success]
[Date: 2018-02-07 20:30:41]	[UserID:08/504]	[IP:10.128.12.120]	[Browser:Chrome - 64.0.3282.140]	[Action:Filtering User : MasterData Username : 08/504]	[Remarks:Successful filter row count: 0]
[Date: 2018-02-07 20:30:41]	[UserID:08/504]	[IP:10.128.12.120]	[Browser:Chrome - 64.0.3282.140]	[Action:Filtering User : MasterData Username : 08/504]	[Remarks:Successful filter row count: 0]
[Date: 2018-02-07 20:30:41]	[UserID:08/504]	[IP:10.128.12.120]	[Browser:Chrome - 64.0.3282.140]	[Action:Filtering User : MasterData Username : 08/504]	[Remarks:Success]
[Date: 2018-02-07 20:30:41]	[UserID:08/504]	[IP:10.128.12.120]	[Browser:Chrome - 64.0.3282.140]	[Action:Closing mssql connection]	[Remarks:Success]
[Date: 2018-02-07 20:30:41]	[UserID:08/504]	[IP:10.128.12.120]	[Browser:Chrome - 64.0.3282.140]	[Action:Making connection to server]	[Remarks:Successful connection to server: S3]
[Date: 2018-02-07 20:30:41]	[UserID:08/504]	[IP:10.128.12.120]	[Browser:Chrome - 64.0.3282.140]	[Action:GetProgramList 08/504]	[Remarks:[{"ID":"1","ProgramIndex":"GST","ProgramName":"GST"}]]
[Date: 2018-02-07 20:30:41]	[UserID:08/504]	[IP:10.128.12.120]	[Browser:Chrome - 64.0.3282.140]	[Action:Making connection to server]	[Remarks:Successful connection to server: S3]
[Date: 2018-02-07 20:30:41]	[UserID:08/504]	[IP:10.128.12.120]	[Browser:Chrome - 64.0.3282.140]	[Action:GetProgramList 08/504]	[Remarks:[{"ID":"1","ProgramIndex":"GST","ProgramName":"GST"}]]
[Date: 2018-02-07 20:30:41]	[UserID:08/504]	[IP:10.128.12.120]	[Browser:Chrome - 64.0.3282.140]	[Action:Making connection to server]	[Remarks:Successful connection to server: S3]
[Date: 2018-02-07 20:30:41]	[UserID:08/504]	[IP:10.128.12.120]	[Browser:Chrome - 64.0.3282.140]	[Action:Filtering User : MasterData Username : 08/504]	[Remarks:Successful filter row count: 1]
[Date: 2018-02-07 20:30:41]	[UserID:08/504]	[IP:10.128.12.120]	[Browser:Chrome - 64.0.3282.140]	[Action:Making connection to server]	[Remarks:Successful connection to server: S3]
[Date: 2018-02-07 20:30:41]	[UserID:08/504]	[IP:10.128.12.120]	[Browser:Chrome - 64.0.3282.140]	[Action:GetGSTModules 08/504,1]	[Remarks:Successful filter row count: 5]
[Date: 2018-02-07 20:30:41]	[UserID:08/504]	[IP:10.128.12.120]	[Browser:Chrome - 64.0.3282.140]	[Action:Closing mssql connection]	[Remarks:Success]
[Date: 2018-02-07 20:32:43]	[UserID:08/504]	[IP:10.128.12.120]	[Browser:Chrome - 64.0.3282.140]	[Action:Making connection to server]	[Remarks:Successful connection to server: S3]
[Date: 2018-02-07 20:32:43]	[UserID:08/504]	[IP:10.128.12.120]	[Browser:Chrome - 64.0.3282.140]	[Action:GetGSTModules 08/504,1]	[Remarks:Successful filter row count: 5]
[Date: 2018-02-07 20:32:43]	[UserID:08/504]	[IP:10.128.12.120]	[Browser:Chrome - 64.0.3282.140]	[Action:Closing mssql connection]	[Remarks:Success]
[Date: 2018-02-07 20:34:18]	[UserID:08/504]	[IP:10.128.12.120]	[Browser:Chrome - 64.0.3282.140]	[Action:Making connection to server]	[Remarks:Successful connection to server: S3]
[Date: 2018-02-07 20:34:18]	[UserID:08/504]	[IP:10.128.12.120]	[Browser:Chrome - 64.0.3282.140]	[Action:GetGSTModules 08/504,1]	[Remarks:Successful filter row count: 5]
[Date: 2018-02-07 20:34:18]	[UserID:08/504]	[IP:10.128.12.120]	[Browser:Chrome - 64.0.3282.140]	[Action:Closing mssql connection]	[Remarks:Success]
[Date: 2018-02-07 20:45:16]	[UserID:]	[IP:10.128.12.120]	[Browser:Chrome - 64.0.3282.140]	[Action:Making connection to server]	[Remarks:Successful connection to server: S3]
[Date: 2018-02-07 20:45:17]	[UserID:]	[IP:10.128.12.120]	[Browser:Chrome - 64.0.3282.140]	[Action:GetProgramList ]	[Remarks:"no data"]
[Date: 2018-02-07 20:46:03]	[UserID:]	[IP:10.128.12.120]	[Browser:Chrome - 64.0.3282.140]	[Action:Making connection to server]	[Remarks:Successful connection to server: S3]
[Date: 2018-02-07 20:46:03]	[UserID:]	[IP:10.128.12.120]	[Browser:Chrome - 64.0.3282.140]	[Action:GetProgramList ]	[Remarks:"no data"]
[Date: 2018-02-07 20:46:05]	[UserID:08/504]	[IP:10.128.12.120]	[Browser:Chrome - 64.0.3282.140]	[Action:Making connection to server]	[Remarks:Successful connection to server: S3]
[Date: 2018-02-07 20:46:05]	[UserID:08/504]	[IP:10.128.12.120]	[Browser:Chrome - 64.0.3282.140]	[Action:User 08/504]	[Remarks:Success]
[Date: 2018-02-07 20:46:05]	[UserID:08/504]	[IP:10.128.12.120]	[Browser:Chrome - 64.0.3282.140]	[Action:Filtering User : MasterData Username : 08/504]	[Remarks:Successful filter row count: 0]
[Date: 2018-02-07 20:46:05]	[UserID:08/504]	[IP:10.128.12.120]	[Browser:Chrome - 64.0.3282.140]	[Action:Filtering User : MasterData Username : 08/504]	[Remarks:Successful filter row count: 0]
[Date: 2018-02-07 20:46:05]	[UserID:08/504]	[IP:10.128.12.120]	[Browser:Chrome - 64.0.3282.140]	[Action:Filtering User : MasterData Username : 08/504]	[Remarks:Success]
[Date: 2018-02-07 20:46:05]	[UserID:08/504]	[IP:10.128.12.120]	[Browser:Chrome - 64.0.3282.140]	[Action:Closing mssql connection]	[Remarks:Success]
[Date: 2018-02-07 20:46:05]	[UserID:08/504]	[IP:10.128.12.120]	[Browser:Chrome - 64.0.3282.140]	[Action:Making connection to server]	[Remarks:Successful connection to server: S3]
[Date: 2018-02-07 20:46:05]	[UserID:08/504]	[IP:10.128.12.120]	[Browser:Chrome - 64.0.3282.140]	[Action:GetProgramList 08/504]	[Remarks:[{"ID":"1","ProgramIndex":"GST","ProgramName":"GST"}]]
[Date: 2018-02-07 20:46:05]	[UserID:08/504]	[IP:10.128.12.120]	[Browser:Chrome - 64.0.3282.140]	[Action:Making connection to server]	[Remarks:Successful connection to server: S3]
[Date: 2018-02-07 20:46:05]	[UserID:08/504]	[IP:10.128.12.120]	[Browser:Chrome - 64.0.3282.140]	[Action:GetProgramList 08/504]	[Remarks:[{"ID":"1","ProgramIndex":"GST","ProgramName":"GST"}]]
[Date: 2018-02-07 20:46:05]	[UserID:08/504]	[IP:10.128.12.120]	[Browser:Chrome - 64.0.3282.140]	[Action:Making connection to server]	[Remarks:Successful connection to server: S3]
[Date: 2018-02-07 20:46:05]	[UserID:08/504]	[IP:10.128.12.120]	[Browser:Chrome - 64.0.3282.140]	[Action:Filtering User : MasterData Username : 08/504]	[Remarks:Successful filter row count: 1]
[Date: 2018-02-07 20:46:05]	[UserID:08/504]	[IP:10.128.12.120]	[Browser:Chrome - 64.0.3282.140]	[Action:Making connection to server]	[Remarks:Successful connection to server: S3]
[Date: 2018-02-07 20:46:06]	[UserID:08/504]	[IP:10.128.12.120]	[Browser:Chrome - 64.0.3282.140]	[Action:GetGSTModules 08/504,1]	[Remarks:Successful filter row count: 5]
[Date: 2018-02-07 20:46:06]	[UserID:08/504]	[IP:10.128.12.120]	[Browser:Chrome - 64.0.3282.140]	[Action:Closing mssql connection]	[Remarks:Success]
