[Date: 2015-08-06 08:24:39]	[UserID:]	[IP:10.10.11.1]	[Browser:Chrome - 44.0.2403.125]	[Action:Making connection to server]	[Remarks:Successful connection to server: S3]
[Date: 2015-08-06 08:24:39]	[UserID:]	[IP:10.10.11.1]	[Browser:Chrome - 44.0.2403.125]	[Action:GetProgramList ]	[Remarks:"no data"]
[Date: 2015-08-06 08:24:40]	[UserID:06/371]	[IP:10.10.11.1]	[Browser:Chrome - 44.0.2403.125]	[Action:Making connection to server]	[Remarks:Successful connection to server: S3]
[Date: 2015-08-06 08:24:40]	[UserID:06/371]	[IP:10.10.11.1]	[Browser:Chrome - 44.0.2403.125]	[Action:User 06/371]	[Remarks:Success]
[Date: 2015-08-06 08:24:41]	[UserID:06/371]	[IP:10.10.11.1]	[Browser:Chrome - 44.0.2403.125]	[Action:Filtering User : MasterData Username : 06/371]	[Remarks:Successful filter row count: 0]
[Date: 2015-08-06 08:24:41]	[UserID:06/371]	[IP:10.10.11.1]	[Browser:Chrome - 44.0.2403.125]	[Action:Filtering User : MasterData Username : 06/371]	[Remarks:Successful filter row count: 0]
[Date: 2015-08-06 08:24:41]	[UserID:06/371]	[IP:10.10.11.1]	[Browser:Chrome - 44.0.2403.125]	[Action:Filtering User : MasterData Username : 06/371]	[Remarks:Success]
[Date: 2015-08-06 08:24:41]	[UserID:06/371]	[IP:10.10.11.1]	[Browser:Chrome - 44.0.2403.125]	[Action:Closing mssql connection]	[Remarks:Success]
[Date: 2015-08-06 08:24:41]	[UserID:06/371]	[IP:10.10.11.1]	[Browser:Chrome - 44.0.2403.125]	[Action:Making connection to server]	[Remarks:Successful connection to server: S3]
[Date: 2015-08-06 08:24:41]	[UserID:06/371]	[IP:10.10.11.1]	[Browser:Chrome - 44.0.2403.125]	[Action:GetProgramList 06/371]	[Remarks:[{"ID":"1","ProgramIndex":"GST","ProgramName":"GST"}]]
[Date: 2015-08-06 08:24:41]	[UserID:06/371]	[IP:10.10.11.1]	[Browser:Chrome - 44.0.2403.125]	[Action:Making connection to server]	[Remarks:Successful connection to server: S3]
[Date: 2015-08-06 08:24:41]	[UserID:06/371]	[IP:10.10.11.1]	[Browser:Chrome - 44.0.2403.125]	[Action:GetProgramList 06/371]	[Remarks:[{"ID":"1","ProgramIndex":"GST","ProgramName":"GST"}]]
[Date: 2015-08-06 08:24:41]	[UserID:06/371]	[IP:10.10.11.1]	[Browser:Chrome - 44.0.2403.125]	[Action:Making connection to server]	[Remarks:Successful connection to server: S3]
[Date: 2015-08-06 08:24:41]	[UserID:06/371]	[IP:10.10.11.1]	[Browser:Chrome - 44.0.2403.125]	[Action:Filtering User : MasterData Username : 06/371]	[Remarks:Successful filter row count: 1]
[Date: 2015-08-06 08:24:41]	[UserID:06/371]	[IP:10.10.11.1]	[Browser:Chrome - 44.0.2403.125]	[Action:Making connection to server]	[Remarks:Successful connection to server: S3]
[Date: 2015-08-06 08:24:42]	[UserID:06/371]	[IP:10.10.11.1]	[Browser:Chrome - 44.0.2403.125]	[Action:GetGSTModules 06/371,1]	[Remarks:Successful filter row count: 5]
[Date: 2015-08-06 08:24:42]	[UserID:06/371]	[IP:10.10.11.1]	[Browser:Chrome - 44.0.2403.125]	[Action:Closing mssql connection]	[Remarks:Success]
[Date: 2015-08-06 08:28:30]	[UserID:06/371]	[IP:10.10.11.1]	[Browser:Chrome - 44.0.2403.125]	[Action:Making connection to server]	[Remarks:Successful connection to server: S3]
[Date: 2015-08-06 08:28:30]	[UserID:06/371]	[IP:10.10.11.1]	[Browser:Chrome - 44.0.2403.125]	[Action:GetGSTModules 06/371,1]	[Remarks:Successful filter row count: 5]
[Date: 2015-08-06 08:28:30]	[UserID:06/371]	[IP:10.10.11.1]	[Browser:Chrome - 44.0.2403.125]	[Action:Closing mssql connection]	[Remarks:Success]
[Date: 2015-08-06 08:36:20]	[UserID:06/371]	[IP:10.10.11.1]	[Browser:Chrome - 44.0.2403.125]	[Action:Making connection to server]	[Remarks:Successful connection to server: S3]
[Date: 2015-08-06 08:36:20]	[UserID:06/371]	[IP:10.10.11.1]	[Browser:Chrome - 44.0.2403.125]	[Action:GetGSTModules 06/371,1]	[Remarks:Successful filter row count: 5]
[Date: 2015-08-06 08:36:20]	[UserID:06/371]	[IP:10.10.11.1]	[Browser:Chrome - 44.0.2403.125]	[Action:Closing mssql connection]	[Remarks:Success]
[Date: 2015-08-06 08:39:04]	[UserID:06/371]	[IP:10.10.11.1]	[Browser:Chrome - 44.0.2403.125]	[Action:Making connection to server]	[Remarks:Successful connection to server: S3]
[Date: 2015-08-06 08:39:05]	[UserID:06/371]	[IP:10.10.11.1]	[Browser:Chrome - 44.0.2403.125]	[Action:GetGSTModules 06/371,1]	[Remarks:Successful filter row count: 5]
[Date: 2015-08-06 08:39:05]	[UserID:06/371]	[IP:10.10.11.1]	[Browser:Chrome - 44.0.2403.125]	[Action:Closing mssql connection]	[Remarks:Success]
[Date: 2015-08-06 08:47:38]	[UserID:]	[IP:10.10.11.1]	[Browser:Chrome - 44.0.2403.125]	[Action:Making connection to server]	[Remarks:Successful connection to server: S3]
[Date: 2015-08-06 08:47:38]	[UserID:]	[IP:10.10.11.1]	[Browser:Chrome - 44.0.2403.125]	[Action:GetProgramList ]	[Remarks:"no data"]
[Date: 2015-08-06 08:47:44]	[UserID:10/660]	[IP:10.10.11.1]	[Browser:Chrome - 44.0.2403.125]	[Action:Making connection to server]	[Remarks:Successful connection to server: S3]
[Date: 2015-08-06 08:47:44]	[UserID:10/660]	[IP:10.10.11.1]	[Browser:Chrome - 44.0.2403.125]	[Action:User 10/660]	[Remarks:Success]
[Date: 2015-08-06 08:47:44]	[UserID:10/660]	[IP:10.10.11.1]	[Browser:Chrome - 44.0.2403.125]	[Action:Filtering User : MasterData Username : 10/660]	[Remarks:Successful filter row count: 0]
[Date: 2015-08-06 08:47:44]	[UserID:10/660]	[IP:10.10.11.1]	[Browser:Chrome - 44.0.2403.125]	[Action:Filtering User : MasterData Username : 10/660]	[Remarks:Successful filter row count: 0]
[Date: 2015-08-06 08:47:44]	[UserID:10/660]	[IP:10.10.11.1]	[Browser:Chrome - 44.0.2403.125]	[Action:Filtering User : MasterData Username : 10/660]	[Remarks:Success]
[Date: 2015-08-06 08:47:44]	[UserID:10/660]	[IP:10.10.11.1]	[Browser:Chrome - 44.0.2403.125]	[Action:Closing mssql connection]	[Remarks:Success]
[Date: 2015-08-06 08:47:44]	[UserID:10/660]	[IP:10.10.11.1]	[Browser:Chrome - 44.0.2403.125]	[Action:Making connection to server]	[Remarks:Successful connection to server: S3]
[Date: 2015-08-06 08:47:44]	[UserID:10/660]	[IP:10.10.11.1]	[Browser:Chrome - 44.0.2403.125]	[Action:GetProgramList 10/660]	[Remarks:[{"ID":"1","ProgramIndex":"GST","ProgramName":"GST"}]]
[Date: 2015-08-06 08:47:44]	[UserID:10/660]	[IP:10.10.11.1]	[Browser:Chrome - 44.0.2403.125]	[Action:Making connection to server]	[Remarks:Successful connection to server: S3]
[Date: 2015-08-06 08:47:44]	[UserID:10/660]	[IP:10.10.11.1]	[Browser:Chrome - 44.0.2403.125]	[Action:GetProgramList 10/660]	[Remarks:[{"ID":"1","ProgramIndex":"GST","ProgramName":"GST"}]]
[Date: 2015-08-06 08:47:44]	[UserID:10/660]	[IP:10.10.11.1]	[Browser:Chrome - 44.0.2403.125]	[Action:Making connection to server]	[Remarks:Successful connection to server: S3]
[Date: 2015-08-06 08:47:44]	[UserID:10/660]	[IP:10.10.11.1]	[Browser:Chrome - 44.0.2403.125]	[Action:Filtering User : MasterData Username : 10/660]	[Remarks:Successful filter row count: 1]
[Date: 2015-08-06 08:47:45]	[UserID:10/660]	[IP:10.10.11.1]	[Browser:Chrome - 44.0.2403.125]	[Action:Making connection to server]	[Remarks:Successful connection to server: S3]
[Date: 2015-08-06 08:47:45]	[UserID:10/660]	[IP:10.10.11.1]	[Browser:Chrome - 44.0.2403.125]	[Action:GetGSTModules 10/660,1]	[Remarks:Successful filter row count: 3]
[Date: 2015-08-06 08:47:45]	[UserID:10/660]	[IP:10.10.11.1]	[Browser:Chrome - 44.0.2403.125]	[Action:Closing mssql connection]	[Remarks:Success]
[Date: 2015-08-06 09:09:31]	[UserID:10/660]	[IP:10.10.11.1]	[Browser:Chrome - 44.0.2403.125]	[Action:Making connection to server]	[Remarks:Successful connection to server: S3]
[Date: 2015-08-06 09:09:32]	[UserID:10/660]	[IP:10.10.11.1]	[Browser:Chrome - 44.0.2403.125]	[Action:GetGSTModules 10/660,1]	[Remarks:Successful filter row count: 3]
[Date: 2015-08-06 09:09:32]	[UserID:10/660]	[IP:10.10.11.1]	[Browser:Chrome - 44.0.2403.125]	[Action:Closing mssql connection]	[Remarks:Success]
[Date: 2015-08-06 09:17:41]	[UserID:10/660]	[IP:10.10.11.1]	[Browser:Chrome - 44.0.2403.125]	[Action:Making connection to server]	[Remarks:Successful connection to server: S3]
[Date: 2015-08-06 09:17:41]	[UserID:10/660]	[IP:10.10.11.1]	[Browser:Chrome - 44.0.2403.125]	[Action:GetGSTModules 10/660,1]	[Remarks:Successful filter row count: 3]
[Date: 2015-08-06 09:17:41]	[UserID:10/660]	[IP:10.10.11.1]	[Browser:Chrome - 44.0.2403.125]	[Action:Closing mssql connection]	[Remarks:Success]
[Date: 2015-08-06 09:18:04]	[UserID:]	[IP:10.10.11.1]	[Browser:Chrome - 44.0.2403.125]	[Action:Making connection to server]	[Remarks:Successful connection to server: S3]
[Date: 2015-08-06 09:18:04]	[UserID:]	[IP:10.10.11.1]	[Browser:Chrome - 44.0.2403.125]	[Action:GetProgramList ]	[Remarks:"no data"]
[Date: 2015-08-06 10:08:25]	[UserID:]	[IP:10.10.11.1]	[Browser:Chrome - 44.0.2403.125]	[Action:Making connection to server]	[Remarks:Successful connection to server: S3]
[Date: 2015-08-06 10:08:25]	[UserID:]	[IP:10.10.11.1]	[Browser:Chrome - 44.0.2403.125]	[Action:GetProgramList ]	[Remarks:"no data"]
[Date: 2015-08-06 10:08:32]	[UserID:06/343]	[IP:10.10.11.1]	[Browser:Chrome - 44.0.2403.125]	[Action:Making connection to server]	[Remarks:Successful connection to server: S3]
[Date: 2015-08-06 10:08:32]	[UserID:06/343]	[IP:10.10.11.1]	[Browser:Chrome - 44.0.2403.125]	[Action:User 06/343]	[Remarks:Success]
[Date: 2015-08-06 10:08:32]	[UserID:06/343]	[IP:10.10.11.1]	[Browser:Chrome - 44.0.2403.125]	[Action:Filtering User : MasterData Username : 06/343]	[Remarks:Successful filter row count: 0]
[Date: 2015-08-06 10:08:32]	[UserID:06/343]	[IP:10.10.11.1]	[Browser:Chrome - 44.0.2403.125]	[Action:Filtering User : MasterData Username : 06/343]	[Remarks:Successful filter row count: 0]
[Date: 2015-08-06 10:08:32]	[UserID:06/343]	[IP:10.10.11.1]	[Browser:Chrome - 44.0.2403.125]	[Action:Filtering User : MasterData Username : 06/343]	[Remarks:Success]
[Date: 2015-08-06 10:08:32]	[UserID:06/343]	[IP:10.10.11.1]	[Browser:Chrome - 44.0.2403.125]	[Action:Closing mssql connection]	[Remarks:Success]
[Date: 2015-08-06 10:08:32]	[UserID:06/343]	[IP:10.10.11.1]	[Browser:Chrome - 44.0.2403.125]	[Action:Making connection to server]	[Remarks:Successful connection to server: S3]
[Date: 2015-08-06 10:08:32]	[UserID:06/343]	[IP:10.10.11.1]	[Browser:Chrome - 44.0.2403.125]	[Action:GetProgramList 06/343]	[Remarks:[{"ID":"1","ProgramIndex":"GST","ProgramName":"GST"}]]
[Date: 2015-08-06 10:08:32]	[UserID:06/343]	[IP:10.10.11.1]	[Browser:Chrome - 44.0.2403.125]	[Action:Making connection to server]	[Remarks:Successful connection to server: S3]
[Date: 2015-08-06 10:08:32]	[UserID:06/343]	[IP:10.10.11.1]	[Browser:Chrome - 44.0.2403.125]	[Action:GetProgramList 06/343]	[Remarks:[{"ID":"1","ProgramIndex":"GST","ProgramName":"GST"}]]
[Date: 2015-08-06 10:08:32]	[UserID:06/343]	[IP:10.10.11.1]	[Browser:Chrome - 44.0.2403.125]	[Action:Making connection to server]	[Remarks:Successful connection to server: S3]
[Date: 2015-08-06 10:08:32]	[UserID:06/343]	[IP:10.10.11.1]	[Browser:Chrome - 44.0.2403.125]	[Action:Filtering User : MasterData Username : 06/343]	[Remarks:Successful filter row count: 1]
[Date: 2015-08-06 10:08:33]	[UserID:06/343]	[IP:10.10.11.1]	[Browser:Chrome - 44.0.2403.125]	[Action:Making connection to server]	[Remarks:Successful connection to server: S3]
[Date: 2015-08-06 10:08:33]	[UserID:06/343]	[IP:10.10.11.1]	[Browser:Chrome - 44.0.2403.125]	[Action:GetGSTModules 06/343,1]	[Remarks:Successful filter row count: 5]
[Date: 2015-08-06 10:08:33]	[UserID:06/343]	[IP:10.10.11.1]	[Browser:Chrome - 44.0.2403.125]	[Action:Closing mssql connection]	[Remarks:Success]
[Date: 2015-08-06 10:11:41]	[UserID:06/343]	[IP:10.10.11.1]	[Browser:Chrome - 44.0.2403.125]	[Action:Making connection to server]	[Remarks:Successful connection to server: S3]
[Date: 2015-08-06 10:11:41]	[UserID:06/343]	[IP:10.10.11.1]	[Browser:Chrome - 44.0.2403.125]	[Action:GetGSTModules 06/343,1]	[Remarks:Successful filter row count: 5]
[Date: 2015-08-06 10:11:41]	[UserID:06/343]	[IP:10.10.11.1]	[Browser:Chrome - 44.0.2403.125]	[Action:Closing mssql connection]	[Remarks:Success]
[Date: 2015-08-06 10:13:13]	[UserID:06/343]	[IP:10.10.11.1]	[Browser:Chrome - 44.0.2403.125]	[Action:Making connection to server]	[Remarks:Successful connection to server: S3]
[Date: 2015-08-06 10:13:13]	[UserID:06/343]	[IP:10.10.11.1]	[Browser:Chrome - 44.0.2403.125]	[Action:GetGSTModules 06/343,1]	[Remarks:Successful filter row count: 5]
[Date: 2015-08-06 10:13:13]	[UserID:06/343]	[IP:10.10.11.1]	[Browser:Chrome - 44.0.2403.125]	[Action:Closing mssql connection]	[Remarks:Success]
[Date: 2015-08-06 11:14:09]	[UserID:]	[IP:10.10.11.1]	[Browser:Chrome - 44.0.2403.130]	[Action:Making connection to server]	[Remarks:Successful connection to server: S3]
[Date: 2015-08-06 11:14:09]	[UserID:]	[IP:10.10.11.1]	[Browser:Chrome - 44.0.2403.130]	[Action:GetProgramList ]	[Remarks:"no data"]
[Date: 2015-08-06 11:14:11]	[UserID:10/660]	[IP:10.10.11.1]	[Browser:Chrome - 44.0.2403.130]	[Action:Making connection to server]	[Remarks:Successful connection to server: S3]
[Date: 2015-08-06 11:14:11]	[UserID:10/660]	[IP:10.10.11.1]	[Browser:Chrome - 44.0.2403.130]	[Action:User 10/660]	[Remarks:Success]
[Date: 2015-08-06 11:14:11]	[UserID:10/660]	[IP:10.10.11.1]	[Browser:Chrome - 44.0.2403.130]	[Action:Filtering User : MasterData Username : 10/660]	[Remarks:Successful filter row count: 0]
[Date: 2015-08-06 11:14:11]	[UserID:10/660]	[IP:10.10.11.1]	[Browser:Chrome - 44.0.2403.130]	[Action:Filtering User : MasterData Username : 10/660]	[Remarks:Successful filter row count: 0]
[Date: 2015-08-06 11:14:11]	[UserID:10/660]	[IP:10.10.11.1]	[Browser:Chrome - 44.0.2403.130]	[Action:Filtering User : MasterData Username : 10/660]	[Remarks:Success]
[Date: 2015-08-06 11:14:11]	[UserID:10/660]	[IP:10.10.11.1]	[Browser:Chrome - 44.0.2403.130]	[Action:Closing mssql connection]	[Remarks:Success]
[Date: 2015-08-06 11:14:12]	[UserID:10/660]	[IP:10.10.11.1]	[Browser:Chrome - 44.0.2403.130]	[Action:Making connection to server]	[Remarks:Successful connection to server: S3]
[Date: 2015-08-06 11:14:12]	[UserID:10/660]	[IP:10.10.11.1]	[Browser:Chrome - 44.0.2403.130]	[Action:GetProgramList 10/660]	[Remarks:[{"ID":"1","ProgramIndex":"GST","ProgramName":"GST"}]]
[Date: 2015-08-06 11:14:12]	[UserID:10/660]	[IP:10.10.11.1]	[Browser:Chrome - 44.0.2403.130]	[Action:Making connection to server]	[Remarks:Successful connection to server: S3]
[Date: 2015-08-06 11:14:12]	[UserID:10/660]	[IP:10.10.11.1]	[Browser:Chrome - 44.0.2403.130]	[Action:GetProgramList 10/660]	[Remarks:[{"ID":"1","ProgramIndex":"GST","ProgramName":"GST"}]]
[Date: 2015-08-06 11:14:12]	[UserID:10/660]	[IP:10.10.11.1]	[Browser:Chrome - 44.0.2403.130]	[Action:Making connection to server]	[Remarks:Successful connection to server: S3]
[Date: 2015-08-06 11:14:12]	[UserID:10/660]	[IP:10.10.11.1]	[Browser:Chrome - 44.0.2403.130]	[Action:Filtering User : MasterData Username : 10/660]	[Remarks:Successful filter row count: 1]
[Date: 2015-08-06 11:14:12]	[UserID:10/660]	[IP:10.10.11.1]	[Browser:Chrome - 44.0.2403.130]	[Action:Making connection to server]	[Remarks:Successful connection to server: S3]
[Date: 2015-08-06 11:14:12]	[UserID:10/660]	[IP:10.10.11.1]	[Browser:Chrome - 44.0.2403.130]	[Action:GetGSTModules 10/660,1]	[Remarks:Successful filter row count: 3]
[Date: 2015-08-06 11:14:12]	[UserID:10/660]	[IP:10.10.11.1]	[Browser:Chrome - 44.0.2403.130]	[Action:Closing mssql connection]	[Remarks:Success]
[Date: 2015-08-06 11:14:54]	[UserID:10/660]	[IP:10.10.11.1]	[Browser:Chrome - 44.0.2403.130]	[Action:Making connection to server]	[Remarks:Successful connection to server: S3]
[Date: 2015-08-06 11:14:54]	[UserID:10/660]	[IP:10.10.11.1]	[Browser:Chrome - 44.0.2403.130]	[Action:GetGSTModules 10/660,1]	[Remarks:Successful filter row count: 3]
[Date: 2015-08-06 11:14:54]	[UserID:10/660]	[IP:10.10.11.1]	[Browser:Chrome - 44.0.2403.130]	[Action:Closing mssql connection]	[Remarks:Success]
[Date: 2015-08-06 11:15:21]	[UserID:]	[IP:10.10.11.1]	[Browser:Chrome - 44.0.2403.130]	[Action:Making connection to server]	[Remarks:Successful connection to server: S3]
[Date: 2015-08-06 11:15:21]	[UserID:]	[IP:10.10.11.1]	[Browser:Chrome - 44.0.2403.130]	[Action:GetProgramList ]	[Remarks:"no data"]
[Date: 2015-08-06 11:33:19]	[UserID:]	[IP:10.10.11.1]	[Browser:Chrome - 44.0.2403.130]	[Action:Making connection to server]	[Remarks:Successful connection to server: S3]
[Date: 2015-08-06 11:33:19]	[UserID:]	[IP:10.10.11.1]	[Browser:Chrome - 44.0.2403.130]	[Action:GetProgramList ]	[Remarks:"no data"]
[Date: 2015-08-06 11:33:23]	[UserID:10/660]	[IP:10.10.11.1]	[Browser:Chrome - 44.0.2403.130]	[Action:Making connection to server]	[Remarks:Successful connection to server: S3]
[Date: 2015-08-06 11:33:23]	[UserID:10/660]	[IP:10.10.11.1]	[Browser:Chrome - 44.0.2403.130]	[Action:User 10/660]	[Remarks:Success]
[Date: 2015-08-06 11:33:23]	[UserID:10/660]	[IP:10.10.11.1]	[Browser:Chrome - 44.0.2403.130]	[Action:Filtering User : MasterData Username : 10/660]	[Remarks:Successful filter row count: 0]
[Date: 2015-08-06 11:33:23]	[UserID:10/660]	[IP:10.10.11.1]	[Browser:Chrome - 44.0.2403.130]	[Action:Filtering User : MasterData Username : 10/660]	[Remarks:Successful filter row count: 0]
[Date: 2015-08-06 11:33:23]	[UserID:10/660]	[IP:10.10.11.1]	[Browser:Chrome - 44.0.2403.130]	[Action:Filtering User : MasterData Username : 10/660]	[Remarks:Success]
[Date: 2015-08-06 11:33:23]	[UserID:10/660]	[IP:10.10.11.1]	[Browser:Chrome - 44.0.2403.130]	[Action:Closing mssql connection]	[Remarks:Success]
[Date: 2015-08-06 11:33:23]	[UserID:10/660]	[IP:10.10.11.1]	[Browser:Chrome - 44.0.2403.130]	[Action:Making connection to server]	[Remarks:Successful connection to server: S3]
[Date: 2015-08-06 11:33:23]	[UserID:10/660]	[IP:10.10.11.1]	[Browser:Chrome - 44.0.2403.130]	[Action:GetProgramList 10/660]	[Remarks:[{"ID":"1","ProgramIndex":"GST","ProgramName":"GST"}]]
[Date: 2015-08-06 11:33:23]	[UserID:10/660]	[IP:10.10.11.1]	[Browser:Chrome - 44.0.2403.130]	[Action:Making connection to server]	[Remarks:Successful connection to server: S3]
[Date: 2015-08-06 11:33:23]	[UserID:10/660]	[IP:10.10.11.1]	[Browser:Chrome - 44.0.2403.130]	[Action:GetProgramList 10/660]	[Remarks:[{"ID":"1","ProgramIndex":"GST","ProgramName":"GST"}]]
[Date: 2015-08-06 11:33:23]	[UserID:10/660]	[IP:10.10.11.1]	[Browser:Chrome - 44.0.2403.130]	[Action:Making connection to server]	[Remarks:Successful connection to server: S3]
[Date: 2015-08-06 11:33:23]	[UserID:10/660]	[IP:10.10.11.1]	[Browser:Chrome - 44.0.2403.130]	[Action:Filtering User : MasterData Username : 10/660]	[Remarks:Successful filter row count: 1]
[Date: 2015-08-06 11:33:23]	[UserID:10/660]	[IP:10.10.11.1]	[Browser:Chrome - 44.0.2403.130]	[Action:Making connection to server]	[Remarks:Successful connection to server: S3]
[Date: 2015-08-06 11:33:24]	[UserID:10/660]	[IP:10.10.11.1]	[Browser:Chrome - 44.0.2403.130]	[Action:GetGSTModules 10/660,1]	[Remarks:Successful filter row count: 3]
[Date: 2015-08-06 11:33:24]	[UserID:10/660]	[IP:10.10.11.1]	[Browser:Chrome - 44.0.2403.130]	[Action:Closing mssql connection]	[Remarks:Success]
[Date: 2015-08-06 11:34:38]	[UserID:10/660]	[IP:10.10.11.1]	[Browser:Chrome - 44.0.2403.130]	[Action:Making connection to server]	[Remarks:Successful connection to server: S3]
[Date: 2015-08-06 11:34:38]	[UserID:10/660]	[IP:10.10.11.1]	[Browser:Chrome - 44.0.2403.130]	[Action:GetGSTModules 10/660,1]	[Remarks:Successful filter row count: 3]
[Date: 2015-08-06 11:34:38]	[UserID:10/660]	[IP:10.10.11.1]	[Browser:Chrome - 44.0.2403.130]	[Action:Closing mssql connection]	[Remarks:Success]
[Date: 2015-08-06 11:35:01]	[UserID:]	[IP:10.10.11.1]	[Browser:Chrome - 44.0.2403.130]	[Action:Making connection to server]	[Remarks:Successful connection to server: S3]
[Date: 2015-08-06 11:35:01]	[UserID:]	[IP:10.10.11.1]	[Browser:Chrome - 44.0.2403.130]	[Action:GetProgramList ]	[Remarks:"no data"]
[Date: 2015-08-06 11:39:32]	[UserID:]	[IP:10.10.11.1]	[Browser:Chrome - 44.0.2403.125]	[Action:Making connection to server]	[Remarks:Successful connection to server: S3]
[Date: 2015-08-06 11:39:32]	[UserID:]	[IP:10.10.11.1]	[Browser:Chrome - 44.0.2403.125]	[Action:Making connection to server]	[Remarks:Successful connection to server: S3]
[Date: 2015-08-06 11:39:32]	[UserID:]	[IP:10.10.11.1]	[Browser:Chrome - 44.0.2403.125]	[Action:GetProgramList ]	[Remarks:"no data"]
[Date: 2015-08-06 11:39:32]	[UserID:]	[IP:10.10.11.1]	[Browser:Chrome - 44.0.2403.125]	[Action:GetProgramList ]	[Remarks:"no data"]
[Date: 2015-08-06 11:40:07]	[UserID:06/343]	[IP:10.10.11.1]	[Browser:Chrome - 44.0.2403.125]	[Action:Making connection to server]	[Remarks:Successful connection to server: S3]
[Date: 2015-08-06 11:40:07]	[UserID:06/343]	[IP:10.10.11.1]	[Browser:Chrome - 44.0.2403.125]	[Action:User 06/343]	[Remarks:Success]
[Date: 2015-08-06 11:40:07]	[UserID:06/343]	[IP:10.10.11.1]	[Browser:Chrome - 44.0.2403.125]	[Action:Filtering User : MasterData Username : 06/343]	[Remarks:Successful filter row count: 0]
[Date: 2015-08-06 11:40:07]	[UserID:06/343]	[IP:10.10.11.1]	[Browser:Chrome - 44.0.2403.125]	[Action:Filtering User : MasterData Username : 06/343]	[Remarks:Successful filter row count: 0]
[Date: 2015-08-06 11:40:07]	[UserID:06/343]	[IP:10.10.11.1]	[Browser:Chrome - 44.0.2403.125]	[Action:Filtering User : MasterData Username : 06/343]	[Remarks:Success]
[Date: 2015-08-06 11:40:07]	[UserID:06/343]	[IP:10.10.11.1]	[Browser:Chrome - 44.0.2403.125]	[Action:Closing mssql connection]	[Remarks:Success]
[Date: 2015-08-06 11:40:07]	[UserID:06/343]	[IP:10.10.11.1]	[Browser:Chrome - 44.0.2403.125]	[Action:Making connection to server]	[Remarks:Successful connection to server: S3]
[Date: 2015-08-06 11:40:07]	[UserID:06/343]	[IP:10.10.11.1]	[Browser:Chrome - 44.0.2403.125]	[Action:GetProgramList 06/343]	[Remarks:[{"ID":"1","ProgramIndex":"GST","ProgramName":"GST"}]]
[Date: 2015-08-06 11:40:07]	[UserID:06/343]	[IP:10.10.11.1]	[Browser:Chrome - 44.0.2403.125]	[Action:Making connection to server]	[Remarks:Successful connection to server: S3]
[Date: 2015-08-06 11:40:07]	[UserID:06/343]	[IP:10.10.11.1]	[Browser:Chrome - 44.0.2403.125]	[Action:GetProgramList 06/343]	[Remarks:[{"ID":"1","ProgramIndex":"GST","ProgramName":"GST"}]]
[Date: 2015-08-06 11:40:07]	[UserID:06/343]	[IP:10.10.11.1]	[Browser:Chrome - 44.0.2403.125]	[Action:Making connection to server]	[Remarks:Successful connection to server: S3]
[Date: 2015-08-06 11:40:07]	[UserID:06/343]	[IP:10.10.11.1]	[Browser:Chrome - 44.0.2403.125]	[Action:Filtering User : MasterData Username : 06/343]	[Remarks:Successful filter row count: 1]
[Date: 2015-08-06 11:40:08]	[UserID:06/343]	[IP:10.10.11.1]	[Browser:Chrome - 44.0.2403.125]	[Action:Making connection to server]	[Remarks:Successful connection to server: S3]
[Date: 2015-08-06 11:40:08]	[UserID:06/343]	[IP:10.10.11.1]	[Browser:Chrome - 44.0.2403.125]	[Action:GetGSTModules 06/343,1]	[Remarks:Successful filter row count: 5]
[Date: 2015-08-06 11:40:08]	[UserID:06/343]	[IP:10.10.11.1]	[Browser:Chrome - 44.0.2403.125]	[Action:Closing mssql connection]	[Remarks:Success]
[Date: 2015-08-06 11:43:39]	[UserID:06/343]	[IP:10.10.11.1]	[Browser:Chrome - 44.0.2403.125]	[Action:Making connection to server]	[Remarks:Successful connection to server: S3]
[Date: 2015-08-06 11:43:39]	[UserID:06/343]	[IP:10.10.11.1]	[Browser:Chrome - 44.0.2403.125]	[Action:GetGSTModules 06/343,1]	[Remarks:Successful filter row count: 5]
[Date: 2015-08-06 11:43:39]	[UserID:06/343]	[IP:10.10.11.1]	[Browser:Chrome - 44.0.2403.125]	[Action:Closing mssql connection]	[Remarks:Success]
[Date: 2015-08-06 11:46:29]	[UserID:06/343]	[IP:10.10.11.1]	[Browser:Chrome - 44.0.2403.125]	[Action:Making connection to server]	[Remarks:Successful connection to server: S3]
[Date: 2015-08-06 11:46:29]	[UserID:06/343]	[IP:10.10.11.1]	[Browser:Chrome - 44.0.2403.125]	[Action:GetGSTModules 06/343,1]	[Remarks:Successful filter row count: 5]
[Date: 2015-08-06 11:46:29]	[UserID:06/343]	[IP:10.10.11.1]	[Browser:Chrome - 44.0.2403.125]	[Action:Closing mssql connection]	[Remarks:Success]
[Date: 2015-08-06 15:34:29]	[UserID:]	[IP:10.10.11.1]	[Browser:Chrome - 44.0.2403.125]	[Action:Making connection to server]	[Remarks:Successful connection to server: S3]
[Date: 2015-08-06 15:34:29]	[UserID:]	[IP:10.10.11.1]	[Browser:Chrome - 44.0.2403.125]	[Action:GetProgramList ]	[Remarks:"no data"]
[Date: 2015-08-06 15:34:31]	[UserID:06/371]	[IP:10.10.11.1]	[Browser:Chrome - 44.0.2403.125]	[Action:Making connection to server]	[Remarks:Successful connection to server: S3]
[Date: 2015-08-06 15:34:31]	[UserID:06/371]	[IP:10.10.11.1]	[Browser:Chrome - 44.0.2403.125]	[Action:User 06/371]	[Remarks:Success]
[Date: 2015-08-06 15:34:31]	[UserID:06/371]	[IP:10.10.11.1]	[Browser:Chrome - 44.0.2403.125]	[Action:Filtering User : MasterData Username : 06/371]	[Remarks:Successful filter row count: 0]
[Date: 2015-08-06 15:34:31]	[UserID:06/371]	[IP:10.10.11.1]	[Browser:Chrome - 44.0.2403.125]	[Action:Filtering User : MasterData Username : 06/371]	[Remarks:Successful filter row count: 0]
[Date: 2015-08-06 15:34:31]	[UserID:06/371]	[IP:10.10.11.1]	[Browser:Chrome - 44.0.2403.125]	[Action:Filtering User : MasterData Username : 06/371]	[Remarks:Success]
[Date: 2015-08-06 15:34:31]	[UserID:06/371]	[IP:10.10.11.1]	[Browser:Chrome - 44.0.2403.125]	[Action:Closing mssql connection]	[Remarks:Success]
[Date: 2015-08-06 15:34:32]	[UserID:06/371]	[IP:10.10.11.1]	[Browser:Chrome - 44.0.2403.125]	[Action:Making connection to server]	[Remarks:Successful connection to server: S3]
[Date: 2015-08-06 15:34:32]	[UserID:06/371]	[IP:10.10.11.1]	[Browser:Chrome - 44.0.2403.125]	[Action:GetProgramList 06/371]	[Remarks:[{"ID":"1","ProgramIndex":"GST","ProgramName":"GST"}]]
[Date: 2015-08-06 15:34:32]	[UserID:06/371]	[IP:10.10.11.1]	[Browser:Chrome - 44.0.2403.125]	[Action:Making connection to server]	[Remarks:Successful connection to server: S3]
[Date: 2015-08-06 15:34:32]	[UserID:06/371]	[IP:10.10.11.1]	[Browser:Chrome - 44.0.2403.125]	[Action:GetProgramList 06/371]	[Remarks:[{"ID":"1","ProgramIndex":"GST","ProgramName":"GST"}]]
[Date: 2015-08-06 15:34:32]	[UserID:06/371]	[IP:10.10.11.1]	[Browser:Chrome - 44.0.2403.125]	[Action:Making connection to server]	[Remarks:Successful connection to server: S3]
[Date: 2015-08-06 15:34:32]	[UserID:06/371]	[IP:10.10.11.1]	[Browser:Chrome - 44.0.2403.125]	[Action:Filtering User : MasterData Username : 06/371]	[Remarks:Successful filter row count: 1]
[Date: 2015-08-06 15:34:32]	[UserID:06/371]	[IP:10.10.11.1]	[Browser:Chrome - 44.0.2403.125]	[Action:Making connection to server]	[Remarks:Successful connection to server: S3]
[Date: 2015-08-06 15:34:32]	[UserID:06/371]	[IP:10.10.11.1]	[Browser:Chrome - 44.0.2403.125]	[Action:GetGSTModules 06/371,1]	[Remarks:Successful filter row count: 5]
[Date: 2015-08-06 15:34:32]	[UserID:06/371]	[IP:10.10.11.1]	[Browser:Chrome - 44.0.2403.125]	[Action:Closing mssql connection]	[Remarks:Success]
[Date: 2015-08-06 15:35:44]	[UserID:06/371]	[IP:10.10.11.1]	[Browser:Chrome - 44.0.2403.125]	[Action:Making connection to server]	[Remarks:Successful connection to server: S3]
[Date: 2015-08-06 15:35:44]	[UserID:06/371]	[IP:10.10.11.1]	[Browser:Chrome - 44.0.2403.125]	[Action:GetGSTModules 06/371,1]	[Remarks:Successful filter row count: 5]
[Date: 2015-08-06 15:35:44]	[UserID:06/371]	[IP:10.10.11.1]	[Browser:Chrome - 44.0.2403.125]	[Action:Closing mssql connection]	[Remarks:Success]
[Date: 2015-08-06 15:41:04]	[UserID:06/371]	[IP:10.10.11.1]	[Browser:Chrome - 44.0.2403.125]	[Action:Making connection to server]	[Remarks:Successful connection to server: S3]
[Date: 2015-08-06 15:41:04]	[UserID:06/371]	[IP:10.10.11.1]	[Browser:Chrome - 44.0.2403.125]	[Action:GetGSTModules 06/371,1]	[Remarks:Successful filter row count: 5]
[Date: 2015-08-06 15:41:04]	[UserID:06/371]	[IP:10.10.11.1]	[Browser:Chrome - 44.0.2403.125]	[Action:Closing mssql connection]	[Remarks:Success]
[Date: 2015-08-06 15:43:56]	[UserID:06/371]	[IP:10.10.11.1]	[Browser:Chrome - 44.0.2403.125]	[Action:Making connection to server]	[Remarks:Successful connection to server: S3]
[Date: 2015-08-06 15:43:56]	[UserID:06/371]	[IP:10.10.11.1]	[Browser:Chrome - 44.0.2403.125]	[Action:GetGSTModules 06/371,1]	[Remarks:Successful filter row count: 5]
[Date: 2015-08-06 15:43:56]	[UserID:06/371]	[IP:10.10.11.1]	[Browser:Chrome - 44.0.2403.125]	[Action:Closing mssql connection]	[Remarks:Success]
[Date: 2015-08-06 15:44:11]	[UserID:06/371]	[IP:10.10.11.1]	[Browser:Chrome - 44.0.2403.125]	[Action:Making connection to server]	[Remarks:Successful connection to server: S3]
[Date: 2015-08-06 15:44:12]	[UserID:06/371]	[IP:10.10.11.1]	[Browser:Chrome - 44.0.2403.125]	[Action:GetGSTModules 06/371,1]	[Remarks:Successful filter row count: 5]
[Date: 2015-08-06 15:44:12]	[UserID:06/371]	[IP:10.10.11.1]	[Browser:Chrome - 44.0.2403.125]	[Action:Closing mssql connection]	[Remarks:Success]
[Date: 2015-08-06 15:47:14]	[UserID:06/371]	[IP:10.10.11.1]	[Browser:Chrome - 44.0.2403.125]	[Action:Making connection to server]	[Remarks:Successful connection to server: S3]
[Date: 2015-08-06 15:47:14]	[UserID:06/371]	[IP:10.10.11.1]	[Browser:Chrome - 44.0.2403.125]	[Action:GetGSTModules 06/371,1]	[Remarks:Successful filter row count: 5]
[Date: 2015-08-06 15:47:14]	[UserID:06/371]	[IP:10.10.11.1]	[Browser:Chrome - 44.0.2403.125]	[Action:Closing mssql connection]	[Remarks:Success]
