[Date: 2020-01-29 08:33:04]	[UserID:]	[IP:10.130.25.202]	[Browser:Chrome - 79.0.3945.130]	[Action:Making connection to server]	[Remarks:Successful connection to server: S3]
[Date: 2020-01-29 08:33:04]	[UserID:]	[IP:10.130.25.202]	[Browser:Chrome - 79.0.3945.130]	[Action:GetProgramList ]	[Remarks:"no data"]
[Date: 2020-01-29 09:06:57]	[UserID:]	[IP:10.128.12.113]	[Browser:Chrome - 79.0.3945.130]	[Action:Making connection to server]	[Remarks:Successful connection to server: S3]
[Date: 2020-01-29 09:06:57]	[UserID:]	[IP:10.128.12.113]	[Browser:Chrome - 79.0.3945.130]	[Action:GetProgramList ]	[Remarks:"no data"]
[Date: 2020-01-29 09:07:09]	[UserID:06/343]	[IP:10.128.12.113]	[Browser:Chrome - 79.0.3945.130]	[Action:Making connection to server]	[Remarks:Successful connection to server: S3]
[Date: 2020-01-29 09:07:10]	[UserID:06/343]	[IP:10.128.12.113]	[Browser:Chrome - 79.0.3945.130]	[Action:User 06/343]	[Remarks:Success]
[Date: 2020-01-29 09:07:10]	[UserID:06/343]	[IP:10.128.12.113]	[Browser:Chrome - 79.0.3945.130]	[Action:Filtering User : MasterData Username : 06/343]	[Remarks:Successful filter row count: 0]
[Date: 2020-01-29 09:07:10]	[UserID:06/343]	[IP:10.128.12.113]	[Browser:Chrome - 79.0.3945.130]	[Action:Filtering User : MasterData Username : 06/343]	[Remarks:Successful filter row count: 0]
[Date: 2020-01-29 09:07:10]	[UserID:06/343]	[IP:10.128.12.113]	[Browser:Chrome - 79.0.3945.130]	[Action:Filtering User : MasterData Username : 06/343]	[Remarks:Success]
[Date: 2020-01-29 09:07:10]	[UserID:06/343]	[IP:10.128.12.113]	[Browser:Chrome - 79.0.3945.130]	[Action:Closing mssql connection]	[Remarks:Success]
[Date: 2020-01-29 09:07:10]	[UserID:06/343]	[IP:10.128.12.113]	[Browser:Chrome - 79.0.3945.130]	[Action:Making connection to server]	[Remarks:Successful connection to server: S3]
[Date: 2020-01-29 09:07:10]	[UserID:06/343]	[IP:10.128.12.113]	[Browser:Chrome - 79.0.3945.130]	[Action:GetProgramList 06/343]	[Remarks:[{"ID":"1","ProgramIndex":"GST","ProgramName":"GST"}]]
[Date: 2020-01-29 09:07:10]	[UserID:06/343]	[IP:10.128.12.113]	[Browser:Chrome - 79.0.3945.130]	[Action:Making connection to server]	[Remarks:Successful connection to server: S3]
[Date: 2020-01-29 09:07:10]	[UserID:06/343]	[IP:10.128.12.113]	[Browser:Chrome - 79.0.3945.130]	[Action:GetProgramList 06/343]	[Remarks:[{"ID":"1","ProgramIndex":"GST","ProgramName":"GST"}]]
[Date: 2020-01-29 09:07:10]	[UserID:06/343]	[IP:10.128.12.113]	[Browser:Chrome - 79.0.3945.130]	[Action:Making connection to server]	[Remarks:Successful connection to server: S3]
[Date: 2020-01-29 09:07:10]	[UserID:06/343]	[IP:10.128.12.113]	[Browser:Chrome - 79.0.3945.130]	[Action:Filtering User : MasterData Username : 06/343]	[Remarks:Successful filter row count: 1]
[Date: 2020-01-29 09:07:10]	[UserID:06/343]	[IP:10.128.12.113]	[Browser:Chrome - 79.0.3945.130]	[Action:Making connection to server]	[Remarks:Successful connection to server: S3]
[Date: 2020-01-29 09:07:10]	[UserID:06/343]	[IP:10.128.12.113]	[Browser:Chrome - 79.0.3945.130]	[Action:GetGSTModules 06/343,1]	[Remarks:Successful filter row count: 7]
[Date: 2020-01-29 09:07:10]	[UserID:06/343]	[IP:10.128.12.113]	[Browser:Chrome - 79.0.3945.130]	[Action:Closing mssql connection]	[Remarks:Success]
[Date: 2020-01-29 09:09:24]	[UserID:06/343]	[IP:10.128.12.113]	[Browser:Chrome - 79.0.3945.130]	[Action:Making connection to server]	[Remarks:Successful connection to server: S3]
[Date: 2020-01-29 09:09:24]	[UserID:06/343]	[IP:10.128.12.113]	[Browser:Chrome - 79.0.3945.130]	[Action:GetGSTModules 06/343,1]	[Remarks:Successful filter row count: 7]
[Date: 2020-01-29 09:09:24]	[UserID:06/343]	[IP:10.128.12.113]	[Browser:Chrome - 79.0.3945.130]	[Action:Closing mssql connection]	[Remarks:Success]
[Date: 2020-01-29 09:12:51]	[UserID:06/343]	[IP:10.128.12.113]	[Browser:Chrome - 79.0.3945.130]	[Action:Making connection to server]	[Remarks:Successful connection to server: S3]
[Date: 2020-01-29 09:12:52]	[UserID:06/343]	[IP:10.128.12.113]	[Browser:Chrome - 79.0.3945.130]	[Action:GetGSTModules 06/343,1]	[Remarks:Successful filter row count: 7]
[Date: 2020-01-29 09:12:52]	[UserID:06/343]	[IP:10.128.12.113]	[Browser:Chrome - 79.0.3945.130]	[Action:Closing mssql connection]	[Remarks:Success]
[Date: 2020-01-29 09:26:07]	[UserID:06/343]	[IP:10.128.12.113]	[Browser:Chrome - 79.0.3945.130]	[Action:Making connection to server]	[Remarks:Successful connection to server: S3]
[Date: 2020-01-29 09:26:07]	[UserID:06/343]	[IP:10.128.12.113]	[Browser:Chrome - 79.0.3945.130]	[Action:GetGSTModules 06/343,1]	[Remarks:Successful filter row count: 7]
[Date: 2020-01-29 09:26:07]	[UserID:06/343]	[IP:10.128.12.113]	[Browser:Chrome - 79.0.3945.130]	[Action:Closing mssql connection]	[Remarks:Success]
[Date: 2020-01-29 09:31:51]	[UserID:06/343]	[IP:10.128.12.113]	[Browser:Chrome - 79.0.3945.130]	[Action:Making connection to server]	[Remarks:Successful connection to server: S3]
[Date: 2020-01-29 09:31:51]	[UserID:06/343]	[IP:10.128.12.113]	[Browser:Chrome - 79.0.3945.130]	[Action:GetGSTModules 06/343,1]	[Remarks:Successful filter row count: 7]
[Date: 2020-01-29 09:31:51]	[UserID:06/343]	[IP:10.128.12.113]	[Browser:Chrome - 79.0.3945.130]	[Action:Closing mssql connection]	[Remarks:Success]
[Date: 2020-01-29 09:34:47]	[UserID:06/343]	[IP:10.128.12.113]	[Browser:Chrome - 79.0.3945.130]	[Action:Making connection to server]	[Remarks:Successful connection to server: S3]
[Date: 2020-01-29 09:34:47]	[UserID:06/343]	[IP:10.128.12.113]	[Browser:Chrome - 79.0.3945.130]	[Action:GetGSTModules 06/343,1]	[Remarks:Successful filter row count: 7]
[Date: 2020-01-29 09:34:47]	[UserID:06/343]	[IP:10.128.12.113]	[Browser:Chrome - 79.0.3945.130]	[Action:Closing mssql connection]	[Remarks:Success]
[Date: 2020-01-29 09:40:26]	[UserID:06/343]	[IP:10.128.12.113]	[Browser:Chrome - 79.0.3945.130]	[Action:Making connection to server]	[Remarks:Successful connection to server: S3]
[Date: 2020-01-29 09:40:26]	[UserID:06/343]	[IP:10.128.12.113]	[Browser:Chrome - 79.0.3945.130]	[Action:GetGSTModules 06/343,1]	[Remarks:Successful filter row count: 7]
[Date: 2020-01-29 09:40:26]	[UserID:06/343]	[IP:10.128.12.113]	[Browser:Chrome - 79.0.3945.130]	[Action:Closing mssql connection]	[Remarks:Success]
[Date: 2020-01-29 09:47:39]	[UserID:06/343]	[IP:10.128.12.113]	[Browser:Chrome - 79.0.3945.130]	[Action:Making connection to server]	[Remarks:Successful connection to server: S3]
[Date: 2020-01-29 09:47:39]	[UserID:06/343]	[IP:10.128.12.113]	[Browser:Chrome - 79.0.3945.130]	[Action:GetGSTModules 06/343,1]	[Remarks:Successful filter row count: 7]
[Date: 2020-01-29 09:47:39]	[UserID:06/343]	[IP:10.128.12.113]	[Browser:Chrome - 79.0.3945.130]	[Action:Closing mssql connection]	[Remarks:Success]
[Date: 2020-01-29 09:56:44]	[UserID:06/343]	[IP:10.128.12.113]	[Browser:Chrome - 79.0.3945.130]	[Action:Making connection to server]	[Remarks:Successful connection to server: S3]
[Date: 2020-01-29 09:56:44]	[UserID:06/343]	[IP:10.128.12.113]	[Browser:Chrome - 79.0.3945.130]	[Action:GetGSTModules 06/343,1]	[Remarks:Successful filter row count: 7]
[Date: 2020-01-29 09:56:44]	[UserID:06/343]	[IP:10.128.12.113]	[Browser:Chrome - 79.0.3945.130]	[Action:Closing mssql connection]	[Remarks:Success]
[Date: 2020-01-29 09:58:20]	[UserID:06/343]	[IP:10.128.12.113]	[Browser:Chrome - 79.0.3945.130]	[Action:Making connection to server]	[Remarks:Successful connection to server: S3]
[Date: 2020-01-29 09:58:20]	[UserID:06/343]	[IP:10.128.12.113]	[Browser:Chrome - 79.0.3945.130]	[Action:GetGSTModules 06/343,1]	[Remarks:Successful filter row count: 7]
[Date: 2020-01-29 09:58:20]	[UserID:06/343]	[IP:10.128.12.113]	[Browser:Chrome - 79.0.3945.130]	[Action:Closing mssql connection]	[Remarks:Success]
[Date: 2020-01-29 10:29:35]	[UserID:]	[IP:10.130.25.208]	[Browser:Firefox - 60.0]	[Action:Making connection to server]	[Remarks:Successful connection to server: S3]
[Date: 2020-01-29 10:29:35]	[UserID:]	[IP:10.130.25.208]	[Browser:Firefox - 60.0]	[Action:GetProgramList ]	[Remarks:"no data"]
[Date: 2020-01-29 10:45:19]	[UserID:06/343]	[IP:10.128.12.113]	[Browser:Chrome - 79.0.3945.130]	[Action:Making connection to server]	[Remarks:Successful connection to server: S3]
[Date: 2020-01-29 10:45:19]	[UserID:06/343]	[IP:10.128.12.113]	[Browser:Chrome - 79.0.3945.130]	[Action:GetGSTModules 06/343,1]	[Remarks:Successful filter row count: 7]
[Date: 2020-01-29 10:45:19]	[UserID:06/343]	[IP:10.128.12.113]	[Browser:Chrome - 79.0.3945.130]	[Action:Closing mssql connection]	[Remarks:Success]
[Date: 2020-01-29 10:46:08]	[UserID:06/343]	[IP:10.128.12.113]	[Browser:Chrome - 79.0.3945.130]	[Action:Making connection to server]	[Remarks:Successful connection to server: S3]
[Date: 2020-01-29 10:46:08]	[UserID:06/343]	[IP:10.128.12.113]	[Browser:Chrome - 79.0.3945.130]	[Action:GetGSTModules 06/343,1]	[Remarks:Successful filter row count: 7]
[Date: 2020-01-29 10:46:08]	[UserID:06/343]	[IP:10.128.12.113]	[Browser:Chrome - 79.0.3945.130]	[Action:Closing mssql connection]	[Remarks:Success]
[Date: 2020-01-29 11:15:33]	[UserID:06/343]	[IP:10.128.12.113]	[Browser:Chrome - 79.0.3945.130]	[Action:Making connection to server]	[Remarks:Successful connection to server: S3]
[Date: 2020-01-29 11:15:33]	[UserID:06/343]	[IP:10.128.12.113]	[Browser:Chrome - 79.0.3945.130]	[Action:GetGSTModules 06/343,1]	[Remarks:Successful filter row count: 7]
[Date: 2020-01-29 11:15:33]	[UserID:06/343]	[IP:10.128.12.113]	[Browser:Chrome - 79.0.3945.130]	[Action:Closing mssql connection]	[Remarks:Success]
[Date: 2020-01-29 11:15:59]	[UserID:06/343]	[IP:10.128.12.113]	[Browser:Chrome - 79.0.3945.130]	[Action:Making connection to server]	[Remarks:Successful connection to server: S3]
[Date: 2020-01-29 11:15:59]	[UserID:06/343]	[IP:10.128.12.113]	[Browser:Chrome - 79.0.3945.130]	[Action:GetGSTModules 06/343,1]	[Remarks:Successful filter row count: 7]
[Date: 2020-01-29 11:15:59]	[UserID:06/343]	[IP:10.128.12.113]	[Browser:Chrome - 79.0.3945.130]	[Action:Closing mssql connection]	[Remarks:Success]
[Date: 2020-01-29 23:01:31]	[UserID:]	[IP:10.130.25.207]	[Browser:Firefox - 60.0]	[Action:Making connection to server]	[Remarks:Successful connection to server: S3]
[Date: 2020-01-29 23:01:31]	[UserID:]	[IP:10.130.25.207]	[Browser:Firefox - 60.0]	[Action:GetProgramList ]	[Remarks:"no data"]
