[Date: 2018-11-26 18:23:50]	[UserID:]	[IP:10.128.12.210]	[Browser:Chrome - 70.0.3538.102]	[Action:Making connection to server]	[Remarks:Successful connection to server: S3]
[Date: 2018-11-26 18:23:50]	[UserID:]	[IP:10.128.12.210]	[Browser:Chrome - 70.0.3538.102]	[Action:GetProgramList ]	[Remarks:"no data"]
[Date: 2018-11-26 18:27:14]	[UserID:10/660]	[IP:10.128.12.210]	[Browser:Chrome - 70.0.3538.102]	[Action:Making connection to server]	[Remarks:Successful connection to server: S3]
[Date: 2018-11-26 18:27:14]	[UserID:10/660]	[IP:10.128.12.210]	[Browser:Chrome - 70.0.3538.102]	[Action:User 10/660]	[Remarks:Success]
[Date: 2018-11-26 18:27:14]	[UserID:10/660]	[IP:10.128.12.210]	[Browser:Chrome - 70.0.3538.102]	[Action:Filtering User : MasterData Username : 10/660]	[Remarks:Successful filter row count: 0]
[Date: 2018-11-26 18:27:14]	[UserID:10/660]	[IP:10.128.12.210]	[Browser:Chrome - 70.0.3538.102]	[Action:Filtering User : MasterData Username : 10/660]	[Remarks:Successful filter row count: 0]
[Date: 2018-11-26 18:27:14]	[UserID:10/660]	[IP:10.128.12.210]	[Browser:Chrome - 70.0.3538.102]	[Action:Filtering User : MasterData Username : 10/660]	[Remarks:Success]
[Date: 2018-11-26 18:27:14]	[UserID:10/660]	[IP:10.128.12.210]	[Browser:Chrome - 70.0.3538.102]	[Action:Closing mssql connection]	[Remarks:Success]
[Date: 2018-11-26 18:27:15]	[UserID:10/660]	[IP:10.128.12.210]	[Browser:Chrome - 70.0.3538.102]	[Action:Making connection to server]	[Remarks:Successful connection to server: S3]
[Date: 2018-11-26 18:27:15]	[UserID:10/660]	[IP:10.128.12.210]	[Browser:Chrome - 70.0.3538.102]	[Action:GetProgramList 10/660]	[Remarks:[{"ID":"1","ProgramIndex":"GST","ProgramName":"GST"}]]
[Date: 2018-11-26 18:27:15]	[UserID:10/660]	[IP:10.128.12.210]	[Browser:Chrome - 70.0.3538.102]	[Action:Making connection to server]	[Remarks:Successful connection to server: S3]
[Date: 2018-11-26 18:27:15]	[UserID:10/660]	[IP:10.128.12.210]	[Browser:Chrome - 70.0.3538.102]	[Action:GetProgramList 10/660]	[Remarks:[{"ID":"1","ProgramIndex":"GST","ProgramName":"GST"}]]
[Date: 2018-11-26 18:27:15]	[UserID:10/660]	[IP:10.128.12.210]	[Browser:Chrome - 70.0.3538.102]	[Action:Making connection to server]	[Remarks:Successful connection to server: S3]
[Date: 2018-11-26 18:27:15]	[UserID:10/660]	[IP:10.128.12.210]	[Browser:Chrome - 70.0.3538.102]	[Action:Filtering User : MasterData Username : 10/660]	[Remarks:Successful filter row count: 1]
[Date: 2018-11-26 18:27:15]	[UserID:10/660]	[IP:10.128.12.210]	[Browser:Chrome - 70.0.3538.102]	[Action:Making connection to server]	[Remarks:Successful connection to server: S3]
[Date: 2018-11-26 18:27:15]	[UserID:10/660]	[IP:10.128.12.210]	[Browser:Chrome - 70.0.3538.102]	[Action:GetGSTModules 10/660,1]	[Remarks:Successful filter row count: 5]
[Date: 2018-11-26 18:27:15]	[UserID:10/660]	[IP:10.128.12.210]	[Browser:Chrome - 70.0.3538.102]	[Action:Closing mssql connection]	[Remarks:Success]
[Date: 2018-11-26 19:01:43]	[UserID:10/660]	[IP:10.128.12.210]	[Browser:Chrome - 70.0.3538.102]	[Action:Making connection to server]	[Remarks:Successful connection to server: S3]
[Date: 2018-11-26 19:01:43]	[UserID:10/660]	[IP:10.128.12.210]	[Browser:Chrome - 70.0.3538.102]	[Action:GetGSTModules 10/660,1]	[Remarks:Successful filter row count: 5]
[Date: 2018-11-26 19:01:43]	[UserID:10/660]	[IP:10.128.12.210]	[Browser:Chrome - 70.0.3538.102]	[Action:Closing mssql connection]	[Remarks:Success]
[Date: 2018-11-26 19:02:12]	[UserID:]	[IP:10.128.12.210]	[Browser:Chrome - 70.0.3538.102]	[Action:Making connection to server]	[Remarks:Successful connection to server: S3]
[Date: 2018-11-26 19:02:12]	[UserID:]	[IP:10.128.12.210]	[Browser:Chrome - 70.0.3538.102]	[Action:GetProgramList ]	[Remarks:"no data"]
[Date: 2018-11-26 23:33:18]	[UserID:]	[IP:10.139.5.104]	[Browser:Chrome - 70.0.3538.102]	[Action:Making connection to server]	[Remarks:Successful connection to server: S3]
[Date: 2018-11-26 23:33:18]	[UserID:]	[IP:10.139.5.104]	[Browser:Chrome - 70.0.3538.102]	[Action:GetProgramList ]	[Remarks:"no data"]
