[Date: 2019-01-17 08:12:22]	[UserID:]	[IP:10.128.12.113]	[Browser:Chrome - 71.0.3578.98]	[Action:Making connection to server]	[Remarks:Successful connection to server: S3]
[Date: 2019-01-17 08:12:22]	[UserID:]	[IP:10.128.12.113]	[Browser:Chrome - 71.0.3578.98]	[Action:GetProgramList ]	[Remarks:"no data"]
[Date: 2019-01-17 08:12:24]	[UserID:06/343]	[IP:10.128.12.113]	[Browser:Chrome - 71.0.3578.98]	[Action:Making connection to server]	[Remarks:Successful connection to server: S3]
[Date: 2019-01-17 08:12:24]	[UserID:06/343]	[IP:10.128.12.113]	[Browser:Chrome - 71.0.3578.98]	[Action:User 06/343]	[Remarks:Success]
[Date: 2019-01-17 08:12:24]	[UserID:06/343]	[IP:10.128.12.113]	[Browser:Chrome - 71.0.3578.98]	[Action:Filtering User : MasterData Username : 06/343]	[Remarks:Successful filter row count: 0]
[Date: 2019-01-17 08:12:24]	[UserID:06/343]	[IP:10.128.12.113]	[Browser:Chrome - 71.0.3578.98]	[Action:Filtering User : MasterData Username : 06/343]	[Remarks:Successful filter row count: 0]
[Date: 2019-01-17 08:12:24]	[UserID:06/343]	[IP:10.128.12.113]	[Browser:Chrome - 71.0.3578.98]	[Action:Filtering User : MasterData Username : 06/343]	[Remarks:Success]
[Date: 2019-01-17 08:12:24]	[UserID:06/343]	[IP:10.128.12.113]	[Browser:Chrome - 71.0.3578.98]	[Action:Closing mssql connection]	[Remarks:Success]
[Date: 2019-01-17 08:12:24]	[UserID:06/343]	[IP:10.128.12.113]	[Browser:Chrome - 71.0.3578.98]	[Action:Making connection to server]	[Remarks:Successful connection to server: S3]
[Date: 2019-01-17 08:12:24]	[UserID:06/343]	[IP:10.128.12.113]	[Browser:Chrome - 71.0.3578.98]	[Action:GetProgramList 06/343]	[Remarks:[{"ID":"1","ProgramIndex":"GST","ProgramName":"GST"}]]
[Date: 2019-01-17 08:12:24]	[UserID:06/343]	[IP:10.128.12.113]	[Browser:Chrome - 71.0.3578.98]	[Action:Making connection to server]	[Remarks:Successful connection to server: S3]
[Date: 2019-01-17 08:12:24]	[UserID:06/343]	[IP:10.128.12.113]	[Browser:Chrome - 71.0.3578.98]	[Action:GetProgramList 06/343]	[Remarks:[{"ID":"1","ProgramIndex":"GST","ProgramName":"GST"}]]
[Date: 2019-01-17 08:12:24]	[UserID:06/343]	[IP:10.128.12.113]	[Browser:Chrome - 71.0.3578.98]	[Action:Making connection to server]	[Remarks:Successful connection to server: S3]
[Date: 2019-01-17 08:12:24]	[UserID:06/343]	[IP:10.128.12.113]	[Browser:Chrome - 71.0.3578.98]	[Action:Filtering User : MasterData Username : 06/343]	[Remarks:Successful filter row count: 1]
[Date: 2019-01-17 08:12:24]	[UserID:06/343]	[IP:10.128.12.113]	[Browser:Chrome - 71.0.3578.98]	[Action:Making connection to server]	[Remarks:Successful connection to server: S3]
[Date: 2019-01-17 08:12:24]	[UserID:06/343]	[IP:10.128.12.113]	[Browser:Chrome - 71.0.3578.98]	[Action:GetGSTModules 06/343,1]	[Remarks:Successful filter row count: 6]
[Date: 2019-01-17 08:12:24]	[UserID:06/343]	[IP:10.128.12.113]	[Browser:Chrome - 71.0.3578.98]	[Action:Closing mssql connection]	[Remarks:Success]
[Date: 2019-01-17 08:14:52]	[UserID:06/343]	[IP:10.128.12.113]	[Browser:Chrome - 71.0.3578.98]	[Action:Making connection to server]	[Remarks:Successful connection to server: S3]
[Date: 2019-01-17 08:14:52]	[UserID:06/343]	[IP:10.128.12.113]	[Browser:Chrome - 71.0.3578.98]	[Action:GetProgramList 06/343]	[Remarks:[{"ID":"1","ProgramIndex":"GST","ProgramName":"GST"}]]
[Date: 2019-01-17 08:14:52]	[UserID:06/343]	[IP:10.128.12.113]	[Browser:Chrome - 71.0.3578.98]	[Action:Making connection to server]	[Remarks:Successful connection to server: S3]
[Date: 2019-01-17 08:14:52]	[UserID:06/343]	[IP:10.128.12.113]	[Browser:Chrome - 71.0.3578.98]	[Action:GetProgramList 06/343]	[Remarks:[{"ID":"1","ProgramIndex":"GST","ProgramName":"GST"}]]
[Date: 2019-01-17 08:14:52]	[UserID:06/343]	[IP:10.128.12.113]	[Browser:Chrome - 71.0.3578.98]	[Action:Making connection to server]	[Remarks:Successful connection to server: S3]
[Date: 2019-01-17 08:14:52]	[UserID:06/343]	[IP:10.128.12.113]	[Browser:Chrome - 71.0.3578.98]	[Action:Filtering User : MasterData Username : 06/343]	[Remarks:Successful filter row count: 1]
[Date: 2019-01-17 08:14:53]	[UserID:06/343]	[IP:10.128.12.113]	[Browser:Chrome - 71.0.3578.98]	[Action:Making connection to server]	[Remarks:Successful connection to server: S3]
[Date: 2019-01-17 08:14:53]	[UserID:06/343]	[IP:10.128.12.113]	[Browser:Chrome - 71.0.3578.98]	[Action:GetGSTModules 06/343,1]	[Remarks:Successful filter row count: 6]
[Date: 2019-01-17 08:14:53]	[UserID:06/343]	[IP:10.128.12.113]	[Browser:Chrome - 71.0.3578.98]	[Action:Closing mssql connection]	[Remarks:Success]
[Date: 2019-01-17 08:33:03]	[UserID:]	[IP:10.139.5.101]	[Browser:Chrome - 71.0.3578.98]	[Action:Making connection to server]	[Remarks:Successful connection to server: S3]
[Date: 2019-01-17 08:33:03]	[UserID:]	[IP:10.139.5.101]	[Browser:Chrome - 71.0.3578.98]	[Action:GetProgramList ]	[Remarks:"no data"]
[Date: 2019-01-17 08:34:24]	[UserID:06/343]	[IP:10.128.12.113]	[Browser:Chrome - 71.0.3578.98]	[Action:Making connection to server]	[Remarks:Successful connection to server: S3]
[Date: 2019-01-17 08:34:24]	[UserID:06/343]	[IP:10.128.12.113]	[Browser:Chrome - 71.0.3578.98]	[Action:GetGSTModules 06/343,1]	[Remarks:Successful filter row count: 6]
[Date: 2019-01-17 08:34:24]	[UserID:06/343]	[IP:10.128.12.113]	[Browser:Chrome - 71.0.3578.98]	[Action:Closing mssql connection]	[Remarks:Success]
[Date: 2019-01-17 08:36:20]	[UserID:06/343]	[IP:10.128.12.113]	[Browser:Chrome - 71.0.3578.98]	[Action:Making connection to server]	[Remarks:Successful connection to server: S3]
[Date: 2019-01-17 08:36:20]	[UserID:06/343]	[IP:10.128.12.113]	[Browser:Chrome - 71.0.3578.98]	[Action:GetGSTModules 06/343,1]	[Remarks:Successful filter row count: 6]
[Date: 2019-01-17 08:36:20]	[UserID:06/343]	[IP:10.128.12.113]	[Browser:Chrome - 71.0.3578.98]	[Action:Closing mssql connection]	[Remarks:Success]
[Date: 2019-01-17 10:52:57]	[UserID:06/343]	[IP:10.128.12.113]	[Browser:Chrome - 71.0.3578.98]	[Action:Making connection to server]	[Remarks:Successful connection to server: S3]
[Date: 2019-01-17 10:52:57]	[UserID:06/343]	[IP:10.128.12.113]	[Browser:Chrome - 71.0.3578.98]	[Action:GetProgramList 06/343]	[Remarks:[{"ID":"1","ProgramIndex":"GST","ProgramName":"GST"}]]
[Date: 2019-01-17 10:52:57]	[UserID:06/343]	[IP:10.128.12.113]	[Browser:Chrome - 71.0.3578.98]	[Action:Making connection to server]	[Remarks:Successful connection to server: S3]
[Date: 2019-01-17 10:52:57]	[UserID:06/343]	[IP:10.128.12.113]	[Browser:Chrome - 71.0.3578.98]	[Action:GetProgramList 06/343]	[Remarks:[{"ID":"1","ProgramIndex":"GST","ProgramName":"GST"}]]
[Date: 2019-01-17 10:52:57]	[UserID:06/343]	[IP:10.128.12.113]	[Browser:Chrome - 71.0.3578.98]	[Action:Making connection to server]	[Remarks:Successful connection to server: S3]
[Date: 2019-01-17 10:52:57]	[UserID:06/343]	[IP:10.128.12.113]	[Browser:Chrome - 71.0.3578.98]	[Action:Filtering User : MasterData Username : 06/343]	[Remarks:Successful filter row count: 1]
[Date: 2019-01-17 10:52:57]	[UserID:06/343]	[IP:10.128.12.113]	[Browser:Chrome - 71.0.3578.98]	[Action:Making connection to server]	[Remarks:Successful connection to server: S3]
[Date: 2019-01-17 10:52:57]	[UserID:06/343]	[IP:10.128.12.113]	[Browser:Chrome - 71.0.3578.98]	[Action:GetGSTModules 06/343,1]	[Remarks:Successful filter row count: 6]
[Date: 2019-01-17 10:52:57]	[UserID:06/343]	[IP:10.128.12.113]	[Browser:Chrome - 71.0.3578.98]	[Action:Closing mssql connection]	[Remarks:Success]
[Date: 2019-01-17 10:57:22]	[UserID:06/343]	[IP:10.128.12.113]	[Browser:Chrome - 71.0.3578.98]	[Action:Making connection to server]	[Remarks:Successful connection to server: S3]
[Date: 2019-01-17 10:57:22]	[UserID:06/343]	[IP:10.128.12.113]	[Browser:Chrome - 71.0.3578.98]	[Action:GetGSTModules 06/343,1]	[Remarks:Successful filter row count: 6]
[Date: 2019-01-17 10:57:22]	[UserID:06/343]	[IP:10.128.12.113]	[Browser:Chrome - 71.0.3578.98]	[Action:Closing mssql connection]	[Remarks:Success]
[Date: 2019-01-17 10:58:36]	[UserID:06/343]	[IP:10.128.12.113]	[Browser:Chrome - 71.0.3578.98]	[Action:Making connection to server]	[Remarks:Successful connection to server: S3]
[Date: 2019-01-17 10:58:36]	[UserID:06/343]	[IP:10.128.12.113]	[Browser:Chrome - 71.0.3578.98]	[Action:GetGSTModules 06/343,1]	[Remarks:Successful filter row count: 6]
[Date: 2019-01-17 10:58:36]	[UserID:06/343]	[IP:10.128.12.113]	[Browser:Chrome - 71.0.3578.98]	[Action:Closing mssql connection]	[Remarks:Success]
[Date: 2019-01-17 23:33:26]	[UserID:]	[IP:10.139.5.105]	[Browser:Chrome - 71.0.3578.98]	[Action:Making connection to server]	[Remarks:Successful connection to server: S3]
[Date: 2019-01-17 23:33:26]	[UserID:]	[IP:10.139.5.105]	[Browser:Chrome - 71.0.3578.98]	[Action:GetProgramList ]	[Remarks:"no data"]
