[Date: 2019-08-07 08:26:48]	[UserID:]	[IP:10.139.5.112]	[Browser:Chrome - 75.0.3770.142]	[Action:Making connection to server]	[Remarks:Successful connection to server: S3]
[Date: 2019-08-07 08:26:48]	[UserID:]	[IP:10.139.5.112]	[Browser:Chrome - 75.0.3770.142]	[Action:GetProgramList ]	[Remarks:"no data"]
[Date: 2019-08-07 08:26:48]	[UserID:]	[IP:10.139.5.112]	[Browser:Chrome - 75.0.3770.142]	[Action:Making connection to server]	[Remarks:Successful connection to server: S3]
[Date: 2019-08-07 08:26:48]	[UserID:]	[IP:10.139.5.112]	[Browser:Chrome - 75.0.3770.142]	[Action:GetProgramList ]	[Remarks:"no data"]
[Date: 2019-08-07 08:30:46]	[UserID:]	[IP:10.128.12.120]	[Browser:Chrome - 75.0.3770.142]	[Action:Making connection to server]	[Remarks:Successful connection to server: S3]
[Date: 2019-08-07 08:30:46]	[UserID:]	[IP:10.128.12.120]	[Browser:Chrome - 75.0.3770.142]	[Action:GetProgramList ]	[Remarks:"no data"]
[Date: 2019-08-07 08:33:50]	[UserID:14/1082]	[IP:10.128.12.120]	[Browser:Chrome - 75.0.3770.142]	[Action:Making connection to server]	[Remarks:Successful connection to server: S3]
[Date: 2019-08-07 08:33:50]	[UserID:14/1082]	[IP:10.128.12.120]	[Browser:Chrome - 75.0.3770.142]	[Action:User 14/1082]	[Remarks:Success]
[Date: 2019-08-07 08:33:50]	[UserID:14/1082]	[IP:10.128.12.120]	[Browser:Chrome - 75.0.3770.142]	[Action:Filtering User : MasterData Username : 14/1082]	[Remarks:Successful filter row count: 0]
[Date: 2019-08-07 08:33:50]	[UserID:14/1082]	[IP:10.128.12.120]	[Browser:Chrome - 75.0.3770.142]	[Action:Filtering User : MasterData Username : 14/1082]	[Remarks:Successful filter row count: 0]
[Date: 2019-08-07 08:33:50]	[UserID:14/1082]	[IP:10.128.12.120]	[Browser:Chrome - 75.0.3770.142]	[Action:Filtering User : MasterData Username : 14/1082]	[Remarks:Success]
[Date: 2019-08-07 08:33:50]	[UserID:14/1082]	[IP:10.128.12.120]	[Browser:Chrome - 75.0.3770.142]	[Action:Closing mssql connection]	[Remarks:Success]
[Date: 2019-08-07 08:33:50]	[UserID:14/1082]	[IP:10.128.12.120]	[Browser:Chrome - 75.0.3770.142]	[Action:Making connection to server]	[Remarks:Successful connection to server: S3]
[Date: 2019-08-07 08:33:50]	[UserID:14/1082]	[IP:10.128.12.120]	[Browser:Chrome - 75.0.3770.142]	[Action:GetProgramList 14/1082]	[Remarks:[{"ID":"1","ProgramIndex":"GST","ProgramName":"GST"}]]
[Date: 2019-08-07 08:33:50]	[UserID:14/1082]	[IP:10.128.12.120]	[Browser:Chrome - 75.0.3770.142]	[Action:Making connection to server]	[Remarks:Successful connection to server: S3]
[Date: 2019-08-07 08:33:50]	[UserID:14/1082]	[IP:10.128.12.120]	[Browser:Chrome - 75.0.3770.142]	[Action:GetProgramList 14/1082]	[Remarks:[{"ID":"1","ProgramIndex":"GST","ProgramName":"GST"}]]
[Date: 2019-08-07 08:33:50]	[UserID:14/1082]	[IP:10.128.12.120]	[Browser:Chrome - 75.0.3770.142]	[Action:Making connection to server]	[Remarks:Successful connection to server: S3]
[Date: 2019-08-07 08:33:50]	[UserID:14/1082]	[IP:10.128.12.120]	[Browser:Chrome - 75.0.3770.142]	[Action:Filtering User : MasterData Username : 14/1082]	[Remarks:Successful filter row count: 1]
[Date: 2019-08-07 08:33:50]	[UserID:14/1082]	[IP:10.128.12.120]	[Browser:Chrome - 75.0.3770.142]	[Action:Making connection to server]	[Remarks:Successful connection to server: S3]
[Date: 2019-08-07 08:33:50]	[UserID:14/1082]	[IP:10.128.12.120]	[Browser:Chrome - 75.0.3770.142]	[Action:GetGSTModules 14/1082,1]	[Remarks:Successful filter row count: 8]
[Date: 2019-08-07 08:33:50]	[UserID:14/1082]	[IP:10.128.12.120]	[Browser:Chrome - 75.0.3770.142]	[Action:Closing mssql connection]	[Remarks:Success]
[Date: 2019-08-07 08:42:25]	[UserID:14/1082]	[IP:10.128.12.120]	[Browser:Chrome - 75.0.3770.142]	[Action:Making connection to server]	[Remarks:Successful connection to server: S3]
[Date: 2019-08-07 08:42:25]	[UserID:14/1082]	[IP:10.128.12.120]	[Browser:Chrome - 75.0.3770.142]	[Action:GetGSTModules 14/1082,1]	[Remarks:Successful filter row count: 8]
[Date: 2019-08-07 08:42:25]	[UserID:14/1082]	[IP:10.128.12.120]	[Browser:Chrome - 75.0.3770.142]	[Action:Closing mssql connection]	[Remarks:Success]
[Date: 2019-08-07 08:46:10]	[UserID:14/1082]	[IP:10.128.12.120]	[Browser:Chrome - 75.0.3770.142]	[Action:Making connection to server]	[Remarks:Successful connection to server: S3]
[Date: 2019-08-07 08:46:10]	[UserID:14/1082]	[IP:10.128.12.120]	[Browser:Chrome - 75.0.3770.142]	[Action:GetGSTModules 14/1082,1]	[Remarks:Successful filter row count: 8]
[Date: 2019-08-07 08:46:10]	[UserID:14/1082]	[IP:10.128.12.120]	[Browser:Chrome - 75.0.3770.142]	[Action:Closing mssql connection]	[Remarks:Success]
[Date: 2019-08-07 09:13:41]	[UserID:]	[IP:10.128.12.113]	[Browser:Chrome - 75.0.3770.142]	[Action:Making connection to server]	[Remarks:Successful connection to server: S3]
[Date: 2019-08-07 09:13:41]	[UserID:]	[IP:10.128.12.113]	[Browser:Chrome - 75.0.3770.142]	[Action:GetProgramList ]	[Remarks:"no data"]
[Date: 2019-08-07 09:13:48]	[UserID:]	[IP:10.128.12.113]	[Browser:Chrome - 75.0.3770.142]	[Action:Making connection to server]	[Remarks:Successful connection to server: S3]
[Date: 2019-08-07 09:13:48]	[UserID:]	[IP:10.128.12.113]	[Browser:Chrome - 75.0.3770.142]	[Action:GetProgramList ]	[Remarks:"no data"]
[Date: 2019-08-07 09:15:51]	[UserID:06/343]	[IP:10.128.12.113]	[Browser:Chrome - 75.0.3770.142]	[Action:Making connection to server]	[Remarks:Successful connection to server: S3]
[Date: 2019-08-07 09:15:51]	[UserID:06/343]	[IP:10.128.12.113]	[Browser:Chrome - 75.0.3770.142]	[Action:User 06/343]	[Remarks:Success]
[Date: 2019-08-07 09:15:51]	[UserID:06/343]	[IP:10.128.12.113]	[Browser:Chrome - 75.0.3770.142]	[Action:Filtering User : MasterData Username : 06/343]	[Remarks:Successful filter row count: 0]
[Date: 2019-08-07 09:15:51]	[UserID:06/343]	[IP:10.128.12.113]	[Browser:Chrome - 75.0.3770.142]	[Action:Filtering User : MasterData Username : 06/343]	[Remarks:Successful filter row count: 0]
[Date: 2019-08-07 09:15:51]	[UserID:06/343]	[IP:10.128.12.113]	[Browser:Chrome - 75.0.3770.142]	[Action:Filtering User : MasterData Username : 06/343]	[Remarks:Success]
[Date: 2019-08-07 09:15:51]	[UserID:06/343]	[IP:10.128.12.113]	[Browser:Chrome - 75.0.3770.142]	[Action:Closing mssql connection]	[Remarks:Success]
[Date: 2019-08-07 09:15:51]	[UserID:06/343]	[IP:10.128.12.113]	[Browser:Chrome - 75.0.3770.142]	[Action:Making connection to server]	[Remarks:Successful connection to server: S3]
[Date: 2019-08-07 09:15:51]	[UserID:06/343]	[IP:10.128.12.113]	[Browser:Chrome - 75.0.3770.142]	[Action:GetProgramList 06/343]	[Remarks:[{"ID":"1","ProgramIndex":"GST","ProgramName":"GST"}]]
[Date: 2019-08-07 09:15:51]	[UserID:06/343]	[IP:10.128.12.113]	[Browser:Chrome - 75.0.3770.142]	[Action:Making connection to server]	[Remarks:Successful connection to server: S3]
[Date: 2019-08-07 09:15:51]	[UserID:06/343]	[IP:10.128.12.113]	[Browser:Chrome - 75.0.3770.142]	[Action:GetProgramList 06/343]	[Remarks:[{"ID":"1","ProgramIndex":"GST","ProgramName":"GST"}]]
[Date: 2019-08-07 09:15:51]	[UserID:06/343]	[IP:10.128.12.113]	[Browser:Chrome - 75.0.3770.142]	[Action:Making connection to server]	[Remarks:Successful connection to server: S3]
[Date: 2019-08-07 09:15:51]	[UserID:06/343]	[IP:10.128.12.113]	[Browser:Chrome - 75.0.3770.142]	[Action:Filtering User : MasterData Username : 06/343]	[Remarks:Successful filter row count: 1]
[Date: 2019-08-07 09:15:52]	[UserID:06/343]	[IP:10.128.12.113]	[Browser:Chrome - 75.0.3770.142]	[Action:Making connection to server]	[Remarks:Successful connection to server: S3]
[Date: 2019-08-07 09:15:52]	[UserID:06/343]	[IP:10.128.12.113]	[Browser:Chrome - 75.0.3770.142]	[Action:GetGSTModules 06/343,1]	[Remarks:Successful filter row count: 7]
[Date: 2019-08-07 09:15:52]	[UserID:06/343]	[IP:10.128.12.113]	[Browser:Chrome - 75.0.3770.142]	[Action:Closing mssql connection]	[Remarks:Success]
[Date: 2019-08-07 09:26:27]	[UserID:14/1082]	[IP:10.128.12.120]	[Browser:Chrome - 75.0.3770.142]	[Action:Making connection to server]	[Remarks:Successful connection to server: S3]
[Date: 2019-08-07 09:26:28]	[UserID:14/1082]	[IP:10.128.12.120]	[Browser:Chrome - 75.0.3770.142]	[Action:GetProgramList 14/1082]	[Remarks:[{"ID":"1","ProgramIndex":"GST","ProgramName":"GST"}]]
[Date: 2019-08-07 09:26:28]	[UserID:14/1082]	[IP:10.128.12.120]	[Browser:Chrome - 75.0.3770.142]	[Action:Making connection to server]	[Remarks:Successful connection to server: S3]
[Date: 2019-08-07 09:26:28]	[UserID:14/1082]	[IP:10.128.12.120]	[Browser:Chrome - 75.0.3770.142]	[Action:GetProgramList 14/1082]	[Remarks:[{"ID":"1","ProgramIndex":"GST","ProgramName":"GST"}]]
[Date: 2019-08-07 09:26:28]	[UserID:14/1082]	[IP:10.128.12.120]	[Browser:Chrome - 75.0.3770.142]	[Action:Making connection to server]	[Remarks:Successful connection to server: S3]
[Date: 2019-08-07 09:26:28]	[UserID:14/1082]	[IP:10.128.12.120]	[Browser:Chrome - 75.0.3770.142]	[Action:Filtering User : MasterData Username : 14/1082]	[Remarks:Successful filter row count: 1]
[Date: 2019-08-07 09:26:28]	[UserID:14/1082]	[IP:10.128.12.120]	[Browser:Chrome - 75.0.3770.142]	[Action:Making connection to server]	[Remarks:Successful connection to server: S3]
[Date: 2019-08-07 09:26:28]	[UserID:14/1082]	[IP:10.128.12.120]	[Browser:Chrome - 75.0.3770.142]	[Action:GetGSTModules 14/1082,1]	[Remarks:Successful filter row count: 8]
[Date: 2019-08-07 09:26:28]	[UserID:14/1082]	[IP:10.128.12.120]	[Browser:Chrome - 75.0.3770.142]	[Action:Closing mssql connection]	[Remarks:Success]
[Date: 2019-08-07 09:29:33]	[UserID:14/1082]	[IP:10.128.12.120]	[Browser:Chrome - 75.0.3770.142]	[Action:Making connection to server]	[Remarks:Successful connection to server: S3]
[Date: 2019-08-07 09:29:33]	[UserID:14/1082]	[IP:10.128.12.120]	[Browser:Chrome - 75.0.3770.142]	[Action:GetGSTModules 14/1082,1]	[Remarks:Successful filter row count: 8]
[Date: 2019-08-07 09:29:33]	[UserID:14/1082]	[IP:10.128.12.120]	[Browser:Chrome - 75.0.3770.142]	[Action:Closing mssql connection]	[Remarks:Success]
[Date: 2019-08-07 09:29:47]	[UserID:14/1082]	[IP:10.128.12.120]	[Browser:Chrome - 75.0.3770.142]	[Action:Making connection to server]	[Remarks:Successful connection to server: S3]
[Date: 2019-08-07 09:29:47]	[UserID:14/1082]	[IP:10.128.12.120]	[Browser:Chrome - 75.0.3770.142]	[Action:GetGSTModules 14/1082,1]	[Remarks:Successful filter row count: 8]
[Date: 2019-08-07 09:29:47]	[UserID:14/1082]	[IP:10.128.12.120]	[Browser:Chrome - 75.0.3770.142]	[Action:Closing mssql connection]	[Remarks:Success]
[Date: 2019-08-07 09:47:02]	[UserID:06/343]	[IP:10.128.12.113]	[Browser:Chrome - 75.0.3770.142]	[Action:Making connection to server]	[Remarks:Successful connection to server: S3]
[Date: 2019-08-07 09:47:02]	[UserID:06/343]	[IP:10.128.12.113]	[Browser:Chrome - 75.0.3770.142]	[Action:GetGSTModules 06/343,1]	[Remarks:Successful filter row count: 7]
[Date: 2019-08-07 09:47:02]	[UserID:06/343]	[IP:10.128.12.113]	[Browser:Chrome - 75.0.3770.142]	[Action:Closing mssql connection]	[Remarks:Success]
[Date: 2019-08-07 09:52:34]	[UserID:06/343]	[IP:10.128.12.113]	[Browser:Chrome - 75.0.3770.142]	[Action:Making connection to server]	[Remarks:Successful connection to server: S3]
[Date: 2019-08-07 09:52:34]	[UserID:06/343]	[IP:10.128.12.113]	[Browser:Chrome - 75.0.3770.142]	[Action:GetGSTModules 06/343,1]	[Remarks:Successful filter row count: 7]
[Date: 2019-08-07 09:52:34]	[UserID:06/343]	[IP:10.128.12.113]	[Browser:Chrome - 75.0.3770.142]	[Action:Closing mssql connection]	[Remarks:Success]
[Date: 2019-08-07 09:56:49]	[UserID:06/343]	[IP:10.128.12.113]	[Browser:Chrome - 75.0.3770.142]	[Action:Making connection to server]	[Remarks:Successful connection to server: S3]
[Date: 2019-08-07 09:56:49]	[UserID:06/343]	[IP:10.128.12.113]	[Browser:Chrome - 75.0.3770.142]	[Action:GetGSTModules 06/343,1]	[Remarks:Successful filter row count: 7]
[Date: 2019-08-07 09:56:49]	[UserID:06/343]	[IP:10.128.12.113]	[Browser:Chrome - 75.0.3770.142]	[Action:Closing mssql connection]	[Remarks:Success]
[Date: 2019-08-07 10:02:50]	[UserID:06/343]	[IP:10.128.12.113]	[Browser:Chrome - 75.0.3770.142]	[Action:Making connection to server]	[Remarks:Successful connection to server: S3]
[Date: 2019-08-07 10:02:50]	[UserID:06/343]	[IP:10.128.12.113]	[Browser:Chrome - 75.0.3770.142]	[Action:GetGSTModules 06/343,1]	[Remarks:Successful filter row count: 7]
[Date: 2019-08-07 10:02:50]	[UserID:06/343]	[IP:10.128.12.113]	[Browser:Chrome - 75.0.3770.142]	[Action:Closing mssql connection]	[Remarks:Success]
[Date: 2019-08-07 10:04:02]	[UserID:06/343]	[IP:10.128.12.113]	[Browser:Chrome - 75.0.3770.142]	[Action:Making connection to server]	[Remarks:Successful connection to server: S3]
[Date: 2019-08-07 10:04:02]	[UserID:06/343]	[IP:10.128.12.113]	[Browser:Chrome - 75.0.3770.142]	[Action:GetGSTModules 06/343,1]	[Remarks:Successful filter row count: 7]
[Date: 2019-08-07 10:04:02]	[UserID:06/343]	[IP:10.128.12.113]	[Browser:Chrome - 75.0.3770.142]	[Action:Closing mssql connection]	[Remarks:Success]
[Date: 2019-08-07 10:22:05]	[UserID:06/343]	[IP:10.128.12.113]	[Browser:Chrome - 75.0.3770.142]	[Action:Making connection to server]	[Remarks:Successful connection to server: S3]
[Date: 2019-08-07 10:22:05]	[UserID:06/343]	[IP:10.128.12.113]	[Browser:Chrome - 75.0.3770.142]	[Action:GetGSTModules 06/343,1]	[Remarks:Successful filter row count: 7]
[Date: 2019-08-07 10:22:05]	[UserID:06/343]	[IP:10.128.12.113]	[Browser:Chrome - 75.0.3770.142]	[Action:Closing mssql connection]	[Remarks:Success]
[Date: 2019-08-07 10:29:20]	[UserID:06/343]	[IP:10.128.12.113]	[Browser:Chrome - 75.0.3770.142]	[Action:Making connection to server]	[Remarks:Successful connection to server: S3]
[Date: 2019-08-07 10:29:20]	[UserID:06/343]	[IP:10.128.12.113]	[Browser:Chrome - 75.0.3770.142]	[Action:GetGSTModules 06/343,1]	[Remarks:Successful filter row count: 7]
[Date: 2019-08-07 10:29:20]	[UserID:06/343]	[IP:10.128.12.113]	[Browser:Chrome - 75.0.3770.142]	[Action:Closing mssql connection]	[Remarks:Success]
[Date: 2019-08-07 10:33:45]	[UserID:06/343]	[IP:10.128.12.113]	[Browser:Chrome - 75.0.3770.142]	[Action:Making connection to server]	[Remarks:Successful connection to server: S3]
[Date: 2019-08-07 10:33:45]	[UserID:06/343]	[IP:10.128.12.113]	[Browser:Chrome - 75.0.3770.142]	[Action:GetGSTModules 06/343,1]	[Remarks:Successful filter row count: 7]
[Date: 2019-08-07 10:33:45]	[UserID:06/343]	[IP:10.128.12.113]	[Browser:Chrome - 75.0.3770.142]	[Action:Closing mssql connection]	[Remarks:Success]
[Date: 2019-08-07 10:34:41]	[UserID:06/343]	[IP:10.128.12.113]	[Browser:Chrome - 75.0.3770.142]	[Action:Making connection to server]	[Remarks:Successful connection to server: S3]
[Date: 2019-08-07 10:34:41]	[UserID:06/343]	[IP:10.128.12.113]	[Browser:Chrome - 75.0.3770.142]	[Action:GetGSTModules 06/343,1]	[Remarks:Successful filter row count: 7]
[Date: 2019-08-07 10:34:41]	[UserID:06/343]	[IP:10.128.12.113]	[Browser:Chrome - 75.0.3770.142]	[Action:Closing mssql connection]	[Remarks:Success]
[Date: 2019-08-07 10:47:12]	[UserID:06/343]	[IP:10.128.12.113]	[Browser:Chrome - 75.0.3770.142]	[Action:Making connection to server]	[Remarks:Successful connection to server: S3]
[Date: 2019-08-07 10:47:12]	[UserID:06/343]	[IP:10.128.12.113]	[Browser:Chrome - 75.0.3770.142]	[Action:GetGSTModules 06/343,1]	[Remarks:Successful filter row count: 7]
[Date: 2019-08-07 10:47:12]	[UserID:06/343]	[IP:10.128.12.113]	[Browser:Chrome - 75.0.3770.142]	[Action:Closing mssql connection]	[Remarks:Success]
[Date: 2019-08-07 13:13:29]	[UserID:]	[IP:10.128.12.115]	[Browser:Chrome - 75.0.3770.142]	[Action:Making connection to server]	[Remarks:Successful connection to server: S3]
[Date: 2019-08-07 13:13:29]	[UserID:]	[IP:10.128.12.115]	[Browser:Chrome - 75.0.3770.142]	[Action:GetProgramList ]	[Remarks:"no data"]
[Date: 2019-08-07 13:13:38]	[UserID:17/1248]	[IP:10.128.12.115]	[Browser:Chrome - 75.0.3770.142]	[Action:Making connection to server]	[Remarks:Successful connection to server: S3]
[Date: 2019-08-07 13:13:38]	[UserID:17/1248]	[IP:10.128.12.115]	[Browser:Chrome - 75.0.3770.142]	[Action:User 17/1248]	[Remarks:Success]
[Date: 2019-08-07 13:13:38]	[UserID:17/1248]	[IP:10.128.12.115]	[Browser:Chrome - 75.0.3770.142]	[Action:Filtering User : MasterData Username : 17/1248]	[Remarks:Successful filter row count: 0]
[Date: 2019-08-07 13:13:38]	[UserID:17/1248]	[IP:10.128.12.115]	[Browser:Chrome - 75.0.3770.142]	[Action:Filtering User : MasterData Username : 17/1248]	[Remarks:Successful filter row count: 0]
[Date: 2019-08-07 13:13:38]	[UserID:17/1248]	[IP:10.128.12.115]	[Browser:Chrome - 75.0.3770.142]	[Action:Filtering User : MasterData Username : 17/1248]	[Remarks:Success]
[Date: 2019-08-07 13:13:38]	[UserID:17/1248]	[IP:10.128.12.115]	[Browser:Chrome - 75.0.3770.142]	[Action:Closing mssql connection]	[Remarks:Success]
[Date: 2019-08-07 13:13:38]	[UserID:]	[IP:10.128.12.115]	[Browser:Chrome - 75.0.3770.142]	[Action:Making connection to server]	[Remarks:Successful connection to server: S3]
[Date: 2019-08-07 13:13:38]	[UserID:]	[IP:10.128.12.115]	[Browser:Chrome - 75.0.3770.142]	[Action:GetProgramList ]	[Remarks:"no data"]
[Date: 2019-08-07 13:13:44]	[UserID:17/1248]	[IP:10.128.12.115]	[Browser:Chrome - 75.0.3770.142]	[Action:Making connection to server]	[Remarks:Successful connection to server: S3]
[Date: 2019-08-07 13:13:44]	[UserID:17/1248]	[IP:10.128.12.115]	[Browser:Chrome - 75.0.3770.142]	[Action:User 17/1248]	[Remarks:Success]
[Date: 2019-08-07 13:13:44]	[UserID:17/1248]	[IP:10.128.12.115]	[Browser:Chrome - 75.0.3770.142]	[Action:Filtering User : MasterData Username : 17/1248]	[Remarks:Successful filter row count: 0]
[Date: 2019-08-07 13:13:44]	[UserID:17/1248]	[IP:10.128.12.115]	[Browser:Chrome - 75.0.3770.142]	[Action:Filtering User : MasterData Username : 17/1248]	[Remarks:Successful filter row count: 0]
[Date: 2019-08-07 13:13:44]	[UserID:17/1248]	[IP:10.128.12.115]	[Browser:Chrome - 75.0.3770.142]	[Action:Filtering User : MasterData Username : 17/1248]	[Remarks:Success]
[Date: 2019-08-07 13:13:44]	[UserID:17/1248]	[IP:10.128.12.115]	[Browser:Chrome - 75.0.3770.142]	[Action:Closing mssql connection]	[Remarks:Success]
[Date: 2019-08-07 13:13:44]	[UserID:17/1248]	[IP:10.128.12.115]	[Browser:Chrome - 75.0.3770.142]	[Action:Making connection to server]	[Remarks:Successful connection to server: S3]
[Date: 2019-08-07 13:13:44]	[UserID:17/1248]	[IP:10.128.12.115]	[Browser:Chrome - 75.0.3770.142]	[Action:GetProgramList 17/1248]	[Remarks:[{"ID":"1","ProgramIndex":"GST","ProgramName":"GST"}]]
[Date: 2019-08-07 13:13:44]	[UserID:17/1248]	[IP:10.128.12.115]	[Browser:Chrome - 75.0.3770.142]	[Action:Making connection to server]	[Remarks:Successful connection to server: S3]
[Date: 2019-08-07 13:13:44]	[UserID:17/1248]	[IP:10.128.12.115]	[Browser:Chrome - 75.0.3770.142]	[Action:GetProgramList 17/1248]	[Remarks:[{"ID":"1","ProgramIndex":"GST","ProgramName":"GST"}]]
[Date: 2019-08-07 13:13:44]	[UserID:17/1248]	[IP:10.128.12.115]	[Browser:Chrome - 75.0.3770.142]	[Action:Making connection to server]	[Remarks:Successful connection to server: S3]
[Date: 2019-08-07 13:13:44]	[UserID:17/1248]	[IP:10.128.12.115]	[Browser:Chrome - 75.0.3770.142]	[Action:Filtering User : MasterData Username : 17/1248]	[Remarks:Successful filter row count: 1]
[Date: 2019-08-07 13:13:44]	[UserID:17/1248]	[IP:10.128.12.115]	[Browser:Chrome - 75.0.3770.142]	[Action:Making connection to server]	[Remarks:Successful connection to server: S3]
[Date: 2019-08-07 13:13:44]	[UserID:17/1248]	[IP:10.128.12.115]	[Browser:Chrome - 75.0.3770.142]	[Action:GetGSTModules 17/1248,1]	[Remarks:Successful filter row count: 5]
[Date: 2019-08-07 13:13:44]	[UserID:17/1248]	[IP:10.128.12.115]	[Browser:Chrome - 75.0.3770.142]	[Action:Closing mssql connection]	[Remarks:Success]
[Date: 2019-08-07 14:06:50]	[UserID:]	[IP:10.128.12.120]	[Browser:Chrome - 75.0.3770.142]	[Action:Making connection to server]	[Remarks:Successful connection to server: S3]
[Date: 2019-08-07 14:06:50]	[UserID:]	[IP:10.128.12.120]	[Browser:Chrome - 75.0.3770.142]	[Action:GetProgramList ]	[Remarks:"no data"]
[Date: 2019-08-07 14:06:55]	[UserID:14/1082]	[IP:10.128.12.120]	[Browser:Chrome - 75.0.3770.142]	[Action:Making connection to server]	[Remarks:Successful connection to server: S3]
[Date: 2019-08-07 14:06:55]	[UserID:14/1082]	[IP:10.128.12.120]	[Browser:Chrome - 75.0.3770.142]	[Action:User 14/1082]	[Remarks:Success]
[Date: 2019-08-07 14:06:55]	[UserID:14/1082]	[IP:10.128.12.120]	[Browser:Chrome - 75.0.3770.142]	[Action:Filtering User : MasterData Username : 14/1082]	[Remarks:Successful filter row count: 0]
[Date: 2019-08-07 14:06:55]	[UserID:14/1082]	[IP:10.128.12.120]	[Browser:Chrome - 75.0.3770.142]	[Action:Filtering User : MasterData Username : 14/1082]	[Remarks:Successful filter row count: 0]
[Date: 2019-08-07 14:06:55]	[UserID:14/1082]	[IP:10.128.12.120]	[Browser:Chrome - 75.0.3770.142]	[Action:Filtering User : MasterData Username : 14/1082]	[Remarks:Success]
[Date: 2019-08-07 14:06:55]	[UserID:14/1082]	[IP:10.128.12.120]	[Browser:Chrome - 75.0.3770.142]	[Action:Closing mssql connection]	[Remarks:Success]
[Date: 2019-08-07 14:06:55]	[UserID:14/1082]	[IP:10.128.12.120]	[Browser:Chrome - 75.0.3770.142]	[Action:Making connection to server]	[Remarks:Successful connection to server: S3]
[Date: 2019-08-07 14:06:55]	[UserID:14/1082]	[IP:10.128.12.120]	[Browser:Chrome - 75.0.3770.142]	[Action:GetProgramList 14/1082]	[Remarks:[{"ID":"1","ProgramIndex":"GST","ProgramName":"GST"}]]
[Date: 2019-08-07 14:06:55]	[UserID:14/1082]	[IP:10.128.12.120]	[Browser:Chrome - 75.0.3770.142]	[Action:Making connection to server]	[Remarks:Successful connection to server: S3]
[Date: 2019-08-07 14:06:55]	[UserID:14/1082]	[IP:10.128.12.120]	[Browser:Chrome - 75.0.3770.142]	[Action:GetProgramList 14/1082]	[Remarks:[{"ID":"1","ProgramIndex":"GST","ProgramName":"GST"}]]
[Date: 2019-08-07 14:06:55]	[UserID:14/1082]	[IP:10.128.12.120]	[Browser:Chrome - 75.0.3770.142]	[Action:Making connection to server]	[Remarks:Successful connection to server: S3]
[Date: 2019-08-07 14:06:55]	[UserID:14/1082]	[IP:10.128.12.120]	[Browser:Chrome - 75.0.3770.142]	[Action:Filtering User : MasterData Username : 14/1082]	[Remarks:Successful filter row count: 1]
[Date: 2019-08-07 14:06:56]	[UserID:14/1082]	[IP:10.128.12.120]	[Browser:Chrome - 75.0.3770.142]	[Action:Making connection to server]	[Remarks:Successful connection to server: S3]
[Date: 2019-08-07 14:06:56]	[UserID:14/1082]	[IP:10.128.12.120]	[Browser:Chrome - 75.0.3770.142]	[Action:GetGSTModules 14/1082,1]	[Remarks:Successful filter row count: 8]
[Date: 2019-08-07 14:06:56]	[UserID:14/1082]	[IP:10.128.12.120]	[Browser:Chrome - 75.0.3770.142]	[Action:Closing mssql connection]	[Remarks:Success]
[Date: 2019-08-07 14:08:43]	[UserID:14/1082]	[IP:10.128.12.120]	[Browser:Chrome - 75.0.3770.142]	[Action:Making connection to server]	[Remarks:Successful connection to server: S3]
[Date: 2019-08-07 14:08:43]	[UserID:14/1082]	[IP:10.128.12.120]	[Browser:Chrome - 75.0.3770.142]	[Action:GetGSTModules 14/1082,1]	[Remarks:Successful filter row count: 8]
[Date: 2019-08-07 14:08:43]	[UserID:14/1082]	[IP:10.128.12.120]	[Browser:Chrome - 75.0.3770.142]	[Action:Closing mssql connection]	[Remarks:Success]
[Date: 2019-08-07 14:17:30]	[UserID:14/1082]	[IP:10.128.12.120]	[Browser:Chrome - 75.0.3770.142]	[Action:Making connection to server]	[Remarks:Successful connection to server: S3]
[Date: 2019-08-07 14:17:30]	[UserID:14/1082]	[IP:10.128.12.120]	[Browser:Chrome - 75.0.3770.142]	[Action:GetGSTModules 14/1082,1]	[Remarks:Successful filter row count: 8]
[Date: 2019-08-07 14:17:30]	[UserID:14/1082]	[IP:10.128.12.120]	[Browser:Chrome - 75.0.3770.142]	[Action:Closing mssql connection]	[Remarks:Success]
[Date: 2019-08-07 14:18:52]	[UserID:06/343]	[IP:10.128.12.113]	[Browser:Chrome - 75.0.3770.142]	[Action:Making connection to server]	[Remarks:Successful connection to server: S3]
[Date: 2019-08-07 14:18:52]	[UserID:06/343]	[IP:10.128.12.113]	[Browser:Chrome - 75.0.3770.142]	[Action:GetGSTModules 06/343,1]	[Remarks:Successful filter row count: 7]
[Date: 2019-08-07 14:18:52]	[UserID:06/343]	[IP:10.128.12.113]	[Browser:Chrome - 75.0.3770.142]	[Action:Closing mssql connection]	[Remarks:Success]
[Date: 2019-08-07 15:29:34]	[UserID:14/1082]	[IP:10.128.12.120]	[Browser:Chrome - 75.0.3770.142]	[Action:Making connection to server]	[Remarks:Successful connection to server: S3]
[Date: 2019-08-07 15:29:34]	[UserID:14/1082]	[IP:10.128.12.120]	[Browser:Chrome - 75.0.3770.142]	[Action:GetGSTModules 14/1082,1]	[Remarks:Successful filter row count: 8]
[Date: 2019-08-07 15:29:34]	[UserID:14/1082]	[IP:10.128.12.120]	[Browser:Chrome - 75.0.3770.142]	[Action:Closing mssql connection]	[Remarks:Success]
[Date: 2019-08-07 15:37:32]	[UserID:17/1248]	[IP:10.128.12.115]	[Browser:Chrome - 75.0.3770.142]	[Action:Making connection to server]	[Remarks:Successful connection to server: S3]
[Date: 2019-08-07 15:37:32]	[UserID:17/1248]	[IP:10.128.12.115]	[Browser:Chrome - 75.0.3770.142]	[Action:GetGSTModules 17/1248,1]	[Remarks:Successful filter row count: 5]
[Date: 2019-08-07 15:37:32]	[UserID:17/1248]	[IP:10.128.12.115]	[Browser:Chrome - 75.0.3770.142]	[Action:Closing mssql connection]	[Remarks:Success]
[Date: 2019-08-07 15:37:35]	[UserID:17/1248]	[IP:10.128.12.115]	[Browser:Chrome - 75.0.3770.142]	[Action:Making connection to server]	[Remarks:Successful connection to server: S3]
[Date: 2019-08-07 15:37:35]	[UserID:17/1248]	[IP:10.128.12.115]	[Browser:Chrome - 75.0.3770.142]	[Action:GetGSTModules 17/1248,1]	[Remarks:Successful filter row count: 5]
[Date: 2019-08-07 15:37:35]	[UserID:17/1248]	[IP:10.128.12.115]	[Browser:Chrome - 75.0.3770.142]	[Action:Closing mssql connection]	[Remarks:Success]
[Date: 2019-08-07 15:40:47]	[UserID:14/1082]	[IP:10.128.12.120]	[Browser:Chrome - 75.0.3770.142]	[Action:Making connection to server]	[Remarks:Successful connection to server: S3]
[Date: 2019-08-07 15:40:47]	[UserID:14/1082]	[IP:10.128.12.120]	[Browser:Chrome - 75.0.3770.142]	[Action:GetGSTModules 14/1082,1]	[Remarks:Successful filter row count: 8]
[Date: 2019-08-07 15:40:47]	[UserID:14/1082]	[IP:10.128.12.120]	[Browser:Chrome - 75.0.3770.142]	[Action:Closing mssql connection]	[Remarks:Success]
[Date: 2019-08-07 15:42:05]	[UserID:14/1082]	[IP:10.128.12.120]	[Browser:Chrome - 75.0.3770.142]	[Action:Making connection to server]	[Remarks:Successful connection to server: S3]
[Date: 2019-08-07 15:42:05]	[UserID:14/1082]	[IP:10.128.12.120]	[Browser:Chrome - 75.0.3770.142]	[Action:GetGSTModules 14/1082,1]	[Remarks:Successful filter row count: 8]
[Date: 2019-08-07 15:42:05]	[UserID:14/1082]	[IP:10.128.12.120]	[Browser:Chrome - 75.0.3770.142]	[Action:Closing mssql connection]	[Remarks:Success]
[Date: 2019-08-07 15:44:49]	[UserID:14/1082]	[IP:10.128.12.120]	[Browser:Chrome - 75.0.3770.142]	[Action:Making connection to server]	[Remarks:Successful connection to server: S3]
[Date: 2019-08-07 15:44:49]	[UserID:14/1082]	[IP:10.128.12.120]	[Browser:Chrome - 75.0.3770.142]	[Action:GetGSTModules 14/1082,1]	[Remarks:Successful filter row count: 8]
[Date: 2019-08-07 15:44:49]	[UserID:14/1082]	[IP:10.128.12.120]	[Browser:Chrome - 75.0.3770.142]	[Action:Closing mssql connection]	[Remarks:Success]
[Date: 2019-08-07 15:45:20]	[UserID:06/343]	[IP:10.128.12.113]	[Browser:Chrome - 75.0.3770.142]	[Action:Making connection to server]	[Remarks:Successful connection to server: S3]
[Date: 2019-08-07 15:45:20]	[UserID:06/343]	[IP:10.128.12.113]	[Browser:Chrome - 75.0.3770.142]	[Action:GetGSTModules 06/343,1]	[Remarks:Successful filter row count: 7]
[Date: 2019-08-07 15:45:20]	[UserID:06/343]	[IP:10.128.12.113]	[Browser:Chrome - 75.0.3770.142]	[Action:Closing mssql connection]	[Remarks:Success]
[Date: 2019-08-07 15:45:49]	[UserID:]	[IP:10.128.12.114]	[Browser:Chrome - 75.0.3770.142]	[Action:Making connection to server]	[Remarks:Successful connection to server: S3]
[Date: 2019-08-07 15:45:49]	[UserID:]	[IP:10.128.12.114]	[Browser:Chrome - 75.0.3770.142]	[Action:GetProgramList ]	[Remarks:"no data"]
[Date: 2019-08-07 15:45:53]	[UserID:14/1082]	[IP:10.128.12.114]	[Browser:Chrome - 75.0.3770.142]	[Action:Making connection to server]	[Remarks:Successful connection to server: S3]
[Date: 2019-08-07 15:45:53]	[UserID:14/1082]	[IP:10.128.12.114]	[Browser:Chrome - 75.0.3770.142]	[Action:LogMeIn 14/1082,14/1082.]	[Remarks:Failed]
[Date: 2019-08-07 15:45:53]	[UserID:14/1082]	[IP:10.128.12.114]	[Browser:Chrome - 75.0.3770.142]	[Action:Closing mssql connection]	[Remarks:Success]
[Date: 2019-08-07 15:45:57]	[UserID:14/1082]	[IP:10.128.12.114]	[Browser:Chrome - 75.0.3770.142]	[Action:Making connection to server]	[Remarks:Successful connection to server: S3]
[Date: 2019-08-07 15:45:57]	[UserID:14/1082]	[IP:10.128.12.114]	[Browser:Chrome - 75.0.3770.142]	[Action:User 14/1082]	[Remarks:Success]
[Date: 2019-08-07 15:45:57]	[UserID:14/1082]	[IP:10.128.12.114]	[Browser:Chrome - 75.0.3770.142]	[Action:Filtering User : MasterData Username : 14/1082]	[Remarks:Successful filter row count: 0]
[Date: 2019-08-07 15:45:57]	[UserID:14/1082]	[IP:10.128.12.114]	[Browser:Chrome - 75.0.3770.142]	[Action:Filtering User : MasterData Username : 14/1082]	[Remarks:Successful filter row count: 0]
[Date: 2019-08-07 15:45:57]	[UserID:14/1082]	[IP:10.128.12.114]	[Browser:Chrome - 75.0.3770.142]	[Action:Filtering User : MasterData Username : 14/1082]	[Remarks:Success]
[Date: 2019-08-07 15:45:57]	[UserID:14/1082]	[IP:10.128.12.114]	[Browser:Chrome - 75.0.3770.142]	[Action:Closing mssql connection]	[Remarks:Success]
[Date: 2019-08-07 15:45:57]	[UserID:]	[IP:10.128.12.114]	[Browser:Chrome - 75.0.3770.142]	[Action:Making connection to server]	[Remarks:Successful connection to server: S3]
[Date: 2019-08-07 15:45:57]	[UserID:]	[IP:10.128.12.114]	[Browser:Chrome - 75.0.3770.142]	[Action:GetProgramList ]	[Remarks:"no data"]
[Date: 2019-08-07 15:46:02]	[UserID:14/1082]	[IP:10.128.12.114]	[Browser:Chrome - 75.0.3770.142]	[Action:Making connection to server]	[Remarks:Successful connection to server: S3]
[Date: 2019-08-07 15:46:02]	[UserID:14/1082]	[IP:10.128.12.114]	[Browser:Chrome - 75.0.3770.142]	[Action:User 14/1082]	[Remarks:Success]
[Date: 2019-08-07 15:46:02]	[UserID:14/1082]	[IP:10.128.12.114]	[Browser:Chrome - 75.0.3770.142]	[Action:Filtering User : MasterData Username : 14/1082]	[Remarks:Successful filter row count: 0]
[Date: 2019-08-07 15:46:02]	[UserID:14/1082]	[IP:10.128.12.114]	[Browser:Chrome - 75.0.3770.142]	[Action:Filtering User : MasterData Username : 14/1082]	[Remarks:Successful filter row count: 0]
[Date: 2019-08-07 15:46:02]	[UserID:14/1082]	[IP:10.128.12.114]	[Browser:Chrome - 75.0.3770.142]	[Action:Filtering User : MasterData Username : 14/1082]	[Remarks:Success]
[Date: 2019-08-07 15:46:02]	[UserID:14/1082]	[IP:10.128.12.114]	[Browser:Chrome - 75.0.3770.142]	[Action:Closing mssql connection]	[Remarks:Success]
[Date: 2019-08-07 15:46:02]	[UserID:14/1082]	[IP:10.128.12.114]	[Browser:Chrome - 75.0.3770.142]	[Action:Making connection to server]	[Remarks:Successful connection to server: S3]
[Date: 2019-08-07 15:46:02]	[UserID:14/1082]	[IP:10.128.12.114]	[Browser:Chrome - 75.0.3770.142]	[Action:GetProgramList 14/1082]	[Remarks:[{"ID":"1","ProgramIndex":"GST","ProgramName":"GST"}]]
[Date: 2019-08-07 15:46:02]	[UserID:14/1082]	[IP:10.128.12.114]	[Browser:Chrome - 75.0.3770.142]	[Action:Making connection to server]	[Remarks:Successful connection to server: S3]
[Date: 2019-08-07 15:46:02]	[UserID:14/1082]	[IP:10.128.12.114]	[Browser:Chrome - 75.0.3770.142]	[Action:GetProgramList 14/1082]	[Remarks:[{"ID":"1","ProgramIndex":"GST","ProgramName":"GST"}]]
[Date: 2019-08-07 15:46:02]	[UserID:14/1082]	[IP:10.128.12.114]	[Browser:Chrome - 75.0.3770.142]	[Action:Making connection to server]	[Remarks:Successful connection to server: S3]
[Date: 2019-08-07 15:46:02]	[UserID:14/1082]	[IP:10.128.12.114]	[Browser:Chrome - 75.0.3770.142]	[Action:Filtering User : MasterData Username : 14/1082]	[Remarks:Successful filter row count: 1]
[Date: 2019-08-07 15:46:02]	[UserID:14/1082]	[IP:10.128.12.114]	[Browser:Chrome - 75.0.3770.142]	[Action:Making connection to server]	[Remarks:Successful connection to server: S3]
[Date: 2019-08-07 15:46:02]	[UserID:14/1082]	[IP:10.128.12.114]	[Browser:Chrome - 75.0.3770.142]	[Action:GetGSTModules 14/1082,1]	[Remarks:Successful filter row count: 8]
[Date: 2019-08-07 15:46:02]	[UserID:14/1082]	[IP:10.128.12.114]	[Browser:Chrome - 75.0.3770.142]	[Action:Closing mssql connection]	[Remarks:Success]
[Date: 2019-08-07 15:46:42]	[UserID:06/343]	[IP:10.128.12.113]	[Browser:Chrome - 75.0.3770.142]	[Action:Making connection to server]	[Remarks:Successful connection to server: S3]
[Date: 2019-08-07 15:46:42]	[UserID:06/343]	[IP:10.128.12.113]	[Browser:Chrome - 75.0.3770.142]	[Action:GetGSTModules 06/343,1]	[Remarks:Successful filter row count: 7]
[Date: 2019-08-07 15:46:42]	[UserID:06/343]	[IP:10.128.12.113]	[Browser:Chrome - 75.0.3770.142]	[Action:Closing mssql connection]	[Remarks:Success]
[Date: 2019-08-07 15:49:24]	[UserID:06/343]	[IP:10.128.12.113]	[Browser:Chrome - 75.0.3770.142]	[Action:Making connection to server]	[Remarks:Successful connection to server: S3]
[Date: 2019-08-07 15:49:24]	[UserID:06/343]	[IP:10.128.12.113]	[Browser:Chrome - 75.0.3770.142]	[Action:GetGSTModules 06/343,1]	[Remarks:Successful filter row count: 7]
[Date: 2019-08-07 15:49:24]	[UserID:06/343]	[IP:10.128.12.113]	[Browser:Chrome - 75.0.3770.142]	[Action:Closing mssql connection]	[Remarks:Success]
[Date: 2019-08-07 15:53:39]	[UserID:]	[IP:10.128.12.120]	[Browser:Chrome - 75.0.3770.142]	[Action:Making connection to server]	[Remarks:Successful connection to server: S3]
[Date: 2019-08-07 15:53:39]	[UserID:]	[IP:10.128.12.120]	[Browser:Chrome - 75.0.3770.142]	[Action:GetProgramList ]	[Remarks:"no data"]
[Date: 2019-08-07 15:53:45]	[UserID:14/1082]	[IP:10.128.12.120]	[Browser:Chrome - 75.0.3770.142]	[Action:Making connection to server]	[Remarks:Successful connection to server: S3]
[Date: 2019-08-07 15:53:45]	[UserID:14/1082]	[IP:10.128.12.120]	[Browser:Chrome - 75.0.3770.142]	[Action:User 14/1082]	[Remarks:Success]
[Date: 2019-08-07 15:53:45]	[UserID:14/1082]	[IP:10.128.12.120]	[Browser:Chrome - 75.0.3770.142]	[Action:Filtering User : MasterData Username : 14/1082]	[Remarks:Successful filter row count: 0]
[Date: 2019-08-07 15:53:45]	[UserID:14/1082]	[IP:10.128.12.120]	[Browser:Chrome - 75.0.3770.142]	[Action:Filtering User : MasterData Username : 14/1082]	[Remarks:Successful filter row count: 0]
[Date: 2019-08-07 15:53:45]	[UserID:14/1082]	[IP:10.128.12.120]	[Browser:Chrome - 75.0.3770.142]	[Action:Filtering User : MasterData Username : 14/1082]	[Remarks:Success]
[Date: 2019-08-07 15:53:45]	[UserID:14/1082]	[IP:10.128.12.120]	[Browser:Chrome - 75.0.3770.142]	[Action:Closing mssql connection]	[Remarks:Success]
[Date: 2019-08-07 15:53:45]	[UserID:14/1082]	[IP:10.128.12.120]	[Browser:Chrome - 75.0.3770.142]	[Action:Making connection to server]	[Remarks:Successful connection to server: S3]
[Date: 2019-08-07 15:53:45]	[UserID:14/1082]	[IP:10.128.12.120]	[Browser:Chrome - 75.0.3770.142]	[Action:GetProgramList 14/1082]	[Remarks:[{"ID":"1","ProgramIndex":"GST","ProgramName":"GST"}]]
[Date: 2019-08-07 15:53:45]	[UserID:14/1082]	[IP:10.128.12.120]	[Browser:Chrome - 75.0.3770.142]	[Action:Making connection to server]	[Remarks:Successful connection to server: S3]
[Date: 2019-08-07 15:53:45]	[UserID:14/1082]	[IP:10.128.12.120]	[Browser:Chrome - 75.0.3770.142]	[Action:GetProgramList 14/1082]	[Remarks:[{"ID":"1","ProgramIndex":"GST","ProgramName":"GST"}]]
[Date: 2019-08-07 15:53:45]	[UserID:14/1082]	[IP:10.128.12.120]	[Browser:Chrome - 75.0.3770.142]	[Action:Making connection to server]	[Remarks:Successful connection to server: S3]
[Date: 2019-08-07 15:53:45]	[UserID:14/1082]	[IP:10.128.12.120]	[Browser:Chrome - 75.0.3770.142]	[Action:Filtering User : MasterData Username : 14/1082]	[Remarks:Successful filter row count: 1]
[Date: 2019-08-07 15:53:45]	[UserID:14/1082]	[IP:10.128.12.120]	[Browser:Chrome - 75.0.3770.142]	[Action:Making connection to server]	[Remarks:Successful connection to server: S3]
[Date: 2019-08-07 15:53:45]	[UserID:14/1082]	[IP:10.128.12.120]	[Browser:Chrome - 75.0.3770.142]	[Action:GetGSTModules 14/1082,1]	[Remarks:Successful filter row count: 8]
[Date: 2019-08-07 15:53:45]	[UserID:14/1082]	[IP:10.128.12.120]	[Browser:Chrome - 75.0.3770.142]	[Action:Closing mssql connection]	[Remarks:Success]
[Date: 2019-08-07 15:55:03]	[UserID:]	[IP:10.128.12.120]	[Browser:Chrome - 75.0.3770.142]	[Action:Making connection to server]	[Remarks:Successful connection to server: S3]
[Date: 2019-08-07 15:55:03]	[UserID:]	[IP:10.128.12.120]	[Browser:Chrome - 75.0.3770.142]	[Action:GetProgramList ]	[Remarks:"no data"]
[Date: 2019-08-07 15:55:07]	[UserID:14/1082]	[IP:10.128.12.120]	[Browser:Chrome - 75.0.3770.142]	[Action:Making connection to server]	[Remarks:Successful connection to server: S3]
[Date: 2019-08-07 15:55:07]	[UserID:14/1082]	[IP:10.128.12.120]	[Browser:Chrome - 75.0.3770.142]	[Action:User 14/1082]	[Remarks:Success]
[Date: 2019-08-07 15:55:07]	[UserID:14/1082]	[IP:10.128.12.120]	[Browser:Chrome - 75.0.3770.142]	[Action:Filtering User : MasterData Username : 14/1082]	[Remarks:Successful filter row count: 0]
[Date: 2019-08-07 15:55:07]	[UserID:14/1082]	[IP:10.128.12.120]	[Browser:Chrome - 75.0.3770.142]	[Action:Filtering User : MasterData Username : 14/1082]	[Remarks:Successful filter row count: 0]
[Date: 2019-08-07 15:55:07]	[UserID:14/1082]	[IP:10.128.12.120]	[Browser:Chrome - 75.0.3770.142]	[Action:Filtering User : MasterData Username : 14/1082]	[Remarks:Success]
[Date: 2019-08-07 15:55:07]	[UserID:14/1082]	[IP:10.128.12.120]	[Browser:Chrome - 75.0.3770.142]	[Action:Closing mssql connection]	[Remarks:Success]
[Date: 2019-08-07 15:55:07]	[UserID:14/1082]	[IP:10.128.12.120]	[Browser:Chrome - 75.0.3770.142]	[Action:Making connection to server]	[Remarks:Successful connection to server: S3]
[Date: 2019-08-07 15:55:07]	[UserID:14/1082]	[IP:10.128.12.120]	[Browser:Chrome - 75.0.3770.142]	[Action:GetProgramList 14/1082]	[Remarks:[{"ID":"1","ProgramIndex":"GST","ProgramName":"GST"}]]
[Date: 2019-08-07 15:55:07]	[UserID:14/1082]	[IP:10.128.12.120]	[Browser:Chrome - 75.0.3770.142]	[Action:Making connection to server]	[Remarks:Successful connection to server: S3]
[Date: 2019-08-07 15:55:07]	[UserID:14/1082]	[IP:10.128.12.120]	[Browser:Chrome - 75.0.3770.142]	[Action:GetProgramList 14/1082]	[Remarks:[{"ID":"1","ProgramIndex":"GST","ProgramName":"GST"}]]
[Date: 2019-08-07 15:55:07]	[UserID:14/1082]	[IP:10.128.12.120]	[Browser:Chrome - 75.0.3770.142]	[Action:Making connection to server]	[Remarks:Successful connection to server: S3]
[Date: 2019-08-07 15:55:07]	[UserID:14/1082]	[IP:10.128.12.120]	[Browser:Chrome - 75.0.3770.142]	[Action:Filtering User : MasterData Username : 14/1082]	[Remarks:Successful filter row count: 1]
[Date: 2019-08-07 15:55:08]	[UserID:14/1082]	[IP:10.128.12.120]	[Browser:Chrome - 75.0.3770.142]	[Action:Making connection to server]	[Remarks:Successful connection to server: S3]
[Date: 2019-08-07 15:55:08]	[UserID:14/1082]	[IP:10.128.12.120]	[Browser:Chrome - 75.0.3770.142]	[Action:GetGSTModules 14/1082,1]	[Remarks:Successful filter row count: 8]
[Date: 2019-08-07 15:55:08]	[UserID:14/1082]	[IP:10.128.12.120]	[Browser:Chrome - 75.0.3770.142]	[Action:Closing mssql connection]	[Remarks:Success]
[Date: 2019-08-07 15:55:11]	[UserID:14/1082]	[IP:10.128.12.120]	[Browser:Chrome - 75.0.3770.142]	[Action:Making connection to server]	[Remarks:Successful connection to server: S3]
[Date: 2019-08-07 15:55:11]	[UserID:14/1082]	[IP:10.128.12.120]	[Browser:Chrome - 75.0.3770.142]	[Action:GetGSTModules 14/1082,1]	[Remarks:Successful filter row count: 8]
[Date: 2019-08-07 15:55:11]	[UserID:14/1082]	[IP:10.128.12.120]	[Browser:Chrome - 75.0.3770.142]	[Action:Closing mssql connection]	[Remarks:Success]
[Date: 2019-08-07 16:05:45]	[UserID:]	[IP:10.128.12.115]	[Browser:Chrome - 75.0.3770.142]	[Action:Making connection to server]	[Remarks:Successful connection to server: S3]
[Date: 2019-08-07 16:05:45]	[UserID:]	[IP:10.128.12.115]	[Browser:Chrome - 75.0.3770.142]	[Action:GetProgramList ]	[Remarks:"no data"]
[Date: 2019-08-07 16:19:55]	[UserID:14/1082]	[IP:10.128.12.120]	[Browser:Chrome - 75.0.3770.142]	[Action:Making connection to server]	[Remarks:Successful connection to server: S3]
[Date: 2019-08-07 16:19:55]	[UserID:14/1082]	[IP:10.128.12.120]	[Browser:Chrome - 75.0.3770.142]	[Action:GetGSTModules 14/1082,1]	[Remarks:Successful filter row count: 8]
[Date: 2019-08-07 16:19:55]	[UserID:14/1082]	[IP:10.128.12.120]	[Browser:Chrome - 75.0.3770.142]	[Action:Closing mssql connection]	[Remarks:Success]
[Date: 2019-08-07 16:22:44]	[UserID:14/1082]	[IP:10.128.12.120]	[Browser:Chrome - 75.0.3770.142]	[Action:Making connection to server]	[Remarks:Successful connection to server: S3]
[Date: 2019-08-07 16:22:44]	[UserID:14/1082]	[IP:10.128.12.120]	[Browser:Chrome - 75.0.3770.142]	[Action:GetGSTModules 14/1082,1]	[Remarks:Successful filter row count: 8]
[Date: 2019-08-07 16:22:44]	[UserID:14/1082]	[IP:10.128.12.120]	[Browser:Chrome - 75.0.3770.142]	[Action:Closing mssql connection]	[Remarks:Success]
[Date: 2019-08-07 16:24:27]	[UserID:14/1082]	[IP:10.128.12.120]	[Browser:Chrome - 75.0.3770.142]	[Action:Making connection to server]	[Remarks:Successful connection to server: S3]
[Date: 2019-08-07 16:24:27]	[UserID:14/1082]	[IP:10.128.12.120]	[Browser:Chrome - 75.0.3770.142]	[Action:GetGSTModules 14/1082,1]	[Remarks:Successful filter row count: 8]
[Date: 2019-08-07 16:24:27]	[UserID:14/1082]	[IP:10.128.12.120]	[Browser:Chrome - 75.0.3770.142]	[Action:Closing mssql connection]	[Remarks:Success]
[Date: 2019-08-07 16:25:06]	[UserID:06/343]	[IP:10.128.12.113]	[Browser:Chrome - 75.0.3770.142]	[Action:Making connection to server]	[Remarks:Successful connection to server: S3]
[Date: 2019-08-07 16:25:06]	[UserID:06/343]	[IP:10.128.12.113]	[Browser:Chrome - 75.0.3770.142]	[Action:GetGSTModules 06/343,1]	[Remarks:Successful filter row count: 7]
[Date: 2019-08-07 16:25:06]	[UserID:06/343]	[IP:10.128.12.113]	[Browser:Chrome - 75.0.3770.142]	[Action:Closing mssql connection]	[Remarks:Success]
[Date: 2019-08-07 16:26:45]	[UserID:14/1082]	[IP:10.128.12.120]	[Browser:Chrome - 75.0.3770.142]	[Action:Making connection to server]	[Remarks:Successful connection to server: S3]
[Date: 2019-08-07 16:26:45]	[UserID:14/1082]	[IP:10.128.12.120]	[Browser:Chrome - 75.0.3770.142]	[Action:GetGSTModules 14/1082,1]	[Remarks:Successful filter row count: 8]
[Date: 2019-08-07 16:26:45]	[UserID:14/1082]	[IP:10.128.12.120]	[Browser:Chrome - 75.0.3770.142]	[Action:Closing mssql connection]	[Remarks:Success]
[Date: 2019-08-07 16:31:32]	[UserID:06/343]	[IP:10.128.12.113]	[Browser:Chrome - 75.0.3770.142]	[Action:Making connection to server]	[Remarks:Successful connection to server: S3]
[Date: 2019-08-07 16:31:32]	[UserID:06/343]	[IP:10.128.12.113]	[Browser:Chrome - 75.0.3770.142]	[Action:GetGSTModules 06/343,1]	[Remarks:Successful filter row count: 7]
[Date: 2019-08-07 16:31:32]	[UserID:06/343]	[IP:10.128.12.113]	[Browser:Chrome - 75.0.3770.142]	[Action:Closing mssql connection]	[Remarks:Success]
[Date: 2019-08-07 16:31:36]	[UserID:06/343]	[IP:10.128.12.113]	[Browser:Chrome - 75.0.3770.142]	[Action:Making connection to server]	[Remarks:Successful connection to server: S3]
[Date: 2019-08-07 16:31:36]	[UserID:06/343]	[IP:10.128.12.113]	[Browser:Chrome - 75.0.3770.142]	[Action:GetGSTModules 06/343,1]	[Remarks:Successful filter row count: 7]
[Date: 2019-08-07 16:31:36]	[UserID:06/343]	[IP:10.128.12.113]	[Browser:Chrome - 75.0.3770.142]	[Action:Closing mssql connection]	[Remarks:Success]
[Date: 2019-08-07 17:31:53]	[UserID:14/1082]	[IP:10.128.12.114]	[Browser:Chrome - 75.0.3770.142]	[Action:Making connection to server]	[Remarks:Successful connection to server: S3]
[Date: 2019-08-07 17:31:53]	[UserID:14/1082]	[IP:10.128.12.114]	[Browser:Chrome - 75.0.3770.142]	[Action:GetProgramList 14/1082]	[Remarks:[{"ID":"1","ProgramIndex":"GST","ProgramName":"GST"}]]
[Date: 2019-08-07 17:31:53]	[UserID:14/1082]	[IP:10.128.12.114]	[Browser:Chrome - 75.0.3770.142]	[Action:Making connection to server]	[Remarks:Successful connection to server: S3]
[Date: 2019-08-07 17:31:53]	[UserID:14/1082]	[IP:10.128.12.114]	[Browser:Chrome - 75.0.3770.142]	[Action:GetProgramList 14/1082]	[Remarks:[{"ID":"1","ProgramIndex":"GST","ProgramName":"GST"}]]
[Date: 2019-08-07 17:31:53]	[UserID:14/1082]	[IP:10.128.12.114]	[Browser:Chrome - 75.0.3770.142]	[Action:Making connection to server]	[Remarks:Successful connection to server: S3]
[Date: 2019-08-07 17:31:53]	[UserID:14/1082]	[IP:10.128.12.114]	[Browser:Chrome - 75.0.3770.142]	[Action:Filtering User : MasterData Username : 14/1082]	[Remarks:Successful filter row count: 1]
[Date: 2019-08-07 17:31:54]	[UserID:14/1082]	[IP:10.128.12.114]	[Browser:Chrome - 75.0.3770.142]	[Action:Making connection to server]	[Remarks:Successful connection to server: S3]
[Date: 2019-08-07 17:31:54]	[UserID:14/1082]	[IP:10.128.12.114]	[Browser:Chrome - 75.0.3770.142]	[Action:GetGSTModules 14/1082,1]	[Remarks:Successful filter row count: 8]
[Date: 2019-08-07 17:31:54]	[UserID:14/1082]	[IP:10.128.12.114]	[Browser:Chrome - 75.0.3770.142]	[Action:Closing mssql connection]	[Remarks:Success]
[Date: 2019-08-07 17:43:38]	[UserID:14/1082]	[IP:10.128.12.114]	[Browser:Chrome - 75.0.3770.142]	[Action:Making connection to server]	[Remarks:Successful connection to server: S3]
[Date: 2019-08-07 17:43:38]	[UserID:14/1082]	[IP:10.128.12.114]	[Browser:Chrome - 75.0.3770.142]	[Action:GetGSTModules 14/1082,1]	[Remarks:Successful filter row count: 8]
[Date: 2019-08-07 17:43:38]	[UserID:14/1082]	[IP:10.128.12.114]	[Browser:Chrome - 75.0.3770.142]	[Action:Closing mssql connection]	[Remarks:Success]
[Date: 2019-08-07 18:25:41]	[UserID:]	[IP:10.128.12.114]	[Browser:Chrome - 75.0.3770.142]	[Action:Making connection to server]	[Remarks:Successful connection to server: S3]
[Date: 2019-08-07 18:25:41]	[UserID:]	[IP:10.128.12.114]	[Browser:Chrome - 75.0.3770.142]	[Action:GetProgramList ]	[Remarks:"no data"]
[Date: 2019-08-07 18:26:06]	[UserID:]	[IP:10.128.12.114]	[Browser:Chrome - 75.0.3770.142]	[Action:Making connection to server]	[Remarks:Successful connection to server: S3]
[Date: 2019-08-07 18:26:06]	[UserID:]	[IP:10.128.12.114]	[Browser:Chrome - 75.0.3770.142]	[Action:GetProgramList ]	[Remarks:"no data"]
[Date: 2019-08-07 18:26:11]	[UserID:14/1082]	[IP:10.128.12.114]	[Browser:Chrome - 75.0.3770.142]	[Action:Making connection to server]	[Remarks:Successful connection to server: S3]
[Date: 2019-08-07 18:26:11]	[UserID:14/1082]	[IP:10.128.12.114]	[Browser:Chrome - 75.0.3770.142]	[Action:User 14/1082]	[Remarks:Success]
[Date: 2019-08-07 18:26:11]	[UserID:14/1082]	[IP:10.128.12.114]	[Browser:Chrome - 75.0.3770.142]	[Action:Filtering User : MasterData Username : 14/1082]	[Remarks:Successful filter row count: 0]
[Date: 2019-08-07 18:26:11]	[UserID:14/1082]	[IP:10.128.12.114]	[Browser:Chrome - 75.0.3770.142]	[Action:Filtering User : MasterData Username : 14/1082]	[Remarks:Successful filter row count: 0]
[Date: 2019-08-07 18:26:11]	[UserID:14/1082]	[IP:10.128.12.114]	[Browser:Chrome - 75.0.3770.142]	[Action:Filtering User : MasterData Username : 14/1082]	[Remarks:Success]
[Date: 2019-08-07 18:26:11]	[UserID:14/1082]	[IP:10.128.12.114]	[Browser:Chrome - 75.0.3770.142]	[Action:Closing mssql connection]	[Remarks:Success]
[Date: 2019-08-07 18:26:11]	[UserID:14/1082]	[IP:10.128.12.114]	[Browser:Chrome - 75.0.3770.142]	[Action:Making connection to server]	[Remarks:Successful connection to server: S3]
[Date: 2019-08-07 18:26:11]	[UserID:14/1082]	[IP:10.128.12.114]	[Browser:Chrome - 75.0.3770.142]	[Action:GetProgramList 14/1082]	[Remarks:[{"ID":"1","ProgramIndex":"GST","ProgramName":"GST"}]]
[Date: 2019-08-07 18:26:11]	[UserID:14/1082]	[IP:10.128.12.114]	[Browser:Chrome - 75.0.3770.142]	[Action:Making connection to server]	[Remarks:Successful connection to server: S3]
[Date: 2019-08-07 18:26:11]	[UserID:14/1082]	[IP:10.128.12.114]	[Browser:Chrome - 75.0.3770.142]	[Action:GetProgramList 14/1082]	[Remarks:[{"ID":"1","ProgramIndex":"GST","ProgramName":"GST"}]]
[Date: 2019-08-07 18:26:11]	[UserID:14/1082]	[IP:10.128.12.114]	[Browser:Chrome - 75.0.3770.142]	[Action:Making connection to server]	[Remarks:Successful connection to server: S3]
[Date: 2019-08-07 18:26:11]	[UserID:14/1082]	[IP:10.128.12.114]	[Browser:Chrome - 75.0.3770.142]	[Action:Filtering User : MasterData Username : 14/1082]	[Remarks:Successful filter row count: 1]
[Date: 2019-08-07 18:26:11]	[UserID:14/1082]	[IP:10.128.12.114]	[Browser:Chrome - 75.0.3770.142]	[Action:Making connection to server]	[Remarks:Successful connection to server: S3]
[Date: 2019-08-07 18:26:11]	[UserID:14/1082]	[IP:10.128.12.114]	[Browser:Chrome - 75.0.3770.142]	[Action:GetGSTModules 14/1082,1]	[Remarks:Successful filter row count: 8]
[Date: 2019-08-07 18:26:11]	[UserID:14/1082]	[IP:10.128.12.114]	[Browser:Chrome - 75.0.3770.142]	[Action:Closing mssql connection]	[Remarks:Success]
[Date: 2019-08-07 19:32:55]	[UserID:14/1082]	[IP:10.128.12.114]	[Browser:Chrome - 75.0.3770.142]	[Action:Making connection to server]	[Remarks:Successful connection to server: S3]
[Date: 2019-08-07 19:32:55]	[UserID:14/1082]	[IP:10.128.12.114]	[Browser:Chrome - 75.0.3770.142]	[Action:GetGSTModules 14/1082,1]	[Remarks:Successful filter row count: 8]
[Date: 2019-08-07 19:32:55]	[UserID:14/1082]	[IP:10.128.12.114]	[Browser:Chrome - 75.0.3770.142]	[Action:Closing mssql connection]	[Remarks:Success]
[Date: 2019-08-07 19:32:58]	[UserID:]	[IP:10.128.12.114]	[Browser:Chrome - 75.0.3770.142]	[Action:Making connection to server]	[Remarks:Successful connection to server: S3]
[Date: 2019-08-07 19:32:58]	[UserID:]	[IP:10.128.12.114]	[Browser:Chrome - 75.0.3770.142]	[Action:GetProgramList ]	[Remarks:"no data"]
