[Date: 2020-10-03 08:04:12]	[UserID:]	[IP:10.128.12.115]	[Browser:Chrome - 85.0.4183.121]	[Action:Making connection to server]	[Remarks:Successful connection to server: S3]
[Date: 2020-10-03 08:04:12]	[UserID:]	[IP:10.128.12.115]	[Browser:Chrome - 85.0.4183.121]	[Action:GetProgramList ]	[Remarks:"no data"]
[Date: 2020-10-03 08:04:21]	[UserID:17/1248]	[IP:10.128.12.115]	[Browser:Chrome - 85.0.4183.121]	[Action:Making connection to server]	[Remarks:Successful connection to server: S3]
[Date: 2020-10-03 08:04:21]	[UserID:17/1248]	[IP:10.128.12.115]	[Browser:Chrome - 85.0.4183.121]	[Action:User 17/1248]	[Remarks:Success]
[Date: 2020-10-03 08:04:21]	[UserID:17/1248]	[IP:10.128.12.115]	[Browser:Chrome - 85.0.4183.121]	[Action:Filtering User : MasterData Username : 17/1248]	[Remarks:Successful filter row count: 0]
[Date: 2020-10-03 08:04:21]	[UserID:17/1248]	[IP:10.128.12.115]	[Browser:Chrome - 85.0.4183.121]	[Action:Filtering User : MasterData Username : 17/1248]	[Remarks:Successful filter row count: 0]
[Date: 2020-10-03 08:04:21]	[UserID:17/1248]	[IP:10.128.12.115]	[Browser:Chrome - 85.0.4183.121]	[Action:Filtering User : MasterData Username : 17/1248]	[Remarks:Success]
[Date: 2020-10-03 08:04:21]	[UserID:17/1248]	[IP:10.128.12.115]	[Browser:Chrome - 85.0.4183.121]	[Action:Closing mssql connection]	[Remarks:Success]
[Date: 2020-10-03 08:04:21]	[UserID:17/1248]	[IP:10.128.12.115]	[Browser:Chrome - 85.0.4183.121]	[Action:Making connection to server]	[Remarks:Successful connection to server: S3]
[Date: 2020-10-03 08:04:21]	[UserID:17/1248]	[IP:10.128.12.115]	[Browser:Chrome - 85.0.4183.121]	[Action:GetProgramList 17/1248]	[Remarks:[{"ID":"1","ProgramIndex":"GST","ProgramName":"GST"}]]
[Date: 2020-10-03 08:04:21]	[UserID:17/1248]	[IP:10.128.12.115]	[Browser:Chrome - 85.0.4183.121]	[Action:Making connection to server]	[Remarks:Successful connection to server: S3]
[Date: 2020-10-03 08:04:21]	[UserID:17/1248]	[IP:10.128.12.115]	[Browser:Chrome - 85.0.4183.121]	[Action:GetProgramList 17/1248]	[Remarks:[{"ID":"1","ProgramIndex":"GST","ProgramName":"GST"}]]
[Date: 2020-10-03 08:04:21]	[UserID:17/1248]	[IP:10.128.12.115]	[Browser:Chrome - 85.0.4183.121]	[Action:Making connection to server]	[Remarks:Successful connection to server: S3]
[Date: 2020-10-03 08:04:21]	[UserID:17/1248]	[IP:10.128.12.115]	[Browser:Chrome - 85.0.4183.121]	[Action:Filtering User : MasterData Username : 17/1248]	[Remarks:Successful filter row count: 1]
[Date: 2020-10-03 08:04:22]	[UserID:17/1248]	[IP:10.128.12.115]	[Browser:Chrome - 85.0.4183.121]	[Action:Making connection to server]	[Remarks:Successful connection to server: S3]
[Date: 2020-10-03 08:04:22]	[UserID:17/1248]	[IP:10.128.12.115]	[Browser:Chrome - 85.0.4183.121]	[Action:GetGSTModules 17/1248,1]	[Remarks:Successful filter row count: 6]
[Date: 2020-10-03 08:04:22]	[UserID:17/1248]	[IP:10.128.12.115]	[Browser:Chrome - 85.0.4183.121]	[Action:Closing mssql connection]	[Remarks:Success]
[Date: 2020-10-03 08:12:31]	[UserID:]	[IP:10.128.130.5]	[Browser:Chrome - 85.0.4183.121]	[Action:Making connection to server]	[Remarks:Successful connection to server: S3]
[Date: 2020-10-03 08:12:31]	[UserID:]	[IP:10.128.130.5]	[Browser:Chrome - 85.0.4183.121]	[Action:GetProgramList ]	[Remarks:"no data"]
[Date: 2020-10-03 11:10:03]	[UserID:]	[IP:10.128.12.114]	[Browser:Chrome - 85.0.4183.121]	[Action:Making connection to server]	[Remarks:Successful connection to server: S3]
[Date: 2020-10-03 11:10:03]	[UserID:]	[IP:10.128.12.114]	[Browser:Chrome - 85.0.4183.121]	[Action:GetProgramList ]	[Remarks:"no data"]
[Date: 2020-10-03 11:10:08]	[UserID:14/1082]	[IP:10.128.12.114]	[Browser:Chrome - 85.0.4183.121]	[Action:Making connection to server]	[Remarks:Successful connection to server: S3]
[Date: 2020-10-03 11:10:08]	[UserID:14/1082]	[IP:10.128.12.114]	[Browser:Chrome - 85.0.4183.121]	[Action:User 14/1082]	[Remarks:Success]
[Date: 2020-10-03 11:10:08]	[UserID:14/1082]	[IP:10.128.12.114]	[Browser:Chrome - 85.0.4183.121]	[Action:Filtering User : MasterData Username : 14/1082]	[Remarks:Successful filter row count: 0]
[Date: 2020-10-03 11:10:08]	[UserID:14/1082]	[IP:10.128.12.114]	[Browser:Chrome - 85.0.4183.121]	[Action:Filtering User : MasterData Username : 14/1082]	[Remarks:Successful filter row count: 0]
[Date: 2020-10-03 11:10:08]	[UserID:14/1082]	[IP:10.128.12.114]	[Browser:Chrome - 85.0.4183.121]	[Action:Filtering User : MasterData Username : 14/1082]	[Remarks:Success]
[Date: 2020-10-03 11:10:08]	[UserID:14/1082]	[IP:10.128.12.114]	[Browser:Chrome - 85.0.4183.121]	[Action:Closing mssql connection]	[Remarks:Success]
[Date: 2020-10-03 11:10:09]	[UserID:14/1082]	[IP:10.128.12.114]	[Browser:Chrome - 85.0.4183.121]	[Action:Making connection to server]	[Remarks:Successful connection to server: S3]
[Date: 2020-10-03 11:10:09]	[UserID:14/1082]	[IP:10.128.12.114]	[Browser:Chrome - 85.0.4183.121]	[Action:GetProgramList 14/1082]	[Remarks:[{"ID":"1","ProgramIndex":"GST","ProgramName":"GST"}]]
[Date: 2020-10-03 11:10:09]	[UserID:14/1082]	[IP:10.128.12.114]	[Browser:Chrome - 85.0.4183.121]	[Action:Making connection to server]	[Remarks:Successful connection to server: S3]
[Date: 2020-10-03 11:10:09]	[UserID:14/1082]	[IP:10.128.12.114]	[Browser:Chrome - 85.0.4183.121]	[Action:GetProgramList 14/1082]	[Remarks:[{"ID":"1","ProgramIndex":"GST","ProgramName":"GST"}]]
[Date: 2020-10-03 11:10:09]	[UserID:14/1082]	[IP:10.128.12.114]	[Browser:Chrome - 85.0.4183.121]	[Action:Making connection to server]	[Remarks:Successful connection to server: S3]
[Date: 2020-10-03 11:10:09]	[UserID:14/1082]	[IP:10.128.12.114]	[Browser:Chrome - 85.0.4183.121]	[Action:Filtering User : MasterData Username : 14/1082]	[Remarks:Successful filter row count: 1]
[Date: 2020-10-03 11:10:09]	[UserID:14/1082]	[IP:10.128.12.114]	[Browser:Chrome - 85.0.4183.121]	[Action:Making connection to server]	[Remarks:Successful connection to server: S3]
[Date: 2020-10-03 11:10:09]	[UserID:14/1082]	[IP:10.128.12.114]	[Browser:Chrome - 85.0.4183.121]	[Action:GetGSTModules 14/1082,1]	[Remarks:Successful filter row count: 8]
[Date: 2020-10-03 11:10:09]	[UserID:14/1082]	[IP:10.128.12.114]	[Browser:Chrome - 85.0.4183.121]	[Action:Closing mssql connection]	[Remarks:Success]
[Date: 2020-10-03 11:49:17]	[UserID:]	[IP:10.128.12.114]	[Browser:Chrome - 85.0.4183.121]	[Action:Making connection to server]	[Remarks:Successful connection to server: S3]
[Date: 2020-10-03 11:49:17]	[UserID:]	[IP:10.128.12.114]	[Browser:Chrome - 85.0.4183.121]	[Action:GetProgramList ]	[Remarks:"no data"]
[Date: 2020-10-03 11:49:22]	[UserID:14/1082]	[IP:10.128.12.114]	[Browser:Chrome - 85.0.4183.121]	[Action:Making connection to server]	[Remarks:Successful connection to server: S3]
[Date: 2020-10-03 11:49:22]	[UserID:14/1082]	[IP:10.128.12.114]	[Browser:Chrome - 85.0.4183.121]	[Action:User 14/1082]	[Remarks:Success]
[Date: 2020-10-03 11:49:22]	[UserID:14/1082]	[IP:10.128.12.114]	[Browser:Chrome - 85.0.4183.121]	[Action:Filtering User : MasterData Username : 14/1082]	[Remarks:Successful filter row count: 0]
[Date: 2020-10-03 11:49:22]	[UserID:14/1082]	[IP:10.128.12.114]	[Browser:Chrome - 85.0.4183.121]	[Action:Filtering User : MasterData Username : 14/1082]	[Remarks:Successful filter row count: 0]
[Date: 2020-10-03 11:49:22]	[UserID:14/1082]	[IP:10.128.12.114]	[Browser:Chrome - 85.0.4183.121]	[Action:Filtering User : MasterData Username : 14/1082]	[Remarks:Success]
[Date: 2020-10-03 11:49:22]	[UserID:14/1082]	[IP:10.128.12.114]	[Browser:Chrome - 85.0.4183.121]	[Action:Closing mssql connection]	[Remarks:Success]
[Date: 2020-10-03 11:49:22]	[UserID:14/1082]	[IP:10.128.12.114]	[Browser:Chrome - 85.0.4183.121]	[Action:Making connection to server]	[Remarks:Successful connection to server: S3]
[Date: 2020-10-03 11:49:22]	[UserID:14/1082]	[IP:10.128.12.114]	[Browser:Chrome - 85.0.4183.121]	[Action:GetProgramList 14/1082]	[Remarks:[{"ID":"1","ProgramIndex":"GST","ProgramName":"GST"}]]
[Date: 2020-10-03 11:49:22]	[UserID:14/1082]	[IP:10.128.12.114]	[Browser:Chrome - 85.0.4183.121]	[Action:Making connection to server]	[Remarks:Successful connection to server: S3]
[Date: 2020-10-03 11:49:22]	[UserID:14/1082]	[IP:10.128.12.114]	[Browser:Chrome - 85.0.4183.121]	[Action:GetProgramList 14/1082]	[Remarks:[{"ID":"1","ProgramIndex":"GST","ProgramName":"GST"}]]
[Date: 2020-10-03 11:49:22]	[UserID:14/1082]	[IP:10.128.12.114]	[Browser:Chrome - 85.0.4183.121]	[Action:Making connection to server]	[Remarks:Successful connection to server: S3]
[Date: 2020-10-03 11:49:22]	[UserID:14/1082]	[IP:10.128.12.114]	[Browser:Chrome - 85.0.4183.121]	[Action:Filtering User : MasterData Username : 14/1082]	[Remarks:Successful filter row count: 1]
[Date: 2020-10-03 11:49:23]	[UserID:14/1082]	[IP:10.128.12.114]	[Browser:Chrome - 85.0.4183.121]	[Action:Making connection to server]	[Remarks:Successful connection to server: S3]
[Date: 2020-10-03 11:49:23]	[UserID:14/1082]	[IP:10.128.12.114]	[Browser:Chrome - 85.0.4183.121]	[Action:GetGSTModules 14/1082,1]	[Remarks:Successful filter row count: 8]
[Date: 2020-10-03 11:49:23]	[UserID:14/1082]	[IP:10.128.12.114]	[Browser:Chrome - 85.0.4183.121]	[Action:Closing mssql connection]	[Remarks:Success]
[Date: 2020-10-03 11:51:03]	[UserID:14/1082]	[IP:10.128.12.114]	[Browser:Chrome - 85.0.4183.121]	[Action:Making connection to server]	[Remarks:Successful connection to server: S3]
[Date: 2020-10-03 11:51:03]	[UserID:14/1082]	[IP:10.128.12.114]	[Browser:Chrome - 85.0.4183.121]	[Action:GetGSTModules 14/1082,1]	[Remarks:Successful filter row count: 8]
[Date: 2020-10-03 11:51:03]	[UserID:14/1082]	[IP:10.128.12.114]	[Browser:Chrome - 85.0.4183.121]	[Action:Closing mssql connection]	[Remarks:Success]
[Date: 2020-10-03 11:51:05]	[UserID:]	[IP:10.128.12.114]	[Browser:Chrome - 85.0.4183.121]	[Action:Making connection to server]	[Remarks:Successful connection to server: S3]
[Date: 2020-10-03 11:51:05]	[UserID:]	[IP:10.128.12.114]	[Browser:Chrome - 85.0.4183.121]	[Action:GetProgramList ]	[Remarks:"no data"]
[Date: 2020-10-03 13:46:30]	[UserID:]	[IP:10.128.12.114]	[Browser:Chrome - 85.0.4183.121]	[Action:Making connection to server]	[Remarks:Successful connection to server: S3]
[Date: 2020-10-03 13:46:30]	[UserID:]	[IP:10.128.12.114]	[Browser:Chrome - 85.0.4183.121]	[Action:GetProgramList ]	[Remarks:"no data"]
[Date: 2020-10-03 14:15:46]	[UserID:]	[IP:10.128.12.115]	[Browser:Chrome - 85.0.4183.121]	[Action:Making connection to server]	[Remarks:Successful connection to server: S3]
[Date: 2020-10-03 14:15:46]	[UserID:]	[IP:10.128.12.115]	[Browser:Chrome - 85.0.4183.121]	[Action:GetProgramList ]	[Remarks:"no data"]
[Date: 2020-10-03 14:53:02]	[UserID:]	[IP:10.128.12.115]	[Browser:Chrome - 85.0.4183.121]	[Action:Making connection to server]	[Remarks:Successful connection to server: S3]
[Date: 2020-10-03 14:53:02]	[UserID:]	[IP:10.128.12.115]	[Browser:Chrome - 85.0.4183.121]	[Action:GetProgramList ]	[Remarks:"no data"]
[Date: 2020-10-03 14:53:08]	[UserID:17/1248]	[IP:10.128.12.115]	[Browser:Chrome - 85.0.4183.121]	[Action:Making connection to server]	[Remarks:Successful connection to server: S3]
[Date: 2020-10-03 14:53:08]	[UserID:17/1248]	[IP:10.128.12.115]	[Browser:Chrome - 85.0.4183.121]	[Action:User 17/1248]	[Remarks:Success]
[Date: 2020-10-03 14:53:08]	[UserID:17/1248]	[IP:10.128.12.115]	[Browser:Chrome - 85.0.4183.121]	[Action:Filtering User : MasterData Username : 17/1248]	[Remarks:Successful filter row count: 0]
[Date: 2020-10-03 14:53:08]	[UserID:17/1248]	[IP:10.128.12.115]	[Browser:Chrome - 85.0.4183.121]	[Action:Filtering User : MasterData Username : 17/1248]	[Remarks:Successful filter row count: 0]
[Date: 2020-10-03 14:53:08]	[UserID:17/1248]	[IP:10.128.12.115]	[Browser:Chrome - 85.0.4183.121]	[Action:Filtering User : MasterData Username : 17/1248]	[Remarks:Success]
[Date: 2020-10-03 14:53:08]	[UserID:17/1248]	[IP:10.128.12.115]	[Browser:Chrome - 85.0.4183.121]	[Action:Closing mssql connection]	[Remarks:Success]
[Date: 2020-10-03 14:53:08]	[UserID:17/1248]	[IP:10.128.12.115]	[Browser:Chrome - 85.0.4183.121]	[Action:Making connection to server]	[Remarks:Successful connection to server: S3]
[Date: 2020-10-03 14:53:08]	[UserID:17/1248]	[IP:10.128.12.115]	[Browser:Chrome - 85.0.4183.121]	[Action:GetProgramList 17/1248]	[Remarks:[{"ID":"1","ProgramIndex":"GST","ProgramName":"GST"}]]
[Date: 2020-10-03 14:53:08]	[UserID:17/1248]	[IP:10.128.12.115]	[Browser:Chrome - 85.0.4183.121]	[Action:Making connection to server]	[Remarks:Successful connection to server: S3]
[Date: 2020-10-03 14:53:08]	[UserID:17/1248]	[IP:10.128.12.115]	[Browser:Chrome - 85.0.4183.121]	[Action:GetProgramList 17/1248]	[Remarks:[{"ID":"1","ProgramIndex":"GST","ProgramName":"GST"}]]
[Date: 2020-10-03 14:53:08]	[UserID:17/1248]	[IP:10.128.12.115]	[Browser:Chrome - 85.0.4183.121]	[Action:Making connection to server]	[Remarks:Successful connection to server: S3]
[Date: 2020-10-03 14:53:08]	[UserID:17/1248]	[IP:10.128.12.115]	[Browser:Chrome - 85.0.4183.121]	[Action:Filtering User : MasterData Username : 17/1248]	[Remarks:Successful filter row count: 1]
[Date: 2020-10-03 14:53:08]	[UserID:17/1248]	[IP:10.128.12.115]	[Browser:Chrome - 85.0.4183.121]	[Action:Making connection to server]	[Remarks:Successful connection to server: S3]
[Date: 2020-10-03 14:53:08]	[UserID:17/1248]	[IP:10.128.12.115]	[Browser:Chrome - 85.0.4183.121]	[Action:GetGSTModules 17/1248,1]	[Remarks:Successful filter row count: 6]
[Date: 2020-10-03 14:53:08]	[UserID:17/1248]	[IP:10.128.12.115]	[Browser:Chrome - 85.0.4183.121]	[Action:Closing mssql connection]	[Remarks:Success]
[Date: 2020-10-03 14:54:06]	[UserID:]	[IP:10.128.12.115]	[Browser:Chrome - 85.0.4183.121]	[Action:Making connection to server]	[Remarks:Successful connection to server: S3]
[Date: 2020-10-03 14:54:06]	[UserID:]	[IP:10.128.12.115]	[Browser:Chrome - 85.0.4183.121]	[Action:GetProgramList ]	[Remarks:"no data"]
[Date: 2020-10-03 23:09:06]	[UserID:]	[IP:10.128.130.5]	[Browser:Chrome - 85.0.4183.121]	[Action:Making connection to server]	[Remarks:Successful connection to server: S3]
[Date: 2020-10-03 23:09:06]	[UserID:]	[IP:10.128.130.5]	[Browser:Chrome - 85.0.4183.121]	[Action:GetProgramList ]	[Remarks:"no data"]
