[Date: 2019-05-27 08:01:13]	[UserID:]	[IP:10.128.12.120]	[Browser:Chrome - 74.0.3729.169]	[Action:Making connection to server]	[Remarks:Successful connection to server: S3]
[Date: 2019-05-27 08:01:13]	[UserID:]	[IP:10.128.12.120]	[Browser:Chrome - 74.0.3729.169]	[Action:GetProgramList ]	[Remarks:"no data"]
[Date: 2019-05-27 08:01:19]	[UserID:14/1082]	[IP:10.128.12.120]	[Browser:Chrome - 74.0.3729.169]	[Action:Making connection to server]	[Remarks:Successful connection to server: S3]
[Date: 2019-05-27 08:01:19]	[UserID:14/1082]	[IP:10.128.12.120]	[Browser:Chrome - 74.0.3729.169]	[Action:User 14/1082]	[Remarks:Success]
[Date: 2019-05-27 08:01:19]	[UserID:14/1082]	[IP:10.128.12.120]	[Browser:Chrome - 74.0.3729.169]	[Action:Filtering User : MasterData Username : 14/1082]	[Remarks:Successful filter row count: 0]
[Date: 2019-05-27 08:01:19]	[UserID:14/1082]	[IP:10.128.12.120]	[Browser:Chrome - 74.0.3729.169]	[Action:Filtering User : MasterData Username : 14/1082]	[Remarks:Successful filter row count: 0]
[Date: 2019-05-27 08:01:19]	[UserID:14/1082]	[IP:10.128.12.120]	[Browser:Chrome - 74.0.3729.169]	[Action:Filtering User : MasterData Username : 14/1082]	[Remarks:Success]
[Date: 2019-05-27 08:01:19]	[UserID:14/1082]	[IP:10.128.12.120]	[Browser:Chrome - 74.0.3729.169]	[Action:Closing mssql connection]	[Remarks:Success]
[Date: 2019-05-27 08:01:21]	[UserID:14/1082]	[IP:10.128.12.120]	[Browser:Chrome - 74.0.3729.169]	[Action:Making connection to server]	[Remarks:Successful connection to server: S3]
[Date: 2019-05-27 08:01:21]	[UserID:14/1082]	[IP:10.128.12.120]	[Browser:Chrome - 74.0.3729.169]	[Action:GetProgramList 14/1082]	[Remarks:[{"ID":"1","ProgramIndex":"GST","ProgramName":"GST"}]]
[Date: 2019-05-27 08:01:21]	[UserID:14/1082]	[IP:10.128.12.120]	[Browser:Chrome - 74.0.3729.169]	[Action:Making connection to server]	[Remarks:Successful connection to server: S3]
[Date: 2019-05-27 08:01:21]	[UserID:14/1082]	[IP:10.128.12.120]	[Browser:Chrome - 74.0.3729.169]	[Action:GetProgramList 14/1082]	[Remarks:[{"ID":"1","ProgramIndex":"GST","ProgramName":"GST"}]]
[Date: 2019-05-27 08:01:21]	[UserID:14/1082]	[IP:10.128.12.120]	[Browser:Chrome - 74.0.3729.169]	[Action:Making connection to server]	[Remarks:Successful connection to server: S3]
[Date: 2019-05-27 08:01:21]	[UserID:14/1082]	[IP:10.128.12.120]	[Browser:Chrome - 74.0.3729.169]	[Action:Filtering User : MasterData Username : 14/1082]	[Remarks:Successful filter row count: 1]
[Date: 2019-05-27 08:01:22]	[UserID:14/1082]	[IP:10.128.12.120]	[Browser:Chrome - 74.0.3729.169]	[Action:Making connection to server]	[Remarks:Successful connection to server: S3]
[Date: 2019-05-27 08:01:22]	[UserID:14/1082]	[IP:10.128.12.120]	[Browser:Chrome - 74.0.3729.169]	[Action:GetGSTModules 14/1082,1]	[Remarks:Successful filter row count: 7]
[Date: 2019-05-27 08:01:22]	[UserID:14/1082]	[IP:10.128.12.120]	[Browser:Chrome - 74.0.3729.169]	[Action:Closing mssql connection]	[Remarks:Success]
[Date: 2019-05-27 08:20:17]	[UserID:14/1082]	[IP:10.128.12.120]	[Browser:Chrome - 74.0.3729.169]	[Action:Making connection to server]	[Remarks:Successful connection to server: S3]
[Date: 2019-05-27 08:20:17]	[UserID:14/1082]	[IP:10.128.12.120]	[Browser:Chrome - 74.0.3729.169]	[Action:GetProgramList 14/1082]	[Remarks:[{"ID":"1","ProgramIndex":"GST","ProgramName":"GST"}]]
[Date: 2019-05-27 08:20:17]	[UserID:14/1082]	[IP:10.128.12.120]	[Browser:Chrome - 74.0.3729.169]	[Action:Making connection to server]	[Remarks:Successful connection to server: S3]
[Date: 2019-05-27 08:20:17]	[UserID:14/1082]	[IP:10.128.12.120]	[Browser:Chrome - 74.0.3729.169]	[Action:GetProgramList 14/1082]	[Remarks:[{"ID":"1","ProgramIndex":"GST","ProgramName":"GST"}]]
[Date: 2019-05-27 08:20:17]	[UserID:14/1082]	[IP:10.128.12.120]	[Browser:Chrome - 74.0.3729.169]	[Action:Making connection to server]	[Remarks:Successful connection to server: S3]
[Date: 2019-05-27 08:20:17]	[UserID:14/1082]	[IP:10.128.12.120]	[Browser:Chrome - 74.0.3729.169]	[Action:Filtering User : MasterData Username : 14/1082]	[Remarks:Successful filter row count: 1]
[Date: 2019-05-27 08:20:18]	[UserID:14/1082]	[IP:10.128.12.120]	[Browser:Chrome - 74.0.3729.169]	[Action:Making connection to server]	[Remarks:Successful connection to server: S3]
[Date: 2019-05-27 08:20:18]	[UserID:14/1082]	[IP:10.128.12.120]	[Browser:Chrome - 74.0.3729.169]	[Action:GetGSTModules 14/1082,1]	[Remarks:Successful filter row count: 7]
[Date: 2019-05-27 08:20:18]	[UserID:14/1082]	[IP:10.128.12.120]	[Browser:Chrome - 74.0.3729.169]	[Action:Closing mssql connection]	[Remarks:Success]
[Date: 2019-05-27 08:32:27]	[UserID:]	[IP:10.128.12.113]	[Browser:Chrome - 74.0.3729.169]	[Action:Making connection to server]	[Remarks:Successful connection to server: S3]
[Date: 2019-05-27 08:32:27]	[UserID:]	[IP:10.128.12.113]	[Browser:Chrome - 74.0.3729.169]	[Action:GetProgramList ]	[Remarks:"no data"]
[Date: 2019-05-27 08:32:46]	[UserID:06/343]	[IP:10.128.12.113]	[Browser:Chrome - 74.0.3729.169]	[Action:Making connection to server]	[Remarks:Successful connection to server: S3]
[Date: 2019-05-27 08:32:46]	[UserID:06/343]	[IP:10.128.12.113]	[Browser:Chrome - 74.0.3729.169]	[Action:LogMeIn 06/343,FHD1080@123]	[Remarks:Failed]
[Date: 2019-05-27 08:32:46]	[UserID:06/343]	[IP:10.128.12.113]	[Browser:Chrome - 74.0.3729.169]	[Action:Closing mssql connection]	[Remarks:Success]
[Date: 2019-05-27 08:33:02]	[UserID:06/343]	[IP:10.128.12.113]	[Browser:Chrome - 74.0.3729.169]	[Action:Making connection to server]	[Remarks:Successful connection to server: S3]
[Date: 2019-05-27 08:33:02]	[UserID:06/343]	[IP:10.128.12.113]	[Browser:Chrome - 74.0.3729.169]	[Action:LogMeIn 06/343,FHD1080@123]	[Remarks:Failed]
[Date: 2019-05-27 08:33:02]	[UserID:06/343]	[IP:10.128.12.113]	[Browser:Chrome - 74.0.3729.169]	[Action:Closing mssql connection]	[Remarks:Success]
[Date: 2019-05-27 08:33:16]	[UserID:06/343]	[IP:10.128.12.113]	[Browser:Chrome - 74.0.3729.169]	[Action:Making connection to server]	[Remarks:Successful connection to server: S3]
[Date: 2019-05-27 08:33:16]	[UserID:06/343]	[IP:10.128.12.113]	[Browser:Chrome - 74.0.3729.169]	[Action:User 06/343]	[Remarks:Success]
[Date: 2019-05-27 08:33:16]	[UserID:06/343]	[IP:10.128.12.113]	[Browser:Chrome - 74.0.3729.169]	[Action:Filtering User : MasterData Username : 06/343]	[Remarks:Successful filter row count: 0]
[Date: 2019-05-27 08:33:16]	[UserID:06/343]	[IP:10.128.12.113]	[Browser:Chrome - 74.0.3729.169]	[Action:Filtering User : MasterData Username : 06/343]	[Remarks:Successful filter row count: 0]
[Date: 2019-05-27 08:33:16]	[UserID:06/343]	[IP:10.128.12.113]	[Browser:Chrome - 74.0.3729.169]	[Action:Filtering User : MasterData Username : 06/343]	[Remarks:Success]
[Date: 2019-05-27 08:33:16]	[UserID:06/343]	[IP:10.128.12.113]	[Browser:Chrome - 74.0.3729.169]	[Action:Closing mssql connection]	[Remarks:Success]
[Date: 2019-05-27 08:33:17]	[UserID:]	[IP:10.128.12.113]	[Browser:Chrome - 74.0.3729.169]	[Action:Making connection to server]	[Remarks:Successful connection to server: S3]
[Date: 2019-05-27 08:33:17]	[UserID:]	[IP:10.128.12.113]	[Browser:Chrome - 74.0.3729.169]	[Action:GetProgramList ]	[Remarks:"no data"]
[Date: 2019-05-27 08:33:25]	[UserID:06/343]	[IP:10.128.12.113]	[Browser:Chrome - 74.0.3729.169]	[Action:Making connection to server]	[Remarks:Successful connection to server: S3]
[Date: 2019-05-27 08:33:25]	[UserID:06/343]	[IP:10.128.12.113]	[Browser:Chrome - 74.0.3729.169]	[Action:User 06/343]	[Remarks:Success]
[Date: 2019-05-27 08:33:25]	[UserID:06/343]	[IP:10.128.12.113]	[Browser:Chrome - 74.0.3729.169]	[Action:Filtering User : MasterData Username : 06/343]	[Remarks:Successful filter row count: 0]
[Date: 2019-05-27 08:33:25]	[UserID:06/343]	[IP:10.128.12.113]	[Browser:Chrome - 74.0.3729.169]	[Action:Filtering User : MasterData Username : 06/343]	[Remarks:Successful filter row count: 0]
[Date: 2019-05-27 08:33:25]	[UserID:06/343]	[IP:10.128.12.113]	[Browser:Chrome - 74.0.3729.169]	[Action:Filtering User : MasterData Username : 06/343]	[Remarks:Success]
[Date: 2019-05-27 08:33:25]	[UserID:06/343]	[IP:10.128.12.113]	[Browser:Chrome - 74.0.3729.169]	[Action:Closing mssql connection]	[Remarks:Success]
[Date: 2019-05-27 08:33:25]	[UserID:06/343]	[IP:10.128.12.113]	[Browser:Chrome - 74.0.3729.169]	[Action:Making connection to server]	[Remarks:Successful connection to server: S3]
[Date: 2019-05-27 08:33:26]	[UserID:06/343]	[IP:10.128.12.113]	[Browser:Chrome - 74.0.3729.169]	[Action:GetProgramList 06/343]	[Remarks:[{"ID":"1","ProgramIndex":"GST","ProgramName":"GST"}]]
[Date: 2019-05-27 08:33:26]	[UserID:06/343]	[IP:10.128.12.113]	[Browser:Chrome - 74.0.3729.169]	[Action:Making connection to server]	[Remarks:Successful connection to server: S3]
[Date: 2019-05-27 08:33:26]	[UserID:06/343]	[IP:10.128.12.113]	[Browser:Chrome - 74.0.3729.169]	[Action:GetProgramList 06/343]	[Remarks:[{"ID":"1","ProgramIndex":"GST","ProgramName":"GST"}]]
[Date: 2019-05-27 08:33:26]	[UserID:06/343]	[IP:10.128.12.113]	[Browser:Chrome - 74.0.3729.169]	[Action:Making connection to server]	[Remarks:Successful connection to server: S3]
[Date: 2019-05-27 08:33:26]	[UserID:06/343]	[IP:10.128.12.113]	[Browser:Chrome - 74.0.3729.169]	[Action:Filtering User : MasterData Username : 06/343]	[Remarks:Successful filter row count: 1]
[Date: 2019-05-27 08:33:26]	[UserID:06/343]	[IP:10.128.12.113]	[Browser:Chrome - 74.0.3729.169]	[Action:Making connection to server]	[Remarks:Successful connection to server: S3]
[Date: 2019-05-27 08:33:26]	[UserID:06/343]	[IP:10.128.12.113]	[Browser:Chrome - 74.0.3729.169]	[Action:GetGSTModules 06/343,1]	[Remarks:Successful filter row count: 6]
[Date: 2019-05-27 08:33:26]	[UserID:06/343]	[IP:10.128.12.113]	[Browser:Chrome - 74.0.3729.169]	[Action:Closing mssql connection]	[Remarks:Success]
[Date: 2019-05-27 08:40:18]	[UserID:06/343]	[IP:10.128.12.113]	[Browser:Chrome - 74.0.3729.169]	[Action:Making connection to server]	[Remarks:Successful connection to server: S3]
[Date: 2019-05-27 08:40:18]	[UserID:06/343]	[IP:10.128.12.113]	[Browser:Chrome - 74.0.3729.169]	[Action:GetGSTModules 06/343,1]	[Remarks:Successful filter row count: 6]
[Date: 2019-05-27 08:40:18]	[UserID:06/343]	[IP:10.128.12.113]	[Browser:Chrome - 74.0.3729.169]	[Action:Closing mssql connection]	[Remarks:Success]
[Date: 2019-05-27 08:50:40]	[UserID:06/343]	[IP:10.128.12.113]	[Browser:Chrome - 74.0.3729.169]	[Action:Making connection to server]	[Remarks:Successful connection to server: S3]
[Date: 2019-05-27 08:50:40]	[UserID:06/343]	[IP:10.128.12.113]	[Browser:Chrome - 74.0.3729.169]	[Action:GetGSTModules 06/343,1]	[Remarks:Successful filter row count: 6]
[Date: 2019-05-27 08:50:40]	[UserID:06/343]	[IP:10.128.12.113]	[Browser:Chrome - 74.0.3729.169]	[Action:Closing mssql connection]	[Remarks:Success]
[Date: 2019-05-27 08:52:00]	[UserID:]	[IP:10.128.12.115]	[Browser:Chrome - 74.0.3729.169]	[Action:Making connection to server]	[Remarks:Successful connection to server: S3]
[Date: 2019-05-27 08:52:00]	[UserID:]	[IP:10.128.12.115]	[Browser:Chrome - 74.0.3729.169]	[Action:GetProgramList ]	[Remarks:"no data"]
[Date: 2019-05-27 08:52:05]	[UserID:17/1248]	[IP:10.128.12.115]	[Browser:Chrome - 74.0.3729.169]	[Action:Making connection to server]	[Remarks:Successful connection to server: S3]
[Date: 2019-05-27 08:52:05]	[UserID:17/1248]	[IP:10.128.12.115]	[Browser:Chrome - 74.0.3729.169]	[Action:User 17/1248]	[Remarks:Success]
[Date: 2019-05-27 08:52:05]	[UserID:17/1248]	[IP:10.128.12.115]	[Browser:Chrome - 74.0.3729.169]	[Action:Filtering User : MasterData Username : 17/1248]	[Remarks:Successful filter row count: 0]
[Date: 2019-05-27 08:52:05]	[UserID:17/1248]	[IP:10.128.12.115]	[Browser:Chrome - 74.0.3729.169]	[Action:Filtering User : MasterData Username : 17/1248]	[Remarks:Successful filter row count: 0]
[Date: 2019-05-27 08:52:05]	[UserID:17/1248]	[IP:10.128.12.115]	[Browser:Chrome - 74.0.3729.169]	[Action:Filtering User : MasterData Username : 17/1248]	[Remarks:Success]
[Date: 2019-05-27 08:52:05]	[UserID:17/1248]	[IP:10.128.12.115]	[Browser:Chrome - 74.0.3729.169]	[Action:Closing mssql connection]	[Remarks:Success]
[Date: 2019-05-27 08:52:06]	[UserID:17/1248]	[IP:10.128.12.115]	[Browser:Chrome - 74.0.3729.169]	[Action:Making connection to server]	[Remarks:Successful connection to server: S3]
[Date: 2019-05-27 08:52:06]	[UserID:17/1248]	[IP:10.128.12.115]	[Browser:Chrome - 74.0.3729.169]	[Action:GetProgramList 17/1248]	[Remarks:[{"ID":"1","ProgramIndex":"GST","ProgramName":"GST"}]]
[Date: 2019-05-27 08:52:06]	[UserID:17/1248]	[IP:10.128.12.115]	[Browser:Chrome - 74.0.3729.169]	[Action:Making connection to server]	[Remarks:Successful connection to server: S3]
[Date: 2019-05-27 08:52:06]	[UserID:17/1248]	[IP:10.128.12.115]	[Browser:Chrome - 74.0.3729.169]	[Action:GetProgramList 17/1248]	[Remarks:[{"ID":"1","ProgramIndex":"GST","ProgramName":"GST"}]]
[Date: 2019-05-27 08:52:06]	[UserID:17/1248]	[IP:10.128.12.115]	[Browser:Chrome - 74.0.3729.169]	[Action:Making connection to server]	[Remarks:Successful connection to server: S3]
[Date: 2019-05-27 08:52:06]	[UserID:17/1248]	[IP:10.128.12.115]	[Browser:Chrome - 74.0.3729.169]	[Action:Filtering User : MasterData Username : 17/1248]	[Remarks:Successful filter row count: 1]
[Date: 2019-05-27 08:52:06]	[UserID:17/1248]	[IP:10.128.12.115]	[Browser:Chrome - 74.0.3729.169]	[Action:Making connection to server]	[Remarks:Successful connection to server: S3]
[Date: 2019-05-27 08:52:06]	[UserID:17/1248]	[IP:10.128.12.115]	[Browser:Chrome - 74.0.3729.169]	[Action:GetGSTModules 17/1248,1]	[Remarks:Successful filter row count: 5]
[Date: 2019-05-27 08:52:06]	[UserID:17/1248]	[IP:10.128.12.115]	[Browser:Chrome - 74.0.3729.169]	[Action:Closing mssql connection]	[Remarks:Success]
[Date: 2019-05-27 09:01:12]	[UserID:06/343]	[IP:10.128.12.113]	[Browser:Chrome - 74.0.3729.169]	[Action:Making connection to server]	[Remarks:Successful connection to server: S3]
[Date: 2019-05-27 09:01:12]	[UserID:06/343]	[IP:10.128.12.113]	[Browser:Chrome - 74.0.3729.169]	[Action:GetGSTModules 06/343,1]	[Remarks:Successful filter row count: 6]
[Date: 2019-05-27 09:01:12]	[UserID:06/343]	[IP:10.128.12.113]	[Browser:Chrome - 74.0.3729.169]	[Action:Closing mssql connection]	[Remarks:Success]
[Date: 2019-05-27 09:05:08]	[UserID:06/343]	[IP:10.128.12.113]	[Browser:Chrome - 74.0.3729.169]	[Action:Making connection to server]	[Remarks:Successful connection to server: S3]
[Date: 2019-05-27 09:05:08]	[UserID:06/343]	[IP:10.128.12.113]	[Browser:Chrome - 74.0.3729.169]	[Action:GetGSTModules 06/343,1]	[Remarks:Successful filter row count: 6]
[Date: 2019-05-27 09:05:08]	[UserID:06/343]	[IP:10.128.12.113]	[Browser:Chrome - 74.0.3729.169]	[Action:Closing mssql connection]	[Remarks:Success]
[Date: 2019-05-27 09:07:58]	[UserID:06/343]	[IP:10.128.12.113]	[Browser:Chrome - 74.0.3729.169]	[Action:Making connection to server]	[Remarks:Successful connection to server: S3]
[Date: 2019-05-27 09:07:58]	[UserID:06/343]	[IP:10.128.12.113]	[Browser:Chrome - 74.0.3729.169]	[Action:GetGSTModules 06/343,1]	[Remarks:Successful filter row count: 6]
[Date: 2019-05-27 09:07:58]	[UserID:06/343]	[IP:10.128.12.113]	[Browser:Chrome - 74.0.3729.169]	[Action:Closing mssql connection]	[Remarks:Success]
[Date: 2019-05-27 09:51:34]	[UserID:06/343]	[IP:10.128.12.113]	[Browser:Chrome - 74.0.3729.169]	[Action:Making connection to server]	[Remarks:Successful connection to server: S3]
[Date: 2019-05-27 09:51:34]	[UserID:06/343]	[IP:10.128.12.113]	[Browser:Chrome - 74.0.3729.169]	[Action:GetGSTModules 06/343,1]	[Remarks:Successful filter row count: 6]
[Date: 2019-05-27 09:51:34]	[UserID:06/343]	[IP:10.128.12.113]	[Browser:Chrome - 74.0.3729.169]	[Action:Closing mssql connection]	[Remarks:Success]
[Date: 2019-05-27 09:54:34]	[UserID:06/343]	[IP:10.128.12.113]	[Browser:Chrome - 74.0.3729.169]	[Action:Making connection to server]	[Remarks:Successful connection to server: S3]
[Date: 2019-05-27 09:54:34]	[UserID:06/343]	[IP:10.128.12.113]	[Browser:Chrome - 74.0.3729.169]	[Action:GetGSTModules 06/343,1]	[Remarks:Successful filter row count: 6]
[Date: 2019-05-27 09:54:34]	[UserID:06/343]	[IP:10.128.12.113]	[Browser:Chrome - 74.0.3729.169]	[Action:Closing mssql connection]	[Remarks:Success]
[Date: 2019-05-27 10:03:59]	[UserID:]	[IP:10.128.12.115]	[Browser:Chrome - 74.0.3729.169]	[Action:Making connection to server]	[Remarks:Successful connection to server: S3]
[Date: 2019-05-27 10:03:59]	[UserID:]	[IP:10.128.12.115]	[Browser:Chrome - 74.0.3729.169]	[Action:GetProgramList ]	[Remarks:"no data"]
[Date: 2019-05-27 11:54:05]	[UserID:06/343]	[IP:10.128.12.113]	[Browser:Chrome - 74.0.3729.169]	[Action:Making connection to server]	[Remarks:Successful connection to server: S3]
[Date: 2019-05-27 11:54:05]	[UserID:06/343]	[IP:10.128.12.113]	[Browser:Chrome - 74.0.3729.169]	[Action:GetGSTModules 06/343,1]	[Remarks:Successful filter row count: 6]
[Date: 2019-05-27 11:54:05]	[UserID:06/343]	[IP:10.128.12.113]	[Browser:Chrome - 74.0.3729.169]	[Action:Closing mssql connection]	[Remarks:Success]
[Date: 2019-05-27 11:55:38]	[UserID:06/343]	[IP:10.128.12.113]	[Browser:Chrome - 74.0.3729.169]	[Action:Making connection to server]	[Remarks:Successful connection to server: S3]
[Date: 2019-05-27 11:55:38]	[UserID:06/343]	[IP:10.128.12.113]	[Browser:Chrome - 74.0.3729.169]	[Action:GetGSTModules 06/343,1]	[Remarks:Successful filter row count: 6]
[Date: 2019-05-27 11:55:38]	[UserID:06/343]	[IP:10.128.12.113]	[Browser:Chrome - 74.0.3729.169]	[Action:Closing mssql connection]	[Remarks:Success]
[Date: 2019-05-27 13:21:51]	[UserID:06/343]	[IP:10.128.12.113]	[Browser:Chrome - 74.0.3729.169]	[Action:Making connection to server]	[Remarks:Successful connection to server: S3]
[Date: 2019-05-27 13:21:51]	[UserID:06/343]	[IP:10.128.12.113]	[Browser:Chrome - 74.0.3729.169]	[Action:GetGSTModules 06/343,1]	[Remarks:Successful filter row count: 6]
[Date: 2019-05-27 13:21:51]	[UserID:06/343]	[IP:10.128.12.113]	[Browser:Chrome - 74.0.3729.169]	[Action:Closing mssql connection]	[Remarks:Success]
[Date: 2019-05-27 13:24:23]	[UserID:06/343]	[IP:10.128.12.113]	[Browser:Chrome - 74.0.3729.169]	[Action:Making connection to server]	[Remarks:Successful connection to server: S3]
[Date: 2019-05-27 13:24:23]	[UserID:06/343]	[IP:10.128.12.113]	[Browser:Chrome - 74.0.3729.169]	[Action:GetGSTModules 06/343,1]	[Remarks:Successful filter row count: 6]
[Date: 2019-05-27 13:24:23]	[UserID:06/343]	[IP:10.128.12.113]	[Browser:Chrome - 74.0.3729.169]	[Action:Closing mssql connection]	[Remarks:Success]
[Date: 2019-05-27 13:26:06]	[UserID:06/343]	[IP:10.128.12.113]	[Browser:Chrome - 74.0.3729.169]	[Action:Making connection to server]	[Remarks:Successful connection to server: S3]
[Date: 2019-05-27 13:26:06]	[UserID:06/343]	[IP:10.128.12.113]	[Browser:Chrome - 74.0.3729.169]	[Action:GetGSTModules 06/343,1]	[Remarks:Successful filter row count: 6]
[Date: 2019-05-27 13:26:06]	[UserID:06/343]	[IP:10.128.12.113]	[Browser:Chrome - 74.0.3729.169]	[Action:Closing mssql connection]	[Remarks:Success]
[Date: 2019-05-27 16:18:03]	[UserID:06/343]	[IP:10.128.12.113]	[Browser:Chrome - 74.0.3729.169]	[Action:Making connection to server]	[Remarks:Successful connection to server: S3]
[Date: 2019-05-27 16:18:03]	[UserID:06/343]	[IP:10.128.12.113]	[Browser:Chrome - 74.0.3729.169]	[Action:GetProgramList 06/343]	[Remarks:[{"ID":"1","ProgramIndex":"GST","ProgramName":"GST"}]]
[Date: 2019-05-27 16:18:04]	[UserID:06/343]	[IP:10.128.12.113]	[Browser:Chrome - 74.0.3729.169]	[Action:Making connection to server]	[Remarks:Successful connection to server: S3]
[Date: 2019-05-27 16:18:04]	[UserID:06/343]	[IP:10.128.12.113]	[Browser:Chrome - 74.0.3729.169]	[Action:GetProgramList 06/343]	[Remarks:[{"ID":"1","ProgramIndex":"GST","ProgramName":"GST"}]]
[Date: 2019-05-27 16:18:04]	[UserID:06/343]	[IP:10.128.12.113]	[Browser:Chrome - 74.0.3729.169]	[Action:Making connection to server]	[Remarks:Successful connection to server: S3]
[Date: 2019-05-27 16:18:04]	[UserID:06/343]	[IP:10.128.12.113]	[Browser:Chrome - 74.0.3729.169]	[Action:Filtering User : MasterData Username : 06/343]	[Remarks:Successful filter row count: 1]
[Date: 2019-05-27 16:18:05]	[UserID:06/343]	[IP:10.128.12.113]	[Browser:Chrome - 74.0.3729.169]	[Action:Making connection to server]	[Remarks:Successful connection to server: S3]
[Date: 2019-05-27 16:18:05]	[UserID:06/343]	[IP:10.128.12.113]	[Browser:Chrome - 74.0.3729.169]	[Action:GetGSTModules 06/343,1]	[Remarks:Successful filter row count: 6]
[Date: 2019-05-27 16:18:05]	[UserID:06/343]	[IP:10.128.12.113]	[Browser:Chrome - 74.0.3729.169]	[Action:Closing mssql connection]	[Remarks:Success]
[Date: 2019-05-27 16:20:43]	[UserID:06/343]	[IP:10.128.12.113]	[Browser:Chrome - 74.0.3729.169]	[Action:Making connection to server]	[Remarks:Successful connection to server: S3]
[Date: 2019-05-27 16:20:43]	[UserID:06/343]	[IP:10.128.12.113]	[Browser:Chrome - 74.0.3729.169]	[Action:GetGSTModules 06/343,1]	[Remarks:Successful filter row count: 6]
[Date: 2019-05-27 16:20:43]	[UserID:06/343]	[IP:10.128.12.113]	[Browser:Chrome - 74.0.3729.169]	[Action:Closing mssql connection]	[Remarks:Success]
[Date: 2019-05-27 17:23:40]	[UserID:06/343]	[IP:10.128.12.113]	[Browser:Chrome - 74.0.3729.169]	[Action:Making connection to server]	[Remarks:Successful connection to server: S3]
[Date: 2019-05-27 17:23:40]	[UserID:06/343]	[IP:10.128.12.113]	[Browser:Chrome - 74.0.3729.169]	[Action:GetProgramList 06/343]	[Remarks:[{"ID":"1","ProgramIndex":"GST","ProgramName":"GST"}]]
[Date: 2019-05-27 17:23:40]	[UserID:06/343]	[IP:10.128.12.113]	[Browser:Chrome - 74.0.3729.169]	[Action:Making connection to server]	[Remarks:Successful connection to server: S3]
[Date: 2019-05-27 17:23:40]	[UserID:06/343]	[IP:10.128.12.113]	[Browser:Chrome - 74.0.3729.169]	[Action:GetProgramList 06/343]	[Remarks:[{"ID":"1","ProgramIndex":"GST","ProgramName":"GST"}]]
[Date: 2019-05-27 17:23:40]	[UserID:06/343]	[IP:10.128.12.113]	[Browser:Chrome - 74.0.3729.169]	[Action:Making connection to server]	[Remarks:Successful connection to server: S3]
[Date: 2019-05-27 17:23:40]	[UserID:06/343]	[IP:10.128.12.113]	[Browser:Chrome - 74.0.3729.169]	[Action:Filtering User : MasterData Username : 06/343]	[Remarks:Successful filter row count: 1]
[Date: 2019-05-27 17:23:41]	[UserID:06/343]	[IP:10.128.12.113]	[Browser:Chrome - 74.0.3729.169]	[Action:Making connection to server]	[Remarks:Successful connection to server: S3]
[Date: 2019-05-27 17:23:41]	[UserID:06/343]	[IP:10.128.12.113]	[Browser:Chrome - 74.0.3729.169]	[Action:GetGSTModules 06/343,1]	[Remarks:Successful filter row count: 6]
[Date: 2019-05-27 17:23:41]	[UserID:06/343]	[IP:10.128.12.113]	[Browser:Chrome - 74.0.3729.169]	[Action:Closing mssql connection]	[Remarks:Success]
[Date: 2019-05-27 17:24:09]	[UserID:06/343]	[IP:10.128.12.113]	[Browser:Chrome - 74.0.3729.169]	[Action:Making connection to server]	[Remarks:Successful connection to server: S3]
[Date: 2019-05-27 17:24:09]	[UserID:06/343]	[IP:10.128.12.113]	[Browser:Chrome - 74.0.3729.169]	[Action:GetGSTModules 06/343,1]	[Remarks:Successful filter row count: 6]
[Date: 2019-05-27 17:24:09]	[UserID:06/343]	[IP:10.128.12.113]	[Browser:Chrome - 74.0.3729.169]	[Action:Closing mssql connection]	[Remarks:Success]
[Date: 2019-05-27 23:36:42]	[UserID:]	[IP:10.139.5.108]	[Browser:Chrome - 74.0.3729.157]	[Action:Making connection to server]	[Remarks:Successful connection to server: S3]
[Date: 2019-05-27 23:36:42]	[UserID:]	[IP:10.139.5.108]	[Browser:Chrome - 74.0.3729.157]	[Action:GetProgramList ]	[Remarks:"no data"]
