[Date: 2020-08-06 08:03:40]	[UserID:]	[IP:10.128.130.5]	[Browser:Chrome - 84.0.4147.89]	[Action:Making connection to server]	[Remarks:Successful connection to server: S3]
[Date: 2020-08-06 08:03:40]	[UserID:]	[IP:10.128.130.5]	[Browser:Chrome - 84.0.4147.89]	[Action:GetProgramList ]	[Remarks:"no data"]
[Date: 2020-08-06 09:06:52]	[UserID:]	[IP:10.128.12.114]	[Browser:Chrome - 84.0.4147.105]	[Action:Making connection to server]	[Remarks:Successful connection to server: S3]
[Date: 2020-08-06 09:06:52]	[UserID:]	[IP:10.128.12.114]	[Browser:Chrome - 84.0.4147.105]	[Action:GetProgramList ]	[Remarks:"no data"]
[Date: 2020-08-06 09:06:58]	[UserID:14/1082]	[IP:10.128.12.114]	[Browser:Chrome - 84.0.4147.105]	[Action:Making connection to server]	[Remarks:Successful connection to server: S3]
[Date: 2020-08-06 09:06:58]	[UserID:14/1082]	[IP:10.128.12.114]	[Browser:Chrome - 84.0.4147.105]	[Action:LogMeIn 14/1082,14/1082]	[Remarks:Failed]
[Date: 2020-08-06 09:06:58]	[UserID:14/1082]	[IP:10.128.12.114]	[Browser:Chrome - 84.0.4147.105]	[Action:Closing mssql connection]	[Remarks:Success]
[Date: 2020-08-06 09:07:02]	[UserID:14/1082]	[IP:10.128.12.114]	[Browser:Chrome - 84.0.4147.105]	[Action:Making connection to server]	[Remarks:Successful connection to server: S3]
[Date: 2020-08-06 09:07:03]	[UserID:14/1082]	[IP:10.128.12.114]	[Browser:Chrome - 84.0.4147.105]	[Action:User 14/1082]	[Remarks:Success]
[Date: 2020-08-06 09:07:03]	[UserID:14/1082]	[IP:10.128.12.114]	[Browser:Chrome - 84.0.4147.105]	[Action:Filtering User : MasterData Username : 14/1082]	[Remarks:Successful filter row count: 0]
[Date: 2020-08-06 09:07:03]	[UserID:14/1082]	[IP:10.128.12.114]	[Browser:Chrome - 84.0.4147.105]	[Action:Filtering User : MasterData Username : 14/1082]	[Remarks:Successful filter row count: 0]
[Date: 2020-08-06 09:07:03]	[UserID:14/1082]	[IP:10.128.12.114]	[Browser:Chrome - 84.0.4147.105]	[Action:Filtering User : MasterData Username : 14/1082]	[Remarks:Success]
[Date: 2020-08-06 09:07:03]	[UserID:14/1082]	[IP:10.128.12.114]	[Browser:Chrome - 84.0.4147.105]	[Action:Closing mssql connection]	[Remarks:Success]
[Date: 2020-08-06 09:07:03]	[UserID:]	[IP:10.128.12.114]	[Browser:Chrome - 84.0.4147.105]	[Action:Making connection to server]	[Remarks:Successful connection to server: S3]
[Date: 2020-08-06 09:07:03]	[UserID:]	[IP:10.128.12.114]	[Browser:Chrome - 84.0.4147.105]	[Action:GetProgramList ]	[Remarks:"no data"]
[Date: 2020-08-06 09:07:09]	[UserID:14/1082]	[IP:10.128.12.114]	[Browser:Chrome - 84.0.4147.105]	[Action:Making connection to server]	[Remarks:Successful connection to server: S3]
[Date: 2020-08-06 09:07:09]	[UserID:14/1082]	[IP:10.128.12.114]	[Browser:Chrome - 84.0.4147.105]	[Action:User 14/1082]	[Remarks:Success]
[Date: 2020-08-06 09:07:10]	[UserID:14/1082]	[IP:10.128.12.114]	[Browser:Chrome - 84.0.4147.105]	[Action:Filtering User : MasterData Username : 14/1082]	[Remarks:Successful filter row count: 0]
[Date: 2020-08-06 09:07:10]	[UserID:14/1082]	[IP:10.128.12.114]	[Browser:Chrome - 84.0.4147.105]	[Action:Filtering User : MasterData Username : 14/1082]	[Remarks:Successful filter row count: 0]
[Date: 2020-08-06 09:07:10]	[UserID:14/1082]	[IP:10.128.12.114]	[Browser:Chrome - 84.0.4147.105]	[Action:Filtering User : MasterData Username : 14/1082]	[Remarks:Success]
[Date: 2020-08-06 09:07:10]	[UserID:14/1082]	[IP:10.128.12.114]	[Browser:Chrome - 84.0.4147.105]	[Action:Closing mssql connection]	[Remarks:Success]
[Date: 2020-08-06 09:07:10]	[UserID:14/1082]	[IP:10.128.12.114]	[Browser:Chrome - 84.0.4147.105]	[Action:Making connection to server]	[Remarks:Successful connection to server: S3]
[Date: 2020-08-06 09:07:10]	[UserID:14/1082]	[IP:10.128.12.114]	[Browser:Chrome - 84.0.4147.105]	[Action:GetProgramList 14/1082]	[Remarks:[{"ID":"1","ProgramIndex":"GST","ProgramName":"GST"}]]
[Date: 2020-08-06 09:07:10]	[UserID:14/1082]	[IP:10.128.12.114]	[Browser:Chrome - 84.0.4147.105]	[Action:Making connection to server]	[Remarks:Successful connection to server: S3]
[Date: 2020-08-06 09:07:10]	[UserID:14/1082]	[IP:10.128.12.114]	[Browser:Chrome - 84.0.4147.105]	[Action:GetProgramList 14/1082]	[Remarks:[{"ID":"1","ProgramIndex":"GST","ProgramName":"GST"}]]
[Date: 2020-08-06 09:07:10]	[UserID:14/1082]	[IP:10.128.12.114]	[Browser:Chrome - 84.0.4147.105]	[Action:Making connection to server]	[Remarks:Successful connection to server: S3]
[Date: 2020-08-06 09:07:10]	[UserID:14/1082]	[IP:10.128.12.114]	[Browser:Chrome - 84.0.4147.105]	[Action:Filtering User : MasterData Username : 14/1082]	[Remarks:Successful filter row count: 1]
[Date: 2020-08-06 09:07:11]	[UserID:14/1082]	[IP:10.128.12.114]	[Browser:Chrome - 84.0.4147.105]	[Action:Making connection to server]	[Remarks:Successful connection to server: S3]
[Date: 2020-08-06 09:07:11]	[UserID:14/1082]	[IP:10.128.12.114]	[Browser:Chrome - 84.0.4147.105]	[Action:GetGSTModules 14/1082,1]	[Remarks:Successful filter row count: 8]
[Date: 2020-08-06 09:07:11]	[UserID:14/1082]	[IP:10.128.12.114]	[Browser:Chrome - 84.0.4147.105]	[Action:Closing mssql connection]	[Remarks:Success]
[Date: 2020-08-06 11:10:13]	[UserID:]	[IP:10.128.130.5]	[Browser:Chrome - 84.0.4147.105]	[Action:Making connection to server]	[Remarks:Successful connection to server: S3]
[Date: 2020-08-06 11:10:13]	[UserID:]	[IP:10.128.130.5]	[Browser:Chrome - 84.0.4147.105]	[Action:GetProgramList ]	[Remarks:"no data"]
[Date: 2020-08-06 11:10:27]	[UserID:06/343]	[IP:10.128.130.5]	[Browser:Chrome - 84.0.4147.105]	[Action:Making connection to server]	[Remarks:Successful connection to server: S3]
[Date: 2020-08-06 11:10:27]	[UserID:06/343]	[IP:10.128.130.5]	[Browser:Chrome - 84.0.4147.105]	[Action:User 06/343]	[Remarks:Success]
[Date: 2020-08-06 11:10:27]	[UserID:06/343]	[IP:10.128.130.5]	[Browser:Chrome - 84.0.4147.105]	[Action:Filtering User : MasterData Username : 06/343]	[Remarks:Successful filter row count: 0]
[Date: 2020-08-06 11:10:27]	[UserID:06/343]	[IP:10.128.130.5]	[Browser:Chrome - 84.0.4147.105]	[Action:Filtering User : MasterData Username : 06/343]	[Remarks:Successful filter row count: 0]
[Date: 2020-08-06 11:10:27]	[UserID:06/343]	[IP:10.128.130.5]	[Browser:Chrome - 84.0.4147.105]	[Action:Filtering User : MasterData Username : 06/343]	[Remarks:Success]
[Date: 2020-08-06 11:10:27]	[UserID:06/343]	[IP:10.128.130.5]	[Browser:Chrome - 84.0.4147.105]	[Action:Closing mssql connection]	[Remarks:Success]
[Date: 2020-08-06 11:10:27]	[UserID:06/343]	[IP:10.128.130.5]	[Browser:Chrome - 84.0.4147.105]	[Action:Making connection to server]	[Remarks:Successful connection to server: S3]
[Date: 2020-08-06 11:10:27]	[UserID:06/343]	[IP:10.128.130.5]	[Browser:Chrome - 84.0.4147.105]	[Action:GetProgramList 06/343]	[Remarks:[{"ID":"1","ProgramIndex":"GST","ProgramName":"GST"}]]
[Date: 2020-08-06 11:10:27]	[UserID:06/343]	[IP:10.128.130.5]	[Browser:Chrome - 84.0.4147.105]	[Action:Making connection to server]	[Remarks:Successful connection to server: S3]
[Date: 2020-08-06 11:10:27]	[UserID:06/343]	[IP:10.128.130.5]	[Browser:Chrome - 84.0.4147.105]	[Action:GetProgramList 06/343]	[Remarks:[{"ID":"1","ProgramIndex":"GST","ProgramName":"GST"}]]
[Date: 2020-08-06 11:10:27]	[UserID:06/343]	[IP:10.128.130.5]	[Browser:Chrome - 84.0.4147.105]	[Action:Making connection to server]	[Remarks:Successful connection to server: S3]
[Date: 2020-08-06 11:10:27]	[UserID:06/343]	[IP:10.128.130.5]	[Browser:Chrome - 84.0.4147.105]	[Action:Filtering User : MasterData Username : 06/343]	[Remarks:Successful filter row count: 1]
[Date: 2020-08-06 11:10:28]	[UserID:06/343]	[IP:10.128.130.5]	[Browser:Chrome - 84.0.4147.105]	[Action:Making connection to server]	[Remarks:Successful connection to server: S3]
[Date: 2020-08-06 11:10:28]	[UserID:06/343]	[IP:10.128.130.5]	[Browser:Chrome - 84.0.4147.105]	[Action:GetGSTModules 06/343,1]	[Remarks:Successful filter row count: 7]
[Date: 2020-08-06 11:10:28]	[UserID:06/343]	[IP:10.128.130.5]	[Browser:Chrome - 84.0.4147.105]	[Action:Closing mssql connection]	[Remarks:Success]
[Date: 2020-08-06 11:22:25]	[UserID:06/343]	[IP:10.128.130.5]	[Browser:Chrome - 84.0.4147.105]	[Action:Making connection to server]	[Remarks:Successful connection to server: S3]
[Date: 2020-08-06 11:22:25]	[UserID:06/343]	[IP:10.128.130.5]	[Browser:Chrome - 84.0.4147.105]	[Action:GetGSTModules 06/343,1]	[Remarks:Successful filter row count: 7]
[Date: 2020-08-06 11:22:25]	[UserID:06/343]	[IP:10.128.130.5]	[Browser:Chrome - 84.0.4147.105]	[Action:Closing mssql connection]	[Remarks:Success]
[Date: 2020-08-06 11:39:35]	[UserID:06/343]	[IP:10.128.130.5]	[Browser:Chrome - 84.0.4147.105]	[Action:Making connection to server]	[Remarks:Successful connection to server: S3]
[Date: 2020-08-06 11:39:35]	[UserID:06/343]	[IP:10.128.130.5]	[Browser:Chrome - 84.0.4147.105]	[Action:GetProgramList 06/343]	[Remarks:[{"ID":"1","ProgramIndex":"GST","ProgramName":"GST"}]]
[Date: 2020-08-06 11:39:35]	[UserID:06/343]	[IP:10.128.130.5]	[Browser:Chrome - 84.0.4147.105]	[Action:Making connection to server]	[Remarks:Successful connection to server: S3]
[Date: 2020-08-06 11:39:35]	[UserID:06/343]	[IP:10.128.130.5]	[Browser:Chrome - 84.0.4147.105]	[Action:GetProgramList 06/343]	[Remarks:[{"ID":"1","ProgramIndex":"GST","ProgramName":"GST"}]]
[Date: 2020-08-06 11:39:35]	[UserID:06/343]	[IP:10.128.130.5]	[Browser:Chrome - 84.0.4147.105]	[Action:Making connection to server]	[Remarks:Successful connection to server: S3]
[Date: 2020-08-06 11:39:35]	[UserID:06/343]	[IP:10.128.130.5]	[Browser:Chrome - 84.0.4147.105]	[Action:Filtering User : MasterData Username : 06/343]	[Remarks:Successful filter row count: 1]
[Date: 2020-08-06 11:39:36]	[UserID:06/343]	[IP:10.128.130.5]	[Browser:Chrome - 84.0.4147.105]	[Action:Making connection to server]	[Remarks:Successful connection to server: S3]
[Date: 2020-08-06 11:39:36]	[UserID:06/343]	[IP:10.128.130.5]	[Browser:Chrome - 84.0.4147.105]	[Action:GetGSTModules 06/343,1]	[Remarks:Successful filter row count: 7]
[Date: 2020-08-06 11:39:36]	[UserID:06/343]	[IP:10.128.130.5]	[Browser:Chrome - 84.0.4147.105]	[Action:Closing mssql connection]	[Remarks:Success]
[Date: 2020-08-06 11:40:48]	[UserID:06/343]	[IP:10.128.130.5]	[Browser:Chrome - 84.0.4147.105]	[Action:Making connection to server]	[Remarks:Successful connection to server: S3]
[Date: 2020-08-06 11:40:48]	[UserID:06/343]	[IP:10.128.130.5]	[Browser:Chrome - 84.0.4147.105]	[Action:GetGSTModules 06/343,1]	[Remarks:Successful filter row count: 7]
[Date: 2020-08-06 11:40:48]	[UserID:06/343]	[IP:10.128.130.5]	[Browser:Chrome - 84.0.4147.105]	[Action:Closing mssql connection]	[Remarks:Success]
[Date: 2020-08-06 11:51:22]	[UserID:14/1082]	[IP:10.128.12.114]	[Browser:Chrome - 84.0.4147.105]	[Action:Making connection to server]	[Remarks:Successful connection to server: S3]
[Date: 2020-08-06 11:51:22]	[UserID:14/1082]	[IP:10.128.12.114]	[Browser:Chrome - 84.0.4147.105]	[Action:GetGSTModules 14/1082,1]	[Remarks:Successful filter row count: 8]
[Date: 2020-08-06 11:51:22]	[UserID:14/1082]	[IP:10.128.12.114]	[Browser:Chrome - 84.0.4147.105]	[Action:Closing mssql connection]	[Remarks:Success]
[Date: 2020-08-06 15:35:52]	[UserID:]	[IP:10.128.12.115]	[Browser:Chrome - 84.0.4147.105]	[Action:Making connection to server]	[Remarks:Successful connection to server: S3]
[Date: 2020-08-06 15:35:52]	[UserID:]	[IP:10.128.12.115]	[Browser:Chrome - 84.0.4147.105]	[Action:GetProgramList ]	[Remarks:"no data"]
[Date: 2020-08-06 15:35:57]	[UserID:17/1248]	[IP:10.128.12.115]	[Browser:Chrome - 84.0.4147.105]	[Action:Making connection to server]	[Remarks:Successful connection to server: S3]
[Date: 2020-08-06 15:35:57]	[UserID:17/1248]	[IP:10.128.12.115]	[Browser:Chrome - 84.0.4147.105]	[Action:User 17/1248]	[Remarks:Success]
[Date: 2020-08-06 15:35:57]	[UserID:17/1248]	[IP:10.128.12.115]	[Browser:Chrome - 84.0.4147.105]	[Action:Filtering User : MasterData Username : 17/1248]	[Remarks:Successful filter row count: 0]
[Date: 2020-08-06 15:35:57]	[UserID:17/1248]	[IP:10.128.12.115]	[Browser:Chrome - 84.0.4147.105]	[Action:Filtering User : MasterData Username : 17/1248]	[Remarks:Successful filter row count: 0]
[Date: 2020-08-06 15:35:57]	[UserID:17/1248]	[IP:10.128.12.115]	[Browser:Chrome - 84.0.4147.105]	[Action:Filtering User : MasterData Username : 17/1248]	[Remarks:Success]
[Date: 2020-08-06 15:35:57]	[UserID:17/1248]	[IP:10.128.12.115]	[Browser:Chrome - 84.0.4147.105]	[Action:Closing mssql connection]	[Remarks:Success]
[Date: 2020-08-06 15:35:57]	[UserID:17/1248]	[IP:10.128.12.115]	[Browser:Chrome - 84.0.4147.105]	[Action:Making connection to server]	[Remarks:Successful connection to server: S3]
[Date: 2020-08-06 15:35:57]	[UserID:17/1248]	[IP:10.128.12.115]	[Browser:Chrome - 84.0.4147.105]	[Action:GetProgramList 17/1248]	[Remarks:[{"ID":"1","ProgramIndex":"GST","ProgramName":"GST"}]]
[Date: 2020-08-06 15:35:57]	[UserID:17/1248]	[IP:10.128.12.115]	[Browser:Chrome - 84.0.4147.105]	[Action:Making connection to server]	[Remarks:Successful connection to server: S3]
[Date: 2020-08-06 15:35:57]	[UserID:17/1248]	[IP:10.128.12.115]	[Browser:Chrome - 84.0.4147.105]	[Action:GetProgramList 17/1248]	[Remarks:[{"ID":"1","ProgramIndex":"GST","ProgramName":"GST"}]]
[Date: 2020-08-06 15:35:57]	[UserID:17/1248]	[IP:10.128.12.115]	[Browser:Chrome - 84.0.4147.105]	[Action:Making connection to server]	[Remarks:Successful connection to server: S3]
[Date: 2020-08-06 15:35:57]	[UserID:17/1248]	[IP:10.128.12.115]	[Browser:Chrome - 84.0.4147.105]	[Action:Filtering User : MasterData Username : 17/1248]	[Remarks:Successful filter row count: 1]
[Date: 2020-08-06 15:35:58]	[UserID:17/1248]	[IP:10.128.12.115]	[Browser:Chrome - 84.0.4147.105]	[Action:Making connection to server]	[Remarks:Successful connection to server: S3]
[Date: 2020-08-06 15:35:58]	[UserID:17/1248]	[IP:10.128.12.115]	[Browser:Chrome - 84.0.4147.105]	[Action:GetGSTModules 17/1248,1]	[Remarks:Successful filter row count: 6]
[Date: 2020-08-06 15:35:58]	[UserID:17/1248]	[IP:10.128.12.115]	[Browser:Chrome - 84.0.4147.105]	[Action:Closing mssql connection]	[Remarks:Success]
[Date: 2020-08-06 15:45:47]	[UserID:]	[IP:10.128.12.115]	[Browser:Chrome - 84.0.4147.105]	[Action:Making connection to server]	[Remarks:Successful connection to server: S3]
[Date: 2020-08-06 15:45:47]	[UserID:]	[IP:10.128.12.115]	[Browser:Chrome - 84.0.4147.105]	[Action:GetProgramList ]	[Remarks:"no data"]
[Date: 2020-08-06 15:59:42]	[UserID:17/1248]	[IP:10.128.12.115]	[Browser:Chrome - 84.0.4147.105]	[Action:Making connection to server]	[Remarks:Successful connection to server: S3]
[Date: 2020-08-06 15:59:42]	[UserID:17/1248]	[IP:10.128.12.115]	[Browser:Chrome - 84.0.4147.105]	[Action:User 17/1248]	[Remarks:Success]
[Date: 2020-08-06 15:59:42]	[UserID:17/1248]	[IP:10.128.12.115]	[Browser:Chrome - 84.0.4147.105]	[Action:Filtering User : MasterData Username : 17/1248]	[Remarks:Successful filter row count: 0]
[Date: 2020-08-06 15:59:42]	[UserID:17/1248]	[IP:10.128.12.115]	[Browser:Chrome - 84.0.4147.105]	[Action:Filtering User : MasterData Username : 17/1248]	[Remarks:Successful filter row count: 0]
[Date: 2020-08-06 15:59:42]	[UserID:17/1248]	[IP:10.128.12.115]	[Browser:Chrome - 84.0.4147.105]	[Action:Filtering User : MasterData Username : 17/1248]	[Remarks:Success]
[Date: 2020-08-06 15:59:42]	[UserID:17/1248]	[IP:10.128.12.115]	[Browser:Chrome - 84.0.4147.105]	[Action:Closing mssql connection]	[Remarks:Success]
[Date: 2020-08-06 15:59:42]	[UserID:17/1248]	[IP:10.128.12.115]	[Browser:Chrome - 84.0.4147.105]	[Action:Making connection to server]	[Remarks:Successful connection to server: S3]
[Date: 2020-08-06 15:59:42]	[UserID:17/1248]	[IP:10.128.12.115]	[Browser:Chrome - 84.0.4147.105]	[Action:GetProgramList 17/1248]	[Remarks:[{"ID":"1","ProgramIndex":"GST","ProgramName":"GST"}]]
[Date: 2020-08-06 15:59:42]	[UserID:17/1248]	[IP:10.128.12.115]	[Browser:Chrome - 84.0.4147.105]	[Action:Making connection to server]	[Remarks:Successful connection to server: S3]
[Date: 2020-08-06 15:59:42]	[UserID:17/1248]	[IP:10.128.12.115]	[Browser:Chrome - 84.0.4147.105]	[Action:GetProgramList 17/1248]	[Remarks:[{"ID":"1","ProgramIndex":"GST","ProgramName":"GST"}]]
[Date: 2020-08-06 15:59:42]	[UserID:17/1248]	[IP:10.128.12.115]	[Browser:Chrome - 84.0.4147.105]	[Action:Making connection to server]	[Remarks:Successful connection to server: S3]
[Date: 2020-08-06 15:59:42]	[UserID:17/1248]	[IP:10.128.12.115]	[Browser:Chrome - 84.0.4147.105]	[Action:Filtering User : MasterData Username : 17/1248]	[Remarks:Successful filter row count: 1]
[Date: 2020-08-06 15:59:43]	[UserID:17/1248]	[IP:10.128.12.115]	[Browser:Chrome - 84.0.4147.105]	[Action:Making connection to server]	[Remarks:Successful connection to server: S3]
[Date: 2020-08-06 15:59:43]	[UserID:17/1248]	[IP:10.128.12.115]	[Browser:Chrome - 84.0.4147.105]	[Action:GetGSTModules 17/1248,1]	[Remarks:Successful filter row count: 6]
[Date: 2020-08-06 15:59:43]	[UserID:17/1248]	[IP:10.128.12.115]	[Browser:Chrome - 84.0.4147.105]	[Action:Closing mssql connection]	[Remarks:Success]
[Date: 2020-08-06 16:21:20]	[UserID:]	[IP:10.128.12.114]	[Browser:Chrome - 84.0.4147.105]	[Action:Making connection to server]	[Remarks:Successful connection to server: S3]
[Date: 2020-08-06 16:21:20]	[UserID:]	[IP:10.128.12.114]	[Browser:Chrome - 84.0.4147.105]	[Action:GetProgramList ]	[Remarks:"no data"]
[Date: 2020-08-06 16:21:32]	[UserID:14/1082]	[IP:10.128.12.114]	[Browser:Chrome - 84.0.4147.105]	[Action:Making connection to server]	[Remarks:Successful connection to server: S3]
[Date: 2020-08-06 16:21:32]	[UserID:14/1082]	[IP:10.128.12.114]	[Browser:Chrome - 84.0.4147.105]	[Action:User 14/1082]	[Remarks:Success]
[Date: 2020-08-06 16:21:32]	[UserID:14/1082]	[IP:10.128.12.114]	[Browser:Chrome - 84.0.4147.105]	[Action:Filtering User : MasterData Username : 14/1082]	[Remarks:Successful filter row count: 0]
[Date: 2020-08-06 16:21:32]	[UserID:14/1082]	[IP:10.128.12.114]	[Browser:Chrome - 84.0.4147.105]	[Action:Filtering User : MasterData Username : 14/1082]	[Remarks:Successful filter row count: 0]
[Date: 2020-08-06 16:21:32]	[UserID:14/1082]	[IP:10.128.12.114]	[Browser:Chrome - 84.0.4147.105]	[Action:Filtering User : MasterData Username : 14/1082]	[Remarks:Success]
[Date: 2020-08-06 16:21:32]	[UserID:14/1082]	[IP:10.128.12.114]	[Browser:Chrome - 84.0.4147.105]	[Action:Closing mssql connection]	[Remarks:Success]
[Date: 2020-08-06 16:21:32]	[UserID:14/1082]	[IP:10.128.12.114]	[Browser:Chrome - 84.0.4147.105]	[Action:Making connection to server]	[Remarks:Successful connection to server: S3]
[Date: 2020-08-06 16:21:32]	[UserID:14/1082]	[IP:10.128.12.114]	[Browser:Chrome - 84.0.4147.105]	[Action:GetProgramList 14/1082]	[Remarks:[{"ID":"1","ProgramIndex":"GST","ProgramName":"GST"}]]
[Date: 2020-08-06 16:21:32]	[UserID:14/1082]	[IP:10.128.12.114]	[Browser:Chrome - 84.0.4147.105]	[Action:Making connection to server]	[Remarks:Successful connection to server: S3]
[Date: 2020-08-06 16:21:32]	[UserID:14/1082]	[IP:10.128.12.114]	[Browser:Chrome - 84.0.4147.105]	[Action:GetProgramList 14/1082]	[Remarks:[{"ID":"1","ProgramIndex":"GST","ProgramName":"GST"}]]
[Date: 2020-08-06 16:21:33]	[UserID:14/1082]	[IP:10.128.12.114]	[Browser:Chrome - 84.0.4147.105]	[Action:Making connection to server]	[Remarks:Successful connection to server: S3]
[Date: 2020-08-06 16:21:33]	[UserID:14/1082]	[IP:10.128.12.114]	[Browser:Chrome - 84.0.4147.105]	[Action:Filtering User : MasterData Username : 14/1082]	[Remarks:Successful filter row count: 1]
[Date: 2020-08-06 16:21:33]	[UserID:14/1082]	[IP:10.128.12.114]	[Browser:Chrome - 84.0.4147.105]	[Action:Making connection to server]	[Remarks:Successful connection to server: S3]
[Date: 2020-08-06 16:21:33]	[UserID:14/1082]	[IP:10.128.12.114]	[Browser:Chrome - 84.0.4147.105]	[Action:GetGSTModules 14/1082,1]	[Remarks:Successful filter row count: 8]
[Date: 2020-08-06 16:21:33]	[UserID:14/1082]	[IP:10.128.12.114]	[Browser:Chrome - 84.0.4147.105]	[Action:Closing mssql connection]	[Remarks:Success]
[Date: 2020-08-06 17:17:04]	[UserID:]	[IP:10.128.12.115]	[Browser:Chrome - 84.0.4147.105]	[Action:Making connection to server]	[Remarks:Successful connection to server: S3]
[Date: 2020-08-06 17:17:04]	[UserID:]	[IP:10.128.12.115]	[Browser:Chrome - 84.0.4147.105]	[Action:GetProgramList ]	[Remarks:"no data"]
[Date: 2020-08-06 17:17:08]	[UserID:17/1248]	[IP:10.128.12.115]	[Browser:Chrome - 84.0.4147.105]	[Action:Making connection to server]	[Remarks:Successful connection to server: S3]
[Date: 2020-08-06 17:17:08]	[UserID:17/1248]	[IP:10.128.12.115]	[Browser:Chrome - 84.0.4147.105]	[Action:User 17/1248]	[Remarks:Success]
[Date: 2020-08-06 17:17:08]	[UserID:17/1248]	[IP:10.128.12.115]	[Browser:Chrome - 84.0.4147.105]	[Action:Filtering User : MasterData Username : 17/1248]	[Remarks:Successful filter row count: 0]
[Date: 2020-08-06 17:17:08]	[UserID:17/1248]	[IP:10.128.12.115]	[Browser:Chrome - 84.0.4147.105]	[Action:Filtering User : MasterData Username : 17/1248]	[Remarks:Successful filter row count: 0]
[Date: 2020-08-06 17:17:08]	[UserID:17/1248]	[IP:10.128.12.115]	[Browser:Chrome - 84.0.4147.105]	[Action:Filtering User : MasterData Username : 17/1248]	[Remarks:Success]
[Date: 2020-08-06 17:17:08]	[UserID:17/1248]	[IP:10.128.12.115]	[Browser:Chrome - 84.0.4147.105]	[Action:Closing mssql connection]	[Remarks:Success]
[Date: 2020-08-06 17:17:08]	[UserID:17/1248]	[IP:10.128.12.115]	[Browser:Chrome - 84.0.4147.105]	[Action:Making connection to server]	[Remarks:Successful connection to server: S3]
[Date: 2020-08-06 17:17:08]	[UserID:17/1248]	[IP:10.128.12.115]	[Browser:Chrome - 84.0.4147.105]	[Action:GetProgramList 17/1248]	[Remarks:[{"ID":"1","ProgramIndex":"GST","ProgramName":"GST"}]]
[Date: 2020-08-06 17:17:08]	[UserID:17/1248]	[IP:10.128.12.115]	[Browser:Chrome - 84.0.4147.105]	[Action:Making connection to server]	[Remarks:Successful connection to server: S3]
[Date: 2020-08-06 17:17:08]	[UserID:17/1248]	[IP:10.128.12.115]	[Browser:Chrome - 84.0.4147.105]	[Action:GetProgramList 17/1248]	[Remarks:[{"ID":"1","ProgramIndex":"GST","ProgramName":"GST"}]]
[Date: 2020-08-06 17:17:08]	[UserID:17/1248]	[IP:10.128.12.115]	[Browser:Chrome - 84.0.4147.105]	[Action:Making connection to server]	[Remarks:Successful connection to server: S3]
[Date: 2020-08-06 17:17:08]	[UserID:17/1248]	[IP:10.128.12.115]	[Browser:Chrome - 84.0.4147.105]	[Action:Filtering User : MasterData Username : 17/1248]	[Remarks:Successful filter row count: 1]
[Date: 2020-08-06 17:17:09]	[UserID:17/1248]	[IP:10.128.12.115]	[Browser:Chrome - 84.0.4147.105]	[Action:Making connection to server]	[Remarks:Successful connection to server: S3]
[Date: 2020-08-06 17:17:09]	[UserID:17/1248]	[IP:10.128.12.115]	[Browser:Chrome - 84.0.4147.105]	[Action:GetGSTModules 17/1248,1]	[Remarks:Successful filter row count: 6]
[Date: 2020-08-06 17:17:09]	[UserID:17/1248]	[IP:10.128.12.115]	[Browser:Chrome - 84.0.4147.105]	[Action:Closing mssql connection]	[Remarks:Success]
[Date: 2020-08-06 17:18:28]	[UserID:]	[IP:10.128.12.115]	[Browser:Chrome - 84.0.4147.105]	[Action:Making connection to server]	[Remarks:Successful connection to server: S3]
[Date: 2020-08-06 17:18:28]	[UserID:]	[IP:10.128.12.115]	[Browser:Chrome - 84.0.4147.105]	[Action:GetProgramList ]	[Remarks:"no data"]
[Date: 2020-08-06 17:52:30]	[UserID:]	[IP:10.128.12.114]	[Browser:Chrome - 84.0.4147.105]	[Action:Making connection to server]	[Remarks:Successful connection to server: S3]
[Date: 2020-08-06 17:52:30]	[UserID:]	[IP:10.128.12.114]	[Browser:Chrome - 84.0.4147.105]	[Action:GetProgramList ]	[Remarks:"no data"]
[Date: 2020-08-06 23:09:37]	[UserID:]	[IP:10.128.130.5]	[Browser:Chrome - 84.0.4147.105]	[Action:Making connection to server]	[Remarks:Successful connection to server: S3]
[Date: 2020-08-06 23:09:37]	[UserID:]	[IP:10.128.130.5]	[Browser:Chrome - 84.0.4147.105]	[Action:GetProgramList ]	[Remarks:"no data"]
