[Date: 2016-03-04 07:15:53]	[UserID:]	[IP:10.10.11.1]	[Browser:Chrome - 48.0.2564.116]	[Action:Making connection to server]	[Remarks:Successful connection to server: S3]
[Date: 2016-03-04 07:15:53]	[UserID:]	[IP:10.10.11.1]	[Browser:Chrome - 48.0.2564.116]	[Action:GetProgramList ]	[Remarks:"no data"]
[Date: 2016-03-04 07:27:30]	[UserID:06/343]	[IP:10.10.11.1]	[Browser:Chrome - 48.0.2564.116]	[Action:Making connection to server]	[Remarks:Successful connection to server: S3]
[Date: 2016-03-04 07:27:37]	[UserID:06/343]	[IP:10.10.11.1]	[Browser:Chrome - 48.0.2564.116]	[Action:User 06/343]	[Remarks:Success]
[Date: 2016-03-04 07:27:37]	[UserID:06/343]	[IP:10.10.11.1]	[Browser:Chrome - 48.0.2564.116]	[Action:Filtering User : MasterData Username : 06/343]	[Remarks:Successful filter row count: 0]
[Date: 2016-03-04 07:27:37]	[UserID:06/343]	[IP:10.10.11.1]	[Browser:Chrome - 48.0.2564.116]	[Action:Filtering User : MasterData Username : 06/343]	[Remarks:Successful filter row count: 0]
[Date: 2016-03-04 07:27:37]	[UserID:06/343]	[IP:10.10.11.1]	[Browser:Chrome - 48.0.2564.116]	[Action:Filtering User : MasterData Username : 06/343]	[Remarks:Success]
[Date: 2016-03-04 07:27:37]	[UserID:06/343]	[IP:10.10.11.1]	[Browser:Chrome - 48.0.2564.116]	[Action:Closing mssql connection]	[Remarks:Success]
[Date: 2016-03-04 07:27:37]	[UserID:]	[IP:10.10.11.1]	[Browser:Chrome - 48.0.2564.116]	[Action:Making connection to server]	[Remarks:Successful connection to server: S3]
[Date: 2016-03-04 07:27:37]	[UserID:]	[IP:10.10.11.1]	[Browser:Chrome - 48.0.2564.116]	[Action:GetProgramList ]	[Remarks:"no data"]
[Date: 2016-03-04 07:27:46]	[UserID:06/343]	[IP:10.10.11.1]	[Browser:Chrome - 48.0.2564.116]	[Action:Making connection to server]	[Remarks:Successful connection to server: S3]
[Date: 2016-03-04 07:27:46]	[UserID:06/343]	[IP:10.10.11.1]	[Browser:Chrome - 48.0.2564.116]	[Action:User 06/343]	[Remarks:Success]
[Date: 2016-03-04 07:27:46]	[UserID:06/343]	[IP:10.10.11.1]	[Browser:Chrome - 48.0.2564.116]	[Action:Filtering User : MasterData Username : 06/343]	[Remarks:Successful filter row count: 0]
[Date: 2016-03-04 07:27:46]	[UserID:06/343]	[IP:10.10.11.1]	[Browser:Chrome - 48.0.2564.116]	[Action:Filtering User : MasterData Username : 06/343]	[Remarks:Successful filter row count: 0]
[Date: 2016-03-04 07:27:46]	[UserID:06/343]	[IP:10.10.11.1]	[Browser:Chrome - 48.0.2564.116]	[Action:Filtering User : MasterData Username : 06/343]	[Remarks:Success]
[Date: 2016-03-04 07:27:46]	[UserID:06/343]	[IP:10.10.11.1]	[Browser:Chrome - 48.0.2564.116]	[Action:Closing mssql connection]	[Remarks:Success]
[Date: 2016-03-04 07:27:47]	[UserID:06/343]	[IP:10.10.11.1]	[Browser:Chrome - 48.0.2564.116]	[Action:Making connection to server]	[Remarks:Successful connection to server: S3]
[Date: 2016-03-04 07:27:47]	[UserID:06/343]	[IP:10.10.11.1]	[Browser:Chrome - 48.0.2564.116]	[Action:GetProgramList 06/343]	[Remarks:[{"ID":"1","ProgramIndex":"GST","ProgramName":"GST"}]]
[Date: 2016-03-04 07:27:47]	[UserID:06/343]	[IP:10.10.11.1]	[Browser:Chrome - 48.0.2564.116]	[Action:Making connection to server]	[Remarks:Successful connection to server: S3]
[Date: 2016-03-04 07:27:47]	[UserID:06/343]	[IP:10.10.11.1]	[Browser:Chrome - 48.0.2564.116]	[Action:GetProgramList 06/343]	[Remarks:[{"ID":"1","ProgramIndex":"GST","ProgramName":"GST"}]]
[Date: 2016-03-04 07:27:47]	[UserID:06/343]	[IP:10.10.11.1]	[Browser:Chrome - 48.0.2564.116]	[Action:Making connection to server]	[Remarks:Successful connection to server: S3]
[Date: 2016-03-04 07:27:47]	[UserID:06/343]	[IP:10.10.11.1]	[Browser:Chrome - 48.0.2564.116]	[Action:Filtering User : MasterData Username : 06/343]	[Remarks:Successful filter row count: 1]
[Date: 2016-03-04 07:27:49]	[UserID:06/343]	[IP:10.10.11.1]	[Browser:Chrome - 48.0.2564.116]	[Action:Making connection to server]	[Remarks:Successful connection to server: S3]
[Date: 2016-03-04 07:27:49]	[UserID:06/343]	[IP:10.10.11.1]	[Browser:Chrome - 48.0.2564.116]	[Action:GetGSTModules 06/343,1]	[Remarks:Successful filter row count: 5]
[Date: 2016-03-04 07:27:49]	[UserID:06/343]	[IP:10.10.11.1]	[Browser:Chrome - 48.0.2564.116]	[Action:Closing mssql connection]	[Remarks:Success]
[Date: 2016-03-04 07:32:42]	[UserID:06/343]	[IP:10.10.11.1]	[Browser:Chrome - 48.0.2564.116]	[Action:Making connection to server]	[Remarks:Successful connection to server: S3]
[Date: 2016-03-04 07:32:45]	[UserID:06/343]	[IP:10.10.11.1]	[Browser:Chrome - 48.0.2564.116]	[Action:GetGSTModules 06/343,1]	[Remarks:Successful filter row count: 5]
[Date: 2016-03-04 07:32:45]	[UserID:06/343]	[IP:10.10.11.1]	[Browser:Chrome - 48.0.2564.116]	[Action:Closing mssql connection]	[Remarks:Success]
[Date: 2016-03-04 08:31:29]	[UserID:]	[IP:10.10.11.1]	[Browser:Chrome - 48.0.2564.116]	[Action:Making connection to server]	[Remarks:Successful connection to server: S3]
[Date: 2016-03-04 08:31:31]	[UserID:]	[IP:10.10.11.1]	[Browser:Chrome - 48.0.2564.116]	[Action:GetProgramList ]	[Remarks:"no data"]
[Date: 2016-03-04 08:31:33]	[UserID:06/371]	[IP:10.10.11.1]	[Browser:Chrome - 48.0.2564.116]	[Action:Making connection to server]	[Remarks:Successful connection to server: S3]
[Date: 2016-03-04 08:31:33]	[UserID:06/371]	[IP:10.10.11.1]	[Browser:Chrome - 48.0.2564.116]	[Action:User 06/371]	[Remarks:Success]
[Date: 2016-03-04 08:31:33]	[UserID:06/371]	[IP:10.10.11.1]	[Browser:Chrome - 48.0.2564.116]	[Action:Filtering User : MasterData Username : 06/371]	[Remarks:Successful filter row count: 0]
[Date: 2016-03-04 08:31:33]	[UserID:06/371]	[IP:10.10.11.1]	[Browser:Chrome - 48.0.2564.116]	[Action:Filtering User : MasterData Username : 06/371]	[Remarks:Successful filter row count: 0]
[Date: 2016-03-04 08:31:33]	[UserID:06/371]	[IP:10.10.11.1]	[Browser:Chrome - 48.0.2564.116]	[Action:Filtering User : MasterData Username : 06/371]	[Remarks:Success]
[Date: 2016-03-04 08:31:33]	[UserID:06/371]	[IP:10.10.11.1]	[Browser:Chrome - 48.0.2564.116]	[Action:Closing mssql connection]	[Remarks:Success]
[Date: 2016-03-04 08:31:35]	[UserID:06/371]	[IP:10.10.11.1]	[Browser:Chrome - 48.0.2564.116]	[Action:Making connection to server]	[Remarks:Successful connection to server: S3]
[Date: 2016-03-04 08:31:35]	[UserID:06/371]	[IP:10.10.11.1]	[Browser:Chrome - 48.0.2564.116]	[Action:GetProgramList 06/371]	[Remarks:[{"ID":"1","ProgramIndex":"GST","ProgramName":"GST"}]]
[Date: 2016-03-04 08:31:35]	[UserID:06/371]	[IP:10.10.11.1]	[Browser:Chrome - 48.0.2564.116]	[Action:Making connection to server]	[Remarks:Successful connection to server: S3]
[Date: 2016-03-04 08:31:35]	[UserID:06/371]	[IP:10.10.11.1]	[Browser:Chrome - 48.0.2564.116]	[Action:GetProgramList 06/371]	[Remarks:[{"ID":"1","ProgramIndex":"GST","ProgramName":"GST"}]]
[Date: 2016-03-04 08:31:35]	[UserID:06/371]	[IP:10.10.11.1]	[Browser:Chrome - 48.0.2564.116]	[Action:Making connection to server]	[Remarks:Successful connection to server: S3]
[Date: 2016-03-04 08:31:35]	[UserID:06/371]	[IP:10.10.11.1]	[Browser:Chrome - 48.0.2564.116]	[Action:Filtering User : MasterData Username : 06/371]	[Remarks:Successful filter row count: 1]
[Date: 2016-03-04 08:31:36]	[UserID:06/371]	[IP:10.10.11.1]	[Browser:Chrome - 48.0.2564.116]	[Action:Making connection to server]	[Remarks:Successful connection to server: S3]
[Date: 2016-03-04 08:31:36]	[UserID:06/371]	[IP:10.10.11.1]	[Browser:Chrome - 48.0.2564.116]	[Action:User 06/371]	[Remarks:Success]
[Date: 2016-03-04 08:31:36]	[UserID:06/371]	[IP:10.10.11.1]	[Browser:Chrome - 48.0.2564.116]	[Action:Filtering User : MasterData Username : 06/371]	[Remarks:Successful filter row count: 0]
[Date: 2016-03-04 08:31:36]	[UserID:06/371]	[IP:10.10.11.1]	[Browser:Chrome - 48.0.2564.116]	[Action:Filtering User : MasterData Username : 06/371]	[Remarks:Successful filter row count: 0]
[Date: 2016-03-04 08:31:36]	[UserID:06/371]	[IP:10.10.11.1]	[Browser:Chrome - 48.0.2564.116]	[Action:Filtering User : MasterData Username : 06/371]	[Remarks:Success]
[Date: 2016-03-04 08:31:36]	[UserID:06/371]	[IP:10.10.11.1]	[Browser:Chrome - 48.0.2564.116]	[Action:Closing mssql connection]	[Remarks:Success]
[Date: 2016-03-04 08:31:36]	[UserID:06/371]	[IP:10.10.11.1]	[Browser:Chrome - 48.0.2564.116]	[Action:Making connection to server]	[Remarks:Successful connection to server: S3]
[Date: 2016-03-04 08:31:36]	[UserID:06/371]	[IP:10.10.11.1]	[Browser:Chrome - 48.0.2564.116]	[Action:GetGSTModules 06/371,1]	[Remarks:Successful filter row count: 5]
[Date: 2016-03-04 08:31:36]	[UserID:06/371]	[IP:10.10.11.1]	[Browser:Chrome - 48.0.2564.116]	[Action:Closing mssql connection]	[Remarks:Success]
[Date: 2016-03-04 08:34:08]	[UserID:06/371]	[IP:10.10.11.1]	[Browser:Chrome - 48.0.2564.116]	[Action:Making connection to server]	[Remarks:Successful connection to server: S3]
[Date: 2016-03-04 08:34:09]	[UserID:06/371]	[IP:10.10.11.1]	[Browser:Chrome - 48.0.2564.116]	[Action:GetGSTModules 06/371,1]	[Remarks:Successful filter row count: 5]
[Date: 2016-03-04 08:34:09]	[UserID:06/371]	[IP:10.10.11.1]	[Browser:Chrome - 48.0.2564.116]	[Action:Closing mssql connection]	[Remarks:Success]
[Date: 2016-03-04 08:34:23]	[UserID:06/371]	[IP:10.10.11.1]	[Browser:Chrome - 48.0.2564.116]	[Action:Making connection to server]	[Remarks:Successful connection to server: S3]
[Date: 2016-03-04 08:34:23]	[UserID:06/371]	[IP:10.10.11.1]	[Browser:Chrome - 48.0.2564.116]	[Action:GetGSTModules 06/371,1]	[Remarks:Successful filter row count: 5]
[Date: 2016-03-04 08:34:23]	[UserID:06/371]	[IP:10.10.11.1]	[Browser:Chrome - 48.0.2564.116]	[Action:Closing mssql connection]	[Remarks:Success]
[Date: 2016-03-04 08:34:32]	[UserID:06/371]	[IP:10.10.11.1]	[Browser:Chrome - 48.0.2564.116]	[Action:Making connection to server]	[Remarks:Successful connection to server: S3]
[Date: 2016-03-04 08:34:32]	[UserID:06/371]	[IP:10.10.11.1]	[Browser:Chrome - 48.0.2564.116]	[Action:GetGSTModules 06/371,1]	[Remarks:Successful filter row count: 5]
[Date: 2016-03-04 08:34:32]	[UserID:06/371]	[IP:10.10.11.1]	[Browser:Chrome - 48.0.2564.116]	[Action:Closing mssql connection]	[Remarks:Success]
[Date: 2016-03-04 08:38:51]	[UserID:]	[IP:10.10.11.1]	[Browser:Chrome - 48.0.2564.116]	[Action:Making connection to server]	[Remarks:Successful connection to server: S3]
[Date: 2016-03-04 08:38:51]	[UserID:]	[IP:10.10.11.1]	[Browser:Chrome - 48.0.2564.116]	[Action:GetProgramList ]	[Remarks:"no data"]
[Date: 2016-03-04 08:39:44]	[UserID:10/660]	[IP:10.10.11.1]	[Browser:Chrome - 48.0.2564.116]	[Action:Making connection to server]	[Remarks:Successful connection to server: S3]
[Date: 2016-03-04 08:39:44]	[UserID:10/660]	[IP:10.10.11.1]	[Browser:Chrome - 48.0.2564.116]	[Action:User 10/660]	[Remarks:Success]
[Date: 2016-03-04 08:39:44]	[UserID:10/660]	[IP:10.10.11.1]	[Browser:Chrome - 48.0.2564.116]	[Action:Filtering User : MasterData Username : 10/660]	[Remarks:Successful filter row count: 0]
[Date: 2016-03-04 08:39:44]	[UserID:10/660]	[IP:10.10.11.1]	[Browser:Chrome - 48.0.2564.116]	[Action:Filtering User : MasterData Username : 10/660]	[Remarks:Successful filter row count: 0]
[Date: 2016-03-04 08:39:44]	[UserID:10/660]	[IP:10.10.11.1]	[Browser:Chrome - 48.0.2564.116]	[Action:Filtering User : MasterData Username : 10/660]	[Remarks:Success]
[Date: 2016-03-04 08:39:44]	[UserID:10/660]	[IP:10.10.11.1]	[Browser:Chrome - 48.0.2564.116]	[Action:Closing mssql connection]	[Remarks:Success]
[Date: 2016-03-04 08:39:45]	[UserID:10/660]	[IP:10.10.11.1]	[Browser:Chrome - 48.0.2564.116]	[Action:Making connection to server]	[Remarks:Successful connection to server: S3]
[Date: 2016-03-04 08:39:45]	[UserID:10/660]	[IP:10.10.11.1]	[Browser:Chrome - 48.0.2564.116]	[Action:GetProgramList 10/660]	[Remarks:[{"ID":"1","ProgramIndex":"GST","ProgramName":"GST"}]]
[Date: 2016-03-04 08:39:45]	[UserID:10/660]	[IP:10.10.11.1]	[Browser:Chrome - 48.0.2564.116]	[Action:Making connection to server]	[Remarks:Successful connection to server: S3]
[Date: 2016-03-04 08:39:45]	[UserID:10/660]	[IP:10.10.11.1]	[Browser:Chrome - 48.0.2564.116]	[Action:GetProgramList 10/660]	[Remarks:[{"ID":"1","ProgramIndex":"GST","ProgramName":"GST"}]]
[Date: 2016-03-04 08:39:45]	[UserID:10/660]	[IP:10.10.11.1]	[Browser:Chrome - 48.0.2564.116]	[Action:Making connection to server]	[Remarks:Successful connection to server: S3]
[Date: 2016-03-04 08:39:45]	[UserID:10/660]	[IP:10.10.11.1]	[Browser:Chrome - 48.0.2564.116]	[Action:Filtering User : MasterData Username : 10/660]	[Remarks:Successful filter row count: 1]
[Date: 2016-03-04 08:39:45]	[UserID:10/660]	[IP:10.10.11.1]	[Browser:Chrome - 48.0.2564.116]	[Action:Making connection to server]	[Remarks:Successful connection to server: S3]
[Date: 2016-03-04 08:39:46]	[UserID:10/660]	[IP:10.10.11.1]	[Browser:Chrome - 48.0.2564.116]	[Action:GetGSTModules 10/660,1]	[Remarks:Successful filter row count: 3]
[Date: 2016-03-04 08:39:46]	[UserID:10/660]	[IP:10.10.11.1]	[Browser:Chrome - 48.0.2564.116]	[Action:Closing mssql connection]	[Remarks:Success]
[Date: 2016-03-04 08:42:02]	[UserID:10/660]	[IP:10.10.11.1]	[Browser:Chrome - 48.0.2564.116]	[Action:Making connection to server]	[Remarks:Successful connection to server: S3]
[Date: 2016-03-04 08:42:03]	[UserID:10/660]	[IP:10.10.11.1]	[Browser:Chrome - 48.0.2564.116]	[Action:GetGSTModules 10/660,1]	[Remarks:Successful filter row count: 3]
[Date: 2016-03-04 08:42:03]	[UserID:10/660]	[IP:10.10.11.1]	[Browser:Chrome - 48.0.2564.116]	[Action:Closing mssql connection]	[Remarks:Success]
[Date: 2016-03-04 08:44:51]	[UserID:06/371]	[IP:10.10.11.1]	[Browser:Chrome - 48.0.2564.116]	[Action:Making connection to server]	[Remarks:Successful connection to server: S3]
[Date: 2016-03-04 08:44:51]	[UserID:06/371]	[IP:10.10.11.1]	[Browser:Chrome - 48.0.2564.116]	[Action:GetProgramList 06/371]	[Remarks:[{"ID":"1","ProgramIndex":"GST","ProgramName":"GST"}]]
[Date: 2016-03-04 08:44:51]	[UserID:06/371]	[IP:10.10.11.1]	[Browser:Chrome - 48.0.2564.116]	[Action:Making connection to server]	[Remarks:Successful connection to server: S3]
[Date: 2016-03-04 08:44:51]	[UserID:06/371]	[IP:10.10.11.1]	[Browser:Chrome - 48.0.2564.116]	[Action:GetProgramList 06/371]	[Remarks:[{"ID":"1","ProgramIndex":"GST","ProgramName":"GST"}]]
[Date: 2016-03-04 08:44:51]	[UserID:06/371]	[IP:10.10.11.1]	[Browser:Chrome - 48.0.2564.116]	[Action:Making connection to server]	[Remarks:Successful connection to server: S3]
[Date: 2016-03-04 08:45:01]	[UserID:06/371]	[IP:10.10.11.1]	[Browser:Chrome - 48.0.2564.116]	[Action:Filtering User : MasterData Username : 06/371]	[Remarks:Successful filter row count: 1]
[Date: 2016-03-04 08:45:02]	[UserID:06/371]	[IP:10.10.11.1]	[Browser:Chrome - 48.0.2564.116]	[Action:Making connection to server]	[Remarks:Successful connection to server: S3]
[Date: 2016-03-04 08:45:03]	[UserID:06/371]	[IP:10.10.11.1]	[Browser:Chrome - 48.0.2564.116]	[Action:GetGSTModules 06/371,1]	[Remarks:Successful filter row count: 5]
[Date: 2016-03-04 08:45:03]	[UserID:06/371]	[IP:10.10.11.1]	[Browser:Chrome - 48.0.2564.116]	[Action:Closing mssql connection]	[Remarks:Success]
[Date: 2016-03-04 08:46:49]	[UserID:06/371]	[IP:10.10.11.1]	[Browser:Chrome - 48.0.2564.116]	[Action:Making connection to server]	[Remarks:Successful connection to server: S3]
[Date: 2016-03-04 08:46:49]	[UserID:06/371]	[IP:10.10.11.1]	[Browser:Chrome - 48.0.2564.116]	[Action:GetGSTModules 06/371,1]	[Remarks:Successful filter row count: 5]
[Date: 2016-03-04 08:46:49]	[UserID:06/371]	[IP:10.10.11.1]	[Browser:Chrome - 48.0.2564.116]	[Action:Closing mssql connection]	[Remarks:Success]
[Date: 2016-03-04 08:48:40]	[UserID:06/371]	[IP:10.10.11.1]	[Browser:Chrome - 48.0.2564.116]	[Action:Making connection to server]	[Remarks:Successful connection to server: S3]
[Date: 2016-03-04 08:48:40]	[UserID:06/371]	[IP:10.10.11.1]	[Browser:Chrome - 48.0.2564.116]	[Action:GetProgramList 06/371]	[Remarks:[{"ID":"1","ProgramIndex":"GST","ProgramName":"GST"}]]
[Date: 2016-03-04 08:48:41]	[UserID:06/371]	[IP:10.10.11.1]	[Browser:Chrome - 48.0.2564.116]	[Action:Making connection to server]	[Remarks:Successful connection to server: S3]
[Date: 2016-03-04 08:48:41]	[UserID:06/371]	[IP:10.10.11.1]	[Browser:Chrome - 48.0.2564.116]	[Action:GetProgramList 06/371]	[Remarks:[{"ID":"1","ProgramIndex":"GST","ProgramName":"GST"}]]
[Date: 2016-03-04 08:48:41]	[UserID:06/371]	[IP:10.10.11.1]	[Browser:Chrome - 48.0.2564.116]	[Action:Making connection to server]	[Remarks:Successful connection to server: S3]
[Date: 2016-03-04 08:48:41]	[UserID:06/371]	[IP:10.10.11.1]	[Browser:Chrome - 48.0.2564.116]	[Action:Filtering User : MasterData Username : 06/371]	[Remarks:Successful filter row count: 1]
[Date: 2016-03-04 08:48:42]	[UserID:06/371]	[IP:10.10.11.1]	[Browser:Chrome - 48.0.2564.116]	[Action:Making connection to server]	[Remarks:Successful connection to server: S3]
[Date: 2016-03-04 08:48:42]	[UserID:06/371]	[IP:10.10.11.1]	[Browser:Chrome - 48.0.2564.116]	[Action:GetGSTModules 06/371,1]	[Remarks:Successful filter row count: 5]
[Date: 2016-03-04 08:48:42]	[UserID:06/371]	[IP:10.10.11.1]	[Browser:Chrome - 48.0.2564.116]	[Action:Closing mssql connection]	[Remarks:Success]
[Date: 2016-03-04 08:54:56]	[UserID:10/660]	[IP:10.10.11.1]	[Browser:Chrome - 48.0.2564.116]	[Action:Making connection to server]	[Remarks:Successful connection to server: S3]
[Date: 2016-03-04 08:54:56]	[UserID:10/660]	[IP:10.10.11.1]	[Browser:Chrome - 48.0.2564.116]	[Action:GetGSTModules 10/660,1]	[Remarks:Successful filter row count: 3]
[Date: 2016-03-04 08:54:56]	[UserID:10/660]	[IP:10.10.11.1]	[Browser:Chrome - 48.0.2564.116]	[Action:Closing mssql connection]	[Remarks:Success]
[Date: 2016-03-04 08:55:31]	[UserID:]	[IP:10.10.11.1]	[Browser:Chrome - 48.0.2564.116]	[Action:Making connection to server]	[Remarks:Successful connection to server: S3]
[Date: 2016-03-04 08:55:35]	[UserID:]	[IP:10.10.11.1]	[Browser:Chrome - 48.0.2564.116]	[Action:GetProgramList ]	[Remarks:"no data"]
[Date: 2016-03-04 09:06:52]	[UserID:06/371]	[IP:10.10.11.1]	[Browser:Chrome - 48.0.2564.116]	[Action:Making connection to server]	[Remarks:Successful connection to server: S3]
[Date: 2016-03-04 09:06:53]	[UserID:06/371]	[IP:10.10.11.1]	[Browser:Chrome - 48.0.2564.116]	[Action:GetGSTModules 06/371,1]	[Remarks:Successful filter row count: 5]
[Date: 2016-03-04 09:06:55]	[UserID:06/371]	[IP:10.10.11.1]	[Browser:Chrome - 48.0.2564.116]	[Action:Closing mssql connection]	[Remarks:Success]
[Date: 2016-03-04 09:06:56]	[UserID:06/371]	[IP:10.10.11.1]	[Browser:Chrome - 48.0.2564.116]	[Action:Making connection to server]	[Remarks:Successful connection to server: S3]
[Date: 2016-03-04 09:06:56]	[UserID:06/371]	[IP:10.10.11.1]	[Browser:Chrome - 48.0.2564.116]	[Action:GetProgramList 06/371]	[Remarks:[{"ID":"1","ProgramIndex":"GST","ProgramName":"GST"}]]
[Date: 2016-03-04 09:06:56]	[UserID:06/371]	[IP:10.10.11.1]	[Browser:Chrome - 48.0.2564.116]	[Action:Making connection to server]	[Remarks:Successful connection to server: S3]
[Date: 2016-03-04 09:06:56]	[UserID:06/371]	[IP:10.10.11.1]	[Browser:Chrome - 48.0.2564.116]	[Action:GetProgramList 06/371]	[Remarks:[{"ID":"1","ProgramIndex":"GST","ProgramName":"GST"}]]
[Date: 2016-03-04 09:06:56]	[UserID:06/371]	[IP:10.10.11.1]	[Browser:Chrome - 48.0.2564.116]	[Action:Making connection to server]	[Remarks:Successful connection to server: S3]
[Date: 2016-03-04 09:06:56]	[UserID:06/371]	[IP:10.10.11.1]	[Browser:Chrome - 48.0.2564.116]	[Action:Filtering User : MasterData Username : 06/371]	[Remarks:Successful filter row count: 1]
[Date: 2016-03-04 09:09:40]	[UserID:06/371]	[IP:10.10.11.1]	[Browser:Chrome - 48.0.2564.116]	[Action:Making connection to server]	[Remarks:Successful connection to server: S3]
[Date: 2016-03-04 09:09:40]	[UserID:06/371]	[IP:10.10.11.1]	[Browser:Chrome - 48.0.2564.116]	[Action:GetProgramList 06/371]	[Remarks:[{"ID":"1","ProgramIndex":"GST","ProgramName":"GST"}]]
[Date: 2016-03-04 09:09:40]	[UserID:06/371]	[IP:10.10.11.1]	[Browser:Chrome - 48.0.2564.116]	[Action:Making connection to server]	[Remarks:Successful connection to server: S3]
[Date: 2016-03-04 09:09:40]	[UserID:06/371]	[IP:10.10.11.1]	[Browser:Chrome - 48.0.2564.116]	[Action:GetProgramList 06/371]	[Remarks:[{"ID":"1","ProgramIndex":"GST","ProgramName":"GST"}]]
[Date: 2016-03-04 09:09:40]	[UserID:06/371]	[IP:10.10.11.1]	[Browser:Chrome - 48.0.2564.116]	[Action:Making connection to server]	[Remarks:Successful connection to server: S3]
[Date: 2016-03-04 09:09:40]	[UserID:06/371]	[IP:10.10.11.1]	[Browser:Chrome - 48.0.2564.116]	[Action:Filtering User : MasterData Username : 06/371]	[Remarks:Successful filter row count: 1]
[Date: 2016-03-04 09:09:40]	[UserID:06/371]	[IP:10.10.11.1]	[Browser:Chrome - 48.0.2564.116]	[Action:Making connection to server]	[Remarks:Successful connection to server: S3]
[Date: 2016-03-04 09:09:40]	[UserID:06/371]	[IP:10.10.11.1]	[Browser:Chrome - 48.0.2564.116]	[Action:GetGSTModules 06/371,1]	[Remarks:Successful filter row count: 5]
[Date: 2016-03-04 09:09:40]	[UserID:06/371]	[IP:10.10.11.1]	[Browser:Chrome - 48.0.2564.116]	[Action:Closing mssql connection]	[Remarks:Success]
[Date: 2016-03-04 09:11:29]	[UserID:06/371]	[IP:10.10.11.1]	[Browser:Chrome - 48.0.2564.116]	[Action:Making connection to server]	[Remarks:Successful connection to server: S3]
[Date: 2016-03-04 09:11:29]	[UserID:06/371]	[IP:10.10.11.1]	[Browser:Chrome - 48.0.2564.116]	[Action:GetGSTModules 06/371,1]	[Remarks:Successful filter row count: 5]
[Date: 2016-03-04 09:11:29]	[UserID:06/371]	[IP:10.10.11.1]	[Browser:Chrome - 48.0.2564.116]	[Action:Closing mssql connection]	[Remarks:Success]
[Date: 2016-03-04 09:13:40]	[UserID:06/371]	[IP:10.10.11.1]	[Browser:Chrome - 48.0.2564.116]	[Action:Making connection to server]	[Remarks:Successful connection to server: S3]
[Date: 2016-03-04 09:13:40]	[UserID:06/371]	[IP:10.10.11.1]	[Browser:Chrome - 48.0.2564.116]	[Action:GetGSTModules 06/371,1]	[Remarks:Successful filter row count: 5]
[Date: 2016-03-04 09:13:40]	[UserID:06/371]	[IP:10.10.11.1]	[Browser:Chrome - 48.0.2564.116]	[Action:Closing mssql connection]	[Remarks:Success]
[Date: 2016-03-04 09:16:53]	[UserID:06/371]	[IP:10.10.11.1]	[Browser:Chrome - 48.0.2564.116]	[Action:Making connection to server]	[Remarks:Successful connection to server: S3]
[Date: 2016-03-04 09:16:53]	[UserID:06/371]	[IP:10.10.11.1]	[Browser:Chrome - 48.0.2564.116]	[Action:GetGSTModules 06/371,1]	[Remarks:Successful filter row count: 5]
[Date: 2016-03-04 09:16:53]	[UserID:06/371]	[IP:10.10.11.1]	[Browser:Chrome - 48.0.2564.116]	[Action:Closing mssql connection]	[Remarks:Success]
[Date: 2016-03-04 09:17:53]	[UserID:06/371]	[IP:10.10.11.1]	[Browser:Chrome - 48.0.2564.116]	[Action:Making connection to server]	[Remarks:Successful connection to server: S3]
[Date: 2016-03-04 09:17:53]	[UserID:06/371]	[IP:10.10.11.1]	[Browser:Chrome - 48.0.2564.116]	[Action:GetGSTModules 06/371,1]	[Remarks:Successful filter row count: 5]
[Date: 2016-03-04 09:17:53]	[UserID:06/371]	[IP:10.10.11.1]	[Browser:Chrome - 48.0.2564.116]	[Action:Closing mssql connection]	[Remarks:Success]
[Date: 2016-03-04 09:25:38]	[UserID:06/371]	[IP:10.10.11.1]	[Browser:Chrome - 48.0.2564.116]	[Action:Making connection to server]	[Remarks:Successful connection to server: S3]
[Date: 2016-03-04 09:25:38]	[UserID:06/371]	[IP:10.10.11.1]	[Browser:Chrome - 48.0.2564.116]	[Action:GetGSTModules 06/371,1]	[Remarks:Successful filter row count: 5]
[Date: 2016-03-04 09:25:38]	[UserID:06/371]	[IP:10.10.11.1]	[Browser:Chrome - 48.0.2564.116]	[Action:Closing mssql connection]	[Remarks:Success]
[Date: 2016-03-04 09:29:51]	[UserID:]	[IP:10.10.11.1]	[Browser:Firefox - 6.0]	[Action:Making connection to server]	[Remarks:Successful connection to server: S3]
[Date: 2016-03-04 09:29:51]	[UserID:]	[IP:10.10.11.1]	[Browser:Firefox - 6.0]	[Action:GetProgramList ]	[Remarks:"no data"]
