[Date: 2019-02-26 17:42:25]	[UserID:]	[IP:10.128.81.34]	[Browser:Chrome - 72.0.3626.109]	[Action:Making connection to server]	[Remarks:Successful connection to server: S3]
[Date: 2019-02-26 17:42:25]	[UserID:]	[IP:10.128.81.34]	[Browser:Chrome - 72.0.3626.109]	[Action:GetProgramList ]	[Remarks:"no data"]
[Date: 2019-02-26 17:42:29]	[UserID:dev/arabanillo]	[IP:10.128.81.34]	[Browser:Chrome - 72.0.3626.109]	[Action:Making connection to server]	[Remarks:Successful connection to server: S3]
[Date: 2019-02-26 17:42:29]	[UserID:dev/arabanillo]	[IP:10.128.81.34]	[Browser:Chrome - 72.0.3626.109]	[Action:User dev/arabanillo]	[Remarks:Success]
[Date: 2019-02-26 17:42:29]	[UserID:dev/arabanillo]	[IP:10.128.81.34]	[Browser:Chrome - 72.0.3626.109]	[Action:Filtering User : MasterData Username : dev/arabanillo]	[Remarks:Successful filter row count: 0]
[Date: 2019-02-26 17:42:29]	[UserID:dev/arabanillo]	[IP:10.128.81.34]	[Browser:Chrome - 72.0.3626.109]	[Action:Filtering User : MasterData Username : dev/arabanillo]	[Remarks:Successful filter row count: 0]
[Date: 2019-02-26 17:42:29]	[UserID:dev/arabanillo]	[IP:10.128.81.34]	[Browser:Chrome - 72.0.3626.109]	[Action:Filtering User : MasterData Username : dev/arabanillo]	[Remarks:Success]
[Date: 2019-02-26 17:42:29]	[UserID:dev/arabanillo]	[IP:10.128.81.34]	[Browser:Chrome - 72.0.3626.109]	[Action:Closing mssql connection]	[Remarks:Success]
[Date: 2019-02-26 17:42:29]	[UserID:dev/arabanillo]	[IP:10.128.81.34]	[Browser:Chrome - 72.0.3626.109]	[Action:Making connection to server]	[Remarks:Successful connection to server: S3]
[Date: 2019-02-26 17:42:29]	[UserID:dev/arabanillo]	[IP:10.128.81.34]	[Browser:Chrome - 72.0.3626.109]	[Action:GetProgramList dev/arabanillo]	[Remarks:[{"ID":"1","ProgramIndex":"GST","ProgramName":"GST"}]]
[Date: 2019-02-26 17:42:29]	[UserID:dev/arabanillo]	[IP:10.128.81.34]	[Browser:Chrome - 72.0.3626.109]	[Action:Making connection to server]	[Remarks:Successful connection to server: S3]
[Date: 2019-02-26 17:42:29]	[UserID:dev/arabanillo]	[IP:10.128.81.34]	[Browser:Chrome - 72.0.3626.109]	[Action:GetProgramList dev/arabanillo]	[Remarks:[{"ID":"1","ProgramIndex":"GST","ProgramName":"GST"}]]
[Date: 2019-02-26 17:42:29]	[UserID:dev/arabanillo]	[IP:10.128.81.34]	[Browser:Chrome - 72.0.3626.109]	[Action:Making connection to server]	[Remarks:Successful connection to server: S3]
[Date: 2019-02-26 17:42:29]	[UserID:dev/arabanillo]	[IP:10.128.81.34]	[Browser:Chrome - 72.0.3626.109]	[Action:Filtering User : MasterData Username : dev/arabanillo]	[Remarks:Successful filter row count: 1]
[Date: 2019-02-26 17:42:30]	[UserID:dev/arabanillo]	[IP:10.128.81.34]	[Browser:Chrome - 72.0.3626.109]	[Action:Making connection to server]	[Remarks:Successful connection to server: S3]
[Date: 2019-02-26 17:42:30]	[UserID:dev/arabanillo]	[IP:10.128.81.34]	[Browser:Chrome - 72.0.3626.109]	[Action:GetGSTModules dev/arabanillo,1]	[Remarks:Successful filter row count: 9]
[Date: 2019-02-26 17:42:30]	[UserID:dev/arabanillo]	[IP:10.128.81.34]	[Browser:Chrome - 72.0.3626.109]	[Action:Closing mssql connection]	[Remarks:Success]
[Date: 2019-02-26 17:43:06]	[UserID:dev/arabanillo]	[IP:10.128.81.34]	[Browser:Chrome - 72.0.3626.109]	[Action:Making connection to server]	[Remarks:Successful connection to server: S3]
[Date: 2019-02-26 17:43:06]	[UserID:dev/arabanillo]	[IP:10.128.81.34]	[Browser:Chrome - 72.0.3626.109]	[Action:GetGSTModules dev/arabanillo,1]	[Remarks:Successful filter row count: 9]
[Date: 2019-02-26 17:43:06]	[UserID:dev/arabanillo]	[IP:10.128.81.34]	[Browser:Chrome - 72.0.3626.109]	[Action:Closing mssql connection]	[Remarks:Success]
[Date: 2019-02-26 17:43:18]	[UserID:dev/arabanillo]	[IP:10.128.81.34]	[Browser:Chrome - 72.0.3626.109]	[Action:Making connection to server]	[Remarks:Successful connection to server: S3]
[Date: 2019-02-26 17:43:18]	[UserID:dev/arabanillo]	[IP:10.128.81.34]	[Browser:Chrome - 72.0.3626.109]	[Action:GetGSTModules dev/arabanillo,1]	[Remarks:Successful filter row count: 9]
[Date: 2019-02-26 17:43:18]	[UserID:dev/arabanillo]	[IP:10.128.81.34]	[Browser:Chrome - 72.0.3626.109]	[Action:Closing mssql connection]	[Remarks:Success]
[Date: 2019-02-26 22:10:57]	[UserID:]	[IP:10.139.5.101]	[Browser:Chrome - 72.0.3626.96]	[Action:Making connection to server]	[Remarks:Successful connection to server: S3]
[Date: 2019-02-26 22:10:57]	[UserID:]	[IP:10.139.5.101]	[Browser:Chrome - 72.0.3626.96]	[Action:GetProgramList ]	[Remarks:"no data"]
