[Date: 2021-05-26 11:13:04]	[UserID:]	[IP:10.128.130.5]	[Browser:Chrome - 90.0.4430.212]	[Action:Making connection to server]	[Remarks:Successful connection to server: S3]
[Date: 2021-05-26 11:13:04]	[UserID:]	[IP:10.128.130.5]	[Browser:Chrome - 90.0.4430.212]	[Action:GetProgramList ]	[Remarks:"no data"]
[Date: 2021-05-26 11:13:11]	[UserID:]	[IP:10.128.130.5]	[Browser:Chrome - 90.0.4430.212]	[Action:Making connection to server]	[Remarks:Successful connection to server: S3]
[Date: 2021-05-26 11:13:11]	[UserID:]	[IP:10.128.130.5]	[Browser:Chrome - 90.0.4430.212]	[Action:GetProgramList ]	[Remarks:"no data"]
[Date: 2021-05-26 11:13:17]	[UserID:]	[IP:10.128.130.5]	[Browser:Chrome - 90.0.4430.212]	[Action:Making connection to server]	[Remarks:Successful connection to server: S3]
[Date: 2021-05-26 11:13:17]	[UserID:]	[IP:10.128.130.5]	[Browser:Chrome - 90.0.4430.212]	[Action:GetProgramList ]	[Remarks:"no data"]
[Date: 2021-05-26 11:13:43]	[UserID:dev/jagustin]	[IP:10.128.130.5]	[Browser:Chrome - 90.0.4430.212]	[Action:Making connection to server]	[Remarks:Successful connection to server: S3]
[Date: 2021-05-26 11:13:43]	[UserID:dev/jagustin]	[IP:10.128.130.5]	[Browser:Chrome - 90.0.4430.212]	[Action:User dev/jagustin]	[Remarks:Success]
[Date: 2021-05-26 11:13:43]	[UserID:dev/jagustin]	[IP:10.128.130.5]	[Browser:Chrome - 90.0.4430.212]	[Action:Filtering User : MasterData Username : dev/jagustin]	[Remarks:Successful filter row count: 0]
[Date: 2021-05-26 11:13:43]	[UserID:dev/jagustin]	[IP:10.128.130.5]	[Browser:Chrome - 90.0.4430.212]	[Action:Filtering User : MasterData Username : dev/jagustin]	[Remarks:Successful filter row count: 0]
[Date: 2021-05-26 11:13:43]	[UserID:dev/jagustin]	[IP:10.128.130.5]	[Browser:Chrome - 90.0.4430.212]	[Action:Filtering User : MasterData Username : dev/jagustin]	[Remarks:Success]
[Date: 2021-05-26 11:13:43]	[UserID:dev/jagustin]	[IP:10.128.130.5]	[Browser:Chrome - 90.0.4430.212]	[Action:Closing mssql connection]	[Remarks:Success]
[Date: 2021-05-26 11:13:43]	[UserID:dev/jagustin]	[IP:10.128.130.5]	[Browser:Chrome - 90.0.4430.212]	[Action:Making connection to server]	[Remarks:Successful connection to server: S3]
[Date: 2021-05-26 11:13:43]	[UserID:dev/jagustin]	[IP:10.128.130.5]	[Browser:Chrome - 90.0.4430.212]	[Action:GetProgramList dev/jagustin]	[Remarks:[{"ID":"1","ProgramIndex":"GST","ProgramName":"GST"},{"ID":"3","ProgramIndex":"PRD","ProgramName":"PRD"}]]
[Date: 2021-05-26 11:13:43]	[UserID:dev/jagustin]	[IP:10.128.130.5]	[Browser:Chrome - 90.0.4430.212]	[Action:Making connection to server]	[Remarks:Successful connection to server: S3]
[Date: 2021-05-26 11:13:43]	[UserID:dev/jagustin]	[IP:10.128.130.5]	[Browser:Chrome - 90.0.4430.212]	[Action:GetProgramList dev/jagustin]	[Remarks:[{"ID":"1","ProgramIndex":"GST","ProgramName":"GST"},{"ID":"3","ProgramIndex":"PRD","ProgramName":"PRD"}]]
[Date: 2021-05-26 11:13:43]	[UserID:dev/jagustin]	[IP:10.128.130.5]	[Browser:Chrome - 90.0.4430.212]	[Action:Making connection to server]	[Remarks:Successful connection to server: S3]
[Date: 2021-05-26 11:13:43]	[UserID:dev/jagustin]	[IP:10.128.130.5]	[Browser:Chrome - 90.0.4430.212]	[Action:Filtering User : MasterData Username : dev/jagustin]	[Remarks:Successful filter row count: 1]
[Date: 2021-05-26 11:14:42]	[UserID:dev/jagustin]	[IP:10.128.130.5]	[Browser:Chrome - 90.0.4430.212]	[Action:Making connection to server]	[Remarks:Successful connection to server: S3]
[Date: 2021-05-26 11:14:42]	[UserID:dev/jagustin]	[IP:10.128.130.5]	[Browser:Chrome - 90.0.4430.212]	[Action:GetGSTModules dev/jagustin,1]	[Remarks:Successful filter row count: 14]
[Date: 2021-05-26 11:14:42]	[UserID:dev/jagustin]	[IP:10.128.130.5]	[Browser:Chrome - 90.0.4430.212]	[Action:Closing mssql connection]	[Remarks:Success]
[Date: 2021-05-26 11:28:53]	[UserID:dev/jagustin]	[IP:10.128.130.5]	[Browser:Chrome - 90.0.4430.212]	[Action:Making connection to server]	[Remarks:Successful connection to server: S3]
[Date: 2021-05-26 11:28:53]	[UserID:dev/jagustin]	[IP:10.128.130.5]	[Browser:Chrome - 90.0.4430.212]	[Action:GetProgramList dev/jagustin]	[Remarks:[{"ID":"1","ProgramIndex":"GST","ProgramName":"GST"},{"ID":"3","ProgramIndex":"PRD","ProgramName":"PRD"}]]
[Date: 2021-05-26 11:28:53]	[UserID:dev/jagustin]	[IP:10.128.130.5]	[Browser:Chrome - 90.0.4430.212]	[Action:Making connection to server]	[Remarks:Successful connection to server: S3]
[Date: 2021-05-26 11:28:53]	[UserID:dev/jagustin]	[IP:10.128.130.5]	[Browser:Chrome - 90.0.4430.212]	[Action:GetProgramList dev/jagustin]	[Remarks:[{"ID":"1","ProgramIndex":"GST","ProgramName":"GST"},{"ID":"3","ProgramIndex":"PRD","ProgramName":"PRD"}]]
[Date: 2021-05-26 11:28:53]	[UserID:dev/jagustin]	[IP:10.128.130.5]	[Browser:Chrome - 90.0.4430.212]	[Action:Making connection to server]	[Remarks:Successful connection to server: S3]
[Date: 2021-05-26 11:28:53]	[UserID:dev/jagustin]	[IP:10.128.130.5]	[Browser:Chrome - 90.0.4430.212]	[Action:Filtering User : MasterData Username : dev/jagustin]	[Remarks:Successful filter row count: 1]
[Date: 2021-05-26 11:28:57]	[UserID:dev/jagustin]	[IP:10.128.130.5]	[Browser:Chrome - 90.0.4430.212]	[Action:Making connection to server]	[Remarks:Successful connection to server: S3]
[Date: 2021-05-26 11:28:57]	[UserID:dev/jagustin]	[IP:10.128.130.5]	[Browser:Chrome - 90.0.4430.212]	[Action:GetGSTModules dev/jagustin,1]	[Remarks:Successful filter row count: 14]
[Date: 2021-05-26 11:28:57]	[UserID:dev/jagustin]	[IP:10.128.130.5]	[Browser:Chrome - 90.0.4430.212]	[Action:Closing mssql connection]	[Remarks:Success]
[Date: 2021-05-26 13:52:22]	[UserID:dev/jagustin]	[IP:10.128.130.5]	[Browser:Chrome - 90.0.4430.212]	[Action:Making connection to server]	[Remarks:Successful connection to server: S3]
[Date: 2021-05-26 13:52:22]	[UserID:dev/jagustin]	[IP:10.128.130.5]	[Browser:Chrome - 90.0.4430.212]	[Action:GetGSTModules dev/jagustin,1]	[Remarks:Successful filter row count: 14]
[Date: 2021-05-26 13:52:22]	[UserID:dev/jagustin]	[IP:10.128.130.5]	[Browser:Chrome - 90.0.4430.212]	[Action:Closing mssql connection]	[Remarks:Success]
[Date: 2021-05-26 15:14:40]	[UserID:dev/jagustin]	[IP:10.128.130.5]	[Browser:Chrome - 90.0.4430.212]	[Action:Making connection to server]	[Remarks:Successful connection to server: S3]
[Date: 2021-05-26 15:14:40]	[UserID:dev/jagustin]	[IP:10.128.130.5]	[Browser:Chrome - 90.0.4430.212]	[Action:GetProgramList dev/jagustin]	[Remarks:[{"ID":"1","ProgramIndex":"GST","ProgramName":"GST"},{"ID":"3","ProgramIndex":"PRD","ProgramName":"PRD"}]]
[Date: 2021-05-26 15:14:40]	[UserID:dev/jagustin]	[IP:10.128.130.5]	[Browser:Chrome - 90.0.4430.212]	[Action:Making connection to server]	[Remarks:Successful connection to server: S3]
[Date: 2021-05-26 15:14:40]	[UserID:dev/jagustin]	[IP:10.128.130.5]	[Browser:Chrome - 90.0.4430.212]	[Action:GetProgramList dev/jagustin]	[Remarks:[{"ID":"1","ProgramIndex":"GST","ProgramName":"GST"},{"ID":"3","ProgramIndex":"PRD","ProgramName":"PRD"}]]
[Date: 2021-05-26 15:14:40]	[UserID:dev/jagustin]	[IP:10.128.130.5]	[Browser:Chrome - 90.0.4430.212]	[Action:Making connection to server]	[Remarks:Successful connection to server: S3]
[Date: 2021-05-26 15:14:40]	[UserID:dev/jagustin]	[IP:10.128.130.5]	[Browser:Chrome - 90.0.4430.212]	[Action:Filtering User : MasterData Username : dev/jagustin]	[Remarks:Successful filter row count: 1]
[Date: 2021-05-26 15:14:45]	[UserID:dev/jagustin]	[IP:10.128.130.5]	[Browser:Chrome - 90.0.4430.212]	[Action:Making connection to server]	[Remarks:Successful connection to server: S3]
[Date: 2021-05-26 15:14:45]	[UserID:dev/jagustin]	[IP:10.128.130.5]	[Browser:Chrome - 90.0.4430.212]	[Action:GetGSTModules dev/jagustin,1]	[Remarks:Successful filter row count: 14]
[Date: 2021-05-26 15:14:45]	[UserID:dev/jagustin]	[IP:10.128.130.5]	[Browser:Chrome - 90.0.4430.212]	[Action:Closing mssql connection]	[Remarks:Success]
[Date: 2021-05-26 15:34:29]	[UserID:dev/jagustin]	[IP:10.128.130.5]	[Browser:Chrome - 90.0.4430.212]	[Action:Making connection to server]	[Remarks:Successful connection to server: S3]
[Date: 2021-05-26 15:34:29]	[UserID:dev/jagustin]	[IP:10.128.130.5]	[Browser:Chrome - 90.0.4430.212]	[Action:GetGSTModules dev/jagustin,1]	[Remarks:Successful filter row count: 14]
[Date: 2021-05-26 15:34:29]	[UserID:dev/jagustin]	[IP:10.128.130.5]	[Browser:Chrome - 90.0.4430.212]	[Action:Closing mssql connection]	[Remarks:Success]
[Date: 2021-05-26 15:36:43]	[UserID:dev/jagustin]	[IP:10.128.130.5]	[Browser:Chrome - 90.0.4430.212]	[Action:Making connection to server]	[Remarks:Successful connection to server: S3]
[Date: 2021-05-26 15:36:43]	[UserID:dev/jagustin]	[IP:10.128.130.5]	[Browser:Chrome - 90.0.4430.212]	[Action:GetProgramList dev/jagustin]	[Remarks:[{"ID":"1","ProgramIndex":"GST","ProgramName":"GST"},{"ID":"3","ProgramIndex":"PRD","ProgramName":"PRD"}]]
[Date: 2021-05-26 15:36:43]	[UserID:dev/jagustin]	[IP:10.128.130.5]	[Browser:Chrome - 90.0.4430.212]	[Action:Making connection to server]	[Remarks:Successful connection to server: S3]
[Date: 2021-05-26 15:36:43]	[UserID:dev/jagustin]	[IP:10.128.130.5]	[Browser:Chrome - 90.0.4430.212]	[Action:GetProgramList dev/jagustin]	[Remarks:[{"ID":"1","ProgramIndex":"GST","ProgramName":"GST"},{"ID":"3","ProgramIndex":"PRD","ProgramName":"PRD"}]]
[Date: 2021-05-26 15:36:43]	[UserID:dev/jagustin]	[IP:10.128.130.5]	[Browser:Chrome - 90.0.4430.212]	[Action:Making connection to server]	[Remarks:Successful connection to server: S3]
[Date: 2021-05-26 15:36:43]	[UserID:dev/jagustin]	[IP:10.128.130.5]	[Browser:Chrome - 90.0.4430.212]	[Action:Filtering User : MasterData Username : dev/jagustin]	[Remarks:Successful filter row count: 1]
[Date: 2021-05-26 15:36:52]	[UserID:dev/jagustin]	[IP:10.128.130.5]	[Browser:Chrome - 90.0.4430.212]	[Action:Making connection to server]	[Remarks:Successful connection to server: S3]
[Date: 2021-05-26 15:36:52]	[UserID:dev/jagustin]	[IP:10.128.130.5]	[Browser:Chrome - 90.0.4430.212]	[Action:GetGSTModules dev/jagustin,1]	[Remarks:Successful filter row count: 14]
[Date: 2021-05-26 15:36:52]	[UserID:dev/jagustin]	[IP:10.128.130.5]	[Browser:Chrome - 90.0.4430.212]	[Action:Closing mssql connection]	[Remarks:Success]
[Date: 2021-05-26 15:44:03]	[UserID:dev/jagustin]	[IP:10.128.130.5]	[Browser:Chrome - 90.0.4430.212]	[Action:Making connection to server]	[Remarks:Successful connection to server: S3]
[Date: 2021-05-26 15:44:03]	[UserID:dev/jagustin]	[IP:10.128.130.5]	[Browser:Chrome - 90.0.4430.212]	[Action:GetGSTModules dev/jagustin,1]	[Remarks:Successful filter row count: 14]
[Date: 2021-05-26 15:44:03]	[UserID:dev/jagustin]	[IP:10.128.130.5]	[Browser:Chrome - 90.0.4430.212]	[Action:Closing mssql connection]	[Remarks:Success]
[Date: 2021-05-26 15:44:13]	[UserID:dev/jagustin]	[IP:10.128.130.5]	[Browser:Chrome - 90.0.4430.212]	[Action:Making connection to server]	[Remarks:Successful connection to server: S3]
[Date: 2021-05-26 15:44:13]	[UserID:dev/jagustin]	[IP:10.128.130.5]	[Browser:Chrome - 90.0.4430.212]	[Action:GetProgramList dev/jagustin]	[Remarks:[{"ID":"1","ProgramIndex":"GST","ProgramName":"GST"},{"ID":"3","ProgramIndex":"PRD","ProgramName":"PRD"}]]
[Date: 2021-05-26 15:44:13]	[UserID:dev/jagustin]	[IP:10.128.130.5]	[Browser:Chrome - 90.0.4430.212]	[Action:Making connection to server]	[Remarks:Successful connection to server: S3]
[Date: 2021-05-26 15:44:13]	[UserID:dev/jagustin]	[IP:10.128.130.5]	[Browser:Chrome - 90.0.4430.212]	[Action:GetProgramList dev/jagustin]	[Remarks:[{"ID":"1","ProgramIndex":"GST","ProgramName":"GST"},{"ID":"3","ProgramIndex":"PRD","ProgramName":"PRD"}]]
[Date: 2021-05-26 15:44:13]	[UserID:dev/jagustin]	[IP:10.128.130.5]	[Browser:Chrome - 90.0.4430.212]	[Action:Making connection to server]	[Remarks:Successful connection to server: S3]
[Date: 2021-05-26 15:44:13]	[UserID:dev/jagustin]	[IP:10.128.130.5]	[Browser:Chrome - 90.0.4430.212]	[Action:Filtering User : MasterData Username : dev/jagustin]	[Remarks:Successful filter row count: 1]
[Date: 2021-05-26 15:44:15]	[UserID:dev/jagustin]	[IP:10.128.130.5]	[Browser:Chrome - 90.0.4430.212]	[Action:Making connection to server]	[Remarks:Successful connection to server: S3]
[Date: 2021-05-26 15:44:15]	[UserID:dev/jagustin]	[IP:10.128.130.5]	[Browser:Chrome - 90.0.4430.212]	[Action:GetGSTModules dev/jagustin,1]	[Remarks:Successful filter row count: 14]
[Date: 2021-05-26 15:44:15]	[UserID:dev/jagustin]	[IP:10.128.130.5]	[Browser:Chrome - 90.0.4430.212]	[Action:Closing mssql connection]	[Remarks:Success]
[Date: 2021-05-26 15:55:33]	[UserID:dev/jagustin]	[IP:10.128.130.5]	[Browser:Chrome - 90.0.4430.212]	[Action:Making connection to server]	[Remarks:Successful connection to server: S3]
[Date: 2021-05-26 15:55:33]	[UserID:dev/jagustin]	[IP:10.128.130.5]	[Browser:Chrome - 90.0.4430.212]	[Action:GetGSTModules dev/jagustin,1]	[Remarks:Successful filter row count: 14]
[Date: 2021-05-26 15:55:33]	[UserID:dev/jagustin]	[IP:10.128.130.5]	[Browser:Chrome - 90.0.4430.212]	[Action:Closing mssql connection]	[Remarks:Success]
[Date: 2021-05-26 15:56:14]	[UserID:dev/jagustin]	[IP:10.128.130.5]	[Browser:Chrome - 90.0.4430.212]	[Action:Making connection to server]	[Remarks:Successful connection to server: S3]
[Date: 2021-05-26 15:56:14]	[UserID:dev/jagustin]	[IP:10.128.130.5]	[Browser:Chrome - 90.0.4430.212]	[Action:GetGSTModules dev/jagustin,1]	[Remarks:Successful filter row count: 14]
[Date: 2021-05-26 15:56:14]	[UserID:dev/jagustin]	[IP:10.128.130.5]	[Browser:Chrome - 90.0.4430.212]	[Action:Closing mssql connection]	[Remarks:Success]
[Date: 2021-05-26 15:56:44]	[UserID:dev/jagustin]	[IP:10.128.130.5]	[Browser:Chrome - 90.0.4430.212]	[Action:Making connection to server]	[Remarks:Successful connection to server: S3]
[Date: 2021-05-26 15:56:44]	[UserID:dev/jagustin]	[IP:10.128.130.5]	[Browser:Chrome - 90.0.4430.212]	[Action:GetGSTModules dev/jagustin,1]	[Remarks:Successful filter row count: 14]
[Date: 2021-05-26 15:56:44]	[UserID:dev/jagustin]	[IP:10.128.130.5]	[Browser:Chrome - 90.0.4430.212]	[Action:Closing mssql connection]	[Remarks:Success]
[Date: 2021-05-26 15:57:48]	[UserID:dev/jagustin]	[IP:10.128.130.5]	[Browser:Chrome - 90.0.4430.212]	[Action:Making connection to server]	[Remarks:Successful connection to server: S3]
[Date: 2021-05-26 15:57:48]	[UserID:dev/jagustin]	[IP:10.128.130.5]	[Browser:Chrome - 90.0.4430.212]	[Action:GetGSTModules dev/jagustin,1]	[Remarks:Successful filter row count: 14]
[Date: 2021-05-26 15:57:48]	[UserID:dev/jagustin]	[IP:10.128.130.5]	[Browser:Chrome - 90.0.4430.212]	[Action:Closing mssql connection]	[Remarks:Success]
[Date: 2021-05-26 16:02:38]	[UserID:dev/jagustin]	[IP:10.128.130.5]	[Browser:Chrome - 90.0.4430.212]	[Action:Making connection to server]	[Remarks:Successful connection to server: S3]
[Date: 2021-05-26 16:02:38]	[UserID:dev/jagustin]	[IP:10.128.130.5]	[Browser:Chrome - 90.0.4430.212]	[Action:GetGSTModules dev/jagustin,1]	[Remarks:Successful filter row count: 14]
[Date: 2021-05-26 16:02:38]	[UserID:dev/jagustin]	[IP:10.128.130.5]	[Browser:Chrome - 90.0.4430.212]	[Action:Closing mssql connection]	[Remarks:Success]
[Date: 2021-05-26 16:03:12]	[UserID:dev/jagustin]	[IP:10.128.130.5]	[Browser:Chrome - 90.0.4430.212]	[Action:Making connection to server]	[Remarks:Successful connection to server: S3]
[Date: 2021-05-26 16:03:12]	[UserID:dev/jagustin]	[IP:10.128.130.5]	[Browser:Chrome - 90.0.4430.212]	[Action:GetGSTModules dev/jagustin,1]	[Remarks:Successful filter row count: 14]
[Date: 2021-05-26 16:03:12]	[UserID:dev/jagustin]	[IP:10.128.130.5]	[Browser:Chrome - 90.0.4430.212]	[Action:Closing mssql connection]	[Remarks:Success]
[Date: 2021-05-26 16:05:56]	[UserID:dev/jagustin]	[IP:10.128.130.5]	[Browser:Chrome - 90.0.4430.212]	[Action:Making connection to server]	[Remarks:Successful connection to server: S3]
[Date: 2021-05-26 16:05:56]	[UserID:dev/jagustin]	[IP:10.128.130.5]	[Browser:Chrome - 90.0.4430.212]	[Action:GetGSTModules dev/jagustin,1]	[Remarks:Successful filter row count: 14]
[Date: 2021-05-26 16:05:56]	[UserID:dev/jagustin]	[IP:10.128.130.5]	[Browser:Chrome - 90.0.4430.212]	[Action:Closing mssql connection]	[Remarks:Success]
[Date: 2021-05-26 16:08:36]	[UserID:dev/jagustin]	[IP:10.128.130.5]	[Browser:Chrome - 90.0.4430.212]	[Action:Making connection to server]	[Remarks:Successful connection to server: S3]
[Date: 2021-05-26 16:08:36]	[UserID:dev/jagustin]	[IP:10.128.130.5]	[Browser:Chrome - 90.0.4430.212]	[Action:GetGSTModules dev/jagustin,1]	[Remarks:Successful filter row count: 14]
[Date: 2021-05-26 16:08:36]	[UserID:dev/jagustin]	[IP:10.128.130.5]	[Browser:Chrome - 90.0.4430.212]	[Action:Closing mssql connection]	[Remarks:Success]
[Date: 2021-05-26 16:14:34]	[UserID:dev/jagustin]	[IP:10.128.130.5]	[Browser:Chrome - 90.0.4430.212]	[Action:Making connection to server]	[Remarks:Successful connection to server: S3]
[Date: 2021-05-26 16:14:34]	[UserID:dev/jagustin]	[IP:10.128.130.5]	[Browser:Chrome - 90.0.4430.212]	[Action:GetGSTModules dev/jagustin,1]	[Remarks:Successful filter row count: 14]
[Date: 2021-05-26 16:14:34]	[UserID:dev/jagustin]	[IP:10.128.130.5]	[Browser:Chrome - 90.0.4430.212]	[Action:Closing mssql connection]	[Remarks:Success]
[Date: 2021-05-26 16:36:02]	[UserID:dev/jagustin]	[IP:10.128.130.5]	[Browser:Chrome - 90.0.4430.212]	[Action:Making connection to server]	[Remarks:Successful connection to server: S3]
[Date: 2021-05-26 16:36:02]	[UserID:dev/jagustin]	[IP:10.128.130.5]	[Browser:Chrome - 90.0.4430.212]	[Action:GetGSTModules dev/jagustin,1]	[Remarks:Successful filter row count: 14]
[Date: 2021-05-26 16:36:02]	[UserID:dev/jagustin]	[IP:10.128.130.5]	[Browser:Chrome - 90.0.4430.212]	[Action:Closing mssql connection]	[Remarks:Success]
[Date: 2021-05-26 16:36:11]	[UserID:dev/jagustin]	[IP:10.128.130.5]	[Browser:Chrome - 90.0.4430.212]	[Action:Making connection to server]	[Remarks:Successful connection to server: S3]
[Date: 2021-05-26 16:36:11]	[UserID:dev/jagustin]	[IP:10.128.130.5]	[Browser:Chrome - 90.0.4430.212]	[Action:GetGSTModules dev/jagustin,1]	[Remarks:Successful filter row count: 14]
[Date: 2021-05-26 16:36:11]	[UserID:dev/jagustin]	[IP:10.128.130.5]	[Browser:Chrome - 90.0.4430.212]	[Action:Closing mssql connection]	[Remarks:Success]
[Date: 2021-05-26 16:59:31]	[UserID:dev/jagustin]	[IP:10.128.130.5]	[Browser:Chrome - 90.0.4430.212]	[Action:Making connection to server]	[Remarks:Successful connection to server: S3]
[Date: 2021-05-26 16:59:31]	[UserID:dev/jagustin]	[IP:10.128.130.5]	[Browser:Chrome - 90.0.4430.212]	[Action:GetGSTModules dev/jagustin,1]	[Remarks:Successful filter row count: 14]
[Date: 2021-05-26 16:59:31]	[UserID:dev/jagustin]	[IP:10.128.130.5]	[Browser:Chrome - 90.0.4430.212]	[Action:Closing mssql connection]	[Remarks:Success]
[Date: 2021-05-26 17:11:14]	[UserID:dev/jagustin]	[IP:10.128.130.5]	[Browser:Chrome - 90.0.4430.212]	[Action:Making connection to server]	[Remarks:Successful connection to server: S3]
[Date: 2021-05-26 17:11:14]	[UserID:dev/jagustin]	[IP:10.128.130.5]	[Browser:Chrome - 90.0.4430.212]	[Action:GetGSTModules dev/jagustin,1]	[Remarks:Successful filter row count: 14]
[Date: 2021-05-26 17:11:14]	[UserID:dev/jagustin]	[IP:10.128.130.5]	[Browser:Chrome - 90.0.4430.212]	[Action:Closing mssql connection]	[Remarks:Success]
[Date: 2021-05-26 17:11:35]	[UserID:dev/jagustin]	[IP:10.128.130.5]	[Browser:Chrome - 90.0.4430.212]	[Action:Making connection to server]	[Remarks:Successful connection to server: S3]
[Date: 2021-05-26 17:11:35]	[UserID:dev/jagustin]	[IP:10.128.130.5]	[Browser:Chrome - 90.0.4430.212]	[Action:GetGSTModules dev/jagustin,1]	[Remarks:Successful filter row count: 14]
[Date: 2021-05-26 17:11:35]	[UserID:dev/jagustin]	[IP:10.128.130.5]	[Browser:Chrome - 90.0.4430.212]	[Action:Closing mssql connection]	[Remarks:Success]
[Date: 2021-05-26 17:18:32]	[UserID:dev/jagustin]	[IP:10.128.130.5]	[Browser:Chrome - 90.0.4430.212]	[Action:Making connection to server]	[Remarks:Successful connection to server: S3]
[Date: 2021-05-26 17:18:32]	[UserID:dev/jagustin]	[IP:10.128.130.5]	[Browser:Chrome - 90.0.4430.212]	[Action:GetGSTModules dev/jagustin,1]	[Remarks:Successful filter row count: 14]
[Date: 2021-05-26 17:18:32]	[UserID:dev/jagustin]	[IP:10.128.130.5]	[Browser:Chrome - 90.0.4430.212]	[Action:Closing mssql connection]	[Remarks:Success]
[Date: 2021-05-26 17:19:57]	[UserID:dev/jagustin]	[IP:10.128.130.5]	[Browser:Chrome - 90.0.4430.212]	[Action:Making connection to server]	[Remarks:Successful connection to server: S3]
[Date: 2021-05-26 17:19:57]	[UserID:dev/jagustin]	[IP:10.128.130.5]	[Browser:Chrome - 90.0.4430.212]	[Action:GetGSTModules dev/jagustin,1]	[Remarks:Successful filter row count: 14]
[Date: 2021-05-26 17:19:57]	[UserID:dev/jagustin]	[IP:10.128.130.5]	[Browser:Chrome - 90.0.4430.212]	[Action:Closing mssql connection]	[Remarks:Success]
[Date: 2021-05-26 17:25:58]	[UserID:dev/jagustin]	[IP:10.128.130.5]	[Browser:Chrome - 90.0.4430.212]	[Action:Making connection to server]	[Remarks:Successful connection to server: S3]
[Date: 2021-05-26 17:25:58]	[UserID:dev/jagustin]	[IP:10.128.130.5]	[Browser:Chrome - 90.0.4430.212]	[Action:GetProgramList dev/jagustin]	[Remarks:[{"ID":"1","ProgramIndex":"GST","ProgramName":"GST"},{"ID":"3","ProgramIndex":"PRD","ProgramName":"PRD"}]]
[Date: 2021-05-26 17:25:58]	[UserID:dev/jagustin]	[IP:10.128.130.5]	[Browser:Chrome - 90.0.4430.212]	[Action:Making connection to server]	[Remarks:Successful connection to server: S3]
[Date: 2021-05-26 17:25:58]	[UserID:dev/jagustin]	[IP:10.128.130.5]	[Browser:Chrome - 90.0.4430.212]	[Action:GetProgramList dev/jagustin]	[Remarks:[{"ID":"1","ProgramIndex":"GST","ProgramName":"GST"},{"ID":"3","ProgramIndex":"PRD","ProgramName":"PRD"}]]
[Date: 2021-05-26 17:25:58]	[UserID:dev/jagustin]	[IP:10.128.130.5]	[Browser:Chrome - 90.0.4430.212]	[Action:Making connection to server]	[Remarks:Successful connection to server: S3]
[Date: 2021-05-26 17:25:58]	[UserID:dev/jagustin]	[IP:10.128.130.5]	[Browser:Chrome - 90.0.4430.212]	[Action:Filtering User : MasterData Username : dev/jagustin]	[Remarks:Successful filter row count: 1]
[Date: 2021-05-26 17:26:01]	[UserID:dev/jagustin]	[IP:10.128.130.5]	[Browser:Chrome - 90.0.4430.212]	[Action:Making connection to server]	[Remarks:Successful connection to server: S3]
[Date: 2021-05-26 17:26:01]	[UserID:dev/jagustin]	[IP:10.128.130.5]	[Browser:Chrome - 90.0.4430.212]	[Action:GetGSTModules dev/jagustin,1]	[Remarks:Successful filter row count: 14]
[Date: 2021-05-26 17:26:01]	[UserID:dev/jagustin]	[IP:10.128.130.5]	[Browser:Chrome - 90.0.4430.212]	[Action:Closing mssql connection]	[Remarks:Success]
[Date: 2021-05-26 17:26:19]	[UserID:dev/jagustin]	[IP:10.128.130.5]	[Browser:Chrome - 90.0.4430.212]	[Action:Making connection to server]	[Remarks:Successful connection to server: S3]
[Date: 2021-05-26 17:26:19]	[UserID:dev/jagustin]	[IP:10.128.130.5]	[Browser:Chrome - 90.0.4430.212]	[Action:GetProgramList dev/jagustin]	[Remarks:[{"ID":"1","ProgramIndex":"GST","ProgramName":"GST"},{"ID":"3","ProgramIndex":"PRD","ProgramName":"PRD"}]]
[Date: 2021-05-26 17:26:19]	[UserID:dev/jagustin]	[IP:10.128.130.5]	[Browser:Chrome - 90.0.4430.212]	[Action:Making connection to server]	[Remarks:Successful connection to server: S3]
[Date: 2021-05-26 17:26:19]	[UserID:dev/jagustin]	[IP:10.128.130.5]	[Browser:Chrome - 90.0.4430.212]	[Action:GetProgramList dev/jagustin]	[Remarks:[{"ID":"1","ProgramIndex":"GST","ProgramName":"GST"},{"ID":"3","ProgramIndex":"PRD","ProgramName":"PRD"}]]
[Date: 2021-05-26 17:26:19]	[UserID:dev/jagustin]	[IP:10.128.130.5]	[Browser:Chrome - 90.0.4430.212]	[Action:Making connection to server]	[Remarks:Successful connection to server: S3]
[Date: 2021-05-26 17:26:19]	[UserID:dev/jagustin]	[IP:10.128.130.5]	[Browser:Chrome - 90.0.4430.212]	[Action:Filtering User : MasterData Username : dev/jagustin]	[Remarks:Successful filter row count: 1]
[Date: 2021-05-26 17:26:21]	[UserID:dev/jagustin]	[IP:10.128.130.5]	[Browser:Chrome - 90.0.4430.212]	[Action:Making connection to server]	[Remarks:Successful connection to server: S3]
[Date: 2021-05-26 17:26:21]	[UserID:dev/jagustin]	[IP:10.128.130.5]	[Browser:Chrome - 90.0.4430.212]	[Action:GetGSTModules dev/jagustin,1]	[Remarks:Successful filter row count: 14]
[Date: 2021-05-26 17:26:21]	[UserID:dev/jagustin]	[IP:10.128.130.5]	[Browser:Chrome - 90.0.4430.212]	[Action:Closing mssql connection]	[Remarks:Success]
[Date: 2021-05-26 17:41:25]	[UserID:dev/jagustin]	[IP:10.128.130.5]	[Browser:Chrome - 90.0.4430.212]	[Action:Making connection to server]	[Remarks:Successful connection to server: S3]
[Date: 2021-05-26 17:41:25]	[UserID:dev/jagustin]	[IP:10.128.130.5]	[Browser:Chrome - 90.0.4430.212]	[Action:GetGSTModules dev/jagustin,1]	[Remarks:Successful filter row count: 14]
[Date: 2021-05-26 17:41:25]	[UserID:dev/jagustin]	[IP:10.128.130.5]	[Browser:Chrome - 90.0.4430.212]	[Action:Closing mssql connection]	[Remarks:Success]
[Date: 2021-05-26 17:44:11]	[UserID:dev/jagustin]	[IP:10.128.130.5]	[Browser:Chrome - 90.0.4430.212]	[Action:Making connection to server]	[Remarks:Successful connection to server: S3]
[Date: 2021-05-26 17:44:11]	[UserID:dev/jagustin]	[IP:10.128.130.5]	[Browser:Chrome - 90.0.4430.212]	[Action:GetProgramList dev/jagustin]	[Remarks:[{"ID":"1","ProgramIndex":"GST","ProgramName":"GST"},{"ID":"3","ProgramIndex":"PRD","ProgramName":"PRD"}]]
[Date: 2021-05-26 17:44:11]	[UserID:dev/jagustin]	[IP:10.128.130.5]	[Browser:Chrome - 90.0.4430.212]	[Action:Making connection to server]	[Remarks:Successful connection to server: S3]
[Date: 2021-05-26 17:44:11]	[UserID:dev/jagustin]	[IP:10.128.130.5]	[Browser:Chrome - 90.0.4430.212]	[Action:GetProgramList dev/jagustin]	[Remarks:[{"ID":"1","ProgramIndex":"GST","ProgramName":"GST"},{"ID":"3","ProgramIndex":"PRD","ProgramName":"PRD"}]]
[Date: 2021-05-26 17:44:11]	[UserID:dev/jagustin]	[IP:10.128.130.5]	[Browser:Chrome - 90.0.4430.212]	[Action:Making connection to server]	[Remarks:Successful connection to server: S3]
[Date: 2021-05-26 17:44:11]	[UserID:dev/jagustin]	[IP:10.128.130.5]	[Browser:Chrome - 90.0.4430.212]	[Action:Filtering User : MasterData Username : dev/jagustin]	[Remarks:Successful filter row count: 1]
[Date: 2021-05-26 17:44:13]	[UserID:dev/jagustin]	[IP:10.128.130.5]	[Browser:Chrome - 90.0.4430.212]	[Action:Making connection to server]	[Remarks:Successful connection to server: S3]
[Date: 2021-05-26 17:44:13]	[UserID:dev/jagustin]	[IP:10.128.130.5]	[Browser:Chrome - 90.0.4430.212]	[Action:GetGSTModules dev/jagustin,1]	[Remarks:Successful filter row count: 14]
[Date: 2021-05-26 17:44:13]	[UserID:dev/jagustin]	[IP:10.128.130.5]	[Browser:Chrome - 90.0.4430.212]	[Action:Closing mssql connection]	[Remarks:Success]
[Date: 2021-05-26 18:09:25]	[UserID:dev/jagustin]	[IP:10.128.130.5]	[Browser:Chrome - 90.0.4430.212]	[Action:Making connection to server]	[Remarks:Successful connection to server: S3]
[Date: 2021-05-26 18:09:25]	[UserID:dev/jagustin]	[IP:10.128.130.5]	[Browser:Chrome - 90.0.4430.212]	[Action:GetGSTModules dev/jagustin,1]	[Remarks:Successful filter row count: 14]
[Date: 2021-05-26 18:09:25]	[UserID:dev/jagustin]	[IP:10.128.130.5]	[Browser:Chrome - 90.0.4430.212]	[Action:Closing mssql connection]	[Remarks:Success]
[Date: 2021-05-26 18:11:43]	[UserID:dev/jagustin]	[IP:10.128.130.5]	[Browser:Chrome - 90.0.4430.212]	[Action:Making connection to server]	[Remarks:Successful connection to server: S3]
[Date: 2021-05-26 18:11:43]	[UserID:dev/jagustin]	[IP:10.128.130.5]	[Browser:Chrome - 90.0.4430.212]	[Action:GetProgramList dev/jagustin]	[Remarks:[{"ID":"1","ProgramIndex":"GST","ProgramName":"GST"},{"ID":"3","ProgramIndex":"PRD","ProgramName":"PRD"}]]
[Date: 2021-05-26 18:11:43]	[UserID:dev/jagustin]	[IP:10.128.130.5]	[Browser:Chrome - 90.0.4430.212]	[Action:Making connection to server]	[Remarks:Successful connection to server: S3]
[Date: 2021-05-26 18:11:43]	[UserID:dev/jagustin]	[IP:10.128.130.5]	[Browser:Chrome - 90.0.4430.212]	[Action:GetProgramList dev/jagustin]	[Remarks:[{"ID":"1","ProgramIndex":"GST","ProgramName":"GST"},{"ID":"3","ProgramIndex":"PRD","ProgramName":"PRD"}]]
[Date: 2021-05-26 18:11:43]	[UserID:dev/jagustin]	[IP:10.128.130.5]	[Browser:Chrome - 90.0.4430.212]	[Action:Making connection to server]	[Remarks:Successful connection to server: S3]
[Date: 2021-05-26 18:11:43]	[UserID:dev/jagustin]	[IP:10.128.130.5]	[Browser:Chrome - 90.0.4430.212]	[Action:Filtering User : MasterData Username : dev/jagustin]	[Remarks:Successful filter row count: 1]
[Date: 2021-05-26 18:11:45]	[UserID:dev/jagustin]	[IP:10.128.130.5]	[Browser:Chrome - 90.0.4430.212]	[Action:Making connection to server]	[Remarks:Successful connection to server: S3]
[Date: 2021-05-26 18:11:45]	[UserID:dev/jagustin]	[IP:10.128.130.5]	[Browser:Chrome - 90.0.4430.212]	[Action:GetGSTModules dev/jagustin,1]	[Remarks:Successful filter row count: 14]
[Date: 2021-05-26 18:11:45]	[UserID:dev/jagustin]	[IP:10.128.130.5]	[Browser:Chrome - 90.0.4430.212]	[Action:Closing mssql connection]	[Remarks:Success]
[Date: 2021-05-26 19:46:13]	[UserID:dev/jagustin]	[IP:10.128.130.5]	[Browser:Chrome - 90.0.4430.212]	[Action:Making connection to server]	[Remarks:Successful connection to server: S3]
[Date: 2021-05-26 19:46:13]	[UserID:dev/jagustin]	[IP:10.128.130.5]	[Browser:Chrome - 90.0.4430.212]	[Action:GetGSTModules dev/jagustin,1]	[Remarks:Successful filter row count: 14]
[Date: 2021-05-26 19:46:13]	[UserID:dev/jagustin]	[IP:10.128.130.5]	[Browser:Chrome - 90.0.4430.212]	[Action:Closing mssql connection]	[Remarks:Success]
[Date: 2021-05-26 19:50:59]	[UserID:dev/jagustin]	[IP:10.128.130.5]	[Browser:Chrome - 90.0.4430.212]	[Action:Making connection to server]	[Remarks:Successful connection to server: S3]
[Date: 2021-05-26 19:50:59]	[UserID:dev/jagustin]	[IP:10.128.130.5]	[Browser:Chrome - 90.0.4430.212]	[Action:GetProgramList dev/jagustin]	[Remarks:[{"ID":"1","ProgramIndex":"GST","ProgramName":"GST"},{"ID":"3","ProgramIndex":"PRD","ProgramName":"PRD"}]]
[Date: 2021-05-26 19:50:59]	[UserID:dev/jagustin]	[IP:10.128.130.5]	[Browser:Chrome - 90.0.4430.212]	[Action:Making connection to server]	[Remarks:Successful connection to server: S3]
[Date: 2021-05-26 19:50:59]	[UserID:dev/jagustin]	[IP:10.128.130.5]	[Browser:Chrome - 90.0.4430.212]	[Action:GetProgramList dev/jagustin]	[Remarks:[{"ID":"1","ProgramIndex":"GST","ProgramName":"GST"},{"ID":"3","ProgramIndex":"PRD","ProgramName":"PRD"}]]
[Date: 2021-05-26 19:50:59]	[UserID:dev/jagustin]	[IP:10.128.130.5]	[Browser:Chrome - 90.0.4430.212]	[Action:Making connection to server]	[Remarks:Successful connection to server: S3]
[Date: 2021-05-26 19:50:59]	[UserID:dev/jagustin]	[IP:10.128.130.5]	[Browser:Chrome - 90.0.4430.212]	[Action:Filtering User : MasterData Username : dev/jagustin]	[Remarks:Successful filter row count: 1]
[Date: 2021-05-26 19:51:02]	[UserID:dev/jagustin]	[IP:10.128.130.5]	[Browser:Chrome - 90.0.4430.212]	[Action:Making connection to server]	[Remarks:Successful connection to server: S3]
[Date: 2021-05-26 19:51:02]	[UserID:dev/jagustin]	[IP:10.128.130.5]	[Browser:Chrome - 90.0.4430.212]	[Action:GetGSTModules dev/jagustin,1]	[Remarks:Successful filter row count: 14]
[Date: 2021-05-26 19:51:02]	[UserID:dev/jagustin]	[IP:10.128.130.5]	[Browser:Chrome - 90.0.4430.212]	[Action:Closing mssql connection]	[Remarks:Success]
[Date: 2021-05-26 19:51:08]	[UserID:dev/jagustin]	[IP:10.128.130.5]	[Browser:Chrome - 90.0.4430.212]	[Action:Making connection to server]	[Remarks:Successful connection to server: S3]
[Date: 2021-05-26 19:51:08]	[UserID:dev/jagustin]	[IP:10.128.130.5]	[Browser:Chrome - 90.0.4430.212]	[Action:GetGSTModules dev/jagustin,1]	[Remarks:Successful filter row count: 14]
[Date: 2021-05-26 19:51:08]	[UserID:dev/jagustin]	[IP:10.128.130.5]	[Browser:Chrome - 90.0.4430.212]	[Action:Closing mssql connection]	[Remarks:Success]
[Date: 2021-05-26 19:59:03]	[UserID:dev/jagustin]	[IP:10.128.130.5]	[Browser:Chrome - 90.0.4430.212]	[Action:Making connection to server]	[Remarks:Successful connection to server: S3]
[Date: 2021-05-26 19:59:03]	[UserID:dev/jagustin]	[IP:10.128.130.5]	[Browser:Chrome - 90.0.4430.212]	[Action:GetGSTModules dev/jagustin,1]	[Remarks:Successful filter row count: 14]
[Date: 2021-05-26 19:59:03]	[UserID:dev/jagustin]	[IP:10.128.130.5]	[Browser:Chrome - 90.0.4430.212]	[Action:Closing mssql connection]	[Remarks:Success]
[Date: 2021-05-26 19:59:14]	[UserID:dev/jagustin]	[IP:10.128.130.5]	[Browser:Chrome - 90.0.4430.212]	[Action:Making connection to server]	[Remarks:Successful connection to server: S3]
[Date: 2021-05-26 19:59:14]	[UserID:dev/jagustin]	[IP:10.128.130.5]	[Browser:Chrome - 90.0.4430.212]	[Action:GetGSTModules dev/jagustin,1]	[Remarks:Successful filter row count: 14]
[Date: 2021-05-26 19:59:14]	[UserID:dev/jagustin]	[IP:10.128.130.5]	[Browser:Chrome - 90.0.4430.212]	[Action:Closing mssql connection]	[Remarks:Success]
[Date: 2021-05-26 21:01:32]	[UserID:dev/jagustin]	[IP:10.128.130.5]	[Browser:Chrome - 90.0.4430.212]	[Action:Making connection to server]	[Remarks:Successful connection to server: S3]
[Date: 2021-05-26 21:01:32]	[UserID:dev/jagustin]	[IP:10.128.130.5]	[Browser:Chrome - 90.0.4430.212]	[Action:GetGSTModules dev/jagustin,1]	[Remarks:Successful filter row count: 14]
[Date: 2021-05-26 21:01:32]	[UserID:dev/jagustin]	[IP:10.128.130.5]	[Browser:Chrome - 90.0.4430.212]	[Action:Closing mssql connection]	[Remarks:Success]
