[Date: 2018-05-26 09:27:47]	[UserID:]	[IP:10.128.12.210]	[Browser:Chrome - 66.0.3359.181]	[Action:Making connection to server]	[Remarks:Successful connection to server: S3]
[Date: 2018-05-26 09:27:47]	[UserID:]	[IP:10.128.12.210]	[Browser:Chrome - 66.0.3359.181]	[Action:GetProgramList ]	[Remarks:"no data"]
[Date: 2018-05-26 09:27:54]	[UserID:10/660]	[IP:10.128.12.210]	[Browser:Chrome - 66.0.3359.181]	[Action:Making connection to server]	[Remarks:Successful connection to server: S3]
[Date: 2018-05-26 09:27:54]	[UserID:10/660]	[IP:10.128.12.210]	[Browser:Chrome - 66.0.3359.181]	[Action:User 10/660]	[Remarks:Success]
[Date: 2018-05-26 09:27:54]	[UserID:10/660]	[IP:10.128.12.210]	[Browser:Chrome - 66.0.3359.181]	[Action:Filtering User : MasterData Username : 10/660]	[Remarks:Successful filter row count: 0]
[Date: 2018-05-26 09:27:54]	[UserID:10/660]	[IP:10.128.12.210]	[Browser:Chrome - 66.0.3359.181]	[Action:Filtering User : MasterData Username : 10/660]	[Remarks:Successful filter row count: 0]
[Date: 2018-05-26 09:27:54]	[UserID:10/660]	[IP:10.128.12.210]	[Browser:Chrome - 66.0.3359.181]	[Action:Filtering User : MasterData Username : 10/660]	[Remarks:Success]
[Date: 2018-05-26 09:27:54]	[UserID:10/660]	[IP:10.128.12.210]	[Browser:Chrome - 66.0.3359.181]	[Action:Closing mssql connection]	[Remarks:Success]
[Date: 2018-05-26 09:27:54]	[UserID:10/660]	[IP:10.128.12.210]	[Browser:Chrome - 66.0.3359.181]	[Action:Making connection to server]	[Remarks:Successful connection to server: S3]
[Date: 2018-05-26 09:27:54]	[UserID:10/660]	[IP:10.128.12.210]	[Browser:Chrome - 66.0.3359.181]	[Action:GetProgramList 10/660]	[Remarks:[{"ID":"1","ProgramIndex":"GST","ProgramName":"GST"}]]
[Date: 2018-05-26 09:27:54]	[UserID:10/660]	[IP:10.128.12.210]	[Browser:Chrome - 66.0.3359.181]	[Action:Making connection to server]	[Remarks:Successful connection to server: S3]
[Date: 2018-05-26 09:27:54]	[UserID:10/660]	[IP:10.128.12.210]	[Browser:Chrome - 66.0.3359.181]	[Action:GetProgramList 10/660]	[Remarks:[{"ID":"1","ProgramIndex":"GST","ProgramName":"GST"}]]
[Date: 2018-05-26 09:27:54]	[UserID:10/660]	[IP:10.128.12.210]	[Browser:Chrome - 66.0.3359.181]	[Action:Making connection to server]	[Remarks:Successful connection to server: S3]
[Date: 2018-05-26 09:27:54]	[UserID:10/660]	[IP:10.128.12.210]	[Browser:Chrome - 66.0.3359.181]	[Action:Filtering User : MasterData Username : 10/660]	[Remarks:Successful filter row count: 1]
[Date: 2018-05-26 09:27:55]	[UserID:10/660]	[IP:10.128.12.210]	[Browser:Chrome - 66.0.3359.181]	[Action:Making connection to server]	[Remarks:Successful connection to server: S3]
[Date: 2018-05-26 09:27:55]	[UserID:10/660]	[IP:10.128.12.210]	[Browser:Chrome - 66.0.3359.181]	[Action:GetGSTModules 10/660,1]	[Remarks:Successful filter row count: 5]
[Date: 2018-05-26 09:27:55]	[UserID:10/660]	[IP:10.128.12.210]	[Browser:Chrome - 66.0.3359.181]	[Action:Closing mssql connection]	[Remarks:Success]
[Date: 2018-05-26 09:31:05]	[UserID:10/660]	[IP:10.128.12.210]	[Browser:Chrome - 66.0.3359.181]	[Action:Making connection to server]	[Remarks:Successful connection to server: S3]
[Date: 2018-05-26 09:31:05]	[UserID:10/660]	[IP:10.128.12.210]	[Browser:Chrome - 66.0.3359.181]	[Action:GetGSTModules 10/660,1]	[Remarks:Successful filter row count: 5]
[Date: 2018-05-26 09:31:05]	[UserID:10/660]	[IP:10.128.12.210]	[Browser:Chrome - 66.0.3359.181]	[Action:Closing mssql connection]	[Remarks:Success]
[Date: 2018-05-26 09:33:52]	[UserID:10/660]	[IP:10.128.12.210]	[Browser:Chrome - 66.0.3359.181]	[Action:Making connection to server]	[Remarks:Successful connection to server: S3]
[Date: 2018-05-26 09:33:52]	[UserID:10/660]	[IP:10.128.12.210]	[Browser:Chrome - 66.0.3359.181]	[Action:GetGSTModules 10/660,1]	[Remarks:Successful filter row count: 5]
[Date: 2018-05-26 09:33:52]	[UserID:10/660]	[IP:10.128.12.210]	[Browser:Chrome - 66.0.3359.181]	[Action:Closing mssql connection]	[Remarks:Success]
[Date: 2018-05-26 09:34:14]	[UserID:]	[IP:10.128.12.210]	[Browser:Chrome - 66.0.3359.181]	[Action:Making connection to server]	[Remarks:Successful connection to server: S3]
[Date: 2018-05-26 09:34:14]	[UserID:]	[IP:10.128.12.210]	[Browser:Chrome - 66.0.3359.181]	[Action:GetProgramList ]	[Remarks:"no data"]
