[Date: 2016-03-28 07:44:06]	[UserID:]	[IP:10.10.11.1]	[Browser:Chrome - 49.0.2623.87]	[Action:Making connection to server]	[Remarks:Successful connection to server: S3]
[Date: 2016-03-28 07:44:06]	[UserID:]	[IP:10.10.11.1]	[Browser:Chrome - 49.0.2623.87]	[Action:GetProgramList ]	[Remarks:"no data"]
[Date: 2016-03-28 08:03:38]	[UserID:06/343]	[IP:10.10.11.1]	[Browser:Chrome - 49.0.2623.87]	[Action:Making connection to server]	[Remarks:Successful connection to server: S3]
[Date: 2016-03-28 08:03:38]	[UserID:06/343]	[IP:10.10.11.1]	[Browser:Chrome - 49.0.2623.87]	[Action:User 06/343]	[Remarks:Success]
[Date: 2016-03-28 08:03:38]	[UserID:06/343]	[IP:10.10.11.1]	[Browser:Chrome - 49.0.2623.87]	[Action:Filtering User : MasterData Username : 06/343]	[Remarks:Successful filter row count: 0]
[Date: 2016-03-28 08:03:38]	[UserID:06/343]	[IP:10.10.11.1]	[Browser:Chrome - 49.0.2623.87]	[Action:Filtering User : MasterData Username : 06/343]	[Remarks:Successful filter row count: 0]
[Date: 2016-03-28 08:03:38]	[UserID:06/343]	[IP:10.10.11.1]	[Browser:Chrome - 49.0.2623.87]	[Action:Filtering User : MasterData Username : 06/343]	[Remarks:Success]
[Date: 2016-03-28 08:03:38]	[UserID:06/343]	[IP:10.10.11.1]	[Browser:Chrome - 49.0.2623.87]	[Action:Closing mssql connection]	[Remarks:Success]
[Date: 2016-03-28 08:03:38]	[UserID:06/343]	[IP:10.10.11.1]	[Browser:Chrome - 49.0.2623.87]	[Action:Making connection to server]	[Remarks:Successful connection to server: S3]
[Date: 2016-03-28 08:03:38]	[UserID:06/343]	[IP:10.10.11.1]	[Browser:Chrome - 49.0.2623.87]	[Action:GetProgramList 06/343]	[Remarks:[{"ID":"1","ProgramIndex":"GST","ProgramName":"GST"}]]
[Date: 2016-03-28 08:03:38]	[UserID:06/343]	[IP:10.10.11.1]	[Browser:Chrome - 49.0.2623.87]	[Action:Making connection to server]	[Remarks:Successful connection to server: S3]
[Date: 2016-03-28 08:03:38]	[UserID:06/343]	[IP:10.10.11.1]	[Browser:Chrome - 49.0.2623.87]	[Action:GetProgramList 06/343]	[Remarks:[{"ID":"1","ProgramIndex":"GST","ProgramName":"GST"}]]
[Date: 2016-03-28 08:03:38]	[UserID:06/343]	[IP:10.10.11.1]	[Browser:Chrome - 49.0.2623.87]	[Action:Making connection to server]	[Remarks:Successful connection to server: S3]
[Date: 2016-03-28 08:03:38]	[UserID:06/343]	[IP:10.10.11.1]	[Browser:Chrome - 49.0.2623.87]	[Action:Filtering User : MasterData Username : 06/343]	[Remarks:Successful filter row count: 1]
[Date: 2016-03-28 08:03:39]	[UserID:06/343]	[IP:10.10.11.1]	[Browser:Chrome - 49.0.2623.87]	[Action:Making connection to server]	[Remarks:Successful connection to server: S3]
[Date: 2016-03-28 08:03:39]	[UserID:06/343]	[IP:10.10.11.1]	[Browser:Chrome - 49.0.2623.87]	[Action:GetGSTModules 06/343,1]	[Remarks:Successful filter row count: 5]
[Date: 2016-03-28 08:03:39]	[UserID:06/343]	[IP:10.10.11.1]	[Browser:Chrome - 49.0.2623.87]	[Action:Closing mssql connection]	[Remarks:Success]
[Date: 2016-03-28 08:08:53]	[UserID:06/343]	[IP:10.10.11.1]	[Browser:Chrome - 49.0.2623.87]	[Action:Making connection to server]	[Remarks:Successful connection to server: S3]
[Date: 2016-03-28 08:08:53]	[UserID:06/343]	[IP:10.10.11.1]	[Browser:Chrome - 49.0.2623.87]	[Action:GetGSTModules 06/343,1]	[Remarks:Successful filter row count: 5]
[Date: 2016-03-28 08:08:53]	[UserID:06/343]	[IP:10.10.11.1]	[Browser:Chrome - 49.0.2623.87]	[Action:Closing mssql connection]	[Remarks:Success]
[Date: 2016-03-28 08:14:29]	[UserID:06/343]	[IP:10.10.11.1]	[Browser:Chrome - 49.0.2623.87]	[Action:Making connection to server]	[Remarks:Successful connection to server: S3]
[Date: 2016-03-28 08:14:29]	[UserID:06/343]	[IP:10.10.11.1]	[Browser:Chrome - 49.0.2623.87]	[Action:GetGSTModules 06/343,1]	[Remarks:Successful filter row count: 5]
[Date: 2016-03-28 08:14:29]	[UserID:06/343]	[IP:10.10.11.1]	[Browser:Chrome - 49.0.2623.87]	[Action:Closing mssql connection]	[Remarks:Success]
[Date: 2016-03-28 08:24:13]	[UserID:06/343]	[IP:10.10.11.1]	[Browser:Chrome - 49.0.2623.87]	[Action:Making connection to server]	[Remarks:Successful connection to server: S3]
[Date: 2016-03-28 08:24:13]	[UserID:06/343]	[IP:10.10.11.1]	[Browser:Chrome - 49.0.2623.87]	[Action:GetGSTModules 06/343,1]	[Remarks:Successful filter row count: 5]
[Date: 2016-03-28 08:24:13]	[UserID:06/343]	[IP:10.10.11.1]	[Browser:Chrome - 49.0.2623.87]	[Action:Closing mssql connection]	[Remarks:Success]
[Date: 2016-03-28 08:30:13]	[UserID:06/343]	[IP:10.10.11.1]	[Browser:Chrome - 49.0.2623.87]	[Action:Making connection to server]	[Remarks:Successful connection to server: S3]
[Date: 2016-03-28 08:30:13]	[UserID:06/343]	[IP:10.10.11.1]	[Browser:Chrome - 49.0.2623.87]	[Action:GetGSTModules 06/343,1]	[Remarks:Successful filter row count: 5]
[Date: 2016-03-28 08:30:13]	[UserID:06/343]	[IP:10.10.11.1]	[Browser:Chrome - 49.0.2623.87]	[Action:Closing mssql connection]	[Remarks:Success]
[Date: 2016-03-28 08:38:56]	[UserID:06/343]	[IP:10.10.11.1]	[Browser:Chrome - 49.0.2623.87]	[Action:Making connection to server]	[Remarks:Successful connection to server: S3]
[Date: 2016-03-28 08:38:57]	[UserID:06/343]	[IP:10.10.11.1]	[Browser:Chrome - 49.0.2623.87]	[Action:GetGSTModules 06/343,1]	[Remarks:Successful filter row count: 5]
[Date: 2016-03-28 08:38:57]	[UserID:06/343]	[IP:10.10.11.1]	[Browser:Chrome - 49.0.2623.87]	[Action:Closing mssql connection]	[Remarks:Success]
[Date: 2016-03-28 08:51:48]	[UserID:06/343]	[IP:10.10.11.1]	[Browser:Chrome - 49.0.2623.87]	[Action:Making connection to server]	[Remarks:Successful connection to server: S3]
[Date: 2016-03-28 08:51:48]	[UserID:06/343]	[IP:10.10.11.1]	[Browser:Chrome - 49.0.2623.87]	[Action:GetGSTModules 06/343,1]	[Remarks:Successful filter row count: 5]
[Date: 2016-03-28 08:51:48]	[UserID:06/343]	[IP:10.10.11.1]	[Browser:Chrome - 49.0.2623.87]	[Action:Closing mssql connection]	[Remarks:Success]
[Date: 2016-03-28 09:13:59]	[UserID:]	[IP:10.10.11.1]	[Browser:Chrome - 49.0.2623.87]	[Action:Making connection to server]	[Remarks:Successful connection to server: S3]
[Date: 2016-03-28 09:13:59]	[UserID:]	[IP:10.10.11.1]	[Browser:Chrome - 49.0.2623.87]	[Action:GetProgramList ]	[Remarks:"no data"]
[Date: 2016-03-28 09:14:02]	[UserID:11/715]	[IP:10.10.11.1]	[Browser:Chrome - 49.0.2623.87]	[Action:Making connection to server]	[Remarks:Successful connection to server: S3]
[Date: 2016-03-28 09:14:02]	[UserID:11/715]	[IP:10.10.11.1]	[Browser:Chrome - 49.0.2623.87]	[Action:User 11/715]	[Remarks:Success]
[Date: 2016-03-28 09:14:02]	[UserID:11/715]	[IP:10.10.11.1]	[Browser:Chrome - 49.0.2623.87]	[Action:Filtering User : MasterData Username : 11/715]	[Remarks:Successful filter row count: 0]
[Date: 2016-03-28 09:14:02]	[UserID:11/715]	[IP:10.10.11.1]	[Browser:Chrome - 49.0.2623.87]	[Action:Filtering User : MasterData Username : 11/715]	[Remarks:Successful filter row count: 0]
[Date: 2016-03-28 09:14:02]	[UserID:11/715]	[IP:10.10.11.1]	[Browser:Chrome - 49.0.2623.87]	[Action:Filtering User : MasterData Username : 11/715]	[Remarks:Success]
[Date: 2016-03-28 09:14:02]	[UserID:11/715]	[IP:10.10.11.1]	[Browser:Chrome - 49.0.2623.87]	[Action:Closing mssql connection]	[Remarks:Success]
[Date: 2016-03-28 09:14:03]	[UserID:11/715]	[IP:10.10.11.1]	[Browser:Chrome - 49.0.2623.87]	[Action:Making connection to server]	[Remarks:Successful connection to server: S3]
[Date: 2016-03-28 09:14:03]	[UserID:11/715]	[IP:10.10.11.1]	[Browser:Chrome - 49.0.2623.87]	[Action:GetProgramList 11/715]	[Remarks:[{"ID":"1","ProgramIndex":"GST","ProgramName":"GST"}]]
[Date: 2016-03-28 09:14:03]	[UserID:11/715]	[IP:10.10.11.1]	[Browser:Chrome - 49.0.2623.87]	[Action:Making connection to server]	[Remarks:Successful connection to server: S3]
[Date: 2016-03-28 09:14:03]	[UserID:11/715]	[IP:10.10.11.1]	[Browser:Chrome - 49.0.2623.87]	[Action:GetProgramList 11/715]	[Remarks:[{"ID":"1","ProgramIndex":"GST","ProgramName":"GST"}]]
[Date: 2016-03-28 09:14:03]	[UserID:11/715]	[IP:10.10.11.1]	[Browser:Chrome - 49.0.2623.87]	[Action:Making connection to server]	[Remarks:Successful connection to server: S3]
[Date: 2016-03-28 09:14:03]	[UserID:11/715]	[IP:10.10.11.1]	[Browser:Chrome - 49.0.2623.87]	[Action:Filtering User : MasterData Username : 11/715]	[Remarks:Successful filter row count: 1]
[Date: 2016-03-28 09:14:03]	[UserID:11/715]	[IP:10.10.11.1]	[Browser:Chrome - 49.0.2623.87]	[Action:Making connection to server]	[Remarks:Successful connection to server: S3]
[Date: 2016-03-28 09:14:03]	[UserID:11/715]	[IP:10.10.11.1]	[Browser:Chrome - 49.0.2623.87]	[Action:GetGSTModules 11/715,1]	[Remarks:Successful filter row count: 3]
[Date: 2016-03-28 09:14:03]	[UserID:11/715]	[IP:10.10.11.1]	[Browser:Chrome - 49.0.2623.87]	[Action:Closing mssql connection]	[Remarks:Success]
[Date: 2016-03-28 09:16:24]	[UserID:11/715]	[IP:10.10.11.1]	[Browser:Chrome - 49.0.2623.87]	[Action:Making connection to server]	[Remarks:Successful connection to server: S3]
[Date: 2016-03-28 09:16:24]	[UserID:11/715]	[IP:10.10.11.1]	[Browser:Chrome - 49.0.2623.87]	[Action:GetGSTModules 11/715,1]	[Remarks:Successful filter row count: 3]
[Date: 2016-03-28 09:16:24]	[UserID:11/715]	[IP:10.10.11.1]	[Browser:Chrome - 49.0.2623.87]	[Action:Closing mssql connection]	[Remarks:Success]
[Date: 2016-03-28 09:17:56]	[UserID:11/715]	[IP:10.10.11.1]	[Browser:Chrome - 49.0.2623.87]	[Action:Making connection to server]	[Remarks:Successful connection to server: S3]
[Date: 2016-03-28 09:17:56]	[UserID:11/715]	[IP:10.10.11.1]	[Browser:Chrome - 49.0.2623.87]	[Action:GetGSTModules 11/715,1]	[Remarks:Successful filter row count: 3]
[Date: 2016-03-28 09:17:56]	[UserID:11/715]	[IP:10.10.11.1]	[Browser:Chrome - 49.0.2623.87]	[Action:Closing mssql connection]	[Remarks:Success]
[Date: 2016-03-28 09:18:52]	[UserID:06/343]	[IP:10.10.11.1]	[Browser:Chrome - 49.0.2623.87]	[Action:Making connection to server]	[Remarks:Successful connection to server: S3]
[Date: 2016-03-28 09:18:52]	[UserID:06/343]	[IP:10.10.11.1]	[Browser:Chrome - 49.0.2623.87]	[Action:GetGSTModules 06/343,1]	[Remarks:Successful filter row count: 5]
[Date: 2016-03-28 09:18:52]	[UserID:06/343]	[IP:10.10.11.1]	[Browser:Chrome - 49.0.2623.87]	[Action:Closing mssql connection]	[Remarks:Success]
[Date: 2016-03-28 09:20:34]	[UserID:06/343]	[IP:10.10.11.1]	[Browser:Chrome - 49.0.2623.87]	[Action:Making connection to server]	[Remarks:Successful connection to server: S3]
[Date: 2016-03-28 09:20:34]	[UserID:06/343]	[IP:10.10.11.1]	[Browser:Chrome - 49.0.2623.87]	[Action:GetGSTModules 06/343,1]	[Remarks:Successful filter row count: 5]
[Date: 2016-03-28 09:20:34]	[UserID:06/343]	[IP:10.10.11.1]	[Browser:Chrome - 49.0.2623.87]	[Action:Closing mssql connection]	[Remarks:Success]
[Date: 2016-03-28 10:35:57]	[UserID:]	[IP:10.10.11.1]	[Browser:Chrome - 49.0.2623.87]	[Action:Making connection to server]	[Remarks:Successful connection to server: S3]
[Date: 2016-03-28 10:35:57]	[UserID:]	[IP:10.10.11.1]	[Browser:Chrome - 49.0.2623.87]	[Action:GetProgramList ]	[Remarks:"no data"]
[Date: 2016-03-28 10:36:02]	[UserID:10/660]	[IP:10.10.11.1]	[Browser:Chrome - 49.0.2623.87]	[Action:Making connection to server]	[Remarks:Successful connection to server: S3]
[Date: 2016-03-28 10:36:02]	[UserID:10/660]	[IP:10.10.11.1]	[Browser:Chrome - 49.0.2623.87]	[Action:User 10/660]	[Remarks:Success]
[Date: 2016-03-28 10:36:02]	[UserID:10/660]	[IP:10.10.11.1]	[Browser:Chrome - 49.0.2623.87]	[Action:Filtering User : MasterData Username : 10/660]	[Remarks:Successful filter row count: 0]
[Date: 2016-03-28 10:36:02]	[UserID:10/660]	[IP:10.10.11.1]	[Browser:Chrome - 49.0.2623.87]	[Action:Filtering User : MasterData Username : 10/660]	[Remarks:Successful filter row count: 0]
[Date: 2016-03-28 10:36:02]	[UserID:10/660]	[IP:10.10.11.1]	[Browser:Chrome - 49.0.2623.87]	[Action:Filtering User : MasterData Username : 10/660]	[Remarks:Success]
[Date: 2016-03-28 10:36:02]	[UserID:10/660]	[IP:10.10.11.1]	[Browser:Chrome - 49.0.2623.87]	[Action:Closing mssql connection]	[Remarks:Success]
[Date: 2016-03-28 10:36:02]	[UserID:10/660]	[IP:10.10.11.1]	[Browser:Chrome - 49.0.2623.87]	[Action:Making connection to server]	[Remarks:Successful connection to server: S3]
[Date: 2016-03-28 10:36:02]	[UserID:10/660]	[IP:10.10.11.1]	[Browser:Chrome - 49.0.2623.87]	[Action:GetProgramList 10/660]	[Remarks:[{"ID":"1","ProgramIndex":"GST","ProgramName":"GST"}]]
[Date: 2016-03-28 10:36:02]	[UserID:10/660]	[IP:10.10.11.1]	[Browser:Chrome - 49.0.2623.87]	[Action:Making connection to server]	[Remarks:Successful connection to server: S3]
[Date: 2016-03-28 10:36:02]	[UserID:10/660]	[IP:10.10.11.1]	[Browser:Chrome - 49.0.2623.87]	[Action:GetProgramList 10/660]	[Remarks:[{"ID":"1","ProgramIndex":"GST","ProgramName":"GST"}]]
[Date: 2016-03-28 10:36:02]	[UserID:10/660]	[IP:10.10.11.1]	[Browser:Chrome - 49.0.2623.87]	[Action:Making connection to server]	[Remarks:Successful connection to server: S3]
[Date: 2016-03-28 10:36:02]	[UserID:10/660]	[IP:10.10.11.1]	[Browser:Chrome - 49.0.2623.87]	[Action:Filtering User : MasterData Username : 10/660]	[Remarks:Successful filter row count: 1]
[Date: 2016-03-28 10:36:03]	[UserID:10/660]	[IP:10.10.11.1]	[Browser:Chrome - 49.0.2623.87]	[Action:Making connection to server]	[Remarks:Successful connection to server: S3]
[Date: 2016-03-28 10:36:04]	[UserID:10/660]	[IP:10.10.11.1]	[Browser:Chrome - 49.0.2623.87]	[Action:GetGSTModules 10/660,1]	[Remarks:Successful filter row count: 3]
[Date: 2016-03-28 10:36:04]	[UserID:10/660]	[IP:10.10.11.1]	[Browser:Chrome - 49.0.2623.87]	[Action:Closing mssql connection]	[Remarks:Success]
[Date: 2016-03-28 10:46:35]	[UserID:06/343]	[IP:10.10.11.1]	[Browser:Chrome - 49.0.2623.87]	[Action:Making connection to server]	[Remarks:Successful connection to server: S3]
[Date: 2016-03-28 10:46:35]	[UserID:06/343]	[IP:10.10.11.1]	[Browser:Chrome - 49.0.2623.87]	[Action:GetGSTModules 06/343,1]	[Remarks:Successful filter row count: 5]
[Date: 2016-03-28 10:46:35]	[UserID:06/343]	[IP:10.10.11.1]	[Browser:Chrome - 49.0.2623.87]	[Action:Closing mssql connection]	[Remarks:Success]
[Date: 2016-03-28 10:49:53]	[UserID:06/343]	[IP:10.10.11.1]	[Browser:Chrome - 49.0.2623.87]	[Action:Making connection to server]	[Remarks:Successful connection to server: S3]
[Date: 2016-03-28 10:49:53]	[UserID:06/343]	[IP:10.10.11.1]	[Browser:Chrome - 49.0.2623.87]	[Action:GetGSTModules 06/343,1]	[Remarks:Successful filter row count: 5]
[Date: 2016-03-28 10:49:53]	[UserID:06/343]	[IP:10.10.11.1]	[Browser:Chrome - 49.0.2623.87]	[Action:Closing mssql connection]	[Remarks:Success]
[Date: 2016-03-28 10:57:51]	[UserID:10/660]	[IP:10.10.11.1]	[Browser:Chrome - 49.0.2623.87]	[Action:Making connection to server]	[Remarks:Successful connection to server: S3]
[Date: 2016-03-28 10:57:51]	[UserID:10/660]	[IP:10.10.11.1]	[Browser:Chrome - 49.0.2623.87]	[Action:GetGSTModules 10/660,1]	[Remarks:Successful filter row count: 3]
[Date: 2016-03-28 10:57:51]	[UserID:10/660]	[IP:10.10.11.1]	[Browser:Chrome - 49.0.2623.87]	[Action:Closing mssql connection]	[Remarks:Success]
[Date: 2016-03-28 11:23:53]	[UserID:10/660]	[IP:10.10.11.1]	[Browser:Chrome - 49.0.2623.87]	[Action:Making connection to server]	[Remarks:Successful connection to server: S3]
[Date: 2016-03-28 11:23:53]	[UserID:10/660]	[IP:10.10.11.1]	[Browser:Chrome - 49.0.2623.87]	[Action:GetGSTModules 10/660,1]	[Remarks:Successful filter row count: 3]
[Date: 2016-03-28 11:23:53]	[UserID:10/660]	[IP:10.10.11.1]	[Browser:Chrome - 49.0.2623.87]	[Action:Closing mssql connection]	[Remarks:Success]
[Date: 2016-03-28 11:24:17]	[UserID:]	[IP:10.10.11.1]	[Browser:Chrome - 49.0.2623.87]	[Action:Making connection to server]	[Remarks:Successful connection to server: S3]
[Date: 2016-03-28 11:24:17]	[UserID:]	[IP:10.10.11.1]	[Browser:Chrome - 49.0.2623.87]	[Action:GetProgramList ]	[Remarks:"no data"]
[Date: 2016-03-28 14:01:00]	[UserID:]	[IP:10.10.11.1]	[Browser:Chrome - 49.0.2623.87]	[Action:Making connection to server]	[Remarks:Successful connection to server: S3]
[Date: 2016-03-28 14:01:00]	[UserID:]	[IP:10.10.11.1]	[Browser:Chrome - 49.0.2623.87]	[Action:GetProgramList ]	[Remarks:"no data"]
[Date: 2016-03-28 14:01:03]	[UserID:10/660]	[IP:10.10.11.1]	[Browser:Chrome - 49.0.2623.87]	[Action:Making connection to server]	[Remarks:Successful connection to server: S3]
[Date: 2016-03-28 14:01:03]	[UserID:10/660]	[IP:10.10.11.1]	[Browser:Chrome - 49.0.2623.87]	[Action:User 10/660]	[Remarks:Success]
[Date: 2016-03-28 14:01:03]	[UserID:10/660]	[IP:10.10.11.1]	[Browser:Chrome - 49.0.2623.87]	[Action:Filtering User : MasterData Username : 10/660]	[Remarks:Successful filter row count: 0]
[Date: 2016-03-28 14:01:03]	[UserID:10/660]	[IP:10.10.11.1]	[Browser:Chrome - 49.0.2623.87]	[Action:Filtering User : MasterData Username : 10/660]	[Remarks:Successful filter row count: 0]
[Date: 2016-03-28 14:01:03]	[UserID:10/660]	[IP:10.10.11.1]	[Browser:Chrome - 49.0.2623.87]	[Action:Filtering User : MasterData Username : 10/660]	[Remarks:Success]
[Date: 2016-03-28 14:01:03]	[UserID:10/660]	[IP:10.10.11.1]	[Browser:Chrome - 49.0.2623.87]	[Action:Closing mssql connection]	[Remarks:Success]
[Date: 2016-03-28 14:01:03]	[UserID:10/660]	[IP:10.10.11.1]	[Browser:Chrome - 49.0.2623.87]	[Action:Making connection to server]	[Remarks:Successful connection to server: S3]
[Date: 2016-03-28 14:01:03]	[UserID:10/660]	[IP:10.10.11.1]	[Browser:Chrome - 49.0.2623.87]	[Action:GetProgramList 10/660]	[Remarks:[{"ID":"1","ProgramIndex":"GST","ProgramName":"GST"}]]
[Date: 2016-03-28 14:01:03]	[UserID:10/660]	[IP:10.10.11.1]	[Browser:Chrome - 49.0.2623.87]	[Action:Making connection to server]	[Remarks:Successful connection to server: S3]
[Date: 2016-03-28 14:01:03]	[UserID:10/660]	[IP:10.10.11.1]	[Browser:Chrome - 49.0.2623.87]	[Action:GetProgramList 10/660]	[Remarks:[{"ID":"1","ProgramIndex":"GST","ProgramName":"GST"}]]
[Date: 2016-03-28 14:01:03]	[UserID:10/660]	[IP:10.10.11.1]	[Browser:Chrome - 49.0.2623.87]	[Action:Making connection to server]	[Remarks:Successful connection to server: S3]
[Date: 2016-03-28 14:01:03]	[UserID:10/660]	[IP:10.10.11.1]	[Browser:Chrome - 49.0.2623.87]	[Action:Filtering User : MasterData Username : 10/660]	[Remarks:Successful filter row count: 1]
[Date: 2016-03-28 14:01:04]	[UserID:10/660]	[IP:10.10.11.1]	[Browser:Chrome - 49.0.2623.87]	[Action:Making connection to server]	[Remarks:Successful connection to server: S3]
[Date: 2016-03-28 14:01:04]	[UserID:10/660]	[IP:10.10.11.1]	[Browser:Chrome - 49.0.2623.87]	[Action:GetGSTModules 10/660,1]	[Remarks:Successful filter row count: 3]
[Date: 2016-03-28 14:01:04]	[UserID:10/660]	[IP:10.10.11.1]	[Browser:Chrome - 49.0.2623.87]	[Action:Closing mssql connection]	[Remarks:Success]
[Date: 2016-03-28 14:02:18]	[UserID:10/660]	[IP:10.10.11.1]	[Browser:Chrome - 49.0.2623.87]	[Action:Making connection to server]	[Remarks:Successful connection to server: S3]
[Date: 2016-03-28 14:02:18]	[UserID:10/660]	[IP:10.10.11.1]	[Browser:Chrome - 49.0.2623.87]	[Action:GetGSTModules 10/660,1]	[Remarks:Successful filter row count: 3]
[Date: 2016-03-28 14:02:18]	[UserID:10/660]	[IP:10.10.11.1]	[Browser:Chrome - 49.0.2623.87]	[Action:Closing mssql connection]	[Remarks:Success]
[Date: 2016-03-28 14:02:58]	[UserID:]	[IP:10.10.11.1]	[Browser:Chrome - 49.0.2623.87]	[Action:Making connection to server]	[Remarks:Successful connection to server: S3]
[Date: 2016-03-28 14:02:58]	[UserID:]	[IP:10.10.11.1]	[Browser:Chrome - 49.0.2623.87]	[Action:GetProgramList ]	[Remarks:"no data"]
[Date: 2016-03-28 14:38:34]	[UserID:]	[IP:10.10.11.1]	[Browser:Chrome - 49.0.2623.87]	[Action:Making connection to server]	[Remarks:Successful connection to server: S3]
[Date: 2016-03-28 14:38:39]	[UserID:]	[IP:10.10.11.1]	[Browser:Chrome - 49.0.2623.87]	[Action:GetProgramList ]	[Remarks:"no data"]
[Date: 2016-03-28 14:38:43]	[UserID:10/660]	[IP:10.10.11.1]	[Browser:Chrome - 49.0.2623.87]	[Action:Making connection to server]	[Remarks:Successful connection to server: S3]
[Date: 2016-03-28 14:38:44]	[UserID:10/660]	[IP:10.10.11.1]	[Browser:Chrome - 49.0.2623.87]	[Action:User 10/660]	[Remarks:Success]
[Date: 2016-03-28 14:38:45]	[UserID:10/660]	[IP:10.10.11.1]	[Browser:Chrome - 49.0.2623.87]	[Action:Filtering User : MasterData Username : 10/660]	[Remarks:Successful filter row count: 0]
[Date: 2016-03-28 14:38:45]	[UserID:10/660]	[IP:10.10.11.1]	[Browser:Chrome - 49.0.2623.87]	[Action:Filtering User : MasterData Username : 10/660]	[Remarks:Successful filter row count: 0]
[Date: 2016-03-28 14:38:45]	[UserID:10/660]	[IP:10.10.11.1]	[Browser:Chrome - 49.0.2623.87]	[Action:Filtering User : MasterData Username : 10/660]	[Remarks:Success]
[Date: 2016-03-28 14:38:45]	[UserID:10/660]	[IP:10.10.11.1]	[Browser:Chrome - 49.0.2623.87]	[Action:Closing mssql connection]	[Remarks:Success]
[Date: 2016-03-28 14:38:45]	[UserID:10/660]	[IP:10.10.11.1]	[Browser:Chrome - 49.0.2623.87]	[Action:Making connection to server]	[Remarks:Successful connection to server: S3]
[Date: 2016-03-28 14:38:45]	[UserID:10/660]	[IP:10.10.11.1]	[Browser:Chrome - 49.0.2623.87]	[Action:GetProgramList 10/660]	[Remarks:[{"ID":"1","ProgramIndex":"GST","ProgramName":"GST"}]]
[Date: 2016-03-28 14:38:45]	[UserID:10/660]	[IP:10.10.11.1]	[Browser:Chrome - 49.0.2623.87]	[Action:Making connection to server]	[Remarks:Successful connection to server: S3]
[Date: 2016-03-28 14:38:45]	[UserID:10/660]	[IP:10.10.11.1]	[Browser:Chrome - 49.0.2623.87]	[Action:GetProgramList 10/660]	[Remarks:[{"ID":"1","ProgramIndex":"GST","ProgramName":"GST"}]]
[Date: 2016-03-28 14:38:45]	[UserID:10/660]	[IP:10.10.11.1]	[Browser:Chrome - 49.0.2623.87]	[Action:Making connection to server]	[Remarks:Successful connection to server: S3]
[Date: 2016-03-28 14:38:45]	[UserID:10/660]	[IP:10.10.11.1]	[Browser:Chrome - 49.0.2623.87]	[Action:Filtering User : MasterData Username : 10/660]	[Remarks:Successful filter row count: 1]
[Date: 2016-03-28 14:38:45]	[UserID:10/660]	[IP:10.10.11.1]	[Browser:Chrome - 49.0.2623.87]	[Action:Making connection to server]	[Remarks:Successful connection to server: S3]
[Date: 2016-03-28 14:38:46]	[UserID:10/660]	[IP:10.10.11.1]	[Browser:Chrome - 49.0.2623.87]	[Action:GetGSTModules 10/660,1]	[Remarks:Successful filter row count: 3]
[Date: 2016-03-28 14:38:46]	[UserID:10/660]	[IP:10.10.11.1]	[Browser:Chrome - 49.0.2623.87]	[Action:Closing mssql connection]	[Remarks:Success]
[Date: 2016-03-28 14:39:53]	[UserID:]	[IP:10.10.11.1]	[Browser:Chrome - 49.0.2623.87]	[Action:Making connection to server]	[Remarks:Successful connection to server: S3]
[Date: 2016-03-28 14:39:53]	[UserID:]	[IP:10.10.11.1]	[Browser:Chrome - 49.0.2623.87]	[Action:GetProgramList ]	[Remarks:"no data"]
