[Date: 2020-11-26 08:24:36]	[UserID:]	[IP:10.128.130.5]	[Browser:Firefox - 83.0]	[Action:Making connection to server]	[Remarks:Successful connection to server: S3]
[Date: 2020-11-26 08:24:36]	[UserID:]	[IP:10.128.130.5]	[Browser:Firefox - 83.0]	[Action:GetProgramList ]	[Remarks:"no data"]
[Date: 2020-11-26 08:26:46]	[UserID:]	[IP:10.128.130.5]	[Browser:Firefox - 83.0]	[Action:Making connection to server]	[Remarks:Successful connection to server: S3]
[Date: 2020-11-26 08:26:46]	[UserID:]	[IP:10.128.130.5]	[Browser:Firefox - 83.0]	[Action:GetProgramList ]	[Remarks:"no data"]
[Date: 2020-11-26 08:54:16]	[UserID:]	[IP:10.128.12.114]	[Browser:Chrome - 86.0.4240.198]	[Action:Making connection to server]	[Remarks:Successful connection to server: S3]
[Date: 2020-11-26 08:54:16]	[UserID:]	[IP:10.128.12.114]	[Browser:Chrome - 86.0.4240.198]	[Action:GetProgramList ]	[Remarks:"no data"]
[Date: 2020-11-26 08:54:22]	[UserID:14/1082]	[IP:10.128.12.114]	[Browser:Chrome - 86.0.4240.198]	[Action:Making connection to server]	[Remarks:Successful connection to server: S3]
[Date: 2020-11-26 08:54:22]	[UserID:14/1082]	[IP:10.128.12.114]	[Browser:Chrome - 86.0.4240.198]	[Action:User 14/1082]	[Remarks:Success]
[Date: 2020-11-26 08:54:22]	[UserID:14/1082]	[IP:10.128.12.114]	[Browser:Chrome - 86.0.4240.198]	[Action:Filtering User : MasterData Username : 14/1082]	[Remarks:Successful filter row count: 0]
[Date: 2020-11-26 08:54:22]	[UserID:14/1082]	[IP:10.128.12.114]	[Browser:Chrome - 86.0.4240.198]	[Action:Filtering User : MasterData Username : 14/1082]	[Remarks:Successful filter row count: 0]
[Date: 2020-11-26 08:54:22]	[UserID:14/1082]	[IP:10.128.12.114]	[Browser:Chrome - 86.0.4240.198]	[Action:Filtering User : MasterData Username : 14/1082]	[Remarks:Success]
[Date: 2020-11-26 08:54:22]	[UserID:14/1082]	[IP:10.128.12.114]	[Browser:Chrome - 86.0.4240.198]	[Action:Closing mssql connection]	[Remarks:Success]
[Date: 2020-11-26 08:54:22]	[UserID:14/1082]	[IP:10.128.12.114]	[Browser:Chrome - 86.0.4240.198]	[Action:Making connection to server]	[Remarks:Successful connection to server: S3]
[Date: 2020-11-26 08:54:22]	[UserID:14/1082]	[IP:10.128.12.114]	[Browser:Chrome - 86.0.4240.198]	[Action:GetProgramList 14/1082]	[Remarks:[{"ID":"1","ProgramIndex":"GST","ProgramName":"GST"}]]
[Date: 2020-11-26 08:54:22]	[UserID:14/1082]	[IP:10.128.12.114]	[Browser:Chrome - 86.0.4240.198]	[Action:Making connection to server]	[Remarks:Successful connection to server: S3]
[Date: 2020-11-26 08:54:22]	[UserID:14/1082]	[IP:10.128.12.114]	[Browser:Chrome - 86.0.4240.198]	[Action:GetProgramList 14/1082]	[Remarks:[{"ID":"1","ProgramIndex":"GST","ProgramName":"GST"}]]
[Date: 2020-11-26 08:54:22]	[UserID:14/1082]	[IP:10.128.12.114]	[Browser:Chrome - 86.0.4240.198]	[Action:Making connection to server]	[Remarks:Successful connection to server: S3]
[Date: 2020-11-26 08:54:22]	[UserID:14/1082]	[IP:10.128.12.114]	[Browser:Chrome - 86.0.4240.198]	[Action:Filtering User : MasterData Username : 14/1082]	[Remarks:Successful filter row count: 1]
[Date: 2020-11-26 08:54:23]	[UserID:14/1082]	[IP:10.128.12.114]	[Browser:Chrome - 86.0.4240.198]	[Action:Making connection to server]	[Remarks:Successful connection to server: S3]
[Date: 2020-11-26 08:54:23]	[UserID:14/1082]	[IP:10.128.12.114]	[Browser:Chrome - 86.0.4240.198]	[Action:GetGSTModules 14/1082,1]	[Remarks:Successful filter row count: 8]
[Date: 2020-11-26 08:54:23]	[UserID:14/1082]	[IP:10.128.12.114]	[Browser:Chrome - 86.0.4240.198]	[Action:Closing mssql connection]	[Remarks:Success]
[Date: 2020-11-26 09:37:43]	[UserID:14/1082]	[IP:10.128.12.114]	[Browser:Chrome - 86.0.4240.198]	[Action:Making connection to server]	[Remarks:Successful connection to server: S3]
[Date: 2020-11-26 09:37:43]	[UserID:14/1082]	[IP:10.128.12.114]	[Browser:Chrome - 86.0.4240.198]	[Action:GetGSTModules 14/1082,1]	[Remarks:Successful filter row count: 8]
[Date: 2020-11-26 09:37:43]	[UserID:14/1082]	[IP:10.128.12.114]	[Browser:Chrome - 86.0.4240.198]	[Action:Closing mssql connection]	[Remarks:Success]
[Date: 2020-11-26 09:37:44]	[UserID:]	[IP:10.128.12.114]	[Browser:Chrome - 86.0.4240.198]	[Action:Making connection to server]	[Remarks:Successful connection to server: S3]
[Date: 2020-11-26 09:37:44]	[UserID:]	[IP:10.128.12.114]	[Browser:Chrome - 86.0.4240.198]	[Action:GetProgramList ]	[Remarks:"no data"]
[Date: 2020-11-26 11:42:27]	[UserID:]	[IP:10.128.130.5]	[Browser:Chrome - 86.0.4240.198]	[Action:Making connection to server]	[Remarks:Successful connection to server: S3]
[Date: 2020-11-26 11:42:27]	[UserID:]	[IP:10.128.130.5]	[Browser:Chrome - 86.0.4240.198]	[Action:GetProgramList ]	[Remarks:"no data"]
[Date: 2020-11-26 11:42:38]	[UserID:06/343]	[IP:10.128.130.5]	[Browser:Chrome - 86.0.4240.198]	[Action:Making connection to server]	[Remarks:Successful connection to server: S3]
[Date: 2020-11-26 11:42:38]	[UserID:06/343]	[IP:10.128.130.5]	[Browser:Chrome - 86.0.4240.198]	[Action:User 06/343]	[Remarks:Success]
[Date: 2020-11-26 11:42:38]	[UserID:06/343]	[IP:10.128.130.5]	[Browser:Chrome - 86.0.4240.198]	[Action:Filtering User : MasterData Username : 06/343]	[Remarks:Successful filter row count: 0]
[Date: 2020-11-26 11:42:38]	[UserID:06/343]	[IP:10.128.130.5]	[Browser:Chrome - 86.0.4240.198]	[Action:Filtering User : MasterData Username : 06/343]	[Remarks:Successful filter row count: 0]
[Date: 2020-11-26 11:42:38]	[UserID:06/343]	[IP:10.128.130.5]	[Browser:Chrome - 86.0.4240.198]	[Action:Filtering User : MasterData Username : 06/343]	[Remarks:Success]
[Date: 2020-11-26 11:42:38]	[UserID:06/343]	[IP:10.128.130.5]	[Browser:Chrome - 86.0.4240.198]	[Action:Closing mssql connection]	[Remarks:Success]
[Date: 2020-11-26 11:42:38]	[UserID:06/343]	[IP:10.128.130.5]	[Browser:Chrome - 86.0.4240.198]	[Action:Making connection to server]	[Remarks:Successful connection to server: S3]
[Date: 2020-11-26 11:42:39]	[UserID:06/343]	[IP:10.128.130.5]	[Browser:Chrome - 86.0.4240.198]	[Action:GetProgramList 06/343]	[Remarks:[{"ID":"1","ProgramIndex":"GST","ProgramName":"GST"}]]
[Date: 2020-11-26 11:42:39]	[UserID:06/343]	[IP:10.128.130.5]	[Browser:Chrome - 86.0.4240.198]	[Action:Making connection to server]	[Remarks:Successful connection to server: S3]
[Date: 2020-11-26 11:42:39]	[UserID:06/343]	[IP:10.128.130.5]	[Browser:Chrome - 86.0.4240.198]	[Action:GetProgramList 06/343]	[Remarks:[{"ID":"1","ProgramIndex":"GST","ProgramName":"GST"}]]
[Date: 2020-11-26 11:42:39]	[UserID:06/343]	[IP:10.128.130.5]	[Browser:Chrome - 86.0.4240.198]	[Action:Making connection to server]	[Remarks:Successful connection to server: S3]
[Date: 2020-11-26 11:42:39]	[UserID:06/343]	[IP:10.128.130.5]	[Browser:Chrome - 86.0.4240.198]	[Action:Filtering User : MasterData Username : 06/343]	[Remarks:Successful filter row count: 1]
[Date: 2020-11-26 11:42:39]	[UserID:06/343]	[IP:10.128.130.5]	[Browser:Chrome - 86.0.4240.198]	[Action:Making connection to server]	[Remarks:Successful connection to server: S3]
[Date: 2020-11-26 11:42:39]	[UserID:06/343]	[IP:10.128.130.5]	[Browser:Chrome - 86.0.4240.198]	[Action:GetGSTModules 06/343,1]	[Remarks:Successful filter row count: 7]
[Date: 2020-11-26 11:42:39]	[UserID:06/343]	[IP:10.128.130.5]	[Browser:Chrome - 86.0.4240.198]	[Action:Closing mssql connection]	[Remarks:Success]
[Date: 2020-11-26 11:52:19]	[UserID:06/343]	[IP:10.128.130.5]	[Browser:Chrome - 86.0.4240.198]	[Action:Making connection to server]	[Remarks:Successful connection to server: S3]
[Date: 2020-11-26 11:52:19]	[UserID:06/343]	[IP:10.128.130.5]	[Browser:Chrome - 86.0.4240.198]	[Action:GetGSTModules 06/343,1]	[Remarks:Successful filter row count: 7]
[Date: 2020-11-26 11:52:19]	[UserID:06/343]	[IP:10.128.130.5]	[Browser:Chrome - 86.0.4240.198]	[Action:Closing mssql connection]	[Remarks:Success]
[Date: 2020-11-26 11:57:01]	[UserID:06/343]	[IP:10.128.130.5]	[Browser:Chrome - 86.0.4240.198]	[Action:Making connection to server]	[Remarks:Successful connection to server: S3]
[Date: 2020-11-26 11:57:01]	[UserID:06/343]	[IP:10.128.130.5]	[Browser:Chrome - 86.0.4240.198]	[Action:GetGSTModules 06/343,1]	[Remarks:Successful filter row count: 7]
[Date: 2020-11-26 11:57:01]	[UserID:06/343]	[IP:10.128.130.5]	[Browser:Chrome - 86.0.4240.198]	[Action:Closing mssql connection]	[Remarks:Success]
[Date: 2020-11-26 16:31:48]	[UserID:]	[IP:10.128.12.115]	[Browser:Chrome - 87.0.4280.66]	[Action:Making connection to server]	[Remarks:Successful connection to server: S3]
[Date: 2020-11-26 16:31:48]	[UserID:]	[IP:10.128.12.115]	[Browser:Chrome - 87.0.4280.66]	[Action:GetProgramList ]	[Remarks:"no data"]
[Date: 2020-11-26 16:31:59]	[UserID:17/1248]	[IP:10.128.12.115]	[Browser:Chrome - 87.0.4280.66]	[Action:Making connection to server]	[Remarks:Successful connection to server: S3]
[Date: 2020-11-26 16:31:59]	[UserID:17/1248]	[IP:10.128.12.115]	[Browser:Chrome - 87.0.4280.66]	[Action:LogMeIn 17/1248,950202]	[Remarks:Failed]
[Date: 2020-11-26 16:31:59]	[UserID:17/1248]	[IP:10.128.12.115]	[Browser:Chrome - 87.0.4280.66]	[Action:Closing mssql connection]	[Remarks:Success]
[Date: 2020-11-26 16:32:03]	[UserID:17/1248]	[IP:10.128.12.115]	[Browser:Chrome - 87.0.4280.66]	[Action:Making connection to server]	[Remarks:Successful connection to server: S3]
[Date: 2020-11-26 16:32:03]	[UserID:17/1248]	[IP:10.128.12.115]	[Browser:Chrome - 87.0.4280.66]	[Action:User 17/1248]	[Remarks:Success]
[Date: 2020-11-26 16:32:03]	[UserID:17/1248]	[IP:10.128.12.115]	[Browser:Chrome - 87.0.4280.66]	[Action:Filtering User : MasterData Username : 17/1248]	[Remarks:Successful filter row count: 0]
[Date: 2020-11-26 16:32:03]	[UserID:17/1248]	[IP:10.128.12.115]	[Browser:Chrome - 87.0.4280.66]	[Action:Filtering User : MasterData Username : 17/1248]	[Remarks:Successful filter row count: 0]
[Date: 2020-11-26 16:32:03]	[UserID:17/1248]	[IP:10.128.12.115]	[Browser:Chrome - 87.0.4280.66]	[Action:Filtering User : MasterData Username : 17/1248]	[Remarks:Success]
[Date: 2020-11-26 16:32:03]	[UserID:17/1248]	[IP:10.128.12.115]	[Browser:Chrome - 87.0.4280.66]	[Action:Closing mssql connection]	[Remarks:Success]
[Date: 2020-11-26 16:32:03]	[UserID:]	[IP:10.128.12.115]	[Browser:Chrome - 87.0.4280.66]	[Action:Making connection to server]	[Remarks:Successful connection to server: S3]
[Date: 2020-11-26 16:32:03]	[UserID:]	[IP:10.128.12.115]	[Browser:Chrome - 87.0.4280.66]	[Action:GetProgramList ]	[Remarks:"no data"]
[Date: 2020-11-26 16:32:09]	[UserID:17/1248]	[IP:10.128.12.115]	[Browser:Chrome - 87.0.4280.66]	[Action:Making connection to server]	[Remarks:Successful connection to server: S3]
[Date: 2020-11-26 16:32:09]	[UserID:17/1248]	[IP:10.128.12.115]	[Browser:Chrome - 87.0.4280.66]	[Action:User 17/1248]	[Remarks:Success]
[Date: 2020-11-26 16:32:09]	[UserID:17/1248]	[IP:10.128.12.115]	[Browser:Chrome - 87.0.4280.66]	[Action:Filtering User : MasterData Username : 17/1248]	[Remarks:Successful filter row count: 0]
[Date: 2020-11-26 16:32:09]	[UserID:17/1248]	[IP:10.128.12.115]	[Browser:Chrome - 87.0.4280.66]	[Action:Filtering User : MasterData Username : 17/1248]	[Remarks:Successful filter row count: 0]
[Date: 2020-11-26 16:32:09]	[UserID:17/1248]	[IP:10.128.12.115]	[Browser:Chrome - 87.0.4280.66]	[Action:Filtering User : MasterData Username : 17/1248]	[Remarks:Success]
[Date: 2020-11-26 16:32:09]	[UserID:17/1248]	[IP:10.128.12.115]	[Browser:Chrome - 87.0.4280.66]	[Action:Closing mssql connection]	[Remarks:Success]
[Date: 2020-11-26 16:32:10]	[UserID:17/1248]	[IP:10.128.12.115]	[Browser:Chrome - 87.0.4280.66]	[Action:Making connection to server]	[Remarks:Successful connection to server: S3]
[Date: 2020-11-26 16:32:10]	[UserID:17/1248]	[IP:10.128.12.115]	[Browser:Chrome - 87.0.4280.66]	[Action:GetProgramList 17/1248]	[Remarks:[{"ID":"1","ProgramIndex":"GST","ProgramName":"GST"}]]
[Date: 2020-11-26 16:32:10]	[UserID:17/1248]	[IP:10.128.12.115]	[Browser:Chrome - 87.0.4280.66]	[Action:Making connection to server]	[Remarks:Successful connection to server: S3]
[Date: 2020-11-26 16:32:10]	[UserID:17/1248]	[IP:10.128.12.115]	[Browser:Chrome - 87.0.4280.66]	[Action:GetProgramList 17/1248]	[Remarks:[{"ID":"1","ProgramIndex":"GST","ProgramName":"GST"}]]
[Date: 2020-11-26 16:32:10]	[UserID:17/1248]	[IP:10.128.12.115]	[Browser:Chrome - 87.0.4280.66]	[Action:Making connection to server]	[Remarks:Successful connection to server: S3]
[Date: 2020-11-26 16:32:10]	[UserID:17/1248]	[IP:10.128.12.115]	[Browser:Chrome - 87.0.4280.66]	[Action:Filtering User : MasterData Username : 17/1248]	[Remarks:Successful filter row count: 1]
[Date: 2020-11-26 16:32:10]	[UserID:17/1248]	[IP:10.128.12.115]	[Browser:Chrome - 87.0.4280.66]	[Action:Making connection to server]	[Remarks:Successful connection to server: S3]
[Date: 2020-11-26 16:32:10]	[UserID:17/1248]	[IP:10.128.12.115]	[Browser:Chrome - 87.0.4280.66]	[Action:GetGSTModules 17/1248,1]	[Remarks:Successful filter row count: 6]
[Date: 2020-11-26 16:32:10]	[UserID:17/1248]	[IP:10.128.12.115]	[Browser:Chrome - 87.0.4280.66]	[Action:Closing mssql connection]	[Remarks:Success]
[Date: 2020-11-26 16:49:29]	[UserID:]	[IP:10.128.12.114]	[Browser:Chrome - 86.0.4240.198]	[Action:Making connection to server]	[Remarks:Successful connection to server: S3]
[Date: 2020-11-26 16:49:29]	[UserID:]	[IP:10.128.12.114]	[Browser:Chrome - 86.0.4240.198]	[Action:GetProgramList ]	[Remarks:"no data"]
[Date: 2020-11-26 16:49:35]	[UserID:14/1082]	[IP:10.128.12.114]	[Browser:Chrome - 86.0.4240.198]	[Action:Making connection to server]	[Remarks:Successful connection to server: S3]
[Date: 2020-11-26 16:49:35]	[UserID:14/1082]	[IP:10.128.12.114]	[Browser:Chrome - 86.0.4240.198]	[Action:LogMeIn 14/1082,14/1082.]	[Remarks:Failed]
[Date: 2020-11-26 16:49:35]	[UserID:14/1082]	[IP:10.128.12.114]	[Browser:Chrome - 86.0.4240.198]	[Action:Closing mssql connection]	[Remarks:Success]
[Date: 2020-11-26 16:49:39]	[UserID:14/1082]	[IP:10.128.12.114]	[Browser:Chrome - 86.0.4240.198]	[Action:Making connection to server]	[Remarks:Successful connection to server: S3]
[Date: 2020-11-26 16:49:39]	[UserID:14/1082]	[IP:10.128.12.114]	[Browser:Chrome - 86.0.4240.198]	[Action:User 14/1082]	[Remarks:Success]
[Date: 2020-11-26 16:49:39]	[UserID:14/1082]	[IP:10.128.12.114]	[Browser:Chrome - 86.0.4240.198]	[Action:Filtering User : MasterData Username : 14/1082]	[Remarks:Successful filter row count: 0]
[Date: 2020-11-26 16:49:39]	[UserID:14/1082]	[IP:10.128.12.114]	[Browser:Chrome - 86.0.4240.198]	[Action:Filtering User : MasterData Username : 14/1082]	[Remarks:Successful filter row count: 0]
[Date: 2020-11-26 16:49:39]	[UserID:14/1082]	[IP:10.128.12.114]	[Browser:Chrome - 86.0.4240.198]	[Action:Filtering User : MasterData Username : 14/1082]	[Remarks:Success]
[Date: 2020-11-26 16:49:39]	[UserID:14/1082]	[IP:10.128.12.114]	[Browser:Chrome - 86.0.4240.198]	[Action:Closing mssql connection]	[Remarks:Success]
[Date: 2020-11-26 16:49:40]	[UserID:]	[IP:10.128.12.114]	[Browser:Chrome - 86.0.4240.198]	[Action:Making connection to server]	[Remarks:Successful connection to server: S3]
[Date: 2020-11-26 16:49:40]	[UserID:]	[IP:10.128.12.114]	[Browser:Chrome - 86.0.4240.198]	[Action:GetProgramList ]	[Remarks:"no data"]
[Date: 2020-11-26 16:49:45]	[UserID:14/1082]	[IP:10.128.12.114]	[Browser:Chrome - 86.0.4240.198]	[Action:Making connection to server]	[Remarks:Successful connection to server: S3]
[Date: 2020-11-26 16:49:45]	[UserID:14/1082]	[IP:10.128.12.114]	[Browser:Chrome - 86.0.4240.198]	[Action:User 14/1082]	[Remarks:Success]
[Date: 2020-11-26 16:49:45]	[UserID:14/1082]	[IP:10.128.12.114]	[Browser:Chrome - 86.0.4240.198]	[Action:Filtering User : MasterData Username : 14/1082]	[Remarks:Successful filter row count: 0]
[Date: 2020-11-26 16:49:45]	[UserID:14/1082]	[IP:10.128.12.114]	[Browser:Chrome - 86.0.4240.198]	[Action:Filtering User : MasterData Username : 14/1082]	[Remarks:Successful filter row count: 0]
[Date: 2020-11-26 16:49:45]	[UserID:14/1082]	[IP:10.128.12.114]	[Browser:Chrome - 86.0.4240.198]	[Action:Filtering User : MasterData Username : 14/1082]	[Remarks:Success]
[Date: 2020-11-26 16:49:45]	[UserID:14/1082]	[IP:10.128.12.114]	[Browser:Chrome - 86.0.4240.198]	[Action:Closing mssql connection]	[Remarks:Success]
[Date: 2020-11-26 16:49:46]	[UserID:14/1082]	[IP:10.128.12.114]	[Browser:Chrome - 86.0.4240.198]	[Action:Making connection to server]	[Remarks:Successful connection to server: S3]
[Date: 2020-11-26 16:49:46]	[UserID:14/1082]	[IP:10.128.12.114]	[Browser:Chrome - 86.0.4240.198]	[Action:GetProgramList 14/1082]	[Remarks:[{"ID":"1","ProgramIndex":"GST","ProgramName":"GST"}]]
[Date: 2020-11-26 16:49:46]	[UserID:14/1082]	[IP:10.128.12.114]	[Browser:Chrome - 86.0.4240.198]	[Action:Making connection to server]	[Remarks:Successful connection to server: S3]
[Date: 2020-11-26 16:49:46]	[UserID:14/1082]	[IP:10.128.12.114]	[Browser:Chrome - 86.0.4240.198]	[Action:GetProgramList 14/1082]	[Remarks:[{"ID":"1","ProgramIndex":"GST","ProgramName":"GST"}]]
[Date: 2020-11-26 16:49:46]	[UserID:14/1082]	[IP:10.128.12.114]	[Browser:Chrome - 86.0.4240.198]	[Action:Making connection to server]	[Remarks:Successful connection to server: S3]
[Date: 2020-11-26 16:49:46]	[UserID:14/1082]	[IP:10.128.12.114]	[Browser:Chrome - 86.0.4240.198]	[Action:Filtering User : MasterData Username : 14/1082]	[Remarks:Successful filter row count: 1]
[Date: 2020-11-26 16:49:46]	[UserID:14/1082]	[IP:10.128.12.114]	[Browser:Chrome - 86.0.4240.198]	[Action:Making connection to server]	[Remarks:Successful connection to server: S3]
[Date: 2020-11-26 16:49:46]	[UserID:14/1082]	[IP:10.128.12.114]	[Browser:Chrome - 86.0.4240.198]	[Action:GetGSTModules 14/1082,1]	[Remarks:Successful filter row count: 8]
[Date: 2020-11-26 16:49:46]	[UserID:14/1082]	[IP:10.128.12.114]	[Browser:Chrome - 86.0.4240.198]	[Action:Closing mssql connection]	[Remarks:Success]
[Date: 2020-11-26 17:01:34]	[UserID:]	[IP:10.128.12.115]	[Browser:Chrome - 87.0.4280.66]	[Action:Making connection to server]	[Remarks:Successful connection to server: S3]
[Date: 2020-11-26 17:01:34]	[UserID:]	[IP:10.128.12.115]	[Browser:Chrome - 87.0.4280.66]	[Action:GetProgramList ]	[Remarks:"no data"]
[Date: 2020-11-26 17:23:19]	[UserID:14/1082]	[IP:10.128.12.114]	[Browser:Chrome - 86.0.4240.198]	[Action:Making connection to server]	[Remarks:Successful connection to server: S3]
[Date: 2020-11-26 17:23:19]	[UserID:14/1082]	[IP:10.128.12.114]	[Browser:Chrome - 86.0.4240.198]	[Action:GetGSTModules 14/1082,1]	[Remarks:Successful filter row count: 8]
[Date: 2020-11-26 17:23:19]	[UserID:14/1082]	[IP:10.128.12.114]	[Browser:Chrome - 86.0.4240.198]	[Action:Closing mssql connection]	[Remarks:Success]
[Date: 2020-11-26 17:24:21]	[UserID:14/1082]	[IP:10.128.12.114]	[Browser:Chrome - 86.0.4240.198]	[Action:Making connection to server]	[Remarks:Successful connection to server: S3]
[Date: 2020-11-26 17:24:21]	[UserID:14/1082]	[IP:10.128.12.114]	[Browser:Chrome - 86.0.4240.198]	[Action:GetGSTModules 14/1082,1]	[Remarks:Successful filter row count: 8]
[Date: 2020-11-26 17:24:21]	[UserID:14/1082]	[IP:10.128.12.114]	[Browser:Chrome - 86.0.4240.198]	[Action:Closing mssql connection]	[Remarks:Success]
[Date: 2020-11-26 18:23:37]	[UserID:]	[IP:10.128.12.114]	[Browser:Chrome - 86.0.4240.198]	[Action:Making connection to server]	[Remarks:Successful connection to server: S3]
[Date: 2020-11-26 18:23:37]	[UserID:]	[IP:10.128.12.114]	[Browser:Chrome - 86.0.4240.198]	[Action:GetProgramList ]	[Remarks:"no data"]
[Date: 2020-11-26 23:04:52]	[UserID:]	[IP:10.128.130.5]	[Browser:Chrome - 86.0.4240.198]	[Action:Making connection to server]	[Remarks:Successful connection to server: S3]
[Date: 2020-11-26 23:04:52]	[UserID:]	[IP:10.128.130.5]	[Browser:Chrome - 86.0.4240.198]	[Action:GetProgramList ]	[Remarks:"no data"]
[Date: 2020-11-26 23:24:06]	[UserID:]	[IP:10.128.130.5]	[Browser:Chrome - 86.0.4240.198]	[Action:Making connection to server]	[Remarks:Successful connection to server: S3]
[Date: 2020-11-26 23:24:06]	[UserID:]	[IP:10.128.130.5]	[Browser:Chrome - 86.0.4240.198]	[Action:GetProgramList ]	[Remarks:"no data"]
