[Date: 2016-11-24 10:29:26]	[UserID:parboleda]	[IP:10.128.80.79]	[Browser:Chrome - 52.0.2743.116]	[Action:Making connection to server]	[Remarks:Successful connection to server: S3]
[Date: 2016-11-24 10:29:26]	[UserID:parboleda]	[IP:10.128.80.79]	[Browser:Chrome - 52.0.2743.116]	[Action:GetProgramList parboleda]	[Remarks:[{"ID":"1","ProgramIndex":"GST","ProgramName":"GST"}]]
[Date: 2016-11-24 10:29:26]	[UserID:parboleda]	[IP:10.128.80.79]	[Browser:Chrome - 52.0.2743.116]	[Action:Making connection to server]	[Remarks:Successful connection to server: S3]
[Date: 2016-11-24 10:29:26]	[UserID:parboleda]	[IP:10.128.80.79]	[Browser:Chrome - 52.0.2743.116]	[Action:GetProgramList parboleda]	[Remarks:[{"ID":"1","ProgramIndex":"GST","ProgramName":"GST"}]]
[Date: 2016-11-24 10:29:26]	[UserID:parboleda]	[IP:10.128.80.79]	[Browser:Chrome - 52.0.2743.116]	[Action:Making connection to server]	[Remarks:Successful connection to server: S3]
[Date: 2016-11-24 10:29:26]	[UserID:parboleda]	[IP:10.128.80.79]	[Browser:Chrome - 52.0.2743.116]	[Action:Filtering User : MasterData Username : parboleda]	[Remarks:Successful filter row count: 1]
[Date: 2016-11-24 10:29:26]	[UserID:parboleda]	[IP:10.128.80.79]	[Browser:Chrome - 52.0.2743.116]	[Action:Making connection to server]	[Remarks:Successful connection to server: S3]
[Date: 2016-11-24 10:29:26]	[UserID:parboleda]	[IP:10.128.80.79]	[Browser:Chrome - 52.0.2743.116]	[Action:GetGSTModules parboleda,1]	[Remarks:Successful filter row count: 7]
[Date: 2016-11-24 10:29:26]	[UserID:parboleda]	[IP:10.128.80.79]	[Browser:Chrome - 52.0.2743.116]	[Action:Closing mssql connection]	[Remarks:Success]
