[Date: 2016-07-07 07:44:20]	[UserID:]	[IP:10.10.11.1]	[Browser:Chrome - 51.0.2704.103]	[Action:Making connection to server]	[Remarks:Successful connection to server: S3]
[Date: 2016-07-07 07:44:20]	[UserID:]	[IP:10.10.11.1]	[Browser:Chrome - 51.0.2704.103]	[Action:GetProgramList ]	[Remarks:"no data"]
[Date: 2016-07-07 07:44:23]	[UserID:]	[IP:10.10.11.1]	[Browser:Chrome - 51.0.2704.103]	[Action:Making connection to server]	[Remarks:Successful connection to server: S3]
[Date: 2016-07-07 07:44:23]	[UserID:]	[IP:10.10.11.1]	[Browser:Chrome - 51.0.2704.103]	[Action:GetProgramList ]	[Remarks:"no data"]
[Date: 2016-07-07 08:09:30]	[UserID:]	[IP:10.10.11.1]	[Browser:Chrome - 51.0.2704.103]	[Action:Making connection to server]	[Remarks:Successful connection to server: S3]
[Date: 2016-07-07 08:09:30]	[UserID:]	[IP:10.10.11.1]	[Browser:Chrome - 51.0.2704.103]	[Action:GetProgramList ]	[Remarks:"no data"]
[Date: 2016-07-07 08:09:33]	[UserID:11/715]	[IP:10.10.11.1]	[Browser:Chrome - 51.0.2704.103]	[Action:Making connection to server]	[Remarks:Successful connection to server: S3]
[Date: 2016-07-07 08:09:33]	[UserID:11/715]	[IP:10.10.11.1]	[Browser:Chrome - 51.0.2704.103]	[Action:User 11/715]	[Remarks:Success]
[Date: 2016-07-07 08:09:33]	[UserID:11/715]	[IP:10.10.11.1]	[Browser:Chrome - 51.0.2704.103]	[Action:Filtering User : MasterData Username : 11/715]	[Remarks:Successful filter row count: 0]
[Date: 2016-07-07 08:09:33]	[UserID:11/715]	[IP:10.10.11.1]	[Browser:Chrome - 51.0.2704.103]	[Action:Filtering User : MasterData Username : 11/715]	[Remarks:Successful filter row count: 0]
[Date: 2016-07-07 08:09:33]	[UserID:11/715]	[IP:10.10.11.1]	[Browser:Chrome - 51.0.2704.103]	[Action:Filtering User : MasterData Username : 11/715]	[Remarks:Success]
[Date: 2016-07-07 08:09:33]	[UserID:11/715]	[IP:10.10.11.1]	[Browser:Chrome - 51.0.2704.103]	[Action:Closing mssql connection]	[Remarks:Success]
[Date: 2016-07-07 08:09:34]	[UserID:11/715]	[IP:10.10.11.1]	[Browser:Chrome - 51.0.2704.103]	[Action:Making connection to server]	[Remarks:Successful connection to server: S3]
[Date: 2016-07-07 08:09:34]	[UserID:11/715]	[IP:10.10.11.1]	[Browser:Chrome - 51.0.2704.103]	[Action:GetProgramList 11/715]	[Remarks:[{"ID":"1","ProgramIndex":"GST","ProgramName":"GST"}]]
[Date: 2016-07-07 08:09:34]	[UserID:11/715]	[IP:10.10.11.1]	[Browser:Chrome - 51.0.2704.103]	[Action:Making connection to server]	[Remarks:Successful connection to server: S3]
[Date: 2016-07-07 08:09:34]	[UserID:11/715]	[IP:10.10.11.1]	[Browser:Chrome - 51.0.2704.103]	[Action:GetProgramList 11/715]	[Remarks:[{"ID":"1","ProgramIndex":"GST","ProgramName":"GST"}]]
[Date: 2016-07-07 08:09:34]	[UserID:11/715]	[IP:10.10.11.1]	[Browser:Chrome - 51.0.2704.103]	[Action:Making connection to server]	[Remarks:Successful connection to server: S3]
[Date: 2016-07-07 08:09:34]	[UserID:11/715]	[IP:10.10.11.1]	[Browser:Chrome - 51.0.2704.103]	[Action:Filtering User : MasterData Username : 11/715]	[Remarks:Successful filter row count: 1]
[Date: 2016-07-07 08:09:34]	[UserID:11/715]	[IP:10.10.11.1]	[Browser:Chrome - 51.0.2704.103]	[Action:Making connection to server]	[Remarks:Successful connection to server: S3]
[Date: 2016-07-07 08:09:34]	[UserID:11/715]	[IP:10.10.11.1]	[Browser:Chrome - 51.0.2704.103]	[Action:GetGSTModules 11/715,1]	[Remarks:Successful filter row count: 3]
[Date: 2016-07-07 08:09:34]	[UserID:11/715]	[IP:10.10.11.1]	[Browser:Chrome - 51.0.2704.103]	[Action:Closing mssql connection]	[Remarks:Success]
[Date: 2016-07-07 08:11:24]	[UserID:11/715]	[IP:10.10.11.1]	[Browser:Chrome - 51.0.2704.103]	[Action:Making connection to server]	[Remarks:Successful connection to server: S3]
[Date: 2016-07-07 08:11:24]	[UserID:11/715]	[IP:10.10.11.1]	[Browser:Chrome - 51.0.2704.103]	[Action:GetGSTModules 11/715,1]	[Remarks:Successful filter row count: 3]
[Date: 2016-07-07 08:11:24]	[UserID:11/715]	[IP:10.10.11.1]	[Browser:Chrome - 51.0.2704.103]	[Action:Closing mssql connection]	[Remarks:Success]
[Date: 2016-07-07 08:13:02]	[UserID:11/715]	[IP:10.10.11.1]	[Browser:Chrome - 51.0.2704.103]	[Action:Making connection to server]	[Remarks:Successful connection to server: S3]
[Date: 2016-07-07 08:13:02]	[UserID:11/715]	[IP:10.10.11.1]	[Browser:Chrome - 51.0.2704.103]	[Action:GetGSTModules 11/715,1]	[Remarks:Successful filter row count: 3]
[Date: 2016-07-07 08:13:02]	[UserID:11/715]	[IP:10.10.11.1]	[Browser:Chrome - 51.0.2704.103]	[Action:Closing mssql connection]	[Remarks:Success]
[Date: 2016-07-07 08:28:45]	[UserID:]	[IP:10.10.11.1]	[Browser:Chrome - 49.0.2623.75]	[Action:Making connection to server]	[Remarks:Successful connection to server: S3]
[Date: 2016-07-07 08:28:45]	[UserID:]	[IP:10.10.11.1]	[Browser:Chrome - 49.0.2623.75]	[Action:GetProgramList ]	[Remarks:"no data"]
[Date: 2016-07-07 08:30:24]	[UserID:11/715]	[IP:10.10.11.1]	[Browser:Chrome - 51.0.2704.103]	[Action:Making connection to server]	[Remarks:Successful connection to server: S3]
[Date: 2016-07-07 08:30:24]	[UserID:11/715]	[IP:10.10.11.1]	[Browser:Chrome - 51.0.2704.103]	[Action:GetProgramList 11/715]	[Remarks:[{"ID":"1","ProgramIndex":"GST","ProgramName":"GST"}]]
[Date: 2016-07-07 08:30:24]	[UserID:11/715]	[IP:10.10.11.1]	[Browser:Chrome - 51.0.2704.103]	[Action:Making connection to server]	[Remarks:Successful connection to server: S3]
[Date: 2016-07-07 08:30:24]	[UserID:11/715]	[IP:10.10.11.1]	[Browser:Chrome - 51.0.2704.103]	[Action:GetProgramList 11/715]	[Remarks:[{"ID":"1","ProgramIndex":"GST","ProgramName":"GST"}]]
[Date: 2016-07-07 08:30:24]	[UserID:11/715]	[IP:10.10.11.1]	[Browser:Chrome - 51.0.2704.103]	[Action:Making connection to server]	[Remarks:Successful connection to server: S3]
[Date: 2016-07-07 08:30:24]	[UserID:11/715]	[IP:10.10.11.1]	[Browser:Chrome - 51.0.2704.103]	[Action:Filtering User : MasterData Username : 11/715]	[Remarks:Successful filter row count: 1]
[Date: 2016-07-07 08:30:25]	[UserID:11/715]	[IP:10.10.11.1]	[Browser:Chrome - 51.0.2704.103]	[Action:Making connection to server]	[Remarks:Successful connection to server: S3]
[Date: 2016-07-07 08:30:25]	[UserID:11/715]	[IP:10.10.11.1]	[Browser:Chrome - 51.0.2704.103]	[Action:GetGSTModules 11/715,1]	[Remarks:Successful filter row count: 3]
[Date: 2016-07-07 08:30:25]	[UserID:11/715]	[IP:10.10.11.1]	[Browser:Chrome - 51.0.2704.103]	[Action:Closing mssql connection]	[Remarks:Success]
[Date: 2016-07-07 08:43:26]	[UserID:06/343]	[IP:10.10.11.1]	[Browser:Chrome - 51.0.2704.103]	[Action:Making connection to server]	[Remarks:Successful connection to server: S3]
[Date: 2016-07-07 08:43:26]	[UserID:06/343]	[IP:10.10.11.1]	[Browser:Chrome - 51.0.2704.103]	[Action:User 06/343]	[Remarks:Success]
[Date: 2016-07-07 08:43:26]	[UserID:06/343]	[IP:10.10.11.1]	[Browser:Chrome - 51.0.2704.103]	[Action:Filtering User : MasterData Username : 06/343]	[Remarks:Successful filter row count: 0]
[Date: 2016-07-07 08:43:26]	[UserID:06/343]	[IP:10.10.11.1]	[Browser:Chrome - 51.0.2704.103]	[Action:Filtering User : MasterData Username : 06/343]	[Remarks:Successful filter row count: 0]
[Date: 2016-07-07 08:43:26]	[UserID:06/343]	[IP:10.10.11.1]	[Browser:Chrome - 51.0.2704.103]	[Action:Filtering User : MasterData Username : 06/343]	[Remarks:Success]
[Date: 2016-07-07 08:43:26]	[UserID:06/343]	[IP:10.10.11.1]	[Browser:Chrome - 51.0.2704.103]	[Action:Closing mssql connection]	[Remarks:Success]
[Date: 2016-07-07 08:43:26]	[UserID:06/343]	[IP:10.10.11.1]	[Browser:Chrome - 51.0.2704.103]	[Action:Making connection to server]	[Remarks:Successful connection to server: S3]
[Date: 2016-07-07 08:43:26]	[UserID:06/343]	[IP:10.10.11.1]	[Browser:Chrome - 51.0.2704.103]	[Action:GetProgramList 06/343]	[Remarks:[{"ID":"1","ProgramIndex":"GST","ProgramName":"GST"}]]
[Date: 2016-07-07 08:43:26]	[UserID:06/343]	[IP:10.10.11.1]	[Browser:Chrome - 51.0.2704.103]	[Action:Making connection to server]	[Remarks:Successful connection to server: S3]
[Date: 2016-07-07 08:43:26]	[UserID:06/343]	[IP:10.10.11.1]	[Browser:Chrome - 51.0.2704.103]	[Action:GetProgramList 06/343]	[Remarks:[{"ID":"1","ProgramIndex":"GST","ProgramName":"GST"}]]
[Date: 2016-07-07 08:43:26]	[UserID:06/343]	[IP:10.10.11.1]	[Browser:Chrome - 51.0.2704.103]	[Action:Making connection to server]	[Remarks:Successful connection to server: S3]
[Date: 2016-07-07 08:43:26]	[UserID:06/343]	[IP:10.10.11.1]	[Browser:Chrome - 51.0.2704.103]	[Action:Filtering User : MasterData Username : 06/343]	[Remarks:Successful filter row count: 1]
[Date: 2016-07-07 08:43:27]	[UserID:06/343]	[IP:10.10.11.1]	[Browser:Chrome - 51.0.2704.103]	[Action:Making connection to server]	[Remarks:Successful connection to server: S3]
[Date: 2016-07-07 08:43:27]	[UserID:06/343]	[IP:10.10.11.1]	[Browser:Chrome - 51.0.2704.103]	[Action:GetGSTModules 06/343,1]	[Remarks:Successful filter row count: 5]
[Date: 2016-07-07 08:43:27]	[UserID:06/343]	[IP:10.10.11.1]	[Browser:Chrome - 51.0.2704.103]	[Action:Closing mssql connection]	[Remarks:Success]
[Date: 2016-07-07 08:43:38]	[UserID:06/343]	[IP:10.10.11.1]	[Browser:Chrome - 51.0.2704.103]	[Action:Making connection to server]	[Remarks:Successful connection to server: S3]
[Date: 2016-07-07 08:43:38]	[UserID:06/343]	[IP:10.10.11.1]	[Browser:Chrome - 51.0.2704.103]	[Action:GetGSTModules 06/343,1]	[Remarks:Successful filter row count: 5]
[Date: 2016-07-07 08:43:38]	[UserID:06/343]	[IP:10.10.11.1]	[Browser:Chrome - 51.0.2704.103]	[Action:Closing mssql connection]	[Remarks:Success]
[Date: 2016-07-07 08:44:31]	[UserID:06/343]	[IP:10.10.11.1]	[Browser:Chrome - 51.0.2704.103]	[Action:Making connection to server]	[Remarks:Successful connection to server: S3]
[Date: 2016-07-07 08:44:31]	[UserID:06/343]	[IP:10.10.11.1]	[Browser:Chrome - 51.0.2704.103]	[Action:GetGSTModules 06/343,1]	[Remarks:Successful filter row count: 5]
[Date: 2016-07-07 08:44:31]	[UserID:06/343]	[IP:10.10.11.1]	[Browser:Chrome - 51.0.2704.103]	[Action:Closing mssql connection]	[Remarks:Success]
[Date: 2016-07-07 09:12:44]	[UserID:]	[IP:10.10.11.1]	[Browser:Chrome - 51.0.2704.103]	[Action:Making connection to server]	[Remarks:Successful connection to server: S3]
[Date: 2016-07-07 09:12:45]	[UserID:]	[IP:10.10.11.1]	[Browser:Chrome - 51.0.2704.103]	[Action:GetProgramList ]	[Remarks:"no data"]
[Date: 2016-07-07 09:12:47]	[UserID:08/504]	[IP:10.10.11.1]	[Browser:Chrome - 51.0.2704.103]	[Action:Making connection to server]	[Remarks:Successful connection to server: S3]
[Date: 2016-07-07 09:12:47]	[UserID:08/504]	[IP:10.10.11.1]	[Browser:Chrome - 51.0.2704.103]	[Action:LogMeIn 08/504,760621]	[Remarks:Failed]
[Date: 2016-07-07 09:12:47]	[UserID:08/504]	[IP:10.10.11.1]	[Browser:Chrome - 51.0.2704.103]	[Action:Closing mssql connection]	[Remarks:Success]
[Date: 2016-07-07 09:12:53]	[UserID:08/504]	[IP:10.10.11.1]	[Browser:Chrome - 51.0.2704.103]	[Action:Making connection to server]	[Remarks:Successful connection to server: S3]
[Date: 2016-07-07 09:12:53]	[UserID:08/504]	[IP:10.10.11.1]	[Browser:Chrome - 51.0.2704.103]	[Action:User 08/504]	[Remarks:Success]
[Date: 2016-07-07 09:12:54]	[UserID:08/504]	[IP:10.10.11.1]	[Browser:Chrome - 51.0.2704.103]	[Action:Filtering User : MasterData Username : 08/504]	[Remarks:Successful filter row count: 0]
[Date: 2016-07-07 09:12:54]	[UserID:08/504]	[IP:10.10.11.1]	[Browser:Chrome - 51.0.2704.103]	[Action:Filtering User : MasterData Username : 08/504]	[Remarks:Successful filter row count: 0]
[Date: 2016-07-07 09:12:54]	[UserID:08/504]	[IP:10.10.11.1]	[Browser:Chrome - 51.0.2704.103]	[Action:Filtering User : MasterData Username : 08/504]	[Remarks:Success]
[Date: 2016-07-07 09:12:54]	[UserID:08/504]	[IP:10.10.11.1]	[Browser:Chrome - 51.0.2704.103]	[Action:Closing mssql connection]	[Remarks:Success]
[Date: 2016-07-07 09:12:54]	[UserID:]	[IP:10.10.11.1]	[Browser:Chrome - 51.0.2704.103]	[Action:Making connection to server]	[Remarks:Successful connection to server: S3]
[Date: 2016-07-07 09:12:54]	[UserID:]	[IP:10.10.11.1]	[Browser:Chrome - 51.0.2704.103]	[Action:GetProgramList ]	[Remarks:"no data"]
[Date: 2016-07-07 09:12:57]	[UserID:08/504]	[IP:10.10.11.1]	[Browser:Chrome - 51.0.2704.103]	[Action:Making connection to server]	[Remarks:Successful connection to server: S3]
[Date: 2016-07-07 09:12:57]	[UserID:08/504]	[IP:10.10.11.1]	[Browser:Chrome - 51.0.2704.103]	[Action:LogMeIn 08/504,760621]	[Remarks:Failed]
[Date: 2016-07-07 09:12:57]	[UserID:08/504]	[IP:10.10.11.1]	[Browser:Chrome - 51.0.2704.103]	[Action:Closing mssql connection]	[Remarks:Success]
[Date: 2016-07-07 09:13:06]	[UserID:08/504]	[IP:10.10.11.1]	[Browser:Chrome - 51.0.2704.103]	[Action:Making connection to server]	[Remarks:Successful connection to server: S3]
[Date: 2016-07-07 09:13:06]	[UserID:08/504]	[IP:10.10.11.1]	[Browser:Chrome - 51.0.2704.103]	[Action:User 08/504]	[Remarks:Success]
[Date: 2016-07-07 09:13:06]	[UserID:08/504]	[IP:10.10.11.1]	[Browser:Chrome - 51.0.2704.103]	[Action:Filtering User : MasterData Username : 08/504]	[Remarks:Successful filter row count: 0]
[Date: 2016-07-07 09:13:06]	[UserID:08/504]	[IP:10.10.11.1]	[Browser:Chrome - 51.0.2704.103]	[Action:Filtering User : MasterData Username : 08/504]	[Remarks:Successful filter row count: 0]
[Date: 2016-07-07 09:13:06]	[UserID:08/504]	[IP:10.10.11.1]	[Browser:Chrome - 51.0.2704.103]	[Action:Filtering User : MasterData Username : 08/504]	[Remarks:Success]
[Date: 2016-07-07 09:13:06]	[UserID:08/504]	[IP:10.10.11.1]	[Browser:Chrome - 51.0.2704.103]	[Action:Closing mssql connection]	[Remarks:Success]
[Date: 2016-07-07 09:13:06]	[UserID:]	[IP:10.10.11.1]	[Browser:Chrome - 51.0.2704.103]	[Action:Making connection to server]	[Remarks:Successful connection to server: S3]
[Date: 2016-07-07 09:13:07]	[UserID:]	[IP:10.10.11.1]	[Browser:Chrome - 51.0.2704.103]	[Action:GetProgramList ]	[Remarks:"no data"]
[Date: 2016-07-07 09:13:15]	[UserID:08/504]	[IP:10.10.11.1]	[Browser:Chrome - 51.0.2704.103]	[Action:Making connection to server]	[Remarks:Successful connection to server: S3]
[Date: 2016-07-07 09:13:15]	[UserID:08/504]	[IP:10.10.11.1]	[Browser:Chrome - 51.0.2704.103]	[Action:User 08/504]	[Remarks:Success]
[Date: 2016-07-07 09:13:15]	[UserID:08/504]	[IP:10.10.11.1]	[Browser:Chrome - 51.0.2704.103]	[Action:Filtering User : MasterData Username : 08/504]	[Remarks:Successful filter row count: 0]
[Date: 2016-07-07 09:13:15]	[UserID:08/504]	[IP:10.10.11.1]	[Browser:Chrome - 51.0.2704.103]	[Action:Filtering User : MasterData Username : 08/504]	[Remarks:Successful filter row count: 0]
[Date: 2016-07-07 09:13:15]	[UserID:08/504]	[IP:10.10.11.1]	[Browser:Chrome - 51.0.2704.103]	[Action:Filtering User : MasterData Username : 08/504]	[Remarks:Success]
[Date: 2016-07-07 09:13:15]	[UserID:08/504]	[IP:10.10.11.1]	[Browser:Chrome - 51.0.2704.103]	[Action:Closing mssql connection]	[Remarks:Success]
[Date: 2016-07-07 09:13:15]	[UserID:08/504]	[IP:10.10.11.1]	[Browser:Chrome - 51.0.2704.103]	[Action:Making connection to server]	[Remarks:Successful connection to server: S3]
[Date: 2016-07-07 09:13:15]	[UserID:08/504]	[IP:10.10.11.1]	[Browser:Chrome - 51.0.2704.103]	[Action:GetProgramList 08/504]	[Remarks:[{"ID":"1","ProgramIndex":"GST","ProgramName":"GST"}]]
[Date: 2016-07-07 09:13:15]	[UserID:08/504]	[IP:10.10.11.1]	[Browser:Chrome - 51.0.2704.103]	[Action:Making connection to server]	[Remarks:Successful connection to server: S3]
[Date: 2016-07-07 09:13:15]	[UserID:08/504]	[IP:10.10.11.1]	[Browser:Chrome - 51.0.2704.103]	[Action:GetProgramList 08/504]	[Remarks:[{"ID":"1","ProgramIndex":"GST","ProgramName":"GST"}]]
[Date: 2016-07-07 09:13:15]	[UserID:08/504]	[IP:10.10.11.1]	[Browser:Chrome - 51.0.2704.103]	[Action:Making connection to server]	[Remarks:Successful connection to server: S3]
[Date: 2016-07-07 09:13:15]	[UserID:08/504]	[IP:10.10.11.1]	[Browser:Chrome - 51.0.2704.103]	[Action:Filtering User : MasterData Username : 08/504]	[Remarks:Successful filter row count: 1]
[Date: 2016-07-07 09:13:16]	[UserID:08/504]	[IP:10.10.11.1]	[Browser:Chrome - 51.0.2704.103]	[Action:Making connection to server]	[Remarks:Successful connection to server: S3]
[Date: 2016-07-07 09:13:16]	[UserID:08/504]	[IP:10.10.11.1]	[Browser:Chrome - 51.0.2704.103]	[Action:GetGSTModules 08/504,1]	[Remarks:Successful filter row count: 5]
[Date: 2016-07-07 09:13:16]	[UserID:08/504]	[IP:10.10.11.1]	[Browser:Chrome - 51.0.2704.103]	[Action:Closing mssql connection]	[Remarks:Success]
[Date: 2016-07-07 09:22:04]	[UserID:08/504]	[IP:10.10.11.1]	[Browser:Chrome - 51.0.2704.103]	[Action:Making connection to server]	[Remarks:Successful connection to server: S3]
[Date: 2016-07-07 09:22:04]	[UserID:08/504]	[IP:10.10.11.1]	[Browser:Chrome - 51.0.2704.103]	[Action:GetGSTModules 08/504,1]	[Remarks:Successful filter row count: 5]
[Date: 2016-07-07 09:22:04]	[UserID:08/504]	[IP:10.10.11.1]	[Browser:Chrome - 51.0.2704.103]	[Action:Closing mssql connection]	[Remarks:Success]
[Date: 2016-07-07 09:27:33]	[UserID:08/504]	[IP:10.10.11.1]	[Browser:Chrome - 51.0.2704.103]	[Action:Making connection to server]	[Remarks:Successful connection to server: S3]
[Date: 2016-07-07 09:27:33]	[UserID:08/504]	[IP:10.10.11.1]	[Browser:Chrome - 51.0.2704.103]	[Action:GetGSTModules 08/504,1]	[Remarks:Successful filter row count: 5]
[Date: 2016-07-07 09:27:33]	[UserID:08/504]	[IP:10.10.11.1]	[Browser:Chrome - 51.0.2704.103]	[Action:Closing mssql connection]	[Remarks:Success]
[Date: 2016-07-07 09:34:21]	[UserID:08/504]	[IP:10.10.11.1]	[Browser:Chrome - 51.0.2704.103]	[Action:Making connection to server]	[Remarks:Successful connection to server: S3]
[Date: 2016-07-07 09:34:21]	[UserID:08/504]	[IP:10.10.11.1]	[Browser:Chrome - 51.0.2704.103]	[Action:GetGSTModules 08/504,1]	[Remarks:Successful filter row count: 5]
[Date: 2016-07-07 09:34:21]	[UserID:08/504]	[IP:10.10.11.1]	[Browser:Chrome - 51.0.2704.103]	[Action:Closing mssql connection]	[Remarks:Success]
[Date: 2016-07-07 09:37:19]	[UserID:08/504]	[IP:10.10.11.1]	[Browser:Chrome - 51.0.2704.103]	[Action:Making connection to server]	[Remarks:Successful connection to server: S3]
[Date: 2016-07-07 09:37:19]	[UserID:08/504]	[IP:10.10.11.1]	[Browser:Chrome - 51.0.2704.103]	[Action:GetGSTModules 08/504,1]	[Remarks:Successful filter row count: 5]
[Date: 2016-07-07 09:37:19]	[UserID:08/504]	[IP:10.10.11.1]	[Browser:Chrome - 51.0.2704.103]	[Action:Closing mssql connection]	[Remarks:Success]
[Date: 2016-07-07 09:41:03]	[UserID:08/504]	[IP:10.10.11.1]	[Browser:Chrome - 51.0.2704.103]	[Action:Making connection to server]	[Remarks:Successful connection to server: S3]
[Date: 2016-07-07 09:41:03]	[UserID:08/504]	[IP:10.10.11.1]	[Browser:Chrome - 51.0.2704.103]	[Action:GetGSTModules 08/504,1]	[Remarks:Successful filter row count: 5]
[Date: 2016-07-07 09:41:03]	[UserID:08/504]	[IP:10.10.11.1]	[Browser:Chrome - 51.0.2704.103]	[Action:Closing mssql connection]	[Remarks:Success]
[Date: 2016-07-07 09:46:51]	[UserID:08/504]	[IP:10.10.11.1]	[Browser:Chrome - 51.0.2704.103]	[Action:Making connection to server]	[Remarks:Successful connection to server: S3]
[Date: 2016-07-07 09:46:51]	[UserID:08/504]	[IP:10.10.11.1]	[Browser:Chrome - 51.0.2704.103]	[Action:GetGSTModules 08/504,1]	[Remarks:Successful filter row count: 5]
[Date: 2016-07-07 09:46:51]	[UserID:08/504]	[IP:10.10.11.1]	[Browser:Chrome - 51.0.2704.103]	[Action:Closing mssql connection]	[Remarks:Success]
[Date: 2016-07-07 09:48:45]	[UserID:08/504]	[IP:10.10.11.1]	[Browser:Chrome - 51.0.2704.103]	[Action:Making connection to server]	[Remarks:Successful connection to server: S3]
[Date: 2016-07-07 09:48:45]	[UserID:08/504]	[IP:10.10.11.1]	[Browser:Chrome - 51.0.2704.103]	[Action:GetGSTModules 08/504,1]	[Remarks:Successful filter row count: 5]
[Date: 2016-07-07 09:48:45]	[UserID:08/504]	[IP:10.10.11.1]	[Browser:Chrome - 51.0.2704.103]	[Action:Closing mssql connection]	[Remarks:Success]
[Date: 2016-07-07 09:51:02]	[UserID:08/504]	[IP:10.10.11.1]	[Browser:Chrome - 51.0.2704.103]	[Action:Making connection to server]	[Remarks:Successful connection to server: S3]
[Date: 2016-07-07 09:51:02]	[UserID:08/504]	[IP:10.10.11.1]	[Browser:Chrome - 51.0.2704.103]	[Action:GetGSTModules 08/504,1]	[Remarks:Successful filter row count: 5]
[Date: 2016-07-07 09:51:02]	[UserID:08/504]	[IP:10.10.11.1]	[Browser:Chrome - 51.0.2704.103]	[Action:Closing mssql connection]	[Remarks:Success]
[Date: 2016-07-07 10:14:01]	[UserID:]	[IP:10.10.11.1]	[Browser:Chrome - 51.0.2704.103]	[Action:Making connection to server]	[Remarks:Successful connection to server: S3]
[Date: 2016-07-07 10:14:01]	[UserID:]	[IP:10.10.11.1]	[Browser:Chrome - 51.0.2704.103]	[Action:GetProgramList ]	[Remarks:"no data"]
[Date: 2016-07-07 10:14:04]	[UserID:10/660]	[IP:10.10.11.1]	[Browser:Chrome - 51.0.2704.103]	[Action:Making connection to server]	[Remarks:Successful connection to server: S3]
[Date: 2016-07-07 10:14:04]	[UserID:10/660]	[IP:10.10.11.1]	[Browser:Chrome - 51.0.2704.103]	[Action:User 10/660]	[Remarks:Success]
[Date: 2016-07-07 10:14:04]	[UserID:10/660]	[IP:10.10.11.1]	[Browser:Chrome - 51.0.2704.103]	[Action:Filtering User : MasterData Username : 10/660]	[Remarks:Successful filter row count: 0]
[Date: 2016-07-07 10:14:04]	[UserID:10/660]	[IP:10.10.11.1]	[Browser:Chrome - 51.0.2704.103]	[Action:Filtering User : MasterData Username : 10/660]	[Remarks:Successful filter row count: 0]
[Date: 2016-07-07 10:14:04]	[UserID:10/660]	[IP:10.10.11.1]	[Browser:Chrome - 51.0.2704.103]	[Action:Filtering User : MasterData Username : 10/660]	[Remarks:Success]
[Date: 2016-07-07 10:14:04]	[UserID:10/660]	[IP:10.10.11.1]	[Browser:Chrome - 51.0.2704.103]	[Action:Closing mssql connection]	[Remarks:Success]
[Date: 2016-07-07 10:14:04]	[UserID:10/660]	[IP:10.10.11.1]	[Browser:Chrome - 51.0.2704.103]	[Action:Making connection to server]	[Remarks:Successful connection to server: S3]
[Date: 2016-07-07 10:14:04]	[UserID:10/660]	[IP:10.10.11.1]	[Browser:Chrome - 51.0.2704.103]	[Action:GetProgramList 10/660]	[Remarks:[{"ID":"1","ProgramIndex":"GST","ProgramName":"GST"}]]
[Date: 2016-07-07 10:14:04]	[UserID:10/660]	[IP:10.10.11.1]	[Browser:Chrome - 51.0.2704.103]	[Action:Making connection to server]	[Remarks:Successful connection to server: S3]
[Date: 2016-07-07 10:14:04]	[UserID:10/660]	[IP:10.10.11.1]	[Browser:Chrome - 51.0.2704.103]	[Action:GetProgramList 10/660]	[Remarks:[{"ID":"1","ProgramIndex":"GST","ProgramName":"GST"}]]
[Date: 2016-07-07 10:14:04]	[UserID:10/660]	[IP:10.10.11.1]	[Browser:Chrome - 51.0.2704.103]	[Action:Making connection to server]	[Remarks:Successful connection to server: S3]
[Date: 2016-07-07 10:14:04]	[UserID:10/660]	[IP:10.10.11.1]	[Browser:Chrome - 51.0.2704.103]	[Action:Filtering User : MasterData Username : 10/660]	[Remarks:Successful filter row count: 1]
[Date: 2016-07-07 10:14:05]	[UserID:10/660]	[IP:10.10.11.1]	[Browser:Chrome - 51.0.2704.103]	[Action:Making connection to server]	[Remarks:Successful connection to server: S3]
[Date: 2016-07-07 10:14:05]	[UserID:10/660]	[IP:10.10.11.1]	[Browser:Chrome - 51.0.2704.103]	[Action:GetGSTModules 10/660,1]	[Remarks:Successful filter row count: 3]
[Date: 2016-07-07 10:14:05]	[UserID:10/660]	[IP:10.10.11.1]	[Browser:Chrome - 51.0.2704.103]	[Action:Closing mssql connection]	[Remarks:Success]
[Date: 2016-07-07 10:18:49]	[UserID:10/660]	[IP:10.10.11.1]	[Browser:Chrome - 51.0.2704.103]	[Action:Making connection to server]	[Remarks:Successful connection to server: S3]
[Date: 2016-07-07 10:18:49]	[UserID:10/660]	[IP:10.10.11.1]	[Browser:Chrome - 51.0.2704.103]	[Action:GetGSTModules 10/660,1]	[Remarks:Successful filter row count: 3]
[Date: 2016-07-07 10:18:49]	[UserID:10/660]	[IP:10.10.11.1]	[Browser:Chrome - 51.0.2704.103]	[Action:Closing mssql connection]	[Remarks:Success]
[Date: 2016-07-07 10:18:54]	[UserID:10/660]	[IP:10.10.11.1]	[Browser:Chrome - 51.0.2704.103]	[Action:Making connection to server]	[Remarks:Successful connection to server: S3]
[Date: 2016-07-07 10:18:54]	[UserID:10/660]	[IP:10.10.11.1]	[Browser:Chrome - 51.0.2704.103]	[Action:GetGSTModules 10/660,1]	[Remarks:Successful filter row count: 3]
[Date: 2016-07-07 10:18:54]	[UserID:10/660]	[IP:10.10.11.1]	[Browser:Chrome - 51.0.2704.103]	[Action:Closing mssql connection]	[Remarks:Success]
[Date: 2016-07-07 10:29:22]	[UserID:10/660]	[IP:10.10.11.1]	[Browser:Chrome - 51.0.2704.103]	[Action:Making connection to server]	[Remarks:Successful connection to server: S3]
[Date: 2016-07-07 10:29:22]	[UserID:10/660]	[IP:10.10.11.1]	[Browser:Chrome - 51.0.2704.103]	[Action:GetGSTModules 10/660,1]	[Remarks:Successful filter row count: 3]
[Date: 2016-07-07 10:29:22]	[UserID:10/660]	[IP:10.10.11.1]	[Browser:Chrome - 51.0.2704.103]	[Action:Closing mssql connection]	[Remarks:Success]
[Date: 2016-07-07 10:29:44]	[UserID:]	[IP:10.10.11.1]	[Browser:Chrome - 51.0.2704.103]	[Action:Making connection to server]	[Remarks:Successful connection to server: S3]
[Date: 2016-07-07 10:29:44]	[UserID:]	[IP:10.10.11.1]	[Browser:Chrome - 51.0.2704.103]	[Action:GetProgramList ]	[Remarks:"no data"]
[Date: 2016-07-07 10:45:30]	[UserID:]	[IP:10.10.11.1]	[Browser:Chrome - 51.0.2704.103]	[Action:Making connection to server]	[Remarks:Successful connection to server: S3]
[Date: 2016-07-07 10:45:31]	[UserID:]	[IP:10.10.11.1]	[Browser:Chrome - 51.0.2704.103]	[Action:GetProgramList ]	[Remarks:"no data"]
[Date: 2016-07-07 10:45:38]	[UserID:14/1082]	[IP:10.10.11.1]	[Browser:Chrome - 51.0.2704.103]	[Action:Making connection to server]	[Remarks:Successful connection to server: S3]
[Date: 2016-07-07 10:45:38]	[UserID:14/1082]	[IP:10.10.11.1]	[Browser:Chrome - 51.0.2704.103]	[Action:User 14/1082]	[Remarks:Success]
[Date: 2016-07-07 10:45:38]	[UserID:14/1082]	[IP:10.10.11.1]	[Browser:Chrome - 51.0.2704.103]	[Action:Filtering User : MasterData Username : 14/1082]	[Remarks:Successful filter row count: 0]
[Date: 2016-07-07 10:45:38]	[UserID:14/1082]	[IP:10.10.11.1]	[Browser:Chrome - 51.0.2704.103]	[Action:Filtering User : MasterData Username : 14/1082]	[Remarks:Successful filter row count: 0]
[Date: 2016-07-07 10:45:38]	[UserID:14/1082]	[IP:10.10.11.1]	[Browser:Chrome - 51.0.2704.103]	[Action:Filtering User : MasterData Username : 14/1082]	[Remarks:Success]
[Date: 2016-07-07 10:45:38]	[UserID:14/1082]	[IP:10.10.11.1]	[Browser:Chrome - 51.0.2704.103]	[Action:Closing mssql connection]	[Remarks:Success]
[Date: 2016-07-07 10:45:38]	[UserID:14/1082]	[IP:10.10.11.1]	[Browser:Chrome - 51.0.2704.103]	[Action:Making connection to server]	[Remarks:Successful connection to server: S3]
[Date: 2016-07-07 10:45:38]	[UserID:14/1082]	[IP:10.10.11.1]	[Browser:Chrome - 51.0.2704.103]	[Action:GetProgramList 14/1082]	[Remarks:[{"ID":"1","ProgramIndex":"GST","ProgramName":"GST"}]]
[Date: 2016-07-07 10:45:38]	[UserID:14/1082]	[IP:10.10.11.1]	[Browser:Chrome - 51.0.2704.103]	[Action:Making connection to server]	[Remarks:Successful connection to server: S3]
[Date: 2016-07-07 10:45:38]	[UserID:14/1082]	[IP:10.10.11.1]	[Browser:Chrome - 51.0.2704.103]	[Action:GetProgramList 14/1082]	[Remarks:[{"ID":"1","ProgramIndex":"GST","ProgramName":"GST"}]]
[Date: 2016-07-07 10:45:38]	[UserID:14/1082]	[IP:10.10.11.1]	[Browser:Chrome - 51.0.2704.103]	[Action:Making connection to server]	[Remarks:Successful connection to server: S3]
[Date: 2016-07-07 10:45:38]	[UserID:14/1082]	[IP:10.10.11.1]	[Browser:Chrome - 51.0.2704.103]	[Action:Filtering User : MasterData Username : 14/1082]	[Remarks:Successful filter row count: 1]
[Date: 2016-07-07 10:45:38]	[UserID:14/1082]	[IP:10.10.11.1]	[Browser:Chrome - 51.0.2704.103]	[Action:Making connection to server]	[Remarks:Successful connection to server: S3]
[Date: 2016-07-07 10:45:39]	[UserID:14/1082]	[IP:10.10.11.1]	[Browser:Chrome - 51.0.2704.103]	[Action:GetGSTModules 14/1082,1]	[Remarks:Successful filter row count: 7]
[Date: 2016-07-07 10:45:39]	[UserID:14/1082]	[IP:10.10.11.1]	[Browser:Chrome - 51.0.2704.103]	[Action:Closing mssql connection]	[Remarks:Success]
[Date: 2016-07-07 11:03:04]	[UserID:14/1082]	[IP:10.10.11.1]	[Browser:Chrome - 51.0.2704.103]	[Action:Making connection to server]	[Remarks:Successful connection to server: S3]
[Date: 2016-07-07 11:03:05]	[UserID:14/1082]	[IP:10.10.11.1]	[Browser:Chrome - 51.0.2704.103]	[Action:GetGSTModules 14/1082,1]	[Remarks:Successful filter row count: 7]
[Date: 2016-07-07 11:03:05]	[UserID:14/1082]	[IP:10.10.11.1]	[Browser:Chrome - 51.0.2704.103]	[Action:Closing mssql connection]	[Remarks:Success]
[Date: 2016-07-07 11:05:05]	[UserID:14/1082]	[IP:10.10.11.1]	[Browser:Chrome - 51.0.2704.103]	[Action:Making connection to server]	[Remarks:Successful connection to server: S3]
[Date: 2016-07-07 11:05:05]	[UserID:14/1082]	[IP:10.10.11.1]	[Browser:Chrome - 51.0.2704.103]	[Action:GetGSTModules 14/1082,1]	[Remarks:Successful filter row count: 7]
[Date: 2016-07-07 11:05:05]	[UserID:14/1082]	[IP:10.10.11.1]	[Browser:Chrome - 51.0.2704.103]	[Action:Closing mssql connection]	[Remarks:Success]
[Date: 2016-07-07 11:18:43]	[UserID:]	[IP:10.10.11.1]	[Browser:Chrome - 51.0.2704.103]	[Action:Making connection to server]	[Remarks:Successful connection to server: S3]
[Date: 2016-07-07 11:18:43]	[UserID:]	[IP:10.10.11.1]	[Browser:Chrome - 51.0.2704.103]	[Action:GetProgramList ]	[Remarks:"no data"]
[Date: 2016-07-07 11:39:37]	[UserID:08/504]	[IP:10.10.11.1]	[Browser:Chrome - 51.0.2704.103]	[Action:Making connection to server]	[Remarks:Successful connection to server: S3]
[Date: 2016-07-07 11:39:39]	[UserID:08/504]	[IP:10.10.11.1]	[Browser:Chrome - 51.0.2704.103]	[Action:GetProgramList 08/504]	[Remarks:[{"ID":"1","ProgramIndex":"GST","ProgramName":"GST"}]]
[Date: 2016-07-07 11:39:39]	[UserID:08/504]	[IP:10.10.11.1]	[Browser:Chrome - 51.0.2704.103]	[Action:Making connection to server]	[Remarks:Successful connection to server: S3]
[Date: 2016-07-07 11:39:39]	[UserID:08/504]	[IP:10.10.11.1]	[Browser:Chrome - 51.0.2704.103]	[Action:GetProgramList 08/504]	[Remarks:[{"ID":"1","ProgramIndex":"GST","ProgramName":"GST"}]]
[Date: 2016-07-07 11:39:39]	[UserID:08/504]	[IP:10.10.11.1]	[Browser:Chrome - 51.0.2704.103]	[Action:Making connection to server]	[Remarks:Successful connection to server: S3]
[Date: 2016-07-07 11:39:39]	[UserID:08/504]	[IP:10.10.11.1]	[Browser:Chrome - 51.0.2704.103]	[Action:Filtering User : MasterData Username : 08/504]	[Remarks:Successful filter row count: 1]
[Date: 2016-07-07 11:39:41]	[UserID:08/504]	[IP:10.10.11.1]	[Browser:Chrome - 51.0.2704.103]	[Action:Making connection to server]	[Remarks:Successful connection to server: S3]
[Date: 2016-07-07 11:39:47]	[UserID:08/504]	[IP:10.10.11.1]	[Browser:Chrome - 51.0.2704.103]	[Action:GetGSTModules 08/504,1]	[Remarks:Successful filter row count: 5]
[Date: 2016-07-07 11:39:47]	[UserID:08/504]	[IP:10.10.11.1]	[Browser:Chrome - 51.0.2704.103]	[Action:Closing mssql connection]	[Remarks:Success]
[Date: 2016-07-07 14:08:04]	[UserID:10/660]	[IP:10.10.11.1]	[Browser:Chrome - 51.0.2704.103]	[Action:Making connection to server]	[Remarks:Successful connection to server: S3]
[Date: 2016-07-07 14:08:05]	[UserID:10/660]	[IP:10.10.11.1]	[Browser:Chrome - 51.0.2704.103]	[Action:User 10/660]	[Remarks:Success]
[Date: 2016-07-07 14:08:05]	[UserID:10/660]	[IP:10.10.11.1]	[Browser:Chrome - 51.0.2704.103]	[Action:Filtering User : MasterData Username : 10/660]	[Remarks:Successful filter row count: 0]
[Date: 2016-07-07 14:08:05]	[UserID:10/660]	[IP:10.10.11.1]	[Browser:Chrome - 51.0.2704.103]	[Action:Filtering User : MasterData Username : 10/660]	[Remarks:Successful filter row count: 0]
[Date: 2016-07-07 14:08:05]	[UserID:10/660]	[IP:10.10.11.1]	[Browser:Chrome - 51.0.2704.103]	[Action:Filtering User : MasterData Username : 10/660]	[Remarks:Success]
[Date: 2016-07-07 14:08:05]	[UserID:10/660]	[IP:10.10.11.1]	[Browser:Chrome - 51.0.2704.103]	[Action:Closing mssql connection]	[Remarks:Success]
[Date: 2016-07-07 14:08:05]	[UserID:10/660]	[IP:10.10.11.1]	[Browser:Chrome - 51.0.2704.103]	[Action:Making connection to server]	[Remarks:Successful connection to server: S3]
[Date: 2016-07-07 14:08:06]	[UserID:10/660]	[IP:10.10.11.1]	[Browser:Chrome - 51.0.2704.103]	[Action:GetProgramList 10/660]	[Remarks:[{"ID":"1","ProgramIndex":"GST","ProgramName":"GST"}]]
[Date: 2016-07-07 14:08:06]	[UserID:10/660]	[IP:10.10.11.1]	[Browser:Chrome - 51.0.2704.103]	[Action:Making connection to server]	[Remarks:Successful connection to server: S3]
[Date: 2016-07-07 14:08:06]	[UserID:10/660]	[IP:10.10.11.1]	[Browser:Chrome - 51.0.2704.103]	[Action:GetProgramList 10/660]	[Remarks:[{"ID":"1","ProgramIndex":"GST","ProgramName":"GST"}]]
[Date: 2016-07-07 14:08:06]	[UserID:10/660]	[IP:10.10.11.1]	[Browser:Chrome - 51.0.2704.103]	[Action:Making connection to server]	[Remarks:Successful connection to server: S3]
[Date: 2016-07-07 14:08:06]	[UserID:10/660]	[IP:10.10.11.1]	[Browser:Chrome - 51.0.2704.103]	[Action:Filtering User : MasterData Username : 10/660]	[Remarks:Successful filter row count: 1]
[Date: 2016-07-07 14:08:07]	[UserID:10/660]	[IP:10.10.11.1]	[Browser:Chrome - 51.0.2704.103]	[Action:Making connection to server]	[Remarks:Successful connection to server: S3]
[Date: 2016-07-07 14:08:07]	[UserID:10/660]	[IP:10.10.11.1]	[Browser:Chrome - 51.0.2704.103]	[Action:GetGSTModules 10/660,1]	[Remarks:Successful filter row count: 3]
[Date: 2016-07-07 14:08:07]	[UserID:10/660]	[IP:10.10.11.1]	[Browser:Chrome - 51.0.2704.103]	[Action:Closing mssql connection]	[Remarks:Success]
[Date: 2016-07-07 14:10:56]	[UserID:10/660]	[IP:10.10.11.1]	[Browser:Chrome - 51.0.2704.103]	[Action:Making connection to server]	[Remarks:Successful connection to server: S3]
[Date: 2016-07-07 14:10:56]	[UserID:10/660]	[IP:10.10.11.1]	[Browser:Chrome - 51.0.2704.103]	[Action:GetGSTModules 10/660,1]	[Remarks:Successful filter row count: 3]
[Date: 2016-07-07 14:10:56]	[UserID:10/660]	[IP:10.10.11.1]	[Browser:Chrome - 51.0.2704.103]	[Action:Closing mssql connection]	[Remarks:Success]
[Date: 2016-07-07 14:14:48]	[UserID:]	[IP:10.10.11.1]	[Browser:Chrome - 51.0.2704.103]	[Action:Making connection to server]	[Remarks:Successful connection to server: S3]
[Date: 2016-07-07 14:14:48]	[UserID:]	[IP:10.10.11.1]	[Browser:Chrome - 51.0.2704.103]	[Action:GetProgramList ]	[Remarks:"no data"]
