[Date: 2015-10-20 07:57:31]	[UserID:]	[IP:10.10.11.1]	[Browser:Chrome - 46.0.2490.71]	[Action:Making connection to server]	[Remarks:Successful connection to server: S3]
[Date: 2015-10-20 07:57:31]	[UserID:]	[IP:10.10.11.1]	[Browser:Chrome - 46.0.2490.71]	[Action:GetProgramList ]	[Remarks:"no data"]
[Date: 2015-10-20 07:57:31]	[UserID:]	[IP:10.10.11.1]	[Browser:Chrome - 46.0.2490.71]	[Action:Making connection to server]	[Remarks:Successful connection to server: S3]
[Date: 2015-10-20 07:57:31]	[UserID:]	[IP:10.10.11.1]	[Browser:Chrome - 46.0.2490.71]	[Action:GetProgramList ]	[Remarks:"no data"]
[Date: 2015-10-20 07:57:38]	[UserID:06/343]	[IP:10.10.11.1]	[Browser:Chrome - 46.0.2490.71]	[Action:Making connection to server]	[Remarks:Successful connection to server: S3]
[Date: 2015-10-20 07:57:38]	[UserID:06/343]	[IP:10.10.11.1]	[Browser:Chrome - 46.0.2490.71]	[Action:User 06/343]	[Remarks:Success]
[Date: 2015-10-20 07:57:38]	[UserID:06/343]	[IP:10.10.11.1]	[Browser:Chrome - 46.0.2490.71]	[Action:Filtering User : MasterData Username : 06/343]	[Remarks:Successful filter row count: 0]
[Date: 2015-10-20 07:57:38]	[UserID:06/343]	[IP:10.10.11.1]	[Browser:Chrome - 46.0.2490.71]	[Action:Filtering User : MasterData Username : 06/343]	[Remarks:Successful filter row count: 0]
[Date: 2015-10-20 07:57:38]	[UserID:06/343]	[IP:10.10.11.1]	[Browser:Chrome - 46.0.2490.71]	[Action:Filtering User : MasterData Username : 06/343]	[Remarks:Success]
[Date: 2015-10-20 07:57:38]	[UserID:06/343]	[IP:10.10.11.1]	[Browser:Chrome - 46.0.2490.71]	[Action:Closing mssql connection]	[Remarks:Success]
[Date: 2015-10-20 07:57:39]	[UserID:06/343]	[IP:10.10.11.1]	[Browser:Chrome - 46.0.2490.71]	[Action:Making connection to server]	[Remarks:Successful connection to server: S3]
[Date: 2015-10-20 07:57:39]	[UserID:06/343]	[IP:10.10.11.1]	[Browser:Chrome - 46.0.2490.71]	[Action:GetProgramList 06/343]	[Remarks:[{"ID":"1","ProgramIndex":"GST","ProgramName":"GST"}]]
[Date: 2015-10-20 07:57:39]	[UserID:06/343]	[IP:10.10.11.1]	[Browser:Chrome - 46.0.2490.71]	[Action:Making connection to server]	[Remarks:Successful connection to server: S3]
[Date: 2015-10-20 07:57:39]	[UserID:06/343]	[IP:10.10.11.1]	[Browser:Chrome - 46.0.2490.71]	[Action:GetProgramList 06/343]	[Remarks:[{"ID":"1","ProgramIndex":"GST","ProgramName":"GST"}]]
[Date: 2015-10-20 07:57:39]	[UserID:06/343]	[IP:10.10.11.1]	[Browser:Chrome - 46.0.2490.71]	[Action:Making connection to server]	[Remarks:Successful connection to server: S3]
[Date: 2015-10-20 07:57:39]	[UserID:06/343]	[IP:10.10.11.1]	[Browser:Chrome - 46.0.2490.71]	[Action:Filtering User : MasterData Username : 06/343]	[Remarks:Successful filter row count: 1]
[Date: 2015-10-20 07:57:39]	[UserID:06/343]	[IP:10.10.11.1]	[Browser:Chrome - 46.0.2490.71]	[Action:Making connection to server]	[Remarks:Successful connection to server: S3]
[Date: 2015-10-20 07:57:39]	[UserID:06/343]	[IP:10.10.11.1]	[Browser:Chrome - 46.0.2490.71]	[Action:GetGSTModules 06/343,1]	[Remarks:Successful filter row count: 5]
[Date: 2015-10-20 07:57:39]	[UserID:06/343]	[IP:10.10.11.1]	[Browser:Chrome - 46.0.2490.71]	[Action:Closing mssql connection]	[Remarks:Success]
[Date: 2015-10-20 08:04:04]	[UserID:06/343]	[IP:10.10.11.1]	[Browser:Chrome - 46.0.2490.71]	[Action:Making connection to server]	[Remarks:Successful connection to server: S3]
[Date: 2015-10-20 08:04:05]	[UserID:06/343]	[IP:10.10.11.1]	[Browser:Chrome - 46.0.2490.71]	[Action:GetGSTModules 06/343,1]	[Remarks:Successful filter row count: 5]
[Date: 2015-10-20 08:04:05]	[UserID:06/343]	[IP:10.10.11.1]	[Browser:Chrome - 46.0.2490.71]	[Action:Closing mssql connection]	[Remarks:Success]
[Date: 2015-10-20 08:05:18]	[UserID:06/343]	[IP:10.10.11.1]	[Browser:Chrome - 46.0.2490.71]	[Action:Making connection to server]	[Remarks:Successful connection to server: S3]
[Date: 2015-10-20 08:05:18]	[UserID:06/343]	[IP:10.10.11.1]	[Browser:Chrome - 46.0.2490.71]	[Action:GetGSTModules 06/343,1]	[Remarks:Successful filter row count: 5]
[Date: 2015-10-20 08:05:18]	[UserID:06/343]	[IP:10.10.11.1]	[Browser:Chrome - 46.0.2490.71]	[Action:Closing mssql connection]	[Remarks:Success]
[Date: 2015-10-20 08:53:36]	[UserID:06/343]	[IP:10.10.11.1]	[Browser:Chrome - 46.0.2490.71]	[Action:Making connection to server]	[Remarks:Successful connection to server: S3]
[Date: 2015-10-20 08:53:36]	[UserID:06/343]	[IP:10.10.11.1]	[Browser:Chrome - 46.0.2490.71]	[Action:GetGSTModules 06/343,1]	[Remarks:Successful filter row count: 5]
[Date: 2015-10-20 08:53:36]	[UserID:06/343]	[IP:10.10.11.1]	[Browser:Chrome - 46.0.2490.71]	[Action:Closing mssql connection]	[Remarks:Success]
[Date: 2015-10-20 08:54:21]	[UserID:06/343]	[IP:10.10.11.1]	[Browser:Chrome - 46.0.2490.71]	[Action:Making connection to server]	[Remarks:Successful connection to server: S3]
[Date: 2015-10-20 08:54:21]	[UserID:06/343]	[IP:10.10.11.1]	[Browser:Chrome - 46.0.2490.71]	[Action:GetProgramList 06/343]	[Remarks:[{"ID":"1","ProgramIndex":"GST","ProgramName":"GST"}]]
[Date: 2015-10-20 08:54:27]	[UserID:06/343]	[IP:10.10.11.1]	[Browser:Chrome - 46.0.2490.71]	[Action:Making connection to server]	[Remarks:Successful connection to server: S3]
[Date: 2015-10-20 08:54:27]	[UserID:06/343]	[IP:10.10.11.1]	[Browser:Chrome - 46.0.2490.71]	[Action:GetProgramList 06/343]	[Remarks:[{"ID":"1","ProgramIndex":"GST","ProgramName":"GST"}]]
[Date: 2015-10-20 08:54:27]	[UserID:06/343]	[IP:10.10.11.1]	[Browser:Chrome - 46.0.2490.71]	[Action:Making connection to server]	[Remarks:Successful connection to server: S3]
[Date: 2015-10-20 08:54:27]	[UserID:06/343]	[IP:10.10.11.1]	[Browser:Chrome - 46.0.2490.71]	[Action:Filtering User : MasterData Username : 06/343]	[Remarks:Successful filter row count: 1]
[Date: 2015-10-20 08:54:34]	[UserID:06/343]	[IP:10.10.11.1]	[Browser:Chrome - 46.0.2490.71]	[Action:Making connection to server]	[Remarks:Successful connection to server: S3]
[Date: 2015-10-20 08:54:34]	[UserID:06/343]	[IP:10.10.11.1]	[Browser:Chrome - 46.0.2490.71]	[Action:GetGSTModules 06/343,1]	[Remarks:Successful filter row count: 5]
[Date: 2015-10-20 08:54:34]	[UserID:06/343]	[IP:10.10.11.1]	[Browser:Chrome - 46.0.2490.71]	[Action:Closing mssql connection]	[Remarks:Success]
[Date: 2015-10-20 09:41:38]	[UserID:]	[IP:10.10.11.1]	[Browser:Chrome - 46.0.2490.71]	[Action:Making connection to server]	[Remarks:Successful connection to server: S3]
[Date: 2015-10-20 09:41:38]	[UserID:]	[IP:10.10.11.1]	[Browser:Chrome - 46.0.2490.71]	[Action:GetProgramList ]	[Remarks:"no data"]
[Date: 2015-10-20 09:41:40]	[UserID:10/660]	[IP:10.10.11.1]	[Browser:Chrome - 46.0.2490.71]	[Action:Making connection to server]	[Remarks:Successful connection to server: S3]
[Date: 2015-10-20 09:41:40]	[UserID:10/660]	[IP:10.10.11.1]	[Browser:Chrome - 46.0.2490.71]	[Action:User 10/660]	[Remarks:Success]
[Date: 2015-10-20 09:41:40]	[UserID:10/660]	[IP:10.10.11.1]	[Browser:Chrome - 46.0.2490.71]	[Action:Filtering User : MasterData Username : 10/660]	[Remarks:Successful filter row count: 0]
[Date: 2015-10-20 09:41:40]	[UserID:10/660]	[IP:10.10.11.1]	[Browser:Chrome - 46.0.2490.71]	[Action:Filtering User : MasterData Username : 10/660]	[Remarks:Successful filter row count: 0]
[Date: 2015-10-20 09:41:40]	[UserID:10/660]	[IP:10.10.11.1]	[Browser:Chrome - 46.0.2490.71]	[Action:Filtering User : MasterData Username : 10/660]	[Remarks:Success]
[Date: 2015-10-20 09:41:40]	[UserID:10/660]	[IP:10.10.11.1]	[Browser:Chrome - 46.0.2490.71]	[Action:Closing mssql connection]	[Remarks:Success]
[Date: 2015-10-20 09:41:40]	[UserID:10/660]	[IP:10.10.11.1]	[Browser:Chrome - 46.0.2490.71]	[Action:Making connection to server]	[Remarks:Successful connection to server: S3]
[Date: 2015-10-20 09:41:40]	[UserID:10/660]	[IP:10.10.11.1]	[Browser:Chrome - 46.0.2490.71]	[Action:GetProgramList 10/660]	[Remarks:[{"ID":"1","ProgramIndex":"GST","ProgramName":"GST"}]]
[Date: 2015-10-20 09:41:40]	[UserID:10/660]	[IP:10.10.11.1]	[Browser:Chrome - 46.0.2490.71]	[Action:Making connection to server]	[Remarks:Successful connection to server: S3]
[Date: 2015-10-20 09:41:40]	[UserID:10/660]	[IP:10.10.11.1]	[Browser:Chrome - 46.0.2490.71]	[Action:GetProgramList 10/660]	[Remarks:[{"ID":"1","ProgramIndex":"GST","ProgramName":"GST"}]]
[Date: 2015-10-20 09:41:40]	[UserID:10/660]	[IP:10.10.11.1]	[Browser:Chrome - 46.0.2490.71]	[Action:Making connection to server]	[Remarks:Successful connection to server: S3]
[Date: 2015-10-20 09:41:40]	[UserID:10/660]	[IP:10.10.11.1]	[Browser:Chrome - 46.0.2490.71]	[Action:Filtering User : MasterData Username : 10/660]	[Remarks:Successful filter row count: 1]
[Date: 2015-10-20 09:41:40]	[UserID:10/660]	[IP:10.10.11.1]	[Browser:Chrome - 46.0.2490.71]	[Action:Making connection to server]	[Remarks:Successful connection to server: S3]
[Date: 2015-10-20 09:41:40]	[UserID:10/660]	[IP:10.10.11.1]	[Browser:Chrome - 46.0.2490.71]	[Action:GetGSTModules 10/660,1]	[Remarks:Successful filter row count: 3]
[Date: 2015-10-20 09:41:40]	[UserID:10/660]	[IP:10.10.11.1]	[Browser:Chrome - 46.0.2490.71]	[Action:Closing mssql connection]	[Remarks:Success]
[Date: 2015-10-20 09:50:47]	[UserID:10/660]	[IP:10.10.11.1]	[Browser:Chrome - 46.0.2490.71]	[Action:Making connection to server]	[Remarks:Successful connection to server: S3]
[Date: 2015-10-20 09:50:48]	[UserID:10/660]	[IP:10.10.11.1]	[Browser:Chrome - 46.0.2490.71]	[Action:GetGSTModules 10/660,1]	[Remarks:Successful filter row count: 3]
[Date: 2015-10-20 09:50:48]	[UserID:10/660]	[IP:10.10.11.1]	[Browser:Chrome - 46.0.2490.71]	[Action:Closing mssql connection]	[Remarks:Success]
[Date: 2015-10-20 10:07:06]	[UserID:]	[IP:10.10.11.1]	[Browser:Chrome - 46.0.2490.71]	[Action:Making connection to server]	[Remarks:Successful connection to server: S3]
[Date: 2015-10-20 10:07:06]	[UserID:]	[IP:10.10.11.1]	[Browser:Chrome - 46.0.2490.71]	[Action:GetProgramList ]	[Remarks:"no data"]
[Date: 2015-10-20 10:07:09]	[UserID:11/715]	[IP:10.10.11.1]	[Browser:Chrome - 46.0.2490.71]	[Action:Making connection to server]	[Remarks:Successful connection to server: S3]
[Date: 2015-10-20 10:07:09]	[UserID:11/715]	[IP:10.10.11.1]	[Browser:Chrome - 46.0.2490.71]	[Action:User 11/715]	[Remarks:Success]
[Date: 2015-10-20 10:07:09]	[UserID:11/715]	[IP:10.10.11.1]	[Browser:Chrome - 46.0.2490.71]	[Action:Filtering User : MasterData Username : 11/715]	[Remarks:Successful filter row count: 0]
[Date: 2015-10-20 10:07:09]	[UserID:11/715]	[IP:10.10.11.1]	[Browser:Chrome - 46.0.2490.71]	[Action:Filtering User : MasterData Username : 11/715]	[Remarks:Successful filter row count: 0]
[Date: 2015-10-20 10:07:09]	[UserID:11/715]	[IP:10.10.11.1]	[Browser:Chrome - 46.0.2490.71]	[Action:Filtering User : MasterData Username : 11/715]	[Remarks:Success]
[Date: 2015-10-20 10:07:09]	[UserID:11/715]	[IP:10.10.11.1]	[Browser:Chrome - 46.0.2490.71]	[Action:Closing mssql connection]	[Remarks:Success]
[Date: 2015-10-20 10:07:09]	[UserID:11/715]	[IP:10.10.11.1]	[Browser:Chrome - 46.0.2490.71]	[Action:Making connection to server]	[Remarks:Successful connection to server: S3]
[Date: 2015-10-20 10:07:09]	[UserID:11/715]	[IP:10.10.11.1]	[Browser:Chrome - 46.0.2490.71]	[Action:GetProgramList 11/715]	[Remarks:[{"ID":"1","ProgramIndex":"GST","ProgramName":"GST"}]]
[Date: 2015-10-20 10:07:09]	[UserID:11/715]	[IP:10.10.11.1]	[Browser:Chrome - 46.0.2490.71]	[Action:Making connection to server]	[Remarks:Successful connection to server: S3]
[Date: 2015-10-20 10:07:09]	[UserID:11/715]	[IP:10.10.11.1]	[Browser:Chrome - 46.0.2490.71]	[Action:GetProgramList 11/715]	[Remarks:[{"ID":"1","ProgramIndex":"GST","ProgramName":"GST"}]]
[Date: 2015-10-20 10:07:09]	[UserID:11/715]	[IP:10.10.11.1]	[Browser:Chrome - 46.0.2490.71]	[Action:Making connection to server]	[Remarks:Successful connection to server: S3]
[Date: 2015-10-20 10:07:09]	[UserID:11/715]	[IP:10.10.11.1]	[Browser:Chrome - 46.0.2490.71]	[Action:Filtering User : MasterData Username : 11/715]	[Remarks:Successful filter row count: 1]
[Date: 2015-10-20 10:07:10]	[UserID:11/715]	[IP:10.10.11.1]	[Browser:Chrome - 46.0.2490.71]	[Action:Making connection to server]	[Remarks:Successful connection to server: S3]
[Date: 2015-10-20 10:07:10]	[UserID:11/715]	[IP:10.10.11.1]	[Browser:Chrome - 46.0.2490.71]	[Action:GetGSTModules 11/715,1]	[Remarks:Successful filter row count: 3]
[Date: 2015-10-20 10:07:10]	[UserID:11/715]	[IP:10.10.11.1]	[Browser:Chrome - 46.0.2490.71]	[Action:Closing mssql connection]	[Remarks:Success]
[Date: 2015-10-20 10:07:51]	[UserID:10/660]	[IP:10.10.11.1]	[Browser:Chrome - 46.0.2490.71]	[Action:Making connection to server]	[Remarks:Successful connection to server: S3]
[Date: 2015-10-20 10:07:51]	[UserID:10/660]	[IP:10.10.11.1]	[Browser:Chrome - 46.0.2490.71]	[Action:GetProgramList 10/660]	[Remarks:[{"ID":"1","ProgramIndex":"GST","ProgramName":"GST"}]]
[Date: 2015-10-20 10:07:51]	[UserID:10/660]	[IP:10.10.11.1]	[Browser:Chrome - 46.0.2490.71]	[Action:Making connection to server]	[Remarks:Successful connection to server: S3]
[Date: 2015-10-20 10:07:51]	[UserID:10/660]	[IP:10.10.11.1]	[Browser:Chrome - 46.0.2490.71]	[Action:GetProgramList 10/660]	[Remarks:[{"ID":"1","ProgramIndex":"GST","ProgramName":"GST"}]]
[Date: 2015-10-20 10:07:51]	[UserID:10/660]	[IP:10.10.11.1]	[Browser:Chrome - 46.0.2490.71]	[Action:Making connection to server]	[Remarks:Successful connection to server: S3]
[Date: 2015-10-20 10:07:51]	[UserID:10/660]	[IP:10.10.11.1]	[Browser:Chrome - 46.0.2490.71]	[Action:Filtering User : MasterData Username : 10/660]	[Remarks:Successful filter row count: 1]
[Date: 2015-10-20 10:07:52]	[UserID:10/660]	[IP:10.10.11.1]	[Browser:Chrome - 46.0.2490.71]	[Action:Making connection to server]	[Remarks:Successful connection to server: S3]
[Date: 2015-10-20 10:07:52]	[UserID:10/660]	[IP:10.10.11.1]	[Browser:Chrome - 46.0.2490.71]	[Action:GetGSTModules 10/660,1]	[Remarks:Successful filter row count: 3]
[Date: 2015-10-20 10:07:52]	[UserID:10/660]	[IP:10.10.11.1]	[Browser:Chrome - 46.0.2490.71]	[Action:Closing mssql connection]	[Remarks:Success]
[Date: 2015-10-20 10:11:03]	[UserID:11/715]	[IP:10.10.11.1]	[Browser:Chrome - 46.0.2490.71]	[Action:Making connection to server]	[Remarks:Successful connection to server: S3]
[Date: 2015-10-20 10:11:03]	[UserID:11/715]	[IP:10.10.11.1]	[Browser:Chrome - 46.0.2490.71]	[Action:GetProgramList 11/715]	[Remarks:[{"ID":"1","ProgramIndex":"GST","ProgramName":"GST"}]]
[Date: 2015-10-20 10:11:03]	[UserID:11/715]	[IP:10.10.11.1]	[Browser:Chrome - 46.0.2490.71]	[Action:Making connection to server]	[Remarks:Successful connection to server: S3]
[Date: 2015-10-20 10:11:03]	[UserID:11/715]	[IP:10.10.11.1]	[Browser:Chrome - 46.0.2490.71]	[Action:GetProgramList 11/715]	[Remarks:[{"ID":"1","ProgramIndex":"GST","ProgramName":"GST"}]]
[Date: 2015-10-20 10:11:03]	[UserID:11/715]	[IP:10.10.11.1]	[Browser:Chrome - 46.0.2490.71]	[Action:Making connection to server]	[Remarks:Successful connection to server: S3]
[Date: 2015-10-20 10:11:03]	[UserID:11/715]	[IP:10.10.11.1]	[Browser:Chrome - 46.0.2490.71]	[Action:Filtering User : MasterData Username : 11/715]	[Remarks:Successful filter row count: 1]
[Date: 2015-10-20 10:11:04]	[UserID:11/715]	[IP:10.10.11.1]	[Browser:Chrome - 46.0.2490.71]	[Action:Making connection to server]	[Remarks:Successful connection to server: S3]
[Date: 2015-10-20 10:11:04]	[UserID:11/715]	[IP:10.10.11.1]	[Browser:Chrome - 46.0.2490.71]	[Action:GetGSTModules 11/715,1]	[Remarks:Successful filter row count: 3]
[Date: 2015-10-20 10:11:04]	[UserID:11/715]	[IP:10.10.11.1]	[Browser:Chrome - 46.0.2490.71]	[Action:Closing mssql connection]	[Remarks:Success]
[Date: 2015-10-20 10:12:33]	[UserID:11/715]	[IP:10.10.11.1]	[Browser:Chrome - 46.0.2490.71]	[Action:Making connection to server]	[Remarks:Successful connection to server: S3]
[Date: 2015-10-20 10:12:33]	[UserID:11/715]	[IP:10.10.11.1]	[Browser:Chrome - 46.0.2490.71]	[Action:GetProgramList 11/715]	[Remarks:[{"ID":"1","ProgramIndex":"GST","ProgramName":"GST"}]]
[Date: 2015-10-20 10:12:33]	[UserID:11/715]	[IP:10.10.11.1]	[Browser:Chrome - 46.0.2490.71]	[Action:Making connection to server]	[Remarks:Successful connection to server: S3]
[Date: 2015-10-20 10:12:33]	[UserID:11/715]	[IP:10.10.11.1]	[Browser:Chrome - 46.0.2490.71]	[Action:GetProgramList 11/715]	[Remarks:[{"ID":"1","ProgramIndex":"GST","ProgramName":"GST"}]]
[Date: 2015-10-20 10:12:33]	[UserID:11/715]	[IP:10.10.11.1]	[Browser:Chrome - 46.0.2490.71]	[Action:Making connection to server]	[Remarks:Successful connection to server: S3]
[Date: 2015-10-20 10:12:33]	[UserID:11/715]	[IP:10.10.11.1]	[Browser:Chrome - 46.0.2490.71]	[Action:Filtering User : MasterData Username : 11/715]	[Remarks:Successful filter row count: 1]
[Date: 2015-10-20 10:12:34]	[UserID:11/715]	[IP:10.10.11.1]	[Browser:Chrome - 46.0.2490.71]	[Action:Making connection to server]	[Remarks:Successful connection to server: S3]
[Date: 2015-10-20 10:12:34]	[UserID:11/715]	[IP:10.10.11.1]	[Browser:Chrome - 46.0.2490.71]	[Action:GetGSTModules 11/715,1]	[Remarks:Successful filter row count: 3]
[Date: 2015-10-20 10:12:34]	[UserID:11/715]	[IP:10.10.11.1]	[Browser:Chrome - 46.0.2490.71]	[Action:Closing mssql connection]	[Remarks:Success]
[Date: 2015-10-20 10:25:47]	[UserID:10/660]	[IP:10.10.11.1]	[Browser:Chrome - 46.0.2490.71]	[Action:Making connection to server]	[Remarks:Successful connection to server: S3]
[Date: 2015-10-20 10:25:47]	[UserID:10/660]	[IP:10.10.11.1]	[Browser:Chrome - 46.0.2490.71]	[Action:GetGSTModules 10/660,1]	[Remarks:Successful filter row count: 3]
[Date: 2015-10-20 10:25:47]	[UserID:10/660]	[IP:10.10.11.1]	[Browser:Chrome - 46.0.2490.71]	[Action:Closing mssql connection]	[Remarks:Success]
[Date: 2015-10-20 10:31:36]	[UserID:10/660]	[IP:10.10.11.1]	[Browser:Chrome - 46.0.2490.71]	[Action:Making connection to server]	[Remarks:Successful connection to server: S3]
[Date: 2015-10-20 10:31:36]	[UserID:10/660]	[IP:10.10.11.1]	[Browser:Chrome - 46.0.2490.71]	[Action:GetGSTModules 10/660,1]	[Remarks:Successful filter row count: 3]
[Date: 2015-10-20 10:31:36]	[UserID:10/660]	[IP:10.10.11.1]	[Browser:Chrome - 46.0.2490.71]	[Action:Closing mssql connection]	[Remarks:Success]
[Date: 2015-10-20 10:32:48]	[UserID:]	[IP:10.10.11.1]	[Browser:Chrome - 46.0.2490.71]	[Action:Making connection to server]	[Remarks:Successful connection to server: S3]
[Date: 2015-10-20 10:32:48]	[UserID:]	[IP:10.10.11.1]	[Browser:Chrome - 46.0.2490.71]	[Action:GetProgramList ]	[Remarks:"no data"]
[Date: 2015-10-20 10:34:41]	[UserID:10/660]	[IP:10.10.11.1]	[Browser:Chrome - 46.0.2490.71]	[Action:Making connection to server]	[Remarks:Successful connection to server: S3]
[Date: 2015-10-20 10:34:41]	[UserID:10/660]	[IP:10.10.11.1]	[Browser:Chrome - 46.0.2490.71]	[Action:User 10/660]	[Remarks:Success]
[Date: 2015-10-20 10:34:41]	[UserID:10/660]	[IP:10.10.11.1]	[Browser:Chrome - 46.0.2490.71]	[Action:Filtering User : MasterData Username : 10/660]	[Remarks:Successful filter row count: 0]
[Date: 2015-10-20 10:34:41]	[UserID:10/660]	[IP:10.10.11.1]	[Browser:Chrome - 46.0.2490.71]	[Action:Filtering User : MasterData Username : 10/660]	[Remarks:Successful filter row count: 0]
[Date: 2015-10-20 10:34:41]	[UserID:10/660]	[IP:10.10.11.1]	[Browser:Chrome - 46.0.2490.71]	[Action:Filtering User : MasterData Username : 10/660]	[Remarks:Success]
[Date: 2015-10-20 10:34:41]	[UserID:10/660]	[IP:10.10.11.1]	[Browser:Chrome - 46.0.2490.71]	[Action:Closing mssql connection]	[Remarks:Success]
[Date: 2015-10-20 10:34:42]	[UserID:10/660]	[IP:10.10.11.1]	[Browser:Chrome - 46.0.2490.71]	[Action:Making connection to server]	[Remarks:Successful connection to server: S3]
[Date: 2015-10-20 10:34:42]	[UserID:10/660]	[IP:10.10.11.1]	[Browser:Chrome - 46.0.2490.71]	[Action:GetProgramList 10/660]	[Remarks:[{"ID":"1","ProgramIndex":"GST","ProgramName":"GST"}]]
[Date: 2015-10-20 10:34:42]	[UserID:10/660]	[IP:10.10.11.1]	[Browser:Chrome - 46.0.2490.71]	[Action:Making connection to server]	[Remarks:Successful connection to server: S3]
[Date: 2015-10-20 10:34:42]	[UserID:10/660]	[IP:10.10.11.1]	[Browser:Chrome - 46.0.2490.71]	[Action:GetProgramList 10/660]	[Remarks:[{"ID":"1","ProgramIndex":"GST","ProgramName":"GST"}]]
[Date: 2015-10-20 10:34:42]	[UserID:10/660]	[IP:10.10.11.1]	[Browser:Chrome - 46.0.2490.71]	[Action:Making connection to server]	[Remarks:Successful connection to server: S3]
[Date: 2015-10-20 10:34:42]	[UserID:10/660]	[IP:10.10.11.1]	[Browser:Chrome - 46.0.2490.71]	[Action:Filtering User : MasterData Username : 10/660]	[Remarks:Successful filter row count: 1]
[Date: 2015-10-20 10:34:42]	[UserID:10/660]	[IP:10.10.11.1]	[Browser:Chrome - 46.0.2490.71]	[Action:Making connection to server]	[Remarks:Successful connection to server: S3]
[Date: 2015-10-20 10:34:43]	[UserID:10/660]	[IP:10.10.11.1]	[Browser:Chrome - 46.0.2490.71]	[Action:GetGSTModules 10/660,1]	[Remarks:Successful filter row count: 3]
[Date: 2015-10-20 10:34:43]	[UserID:10/660]	[IP:10.10.11.1]	[Browser:Chrome - 46.0.2490.71]	[Action:Closing mssql connection]	[Remarks:Success]
[Date: 2015-10-20 10:34:43]	[UserID:]	[IP:10.10.11.1]	[Browser:Chrome - 46.0.2490.71]	[Action:Making connection to server]	[Remarks:Successful connection to server: S3]
[Date: 2015-10-20 10:34:43]	[UserID:]	[IP:10.10.11.1]	[Browser:Chrome - 46.0.2490.71]	[Action:GetProgramList ]	[Remarks:"no data"]
[Date: 2015-10-20 10:34:45]	[UserID:]	[IP:10.10.11.1]	[Browser:Chrome - 46.0.2490.71]	[Action:Making connection to server]	[Remarks:Successful connection to server: S3]
[Date: 2015-10-20 10:34:45]	[UserID:]	[IP:10.10.11.1]	[Browser:Chrome - 46.0.2490.71]	[Action:GetProgramList ]	[Remarks:"no data"]
[Date: 2015-10-20 10:35:11]	[UserID:15/1125]	[IP:10.10.11.1]	[Browser:Chrome - 46.0.2490.71]	[Action:Making connection to server]	[Remarks:Successful connection to server: S3]
[Date: 2015-10-20 10:35:11]	[UserID:15/1125]	[IP:10.10.11.1]	[Browser:Chrome - 46.0.2490.71]	[Action:LogMeIn 15/1125,15/1125]	[Remarks:Failed]
[Date: 2015-10-20 10:35:11]	[UserID:15/1125]	[IP:10.10.11.1]	[Browser:Chrome - 46.0.2490.71]	[Action:Closing mssql connection]	[Remarks:Success]
[Date: 2015-10-20 10:35:16]	[UserID:15/1125]	[IP:10.10.11.1]	[Browser:Chrome - 46.0.2490.71]	[Action:Making connection to server]	[Remarks:Successful connection to server: S3]
[Date: 2015-10-20 10:35:16]	[UserID:15/1125]	[IP:10.10.11.1]	[Browser:Chrome - 46.0.2490.71]	[Action:User 15/1125]	[Remarks:Success]
[Date: 2015-10-20 10:35:16]	[UserID:15/1125]	[IP:10.10.11.1]	[Browser:Chrome - 46.0.2490.71]	[Action:Filtering User : MasterData Username : 15/1125]	[Remarks:Successful filter row count: 0]
[Date: 2015-10-20 10:35:16]	[UserID:15/1125]	[IP:10.10.11.1]	[Browser:Chrome - 46.0.2490.71]	[Action:Filtering User : MasterData Username : 15/1125]	[Remarks:Successful filter row count: 0]
[Date: 2015-10-20 10:35:16]	[UserID:15/1125]	[IP:10.10.11.1]	[Browser:Chrome - 46.0.2490.71]	[Action:Filtering User : MasterData Username : 15/1125]	[Remarks:Success]
[Date: 2015-10-20 10:35:16]	[UserID:15/1125]	[IP:10.10.11.1]	[Browser:Chrome - 46.0.2490.71]	[Action:Closing mssql connection]	[Remarks:Success]
[Date: 2015-10-20 10:35:17]	[UserID:]	[IP:10.10.11.1]	[Browser:Chrome - 46.0.2490.71]	[Action:Making connection to server]	[Remarks:Successful connection to server: S3]
[Date: 2015-10-20 10:35:17]	[UserID:]	[IP:10.10.11.1]	[Browser:Chrome - 46.0.2490.71]	[Action:GetProgramList ]	[Remarks:"no data"]
[Date: 2015-10-20 10:35:29]	[UserID:15/1125]	[IP:10.10.11.1]	[Browser:Chrome - 46.0.2490.71]	[Action:Making connection to server]	[Remarks:Successful connection to server: S3]
[Date: 2015-10-20 10:35:29]	[UserID:15/1125]	[IP:10.10.11.1]	[Browser:Chrome - 46.0.2490.71]	[Action:LogMeIn 15/1125,15/1125]	[Remarks:Failed]
[Date: 2015-10-20 10:35:29]	[UserID:15/1125]	[IP:10.10.11.1]	[Browser:Chrome - 46.0.2490.71]	[Action:Closing mssql connection]	[Remarks:Success]
[Date: 2015-10-20 10:35:47]	[UserID:15/1125]	[IP:10.10.11.1]	[Browser:Chrome - 46.0.2490.71]	[Action:Making connection to server]	[Remarks:Successful connection to server: S3]
[Date: 2015-10-20 10:35:47]	[UserID:15/1125]	[IP:10.10.11.1]	[Browser:Chrome - 46.0.2490.71]	[Action:User 15/1125]	[Remarks:Success]
[Date: 2015-10-20 10:35:47]	[UserID:15/1125]	[IP:10.10.11.1]	[Browser:Chrome - 46.0.2490.71]	[Action:Filtering User : MasterData Username : 15/1125]	[Remarks:Successful filter row count: 0]
[Date: 2015-10-20 10:35:47]	[UserID:15/1125]	[IP:10.10.11.1]	[Browser:Chrome - 46.0.2490.71]	[Action:Filtering User : MasterData Username : 15/1125]	[Remarks:Successful filter row count: 0]
[Date: 2015-10-20 10:35:47]	[UserID:15/1125]	[IP:10.10.11.1]	[Browser:Chrome - 46.0.2490.71]	[Action:Filtering User : MasterData Username : 15/1125]	[Remarks:Success]
[Date: 2015-10-20 10:35:47]	[UserID:15/1125]	[IP:10.10.11.1]	[Browser:Chrome - 46.0.2490.71]	[Action:Closing mssql connection]	[Remarks:Success]
[Date: 2015-10-20 10:35:48]	[UserID:]	[IP:10.10.11.1]	[Browser:Chrome - 46.0.2490.71]	[Action:Making connection to server]	[Remarks:Successful connection to server: S3]
[Date: 2015-10-20 10:35:48]	[UserID:]	[IP:10.10.11.1]	[Browser:Chrome - 46.0.2490.71]	[Action:GetProgramList ]	[Remarks:"no data"]
[Date: 2015-10-20 10:36:11]	[UserID:15/1125]	[IP:10.10.11.1]	[Browser:Chrome - 46.0.2490.71]	[Action:Making connection to server]	[Remarks:Successful connection to server: S3]
[Date: 2015-10-20 10:36:11]	[UserID:15/1125]	[IP:10.10.11.1]	[Browser:Chrome - 46.0.2490.71]	[Action:LogMeIn 15/1125,15/1125]	[Remarks:Failed]
[Date: 2015-10-20 10:36:11]	[UserID:15/1125]	[IP:10.10.11.1]	[Browser:Chrome - 46.0.2490.71]	[Action:Closing mssql connection]	[Remarks:Success]
[Date: 2015-10-20 10:36:16]	[UserID:15/1125]	[IP:10.10.11.1]	[Browser:Chrome - 46.0.2490.71]	[Action:Making connection to server]	[Remarks:Successful connection to server: S3]
[Date: 2015-10-20 10:36:16]	[UserID:15/1125]	[IP:10.10.11.1]	[Browser:Chrome - 46.0.2490.71]	[Action:User 15/1125]	[Remarks:Success]
[Date: 2015-10-20 10:36:16]	[UserID:15/1125]	[IP:10.10.11.1]	[Browser:Chrome - 46.0.2490.71]	[Action:Filtering User : MasterData Username : 15/1125]	[Remarks:Successful filter row count: 0]
[Date: 2015-10-20 10:36:16]	[UserID:15/1125]	[IP:10.10.11.1]	[Browser:Chrome - 46.0.2490.71]	[Action:Filtering User : MasterData Username : 15/1125]	[Remarks:Successful filter row count: 0]
[Date: 2015-10-20 10:36:16]	[UserID:15/1125]	[IP:10.10.11.1]	[Browser:Chrome - 46.0.2490.71]	[Action:Filtering User : MasterData Username : 15/1125]	[Remarks:Success]
[Date: 2015-10-20 10:36:16]	[UserID:15/1125]	[IP:10.10.11.1]	[Browser:Chrome - 46.0.2490.71]	[Action:Closing mssql connection]	[Remarks:Success]
[Date: 2015-10-20 10:36:16]	[UserID:]	[IP:10.10.11.1]	[Browser:Chrome - 46.0.2490.71]	[Action:Making connection to server]	[Remarks:Successful connection to server: S3]
[Date: 2015-10-20 10:36:16]	[UserID:]	[IP:10.10.11.1]	[Browser:Chrome - 46.0.2490.71]	[Action:GetProgramList ]	[Remarks:"no data"]
[Date: 2015-10-20 10:36:30]	[UserID:]	[IP:10.10.11.1]	[Browser:Chrome - 46.0.2490.71]	[Action:Making connection to server]	[Remarks:Successful connection to server: S3]
[Date: 2015-10-20 10:36:30]	[UserID:]	[IP:10.10.11.1]	[Browser:Chrome - 46.0.2490.71]	[Action:GetProgramList ]	[Remarks:"no data"]
[Date: 2015-10-20 10:37:02]	[UserID:15/1125]	[IP:10.10.11.1]	[Browser:Chrome - 46.0.2490.71]	[Action:Making connection to server]	[Remarks:Successful connection to server: S3]
[Date: 2015-10-20 10:37:02]	[UserID:15/1125]	[IP:10.10.11.1]	[Browser:Chrome - 46.0.2490.71]	[Action:LogMeIn 15/1125,15/1125]	[Remarks:Failed]
[Date: 2015-10-20 10:37:02]	[UserID:15/1125]	[IP:10.10.11.1]	[Browser:Chrome - 46.0.2490.71]	[Action:Closing mssql connection]	[Remarks:Success]
[Date: 2015-10-20 10:37:05]	[UserID:15/1125]	[IP:10.10.11.1]	[Browser:Chrome - 46.0.2490.71]	[Action:Making connection to server]	[Remarks:Successful connection to server: S3]
[Date: 2015-10-20 10:37:06]	[UserID:15/1125]	[IP:10.10.11.1]	[Browser:Chrome - 46.0.2490.71]	[Action:User 15/1125]	[Remarks:Success]
[Date: 2015-10-20 10:37:06]	[UserID:15/1125]	[IP:10.10.11.1]	[Browser:Chrome - 46.0.2490.71]	[Action:Filtering User : MasterData Username : 15/1125]	[Remarks:Successful filter row count: 0]
[Date: 2015-10-20 10:37:06]	[UserID:15/1125]	[IP:10.10.11.1]	[Browser:Chrome - 46.0.2490.71]	[Action:Filtering User : MasterData Username : 15/1125]	[Remarks:Successful filter row count: 0]
[Date: 2015-10-20 10:37:06]	[UserID:15/1125]	[IP:10.10.11.1]	[Browser:Chrome - 46.0.2490.71]	[Action:Filtering User : MasterData Username : 15/1125]	[Remarks:Success]
[Date: 2015-10-20 10:37:06]	[UserID:15/1125]	[IP:10.10.11.1]	[Browser:Chrome - 46.0.2490.71]	[Action:Closing mssql connection]	[Remarks:Success]
[Date: 2015-10-20 10:37:06]	[UserID:]	[IP:10.10.11.1]	[Browser:Chrome - 46.0.2490.71]	[Action:Making connection to server]	[Remarks:Successful connection to server: S3]
[Date: 2015-10-20 10:37:06]	[UserID:]	[IP:10.10.11.1]	[Browser:Chrome - 46.0.2490.71]	[Action:GetProgramList ]	[Remarks:"no data"]
[Date: 2015-10-20 10:37:33]	[UserID:15/1125]	[IP:10.10.11.1]	[Browser:Chrome - 46.0.2490.71]	[Action:Making connection to server]	[Remarks:Successful connection to server: S3]
[Date: 2015-10-20 10:37:33]	[UserID:15/1125]	[IP:10.10.11.1]	[Browser:Chrome - 46.0.2490.71]	[Action:LogMeIn 15/1125,15/1125]	[Remarks:Failed]
[Date: 2015-10-20 10:37:33]	[UserID:15/1125]	[IP:10.10.11.1]	[Browser:Chrome - 46.0.2490.71]	[Action:Closing mssql connection]	[Remarks:Success]
[Date: 2015-10-20 10:38:24]	[UserID:15/1125]	[IP:10.10.11.1]	[Browser:Chrome - 46.0.2490.71]	[Action:Making connection to server]	[Remarks:Successful connection to server: S3]
[Date: 2015-10-20 10:38:24]	[UserID:15/1125]	[IP:10.10.11.1]	[Browser:Chrome - 46.0.2490.71]	[Action:LogMeIn 15/1125,15/1125]	[Remarks:Failed]
[Date: 2015-10-20 10:38:24]	[UserID:15/1125]	[IP:10.10.11.1]	[Browser:Chrome - 46.0.2490.71]	[Action:Closing mssql connection]	[Remarks:Success]
[Date: 2015-10-20 10:38:30]	[UserID:15/1125]	[IP:10.10.11.1]	[Browser:Chrome - 46.0.2490.71]	[Action:Making connection to server]	[Remarks:Successful connection to server: S3]
[Date: 2015-10-20 10:38:30]	[UserID:15/1125]	[IP:10.10.11.1]	[Browser:Chrome - 46.0.2490.71]	[Action:LogMeIn 15/1125,15/1125]	[Remarks:Failed]
[Date: 2015-10-20 10:38:30]	[UserID:15/1125]	[IP:10.10.11.1]	[Browser:Chrome - 46.0.2490.71]	[Action:Closing mssql connection]	[Remarks:Success]
[Date: 2015-10-20 10:39:10]	[UserID:15/1125]	[IP:10.10.11.1]	[Browser:Chrome - 46.0.2490.71]	[Action:Making connection to server]	[Remarks:Successful connection to server: S3]
[Date: 2015-10-20 10:39:10]	[UserID:15/1125]	[IP:10.10.11.1]	[Browser:Chrome - 46.0.2490.71]	[Action:User 15/1125]	[Remarks:Success]
[Date: 2015-10-20 10:39:10]	[UserID:15/1125]	[IP:10.10.11.1]	[Browser:Chrome - 46.0.2490.71]	[Action:Filtering User : MasterData Username : 15/1125]	[Remarks:Successful filter row count: 0]
[Date: 2015-10-20 10:39:10]	[UserID:15/1125]	[IP:10.10.11.1]	[Browser:Chrome - 46.0.2490.71]	[Action:Filtering User : MasterData Username : 15/1125]	[Remarks:Successful filter row count: 0]
[Date: 2015-10-20 10:39:10]	[UserID:15/1125]	[IP:10.10.11.1]	[Browser:Chrome - 46.0.2490.71]	[Action:Filtering User : MasterData Username : 15/1125]	[Remarks:Success]
[Date: 2015-10-20 10:39:10]	[UserID:15/1125]	[IP:10.10.11.1]	[Browser:Chrome - 46.0.2490.71]	[Action:Closing mssql connection]	[Remarks:Success]
[Date: 2015-10-20 10:39:10]	[UserID:]	[IP:10.10.11.1]	[Browser:Chrome - 46.0.2490.71]	[Action:Making connection to server]	[Remarks:Successful connection to server: S3]
[Date: 2015-10-20 10:39:10]	[UserID:]	[IP:10.10.11.1]	[Browser:Chrome - 46.0.2490.71]	[Action:GetProgramList ]	[Remarks:"no data"]
[Date: 2015-10-20 10:39:17]	[UserID:15/1125]	[IP:10.10.11.1]	[Browser:Chrome - 46.0.2490.71]	[Action:Making connection to server]	[Remarks:Successful connection to server: S3]
[Date: 2015-10-20 10:39:17]	[UserID:15/1125]	[IP:10.10.11.1]	[Browser:Chrome - 46.0.2490.71]	[Action:User 15/1125]	[Remarks:Success]
[Date: 2015-10-20 10:39:17]	[UserID:15/1125]	[IP:10.10.11.1]	[Browser:Chrome - 46.0.2490.71]	[Action:Filtering User : MasterData Username : 15/1125]	[Remarks:Successful filter row count: 0]
[Date: 2015-10-20 10:39:17]	[UserID:15/1125]	[IP:10.10.11.1]	[Browser:Chrome - 46.0.2490.71]	[Action:Filtering User : MasterData Username : 15/1125]	[Remarks:Successful filter row count: 0]
[Date: 2015-10-20 10:39:17]	[UserID:15/1125]	[IP:10.10.11.1]	[Browser:Chrome - 46.0.2490.71]	[Action:Filtering User : MasterData Username : 15/1125]	[Remarks:Success]
[Date: 2015-10-20 10:39:17]	[UserID:15/1125]	[IP:10.10.11.1]	[Browser:Chrome - 46.0.2490.71]	[Action:Closing mssql connection]	[Remarks:Success]
[Date: 2015-10-20 10:39:17]	[UserID:15/1125]	[IP:10.10.11.1]	[Browser:Chrome - 46.0.2490.71]	[Action:Making connection to server]	[Remarks:Successful connection to server: S3]
[Date: 2015-10-20 10:39:17]	[UserID:15/1125]	[IP:10.10.11.1]	[Browser:Chrome - 46.0.2490.71]	[Action:GetProgramList 15/1125]	[Remarks:[{"ID":"1","ProgramIndex":"GST","ProgramName":"GST"}]]
[Date: 2015-10-20 10:39:17]	[UserID:15/1125]	[IP:10.10.11.1]	[Browser:Chrome - 46.0.2490.71]	[Action:Making connection to server]	[Remarks:Successful connection to server: S3]
[Date: 2015-10-20 10:39:17]	[UserID:15/1125]	[IP:10.10.11.1]	[Browser:Chrome - 46.0.2490.71]	[Action:GetProgramList 15/1125]	[Remarks:[{"ID":"1","ProgramIndex":"GST","ProgramName":"GST"}]]
[Date: 2015-10-20 10:39:17]	[UserID:15/1125]	[IP:10.10.11.1]	[Browser:Chrome - 46.0.2490.71]	[Action:Making connection to server]	[Remarks:Successful connection to server: S3]
[Date: 2015-10-20 10:39:17]	[UserID:15/1125]	[IP:10.10.11.1]	[Browser:Chrome - 46.0.2490.71]	[Action:Filtering User : MasterData Username : 15/1125]	[Remarks:Successful filter row count: 1]
[Date: 2015-10-20 10:39:17]	[UserID:15/1125]	[IP:10.10.11.1]	[Browser:Chrome - 46.0.2490.71]	[Action:Making connection to server]	[Remarks:Successful connection to server: S3]
[Date: 2015-10-20 10:39:18]	[UserID:15/1125]	[IP:10.10.11.1]	[Browser:Chrome - 46.0.2490.71]	[Action:GetGSTModules 15/1125,1]	[Remarks:Successful filter row count: 6]
[Date: 2015-10-20 10:39:18]	[UserID:15/1125]	[IP:10.10.11.1]	[Browser:Chrome - 46.0.2490.71]	[Action:Closing mssql connection]	[Remarks:Success]
[Date: 2015-10-20 10:39:36]	[UserID:]	[IP:10.10.11.1]	[Browser:Chrome - 46.0.2490.71]	[Action:Making connection to server]	[Remarks:Successful connection to server: S3]
[Date: 2015-10-20 10:39:36]	[UserID:]	[IP:10.10.11.1]	[Browser:Chrome - 46.0.2490.71]	[Action:GetProgramList ]	[Remarks:"no data"]
[Date: 2015-10-20 10:39:45]	[UserID:06/371]	[IP:10.10.11.1]	[Browser:Chrome - 46.0.2490.71]	[Action:Making connection to server]	[Remarks:Successful connection to server: S3]
[Date: 2015-10-20 10:39:45]	[UserID:06/371]	[IP:10.10.11.1]	[Browser:Chrome - 46.0.2490.71]	[Action:User 06/371]	[Remarks:Success]
[Date: 2015-10-20 10:39:45]	[UserID:06/371]	[IP:10.10.11.1]	[Browser:Chrome - 46.0.2490.71]	[Action:Filtering User : MasterData Username : 06/371]	[Remarks:Successful filter row count: 0]
[Date: 2015-10-20 10:39:45]	[UserID:06/371]	[IP:10.10.11.1]	[Browser:Chrome - 46.0.2490.71]	[Action:Filtering User : MasterData Username : 06/371]	[Remarks:Successful filter row count: 0]
[Date: 2015-10-20 10:39:45]	[UserID:06/371]	[IP:10.10.11.1]	[Browser:Chrome - 46.0.2490.71]	[Action:Filtering User : MasterData Username : 06/371]	[Remarks:Success]
[Date: 2015-10-20 10:39:45]	[UserID:06/371]	[IP:10.10.11.1]	[Browser:Chrome - 46.0.2490.71]	[Action:Closing mssql connection]	[Remarks:Success]
[Date: 2015-10-20 10:39:45]	[UserID:06/371]	[IP:10.10.11.1]	[Browser:Chrome - 46.0.2490.71]	[Action:Making connection to server]	[Remarks:Successful connection to server: S3]
[Date: 2015-10-20 10:39:45]	[UserID:06/371]	[IP:10.10.11.1]	[Browser:Chrome - 46.0.2490.71]	[Action:GetProgramList 06/371]	[Remarks:[{"ID":"1","ProgramIndex":"GST","ProgramName":"GST"}]]
[Date: 2015-10-20 10:39:45]	[UserID:06/371]	[IP:10.10.11.1]	[Browser:Chrome - 46.0.2490.71]	[Action:Making connection to server]	[Remarks:Successful connection to server: S3]
[Date: 2015-10-20 10:39:45]	[UserID:06/371]	[IP:10.10.11.1]	[Browser:Chrome - 46.0.2490.71]	[Action:GetProgramList 06/371]	[Remarks:[{"ID":"1","ProgramIndex":"GST","ProgramName":"GST"}]]
[Date: 2015-10-20 10:39:45]	[UserID:06/371]	[IP:10.10.11.1]	[Browser:Chrome - 46.0.2490.71]	[Action:Making connection to server]	[Remarks:Successful connection to server: S3]
[Date: 2015-10-20 10:39:45]	[UserID:06/371]	[IP:10.10.11.1]	[Browser:Chrome - 46.0.2490.71]	[Action:Filtering User : MasterData Username : 06/371]	[Remarks:Successful filter row count: 1]
[Date: 2015-10-20 10:39:46]	[UserID:06/371]	[IP:10.10.11.1]	[Browser:Chrome - 46.0.2490.71]	[Action:Making connection to server]	[Remarks:Successful connection to server: S3]
[Date: 2015-10-20 10:39:46]	[UserID:06/371]	[IP:10.10.11.1]	[Browser:Chrome - 46.0.2490.71]	[Action:GetGSTModules 06/371,1]	[Remarks:Successful filter row count: 5]
[Date: 2015-10-20 10:39:46]	[UserID:06/371]	[IP:10.10.11.1]	[Browser:Chrome - 46.0.2490.71]	[Action:Closing mssql connection]	[Remarks:Success]
[Date: 2015-10-20 10:40:52]	[UserID:15/1125]	[IP:10.10.11.1]	[Browser:Chrome - 46.0.2490.71]	[Action:Making connection to server]	[Remarks:Successful connection to server: S3]
[Date: 2015-10-20 10:40:52]	[UserID:15/1125]	[IP:10.10.11.1]	[Browser:Chrome - 46.0.2490.71]	[Action:GetProgramList 15/1125]	[Remarks:[{"ID":"1","ProgramIndex":"GST","ProgramName":"GST"}]]
[Date: 2015-10-20 10:40:52]	[UserID:15/1125]	[IP:10.10.11.1]	[Browser:Chrome - 46.0.2490.71]	[Action:Making connection to server]	[Remarks:Successful connection to server: S3]
[Date: 2015-10-20 10:40:52]	[UserID:15/1125]	[IP:10.10.11.1]	[Browser:Chrome - 46.0.2490.71]	[Action:GetProgramList 15/1125]	[Remarks:[{"ID":"1","ProgramIndex":"GST","ProgramName":"GST"}]]
[Date: 2015-10-20 10:40:52]	[UserID:15/1125]	[IP:10.10.11.1]	[Browser:Chrome - 46.0.2490.71]	[Action:Making connection to server]	[Remarks:Successful connection to server: S3]
[Date: 2015-10-20 10:40:52]	[UserID:15/1125]	[IP:10.10.11.1]	[Browser:Chrome - 46.0.2490.71]	[Action:Filtering User : MasterData Username : 15/1125]	[Remarks:Successful filter row count: 1]
[Date: 2015-10-20 10:40:53]	[UserID:15/1125]	[IP:10.10.11.1]	[Browser:Chrome - 46.0.2490.71]	[Action:Making connection to server]	[Remarks:Successful connection to server: S3]
[Date: 2015-10-20 10:40:53]	[UserID:15/1125]	[IP:10.10.11.1]	[Browser:Chrome - 46.0.2490.71]	[Action:GetGSTModules 15/1125,1]	[Remarks:Successful filter row count: 6]
[Date: 2015-10-20 10:40:53]	[UserID:15/1125]	[IP:10.10.11.1]	[Browser:Chrome - 46.0.2490.71]	[Action:Closing mssql connection]	[Remarks:Success]
[Date: 2015-10-20 10:42:27]	[UserID:06/371]	[IP:10.10.11.1]	[Browser:Chrome - 46.0.2490.71]	[Action:Making connection to server]	[Remarks:Successful connection to server: S3]
[Date: 2015-10-20 10:42:27]	[UserID:06/371]	[IP:10.10.11.1]	[Browser:Chrome - 46.0.2490.71]	[Action:GetGSTModules 06/371,1]	[Remarks:Successful filter row count: 5]
[Date: 2015-10-20 10:42:27]	[UserID:06/371]	[IP:10.10.11.1]	[Browser:Chrome - 46.0.2490.71]	[Action:Closing mssql connection]	[Remarks:Success]
[Date: 2015-10-20 10:44:22]	[UserID:]	[IP:10.10.11.1]	[Browser:Chrome - 46.0.2490.71]	[Action:Making connection to server]	[Remarks:Successful connection to server: S3]
[Date: 2015-10-20 10:44:22]	[UserID:]	[IP:10.10.11.1]	[Browser:Chrome - 46.0.2490.71]	[Action:GetProgramList ]	[Remarks:"no data"]
[Date: 2015-10-20 10:44:23]	[UserID:]	[IP:10.10.11.1]	[Browser:Google favicon]	[Action:Making connection to server]	[Remarks:Successful connection to server: S3]
[Date: 2015-10-20 10:44:23]	[UserID:]	[IP:10.10.11.1]	[Browser:Google favicon]	[Action:GetProgramList ]	[Remarks:"no data"]
[Date: 2015-10-20 10:44:27]	[UserID:14/1082]	[IP:10.10.11.1]	[Browser:Chrome - 46.0.2490.71]	[Action:Making connection to server]	[Remarks:Successful connection to server: S3]
[Date: 2015-10-20 10:44:27]	[UserID:14/1082]	[IP:10.10.11.1]	[Browser:Chrome - 46.0.2490.71]	[Action:User 14/1082]	[Remarks:Success]
[Date: 2015-10-20 10:44:27]	[UserID:14/1082]	[IP:10.10.11.1]	[Browser:Chrome - 46.0.2490.71]	[Action:Filtering User : MasterData Username : 14/1082]	[Remarks:Successful filter row count: 0]
[Date: 2015-10-20 10:44:27]	[UserID:14/1082]	[IP:10.10.11.1]	[Browser:Chrome - 46.0.2490.71]	[Action:Filtering User : MasterData Username : 14/1082]	[Remarks:Successful filter row count: 0]
[Date: 2015-10-20 10:44:27]	[UserID:14/1082]	[IP:10.10.11.1]	[Browser:Chrome - 46.0.2490.71]	[Action:Filtering User : MasterData Username : 14/1082]	[Remarks:Success]
[Date: 2015-10-20 10:44:27]	[UserID:14/1082]	[IP:10.10.11.1]	[Browser:Chrome - 46.0.2490.71]	[Action:Closing mssql connection]	[Remarks:Success]
[Date: 2015-10-20 10:44:28]	[UserID:14/1082]	[IP:10.10.11.1]	[Browser:Chrome - 46.0.2490.71]	[Action:Making connection to server]	[Remarks:Successful connection to server: S3]
[Date: 2015-10-20 10:44:28]	[UserID:14/1082]	[IP:10.10.11.1]	[Browser:Chrome - 46.0.2490.71]	[Action:GetProgramList 14/1082]	[Remarks:[{"ID":"1","ProgramIndex":"GST","ProgramName":"GST"}]]
[Date: 2015-10-20 10:44:28]	[UserID:14/1082]	[IP:10.10.11.1]	[Browser:Chrome - 46.0.2490.71]	[Action:Making connection to server]	[Remarks:Successful connection to server: S3]
[Date: 2015-10-20 10:44:28]	[UserID:14/1082]	[IP:10.10.11.1]	[Browser:Chrome - 46.0.2490.71]	[Action:GetProgramList 14/1082]	[Remarks:[{"ID":"1","ProgramIndex":"GST","ProgramName":"GST"}]]
[Date: 2015-10-20 10:44:28]	[UserID:14/1082]	[IP:10.10.11.1]	[Browser:Chrome - 46.0.2490.71]	[Action:Making connection to server]	[Remarks:Successful connection to server: S3]
[Date: 2015-10-20 10:44:28]	[UserID:14/1082]	[IP:10.10.11.1]	[Browser:Chrome - 46.0.2490.71]	[Action:Filtering User : MasterData Username : 14/1082]	[Remarks:Successful filter row count: 1]
[Date: 2015-10-20 10:44:28]	[UserID:14/1082]	[IP:10.10.11.1]	[Browser:Chrome - 46.0.2490.71]	[Action:Making connection to server]	[Remarks:Successful connection to server: S3]
[Date: 2015-10-20 10:44:28]	[UserID:14/1082]	[IP:10.10.11.1]	[Browser:Chrome - 46.0.2490.71]	[Action:GetGSTModules 14/1082,1]	[Remarks:Successful filter row count: 7]
[Date: 2015-10-20 10:44:28]	[UserID:14/1082]	[IP:10.10.11.1]	[Browser:Chrome - 46.0.2490.71]	[Action:Closing mssql connection]	[Remarks:Success]
[Date: 2015-10-20 10:45:54]	[UserID:06/371]	[IP:10.10.11.1]	[Browser:Chrome - 46.0.2490.71]	[Action:Making connection to server]	[Remarks:Successful connection to server: S3]
[Date: 2015-10-20 10:45:54]	[UserID:06/371]	[IP:10.10.11.1]	[Browser:Chrome - 46.0.2490.71]	[Action:GetGSTModules 06/371,1]	[Remarks:Successful filter row count: 5]
[Date: 2015-10-20 10:45:54]	[UserID:06/371]	[IP:10.10.11.1]	[Browser:Chrome - 46.0.2490.71]	[Action:Closing mssql connection]	[Remarks:Success]
[Date: 2015-10-20 10:46:10]	[UserID:06/371]	[IP:10.10.11.1]	[Browser:Chrome - 46.0.2490.71]	[Action:Making connection to server]	[Remarks:Successful connection to server: S3]
[Date: 2015-10-20 10:46:10]	[UserID:06/371]	[IP:10.10.11.1]	[Browser:Chrome - 46.0.2490.71]	[Action:GetGSTModules 06/371,1]	[Remarks:Successful filter row count: 5]
[Date: 2015-10-20 10:46:10]	[UserID:06/371]	[IP:10.10.11.1]	[Browser:Chrome - 46.0.2490.71]	[Action:Closing mssql connection]	[Remarks:Success]
[Date: 2015-10-20 10:47:52]	[UserID:06/371]	[IP:10.10.11.1]	[Browser:Chrome - 46.0.2490.71]	[Action:Making connection to server]	[Remarks:Successful connection to server: S3]
[Date: 2015-10-20 10:47:52]	[UserID:06/371]	[IP:10.10.11.1]	[Browser:Chrome - 46.0.2490.71]	[Action:GetGSTModules 06/371,1]	[Remarks:Successful filter row count: 5]
[Date: 2015-10-20 10:47:52]	[UserID:06/371]	[IP:10.10.11.1]	[Browser:Chrome - 46.0.2490.71]	[Action:Closing mssql connection]	[Remarks:Success]
[Date: 2015-10-20 10:48:13]	[UserID:06/371]	[IP:10.10.11.1]	[Browser:Chrome - 46.0.2490.71]	[Action:Making connection to server]	[Remarks:Successful connection to server: S3]
[Date: 2015-10-20 10:48:13]	[UserID:06/371]	[IP:10.10.11.1]	[Browser:Chrome - 46.0.2490.71]	[Action:GetGSTModules 06/371,1]	[Remarks:Successful filter row count: 5]
[Date: 2015-10-20 10:48:13]	[UserID:06/371]	[IP:10.10.11.1]	[Browser:Chrome - 46.0.2490.71]	[Action:Closing mssql connection]	[Remarks:Success]
[Date: 2015-10-20 10:51:56]	[UserID:06/371]	[IP:10.10.11.1]	[Browser:Chrome - 46.0.2490.71]	[Action:Making connection to server]	[Remarks:Successful connection to server: S3]
[Date: 2015-10-20 10:51:56]	[UserID:06/371]	[IP:10.10.11.1]	[Browser:Chrome - 46.0.2490.71]	[Action:GetProgramList 06/371]	[Remarks:[{"ID":"1","ProgramIndex":"GST","ProgramName":"GST"}]]
[Date: 2015-10-20 10:51:56]	[UserID:06/371]	[IP:10.10.11.1]	[Browser:Chrome - 46.0.2490.71]	[Action:Making connection to server]	[Remarks:Successful connection to server: S3]
[Date: 2015-10-20 10:51:56]	[UserID:06/371]	[IP:10.10.11.1]	[Browser:Chrome - 46.0.2490.71]	[Action:GetProgramList 06/371]	[Remarks:[{"ID":"1","ProgramIndex":"GST","ProgramName":"GST"}]]
[Date: 2015-10-20 10:51:56]	[UserID:06/371]	[IP:10.10.11.1]	[Browser:Chrome - 46.0.2490.71]	[Action:Making connection to server]	[Remarks:Successful connection to server: S3]
[Date: 2015-10-20 10:51:56]	[UserID:06/371]	[IP:10.10.11.1]	[Browser:Chrome - 46.0.2490.71]	[Action:Filtering User : MasterData Username : 06/371]	[Remarks:Successful filter row count: 1]
[Date: 2015-10-20 10:51:56]	[UserID:06/371]	[IP:10.10.11.1]	[Browser:Chrome - 46.0.2490.71]	[Action:Making connection to server]	[Remarks:Successful connection to server: S3]
[Date: 2015-10-20 10:51:56]	[UserID:06/371]	[IP:10.10.11.1]	[Browser:Chrome - 46.0.2490.71]	[Action:GetGSTModules 06/371,1]	[Remarks:Successful filter row count: 5]
[Date: 2015-10-20 10:51:56]	[UserID:06/371]	[IP:10.10.11.1]	[Browser:Chrome - 46.0.2490.71]	[Action:Closing mssql connection]	[Remarks:Success]
[Date: 2015-10-20 10:52:02]	[UserID:06/371]	[IP:10.10.11.1]	[Browser:Chrome - 46.0.2490.71]	[Action:Making connection to server]	[Remarks:Successful connection to server: S3]
[Date: 2015-10-20 10:52:02]	[UserID:06/371]	[IP:10.10.11.1]	[Browser:Chrome - 46.0.2490.71]	[Action:GetGSTModules 06/371,1]	[Remarks:Successful filter row count: 5]
[Date: 2015-10-20 10:52:02]	[UserID:06/371]	[IP:10.10.11.1]	[Browser:Chrome - 46.0.2490.71]	[Action:Closing mssql connection]	[Remarks:Success]
[Date: 2015-10-20 10:52:24]	[UserID:06/371]	[IP:10.10.11.1]	[Browser:Chrome - 46.0.2490.71]	[Action:Making connection to server]	[Remarks:Successful connection to server: S3]
[Date: 2015-10-20 10:52:24]	[UserID:06/371]	[IP:10.10.11.1]	[Browser:Chrome - 46.0.2490.71]	[Action:GetGSTModules 06/371,1]	[Remarks:Successful filter row count: 5]
[Date: 2015-10-20 10:52:24]	[UserID:06/371]	[IP:10.10.11.1]	[Browser:Chrome - 46.0.2490.71]	[Action:Closing mssql connection]	[Remarks:Success]
[Date: 2015-10-20 10:53:22]	[UserID:06/371]	[IP:10.10.11.1]	[Browser:Chrome - 46.0.2490.71]	[Action:Making connection to server]	[Remarks:Successful connection to server: S3]
[Date: 2015-10-20 10:53:22]	[UserID:06/371]	[IP:10.10.11.1]	[Browser:Chrome - 46.0.2490.71]	[Action:GetGSTModules 06/371,1]	[Remarks:Successful filter row count: 5]
[Date: 2015-10-20 10:53:22]	[UserID:06/371]	[IP:10.10.11.1]	[Browser:Chrome - 46.0.2490.71]	[Action:Closing mssql connection]	[Remarks:Success]
[Date: 2015-10-20 10:55:44]	[UserID:06/371]	[IP:10.10.11.1]	[Browser:Chrome - 46.0.2490.71]	[Action:Making connection to server]	[Remarks:Successful connection to server: S3]
[Date: 2015-10-20 10:55:44]	[UserID:06/371]	[IP:10.10.11.1]	[Browser:Chrome - 46.0.2490.71]	[Action:GetGSTModules 06/371,1]	[Remarks:Successful filter row count: 5]
[Date: 2015-10-20 10:55:44]	[UserID:06/371]	[IP:10.10.11.1]	[Browser:Chrome - 46.0.2490.71]	[Action:Closing mssql connection]	[Remarks:Success]
[Date: 2015-10-20 10:56:09]	[UserID:06/371]	[IP:10.10.11.1]	[Browser:Chrome - 46.0.2490.71]	[Action:Making connection to server]	[Remarks:Successful connection to server: S3]
[Date: 2015-10-20 10:56:09]	[UserID:06/371]	[IP:10.10.11.1]	[Browser:Chrome - 46.0.2490.71]	[Action:GetGSTModules 06/371,1]	[Remarks:Successful filter row count: 5]
[Date: 2015-10-20 10:56:09]	[UserID:06/371]	[IP:10.10.11.1]	[Browser:Chrome - 46.0.2490.71]	[Action:Closing mssql connection]	[Remarks:Success]
[Date: 2015-10-20 10:56:25]	[UserID:06/371]	[IP:10.10.11.1]	[Browser:Chrome - 46.0.2490.71]	[Action:Making connection to server]	[Remarks:Successful connection to server: S3]
[Date: 2015-10-20 10:56:25]	[UserID:06/371]	[IP:10.10.11.1]	[Browser:Chrome - 46.0.2490.71]	[Action:GetGSTModules 06/371,1]	[Remarks:Successful filter row count: 5]
[Date: 2015-10-20 10:56:25]	[UserID:06/371]	[IP:10.10.11.1]	[Browser:Chrome - 46.0.2490.71]	[Action:Closing mssql connection]	[Remarks:Success]
[Date: 2015-10-20 10:58:37]	[UserID:14/1082]	[IP:10.10.11.1]	[Browser:Chrome - 46.0.2490.71]	[Action:Making connection to server]	[Remarks:Successful connection to server: S3]
[Date: 2015-10-20 10:58:38]	[UserID:14/1082]	[IP:10.10.11.1]	[Browser:Chrome - 46.0.2490.71]	[Action:GetGSTModules 14/1082,1]	[Remarks:Successful filter row count: 7]
[Date: 2015-10-20 10:58:38]	[UserID:14/1082]	[IP:10.10.11.1]	[Browser:Chrome - 46.0.2490.71]	[Action:Closing mssql connection]	[Remarks:Success]
[Date: 2015-10-20 11:10:14]	[UserID:15/1125]	[IP:10.10.11.1]	[Browser:Chrome - 46.0.2490.71]	[Action:Making connection to server]	[Remarks:Successful connection to server: S3]
[Date: 2015-10-20 11:10:14]	[UserID:15/1125]	[IP:10.10.11.1]	[Browser:Chrome - 46.0.2490.71]	[Action:GetProgramList 15/1125]	[Remarks:[{"ID":"1","ProgramIndex":"GST","ProgramName":"GST"}]]
[Date: 2015-10-20 11:10:14]	[UserID:15/1125]	[IP:10.10.11.1]	[Browser:Chrome - 46.0.2490.71]	[Action:Making connection to server]	[Remarks:Successful connection to server: S3]
[Date: 2015-10-20 11:10:14]	[UserID:15/1125]	[IP:10.10.11.1]	[Browser:Chrome - 46.0.2490.71]	[Action:GetProgramList 15/1125]	[Remarks:[{"ID":"1","ProgramIndex":"GST","ProgramName":"GST"}]]
[Date: 2015-10-20 11:10:14]	[UserID:15/1125]	[IP:10.10.11.1]	[Browser:Chrome - 46.0.2490.71]	[Action:Making connection to server]	[Remarks:Successful connection to server: S3]
[Date: 2015-10-20 11:10:14]	[UserID:15/1125]	[IP:10.10.11.1]	[Browser:Chrome - 46.0.2490.71]	[Action:Filtering User : MasterData Username : 15/1125]	[Remarks:Successful filter row count: 1]
[Date: 2015-10-20 11:10:15]	[UserID:15/1125]	[IP:10.10.11.1]	[Browser:Chrome - 46.0.2490.71]	[Action:Making connection to server]	[Remarks:Successful connection to server: S3]
[Date: 2015-10-20 11:10:15]	[UserID:15/1125]	[IP:10.10.11.1]	[Browser:Chrome - 46.0.2490.71]	[Action:GetGSTModules 15/1125,1]	[Remarks:Successful filter row count: 6]
[Date: 2015-10-20 11:10:15]	[UserID:15/1125]	[IP:10.10.11.1]	[Browser:Chrome - 46.0.2490.71]	[Action:Closing mssql connection]	[Remarks:Success]
[Date: 2015-10-20 11:10:52]	[UserID:14/1082]	[IP:10.10.11.1]	[Browser:Chrome - 46.0.2490.71]	[Action:Making connection to server]	[Remarks:Successful connection to server: S3]
[Date: 2015-10-20 11:10:53]	[UserID:14/1082]	[IP:10.10.11.1]	[Browser:Chrome - 46.0.2490.71]	[Action:GetGSTModules 14/1082,1]	[Remarks:Successful filter row count: 7]
[Date: 2015-10-20 11:10:53]	[UserID:14/1082]	[IP:10.10.11.1]	[Browser:Chrome - 46.0.2490.71]	[Action:Closing mssql connection]	[Remarks:Success]
[Date: 2015-10-20 11:13:59]	[UserID:14/1082]	[IP:10.10.11.1]	[Browser:Chrome - 46.0.2490.71]	[Action:Making connection to server]	[Remarks:Successful connection to server: S3]
[Date: 2015-10-20 11:13:59]	[UserID:14/1082]	[IP:10.10.11.1]	[Browser:Chrome - 46.0.2490.71]	[Action:GetGSTModules 14/1082,1]	[Remarks:Successful filter row count: 7]
[Date: 2015-10-20 11:13:59]	[UserID:14/1082]	[IP:10.10.11.1]	[Browser:Chrome - 46.0.2490.71]	[Action:Closing mssql connection]	[Remarks:Success]
[Date: 2015-10-20 11:15:27]	[UserID:15/1125]	[IP:10.10.11.1]	[Browser:Chrome - 46.0.2490.71]	[Action:Making connection to server]	[Remarks:Successful connection to server: S3]
[Date: 2015-10-20 11:15:27]	[UserID:15/1125]	[IP:10.10.11.1]	[Browser:Chrome - 46.0.2490.71]	[Action:GetGSTModules 15/1125,1]	[Remarks:Successful filter row count: 6]
[Date: 2015-10-20 11:15:27]	[UserID:15/1125]	[IP:10.10.11.1]	[Browser:Chrome - 46.0.2490.71]	[Action:Closing mssql connection]	[Remarks:Success]
[Date: 2015-10-20 11:18:54]	[UserID:06/371]	[IP:10.10.11.1]	[Browser:Chrome - 46.0.2490.71]	[Action:Making connection to server]	[Remarks:Successful connection to server: S3]
[Date: 2015-10-20 11:18:54]	[UserID:06/371]	[IP:10.10.11.1]	[Browser:Chrome - 46.0.2490.71]	[Action:GetGSTModules 06/371,1]	[Remarks:Successful filter row count: 5]
[Date: 2015-10-20 11:18:54]	[UserID:06/371]	[IP:10.10.11.1]	[Browser:Chrome - 46.0.2490.71]	[Action:Closing mssql connection]	[Remarks:Success]
[Date: 2015-10-20 11:20:21]	[UserID:06/371]	[IP:10.10.11.1]	[Browser:Chrome - 46.0.2490.71]	[Action:Making connection to server]	[Remarks:Successful connection to server: S3]
[Date: 2015-10-20 11:20:21]	[UserID:06/371]	[IP:10.10.11.1]	[Browser:Chrome - 46.0.2490.71]	[Action:GetProgramList 06/371]	[Remarks:[{"ID":"1","ProgramIndex":"GST","ProgramName":"GST"}]]
[Date: 2015-10-20 11:20:21]	[UserID:06/371]	[IP:10.10.11.1]	[Browser:Chrome - 46.0.2490.71]	[Action:Making connection to server]	[Remarks:Successful connection to server: S3]
[Date: 2015-10-20 11:20:21]	[UserID:06/371]	[IP:10.10.11.1]	[Browser:Chrome - 46.0.2490.71]	[Action:GetProgramList 06/371]	[Remarks:[{"ID":"1","ProgramIndex":"GST","ProgramName":"GST"}]]
[Date: 2015-10-20 11:20:21]	[UserID:06/371]	[IP:10.10.11.1]	[Browser:Chrome - 46.0.2490.71]	[Action:Making connection to server]	[Remarks:Successful connection to server: S3]
[Date: 2015-10-20 11:20:21]	[UserID:06/371]	[IP:10.10.11.1]	[Browser:Chrome - 46.0.2490.71]	[Action:Filtering User : MasterData Username : 06/371]	[Remarks:Successful filter row count: 1]
[Date: 2015-10-20 11:20:22]	[UserID:06/371]	[IP:10.10.11.1]	[Browser:Chrome - 46.0.2490.71]	[Action:Making connection to server]	[Remarks:Successful connection to server: S3]
[Date: 2015-10-20 11:20:22]	[UserID:06/371]	[IP:10.10.11.1]	[Browser:Chrome - 46.0.2490.71]	[Action:GetGSTModules 06/371,1]	[Remarks:Successful filter row count: 5]
[Date: 2015-10-20 11:20:22]	[UserID:06/371]	[IP:10.10.11.1]	[Browser:Chrome - 46.0.2490.71]	[Action:Closing mssql connection]	[Remarks:Success]
[Date: 2015-10-20 11:59:26]	[UserID:06/371]	[IP:10.10.11.1]	[Browser:Chrome - 46.0.2490.71]	[Action:Making connection to server]	[Remarks:Successful connection to server: S3]
[Date: 2015-10-20 11:59:26]	[UserID:06/371]	[IP:10.10.11.1]	[Browser:Chrome - 46.0.2490.71]	[Action:GetGSTModules 06/371,1]	[Remarks:Successful filter row count: 5]
[Date: 2015-10-20 11:59:26]	[UserID:06/371]	[IP:10.10.11.1]	[Browser:Chrome - 46.0.2490.71]	[Action:Closing mssql connection]	[Remarks:Success]
[Date: 2015-10-20 12:04:22]	[UserID:06/371]	[IP:10.10.11.1]	[Browser:Chrome - 46.0.2490.71]	[Action:Making connection to server]	[Remarks:Successful connection to server: S3]
[Date: 2015-10-20 12:04:23]	[UserID:06/371]	[IP:10.10.11.1]	[Browser:Chrome - 46.0.2490.71]	[Action:GetGSTModules 06/371,1]	[Remarks:Successful filter row count: 5]
[Date: 2015-10-20 12:04:23]	[UserID:06/371]	[IP:10.10.11.1]	[Browser:Chrome - 46.0.2490.71]	[Action:Closing mssql connection]	[Remarks:Success]
[Date: 2015-10-20 12:42:14]	[UserID:06/371]	[IP:10.10.11.1]	[Browser:Chrome - 46.0.2490.71]	[Action:Making connection to server]	[Remarks:Successful connection to server: S3]
[Date: 2015-10-20 12:42:14]	[UserID:06/371]	[IP:10.10.11.1]	[Browser:Chrome - 46.0.2490.71]	[Action:GetGSTModules 06/371,1]	[Remarks:Successful filter row count: 5]
[Date: 2015-10-20 12:42:14]	[UserID:06/371]	[IP:10.10.11.1]	[Browser:Chrome - 46.0.2490.71]	[Action:Closing mssql connection]	[Remarks:Success]
[Date: 2015-10-20 12:53:39]	[UserID:06/343]	[IP:10.10.11.1]	[Browser:Chrome - 46.0.2490.71]	[Action:Making connection to server]	[Remarks:Successful connection to server: S3]
[Date: 2015-10-20 12:53:39]	[UserID:06/343]	[IP:10.10.11.1]	[Browser:Chrome - 46.0.2490.71]	[Action:GetProgramList 06/343]	[Remarks:[{"ID":"1","ProgramIndex":"GST","ProgramName":"GST"}]]
[Date: 2015-10-20 12:53:39]	[UserID:06/343]	[IP:10.10.11.1]	[Browser:Chrome - 46.0.2490.71]	[Action:Making connection to server]	[Remarks:Successful connection to server: S3]
[Date: 2015-10-20 12:53:39]	[UserID:06/343]	[IP:10.10.11.1]	[Browser:Chrome - 46.0.2490.71]	[Action:GetProgramList 06/343]	[Remarks:[{"ID":"1","ProgramIndex":"GST","ProgramName":"GST"}]]
[Date: 2015-10-20 12:53:39]	[UserID:06/343]	[IP:10.10.11.1]	[Browser:Chrome - 46.0.2490.71]	[Action:Making connection to server]	[Remarks:Successful connection to server: S3]
[Date: 2015-10-20 12:53:39]	[UserID:06/343]	[IP:10.10.11.1]	[Browser:Chrome - 46.0.2490.71]	[Action:Filtering User : MasterData Username : 06/343]	[Remarks:Successful filter row count: 1]
[Date: 2015-10-20 12:53:39]	[UserID:06/343]	[IP:10.10.11.1]	[Browser:Chrome - 46.0.2490.71]	[Action:Making connection to server]	[Remarks:Successful connection to server: S3]
[Date: 2015-10-20 12:53:39]	[UserID:06/343]	[IP:10.10.11.1]	[Browser:Chrome - 46.0.2490.71]	[Action:GetProgramList 06/343]	[Remarks:[{"ID":"1","ProgramIndex":"GST","ProgramName":"GST"}]]
[Date: 2015-10-20 12:53:39]	[UserID:06/343]	[IP:10.10.11.1]	[Browser:Chrome - 46.0.2490.71]	[Action:Making connection to server]	[Remarks:Successful connection to server: S3]
[Date: 2015-10-20 12:53:39]	[UserID:06/343]	[IP:10.10.11.1]	[Browser:Chrome - 46.0.2490.71]	[Action:GetProgramList 06/343]	[Remarks:[{"ID":"1","ProgramIndex":"GST","ProgramName":"GST"}]]
[Date: 2015-10-20 12:53:39]	[UserID:06/343]	[IP:10.10.11.1]	[Browser:Chrome - 46.0.2490.71]	[Action:Making connection to server]	[Remarks:Successful connection to server: S3]
[Date: 2015-10-20 12:53:39]	[UserID:06/343]	[IP:10.10.11.1]	[Browser:Chrome - 46.0.2490.71]	[Action:Filtering User : MasterData Username : 06/343]	[Remarks:Successful filter row count: 1]
[Date: 2015-10-20 12:53:40]	[UserID:06/343]	[IP:10.10.11.1]	[Browser:Chrome - 46.0.2490.71]	[Action:Making connection to server]	[Remarks:Successful connection to server: S3]
[Date: 2015-10-20 12:53:40]	[UserID:06/343]	[IP:10.10.11.1]	[Browser:Chrome - 46.0.2490.71]	[Action:GetGSTModules 06/343,1]	[Remarks:Successful filter row count: 5]
[Date: 2015-10-20 12:53:40]	[UserID:06/343]	[IP:10.10.11.1]	[Browser:Chrome - 46.0.2490.71]	[Action:Closing mssql connection]	[Remarks:Success]
[Date: 2015-10-20 12:56:19]	[UserID:06/343]	[IP:10.10.11.1]	[Browser:Chrome - 46.0.2490.71]	[Action:Making connection to server]	[Remarks:Successful connection to server: S3]
[Date: 2015-10-20 12:56:19]	[UserID:06/343]	[IP:10.10.11.1]	[Browser:Chrome - 46.0.2490.71]	[Action:GetGSTModules 06/343,1]	[Remarks:Successful filter row count: 5]
[Date: 2015-10-20 12:56:19]	[UserID:06/343]	[IP:10.10.11.1]	[Browser:Chrome - 46.0.2490.71]	[Action:Closing mssql connection]	[Remarks:Success]
[Date: 2015-10-20 12:57:47]	[UserID:06/371]	[IP:10.10.11.1]	[Browser:Chrome - 46.0.2490.71]	[Action:Making connection to server]	[Remarks:Successful connection to server: S3]
[Date: 2015-10-20 12:57:47]	[UserID:06/371]	[IP:10.10.11.1]	[Browser:Chrome - 46.0.2490.71]	[Action:GetGSTModules 06/371,1]	[Remarks:Successful filter row count: 5]
[Date: 2015-10-20 12:57:47]	[UserID:06/371]	[IP:10.10.11.1]	[Browser:Chrome - 46.0.2490.71]	[Action:Closing mssql connection]	[Remarks:Success]
[Date: 2015-10-20 13:00:18]	[UserID:06/343]	[IP:10.10.11.1]	[Browser:Chrome - 46.0.2490.71]	[Action:Making connection to server]	[Remarks:Successful connection to server: S3]
[Date: 2015-10-20 13:00:18]	[UserID:06/343]	[IP:10.10.11.1]	[Browser:Chrome - 46.0.2490.71]	[Action:GetGSTModules 06/343,1]	[Remarks:Successful filter row count: 5]
[Date: 2015-10-20 13:00:18]	[UserID:06/343]	[IP:10.10.11.1]	[Browser:Chrome - 46.0.2490.71]	[Action:Closing mssql connection]	[Remarks:Success]
[Date: 2015-10-20 13:01:11]	[UserID:06/343]	[IP:10.10.11.1]	[Browser:Chrome - 46.0.2490.71]	[Action:Making connection to server]	[Remarks:Successful connection to server: S3]
[Date: 2015-10-20 13:01:11]	[UserID:06/343]	[IP:10.10.11.1]	[Browser:Chrome - 46.0.2490.71]	[Action:GetGSTModules 06/343,1]	[Remarks:Successful filter row count: 5]
[Date: 2015-10-20 13:01:11]	[UserID:06/343]	[IP:10.10.11.1]	[Browser:Chrome - 46.0.2490.71]	[Action:Closing mssql connection]	[Remarks:Success]
[Date: 2015-10-20 13:01:35]	[UserID:14/1082]	[IP:10.10.11.1]	[Browser:Chrome - 46.0.2490.71]	[Action:Making connection to server]	[Remarks:Successful connection to server: S3]
[Date: 2015-10-20 13:01:35]	[UserID:14/1082]	[IP:10.10.11.1]	[Browser:Chrome - 46.0.2490.71]	[Action:GetGSTModules 14/1082,1]	[Remarks:Successful filter row count: 7]
[Date: 2015-10-20 13:01:35]	[UserID:14/1082]	[IP:10.10.11.1]	[Browser:Chrome - 46.0.2490.71]	[Action:Closing mssql connection]	[Remarks:Success]
[Date: 2015-10-20 13:09:56]	[UserID:14/1082]	[IP:10.10.11.1]	[Browser:Chrome - 46.0.2490.71]	[Action:Making connection to server]	[Remarks:Successful connection to server: S3]
[Date: 2015-10-20 13:09:57]	[UserID:14/1082]	[IP:10.10.11.1]	[Browser:Chrome - 46.0.2490.71]	[Action:GetGSTModules 14/1082,1]	[Remarks:Successful filter row count: 7]
[Date: 2015-10-20 13:09:57]	[UserID:14/1082]	[IP:10.10.11.1]	[Browser:Chrome - 46.0.2490.71]	[Action:Closing mssql connection]	[Remarks:Success]
[Date: 2015-10-20 13:22:11]	[UserID:14/1082]	[IP:10.10.11.1]	[Browser:Chrome - 46.0.2490.71]	[Action:Making connection to server]	[Remarks:Successful connection to server: S3]
[Date: 2015-10-20 13:22:12]	[UserID:14/1082]	[IP:10.10.11.1]	[Browser:Chrome - 46.0.2490.71]	[Action:GetGSTModules 14/1082,1]	[Remarks:Successful filter row count: 7]
[Date: 2015-10-20 13:22:12]	[UserID:14/1082]	[IP:10.10.11.1]	[Browser:Chrome - 46.0.2490.71]	[Action:Closing mssql connection]	[Remarks:Success]
[Date: 2015-10-20 13:23:10]	[UserID:14/1082]	[IP:10.10.11.1]	[Browser:Chrome - 46.0.2490.71]	[Action:Making connection to server]	[Remarks:Successful connection to server: S3]
[Date: 2015-10-20 13:23:10]	[UserID:14/1082]	[IP:10.10.11.1]	[Browser:Chrome - 46.0.2490.71]	[Action:GetGSTModules 14/1082,1]	[Remarks:Successful filter row count: 7]
[Date: 2015-10-20 13:23:10]	[UserID:14/1082]	[IP:10.10.11.1]	[Browser:Chrome - 46.0.2490.71]	[Action:Closing mssql connection]	[Remarks:Success]
[Date: 2015-10-20 17:15:44]	[UserID:]	[IP:10.10.11.1]	[Browser:Chrome - 46.0.2490.71]	[Action:Making connection to server]	[Remarks:Successful connection to server: S3]
[Date: 2015-10-20 17:15:44]	[UserID:]	[IP:10.10.11.1]	[Browser:Chrome - 46.0.2490.71]	[Action:GetProgramList ]	[Remarks:"no data"]
