[Date: 2019-12-13 08:17:22]	[UserID:]	[IP:10.130.25.203]	[Browser:Firefox - 60.0]	[Action:Making connection to server]	[Remarks:Successful connection to server: S3]
[Date: 2019-12-13 08:17:22]	[UserID:]	[IP:10.130.25.203]	[Browser:Firefox - 60.0]	[Action:GetProgramList ]	[Remarks:"no data"]
[Date: 2019-12-13 08:37:50]	[UserID:]	[IP:10.130.25.203]	[Browser:Firefox - 60.0]	[Action:Making connection to server]	[Remarks:Successful connection to server: S3]
[Date: 2019-12-13 08:37:50]	[UserID:]	[IP:10.130.25.203]	[Browser:Firefox - 60.0]	[Action:GetProgramList ]	[Remarks:"no data"]
[Date: 2019-12-13 08:49:24]	[UserID:]	[IP:10.130.25.203]	[Browser:Firefox - 60.0]	[Action:Making connection to server]	[Remarks:Successful connection to server: S3]
[Date: 2019-12-13 08:49:24]	[UserID:]	[IP:10.130.25.203]	[Browser:Firefox - 60.0]	[Action:GetProgramList ]	[Remarks:"no data"]
[Date: 2019-12-13 08:52:11]	[UserID:]	[IP:10.130.25.203]	[Browser:Chrome - 78.0.3904.108]	[Action:Making connection to server]	[Remarks:Successful connection to server: S3]
[Date: 2019-12-13 08:52:11]	[UserID:]	[IP:10.130.25.203]	[Browser:Chrome - 78.0.3904.108]	[Action:GetProgramList ]	[Remarks:"no data"]
[Date: 2019-12-13 09:07:25]	[UserID:dev/cibandiola]	[IP:10.130.25.203]	[Browser:Chrome - 78.0.3904.108]	[Action:Making connection to server]	[Remarks:Successful connection to server: S3]
[Date: 2019-12-13 09:07:25]	[UserID:dev/cibandiola]	[IP:10.130.25.203]	[Browser:Chrome - 78.0.3904.108]	[Action:User dev/cibandiola]	[Remarks:Success]
[Date: 2019-12-13 09:07:25]	[UserID:dev/cibandiola]	[IP:10.130.25.203]	[Browser:Chrome - 78.0.3904.108]	[Action:Filtering User : MasterData Username : dev/cibandiola]	[Remarks:Successful filter row count: 0]
[Date: 2019-12-13 09:07:25]	[UserID:dev/cibandiola]	[IP:10.130.25.203]	[Browser:Chrome - 78.0.3904.108]	[Action:Filtering User : MasterData Username : dev/cibandiola]	[Remarks:Successful filter row count: 0]
[Date: 2019-12-13 09:07:25]	[UserID:dev/cibandiola]	[IP:10.130.25.203]	[Browser:Chrome - 78.0.3904.108]	[Action:Filtering User : MasterData Username : dev/cibandiola]	[Remarks:Success]
[Date: 2019-12-13 09:07:25]	[UserID:dev/cibandiola]	[IP:10.130.25.203]	[Browser:Chrome - 78.0.3904.108]	[Action:Closing mssql connection]	[Remarks:Success]
[Date: 2019-12-13 09:07:25]	[UserID:dev/cibandiola]	[IP:10.130.25.203]	[Browser:Chrome - 78.0.3904.108]	[Action:Making connection to server]	[Remarks:Successful connection to server: S3]
[Date: 2019-12-13 09:07:25]	[UserID:dev/cibandiola]	[IP:10.130.25.203]	[Browser:Chrome - 78.0.3904.108]	[Action:GetProgramList dev/cibandiola]	[Remarks:[{"ID":"1","ProgramIndex":"GST","ProgramName":"GST"},{"ID":"3","ProgramIndex":"PRD","ProgramName":"PRD"}]]
[Date: 2019-12-13 09:07:25]	[UserID:dev/cibandiola]	[IP:10.130.25.203]	[Browser:Chrome - 78.0.3904.108]	[Action:Making connection to server]	[Remarks:Successful connection to server: S3]
[Date: 2019-12-13 09:07:25]	[UserID:dev/cibandiola]	[IP:10.130.25.203]	[Browser:Chrome - 78.0.3904.108]	[Action:GetProgramList dev/cibandiola]	[Remarks:[{"ID":"1","ProgramIndex":"GST","ProgramName":"GST"},{"ID":"3","ProgramIndex":"PRD","ProgramName":"PRD"}]]
[Date: 2019-12-13 09:07:25]	[UserID:dev/cibandiola]	[IP:10.130.25.203]	[Browser:Chrome - 78.0.3904.108]	[Action:Making connection to server]	[Remarks:Successful connection to server: S3]
[Date: 2019-12-13 09:07:25]	[UserID:dev/cibandiola]	[IP:10.130.25.203]	[Browser:Chrome - 78.0.3904.108]	[Action:Filtering User : MasterData Username : dev/cibandiola]	[Remarks:Successful filter row count: 1]
[Date: 2019-12-13 09:07:29]	[UserID:dev/cibandiola]	[IP:10.130.25.203]	[Browser:Chrome - 78.0.3904.108]	[Action:Making connection to server]	[Remarks:Successful connection to server: S3]
[Date: 2019-12-13 09:07:29]	[UserID:dev/cibandiola]	[IP:10.130.25.203]	[Browser:Chrome - 78.0.3904.108]	[Action:GetGSTModules dev/cibandiola,1]	[Remarks:Successful filter row count: 12]
[Date: 2019-12-13 09:07:29]	[UserID:dev/cibandiola]	[IP:10.130.25.203]	[Browser:Chrome - 78.0.3904.108]	[Action:Closing mssql connection]	[Remarks:Success]
[Date: 2019-12-13 10:23:54]	[UserID:]	[IP:10.128.12.113]	[Browser:Chrome - 79.0.3945.79]	[Action:Making connection to server]	[Remarks:Successful connection to server: S3]
[Date: 2019-12-13 10:23:54]	[UserID:]	[IP:10.128.12.113]	[Browser:Chrome - 79.0.3945.79]	[Action:GetProgramList ]	[Remarks:"no data"]
[Date: 2019-12-13 10:24:03]	[UserID:06/343]	[IP:10.128.12.113]	[Browser:Chrome - 79.0.3945.79]	[Action:Making connection to server]	[Remarks:Successful connection to server: S3]
[Date: 2019-12-13 10:24:03]	[UserID:06/343]	[IP:10.128.12.113]	[Browser:Chrome - 79.0.3945.79]	[Action:LogMeIn 06/343,plant@888]	[Remarks:Failed]
[Date: 2019-12-13 10:24:03]	[UserID:06/343]	[IP:10.128.12.113]	[Browser:Chrome - 79.0.3945.79]	[Action:Closing mssql connection]	[Remarks:Success]
[Date: 2019-12-13 10:27:28]	[UserID:06/343]	[IP:10.128.12.113]	[Browser:Chrome - 79.0.3945.79]	[Action:Making connection to server]	[Remarks:Successful connection to server: S3]
[Date: 2019-12-13 10:27:28]	[UserID:06/343]	[IP:10.128.12.113]	[Browser:Chrome - 79.0.3945.79]	[Action:LogMeIn 06/343,plant@888]	[Remarks:Failed]
[Date: 2019-12-13 10:27:28]	[UserID:06/343]	[IP:10.128.12.113]	[Browser:Chrome - 79.0.3945.79]	[Action:Closing mssql connection]	[Remarks:Success]
[Date: 2019-12-13 10:27:35]	[UserID:06/343]	[IP:10.128.12.113]	[Browser:Chrome - 79.0.3945.79]	[Action:Making connection to server]	[Remarks:Successful connection to server: S3]
[Date: 2019-12-13 10:27:35]	[UserID:06/343]	[IP:10.128.12.113]	[Browser:Chrome - 79.0.3945.79]	[Action:User 06/343]	[Remarks:Success]
[Date: 2019-12-13 10:27:35]	[UserID:06/343]	[IP:10.128.12.113]	[Browser:Chrome - 79.0.3945.79]	[Action:Filtering User : MasterData Username : 06/343]	[Remarks:Successful filter row count: 0]
[Date: 2019-12-13 10:27:35]	[UserID:06/343]	[IP:10.128.12.113]	[Browser:Chrome - 79.0.3945.79]	[Action:Filtering User : MasterData Username : 06/343]	[Remarks:Successful filter row count: 0]
[Date: 2019-12-13 10:27:35]	[UserID:06/343]	[IP:10.128.12.113]	[Browser:Chrome - 79.0.3945.79]	[Action:Filtering User : MasterData Username : 06/343]	[Remarks:Success]
[Date: 2019-12-13 10:27:35]	[UserID:06/343]	[IP:10.128.12.113]	[Browser:Chrome - 79.0.3945.79]	[Action:Closing mssql connection]	[Remarks:Success]
[Date: 2019-12-13 10:27:36]	[UserID:]	[IP:10.128.12.113]	[Browser:Chrome - 79.0.3945.79]	[Action:Making connection to server]	[Remarks:Successful connection to server: S3]
[Date: 2019-12-13 10:27:36]	[UserID:]	[IP:10.128.12.113]	[Browser:Chrome - 79.0.3945.79]	[Action:GetProgramList ]	[Remarks:"no data"]
[Date: 2019-12-13 10:27:42]	[UserID:06/343]	[IP:10.128.12.113]	[Browser:Chrome - 79.0.3945.79]	[Action:Making connection to server]	[Remarks:Successful connection to server: S3]
[Date: 2019-12-13 10:27:42]	[UserID:06/343]	[IP:10.128.12.113]	[Browser:Chrome - 79.0.3945.79]	[Action:User 06/343]	[Remarks:Success]
[Date: 2019-12-13 10:27:42]	[UserID:06/343]	[IP:10.128.12.113]	[Browser:Chrome - 79.0.3945.79]	[Action:Filtering User : MasterData Username : 06/343]	[Remarks:Successful filter row count: 0]
[Date: 2019-12-13 10:27:42]	[UserID:06/343]	[IP:10.128.12.113]	[Browser:Chrome - 79.0.3945.79]	[Action:Filtering User : MasterData Username : 06/343]	[Remarks:Successful filter row count: 0]
[Date: 2019-12-13 10:27:42]	[UserID:06/343]	[IP:10.128.12.113]	[Browser:Chrome - 79.0.3945.79]	[Action:Filtering User : MasterData Username : 06/343]	[Remarks:Success]
[Date: 2019-12-13 10:27:42]	[UserID:06/343]	[IP:10.128.12.113]	[Browser:Chrome - 79.0.3945.79]	[Action:Closing mssql connection]	[Remarks:Success]
[Date: 2019-12-13 10:27:42]	[UserID:06/343]	[IP:10.128.12.113]	[Browser:Chrome - 79.0.3945.79]	[Action:Making connection to server]	[Remarks:Successful connection to server: S3]
[Date: 2019-12-13 10:27:42]	[UserID:06/343]	[IP:10.128.12.113]	[Browser:Chrome - 79.0.3945.79]	[Action:GetProgramList 06/343]	[Remarks:[{"ID":"1","ProgramIndex":"GST","ProgramName":"GST"}]]
[Date: 2019-12-13 10:27:42]	[UserID:06/343]	[IP:10.128.12.113]	[Browser:Chrome - 79.0.3945.79]	[Action:Making connection to server]	[Remarks:Successful connection to server: S3]
[Date: 2019-12-13 10:27:42]	[UserID:06/343]	[IP:10.128.12.113]	[Browser:Chrome - 79.0.3945.79]	[Action:GetProgramList 06/343]	[Remarks:[{"ID":"1","ProgramIndex":"GST","ProgramName":"GST"}]]
[Date: 2019-12-13 10:27:42]	[UserID:06/343]	[IP:10.128.12.113]	[Browser:Chrome - 79.0.3945.79]	[Action:Making connection to server]	[Remarks:Successful connection to server: S3]
[Date: 2019-12-13 10:27:42]	[UserID:06/343]	[IP:10.128.12.113]	[Browser:Chrome - 79.0.3945.79]	[Action:Filtering User : MasterData Username : 06/343]	[Remarks:Successful filter row count: 1]
[Date: 2019-12-13 10:27:42]	[UserID:06/343]	[IP:10.128.12.113]	[Browser:Chrome - 79.0.3945.79]	[Action:Making connection to server]	[Remarks:Successful connection to server: S3]
[Date: 2019-12-13 10:27:42]	[UserID:06/343]	[IP:10.128.12.113]	[Browser:Chrome - 79.0.3945.79]	[Action:GetGSTModules 06/343,1]	[Remarks:Successful filter row count: 7]
[Date: 2019-12-13 10:27:42]	[UserID:06/343]	[IP:10.128.12.113]	[Browser:Chrome - 79.0.3945.79]	[Action:Closing mssql connection]	[Remarks:Success]
[Date: 2019-12-13 11:03:01]	[UserID:06/343]	[IP:10.128.12.113]	[Browser:Chrome - 79.0.3945.79]	[Action:Making connection to server]	[Remarks:Successful connection to server: S3]
[Date: 2019-12-13 11:03:01]	[UserID:06/343]	[IP:10.128.12.113]	[Browser:Chrome - 79.0.3945.79]	[Action:GetGSTModules 06/343,1]	[Remarks:Successful filter row count: 7]
[Date: 2019-12-13 11:03:01]	[UserID:06/343]	[IP:10.128.12.113]	[Browser:Chrome - 79.0.3945.79]	[Action:Closing mssql connection]	[Remarks:Success]
[Date: 2019-12-13 11:22:38]	[UserID:06/343]	[IP:10.128.12.113]	[Browser:Chrome - 79.0.3945.79]	[Action:Making connection to server]	[Remarks:Successful connection to server: S3]
[Date: 2019-12-13 11:22:38]	[UserID:06/343]	[IP:10.128.12.113]	[Browser:Chrome - 79.0.3945.79]	[Action:GetGSTModules 06/343,1]	[Remarks:Successful filter row count: 7]
[Date: 2019-12-13 11:22:38]	[UserID:06/343]	[IP:10.128.12.113]	[Browser:Chrome - 79.0.3945.79]	[Action:Closing mssql connection]	[Remarks:Success]
[Date: 2019-12-13 11:31:56]	[UserID:06/343]	[IP:10.128.12.113]	[Browser:Chrome - 79.0.3945.79]	[Action:Making connection to server]	[Remarks:Successful connection to server: S3]
[Date: 2019-12-13 11:31:56]	[UserID:06/343]	[IP:10.128.12.113]	[Browser:Chrome - 79.0.3945.79]	[Action:GetGSTModules 06/343,1]	[Remarks:Successful filter row count: 7]
[Date: 2019-12-13 11:31:56]	[UserID:06/343]	[IP:10.128.12.113]	[Browser:Chrome - 79.0.3945.79]	[Action:Closing mssql connection]	[Remarks:Success]
[Date: 2019-12-13 12:24:58]	[UserID:]	[IP:10.130.25.203]	[Browser:Firefox - 60.0]	[Action:Making connection to server]	[Remarks:Successful connection to server: S3]
[Date: 2019-12-13 12:24:58]	[UserID:]	[IP:10.130.25.203]	[Browser:Firefox - 60.0]	[Action:GetProgramList ]	[Remarks:"no data"]
[Date: 2019-12-13 13:42:25]	[UserID:]	[IP:10.128.80.168]	[Browser:Chrome - 78.0.3904.108]	[Action:Making connection to server]	[Remarks:Successful connection to server: S3]
[Date: 2019-12-13 13:42:25]	[UserID:]	[IP:10.128.80.168]	[Browser:Chrome - 78.0.3904.108]	[Action:GetProgramList ]	[Remarks:"no data"]
[Date: 2019-12-13 13:42:32]	[UserID:dev/lcolocado]	[IP:10.128.80.168]	[Browser:Chrome - 78.0.3904.108]	[Action:Making connection to server]	[Remarks:Successful connection to server: S3]
[Date: 2019-12-13 13:42:32]	[UserID:dev/lcolocado]	[IP:10.128.80.168]	[Browser:Chrome - 78.0.3904.108]	[Action:LogMeIn dev/lcolocado,forgetmenot]	[Remarks:Failed]
[Date: 2019-12-13 13:42:32]	[UserID:dev/lcolocado]	[IP:10.128.80.168]	[Browser:Chrome - 78.0.3904.108]	[Action:Closing mssql connection]	[Remarks:Success]
[Date: 2019-12-13 13:42:35]	[UserID:dev/lcolocado]	[IP:10.128.80.168]	[Browser:Chrome - 78.0.3904.108]	[Action:Making connection to server]	[Remarks:Successful connection to server: S3]
[Date: 2019-12-13 13:42:35]	[UserID:dev/lcolocado]	[IP:10.128.80.168]	[Browser:Chrome - 78.0.3904.108]	[Action:User dev/lcolocado]	[Remarks:Success]
[Date: 2019-12-13 13:42:35]	[UserID:dev/lcolocado]	[IP:10.128.80.168]	[Browser:Chrome - 78.0.3904.108]	[Action:Filtering User : MasterData Username : dev/lcolocado]	[Remarks:Successful filter row count: 0]
[Date: 2019-12-13 13:42:35]	[UserID:dev/lcolocado]	[IP:10.128.80.168]	[Browser:Chrome - 78.0.3904.108]	[Action:Filtering User : MasterData Username : dev/lcolocado]	[Remarks:Successful filter row count: 0]
[Date: 2019-12-13 13:42:35]	[UserID:dev/lcolocado]	[IP:10.128.80.168]	[Browser:Chrome - 78.0.3904.108]	[Action:Filtering User : MasterData Username : dev/lcolocado]	[Remarks:Success]
[Date: 2019-12-13 13:42:35]	[UserID:dev/lcolocado]	[IP:10.128.80.168]	[Browser:Chrome - 78.0.3904.108]	[Action:Closing mssql connection]	[Remarks:Success]
[Date: 2019-12-13 13:42:35]	[UserID:]	[IP:10.128.80.168]	[Browser:Chrome - 78.0.3904.108]	[Action:Making connection to server]	[Remarks:Successful connection to server: S3]
[Date: 2019-12-13 13:42:35]	[UserID:]	[IP:10.128.80.168]	[Browser:Chrome - 78.0.3904.108]	[Action:GetProgramList ]	[Remarks:"no data"]
[Date: 2019-12-13 13:42:41]	[UserID:dev/lcolocado]	[IP:10.128.80.168]	[Browser:Chrome - 78.0.3904.108]	[Action:Making connection to server]	[Remarks:Successful connection to server: S3]
[Date: 2019-12-13 13:42:41]	[UserID:dev/lcolocado]	[IP:10.128.80.168]	[Browser:Chrome - 78.0.3904.108]	[Action:LogMeIn dev/lcolocado,forgetmenot]	[Remarks:Failed]
[Date: 2019-12-13 13:42:41]	[UserID:dev/lcolocado]	[IP:10.128.80.168]	[Browser:Chrome - 78.0.3904.108]	[Action:Closing mssql connection]	[Remarks:Success]
[Date: 2019-12-13 13:42:44]	[UserID:dev/lcolocado]	[IP:10.128.80.168]	[Browser:Chrome - 78.0.3904.108]	[Action:Making connection to server]	[Remarks:Successful connection to server: S3]
[Date: 2019-12-13 13:42:44]	[UserID:dev/lcolocado]	[IP:10.128.80.168]	[Browser:Chrome - 78.0.3904.108]	[Action:User dev/lcolocado]	[Remarks:Success]
[Date: 2019-12-13 13:42:44]	[UserID:dev/lcolocado]	[IP:10.128.80.168]	[Browser:Chrome - 78.0.3904.108]	[Action:Filtering User : MasterData Username : dev/lcolocado]	[Remarks:Successful filter row count: 0]
[Date: 2019-12-13 13:42:44]	[UserID:dev/lcolocado]	[IP:10.128.80.168]	[Browser:Chrome - 78.0.3904.108]	[Action:Filtering User : MasterData Username : dev/lcolocado]	[Remarks:Successful filter row count: 0]
[Date: 2019-12-13 13:42:44]	[UserID:dev/lcolocado]	[IP:10.128.80.168]	[Browser:Chrome - 78.0.3904.108]	[Action:Filtering User : MasterData Username : dev/lcolocado]	[Remarks:Success]
[Date: 2019-12-13 13:42:44]	[UserID:dev/lcolocado]	[IP:10.128.80.168]	[Browser:Chrome - 78.0.3904.108]	[Action:Closing mssql connection]	[Remarks:Success]
[Date: 2019-12-13 13:42:44]	[UserID:]	[IP:10.128.80.168]	[Browser:Chrome - 78.0.3904.108]	[Action:Making connection to server]	[Remarks:Successful connection to server: S3]
[Date: 2019-12-13 13:42:44]	[UserID:]	[IP:10.128.80.168]	[Browser:Chrome - 78.0.3904.108]	[Action:GetProgramList ]	[Remarks:"no data"]
[Date: 2019-12-13 13:42:51]	[UserID:dev/lcolocado]	[IP:10.128.80.168]	[Browser:Chrome - 78.0.3904.108]	[Action:Making connection to server]	[Remarks:Successful connection to server: S3]
[Date: 2019-12-13 13:42:51]	[UserID:dev/lcolocado]	[IP:10.128.80.168]	[Browser:Chrome - 78.0.3904.108]	[Action:User dev/lcolocado]	[Remarks:Success]
[Date: 2019-12-13 13:42:51]	[UserID:dev/lcolocado]	[IP:10.128.80.168]	[Browser:Chrome - 78.0.3904.108]	[Action:Filtering User : MasterData Username : dev/lcolocado]	[Remarks:Successful filter row count: 0]
[Date: 2019-12-13 13:42:51]	[UserID:dev/lcolocado]	[IP:10.128.80.168]	[Browser:Chrome - 78.0.3904.108]	[Action:Filtering User : MasterData Username : dev/lcolocado]	[Remarks:Successful filter row count: 0]
[Date: 2019-12-13 13:42:51]	[UserID:dev/lcolocado]	[IP:10.128.80.168]	[Browser:Chrome - 78.0.3904.108]	[Action:Filtering User : MasterData Username : dev/lcolocado]	[Remarks:Success]
[Date: 2019-12-13 13:42:51]	[UserID:dev/lcolocado]	[IP:10.128.80.168]	[Browser:Chrome - 78.0.3904.108]	[Action:Closing mssql connection]	[Remarks:Success]
[Date: 2019-12-13 13:42:51]	[UserID:dev/lcolocado]	[IP:10.128.80.168]	[Browser:Chrome - 78.0.3904.108]	[Action:Making connection to server]	[Remarks:Successful connection to server: S3]
[Date: 2019-12-13 13:42:51]	[UserID:dev/lcolocado]	[IP:10.128.80.168]	[Browser:Chrome - 78.0.3904.108]	[Action:GetProgramList dev/lcolocado]	[Remarks:[{"ID":"1","ProgramIndex":"GST","ProgramName":"GST"},{"ID":"3","ProgramIndex":"PRD","ProgramName":"PRD"}]]
[Date: 2019-12-13 13:42:51]	[UserID:dev/lcolocado]	[IP:10.128.80.168]	[Browser:Chrome - 78.0.3904.108]	[Action:Making connection to server]	[Remarks:Successful connection to server: S3]
[Date: 2019-12-13 13:42:51]	[UserID:dev/lcolocado]	[IP:10.128.80.168]	[Browser:Chrome - 78.0.3904.108]	[Action:GetProgramList dev/lcolocado]	[Remarks:[{"ID":"1","ProgramIndex":"GST","ProgramName":"GST"},{"ID":"3","ProgramIndex":"PRD","ProgramName":"PRD"}]]
[Date: 2019-12-13 13:42:51]	[UserID:dev/lcolocado]	[IP:10.128.80.168]	[Browser:Chrome - 78.0.3904.108]	[Action:Making connection to server]	[Remarks:Successful connection to server: S3]
[Date: 2019-12-13 13:42:51]	[UserID:dev/lcolocado]	[IP:10.128.80.168]	[Browser:Chrome - 78.0.3904.108]	[Action:Filtering User : MasterData Username : dev/lcolocado]	[Remarks:Successful filter row count: 1]
[Date: 2019-12-13 13:42:53]	[UserID:dev/lcolocado]	[IP:10.128.80.168]	[Browser:Chrome - 78.0.3904.108]	[Action:Making connection to server]	[Remarks:Successful connection to server: S3]
[Date: 2019-12-13 13:42:53]	[UserID:dev/lcolocado]	[IP:10.128.80.168]	[Browser:Chrome - 78.0.3904.108]	[Action:GetGSTModules dev/lcolocado,1]	[Remarks:Successful filter row count: 11]
[Date: 2019-12-13 13:42:53]	[UserID:dev/lcolocado]	[IP:10.128.80.168]	[Browser:Chrome - 78.0.3904.108]	[Action:Closing mssql connection]	[Remarks:Success]
[Date: 2019-12-13 14:04:59]	[UserID:dev/lcolocado]	[IP:10.128.80.168]	[Browser:Chrome - 78.0.3904.108]	[Action:Making connection to server]	[Remarks:Successful connection to server: S3]
[Date: 2019-12-13 14:04:59]	[UserID:dev/lcolocado]	[IP:10.128.80.168]	[Browser:Chrome - 78.0.3904.108]	[Action:GetGSTModules dev/lcolocado,1]	[Remarks:Successful filter row count: 11]
[Date: 2019-12-13 14:04:59]	[UserID:dev/lcolocado]	[IP:10.128.80.168]	[Browser:Chrome - 78.0.3904.108]	[Action:Closing mssql connection]	[Remarks:Success]
[Date: 2019-12-13 16:53:51]	[UserID:]	[IP:10.128.12.113]	[Browser:Chrome - 79.0.3945.79]	[Action:Making connection to server]	[Remarks:Successful connection to server: S3]
[Date: 2019-12-13 16:53:51]	[UserID:]	[IP:10.128.12.113]	[Browser:Chrome - 79.0.3945.79]	[Action:GetProgramList ]	[Remarks:"no data"]
[Date: 2019-12-13 16:54:01]	[UserID:06/343]	[IP:10.128.12.113]	[Browser:Chrome - 79.0.3945.79]	[Action:Making connection to server]	[Remarks:Successful connection to server: S3]
[Date: 2019-12-13 16:54:01]	[UserID:06/343]	[IP:10.128.12.113]	[Browser:Chrome - 79.0.3945.79]	[Action:User 06/343]	[Remarks:Success]
[Date: 2019-12-13 16:54:01]	[UserID:06/343]	[IP:10.128.12.113]	[Browser:Chrome - 79.0.3945.79]	[Action:Filtering User : MasterData Username : 06/343]	[Remarks:Successful filter row count: 0]
[Date: 2019-12-13 16:54:01]	[UserID:06/343]	[IP:10.128.12.113]	[Browser:Chrome - 79.0.3945.79]	[Action:Filtering User : MasterData Username : 06/343]	[Remarks:Successful filter row count: 0]
[Date: 2019-12-13 16:54:01]	[UserID:06/343]	[IP:10.128.12.113]	[Browser:Chrome - 79.0.3945.79]	[Action:Filtering User : MasterData Username : 06/343]	[Remarks:Success]
[Date: 2019-12-13 16:54:01]	[UserID:06/343]	[IP:10.128.12.113]	[Browser:Chrome - 79.0.3945.79]	[Action:Closing mssql connection]	[Remarks:Success]
[Date: 2019-12-13 16:54:01]	[UserID:06/343]	[IP:10.128.12.113]	[Browser:Chrome - 79.0.3945.79]	[Action:Making connection to server]	[Remarks:Successful connection to server: S3]
[Date: 2019-12-13 16:54:01]	[UserID:06/343]	[IP:10.128.12.113]	[Browser:Chrome - 79.0.3945.79]	[Action:GetProgramList 06/343]	[Remarks:[{"ID":"1","ProgramIndex":"GST","ProgramName":"GST"}]]
[Date: 2019-12-13 16:54:01]	[UserID:06/343]	[IP:10.128.12.113]	[Browser:Chrome - 79.0.3945.79]	[Action:Making connection to server]	[Remarks:Successful connection to server: S3]
[Date: 2019-12-13 16:54:01]	[UserID:06/343]	[IP:10.128.12.113]	[Browser:Chrome - 79.0.3945.79]	[Action:GetProgramList 06/343]	[Remarks:[{"ID":"1","ProgramIndex":"GST","ProgramName":"GST"}]]
[Date: 2019-12-13 16:54:01]	[UserID:06/343]	[IP:10.128.12.113]	[Browser:Chrome - 79.0.3945.79]	[Action:Making connection to server]	[Remarks:Successful connection to server: S3]
[Date: 2019-12-13 16:54:01]	[UserID:06/343]	[IP:10.128.12.113]	[Browser:Chrome - 79.0.3945.79]	[Action:Filtering User : MasterData Username : 06/343]	[Remarks:Successful filter row count: 1]
[Date: 2019-12-13 16:54:01]	[UserID:06/343]	[IP:10.128.12.113]	[Browser:Chrome - 79.0.3945.79]	[Action:Making connection to server]	[Remarks:Successful connection to server: S3]
[Date: 2019-12-13 16:54:01]	[UserID:06/343]	[IP:10.128.12.113]	[Browser:Chrome - 79.0.3945.79]	[Action:GetGSTModules 06/343,1]	[Remarks:Successful filter row count: 7]
[Date: 2019-12-13 16:54:01]	[UserID:06/343]	[IP:10.128.12.113]	[Browser:Chrome - 79.0.3945.79]	[Action:Closing mssql connection]	[Remarks:Success]
[Date: 2019-12-13 16:54:21]	[UserID:06/343]	[IP:10.128.12.113]	[Browser:Chrome - 79.0.3945.79]	[Action:Making connection to server]	[Remarks:Successful connection to server: S3]
[Date: 2019-12-13 16:54:21]	[UserID:06/343]	[IP:10.128.12.113]	[Browser:Chrome - 79.0.3945.79]	[Action:GetGSTModules 06/343,1]	[Remarks:Successful filter row count: 7]
[Date: 2019-12-13 16:54:21]	[UserID:06/343]	[IP:10.128.12.113]	[Browser:Chrome - 79.0.3945.79]	[Action:Closing mssql connection]	[Remarks:Success]
[Date: 2019-12-13 16:55:01]	[UserID:06/343]	[IP:10.128.12.113]	[Browser:Chrome - 79.0.3945.79]	[Action:Making connection to server]	[Remarks:Successful connection to server: S3]
[Date: 2019-12-13 16:55:01]	[UserID:06/343]	[IP:10.128.12.113]	[Browser:Chrome - 79.0.3945.79]	[Action:GetGSTModules 06/343,1]	[Remarks:Successful filter row count: 7]
[Date: 2019-12-13 16:55:01]	[UserID:06/343]	[IP:10.128.12.113]	[Browser:Chrome - 79.0.3945.79]	[Action:Closing mssql connection]	[Remarks:Success]
[Date: 2019-12-13 16:55:18]	[UserID:06/343]	[IP:10.128.12.113]	[Browser:Chrome - 79.0.3945.79]	[Action:Making connection to server]	[Remarks:Successful connection to server: S3]
[Date: 2019-12-13 16:55:18]	[UserID:06/343]	[IP:10.128.12.113]	[Browser:Chrome - 79.0.3945.79]	[Action:GetGSTModules 06/343,1]	[Remarks:Successful filter row count: 7]
[Date: 2019-12-13 16:55:18]	[UserID:06/343]	[IP:10.128.12.113]	[Browser:Chrome - 79.0.3945.79]	[Action:Closing mssql connection]	[Remarks:Success]
[Date: 2019-12-13 23:02:47]	[UserID:]	[IP:10.130.25.207]	[Browser:Chrome - 78.0.3904.108]	[Action:Making connection to server]	[Remarks:Successful connection to server: S3]
[Date: 2019-12-13 23:02:47]	[UserID:]	[IP:10.130.25.207]	[Browser:Chrome - 78.0.3904.108]	[Action:GetProgramList ]	[Remarks:"no data"]
