[Date: 2016-08-05 08:30:31]	[UserID:]	[IP:10.10.11.1]	[Browser:Chrome - 49.0.2623.75]	[Action:Making connection to server]	[Remarks:Successful connection to server: S3]
[Date: 2016-08-05 08:30:31]	[UserID:]	[IP:10.10.11.1]	[Browser:Chrome - 49.0.2623.75]	[Action:GetProgramList ]	[Remarks:"no data"]
[Date: 2016-08-05 09:30:24]	[UserID:]	[IP:10.10.11.1]	[Browser:Chrome - 51.0.2704.103]	[Action:Making connection to server]	[Remarks:Successful connection to server: S3]
[Date: 2016-08-05 09:30:24]	[UserID:]	[IP:10.10.11.1]	[Browser:Chrome - 51.0.2704.103]	[Action:GetProgramList ]	[Remarks:"no data"]
[Date: 2016-08-05 09:30:31]	[UserID:10/660]	[IP:10.10.11.1]	[Browser:Chrome - 51.0.2704.103]	[Action:Making connection to server]	[Remarks:Successful connection to server: S3]
[Date: 2016-08-05 09:30:31]	[UserID:10/660]	[IP:10.10.11.1]	[Browser:Chrome - 51.0.2704.103]	[Action:User 10/660]	[Remarks:Success]
[Date: 2016-08-05 09:30:31]	[UserID:10/660]	[IP:10.10.11.1]	[Browser:Chrome - 51.0.2704.103]	[Action:Filtering User : MasterData Username : 10/660]	[Remarks:Successful filter row count: 0]
[Date: 2016-08-05 09:30:31]	[UserID:10/660]	[IP:10.10.11.1]	[Browser:Chrome - 51.0.2704.103]	[Action:Filtering User : MasterData Username : 10/660]	[Remarks:Successful filter row count: 0]
[Date: 2016-08-05 09:30:31]	[UserID:10/660]	[IP:10.10.11.1]	[Browser:Chrome - 51.0.2704.103]	[Action:Filtering User : MasterData Username : 10/660]	[Remarks:Success]
[Date: 2016-08-05 09:30:31]	[UserID:10/660]	[IP:10.10.11.1]	[Browser:Chrome - 51.0.2704.103]	[Action:Closing mssql connection]	[Remarks:Success]
[Date: 2016-08-05 09:30:31]	[UserID:10/660]	[IP:10.10.11.1]	[Browser:Chrome - 51.0.2704.103]	[Action:Making connection to server]	[Remarks:Successful connection to server: S3]
[Date: 2016-08-05 09:30:31]	[UserID:10/660]	[IP:10.10.11.1]	[Browser:Chrome - 51.0.2704.103]	[Action:GetProgramList 10/660]	[Remarks:[{"ID":"1","ProgramIndex":"GST","ProgramName":"GST"}]]
[Date: 2016-08-05 09:30:31]	[UserID:10/660]	[IP:10.10.11.1]	[Browser:Chrome - 51.0.2704.103]	[Action:Making connection to server]	[Remarks:Successful connection to server: S3]
[Date: 2016-08-05 09:30:31]	[UserID:10/660]	[IP:10.10.11.1]	[Browser:Chrome - 51.0.2704.103]	[Action:GetProgramList 10/660]	[Remarks:[{"ID":"1","ProgramIndex":"GST","ProgramName":"GST"}]]
[Date: 2016-08-05 09:30:31]	[UserID:10/660]	[IP:10.10.11.1]	[Browser:Chrome - 51.0.2704.103]	[Action:Making connection to server]	[Remarks:Successful connection to server: S3]
[Date: 2016-08-05 09:30:31]	[UserID:10/660]	[IP:10.10.11.1]	[Browser:Chrome - 51.0.2704.103]	[Action:Filtering User : MasterData Username : 10/660]	[Remarks:Successful filter row count: 1]
[Date: 2016-08-05 09:30:32]	[UserID:10/660]	[IP:10.10.11.1]	[Browser:Chrome - 51.0.2704.103]	[Action:Making connection to server]	[Remarks:Successful connection to server: S3]
[Date: 2016-08-05 09:30:32]	[UserID:10/660]	[IP:10.10.11.1]	[Browser:Chrome - 51.0.2704.103]	[Action:GetGSTModules 10/660,1]	[Remarks:Successful filter row count: 3]
[Date: 2016-08-05 09:30:32]	[UserID:10/660]	[IP:10.10.11.1]	[Browser:Chrome - 51.0.2704.103]	[Action:Closing mssql connection]	[Remarks:Success]
[Date: 2016-08-05 09:33:40]	[UserID:10/660]	[IP:10.10.11.1]	[Browser:Chrome - 51.0.2704.103]	[Action:Making connection to server]	[Remarks:Successful connection to server: S3]
[Date: 2016-08-05 09:33:40]	[UserID:10/660]	[IP:10.10.11.1]	[Browser:Chrome - 51.0.2704.103]	[Action:GetGSTModules 10/660,1]	[Remarks:Successful filter row count: 3]
[Date: 2016-08-05 09:33:40]	[UserID:10/660]	[IP:10.10.11.1]	[Browser:Chrome - 51.0.2704.103]	[Action:Closing mssql connection]	[Remarks:Success]
[Date: 2016-08-05 09:39:26]	[UserID:10/660]	[IP:10.10.11.1]	[Browser:Chrome - 51.0.2704.103]	[Action:Making connection to server]	[Remarks:Successful connection to server: S3]
[Date: 2016-08-05 09:39:26]	[UserID:10/660]	[IP:10.10.11.1]	[Browser:Chrome - 51.0.2704.103]	[Action:GetGSTModules 10/660,1]	[Remarks:Successful filter row count: 3]
[Date: 2016-08-05 09:39:26]	[UserID:10/660]	[IP:10.10.11.1]	[Browser:Chrome - 51.0.2704.103]	[Action:Closing mssql connection]	[Remarks:Success]
[Date: 2016-08-05 09:39:31]	[UserID:10/660]	[IP:10.10.11.1]	[Browser:Chrome - 51.0.2704.103]	[Action:Making connection to server]	[Remarks:Successful connection to server: S3]
[Date: 2016-08-05 09:39:31]	[UserID:10/660]	[IP:10.10.11.1]	[Browser:Chrome - 51.0.2704.103]	[Action:GetGSTModules 10/660,1]	[Remarks:Successful filter row count: 3]
[Date: 2016-08-05 09:39:31]	[UserID:10/660]	[IP:10.10.11.1]	[Browser:Chrome - 51.0.2704.103]	[Action:Closing mssql connection]	[Remarks:Success]
[Date: 2016-08-05 09:39:58]	[UserID:]	[IP:10.10.11.1]	[Browser:Chrome - 51.0.2704.103]	[Action:Making connection to server]	[Remarks:Successful connection to server: S3]
[Date: 2016-08-05 09:39:58]	[UserID:]	[IP:10.10.11.1]	[Browser:Chrome - 51.0.2704.103]	[Action:GetProgramList ]	[Remarks:"no data"]
[Date: 2016-08-05 15:07:56]	[UserID:]	[IP:10.10.11.1]	[Browser:Chrome - 51.0.2704.103]	[Action:Making connection to server]	[Remarks:Successful connection to server: S3]
[Date: 2016-08-05 15:07:57]	[UserID:]	[IP:10.10.11.1]	[Browser:Chrome - 51.0.2704.103]	[Action:GetProgramList ]	[Remarks:"no data"]
[Date: 2016-08-05 15:08:01]	[UserID:08/504]	[IP:10.10.11.1]	[Browser:Chrome - 51.0.2704.103]	[Action:Making connection to server]	[Remarks:Successful connection to server: S3]
[Date: 2016-08-05 15:08:03]	[UserID:08/504]	[IP:10.10.11.1]	[Browser:Chrome - 51.0.2704.103]	[Action:User 08/504]	[Remarks:Success]
[Date: 2016-08-05 15:08:04]	[UserID:08/504]	[IP:10.10.11.1]	[Browser:Chrome - 51.0.2704.103]	[Action:Filtering User : MasterData Username : 08/504]	[Remarks:Successful filter row count: 0]
[Date: 2016-08-05 15:08:04]	[UserID:08/504]	[IP:10.10.11.1]	[Browser:Chrome - 51.0.2704.103]	[Action:Filtering User : MasterData Username : 08/504]	[Remarks:Successful filter row count: 0]
[Date: 2016-08-05 15:08:04]	[UserID:08/504]	[IP:10.10.11.1]	[Browser:Chrome - 51.0.2704.103]	[Action:Filtering User : MasterData Username : 08/504]	[Remarks:Success]
[Date: 2016-08-05 15:08:04]	[UserID:08/504]	[IP:10.10.11.1]	[Browser:Chrome - 51.0.2704.103]	[Action:Closing mssql connection]	[Remarks:Success]
[Date: 2016-08-05 15:08:04]	[UserID:08/504]	[IP:10.10.11.1]	[Browser:Chrome - 51.0.2704.103]	[Action:Making connection to server]	[Remarks:Successful connection to server: S3]
[Date: 2016-08-05 15:08:04]	[UserID:08/504]	[IP:10.10.11.1]	[Browser:Chrome - 51.0.2704.103]	[Action:GetProgramList 08/504]	[Remarks:[{"ID":"1","ProgramIndex":"GST","ProgramName":"GST"}]]
[Date: 2016-08-05 15:08:04]	[UserID:08/504]	[IP:10.10.11.1]	[Browser:Chrome - 51.0.2704.103]	[Action:Making connection to server]	[Remarks:Successful connection to server: S3]
[Date: 2016-08-05 15:08:04]	[UserID:08/504]	[IP:10.10.11.1]	[Browser:Chrome - 51.0.2704.103]	[Action:GetProgramList 08/504]	[Remarks:[{"ID":"1","ProgramIndex":"GST","ProgramName":"GST"}]]
[Date: 2016-08-05 15:08:04]	[UserID:08/504]	[IP:10.10.11.1]	[Browser:Chrome - 51.0.2704.103]	[Action:Making connection to server]	[Remarks:Successful connection to server: S3]
[Date: 2016-08-05 15:08:04]	[UserID:08/504]	[IP:10.10.11.1]	[Browser:Chrome - 51.0.2704.103]	[Action:Filtering User : MasterData Username : 08/504]	[Remarks:Successful filter row count: 1]
[Date: 2016-08-05 15:08:04]	[UserID:08/504]	[IP:10.10.11.1]	[Browser:Chrome - 51.0.2704.103]	[Action:Making connection to server]	[Remarks:Successful connection to server: S3]
[Date: 2016-08-05 15:08:04]	[UserID:08/504]	[IP:10.10.11.1]	[Browser:Chrome - 51.0.2704.103]	[Action:GetGSTModules 08/504,1]	[Remarks:Successful filter row count: 5]
[Date: 2016-08-05 15:08:04]	[UserID:08/504]	[IP:10.10.11.1]	[Browser:Chrome - 51.0.2704.103]	[Action:Closing mssql connection]	[Remarks:Success]
[Date: 2016-08-05 17:26:29]	[UserID:]	[IP:10.10.11.1]	[Browser:Chrome - 51.0.2704.103]	[Action:Making connection to server]	[Remarks:Successful connection to server: S3]
[Date: 2016-08-05 17:26:29]	[UserID:]	[IP:10.10.11.1]	[Browser:Chrome - 51.0.2704.103]	[Action:GetProgramList ]	[Remarks:"no data"]
[Date: 2016-08-05 17:26:32]	[UserID:15/1125]	[IP:10.10.11.1]	[Browser:Chrome - 51.0.2704.103]	[Action:Making connection to server]	[Remarks:Successful connection to server: S3]
[Date: 2016-08-05 17:26:32]	[UserID:15/1125]	[IP:10.10.11.1]	[Browser:Chrome - 51.0.2704.103]	[Action:User 15/1125]	[Remarks:Success]
[Date: 2016-08-05 17:26:32]	[UserID:15/1125]	[IP:10.10.11.1]	[Browser:Chrome - 51.0.2704.103]	[Action:Filtering User : MasterData Username : 15/1125]	[Remarks:Successful filter row count: 0]
[Date: 2016-08-05 17:26:32]	[UserID:15/1125]	[IP:10.10.11.1]	[Browser:Chrome - 51.0.2704.103]	[Action:Filtering User : MasterData Username : 15/1125]	[Remarks:Successful filter row count: 0]
[Date: 2016-08-05 17:26:32]	[UserID:15/1125]	[IP:10.10.11.1]	[Browser:Chrome - 51.0.2704.103]	[Action:Filtering User : MasterData Username : 15/1125]	[Remarks:Success]
[Date: 2016-08-05 17:26:32]	[UserID:15/1125]	[IP:10.10.11.1]	[Browser:Chrome - 51.0.2704.103]	[Action:Closing mssql connection]	[Remarks:Success]
[Date: 2016-08-05 17:26:32]	[UserID:15/1125]	[IP:10.10.11.1]	[Browser:Chrome - 51.0.2704.103]	[Action:Making connection to server]	[Remarks:Successful connection to server: S3]
[Date: 2016-08-05 17:26:32]	[UserID:15/1125]	[IP:10.10.11.1]	[Browser:Chrome - 51.0.2704.103]	[Action:GetProgramList 15/1125]	[Remarks:[{"ID":"1","ProgramIndex":"GST","ProgramName":"GST"}]]
[Date: 2016-08-05 17:26:32]	[UserID:15/1125]	[IP:10.10.11.1]	[Browser:Chrome - 51.0.2704.103]	[Action:Making connection to server]	[Remarks:Successful connection to server: S3]
[Date: 2016-08-05 17:26:32]	[UserID:15/1125]	[IP:10.10.11.1]	[Browser:Chrome - 51.0.2704.103]	[Action:GetProgramList 15/1125]	[Remarks:[{"ID":"1","ProgramIndex":"GST","ProgramName":"GST"}]]
[Date: 2016-08-05 17:26:32]	[UserID:15/1125]	[IP:10.10.11.1]	[Browser:Chrome - 51.0.2704.103]	[Action:Making connection to server]	[Remarks:Successful connection to server: S3]
[Date: 2016-08-05 17:26:32]	[UserID:15/1125]	[IP:10.10.11.1]	[Browser:Chrome - 51.0.2704.103]	[Action:Filtering User : MasterData Username : 15/1125]	[Remarks:Successful filter row count: 1]
[Date: 2016-08-05 17:26:33]	[UserID:15/1125]	[IP:10.10.11.1]	[Browser:Chrome - 51.0.2704.103]	[Action:Making connection to server]	[Remarks:Successful connection to server: S3]
[Date: 2016-08-05 17:26:33]	[UserID:15/1125]	[IP:10.10.11.1]	[Browser:Chrome - 51.0.2704.103]	[Action:GetGSTModules 15/1125,1]	[Remarks:Successful filter row count: 6]
[Date: 2016-08-05 17:26:33]	[UserID:15/1125]	[IP:10.10.11.1]	[Browser:Chrome - 51.0.2704.103]	[Action:Closing mssql connection]	[Remarks:Success]
[Date: 2016-08-05 17:33:46]	[UserID:15/1125]	[IP:10.10.11.1]	[Browser:Chrome - 51.0.2704.103]	[Action:Making connection to server]	[Remarks:Successful connection to server: S3]
[Date: 2016-08-05 17:33:46]	[UserID:15/1125]	[IP:10.10.11.1]	[Browser:Chrome - 51.0.2704.103]	[Action:GetProgramList 15/1125]	[Remarks:[{"ID":"1","ProgramIndex":"GST","ProgramName":"GST"}]]
[Date: 2016-08-05 17:33:46]	[UserID:15/1125]	[IP:10.10.11.1]	[Browser:Chrome - 51.0.2704.103]	[Action:Making connection to server]	[Remarks:Successful connection to server: S3]
[Date: 2016-08-05 17:33:46]	[UserID:15/1125]	[IP:10.10.11.1]	[Browser:Chrome - 51.0.2704.103]	[Action:GetProgramList 15/1125]	[Remarks:[{"ID":"1","ProgramIndex":"GST","ProgramName":"GST"}]]
[Date: 2016-08-05 17:33:46]	[UserID:15/1125]	[IP:10.10.11.1]	[Browser:Chrome - 51.0.2704.103]	[Action:Making connection to server]	[Remarks:Successful connection to server: S3]
[Date: 2016-08-05 17:33:46]	[UserID:15/1125]	[IP:10.10.11.1]	[Browser:Chrome - 51.0.2704.103]	[Action:Filtering User : MasterData Username : 15/1125]	[Remarks:Successful filter row count: 1]
[Date: 2016-08-05 17:33:47]	[UserID:15/1125]	[IP:10.10.11.1]	[Browser:Chrome - 51.0.2704.103]	[Action:Making connection to server]	[Remarks:Successful connection to server: S3]
[Date: 2016-08-05 17:33:47]	[UserID:15/1125]	[IP:10.10.11.1]	[Browser:Chrome - 51.0.2704.103]	[Action:GetGSTModules 15/1125,1]	[Remarks:Successful filter row count: 6]
[Date: 2016-08-05 17:33:47]	[UserID:15/1125]	[IP:10.10.11.1]	[Browser:Chrome - 51.0.2704.103]	[Action:Closing mssql connection]	[Remarks:Success]
[Date: 2016-08-05 17:42:53]	[UserID:15/1125]	[IP:10.10.11.1]	[Browser:Chrome - 51.0.2704.103]	[Action:Making connection to server]	[Remarks:Successful connection to server: S3]
[Date: 2016-08-05 17:42:53]	[UserID:15/1125]	[IP:10.10.11.1]	[Browser:Chrome - 51.0.2704.103]	[Action:GetGSTModules 15/1125,1]	[Remarks:Successful filter row count: 6]
[Date: 2016-08-05 17:42:53]	[UserID:15/1125]	[IP:10.10.11.1]	[Browser:Chrome - 51.0.2704.103]	[Action:Closing mssql connection]	[Remarks:Success]
[Date: 2016-08-05 17:51:12]	[UserID:15/1125]	[IP:10.10.11.1]	[Browser:Chrome - 51.0.2704.103]	[Action:Making connection to server]	[Remarks:Successful connection to server: S3]
[Date: 2016-08-05 17:51:12]	[UserID:15/1125]	[IP:10.10.11.1]	[Browser:Chrome - 51.0.2704.103]	[Action:GetProgramList 15/1125]	[Remarks:[{"ID":"1","ProgramIndex":"GST","ProgramName":"GST"}]]
[Date: 2016-08-05 17:51:12]	[UserID:15/1125]	[IP:10.10.11.1]	[Browser:Chrome - 51.0.2704.103]	[Action:Making connection to server]	[Remarks:Successful connection to server: S3]
[Date: 2016-08-05 17:51:12]	[UserID:15/1125]	[IP:10.10.11.1]	[Browser:Chrome - 51.0.2704.103]	[Action:GetProgramList 15/1125]	[Remarks:[{"ID":"1","ProgramIndex":"GST","ProgramName":"GST"}]]
[Date: 2016-08-05 17:51:12]	[UserID:15/1125]	[IP:10.10.11.1]	[Browser:Chrome - 51.0.2704.103]	[Action:Making connection to server]	[Remarks:Successful connection to server: S3]
[Date: 2016-08-05 17:51:12]	[UserID:15/1125]	[IP:10.10.11.1]	[Browser:Chrome - 51.0.2704.103]	[Action:Filtering User : MasterData Username : 15/1125]	[Remarks:Successful filter row count: 1]
[Date: 2016-08-05 17:51:13]	[UserID:15/1125]	[IP:10.10.11.1]	[Browser:Chrome - 51.0.2704.103]	[Action:Making connection to server]	[Remarks:Successful connection to server: S3]
[Date: 2016-08-05 17:51:18]	[UserID:15/1125]	[IP:10.10.11.1]	[Browser:Chrome - 51.0.2704.103]	[Action:GetGSTModules 15/1125,1]	[Remarks:Successful filter row count: 6]
[Date: 2016-08-05 17:51:18]	[UserID:15/1125]	[IP:10.10.11.1]	[Browser:Chrome - 51.0.2704.103]	[Action:Closing mssql connection]	[Remarks:Success]
[Date: 2016-08-05 17:51:18]	[UserID:15/1125]	[IP:10.10.11.1]	[Browser:Chrome - 51.0.2704.103]	[Action:Making connection to server]	[Remarks:Successful connection to server: S3]
[Date: 2016-08-05 17:51:18]	[UserID:15/1125]	[IP:10.10.11.1]	[Browser:Chrome - 51.0.2704.103]	[Action:GetProgramList 15/1125]	[Remarks:[{"ID":"1","ProgramIndex":"GST","ProgramName":"GST"}]]
[Date: 2016-08-05 17:51:18]	[UserID:15/1125]	[IP:10.10.11.1]	[Browser:Chrome - 51.0.2704.103]	[Action:Making connection to server]	[Remarks:Successful connection to server: S3]
[Date: 2016-08-05 17:51:18]	[UserID:15/1125]	[IP:10.10.11.1]	[Browser:Chrome - 51.0.2704.103]	[Action:GetProgramList 15/1125]	[Remarks:[{"ID":"1","ProgramIndex":"GST","ProgramName":"GST"}]]
[Date: 2016-08-05 17:51:18]	[UserID:15/1125]	[IP:10.10.11.1]	[Browser:Chrome - 51.0.2704.103]	[Action:Making connection to server]	[Remarks:Successful connection to server: S3]
[Date: 2016-08-05 17:51:18]	[UserID:15/1125]	[IP:10.10.11.1]	[Browser:Chrome - 51.0.2704.103]	[Action:Filtering User : MasterData Username : 15/1125]	[Remarks:Successful filter row count: 1]
[Date: 2016-08-05 17:51:19]	[UserID:15/1125]	[IP:10.10.11.1]	[Browser:Chrome - 51.0.2704.103]	[Action:Making connection to server]	[Remarks:Successful connection to server: S3]
[Date: 2016-08-05 17:51:19]	[UserID:15/1125]	[IP:10.10.11.1]	[Browser:Chrome - 51.0.2704.103]	[Action:GetGSTModules 15/1125,1]	[Remarks:Successful filter row count: 6]
[Date: 2016-08-05 17:51:19]	[UserID:15/1125]	[IP:10.10.11.1]	[Browser:Chrome - 51.0.2704.103]	[Action:Closing mssql connection]	[Remarks:Success]
[Date: 2016-08-05 17:58:02]	[UserID:15/1125]	[IP:10.10.11.1]	[Browser:Chrome - 51.0.2704.103]	[Action:Making connection to server]	[Remarks:Successful connection to server: S3]
[Date: 2016-08-05 17:58:02]	[UserID:15/1125]	[IP:10.10.11.1]	[Browser:Chrome - 51.0.2704.103]	[Action:GetGSTModules 15/1125,1]	[Remarks:Successful filter row count: 6]
[Date: 2016-08-05 17:58:02]	[UserID:15/1125]	[IP:10.10.11.1]	[Browser:Chrome - 51.0.2704.103]	[Action:Closing mssql connection]	[Remarks:Success]
