[Date: 2018-05-19 09:51:21]	[UserID:]	[IP:10.128.12.210]	[Browser:Chrome - 66.0.3359.181]	[Action:Making connection to server]	[Remarks:Successful connection to server: S3]
[Date: 2018-05-19 09:51:21]	[UserID:]	[IP:10.128.12.210]	[Browser:Chrome - 66.0.3359.181]	[Action:GetProgramList ]	[Remarks:"no data"]
[Date: 2018-05-19 09:51:29]	[UserID:10/660]	[IP:10.128.12.210]	[Browser:Chrome - 66.0.3359.181]	[Action:Making connection to server]	[Remarks:Successful connection to server: S3]
[Date: 2018-05-19 09:51:29]	[UserID:10/660]	[IP:10.128.12.210]	[Browser:Chrome - 66.0.3359.181]	[Action:User 10/660]	[Remarks:Success]
[Date: 2018-05-19 09:51:29]	[UserID:10/660]	[IP:10.128.12.210]	[Browser:Chrome - 66.0.3359.181]	[Action:Filtering User : MasterData Username : 10/660]	[Remarks:Successful filter row count: 0]
[Date: 2018-05-19 09:51:29]	[UserID:10/660]	[IP:10.128.12.210]	[Browser:Chrome - 66.0.3359.181]	[Action:Filtering User : MasterData Username : 10/660]	[Remarks:Successful filter row count: 0]
[Date: 2018-05-19 09:51:29]	[UserID:10/660]	[IP:10.128.12.210]	[Browser:Chrome - 66.0.3359.181]	[Action:Filtering User : MasterData Username : 10/660]	[Remarks:Success]
[Date: 2018-05-19 09:51:29]	[UserID:10/660]	[IP:10.128.12.210]	[Browser:Chrome - 66.0.3359.181]	[Action:Closing mssql connection]	[Remarks:Success]
[Date: 2018-05-19 09:51:29]	[UserID:10/660]	[IP:10.128.12.210]	[Browser:Chrome - 66.0.3359.181]	[Action:Making connection to server]	[Remarks:Successful connection to server: S3]
[Date: 2018-05-19 09:51:29]	[UserID:10/660]	[IP:10.128.12.210]	[Browser:Chrome - 66.0.3359.181]	[Action:GetProgramList 10/660]	[Remarks:[{"ID":"1","ProgramIndex":"GST","ProgramName":"GST"}]]
[Date: 2018-05-19 09:51:29]	[UserID:10/660]	[IP:10.128.12.210]	[Browser:Chrome - 66.0.3359.181]	[Action:Making connection to server]	[Remarks:Successful connection to server: S3]
[Date: 2018-05-19 09:51:29]	[UserID:10/660]	[IP:10.128.12.210]	[Browser:Chrome - 66.0.3359.181]	[Action:GetProgramList 10/660]	[Remarks:[{"ID":"1","ProgramIndex":"GST","ProgramName":"GST"}]]
[Date: 2018-05-19 09:51:29]	[UserID:10/660]	[IP:10.128.12.210]	[Browser:Chrome - 66.0.3359.181]	[Action:Making connection to server]	[Remarks:Successful connection to server: S3]
[Date: 2018-05-19 09:51:29]	[UserID:10/660]	[IP:10.128.12.210]	[Browser:Chrome - 66.0.3359.181]	[Action:Filtering User : MasterData Username : 10/660]	[Remarks:Successful filter row count: 1]
[Date: 2018-05-19 09:51:30]	[UserID:10/660]	[IP:10.128.12.210]	[Browser:Chrome - 66.0.3359.181]	[Action:Making connection to server]	[Remarks:Successful connection to server: S3]
[Date: 2018-05-19 09:51:30]	[UserID:10/660]	[IP:10.128.12.210]	[Browser:Chrome - 66.0.3359.181]	[Action:GetGSTModules 10/660,1]	[Remarks:Successful filter row count: 5]
[Date: 2018-05-19 09:51:30]	[UserID:10/660]	[IP:10.128.12.210]	[Browser:Chrome - 66.0.3359.181]	[Action:Closing mssql connection]	[Remarks:Success]
[Date: 2018-05-19 09:58:14]	[UserID:10/660]	[IP:10.128.12.210]	[Browser:Chrome - 66.0.3359.181]	[Action:Making connection to server]	[Remarks:Successful connection to server: S3]
[Date: 2018-05-19 09:58:14]	[UserID:10/660]	[IP:10.128.12.210]	[Browser:Chrome - 66.0.3359.181]	[Action:GetGSTModules 10/660,1]	[Remarks:Successful filter row count: 5]
[Date: 2018-05-19 09:58:14]	[UserID:10/660]	[IP:10.128.12.210]	[Browser:Chrome - 66.0.3359.181]	[Action:Closing mssql connection]	[Remarks:Success]
[Date: 2018-05-19 10:00:02]	[UserID:10/660]	[IP:10.128.12.210]	[Browser:Chrome - 66.0.3359.181]	[Action:Making connection to server]	[Remarks:Successful connection to server: S3]
[Date: 2018-05-19 10:00:02]	[UserID:10/660]	[IP:10.128.12.210]	[Browser:Chrome - 66.0.3359.181]	[Action:GetGSTModules 10/660,1]	[Remarks:Successful filter row count: 5]
[Date: 2018-05-19 10:00:02]	[UserID:10/660]	[IP:10.128.12.210]	[Browser:Chrome - 66.0.3359.181]	[Action:Closing mssql connection]	[Remarks:Success]
[Date: 2018-05-19 10:00:22]	[UserID:]	[IP:10.128.12.210]	[Browser:Chrome - 66.0.3359.181]	[Action:Making connection to server]	[Remarks:Successful connection to server: S3]
[Date: 2018-05-19 10:00:22]	[UserID:]	[IP:10.128.12.210]	[Browser:Chrome - 66.0.3359.181]	[Action:GetProgramList ]	[Remarks:"no data"]
[Date: 2018-05-19 10:33:59]	[UserID:]	[IP:10.128.12.210]	[Browser:Chrome - 66.0.3359.181]	[Action:Making connection to server]	[Remarks:Successful connection to server: S3]
[Date: 2018-05-19 10:33:59]	[UserID:]	[IP:10.128.12.210]	[Browser:Chrome - 66.0.3359.181]	[Action:GetProgramList ]	[Remarks:"no data"]
[Date: 2018-05-19 10:34:09]	[UserID:10/660]	[IP:10.128.12.210]	[Browser:Chrome - 66.0.3359.181]	[Action:Making connection to server]	[Remarks:Successful connection to server: S3]
[Date: 2018-05-19 10:34:09]	[UserID:10/660]	[IP:10.128.12.210]	[Browser:Chrome - 66.0.3359.181]	[Action:User 10/660]	[Remarks:Success]
[Date: 2018-05-19 10:34:09]	[UserID:10/660]	[IP:10.128.12.210]	[Browser:Chrome - 66.0.3359.181]	[Action:Filtering User : MasterData Username : 10/660]	[Remarks:Successful filter row count: 0]
[Date: 2018-05-19 10:34:09]	[UserID:10/660]	[IP:10.128.12.210]	[Browser:Chrome - 66.0.3359.181]	[Action:Filtering User : MasterData Username : 10/660]	[Remarks:Successful filter row count: 0]
[Date: 2018-05-19 10:34:09]	[UserID:10/660]	[IP:10.128.12.210]	[Browser:Chrome - 66.0.3359.181]	[Action:Filtering User : MasterData Username : 10/660]	[Remarks:Success]
[Date: 2018-05-19 10:34:09]	[UserID:10/660]	[IP:10.128.12.210]	[Browser:Chrome - 66.0.3359.181]	[Action:Closing mssql connection]	[Remarks:Success]
[Date: 2018-05-19 10:34:09]	[UserID:10/660]	[IP:10.128.12.210]	[Browser:Chrome - 66.0.3359.181]	[Action:Making connection to server]	[Remarks:Successful connection to server: S3]
[Date: 2018-05-19 10:34:09]	[UserID:10/660]	[IP:10.128.12.210]	[Browser:Chrome - 66.0.3359.181]	[Action:GetProgramList 10/660]	[Remarks:[{"ID":"1","ProgramIndex":"GST","ProgramName":"GST"}]]
[Date: 2018-05-19 10:34:09]	[UserID:10/660]	[IP:10.128.12.210]	[Browser:Chrome - 66.0.3359.181]	[Action:Making connection to server]	[Remarks:Successful connection to server: S3]
[Date: 2018-05-19 10:34:09]	[UserID:10/660]	[IP:10.128.12.210]	[Browser:Chrome - 66.0.3359.181]	[Action:GetProgramList 10/660]	[Remarks:[{"ID":"1","ProgramIndex":"GST","ProgramName":"GST"}]]
[Date: 2018-05-19 10:34:09]	[UserID:10/660]	[IP:10.128.12.210]	[Browser:Chrome - 66.0.3359.181]	[Action:Making connection to server]	[Remarks:Successful connection to server: S3]
[Date: 2018-05-19 10:34:09]	[UserID:10/660]	[IP:10.128.12.210]	[Browser:Chrome - 66.0.3359.181]	[Action:Filtering User : MasterData Username : 10/660]	[Remarks:Successful filter row count: 1]
[Date: 2018-05-19 10:34:10]	[UserID:10/660]	[IP:10.128.12.210]	[Browser:Chrome - 66.0.3359.181]	[Action:Making connection to server]	[Remarks:Successful connection to server: S3]
[Date: 2018-05-19 10:34:10]	[UserID:10/660]	[IP:10.128.12.210]	[Browser:Chrome - 66.0.3359.181]	[Action:GetGSTModules 10/660,1]	[Remarks:Successful filter row count: 5]
[Date: 2018-05-19 10:34:10]	[UserID:10/660]	[IP:10.128.12.210]	[Browser:Chrome - 66.0.3359.181]	[Action:Closing mssql connection]	[Remarks:Success]
[Date: 2018-05-19 10:41:43]	[UserID:]	[IP:10.128.12.210]	[Browser:Chrome - 66.0.3359.181]	[Action:Making connection to server]	[Remarks:Successful connection to server: S3]
[Date: 2018-05-19 10:41:43]	[UserID:]	[IP:10.128.12.210]	[Browser:Chrome - 66.0.3359.181]	[Action:GetProgramList ]	[Remarks:"no data"]
[Date: 2018-05-19 16:33:13]	[UserID:]	[IP:10.128.130.5]	[Browser:Chrome - 66.0.3359.181]	[Action:Making connection to server]	[Remarks:Successful connection to server: S3]
[Date: 2018-05-19 16:33:14]	[UserID:]	[IP:10.128.130.5]	[Browser:Chrome - 66.0.3359.181]	[Action:GetProgramList ]	[Remarks:"no data"]
[Date: 2018-05-19 16:33:15]	[UserID:dev/bgregorio]	[IP:10.128.130.5]	[Browser:Chrome - 66.0.3359.181]	[Action:Making connection to server]	[Remarks:Successful connection to server: S3]
[Date: 2018-05-19 16:33:15]	[UserID:dev/bgregorio]	[IP:10.128.130.5]	[Browser:Chrome - 66.0.3359.181]	[Action:User dev/bgregorio]	[Remarks:Success]
[Date: 2018-05-19 16:33:15]	[UserID:dev/bgregorio]	[IP:10.128.130.5]	[Browser:Chrome - 66.0.3359.181]	[Action:Filtering User : MasterData Username : dev/bgregorio]	[Remarks:Successful filter row count: 0]
[Date: 2018-05-19 16:33:15]	[UserID:dev/bgregorio]	[IP:10.128.130.5]	[Browser:Chrome - 66.0.3359.181]	[Action:Filtering User : MasterData Username : dev/bgregorio]	[Remarks:Successful filter row count: 0]
[Date: 2018-05-19 16:33:15]	[UserID:dev/bgregorio]	[IP:10.128.130.5]	[Browser:Chrome - 66.0.3359.181]	[Action:Filtering User : MasterData Username : dev/bgregorio]	[Remarks:Success]
[Date: 2018-05-19 16:33:15]	[UserID:dev/bgregorio]	[IP:10.128.130.5]	[Browser:Chrome - 66.0.3359.181]	[Action:Closing mssql connection]	[Remarks:Success]
[Date: 2018-05-19 16:33:15]	[UserID:dev/bgregorio]	[IP:10.128.130.5]	[Browser:Chrome - 66.0.3359.181]	[Action:Making connection to server]	[Remarks:Successful connection to server: S3]
[Date: 2018-05-19 16:33:15]	[UserID:dev/bgregorio]	[IP:10.128.130.5]	[Browser:Chrome - 66.0.3359.181]	[Action:GetProgramList dev/bgregorio]	[Remarks:[{"ID":"1","ProgramIndex":"GST","ProgramName":"GST"}]]
[Date: 2018-05-19 16:33:15]	[UserID:dev/bgregorio]	[IP:10.128.130.5]	[Browser:Chrome - 66.0.3359.181]	[Action:Making connection to server]	[Remarks:Successful connection to server: S3]
[Date: 2018-05-19 16:33:15]	[UserID:dev/bgregorio]	[IP:10.128.130.5]	[Browser:Chrome - 66.0.3359.181]	[Action:GetProgramList dev/bgregorio]	[Remarks:[{"ID":"1","ProgramIndex":"GST","ProgramName":"GST"}]]
[Date: 2018-05-19 16:33:15]	[UserID:dev/bgregorio]	[IP:10.128.130.5]	[Browser:Chrome - 66.0.3359.181]	[Action:Making connection to server]	[Remarks:Successful connection to server: S3]
[Date: 2018-05-19 16:33:15]	[UserID:dev/bgregorio]	[IP:10.128.130.5]	[Browser:Chrome - 66.0.3359.181]	[Action:Filtering User : MasterData Username : dev/bgregorio]	[Remarks:Successful filter row count: 1]
[Date: 2018-05-19 16:33:16]	[UserID:dev/bgregorio]	[IP:10.128.130.5]	[Browser:Chrome - 66.0.3359.181]	[Action:Making connection to server]	[Remarks:Successful connection to server: S3]
[Date: 2018-05-19 16:33:16]	[UserID:dev/bgregorio]	[IP:10.128.130.5]	[Browser:Chrome - 66.0.3359.181]	[Action:GetGSTModules dev/bgregorio,1]	[Remarks:Successful filter row count: 8]
[Date: 2018-05-19 16:33:16]	[UserID:dev/bgregorio]	[IP:10.128.130.5]	[Browser:Chrome - 66.0.3359.181]	[Action:Closing mssql connection]	[Remarks:Success]
