[Date: 2015-11-12 07:16:14]	[UserID:]	[IP:10.10.11.1]	[Browser:Chrome - 46.0.2490.86]	[Action:Making connection to server]	[Remarks:Successful connection to server: S3]
[Date: 2015-11-12 07:16:14]	[UserID:]	[IP:10.10.11.1]	[Browser:Chrome - 46.0.2490.86]	[Action:GetProgramList ]	[Remarks:"no data"]
[Date: 2015-11-12 07:16:21]	[UserID:06/371]	[IP:10.10.11.1]	[Browser:Chrome - 46.0.2490.86]	[Action:Making connection to server]	[Remarks:Successful connection to server: S3]
[Date: 2015-11-12 07:16:21]	[UserID:06/371]	[IP:10.10.11.1]	[Browser:Chrome - 46.0.2490.86]	[Action:User 06/371]	[Remarks:Success]
[Date: 2015-11-12 07:16:21]	[UserID:06/371]	[IP:10.10.11.1]	[Browser:Chrome - 46.0.2490.86]	[Action:Filtering User : MasterData Username : 06/371]	[Remarks:Successful filter row count: 0]
[Date: 2015-11-12 07:16:21]	[UserID:06/371]	[IP:10.10.11.1]	[Browser:Chrome - 46.0.2490.86]	[Action:Filtering User : MasterData Username : 06/371]	[Remarks:Successful filter row count: 0]
[Date: 2015-11-12 07:16:21]	[UserID:06/371]	[IP:10.10.11.1]	[Browser:Chrome - 46.0.2490.86]	[Action:Filtering User : MasterData Username : 06/371]	[Remarks:Success]
[Date: 2015-11-12 07:16:21]	[UserID:06/371]	[IP:10.10.11.1]	[Browser:Chrome - 46.0.2490.86]	[Action:Closing mssql connection]	[Remarks:Success]
[Date: 2015-11-12 07:16:21]	[UserID:06/371]	[IP:10.10.11.1]	[Browser:Chrome - 46.0.2490.86]	[Action:Making connection to server]	[Remarks:Successful connection to server: S3]
[Date: 2015-11-12 07:16:21]	[UserID:06/371]	[IP:10.10.11.1]	[Browser:Chrome - 46.0.2490.86]	[Action:GetProgramList 06/371]	[Remarks:[{"ID":"1","ProgramIndex":"GST","ProgramName":"GST"}]]
[Date: 2015-11-12 07:16:21]	[UserID:06/371]	[IP:10.10.11.1]	[Browser:Chrome - 46.0.2490.86]	[Action:Making connection to server]	[Remarks:Successful connection to server: S3]
[Date: 2015-11-12 07:16:21]	[UserID:06/371]	[IP:10.10.11.1]	[Browser:Chrome - 46.0.2490.86]	[Action:GetProgramList 06/371]	[Remarks:[{"ID":"1","ProgramIndex":"GST","ProgramName":"GST"}]]
[Date: 2015-11-12 07:16:21]	[UserID:06/371]	[IP:10.10.11.1]	[Browser:Chrome - 46.0.2490.86]	[Action:Making connection to server]	[Remarks:Successful connection to server: S3]
[Date: 2015-11-12 07:16:21]	[UserID:06/371]	[IP:10.10.11.1]	[Browser:Chrome - 46.0.2490.86]	[Action:Filtering User : MasterData Username : 06/371]	[Remarks:Successful filter row count: 1]
[Date: 2015-11-12 07:16:22]	[UserID:06/371]	[IP:10.10.11.1]	[Browser:Chrome - 46.0.2490.86]	[Action:Making connection to server]	[Remarks:Successful connection to server: S3]
[Date: 2015-11-12 07:16:22]	[UserID:06/371]	[IP:10.10.11.1]	[Browser:Chrome - 46.0.2490.86]	[Action:GetGSTModules 06/371,1]	[Remarks:Successful filter row count: 5]
[Date: 2015-11-12 07:16:22]	[UserID:06/371]	[IP:10.10.11.1]	[Browser:Chrome - 46.0.2490.86]	[Action:Closing mssql connection]	[Remarks:Success]
[Date: 2015-11-12 07:21:16]	[UserID:06/371]	[IP:10.10.11.1]	[Browser:Chrome - 46.0.2490.86]	[Action:Making connection to server]	[Remarks:Successful connection to server: S3]
[Date: 2015-11-12 07:21:17]	[UserID:06/371]	[IP:10.10.11.1]	[Browser:Chrome - 46.0.2490.86]	[Action:GetGSTModules 06/371,1]	[Remarks:Successful filter row count: 5]
[Date: 2015-11-12 07:21:17]	[UserID:06/371]	[IP:10.10.11.1]	[Browser:Chrome - 46.0.2490.86]	[Action:Closing mssql connection]	[Remarks:Success]
[Date: 2015-11-12 07:24:22]	[UserID:06/371]	[IP:10.10.11.1]	[Browser:Chrome - 46.0.2490.86]	[Action:Making connection to server]	[Remarks:Successful connection to server: S3]
[Date: 2015-11-12 07:24:22]	[UserID:06/371]	[IP:10.10.11.1]	[Browser:Chrome - 46.0.2490.86]	[Action:GetGSTModules 06/371,1]	[Remarks:Successful filter row count: 5]
[Date: 2015-11-12 07:24:22]	[UserID:06/371]	[IP:10.10.11.1]	[Browser:Chrome - 46.0.2490.86]	[Action:Closing mssql connection]	[Remarks:Success]
[Date: 2015-11-12 07:36:42]	[UserID:06/371]	[IP:10.10.11.1]	[Browser:Chrome - 46.0.2490.86]	[Action:Making connection to server]	[Remarks:Successful connection to server: S3]
[Date: 2015-11-12 07:36:45]	[UserID:06/371]	[IP:10.10.11.1]	[Browser:Chrome - 46.0.2490.86]	[Action:GetGSTModules 06/371,1]	[Remarks:Successful filter row count: 5]
[Date: 2015-11-12 07:36:45]	[UserID:06/371]	[IP:10.10.11.1]	[Browser:Chrome - 46.0.2490.86]	[Action:Closing mssql connection]	[Remarks:Success]
[Date: 2015-11-12 07:43:22]	[UserID:06/371]	[IP:10.10.11.1]	[Browser:Chrome - 46.0.2490.86]	[Action:Making connection to server]	[Remarks:Successful connection to server: S3]
[Date: 2015-11-12 07:43:22]	[UserID:06/371]	[IP:10.10.11.1]	[Browser:Chrome - 46.0.2490.86]	[Action:GetGSTModules 06/371,1]	[Remarks:Successful filter row count: 5]
[Date: 2015-11-12 07:43:22]	[UserID:06/371]	[IP:10.10.11.1]	[Browser:Chrome - 46.0.2490.86]	[Action:Closing mssql connection]	[Remarks:Success]
[Date: 2015-11-12 07:48:15]	[UserID:06/371]	[IP:10.10.11.1]	[Browser:Chrome - 46.0.2490.86]	[Action:Making connection to server]	[Remarks:Successful connection to server: S3]
[Date: 2015-11-12 07:48:15]	[UserID:06/371]	[IP:10.10.11.1]	[Browser:Chrome - 46.0.2490.86]	[Action:GetGSTModules 06/371,1]	[Remarks:Successful filter row count: 5]
[Date: 2015-11-12 07:48:15]	[UserID:06/371]	[IP:10.10.11.1]	[Browser:Chrome - 46.0.2490.86]	[Action:Closing mssql connection]	[Remarks:Success]
[Date: 2015-11-12 08:02:34]	[UserID:]	[IP:10.10.11.1]	[Browser:Chrome - 46.0.2490.80]	[Action:Making connection to server]	[Remarks:Successful connection to server: S3]
[Date: 2015-11-12 08:02:34]	[UserID:]	[IP:10.10.11.1]	[Browser:Chrome - 46.0.2490.80]	[Action:Making connection to server]	[Remarks:Successful connection to server: S3]
[Date: 2015-11-12 08:02:34]	[UserID:]	[IP:10.10.11.1]	[Browser:Chrome - 46.0.2490.80]	[Action:GetProgramList ]	[Remarks:"no data"]
[Date: 2015-11-12 08:02:34]	[UserID:]	[IP:10.10.11.1]	[Browser:Chrome - 46.0.2490.80]	[Action:GetProgramList ]	[Remarks:"no data"]
[Date: 2015-11-12 08:02:42]	[UserID:06/343]	[IP:10.10.11.1]	[Browser:Chrome - 46.0.2490.80]	[Action:Making connection to server]	[Remarks:Successful connection to server: S3]
[Date: 2015-11-12 08:02:42]	[UserID:06/343]	[IP:10.10.11.1]	[Browser:Chrome - 46.0.2490.80]	[Action:User 06/343]	[Remarks:Success]
[Date: 2015-11-12 08:02:42]	[UserID:06/343]	[IP:10.10.11.1]	[Browser:Chrome - 46.0.2490.80]	[Action:Filtering User : MasterData Username : 06/343]	[Remarks:Successful filter row count: 0]
[Date: 2015-11-12 08:02:42]	[UserID:06/343]	[IP:10.10.11.1]	[Browser:Chrome - 46.0.2490.80]	[Action:Filtering User : MasterData Username : 06/343]	[Remarks:Successful filter row count: 0]
[Date: 2015-11-12 08:02:42]	[UserID:06/343]	[IP:10.10.11.1]	[Browser:Chrome - 46.0.2490.80]	[Action:Filtering User : MasterData Username : 06/343]	[Remarks:Success]
[Date: 2015-11-12 08:02:42]	[UserID:06/343]	[IP:10.10.11.1]	[Browser:Chrome - 46.0.2490.80]	[Action:Closing mssql connection]	[Remarks:Success]
[Date: 2015-11-12 08:02:42]	[UserID:06/343]	[IP:10.10.11.1]	[Browser:Chrome - 46.0.2490.80]	[Action:Making connection to server]	[Remarks:Successful connection to server: S3]
[Date: 2015-11-12 08:02:43]	[UserID:06/343]	[IP:10.10.11.1]	[Browser:Chrome - 46.0.2490.80]	[Action:GetProgramList 06/343]	[Remarks:[{"ID":"1","ProgramIndex":"GST","ProgramName":"GST"}]]
[Date: 2015-11-12 08:02:43]	[UserID:06/343]	[IP:10.10.11.1]	[Browser:Chrome - 46.0.2490.80]	[Action:Making connection to server]	[Remarks:Successful connection to server: S3]
[Date: 2015-11-12 08:02:43]	[UserID:06/343]	[IP:10.10.11.1]	[Browser:Chrome - 46.0.2490.80]	[Action:GetProgramList 06/343]	[Remarks:[{"ID":"1","ProgramIndex":"GST","ProgramName":"GST"}]]
[Date: 2015-11-12 08:02:43]	[UserID:06/343]	[IP:10.10.11.1]	[Browser:Chrome - 46.0.2490.80]	[Action:Making connection to server]	[Remarks:Successful connection to server: S3]
[Date: 2015-11-12 08:02:43]	[UserID:06/343]	[IP:10.10.11.1]	[Browser:Chrome - 46.0.2490.80]	[Action:Filtering User : MasterData Username : 06/343]	[Remarks:Successful filter row count: 1]
[Date: 2015-11-12 08:02:43]	[UserID:06/343]	[IP:10.10.11.1]	[Browser:Chrome - 46.0.2490.80]	[Action:Making connection to server]	[Remarks:Successful connection to server: S3]
[Date: 2015-11-12 08:02:43]	[UserID:06/343]	[IP:10.10.11.1]	[Browser:Chrome - 46.0.2490.80]	[Action:GetGSTModules 06/343,1]	[Remarks:Successful filter row count: 5]
[Date: 2015-11-12 08:02:43]	[UserID:06/343]	[IP:10.10.11.1]	[Browser:Chrome - 46.0.2490.80]	[Action:Closing mssql connection]	[Remarks:Success]
[Date: 2015-11-12 08:03:35]	[UserID:06/371]	[IP:10.10.11.1]	[Browser:Chrome - 46.0.2490.86]	[Action:Making connection to server]	[Remarks:Successful connection to server: S3]
[Date: 2015-11-12 08:03:35]	[UserID:06/371]	[IP:10.10.11.1]	[Browser:Chrome - 46.0.2490.86]	[Action:GetGSTModules 06/371,1]	[Remarks:Successful filter row count: 5]
[Date: 2015-11-12 08:03:35]	[UserID:06/371]	[IP:10.10.11.1]	[Browser:Chrome - 46.0.2490.86]	[Action:Closing mssql connection]	[Remarks:Success]
[Date: 2015-11-12 08:07:21]	[UserID:06/343]	[IP:10.10.11.1]	[Browser:Chrome - 46.0.2490.80]	[Action:Making connection to server]	[Remarks:Successful connection to server: S3]
[Date: 2015-11-12 08:07:21]	[UserID:06/343]	[IP:10.10.11.1]	[Browser:Chrome - 46.0.2490.80]	[Action:GetGSTModules 06/343,1]	[Remarks:Successful filter row count: 5]
[Date: 2015-11-12 08:07:21]	[UserID:06/343]	[IP:10.10.11.1]	[Browser:Chrome - 46.0.2490.80]	[Action:Closing mssql connection]	[Remarks:Success]
[Date: 2015-11-12 08:12:44]	[UserID:06/343]	[IP:10.10.11.1]	[Browser:Chrome - 46.0.2490.80]	[Action:Making connection to server]	[Remarks:Successful connection to server: S3]
[Date: 2015-11-12 08:12:44]	[UserID:06/343]	[IP:10.10.11.1]	[Browser:Chrome - 46.0.2490.80]	[Action:GetGSTModules 06/343,1]	[Remarks:Successful filter row count: 5]
[Date: 2015-11-12 08:12:44]	[UserID:06/343]	[IP:10.10.11.1]	[Browser:Chrome - 46.0.2490.80]	[Action:Closing mssql connection]	[Remarks:Success]
[Date: 2015-11-12 08:13:23]	[UserID:06/371]	[IP:10.10.11.1]	[Browser:Chrome - 46.0.2490.86]	[Action:Making connection to server]	[Remarks:Successful connection to server: S3]
[Date: 2015-11-12 08:13:23]	[UserID:06/371]	[IP:10.10.11.1]	[Browser:Chrome - 46.0.2490.86]	[Action:GetGSTModules 06/371,1]	[Remarks:Successful filter row count: 5]
[Date: 2015-11-12 08:13:23]	[UserID:06/371]	[IP:10.10.11.1]	[Browser:Chrome - 46.0.2490.86]	[Action:Closing mssql connection]	[Remarks:Success]
[Date: 2015-11-12 08:20:19]	[UserID:06/343]	[IP:10.10.11.1]	[Browser:Chrome - 46.0.2490.80]	[Action:Making connection to server]	[Remarks:Successful connection to server: S3]
[Date: 2015-11-12 08:20:19]	[UserID:06/343]	[IP:10.10.11.1]	[Browser:Chrome - 46.0.2490.80]	[Action:GetGSTModules 06/343,1]	[Remarks:Successful filter row count: 5]
[Date: 2015-11-12 08:20:19]	[UserID:06/343]	[IP:10.10.11.1]	[Browser:Chrome - 46.0.2490.80]	[Action:Closing mssql connection]	[Remarks:Success]
[Date: 2015-11-12 08:32:21]	[UserID:]	[IP:10.10.11.1]	[Browser:Chrome - 46.0.2490.86]	[Action:Making connection to server]	[Remarks:Successful connection to server: S3]
[Date: 2015-11-12 08:32:21]	[UserID:]	[IP:10.10.11.1]	[Browser:Chrome - 46.0.2490.86]	[Action:GetProgramList ]	[Remarks:"no data"]
[Date: 2015-11-12 08:32:23]	[UserID:11/715]	[IP:10.10.11.1]	[Browser:Chrome - 46.0.2490.86]	[Action:Making connection to server]	[Remarks:Successful connection to server: S3]
[Date: 2015-11-12 08:32:23]	[UserID:11/715]	[IP:10.10.11.1]	[Browser:Chrome - 46.0.2490.86]	[Action:User 11/715]	[Remarks:Success]
[Date: 2015-11-12 08:32:23]	[UserID:11/715]	[IP:10.10.11.1]	[Browser:Chrome - 46.0.2490.86]	[Action:Filtering User : MasterData Username : 11/715]	[Remarks:Successful filter row count: 0]
[Date: 2015-11-12 08:32:23]	[UserID:11/715]	[IP:10.10.11.1]	[Browser:Chrome - 46.0.2490.86]	[Action:Filtering User : MasterData Username : 11/715]	[Remarks:Successful filter row count: 0]
[Date: 2015-11-12 08:32:23]	[UserID:11/715]	[IP:10.10.11.1]	[Browser:Chrome - 46.0.2490.86]	[Action:Filtering User : MasterData Username : 11/715]	[Remarks:Success]
[Date: 2015-11-12 08:32:23]	[UserID:11/715]	[IP:10.10.11.1]	[Browser:Chrome - 46.0.2490.86]	[Action:Closing mssql connection]	[Remarks:Success]
[Date: 2015-11-12 08:32:23]	[UserID:11/715]	[IP:10.10.11.1]	[Browser:Chrome - 46.0.2490.86]	[Action:Making connection to server]	[Remarks:Successful connection to server: S3]
[Date: 2015-11-12 08:32:23]	[UserID:11/715]	[IP:10.10.11.1]	[Browser:Chrome - 46.0.2490.86]	[Action:GetProgramList 11/715]	[Remarks:[{"ID":"1","ProgramIndex":"GST","ProgramName":"GST"}]]
[Date: 2015-11-12 08:32:23]	[UserID:11/715]	[IP:10.10.11.1]	[Browser:Chrome - 46.0.2490.86]	[Action:Making connection to server]	[Remarks:Successful connection to server: S3]
[Date: 2015-11-12 08:32:23]	[UserID:11/715]	[IP:10.10.11.1]	[Browser:Chrome - 46.0.2490.86]	[Action:GetProgramList 11/715]	[Remarks:[{"ID":"1","ProgramIndex":"GST","ProgramName":"GST"}]]
[Date: 2015-11-12 08:32:23]	[UserID:11/715]	[IP:10.10.11.1]	[Browser:Chrome - 46.0.2490.86]	[Action:Making connection to server]	[Remarks:Successful connection to server: S3]
[Date: 2015-11-12 08:32:23]	[UserID:11/715]	[IP:10.10.11.1]	[Browser:Chrome - 46.0.2490.86]	[Action:Filtering User : MasterData Username : 11/715]	[Remarks:Successful filter row count: 1]
[Date: 2015-11-12 08:32:24]	[UserID:11/715]	[IP:10.10.11.1]	[Browser:Chrome - 46.0.2490.86]	[Action:Making connection to server]	[Remarks:Successful connection to server: S3]
[Date: 2015-11-12 08:32:24]	[UserID:11/715]	[IP:10.10.11.1]	[Browser:Chrome - 46.0.2490.86]	[Action:GetGSTModules 11/715,1]	[Remarks:Successful filter row count: 3]
[Date: 2015-11-12 08:32:24]	[UserID:11/715]	[IP:10.10.11.1]	[Browser:Chrome - 46.0.2490.86]	[Action:Closing mssql connection]	[Remarks:Success]
[Date: 2015-11-12 08:33:44]	[UserID:06/343]	[IP:10.10.11.1]	[Browser:Chrome - 46.0.2490.80]	[Action:Making connection to server]	[Remarks:Successful connection to server: S3]
[Date: 2015-11-12 08:33:44]	[UserID:06/343]	[IP:10.10.11.1]	[Browser:Chrome - 46.0.2490.80]	[Action:GetGSTModules 06/343,1]	[Remarks:Successful filter row count: 5]
[Date: 2015-11-12 08:33:44]	[UserID:06/343]	[IP:10.10.11.1]	[Browser:Chrome - 46.0.2490.80]	[Action:Closing mssql connection]	[Remarks:Success]
[Date: 2015-11-12 08:40:11]	[UserID:06/343]	[IP:10.10.11.1]	[Browser:Chrome - 46.0.2490.80]	[Action:Making connection to server]	[Remarks:Successful connection to server: S3]
[Date: 2015-11-12 08:40:12]	[UserID:06/343]	[IP:10.10.11.1]	[Browser:Chrome - 46.0.2490.80]	[Action:GetGSTModules 06/343,1]	[Remarks:Successful filter row count: 5]
[Date: 2015-11-12 08:40:12]	[UserID:06/343]	[IP:10.10.11.1]	[Browser:Chrome - 46.0.2490.80]	[Action:Closing mssql connection]	[Remarks:Success]
[Date: 2015-11-12 08:42:42]	[UserID:06/371]	[IP:10.10.11.1]	[Browser:Chrome - 46.0.2490.86]	[Action:Making connection to server]	[Remarks:Successful connection to server: S3]
[Date: 2015-11-12 08:42:42]	[UserID:06/371]	[IP:10.10.11.1]	[Browser:Chrome - 46.0.2490.86]	[Action:GetGSTModules 06/371,1]	[Remarks:Successful filter row count: 5]
[Date: 2015-11-12 08:42:42]	[UserID:06/371]	[IP:10.10.11.1]	[Browser:Chrome - 46.0.2490.86]	[Action:Closing mssql connection]	[Remarks:Success]
[Date: 2015-11-12 08:43:36]	[UserID:06/371]	[IP:10.10.11.1]	[Browser:Chrome - 46.0.2490.86]	[Action:Making connection to server]	[Remarks:Successful connection to server: S3]
[Date: 2015-11-12 08:43:36]	[UserID:06/371]	[IP:10.10.11.1]	[Browser:Chrome - 46.0.2490.86]	[Action:GetGSTModules 06/371,1]	[Remarks:Successful filter row count: 5]
[Date: 2015-11-12 08:43:36]	[UserID:06/371]	[IP:10.10.11.1]	[Browser:Chrome - 46.0.2490.86]	[Action:Closing mssql connection]	[Remarks:Success]
[Date: 2015-11-12 08:43:55]	[UserID:11/715]	[IP:10.10.11.1]	[Browser:Chrome - 46.0.2490.86]	[Action:Making connection to server]	[Remarks:Successful connection to server: S3]
[Date: 2015-11-12 08:43:55]	[UserID:11/715]	[IP:10.10.11.1]	[Browser:Chrome - 46.0.2490.86]	[Action:GetGSTModules 11/715,1]	[Remarks:Successful filter row count: 3]
[Date: 2015-11-12 08:43:55]	[UserID:11/715]	[IP:10.10.11.1]	[Browser:Chrome - 46.0.2490.86]	[Action:Closing mssql connection]	[Remarks:Success]
[Date: 2015-11-12 08:46:22]	[UserID:06/371]	[IP:10.10.11.1]	[Browser:Chrome - 46.0.2490.86]	[Action:Making connection to server]	[Remarks:Successful connection to server: S3]
[Date: 2015-11-12 08:46:22]	[UserID:06/371]	[IP:10.10.11.1]	[Browser:Chrome - 46.0.2490.86]	[Action:GetGSTModules 06/371,1]	[Remarks:Successful filter row count: 5]
[Date: 2015-11-12 08:46:22]	[UserID:06/371]	[IP:10.10.11.1]	[Browser:Chrome - 46.0.2490.86]	[Action:Closing mssql connection]	[Remarks:Success]
[Date: 2015-11-12 08:47:13]	[UserID:06/371]	[IP:10.10.11.1]	[Browser:Chrome - 46.0.2490.86]	[Action:Making connection to server]	[Remarks:Successful connection to server: S3]
[Date: 2015-11-12 08:47:13]	[UserID:06/371]	[IP:10.10.11.1]	[Browser:Chrome - 46.0.2490.86]	[Action:GetGSTModules 06/371,1]	[Remarks:Successful filter row count: 5]
[Date: 2015-11-12 08:47:13]	[UserID:06/371]	[IP:10.10.11.1]	[Browser:Chrome - 46.0.2490.86]	[Action:Closing mssql connection]	[Remarks:Success]
[Date: 2015-11-12 08:51:16]	[UserID:]	[IP:10.10.11.1]	[Browser:Chrome - 46.0.2490.80]	[Action:Making connection to server]	[Remarks:Successful connection to server: S3]
[Date: 2015-11-12 08:51:16]	[UserID:]	[IP:10.10.11.1]	[Browser:Chrome - 46.0.2490.80]	[Action:GetProgramList ]	[Remarks:"no data"]
[Date: 2015-11-12 08:51:18]	[UserID:10/660]	[IP:10.10.11.1]	[Browser:Chrome - 46.0.2490.80]	[Action:Making connection to server]	[Remarks:Successful connection to server: S3]
[Date: 2015-11-12 08:51:18]	[UserID:10/660]	[IP:10.10.11.1]	[Browser:Chrome - 46.0.2490.80]	[Action:User 10/660]	[Remarks:Success]
[Date: 2015-11-12 08:51:18]	[UserID:10/660]	[IP:10.10.11.1]	[Browser:Chrome - 46.0.2490.80]	[Action:Filtering User : MasterData Username : 10/660]	[Remarks:Successful filter row count: 0]
[Date: 2015-11-12 08:51:18]	[UserID:10/660]	[IP:10.10.11.1]	[Browser:Chrome - 46.0.2490.80]	[Action:Filtering User : MasterData Username : 10/660]	[Remarks:Successful filter row count: 0]
[Date: 2015-11-12 08:51:18]	[UserID:10/660]	[IP:10.10.11.1]	[Browser:Chrome - 46.0.2490.80]	[Action:Filtering User : MasterData Username : 10/660]	[Remarks:Success]
[Date: 2015-11-12 08:51:18]	[UserID:10/660]	[IP:10.10.11.1]	[Browser:Chrome - 46.0.2490.80]	[Action:Closing mssql connection]	[Remarks:Success]
[Date: 2015-11-12 08:51:18]	[UserID:10/660]	[IP:10.10.11.1]	[Browser:Chrome - 46.0.2490.80]	[Action:Making connection to server]	[Remarks:Successful connection to server: S3]
[Date: 2015-11-12 08:51:18]	[UserID:10/660]	[IP:10.10.11.1]	[Browser:Chrome - 46.0.2490.80]	[Action:GetProgramList 10/660]	[Remarks:[{"ID":"1","ProgramIndex":"GST","ProgramName":"GST"}]]
[Date: 2015-11-12 08:51:18]	[UserID:10/660]	[IP:10.10.11.1]	[Browser:Chrome - 46.0.2490.80]	[Action:Making connection to server]	[Remarks:Successful connection to server: S3]
[Date: 2015-11-12 08:51:18]	[UserID:10/660]	[IP:10.10.11.1]	[Browser:Chrome - 46.0.2490.80]	[Action:GetProgramList 10/660]	[Remarks:[{"ID":"1","ProgramIndex":"GST","ProgramName":"GST"}]]
[Date: 2015-11-12 08:51:18]	[UserID:10/660]	[IP:10.10.11.1]	[Browser:Chrome - 46.0.2490.80]	[Action:Making connection to server]	[Remarks:Successful connection to server: S3]
[Date: 2015-11-12 08:51:18]	[UserID:10/660]	[IP:10.10.11.1]	[Browser:Chrome - 46.0.2490.80]	[Action:Filtering User : MasterData Username : 10/660]	[Remarks:Successful filter row count: 1]
[Date: 2015-11-12 08:51:19]	[UserID:10/660]	[IP:10.10.11.1]	[Browser:Chrome - 46.0.2490.80]	[Action:Making connection to server]	[Remarks:Successful connection to server: S3]
[Date: 2015-11-12 08:51:19]	[UserID:10/660]	[IP:10.10.11.1]	[Browser:Chrome - 46.0.2490.80]	[Action:GetGSTModules 10/660,1]	[Remarks:Successful filter row count: 3]
[Date: 2015-11-12 08:51:19]	[UserID:10/660]	[IP:10.10.11.1]	[Browser:Chrome - 46.0.2490.80]	[Action:Closing mssql connection]	[Remarks:Success]
[Date: 2015-11-12 08:53:01]	[UserID:10/660]	[IP:10.10.11.1]	[Browser:Chrome - 46.0.2490.80]	[Action:Making connection to server]	[Remarks:Successful connection to server: S3]
[Date: 2015-11-12 08:53:01]	[UserID:10/660]	[IP:10.10.11.1]	[Browser:Chrome - 46.0.2490.80]	[Action:GetGSTModules 10/660,1]	[Remarks:Successful filter row count: 3]
[Date: 2015-11-12 08:53:01]	[UserID:10/660]	[IP:10.10.11.1]	[Browser:Chrome - 46.0.2490.80]	[Action:Closing mssql connection]	[Remarks:Success]
[Date: 2015-11-12 08:53:22]	[UserID:]	[IP:10.10.11.1]	[Browser:Google favicon]	[Action:Making connection to server]	[Remarks:Successful connection to server: S3]
[Date: 2015-11-12 08:53:23]	[UserID:]	[IP:10.10.11.1]	[Browser:Google favicon]	[Action:GetProgramList ]	[Remarks:"no data"]
[Date: 2015-11-12 09:06:20]	[UserID:10/660]	[IP:10.10.11.1]	[Browser:Chrome - 46.0.2490.80]	[Action:Making connection to server]	[Remarks:Successful connection to server: S3]
[Date: 2015-11-12 09:06:20]	[UserID:10/660]	[IP:10.10.11.1]	[Browser:Chrome - 46.0.2490.80]	[Action:GetGSTModules 10/660,1]	[Remarks:Successful filter row count: 3]
[Date: 2015-11-12 09:06:20]	[UserID:10/660]	[IP:10.10.11.1]	[Browser:Chrome - 46.0.2490.80]	[Action:Closing mssql connection]	[Remarks:Success]
[Date: 2015-11-12 09:06:46]	[UserID:]	[IP:10.10.11.1]	[Browser:Chrome - 46.0.2490.80]	[Action:Making connection to server]	[Remarks:Successful connection to server: S3]
[Date: 2015-11-12 09:06:46]	[UserID:]	[IP:10.10.11.1]	[Browser:Chrome - 46.0.2490.80]	[Action:GetProgramList ]	[Remarks:"no data"]
[Date: 2015-11-12 09:34:07]	[UserID:06/343]	[IP:10.10.11.1]	[Browser:Chrome - 46.0.2490.80]	[Action:Making connection to server]	[Remarks:Successful connection to server: S3]
[Date: 2015-11-12 09:34:08]	[UserID:06/343]	[IP:10.10.11.1]	[Browser:Chrome - 46.0.2490.80]	[Action:GetGSTModules 06/343,1]	[Remarks:Successful filter row count: 5]
[Date: 2015-11-12 09:34:08]	[UserID:06/343]	[IP:10.10.11.1]	[Browser:Chrome - 46.0.2490.80]	[Action:Closing mssql connection]	[Remarks:Success]
[Date: 2015-11-12 09:38:19]	[UserID:06/343]	[IP:10.10.11.1]	[Browser:Chrome - 46.0.2490.80]	[Action:Making connection to server]	[Remarks:Successful connection to server: S3]
[Date: 2015-11-12 09:38:19]	[UserID:06/343]	[IP:10.10.11.1]	[Browser:Chrome - 46.0.2490.80]	[Action:GetGSTModules 06/343,1]	[Remarks:Successful filter row count: 5]
[Date: 2015-11-12 09:38:19]	[UserID:06/343]	[IP:10.10.11.1]	[Browser:Chrome - 46.0.2490.80]	[Action:Closing mssql connection]	[Remarks:Success]
[Date: 2015-11-12 09:56:31]	[UserID:06/343]	[IP:10.10.11.1]	[Browser:Chrome - 46.0.2490.80]	[Action:Making connection to server]	[Remarks:Successful connection to server: S3]
[Date: 2015-11-12 09:56:31]	[UserID:06/343]	[IP:10.10.11.1]	[Browser:Chrome - 46.0.2490.80]	[Action:GetGSTModules 06/343,1]	[Remarks:Successful filter row count: 5]
[Date: 2015-11-12 09:56:31]	[UserID:06/343]	[IP:10.10.11.1]	[Browser:Chrome - 46.0.2490.80]	[Action:Closing mssql connection]	[Remarks:Success]
[Date: 2015-11-12 11:07:41]	[UserID:]	[IP:10.10.11.1]	[Browser:Chrome - 46.0.2490.80]	[Action:Making connection to server]	[Remarks:Successful connection to server: S3]
[Date: 2015-11-12 11:07:41]	[UserID:]	[IP:10.10.11.1]	[Browser:Chrome - 46.0.2490.80]	[Action:GetProgramList ]	[Remarks:"no data"]
[Date: 2015-11-12 11:07:43]	[UserID:14/1082]	[IP:10.10.11.1]	[Browser:Chrome - 46.0.2490.80]	[Action:Making connection to server]	[Remarks:Successful connection to server: S3]
[Date: 2015-11-12 11:07:43]	[UserID:14/1082]	[IP:10.10.11.1]	[Browser:Chrome - 46.0.2490.80]	[Action:User 14/1082]	[Remarks:Success]
[Date: 2015-11-12 11:07:43]	[UserID:14/1082]	[IP:10.10.11.1]	[Browser:Chrome - 46.0.2490.80]	[Action:Filtering User : MasterData Username : 14/1082]	[Remarks:Successful filter row count: 0]
[Date: 2015-11-12 11:07:43]	[UserID:14/1082]	[IP:10.10.11.1]	[Browser:Chrome - 46.0.2490.80]	[Action:Filtering User : MasterData Username : 14/1082]	[Remarks:Successful filter row count: 0]
[Date: 2015-11-12 11:07:43]	[UserID:14/1082]	[IP:10.10.11.1]	[Browser:Chrome - 46.0.2490.80]	[Action:Filtering User : MasterData Username : 14/1082]	[Remarks:Success]
[Date: 2015-11-12 11:07:43]	[UserID:14/1082]	[IP:10.10.11.1]	[Browser:Chrome - 46.0.2490.80]	[Action:Closing mssql connection]	[Remarks:Success]
[Date: 2015-11-12 11:07:44]	[UserID:14/1082]	[IP:10.10.11.1]	[Browser:Chrome - 46.0.2490.80]	[Action:Making connection to server]	[Remarks:Successful connection to server: S3]
[Date: 2015-11-12 11:07:44]	[UserID:14/1082]	[IP:10.10.11.1]	[Browser:Chrome - 46.0.2490.80]	[Action:GetProgramList 14/1082]	[Remarks:[{"ID":"1","ProgramIndex":"GST","ProgramName":"GST"}]]
[Date: 2015-11-12 11:07:44]	[UserID:14/1082]	[IP:10.10.11.1]	[Browser:Chrome - 46.0.2490.80]	[Action:Making connection to server]	[Remarks:Successful connection to server: S3]
[Date: 2015-11-12 11:07:44]	[UserID:14/1082]	[IP:10.10.11.1]	[Browser:Chrome - 46.0.2490.80]	[Action:GetProgramList 14/1082]	[Remarks:[{"ID":"1","ProgramIndex":"GST","ProgramName":"GST"}]]
[Date: 2015-11-12 11:07:44]	[UserID:14/1082]	[IP:10.10.11.1]	[Browser:Chrome - 46.0.2490.80]	[Action:Making connection to server]	[Remarks:Successful connection to server: S3]
[Date: 2015-11-12 11:07:44]	[UserID:14/1082]	[IP:10.10.11.1]	[Browser:Chrome - 46.0.2490.80]	[Action:Filtering User : MasterData Username : 14/1082]	[Remarks:Successful filter row count: 1]
[Date: 2015-11-12 11:07:45]	[UserID:14/1082]	[IP:10.10.11.1]	[Browser:Chrome - 46.0.2490.80]	[Action:Making connection to server]	[Remarks:Successful connection to server: S3]
[Date: 2015-11-12 11:07:45]	[UserID:14/1082]	[IP:10.10.11.1]	[Browser:Chrome - 46.0.2490.80]	[Action:GetGSTModules 14/1082,1]	[Remarks:Successful filter row count: 7]
[Date: 2015-11-12 11:07:45]	[UserID:14/1082]	[IP:10.10.11.1]	[Browser:Chrome - 46.0.2490.80]	[Action:Closing mssql connection]	[Remarks:Success]
[Date: 2015-11-12 11:12:56]	[UserID:06/343]	[IP:10.10.11.1]	[Browser:Chrome - 46.0.2490.80]	[Action:Making connection to server]	[Remarks:Successful connection to server: S3]
[Date: 2015-11-12 11:12:56]	[UserID:06/343]	[IP:10.10.11.1]	[Browser:Chrome - 46.0.2490.80]	[Action:GetProgramList 06/343]	[Remarks:[{"ID":"1","ProgramIndex":"GST","ProgramName":"GST"}]]
[Date: 2015-11-12 11:12:56]	[UserID:06/343]	[IP:10.10.11.1]	[Browser:Chrome - 46.0.2490.80]	[Action:Making connection to server]	[Remarks:Successful connection to server: S3]
[Date: 2015-11-12 11:12:57]	[UserID:06/343]	[IP:10.10.11.1]	[Browser:Chrome - 46.0.2490.80]	[Action:GetProgramList 06/343]	[Remarks:[{"ID":"1","ProgramIndex":"GST","ProgramName":"GST"}]]
[Date: 2015-11-12 11:12:57]	[UserID:06/343]	[IP:10.10.11.1]	[Browser:Chrome - 46.0.2490.80]	[Action:Making connection to server]	[Remarks:Successful connection to server: S3]
[Date: 2015-11-12 11:12:57]	[UserID:06/343]	[IP:10.10.11.1]	[Browser:Chrome - 46.0.2490.80]	[Action:Filtering User : MasterData Username : 06/343]	[Remarks:Successful filter row count: 1]
[Date: 2015-11-12 11:12:57]	[UserID:06/343]	[IP:10.10.11.1]	[Browser:Chrome - 46.0.2490.80]	[Action:Making connection to server]	[Remarks:Successful connection to server: S3]
[Date: 2015-11-12 11:12:57]	[UserID:06/343]	[IP:10.10.11.1]	[Browser:Chrome - 46.0.2490.80]	[Action:GetGSTModules 06/343,1]	[Remarks:Successful filter row count: 5]
[Date: 2015-11-12 11:12:57]	[UserID:06/343]	[IP:10.10.11.1]	[Browser:Chrome - 46.0.2490.80]	[Action:Closing mssql connection]	[Remarks:Success]
[Date: 2015-11-12 11:24:10]	[UserID:14/1082]	[IP:10.10.11.1]	[Browser:Chrome - 46.0.2490.80]	[Action:Making connection to server]	[Remarks:Successful connection to server: S3]
[Date: 2015-11-12 11:24:11]	[UserID:14/1082]	[IP:10.10.11.1]	[Browser:Chrome - 46.0.2490.80]	[Action:GetGSTModules 14/1082,1]	[Remarks:Successful filter row count: 7]
[Date: 2015-11-12 11:24:11]	[UserID:14/1082]	[IP:10.10.11.1]	[Browser:Chrome - 46.0.2490.80]	[Action:Closing mssql connection]	[Remarks:Success]
[Date: 2015-11-12 12:52:49]	[UserID:06/343]	[IP:10.10.11.1]	[Browser:Chrome - 46.0.2490.80]	[Action:Making connection to server]	[Remarks:Successful connection to server: S3]
[Date: 2015-11-12 12:52:49]	[UserID:06/343]	[IP:10.10.11.1]	[Browser:Chrome - 46.0.2490.80]	[Action:GetProgramList 06/343]	[Remarks:[{"ID":"1","ProgramIndex":"GST","ProgramName":"GST"}]]
[Date: 2015-11-12 12:52:49]	[UserID:06/343]	[IP:10.10.11.1]	[Browser:Chrome - 46.0.2490.80]	[Action:Making connection to server]	[Remarks:Successful connection to server: S3]
[Date: 2015-11-12 12:52:49]	[UserID:06/343]	[IP:10.10.11.1]	[Browser:Chrome - 46.0.2490.80]	[Action:GetProgramList 06/343]	[Remarks:[{"ID":"1","ProgramIndex":"GST","ProgramName":"GST"}]]
[Date: 2015-11-12 12:52:49]	[UserID:06/343]	[IP:10.10.11.1]	[Browser:Chrome - 46.0.2490.80]	[Action:Making connection to server]	[Remarks:Successful connection to server: S3]
[Date: 2015-11-12 12:52:49]	[UserID:06/343]	[IP:10.10.11.1]	[Browser:Chrome - 46.0.2490.80]	[Action:Filtering User : MasterData Username : 06/343]	[Remarks:Successful filter row count: 1]
[Date: 2015-11-12 12:52:50]	[UserID:06/343]	[IP:10.10.11.1]	[Browser:Chrome - 46.0.2490.80]	[Action:Making connection to server]	[Remarks:Successful connection to server: S3]
[Date: 2015-11-12 12:52:50]	[UserID:06/343]	[IP:10.10.11.1]	[Browser:Chrome - 46.0.2490.80]	[Action:GetProgramList 06/343]	[Remarks:[{"ID":"1","ProgramIndex":"GST","ProgramName":"GST"}]]
[Date: 2015-11-12 12:52:50]	[UserID:06/343]	[IP:10.10.11.1]	[Browser:Chrome - 46.0.2490.80]	[Action:Making connection to server]	[Remarks:Successful connection to server: S3]
[Date: 2015-11-12 12:52:50]	[UserID:06/343]	[IP:10.10.11.1]	[Browser:Chrome - 46.0.2490.80]	[Action:GetProgramList 06/343]	[Remarks:[{"ID":"1","ProgramIndex":"GST","ProgramName":"GST"}]]
[Date: 2015-11-12 12:52:50]	[UserID:06/343]	[IP:10.10.11.1]	[Browser:Chrome - 46.0.2490.80]	[Action:Making connection to server]	[Remarks:Successful connection to server: S3]
[Date: 2015-11-12 12:52:50]	[UserID:06/343]	[IP:10.10.11.1]	[Browser:Chrome - 46.0.2490.80]	[Action:Filtering User : MasterData Username : 06/343]	[Remarks:Successful filter row count: 1]
[Date: 2015-11-12 12:52:51]	[UserID:06/343]	[IP:10.10.11.1]	[Browser:Chrome - 46.0.2490.80]	[Action:Making connection to server]	[Remarks:Successful connection to server: S3]
[Date: 2015-11-12 12:52:51]	[UserID:06/343]	[IP:10.10.11.1]	[Browser:Chrome - 46.0.2490.80]	[Action:GetGSTModules 06/343,1]	[Remarks:Successful filter row count: 5]
[Date: 2015-11-12 12:52:51]	[UserID:06/343]	[IP:10.10.11.1]	[Browser:Chrome - 46.0.2490.80]	[Action:Closing mssql connection]	[Remarks:Success]
[Date: 2015-11-12 13:16:02]	[UserID:06/343]	[IP:10.10.11.1]	[Browser:Chrome - 46.0.2490.80]	[Action:Making connection to server]	[Remarks:Successful connection to server: S3]
[Date: 2015-11-12 13:16:13]	[UserID:06/343]	[IP:10.10.11.1]	[Browser:Chrome - 46.0.2490.80]	[Action:GetGSTModules 06/343,1]	[Remarks:Successful filter row count: 5]
[Date: 2015-11-12 13:16:13]	[UserID:06/343]	[IP:10.10.11.1]	[Browser:Chrome - 46.0.2490.80]	[Action:Closing mssql connection]	[Remarks:Success]
[Date: 2015-11-12 13:16:51]	[UserID:06/343]	[IP:10.10.11.1]	[Browser:Chrome - 46.0.2490.80]	[Action:Making connection to server]	[Remarks:Successful connection to server: S3]
[Date: 2015-11-12 13:16:51]	[UserID:06/343]	[IP:10.10.11.1]	[Browser:Chrome - 46.0.2490.80]	[Action:GetGSTModules 06/343,1]	[Remarks:Successful filter row count: 5]
[Date: 2015-11-12 13:16:51]	[UserID:06/343]	[IP:10.10.11.1]	[Browser:Chrome - 46.0.2490.80]	[Action:Closing mssql connection]	[Remarks:Success]
[Date: 2015-11-12 13:18:05]	[UserID:14/1082]	[IP:10.10.11.1]	[Browser:Chrome - 46.0.2490.80]	[Action:Making connection to server]	[Remarks:Successful connection to server: S3]
[Date: 2015-11-12 13:18:05]	[UserID:14/1082]	[IP:10.10.11.1]	[Browser:Chrome - 46.0.2490.80]	[Action:GetGSTModules 14/1082,1]	[Remarks:Successful filter row count: 7]
[Date: 2015-11-12 13:18:05]	[UserID:14/1082]	[IP:10.10.11.1]	[Browser:Chrome - 46.0.2490.80]	[Action:Closing mssql connection]	[Remarks:Success]
[Date: 2015-11-12 13:18:41]	[UserID:14/1082]	[IP:10.10.11.1]	[Browser:Chrome - 46.0.2490.80]	[Action:Making connection to server]	[Remarks:Successful connection to server: S3]
[Date: 2015-11-12 13:18:42]	[UserID:14/1082]	[IP:10.10.11.1]	[Browser:Chrome - 46.0.2490.80]	[Action:GetGSTModules 14/1082,1]	[Remarks:Successful filter row count: 7]
[Date: 2015-11-12 13:18:42]	[UserID:14/1082]	[IP:10.10.11.1]	[Browser:Chrome - 46.0.2490.80]	[Action:Closing mssql connection]	[Remarks:Success]
[Date: 2015-11-12 13:20:42]	[UserID:06/343]	[IP:10.10.11.1]	[Browser:Chrome - 46.0.2490.80]	[Action:Making connection to server]	[Remarks:Successful connection to server: S3]
[Date: 2015-11-12 13:20:42]	[UserID:06/343]	[IP:10.10.11.1]	[Browser:Chrome - 46.0.2490.80]	[Action:GetGSTModules 06/343,1]	[Remarks:Successful filter row count: 5]
[Date: 2015-11-12 13:20:42]	[UserID:06/343]	[IP:10.10.11.1]	[Browser:Chrome - 46.0.2490.80]	[Action:Closing mssql connection]	[Remarks:Success]
[Date: 2015-11-12 13:22:23]	[UserID:06/343]	[IP:10.10.11.1]	[Browser:Chrome - 46.0.2490.80]	[Action:Making connection to server]	[Remarks:Successful connection to server: S3]
[Date: 2015-11-12 13:22:23]	[UserID:06/343]	[IP:10.10.11.1]	[Browser:Chrome - 46.0.2490.80]	[Action:GetGSTModules 06/343,1]	[Remarks:Successful filter row count: 5]
[Date: 2015-11-12 13:22:23]	[UserID:06/343]	[IP:10.10.11.1]	[Browser:Chrome - 46.0.2490.80]	[Action:Closing mssql connection]	[Remarks:Success]
[Date: 2015-11-12 13:28:30]	[UserID:06/343]	[IP:10.10.11.1]	[Browser:Chrome - 46.0.2490.80]	[Action:Making connection to server]	[Remarks:Successful connection to server: S3]
[Date: 2015-11-12 13:28:30]	[UserID:06/343]	[IP:10.10.11.1]	[Browser:Chrome - 46.0.2490.80]	[Action:GetGSTModules 06/343,1]	[Remarks:Successful filter row count: 5]
[Date: 2015-11-12 13:28:30]	[UserID:06/343]	[IP:10.10.11.1]	[Browser:Chrome - 46.0.2490.80]	[Action:Closing mssql connection]	[Remarks:Success]
[Date: 2015-11-12 13:29:53]	[UserID:06/343]	[IP:10.10.11.1]	[Browser:Chrome - 46.0.2490.80]	[Action:Making connection to server]	[Remarks:Successful connection to server: S3]
[Date: 2015-11-12 13:29:53]	[UserID:06/343]	[IP:10.10.11.1]	[Browser:Chrome - 46.0.2490.80]	[Action:GetGSTModules 06/343,1]	[Remarks:Successful filter row count: 5]
[Date: 2015-11-12 13:29:53]	[UserID:06/343]	[IP:10.10.11.1]	[Browser:Chrome - 46.0.2490.80]	[Action:Closing mssql connection]	[Remarks:Success]
[Date: 2015-11-12 14:05:46]	[UserID:06/343]	[IP:10.10.11.1]	[Browser:Chrome - 46.0.2490.80]	[Action:Making connection to server]	[Remarks:Successful connection to server: S3]
[Date: 2015-11-12 14:05:46]	[UserID:06/343]	[IP:10.10.11.1]	[Browser:Chrome - 46.0.2490.80]	[Action:GetGSTModules 06/343,1]	[Remarks:Successful filter row count: 5]
[Date: 2015-11-12 14:05:46]	[UserID:06/343]	[IP:10.10.11.1]	[Browser:Chrome - 46.0.2490.80]	[Action:Closing mssql connection]	[Remarks:Success]
[Date: 2015-11-12 14:15:29]	[UserID:06/343]	[IP:10.10.11.1]	[Browser:Chrome - 46.0.2490.80]	[Action:Making connection to server]	[Remarks:Successful connection to server: S3]
[Date: 2015-11-12 14:15:29]	[UserID:06/343]	[IP:10.10.11.1]	[Browser:Chrome - 46.0.2490.80]	[Action:GetGSTModules 06/343,1]	[Remarks:Successful filter row count: 5]
[Date: 2015-11-12 14:15:29]	[UserID:06/343]	[IP:10.10.11.1]	[Browser:Chrome - 46.0.2490.80]	[Action:Closing mssql connection]	[Remarks:Success]
[Date: 2015-11-12 14:15:32]	[UserID:06/343]	[IP:10.10.11.1]	[Browser:Chrome - 46.0.2490.80]	[Action:Making connection to server]	[Remarks:Successful connection to server: S3]
[Date: 2015-11-12 14:15:32]	[UserID:06/343]	[IP:10.10.11.1]	[Browser:Chrome - 46.0.2490.80]	[Action:GetGSTModules 06/343,1]	[Remarks:Successful filter row count: 5]
[Date: 2015-11-12 14:15:32]	[UserID:06/343]	[IP:10.10.11.1]	[Browser:Chrome - 46.0.2490.80]	[Action:Closing mssql connection]	[Remarks:Success]
[Date: 2015-11-12 14:21:49]	[UserID:06/343]	[IP:10.10.11.1]	[Browser:Chrome - 46.0.2490.80]	[Action:Making connection to server]	[Remarks:Successful connection to server: S3]
[Date: 2015-11-12 14:21:49]	[UserID:06/343]	[IP:10.10.11.1]	[Browser:Chrome - 46.0.2490.80]	[Action:GetGSTModules 06/343,1]	[Remarks:Successful filter row count: 5]
[Date: 2015-11-12 14:21:49]	[UserID:06/343]	[IP:10.10.11.1]	[Browser:Chrome - 46.0.2490.80]	[Action:Closing mssql connection]	[Remarks:Success]
[Date: 2015-11-12 15:14:52]	[UserID:06/343]	[IP:10.10.11.1]	[Browser:Chrome - 46.0.2490.80]	[Action:Making connection to server]	[Remarks:Successful connection to server: S3]
[Date: 2015-11-12 15:14:52]	[UserID:06/343]	[IP:10.10.11.1]	[Browser:Chrome - 46.0.2490.80]	[Action:GetGSTModules 06/343,1]	[Remarks:Successful filter row count: 5]
[Date: 2015-11-12 15:14:52]	[UserID:06/343]	[IP:10.10.11.1]	[Browser:Chrome - 46.0.2490.80]	[Action:Closing mssql connection]	[Remarks:Success]
[Date: 2015-11-12 15:30:02]	[UserID:06/343]	[IP:10.10.11.1]	[Browser:Chrome - 46.0.2490.80]	[Action:Making connection to server]	[Remarks:Successful connection to server: S3]
[Date: 2015-11-12 15:30:03]	[UserID:06/343]	[IP:10.10.11.1]	[Browser:Chrome - 46.0.2490.80]	[Action:GetProgramList 06/343]	[Remarks:[{"ID":"1","ProgramIndex":"GST","ProgramName":"GST"}]]
[Date: 2015-11-12 15:30:03]	[UserID:06/343]	[IP:10.10.11.1]	[Browser:Chrome - 46.0.2490.80]	[Action:Making connection to server]	[Remarks:Successful connection to server: S3]
[Date: 2015-11-12 15:30:03]	[UserID:06/343]	[IP:10.10.11.1]	[Browser:Chrome - 46.0.2490.80]	[Action:GetProgramList 06/343]	[Remarks:[{"ID":"1","ProgramIndex":"GST","ProgramName":"GST"}]]
[Date: 2015-11-12 15:30:03]	[UserID:06/343]	[IP:10.10.11.1]	[Browser:Chrome - 46.0.2490.80]	[Action:Making connection to server]	[Remarks:Successful connection to server: S3]
[Date: 2015-11-12 15:30:03]	[UserID:06/343]	[IP:10.10.11.1]	[Browser:Chrome - 46.0.2490.80]	[Action:Filtering User : MasterData Username : 06/343]	[Remarks:Successful filter row count: 1]
[Date: 2015-11-12 15:30:03]	[UserID:06/343]	[IP:10.10.11.1]	[Browser:Chrome - 46.0.2490.80]	[Action:Making connection to server]	[Remarks:Successful connection to server: S3]
[Date: 2015-11-12 15:30:03]	[UserID:06/343]	[IP:10.10.11.1]	[Browser:Chrome - 46.0.2490.80]	[Action:GetProgramList 06/343]	[Remarks:[{"ID":"1","ProgramIndex":"GST","ProgramName":"GST"}]]
[Date: 2015-11-12 15:30:03]	[UserID:06/343]	[IP:10.10.11.1]	[Browser:Chrome - 46.0.2490.80]	[Action:Making connection to server]	[Remarks:Successful connection to server: S3]
[Date: 2015-11-12 15:30:03]	[UserID:06/343]	[IP:10.10.11.1]	[Browser:Chrome - 46.0.2490.80]	[Action:GetProgramList 06/343]	[Remarks:[{"ID":"1","ProgramIndex":"GST","ProgramName":"GST"}]]
[Date: 2015-11-12 15:30:03]	[UserID:06/343]	[IP:10.10.11.1]	[Browser:Chrome - 46.0.2490.80]	[Action:Making connection to server]	[Remarks:Successful connection to server: S3]
[Date: 2015-11-12 15:30:03]	[UserID:06/343]	[IP:10.10.11.1]	[Browser:Chrome - 46.0.2490.80]	[Action:Filtering User : MasterData Username : 06/343]	[Remarks:Successful filter row count: 1]
[Date: 2015-11-12 15:30:04]	[UserID:06/343]	[IP:10.10.11.1]	[Browser:Chrome - 46.0.2490.80]	[Action:Making connection to server]	[Remarks:Successful connection to server: S3]
[Date: 2015-11-12 15:30:06]	[UserID:06/343]	[IP:10.10.11.1]	[Browser:Chrome - 46.0.2490.80]	[Action:GetGSTModules 06/343,1]	[Remarks:Successful filter row count: 5]
[Date: 2015-11-12 15:30:06]	[UserID:06/343]	[IP:10.10.11.1]	[Browser:Chrome - 46.0.2490.80]	[Action:Closing mssql connection]	[Remarks:Success]
[Date: 2015-11-12 15:32:43]	[UserID:06/343]	[IP:10.10.11.1]	[Browser:Chrome - 46.0.2490.80]	[Action:Making connection to server]	[Remarks:Successful connection to server: S3]
[Date: 2015-11-12 15:32:44]	[UserID:06/343]	[IP:10.10.11.1]	[Browser:Chrome - 46.0.2490.80]	[Action:GetGSTModules 06/343,1]	[Remarks:Successful filter row count: 5]
[Date: 2015-11-12 15:32:44]	[UserID:06/343]	[IP:10.10.11.1]	[Browser:Chrome - 46.0.2490.80]	[Action:Closing mssql connection]	[Remarks:Success]
[Date: 2015-11-12 15:34:31]	[UserID:06/343]	[IP:10.10.11.1]	[Browser:Chrome - 46.0.2490.80]	[Action:Making connection to server]	[Remarks:Successful connection to server: S3]
[Date: 2015-11-12 15:34:31]	[UserID:06/343]	[IP:10.10.11.1]	[Browser:Chrome - 46.0.2490.80]	[Action:GetProgramList 06/343]	[Remarks:[{"ID":"1","ProgramIndex":"GST","ProgramName":"GST"}]]
[Date: 2015-11-12 15:34:31]	[UserID:06/343]	[IP:10.10.11.1]	[Browser:Chrome - 46.0.2490.80]	[Action:Making connection to server]	[Remarks:Successful connection to server: S3]
[Date: 2015-11-12 15:34:31]	[UserID:06/343]	[IP:10.10.11.1]	[Browser:Chrome - 46.0.2490.80]	[Action:GetProgramList 06/343]	[Remarks:[{"ID":"1","ProgramIndex":"GST","ProgramName":"GST"}]]
[Date: 2015-11-12 15:34:31]	[UserID:06/343]	[IP:10.10.11.1]	[Browser:Chrome - 46.0.2490.80]	[Action:Making connection to server]	[Remarks:Successful connection to server: S3]
[Date: 2015-11-12 15:34:31]	[UserID:06/343]	[IP:10.10.11.1]	[Browser:Chrome - 46.0.2490.80]	[Action:Filtering User : MasterData Username : 06/343]	[Remarks:Successful filter row count: 1]
[Date: 2015-11-12 15:34:32]	[UserID:06/343]	[IP:10.10.11.1]	[Browser:Chrome - 46.0.2490.80]	[Action:Making connection to server]	[Remarks:Successful connection to server: S3]
[Date: 2015-11-12 15:34:35]	[UserID:06/343]	[IP:10.10.11.1]	[Browser:Chrome - 46.0.2490.80]	[Action:GetGSTModules 06/343,1]	[Remarks:Successful filter row count: 5]
[Date: 2015-11-12 15:34:35]	[UserID:06/343]	[IP:10.10.11.1]	[Browser:Chrome - 46.0.2490.80]	[Action:Closing mssql connection]	[Remarks:Success]
[Date: 2015-11-12 16:50:30]	[UserID:]	[IP:10.10.11.1]	[Browser:Chrome - 46.0.2490.80]	[Action:Making connection to server]	[Remarks:Successful connection to server: S3]
[Date: 2015-11-12 16:50:30]	[UserID:]	[IP:10.10.11.1]	[Browser:Chrome - 46.0.2490.80]	[Action:GetProgramList ]	[Remarks:"no data"]
