[Date: 2019-11-25 08:02:37]	[UserID:]	[IP:10.128.12.120]	[Browser:Chrome - 78.0.3904.97]	[Action:Making connection to server]	[Remarks:Successful connection to server: S3]
[Date: 2019-11-25 08:02:37]	[UserID:]	[IP:10.128.12.120]	[Browser:Chrome - 78.0.3904.97]	[Action:GetProgramList ]	[Remarks:"no data"]
[Date: 2019-11-25 08:04:08]	[UserID:14/1082]	[IP:10.128.12.120]	[Browser:Chrome - 78.0.3904.97]	[Action:Making connection to server]	[Remarks:Successful connection to server: S3]
[Date: 2019-11-25 08:04:08]	[UserID:14/1082]	[IP:10.128.12.120]	[Browser:Chrome - 78.0.3904.97]	[Action:User 14/1082]	[Remarks:Success]
[Date: 2019-11-25 08:04:08]	[UserID:14/1082]	[IP:10.128.12.120]	[Browser:Chrome - 78.0.3904.97]	[Action:Filtering User : MasterData Username : 14/1082]	[Remarks:Successful filter row count: 0]
[Date: 2019-11-25 08:04:08]	[UserID:14/1082]	[IP:10.128.12.120]	[Browser:Chrome - 78.0.3904.97]	[Action:Filtering User : MasterData Username : 14/1082]	[Remarks:Successful filter row count: 0]
[Date: 2019-11-25 08:04:08]	[UserID:14/1082]	[IP:10.128.12.120]	[Browser:Chrome - 78.0.3904.97]	[Action:Filtering User : MasterData Username : 14/1082]	[Remarks:Success]
[Date: 2019-11-25 08:04:08]	[UserID:14/1082]	[IP:10.128.12.120]	[Browser:Chrome - 78.0.3904.97]	[Action:Closing mssql connection]	[Remarks:Success]
[Date: 2019-11-25 08:04:09]	[UserID:14/1082]	[IP:10.128.12.120]	[Browser:Chrome - 78.0.3904.97]	[Action:Making connection to server]	[Remarks:Successful connection to server: S3]
[Date: 2019-11-25 08:04:09]	[UserID:14/1082]	[IP:10.128.12.120]	[Browser:Chrome - 78.0.3904.97]	[Action:GetProgramList 14/1082]	[Remarks:[{"ID":"1","ProgramIndex":"GST","ProgramName":"GST"}]]
[Date: 2019-11-25 08:04:09]	[UserID:14/1082]	[IP:10.128.12.120]	[Browser:Chrome - 78.0.3904.97]	[Action:Making connection to server]	[Remarks:Successful connection to server: S3]
[Date: 2019-11-25 08:04:09]	[UserID:14/1082]	[IP:10.128.12.120]	[Browser:Chrome - 78.0.3904.97]	[Action:GetProgramList 14/1082]	[Remarks:[{"ID":"1","ProgramIndex":"GST","ProgramName":"GST"}]]
[Date: 2019-11-25 08:04:09]	[UserID:14/1082]	[IP:10.128.12.120]	[Browser:Chrome - 78.0.3904.97]	[Action:Making connection to server]	[Remarks:Successful connection to server: S3]
[Date: 2019-11-25 08:04:09]	[UserID:14/1082]	[IP:10.128.12.120]	[Browser:Chrome - 78.0.3904.97]	[Action:Filtering User : MasterData Username : 14/1082]	[Remarks:Successful filter row count: 1]
[Date: 2019-11-25 08:04:09]	[UserID:14/1082]	[IP:10.128.12.120]	[Browser:Chrome - 78.0.3904.97]	[Action:Making connection to server]	[Remarks:Successful connection to server: S3]
[Date: 2019-11-25 08:04:09]	[UserID:14/1082]	[IP:10.128.12.120]	[Browser:Chrome - 78.0.3904.97]	[Action:GetGSTModules 14/1082,1]	[Remarks:Successful filter row count: 8]
[Date: 2019-11-25 08:04:09]	[UserID:14/1082]	[IP:10.128.12.120]	[Browser:Chrome - 78.0.3904.97]	[Action:Closing mssql connection]	[Remarks:Success]
[Date: 2019-11-25 08:14:46]	[UserID:]	[IP:10.130.25.202]	[Browser:Chrome - 78.0.3904.108]	[Action:Making connection to server]	[Remarks:Successful connection to server: S3]
[Date: 2019-11-25 08:14:46]	[UserID:]	[IP:10.130.25.202]	[Browser:Chrome - 78.0.3904.108]	[Action:GetProgramList ]	[Remarks:"no data"]
[Date: 2019-11-25 08:21:15]	[UserID:14/1082]	[IP:10.128.12.120]	[Browser:Chrome - 78.0.3904.97]	[Action:Making connection to server]	[Remarks:Successful connection to server: S3]
[Date: 2019-11-25 08:21:15]	[UserID:14/1082]	[IP:10.128.12.120]	[Browser:Chrome - 78.0.3904.97]	[Action:GetGSTModules 14/1082,1]	[Remarks:Successful filter row count: 8]
[Date: 2019-11-25 08:21:15]	[UserID:14/1082]	[IP:10.128.12.120]	[Browser:Chrome - 78.0.3904.97]	[Action:Closing mssql connection]	[Remarks:Success]
[Date: 2019-11-25 08:29:13]	[UserID:]	[IP:10.128.12.113]	[Browser:Chrome - 78.0.3904.108]	[Action:Making connection to server]	[Remarks:Successful connection to server: S3]
[Date: 2019-11-25 08:29:13]	[UserID:]	[IP:10.128.12.113]	[Browser:Chrome - 78.0.3904.108]	[Action:GetProgramList ]	[Remarks:"no data"]
[Date: 2019-11-25 08:29:21]	[UserID:06/343]	[IP:10.128.12.113]	[Browser:Chrome - 78.0.3904.108]	[Action:Making connection to server]	[Remarks:Successful connection to server: S3]
[Date: 2019-11-25 08:29:21]	[UserID:06/343]	[IP:10.128.12.113]	[Browser:Chrome - 78.0.3904.108]	[Action:User 06/343]	[Remarks:Success]
[Date: 2019-11-25 08:29:21]	[UserID:06/343]	[IP:10.128.12.113]	[Browser:Chrome - 78.0.3904.108]	[Action:Filtering User : MasterData Username : 06/343]	[Remarks:Successful filter row count: 0]
[Date: 2019-11-25 08:29:21]	[UserID:06/343]	[IP:10.128.12.113]	[Browser:Chrome - 78.0.3904.108]	[Action:Filtering User : MasterData Username : 06/343]	[Remarks:Successful filter row count: 0]
[Date: 2019-11-25 08:29:21]	[UserID:06/343]	[IP:10.128.12.113]	[Browser:Chrome - 78.0.3904.108]	[Action:Filtering User : MasterData Username : 06/343]	[Remarks:Success]
[Date: 2019-11-25 08:29:21]	[UserID:06/343]	[IP:10.128.12.113]	[Browser:Chrome - 78.0.3904.108]	[Action:Closing mssql connection]	[Remarks:Success]
[Date: 2019-11-25 08:29:21]	[UserID:06/343]	[IP:10.128.12.113]	[Browser:Chrome - 78.0.3904.108]	[Action:Making connection to server]	[Remarks:Successful connection to server: S3]
[Date: 2019-11-25 08:29:21]	[UserID:06/343]	[IP:10.128.12.113]	[Browser:Chrome - 78.0.3904.108]	[Action:GetProgramList 06/343]	[Remarks:[{"ID":"1","ProgramIndex":"GST","ProgramName":"GST"}]]
[Date: 2019-11-25 08:29:21]	[UserID:06/343]	[IP:10.128.12.113]	[Browser:Chrome - 78.0.3904.108]	[Action:Making connection to server]	[Remarks:Successful connection to server: S3]
[Date: 2019-11-25 08:29:21]	[UserID:06/343]	[IP:10.128.12.113]	[Browser:Chrome - 78.0.3904.108]	[Action:GetProgramList 06/343]	[Remarks:[{"ID":"1","ProgramIndex":"GST","ProgramName":"GST"}]]
[Date: 2019-11-25 08:29:21]	[UserID:06/343]	[IP:10.128.12.113]	[Browser:Chrome - 78.0.3904.108]	[Action:Making connection to server]	[Remarks:Successful connection to server: S3]
[Date: 2019-11-25 08:29:21]	[UserID:06/343]	[IP:10.128.12.113]	[Browser:Chrome - 78.0.3904.108]	[Action:Filtering User : MasterData Username : 06/343]	[Remarks:Successful filter row count: 1]
[Date: 2019-11-25 08:29:21]	[UserID:06/343]	[IP:10.128.12.113]	[Browser:Chrome - 78.0.3904.108]	[Action:Making connection to server]	[Remarks:Successful connection to server: S3]
[Date: 2019-11-25 08:29:21]	[UserID:06/343]	[IP:10.128.12.113]	[Browser:Chrome - 78.0.3904.108]	[Action:GetGSTModules 06/343,1]	[Remarks:Successful filter row count: 7]
[Date: 2019-11-25 08:29:21]	[UserID:06/343]	[IP:10.128.12.113]	[Browser:Chrome - 78.0.3904.108]	[Action:Closing mssql connection]	[Remarks:Success]
[Date: 2019-11-25 08:40:41]	[UserID:06/343]	[IP:10.128.12.113]	[Browser:Chrome - 78.0.3904.108]	[Action:Making connection to server]	[Remarks:Successful connection to server: S3]
[Date: 2019-11-25 08:40:41]	[UserID:06/343]	[IP:10.128.12.113]	[Browser:Chrome - 78.0.3904.108]	[Action:GetGSTModules 06/343,1]	[Remarks:Successful filter row count: 7]
[Date: 2019-11-25 08:40:41]	[UserID:06/343]	[IP:10.128.12.113]	[Browser:Chrome - 78.0.3904.108]	[Action:Closing mssql connection]	[Remarks:Success]
[Date: 2019-11-25 08:45:51]	[UserID:06/343]	[IP:10.128.12.113]	[Browser:Chrome - 78.0.3904.108]	[Action:Making connection to server]	[Remarks:Successful connection to server: S3]
[Date: 2019-11-25 08:45:51]	[UserID:06/343]	[IP:10.128.12.113]	[Browser:Chrome - 78.0.3904.108]	[Action:GetGSTModules 06/343,1]	[Remarks:Successful filter row count: 7]
[Date: 2019-11-25 08:45:51]	[UserID:06/343]	[IP:10.128.12.113]	[Browser:Chrome - 78.0.3904.108]	[Action:Closing mssql connection]	[Remarks:Success]
[Date: 2019-11-25 09:32:07]	[UserID:14/1082]	[IP:10.128.12.120]	[Browser:Chrome - 78.0.3904.97]	[Action:Making connection to server]	[Remarks:Successful connection to server: S3]
[Date: 2019-11-25 09:32:07]	[UserID:14/1082]	[IP:10.128.12.120]	[Browser:Chrome - 78.0.3904.97]	[Action:GetGSTModules 14/1082,1]	[Remarks:Successful filter row count: 8]
[Date: 2019-11-25 09:32:07]	[UserID:14/1082]	[IP:10.128.12.120]	[Browser:Chrome - 78.0.3904.97]	[Action:Closing mssql connection]	[Remarks:Success]
[Date: 2019-11-25 09:37:43]	[UserID:14/1082]	[IP:10.128.12.120]	[Browser:Chrome - 78.0.3904.97]	[Action:Making connection to server]	[Remarks:Successful connection to server: S3]
[Date: 2019-11-25 09:37:43]	[UserID:14/1082]	[IP:10.128.12.120]	[Browser:Chrome - 78.0.3904.97]	[Action:GetGSTModules 14/1082,1]	[Remarks:Successful filter row count: 8]
[Date: 2019-11-25 09:37:43]	[UserID:14/1082]	[IP:10.128.12.120]	[Browser:Chrome - 78.0.3904.97]	[Action:Closing mssql connection]	[Remarks:Success]
[Date: 2019-11-25 09:47:20]	[UserID:14/1082]	[IP:10.128.12.120]	[Browser:Chrome - 78.0.3904.97]	[Action:Making connection to server]	[Remarks:Successful connection to server: S3]
[Date: 2019-11-25 09:47:20]	[UserID:14/1082]	[IP:10.128.12.120]	[Browser:Chrome - 78.0.3904.97]	[Action:GetGSTModules 14/1082,1]	[Remarks:Successful filter row count: 8]
[Date: 2019-11-25 09:47:20]	[UserID:14/1082]	[IP:10.128.12.120]	[Browser:Chrome - 78.0.3904.97]	[Action:Closing mssql connection]	[Remarks:Success]
[Date: 2019-11-25 10:10:10]	[UserID:06/343]	[IP:10.128.12.113]	[Browser:Chrome - 78.0.3904.108]	[Action:Making connection to server]	[Remarks:Successful connection to server: S3]
[Date: 2019-11-25 10:10:10]	[UserID:06/343]	[IP:10.128.12.113]	[Browser:Chrome - 78.0.3904.108]	[Action:GetGSTModules 06/343,1]	[Remarks:Successful filter row count: 7]
[Date: 2019-11-25 10:10:10]	[UserID:06/343]	[IP:10.128.12.113]	[Browser:Chrome - 78.0.3904.108]	[Action:Closing mssql connection]	[Remarks:Success]
[Date: 2019-11-25 10:13:35]	[UserID:06/343]	[IP:10.128.12.113]	[Browser:Chrome - 78.0.3904.108]	[Action:Making connection to server]	[Remarks:Successful connection to server: S3]
[Date: 2019-11-25 10:13:35]	[UserID:06/343]	[IP:10.128.12.113]	[Browser:Chrome - 78.0.3904.108]	[Action:GetGSTModules 06/343,1]	[Remarks:Successful filter row count: 7]
[Date: 2019-11-25 10:13:35]	[UserID:06/343]	[IP:10.128.12.113]	[Browser:Chrome - 78.0.3904.108]	[Action:Closing mssql connection]	[Remarks:Success]
[Date: 2019-11-25 10:48:51]	[UserID:14/1082]	[IP:10.128.12.120]	[Browser:Chrome - 78.0.3904.97]	[Action:Making connection to server]	[Remarks:Successful connection to server: S3]
[Date: 2019-11-25 10:48:51]	[UserID:14/1082]	[IP:10.128.12.120]	[Browser:Chrome - 78.0.3904.97]	[Action:GetGSTModules 14/1082,1]	[Remarks:Successful filter row count: 8]
[Date: 2019-11-25 10:48:51]	[UserID:14/1082]	[IP:10.128.12.120]	[Browser:Chrome - 78.0.3904.97]	[Action:Closing mssql connection]	[Remarks:Success]
[Date: 2019-11-25 14:42:31]	[UserID:14/1082]	[IP:10.128.12.120]	[Browser:Chrome - 78.0.3904.97]	[Action:Making connection to server]	[Remarks:Successful connection to server: S3]
[Date: 2019-11-25 14:42:31]	[UserID:14/1082]	[IP:10.128.12.120]	[Browser:Chrome - 78.0.3904.97]	[Action:GetGSTModules 14/1082,1]	[Remarks:Successful filter row count: 8]
[Date: 2019-11-25 14:42:31]	[UserID:14/1082]	[IP:10.128.12.120]	[Browser:Chrome - 78.0.3904.97]	[Action:Closing mssql connection]	[Remarks:Success]
[Date: 2019-11-25 15:03:28]	[UserID:14/1082]	[IP:10.128.12.120]	[Browser:Chrome - 78.0.3904.97]	[Action:Making connection to server]	[Remarks:Successful connection to server: S3]
[Date: 2019-11-25 15:03:28]	[UserID:14/1082]	[IP:10.128.12.120]	[Browser:Chrome - 78.0.3904.97]	[Action:GetGSTModules 14/1082,1]	[Remarks:Successful filter row count: 8]
[Date: 2019-11-25 15:03:28]	[UserID:14/1082]	[IP:10.128.12.120]	[Browser:Chrome - 78.0.3904.97]	[Action:Closing mssql connection]	[Remarks:Success]
[Date: 2019-11-25 15:18:33]	[UserID:06/343]	[IP:10.128.12.113]	[Browser:Chrome - 78.0.3904.108]	[Action:Making connection to server]	[Remarks:Successful connection to server: S3]
[Date: 2019-11-25 15:18:33]	[UserID:06/343]	[IP:10.128.12.113]	[Browser:Chrome - 78.0.3904.108]	[Action:GetGSTModules 06/343,1]	[Remarks:Successful filter row count: 7]
[Date: 2019-11-25 15:18:33]	[UserID:06/343]	[IP:10.128.12.113]	[Browser:Chrome - 78.0.3904.108]	[Action:Closing mssql connection]	[Remarks:Success]
[Date: 2019-11-25 15:21:27]	[UserID:06/343]	[IP:10.128.12.113]	[Browser:Chrome - 78.0.3904.108]	[Action:Making connection to server]	[Remarks:Successful connection to server: S3]
[Date: 2019-11-25 15:21:27]	[UserID:06/343]	[IP:10.128.12.113]	[Browser:Chrome - 78.0.3904.108]	[Action:GetGSTModules 06/343,1]	[Remarks:Successful filter row count: 7]
[Date: 2019-11-25 15:21:27]	[UserID:06/343]	[IP:10.128.12.113]	[Browser:Chrome - 78.0.3904.108]	[Action:Closing mssql connection]	[Remarks:Success]
[Date: 2019-11-25 15:40:06]	[UserID:06/343]	[IP:10.128.12.113]	[Browser:Chrome - 78.0.3904.108]	[Action:Making connection to server]	[Remarks:Successful connection to server: S3]
[Date: 2019-11-25 15:40:06]	[UserID:06/343]	[IP:10.128.12.113]	[Browser:Chrome - 78.0.3904.108]	[Action:GetGSTModules 06/343,1]	[Remarks:Successful filter row count: 7]
[Date: 2019-11-25 15:40:06]	[UserID:06/343]	[IP:10.128.12.113]	[Browser:Chrome - 78.0.3904.108]	[Action:Closing mssql connection]	[Remarks:Success]
[Date: 2019-11-25 15:45:08]	[UserID:06/343]	[IP:10.128.12.113]	[Browser:Chrome - 78.0.3904.108]	[Action:Making connection to server]	[Remarks:Successful connection to server: S3]
[Date: 2019-11-25 15:45:08]	[UserID:06/343]	[IP:10.128.12.113]	[Browser:Chrome - 78.0.3904.108]	[Action:GetGSTModules 06/343,1]	[Remarks:Successful filter row count: 7]
[Date: 2019-11-25 15:45:08]	[UserID:06/343]	[IP:10.128.12.113]	[Browser:Chrome - 78.0.3904.108]	[Action:Closing mssql connection]	[Remarks:Success]
[Date: 2019-11-25 15:45:44]	[UserID:06/343]	[IP:10.128.12.113]	[Browser:Chrome - 78.0.3904.108]	[Action:Making connection to server]	[Remarks:Successful connection to server: S3]
[Date: 2019-11-25 15:45:44]	[UserID:06/343]	[IP:10.128.12.113]	[Browser:Chrome - 78.0.3904.108]	[Action:GetGSTModules 06/343,1]	[Remarks:Successful filter row count: 7]
[Date: 2019-11-25 15:45:44]	[UserID:06/343]	[IP:10.128.12.113]	[Browser:Chrome - 78.0.3904.108]	[Action:Closing mssql connection]	[Remarks:Success]
[Date: 2019-11-25 15:53:32]	[UserID:06/343]	[IP:10.128.12.113]	[Browser:Chrome - 78.0.3904.108]	[Action:Making connection to server]	[Remarks:Successful connection to server: S3]
[Date: 2019-11-25 15:53:32]	[UserID:06/343]	[IP:10.128.12.113]	[Browser:Chrome - 78.0.3904.108]	[Action:GetGSTModules 06/343,1]	[Remarks:Successful filter row count: 7]
[Date: 2019-11-25 15:53:32]	[UserID:06/343]	[IP:10.128.12.113]	[Browser:Chrome - 78.0.3904.108]	[Action:Closing mssql connection]	[Remarks:Success]
[Date: 2019-11-25 16:14:04]	[UserID:14/1082]	[IP:10.128.12.120]	[Browser:Chrome - 78.0.3904.97]	[Action:Making connection to server]	[Remarks:Successful connection to server: S3]
[Date: 2019-11-25 16:14:04]	[UserID:14/1082]	[IP:10.128.12.120]	[Browser:Chrome - 78.0.3904.97]	[Action:GetGSTModules 14/1082,1]	[Remarks:Successful filter row count: 8]
[Date: 2019-11-25 16:14:04]	[UserID:14/1082]	[IP:10.128.12.120]	[Browser:Chrome - 78.0.3904.97]	[Action:Closing mssql connection]	[Remarks:Success]
[Date: 2019-11-25 16:25:37]	[UserID:06/343]	[IP:10.128.12.113]	[Browser:Chrome - 78.0.3904.108]	[Action:Making connection to server]	[Remarks:Successful connection to server: S3]
[Date: 2019-11-25 16:25:37]	[UserID:06/343]	[IP:10.128.12.113]	[Browser:Chrome - 78.0.3904.108]	[Action:GetGSTModules 06/343,1]	[Remarks:Successful filter row count: 7]
[Date: 2019-11-25 16:25:37]	[UserID:06/343]	[IP:10.128.12.113]	[Browser:Chrome - 78.0.3904.108]	[Action:Closing mssql connection]	[Remarks:Success]
[Date: 2019-11-25 16:41:34]	[UserID:06/343]	[IP:10.128.12.113]	[Browser:Chrome - 78.0.3904.108]	[Action:Making connection to server]	[Remarks:Successful connection to server: S3]
[Date: 2019-11-25 16:41:35]	[UserID:06/343]	[IP:10.128.12.113]	[Browser:Chrome - 78.0.3904.108]	[Action:GetGSTModules 06/343,1]	[Remarks:Successful filter row count: 7]
[Date: 2019-11-25 16:41:35]	[UserID:06/343]	[IP:10.128.12.113]	[Browser:Chrome - 78.0.3904.108]	[Action:Closing mssql connection]	[Remarks:Success]
[Date: 2019-11-25 16:43:47]	[UserID:06/343]	[IP:10.128.12.113]	[Browser:Chrome - 78.0.3904.108]	[Action:Making connection to server]	[Remarks:Successful connection to server: S3]
[Date: 2019-11-25 16:43:48]	[UserID:06/343]	[IP:10.128.12.113]	[Browser:Chrome - 78.0.3904.108]	[Action:GetGSTModules 06/343,1]	[Remarks:Successful filter row count: 7]
[Date: 2019-11-25 16:43:48]	[UserID:06/343]	[IP:10.128.12.113]	[Browser:Chrome - 78.0.3904.108]	[Action:Closing mssql connection]	[Remarks:Success]
