[Date: 2016-07-11 07:34:43]	[UserID:]	[IP:10.10.11.1]	[Browser:Chrome - 51.0.2704.103]	[Action:Making connection to server]	[Remarks:Successful connection to server: S3]
[Date: 2016-07-11 07:34:44]	[UserID:]	[IP:10.10.11.1]	[Browser:Chrome - 51.0.2704.103]	[Action:GetProgramList ]	[Remarks:"no data"]
[Date: 2016-07-11 07:54:13]	[UserID:06/343]	[IP:10.10.11.1]	[Browser:Chrome - 51.0.2704.103]	[Action:Making connection to server]	[Remarks:Successful connection to server: S3]
[Date: 2016-07-11 07:54:13]	[UserID:06/343]	[IP:10.10.11.1]	[Browser:Chrome - 51.0.2704.103]	[Action:User 06/343]	[Remarks:Success]
[Date: 2016-07-11 07:54:13]	[UserID:06/343]	[IP:10.10.11.1]	[Browser:Chrome - 51.0.2704.103]	[Action:Filtering User : MasterData Username : 06/343]	[Remarks:Successful filter row count: 0]
[Date: 2016-07-11 07:54:13]	[UserID:06/343]	[IP:10.10.11.1]	[Browser:Chrome - 51.0.2704.103]	[Action:Filtering User : MasterData Username : 06/343]	[Remarks:Successful filter row count: 0]
[Date: 2016-07-11 07:54:13]	[UserID:06/343]	[IP:10.10.11.1]	[Browser:Chrome - 51.0.2704.103]	[Action:Filtering User : MasterData Username : 06/343]	[Remarks:Success]
[Date: 2016-07-11 07:54:13]	[UserID:06/343]	[IP:10.10.11.1]	[Browser:Chrome - 51.0.2704.103]	[Action:Closing mssql connection]	[Remarks:Success]
[Date: 2016-07-11 07:54:13]	[UserID:06/343]	[IP:10.10.11.1]	[Browser:Chrome - 51.0.2704.103]	[Action:Making connection to server]	[Remarks:Successful connection to server: S3]
[Date: 2016-07-11 07:54:13]	[UserID:06/343]	[IP:10.10.11.1]	[Browser:Chrome - 51.0.2704.103]	[Action:GetProgramList 06/343]	[Remarks:[{"ID":"1","ProgramIndex":"GST","ProgramName":"GST"}]]
[Date: 2016-07-11 07:54:13]	[UserID:06/343]	[IP:10.10.11.1]	[Browser:Chrome - 51.0.2704.103]	[Action:Making connection to server]	[Remarks:Successful connection to server: S3]
[Date: 2016-07-11 07:54:13]	[UserID:06/343]	[IP:10.10.11.1]	[Browser:Chrome - 51.0.2704.103]	[Action:GetProgramList 06/343]	[Remarks:[{"ID":"1","ProgramIndex":"GST","ProgramName":"GST"}]]
[Date: 2016-07-11 07:54:13]	[UserID:06/343]	[IP:10.10.11.1]	[Browser:Chrome - 51.0.2704.103]	[Action:Making connection to server]	[Remarks:Successful connection to server: S3]
[Date: 2016-07-11 07:54:13]	[UserID:06/343]	[IP:10.10.11.1]	[Browser:Chrome - 51.0.2704.103]	[Action:Filtering User : MasterData Username : 06/343]	[Remarks:Successful filter row count: 1]
[Date: 2016-07-11 07:54:14]	[UserID:06/343]	[IP:10.10.11.1]	[Browser:Chrome - 51.0.2704.103]	[Action:Making connection to server]	[Remarks:Successful connection to server: S3]
[Date: 2016-07-11 07:54:14]	[UserID:06/343]	[IP:10.10.11.1]	[Browser:Chrome - 51.0.2704.103]	[Action:GetGSTModules 06/343,1]	[Remarks:Successful filter row count: 5]
[Date: 2016-07-11 07:54:14]	[UserID:06/343]	[IP:10.10.11.1]	[Browser:Chrome - 51.0.2704.103]	[Action:Closing mssql connection]	[Remarks:Success]
[Date: 2016-07-11 07:57:51]	[UserID:06/343]	[IP:10.10.11.1]	[Browser:Chrome - 51.0.2704.103]	[Action:Making connection to server]	[Remarks:Successful connection to server: S3]
[Date: 2016-07-11 07:57:51]	[UserID:06/343]	[IP:10.10.11.1]	[Browser:Chrome - 51.0.2704.103]	[Action:GetGSTModules 06/343,1]	[Remarks:Successful filter row count: 5]
[Date: 2016-07-11 07:57:51]	[UserID:06/343]	[IP:10.10.11.1]	[Browser:Chrome - 51.0.2704.103]	[Action:Closing mssql connection]	[Remarks:Success]
[Date: 2016-07-11 08:02:09]	[UserID:06/343]	[IP:10.10.11.1]	[Browser:Chrome - 51.0.2704.103]	[Action:Making connection to server]	[Remarks:Successful connection to server: S3]
[Date: 2016-07-11 08:02:09]	[UserID:06/343]	[IP:10.10.11.1]	[Browser:Chrome - 51.0.2704.103]	[Action:GetGSTModules 06/343,1]	[Remarks:Successful filter row count: 5]
[Date: 2016-07-11 08:02:09]	[UserID:06/343]	[IP:10.10.11.1]	[Browser:Chrome - 51.0.2704.103]	[Action:Closing mssql connection]	[Remarks:Success]
[Date: 2016-07-11 08:04:03]	[UserID:06/343]	[IP:10.10.11.1]	[Browser:Chrome - 51.0.2704.103]	[Action:Making connection to server]	[Remarks:Successful connection to server: S3]
[Date: 2016-07-11 08:04:03]	[UserID:06/343]	[IP:10.10.11.1]	[Browser:Chrome - 51.0.2704.103]	[Action:GetGSTModules 06/343,1]	[Remarks:Successful filter row count: 5]
[Date: 2016-07-11 08:04:03]	[UserID:06/343]	[IP:10.10.11.1]	[Browser:Chrome - 51.0.2704.103]	[Action:Closing mssql connection]	[Remarks:Success]
[Date: 2016-07-11 08:08:42]	[UserID:06/343]	[IP:10.10.11.1]	[Browser:Chrome - 51.0.2704.103]	[Action:Making connection to server]	[Remarks:Successful connection to server: S3]
[Date: 2016-07-11 08:08:43]	[UserID:06/343]	[IP:10.10.11.1]	[Browser:Chrome - 51.0.2704.103]	[Action:GetGSTModules 06/343,1]	[Remarks:Successful filter row count: 5]
[Date: 2016-07-11 08:08:43]	[UserID:06/343]	[IP:10.10.11.1]	[Browser:Chrome - 51.0.2704.103]	[Action:Closing mssql connection]	[Remarks:Success]
[Date: 2016-07-11 08:11:14]	[UserID:06/343]	[IP:10.10.11.1]	[Browser:Chrome - 51.0.2704.103]	[Action:Making connection to server]	[Remarks:Successful connection to server: S3]
[Date: 2016-07-11 08:11:14]	[UserID:06/343]	[IP:10.10.11.1]	[Browser:Chrome - 51.0.2704.103]	[Action:GetGSTModules 06/343,1]	[Remarks:Successful filter row count: 5]
[Date: 2016-07-11 08:11:14]	[UserID:06/343]	[IP:10.10.11.1]	[Browser:Chrome - 51.0.2704.103]	[Action:Closing mssql connection]	[Remarks:Success]
[Date: 2016-07-11 10:00:52]	[UserID:06/343]	[IP:10.10.11.1]	[Browser:Chrome - 51.0.2704.103]	[Action:Making connection to server]	[Remarks:Successful connection to server: S3]
[Date: 2016-07-11 10:00:52]	[UserID:06/343]	[IP:10.10.11.1]	[Browser:Chrome - 51.0.2704.103]	[Action:GetProgramList 06/343]	[Remarks:[{"ID":"1","ProgramIndex":"GST","ProgramName":"GST"}]]
[Date: 2016-07-11 10:00:52]	[UserID:06/343]	[IP:10.10.11.1]	[Browser:Chrome - 51.0.2704.103]	[Action:Making connection to server]	[Remarks:Successful connection to server: S3]
[Date: 2016-07-11 10:00:52]	[UserID:06/343]	[IP:10.10.11.1]	[Browser:Chrome - 51.0.2704.103]	[Action:GetProgramList 06/343]	[Remarks:[{"ID":"1","ProgramIndex":"GST","ProgramName":"GST"}]]
[Date: 2016-07-11 10:00:52]	[UserID:06/343]	[IP:10.10.11.1]	[Browser:Chrome - 51.0.2704.103]	[Action:Making connection to server]	[Remarks:Successful connection to server: S3]
[Date: 2016-07-11 10:00:52]	[UserID:06/343]	[IP:10.10.11.1]	[Browser:Chrome - 51.0.2704.103]	[Action:Filtering User : MasterData Username : 06/343]	[Remarks:Successful filter row count: 1]
[Date: 2016-07-11 10:00:53]	[UserID:06/343]	[IP:10.10.11.1]	[Browser:Chrome - 51.0.2704.103]	[Action:Making connection to server]	[Remarks:Successful connection to server: S3]
[Date: 2016-07-11 10:00:53]	[UserID:06/343]	[IP:10.10.11.1]	[Browser:Chrome - 51.0.2704.103]	[Action:GetGSTModules 06/343,1]	[Remarks:Successful filter row count: 5]
[Date: 2016-07-11 10:00:53]	[UserID:06/343]	[IP:10.10.11.1]	[Browser:Chrome - 51.0.2704.103]	[Action:Closing mssql connection]	[Remarks:Success]
[Date: 2016-07-11 10:03:45]	[UserID:06/343]	[IP:10.10.11.1]	[Browser:Chrome - 51.0.2704.103]	[Action:Making connection to server]	[Remarks:Successful connection to server: S3]
[Date: 2016-07-11 10:03:45]	[UserID:06/343]	[IP:10.10.11.1]	[Browser:Chrome - 51.0.2704.103]	[Action:GetGSTModules 06/343,1]	[Remarks:Successful filter row count: 5]
[Date: 2016-07-11 10:03:45]	[UserID:06/343]	[IP:10.10.11.1]	[Browser:Chrome - 51.0.2704.103]	[Action:Closing mssql connection]	[Remarks:Success]
[Date: 2016-07-11 13:29:02]	[UserID:]	[IP:10.10.11.1]	[Browser:Chrome - 51.0.2704.103]	[Action:Making connection to server]	[Remarks:Successful connection to server: S3]
[Date: 2016-07-11 13:29:02]	[UserID:]	[IP:10.10.11.1]	[Browser:Chrome - 51.0.2704.103]	[Action:GetProgramList ]	[Remarks:"no data"]
[Date: 2016-07-11 13:29:04]	[UserID:10/660]	[IP:10.10.11.1]	[Browser:Chrome - 51.0.2704.103]	[Action:Making connection to server]	[Remarks:Successful connection to server: S3]
[Date: 2016-07-11 13:29:04]	[UserID:10/660]	[IP:10.10.11.1]	[Browser:Chrome - 51.0.2704.103]	[Action:User 10/660]	[Remarks:Success]
[Date: 2016-07-11 13:29:04]	[UserID:10/660]	[IP:10.10.11.1]	[Browser:Chrome - 51.0.2704.103]	[Action:Filtering User : MasterData Username : 10/660]	[Remarks:Successful filter row count: 0]
[Date: 2016-07-11 13:29:04]	[UserID:10/660]	[IP:10.10.11.1]	[Browser:Chrome - 51.0.2704.103]	[Action:Filtering User : MasterData Username : 10/660]	[Remarks:Successful filter row count: 0]
[Date: 2016-07-11 13:29:04]	[UserID:10/660]	[IP:10.10.11.1]	[Browser:Chrome - 51.0.2704.103]	[Action:Filtering User : MasterData Username : 10/660]	[Remarks:Success]
[Date: 2016-07-11 13:29:04]	[UserID:10/660]	[IP:10.10.11.1]	[Browser:Chrome - 51.0.2704.103]	[Action:Closing mssql connection]	[Remarks:Success]
[Date: 2016-07-11 13:29:05]	[UserID:10/660]	[IP:10.10.11.1]	[Browser:Chrome - 51.0.2704.103]	[Action:Making connection to server]	[Remarks:Successful connection to server: S3]
[Date: 2016-07-11 13:29:05]	[UserID:10/660]	[IP:10.10.11.1]	[Browser:Chrome - 51.0.2704.103]	[Action:GetProgramList 10/660]	[Remarks:[{"ID":"1","ProgramIndex":"GST","ProgramName":"GST"}]]
[Date: 2016-07-11 13:29:05]	[UserID:10/660]	[IP:10.10.11.1]	[Browser:Chrome - 51.0.2704.103]	[Action:Making connection to server]	[Remarks:Successful connection to server: S3]
[Date: 2016-07-11 13:29:05]	[UserID:10/660]	[IP:10.10.11.1]	[Browser:Chrome - 51.0.2704.103]	[Action:GetProgramList 10/660]	[Remarks:[{"ID":"1","ProgramIndex":"GST","ProgramName":"GST"}]]
[Date: 2016-07-11 13:29:05]	[UserID:10/660]	[IP:10.10.11.1]	[Browser:Chrome - 51.0.2704.103]	[Action:Making connection to server]	[Remarks:Successful connection to server: S3]
[Date: 2016-07-11 13:29:05]	[UserID:10/660]	[IP:10.10.11.1]	[Browser:Chrome - 51.0.2704.103]	[Action:Filtering User : MasterData Username : 10/660]	[Remarks:Successful filter row count: 1]
[Date: 2016-07-11 13:29:05]	[UserID:10/660]	[IP:10.10.11.1]	[Browser:Chrome - 51.0.2704.103]	[Action:Making connection to server]	[Remarks:Successful connection to server: S3]
[Date: 2016-07-11 13:29:05]	[UserID:10/660]	[IP:10.10.11.1]	[Browser:Chrome - 51.0.2704.103]	[Action:GetGSTModules 10/660,1]	[Remarks:Successful filter row count: 3]
[Date: 2016-07-11 13:29:05]	[UserID:10/660]	[IP:10.10.11.1]	[Browser:Chrome - 51.0.2704.103]	[Action:Closing mssql connection]	[Remarks:Success]
[Date: 2016-07-11 13:31:01]	[UserID:10/660]	[IP:10.10.11.1]	[Browser:Chrome - 51.0.2704.103]	[Action:Making connection to server]	[Remarks:Successful connection to server: S3]
[Date: 2016-07-11 13:31:01]	[UserID:10/660]	[IP:10.10.11.1]	[Browser:Chrome - 51.0.2704.103]	[Action:GetGSTModules 10/660,1]	[Remarks:Successful filter row count: 3]
[Date: 2016-07-11 13:31:01]	[UserID:10/660]	[IP:10.10.11.1]	[Browser:Chrome - 51.0.2704.103]	[Action:Closing mssql connection]	[Remarks:Success]
[Date: 2016-07-11 13:50:36]	[UserID:10/660]	[IP:10.10.11.1]	[Browser:Chrome - 51.0.2704.103]	[Action:Making connection to server]	[Remarks:Successful connection to server: S3]
[Date: 2016-07-11 13:50:36]	[UserID:10/660]	[IP:10.10.11.1]	[Browser:Chrome - 51.0.2704.103]	[Action:GetGSTModules 10/660,1]	[Remarks:Successful filter row count: 3]
[Date: 2016-07-11 13:50:36]	[UserID:10/660]	[IP:10.10.11.1]	[Browser:Chrome - 51.0.2704.103]	[Action:Closing mssql connection]	[Remarks:Success]
[Date: 2016-07-11 13:51:10]	[UserID:]	[IP:10.10.11.1]	[Browser:Chrome - 51.0.2704.103]	[Action:Making connection to server]	[Remarks:Successful connection to server: S3]
[Date: 2016-07-11 13:51:10]	[UserID:]	[IP:10.10.11.1]	[Browser:Chrome - 51.0.2704.103]	[Action:GetProgramList ]	[Remarks:"no data"]
[Date: 2016-07-11 17:10:03]	[UserID:]	[IP:10.10.11.1]	[Browser:Chrome - 49.0.2623.75]	[Action:Making connection to server]	[Remarks:Successful connection to server: S3]
[Date: 2016-07-11 17:10:03]	[UserID:]	[IP:10.10.11.1]	[Browser:Chrome - 49.0.2623.75]	[Action:GetProgramList ]	[Remarks:"no data"]
