[Date: 2019-01-18 10:04:44]	[UserID:]	[IP:10.128.12.113]	[Browser:Chrome - 71.0.3578.98]	[Action:Making connection to server]	[Remarks:Successful connection to server: S3]
[Date: 2019-01-18 10:04:44]	[UserID:]	[IP:10.128.12.113]	[Browser:Chrome - 71.0.3578.98]	[Action:GetProgramList ]	[Remarks:"no data"]
[Date: 2019-01-18 10:04:46]	[UserID:06/343]	[IP:10.128.12.113]	[Browser:Chrome - 71.0.3578.98]	[Action:Making connection to server]	[Remarks:Successful connection to server: S3]
[Date: 2019-01-18 10:04:46]	[UserID:06/343]	[IP:10.128.12.113]	[Browser:Chrome - 71.0.3578.98]	[Action:User 06/343]	[Remarks:Success]
[Date: 2019-01-18 10:04:46]	[UserID:06/343]	[IP:10.128.12.113]	[Browser:Chrome - 71.0.3578.98]	[Action:Filtering User : MasterData Username : 06/343]	[Remarks:Successful filter row count: 0]
[Date: 2019-01-18 10:04:46]	[UserID:06/343]	[IP:10.128.12.113]	[Browser:Chrome - 71.0.3578.98]	[Action:Filtering User : MasterData Username : 06/343]	[Remarks:Successful filter row count: 0]
[Date: 2019-01-18 10:04:46]	[UserID:06/343]	[IP:10.128.12.113]	[Browser:Chrome - 71.0.3578.98]	[Action:Filtering User : MasterData Username : 06/343]	[Remarks:Success]
[Date: 2019-01-18 10:04:46]	[UserID:06/343]	[IP:10.128.12.113]	[Browser:Chrome - 71.0.3578.98]	[Action:Closing mssql connection]	[Remarks:Success]
[Date: 2019-01-18 10:04:46]	[UserID:06/343]	[IP:10.128.12.113]	[Browser:Chrome - 71.0.3578.98]	[Action:Making connection to server]	[Remarks:Successful connection to server: S3]
[Date: 2019-01-18 10:04:46]	[UserID:06/343]	[IP:10.128.12.113]	[Browser:Chrome - 71.0.3578.98]	[Action:GetProgramList 06/343]	[Remarks:[{"ID":"1","ProgramIndex":"GST","ProgramName":"GST"}]]
[Date: 2019-01-18 10:04:46]	[UserID:06/343]	[IP:10.128.12.113]	[Browser:Chrome - 71.0.3578.98]	[Action:Making connection to server]	[Remarks:Successful connection to server: S3]
[Date: 2019-01-18 10:04:46]	[UserID:06/343]	[IP:10.128.12.113]	[Browser:Chrome - 71.0.3578.98]	[Action:GetProgramList 06/343]	[Remarks:[{"ID":"1","ProgramIndex":"GST","ProgramName":"GST"}]]
[Date: 2019-01-18 10:04:46]	[UserID:06/343]	[IP:10.128.12.113]	[Browser:Chrome - 71.0.3578.98]	[Action:Making connection to server]	[Remarks:Successful connection to server: S3]
[Date: 2019-01-18 10:04:46]	[UserID:06/343]	[IP:10.128.12.113]	[Browser:Chrome - 71.0.3578.98]	[Action:Filtering User : MasterData Username : 06/343]	[Remarks:Successful filter row count: 1]
[Date: 2019-01-18 10:04:46]	[UserID:06/343]	[IP:10.128.12.113]	[Browser:Chrome - 71.0.3578.98]	[Action:Making connection to server]	[Remarks:Successful connection to server: S3]
[Date: 2019-01-18 10:04:46]	[UserID:06/343]	[IP:10.128.12.113]	[Browser:Chrome - 71.0.3578.98]	[Action:GetGSTModules 06/343,1]	[Remarks:Successful filter row count: 6]
[Date: 2019-01-18 10:04:46]	[UserID:06/343]	[IP:10.128.12.113]	[Browser:Chrome - 71.0.3578.98]	[Action:Closing mssql connection]	[Remarks:Success]
[Date: 2019-01-18 10:13:03]	[UserID:06/343]	[IP:10.128.12.113]	[Browser:Chrome - 71.0.3578.98]	[Action:Making connection to server]	[Remarks:Successful connection to server: S3]
[Date: 2019-01-18 10:13:03]	[UserID:06/343]	[IP:10.128.12.113]	[Browser:Chrome - 71.0.3578.98]	[Action:GetGSTModules 06/343,1]	[Remarks:Successful filter row count: 6]
[Date: 2019-01-18 10:13:03]	[UserID:06/343]	[IP:10.128.12.113]	[Browser:Chrome - 71.0.3578.98]	[Action:Closing mssql connection]	[Remarks:Success]
[Date: 2019-01-18 15:08:50]	[UserID:]	[IP:10.128.12.210]	[Browser:Chrome - 71.0.3578.98]	[Action:Making connection to server]	[Remarks:Successful connection to server: S3]
[Date: 2019-01-18 15:08:50]	[UserID:]	[IP:10.128.12.210]	[Browser:Chrome - 71.0.3578.98]	[Action:GetProgramList ]	[Remarks:"no data"]
[Date: 2019-01-18 15:09:03]	[UserID:10/660]	[IP:10.128.12.210]	[Browser:Chrome - 71.0.3578.98]	[Action:Making connection to server]	[Remarks:Successful connection to server: S3]
[Date: 2019-01-18 15:09:03]	[UserID:10/660]	[IP:10.128.12.210]	[Browser:Chrome - 71.0.3578.98]	[Action:User 10/660]	[Remarks:Success]
[Date: 2019-01-18 15:09:03]	[UserID:10/660]	[IP:10.128.12.210]	[Browser:Chrome - 71.0.3578.98]	[Action:Filtering User : MasterData Username : 10/660]	[Remarks:Successful filter row count: 0]
[Date: 2019-01-18 15:09:03]	[UserID:10/660]	[IP:10.128.12.210]	[Browser:Chrome - 71.0.3578.98]	[Action:Filtering User : MasterData Username : 10/660]	[Remarks:Successful filter row count: 0]
[Date: 2019-01-18 15:09:03]	[UserID:10/660]	[IP:10.128.12.210]	[Browser:Chrome - 71.0.3578.98]	[Action:Filtering User : MasterData Username : 10/660]	[Remarks:Success]
[Date: 2019-01-18 15:09:03]	[UserID:10/660]	[IP:10.128.12.210]	[Browser:Chrome - 71.0.3578.98]	[Action:Closing mssql connection]	[Remarks:Success]
[Date: 2019-01-18 15:09:03]	[UserID:10/660]	[IP:10.128.12.210]	[Browser:Chrome - 71.0.3578.98]	[Action:Making connection to server]	[Remarks:Successful connection to server: S3]
[Date: 2019-01-18 15:09:03]	[UserID:10/660]	[IP:10.128.12.210]	[Browser:Chrome - 71.0.3578.98]	[Action:GetProgramList 10/660]	[Remarks:[{"ID":"1","ProgramIndex":"GST","ProgramName":"GST"}]]
[Date: 2019-01-18 15:09:03]	[UserID:10/660]	[IP:10.128.12.210]	[Browser:Chrome - 71.0.3578.98]	[Action:Making connection to server]	[Remarks:Successful connection to server: S3]
[Date: 2019-01-18 15:09:03]	[UserID:10/660]	[IP:10.128.12.210]	[Browser:Chrome - 71.0.3578.98]	[Action:GetProgramList 10/660]	[Remarks:[{"ID":"1","ProgramIndex":"GST","ProgramName":"GST"}]]
[Date: 2019-01-18 15:09:03]	[UserID:10/660]	[IP:10.128.12.210]	[Browser:Chrome - 71.0.3578.98]	[Action:Making connection to server]	[Remarks:Successful connection to server: S3]
[Date: 2019-01-18 15:09:03]	[UserID:10/660]	[IP:10.128.12.210]	[Browser:Chrome - 71.0.3578.98]	[Action:Filtering User : MasterData Username : 10/660]	[Remarks:Successful filter row count: 1]
[Date: 2019-01-18 15:09:03]	[UserID:10/660]	[IP:10.128.12.210]	[Browser:Chrome - 71.0.3578.98]	[Action:Making connection to server]	[Remarks:Successful connection to server: S3]
[Date: 2019-01-18 15:09:03]	[UserID:10/660]	[IP:10.128.12.210]	[Browser:Chrome - 71.0.3578.98]	[Action:GetGSTModules 10/660,1]	[Remarks:Successful filter row count: 5]
[Date: 2019-01-18 15:09:03]	[UserID:10/660]	[IP:10.128.12.210]	[Browser:Chrome - 71.0.3578.98]	[Action:Closing mssql connection]	[Remarks:Success]
[Date: 2019-01-18 23:36:36]	[UserID:]	[IP:10.139.5.105]	[Browser:Chrome - 71.0.3578.98]	[Action:Making connection to server]	[Remarks:Successful connection to server: S3]
[Date: 2019-01-18 23:36:36]	[UserID:]	[IP:10.139.5.105]	[Browser:Chrome - 71.0.3578.98]	[Action:GetProgramList ]	[Remarks:"no data"]
