[Date: 2016-04-27 08:13:05]	[UserID:]	[IP:10.10.11.1]	[Browser:Chrome - 50.0.2661.87]	[Action:Making connection to server]	[Remarks:Successful connection to server: S3]
[Date: 2016-04-27 08:13:05]	[UserID:]	[IP:10.10.11.1]	[Browser:Chrome - 50.0.2661.87]	[Action:GetProgramList ]	[Remarks:"no data"]
[Date: 2016-04-27 08:52:27]	[UserID:]	[IP:10.10.11.1]	[Browser:Chrome - 49.0.2623.112]	[Action:Making connection to server]	[Remarks:Successful connection to server: S3]
[Date: 2016-04-27 08:52:27]	[UserID:]	[IP:10.10.11.1]	[Browser:Chrome - 49.0.2623.112]	[Action:GetProgramList ]	[Remarks:"no data"]
[Date: 2016-04-27 08:52:29]	[UserID:08/504]	[IP:10.10.11.1]	[Browser:Chrome - 49.0.2623.112]	[Action:Making connection to server]	[Remarks:Successful connection to server: S3]
[Date: 2016-04-27 08:52:29]	[UserID:08/504]	[IP:10.10.11.1]	[Browser:Chrome - 49.0.2623.112]	[Action:User 08/504]	[Remarks:Success]
[Date: 2016-04-27 08:52:29]	[UserID:08/504]	[IP:10.10.11.1]	[Browser:Chrome - 49.0.2623.112]	[Action:Filtering User : MasterData Username : 08/504]	[Remarks:Successful filter row count: 0]
[Date: 2016-04-27 08:52:29]	[UserID:08/504]	[IP:10.10.11.1]	[Browser:Chrome - 49.0.2623.112]	[Action:Filtering User : MasterData Username : 08/504]	[Remarks:Successful filter row count: 0]
[Date: 2016-04-27 08:52:29]	[UserID:08/504]	[IP:10.10.11.1]	[Browser:Chrome - 49.0.2623.112]	[Action:Filtering User : MasterData Username : 08/504]	[Remarks:Success]
[Date: 2016-04-27 08:52:29]	[UserID:08/504]	[IP:10.10.11.1]	[Browser:Chrome - 49.0.2623.112]	[Action:Closing mssql connection]	[Remarks:Success]
[Date: 2016-04-27 08:52:29]	[UserID:08/504]	[IP:10.10.11.1]	[Browser:Chrome - 49.0.2623.112]	[Action:Making connection to server]	[Remarks:Successful connection to server: S3]
[Date: 2016-04-27 08:52:29]	[UserID:08/504]	[IP:10.10.11.1]	[Browser:Chrome - 49.0.2623.112]	[Action:GetProgramList 08/504]	[Remarks:[{"ID":"1","ProgramIndex":"GST","ProgramName":"GST"}]]
[Date: 2016-04-27 08:52:29]	[UserID:08/504]	[IP:10.10.11.1]	[Browser:Chrome - 49.0.2623.112]	[Action:Making connection to server]	[Remarks:Successful connection to server: S3]
[Date: 2016-04-27 08:52:29]	[UserID:08/504]	[IP:10.10.11.1]	[Browser:Chrome - 49.0.2623.112]	[Action:GetProgramList 08/504]	[Remarks:[{"ID":"1","ProgramIndex":"GST","ProgramName":"GST"}]]
[Date: 2016-04-27 08:52:29]	[UserID:08/504]	[IP:10.10.11.1]	[Browser:Chrome - 49.0.2623.112]	[Action:Making connection to server]	[Remarks:Successful connection to server: S3]
[Date: 2016-04-27 08:52:29]	[UserID:08/504]	[IP:10.10.11.1]	[Browser:Chrome - 49.0.2623.112]	[Action:Filtering User : MasterData Username : 08/504]	[Remarks:Successful filter row count: 1]
[Date: 2016-04-27 08:52:30]	[UserID:08/504]	[IP:10.10.11.1]	[Browser:Chrome - 49.0.2623.112]	[Action:Making connection to server]	[Remarks:Successful connection to server: S3]
[Date: 2016-04-27 08:52:30]	[UserID:08/504]	[IP:10.10.11.1]	[Browser:Chrome - 49.0.2623.112]	[Action:GetGSTModules 08/504,1]	[Remarks:Successful filter row count: 5]
[Date: 2016-04-27 08:52:30]	[UserID:08/504]	[IP:10.10.11.1]	[Browser:Chrome - 49.0.2623.112]	[Action:Closing mssql connection]	[Remarks:Success]
[Date: 2016-04-27 08:52:56]	[UserID:08/504]	[IP:10.10.11.1]	[Browser:Chrome - 49.0.2623.112]	[Action:Making connection to server]	[Remarks:Successful connection to server: S3]
[Date: 2016-04-27 08:52:56]	[UserID:08/504]	[IP:10.10.11.1]	[Browser:Chrome - 49.0.2623.112]	[Action:GetGSTModules 08/504,1]	[Remarks:Successful filter row count: 5]
[Date: 2016-04-27 08:52:56]	[UserID:08/504]	[IP:10.10.11.1]	[Browser:Chrome - 49.0.2623.112]	[Action:Closing mssql connection]	[Remarks:Success]
[Date: 2016-04-27 09:35:26]	[UserID:]	[IP:10.10.11.1]	[Browser:Chrome - 50.0.2661.87]	[Action:Making connection to server]	[Remarks:Successful connection to server: S3]
[Date: 2016-04-27 09:35:26]	[UserID:]	[IP:10.10.11.1]	[Browser:Chrome - 50.0.2661.87]	[Action:GetProgramList ]	[Remarks:"no data"]
[Date: 2016-04-27 09:36:05]	[UserID:10/660]	[IP:10.10.11.1]	[Browser:Chrome - 50.0.2661.87]	[Action:Making connection to server]	[Remarks:Successful connection to server: S3]
[Date: 2016-04-27 09:36:05]	[UserID:10/660]	[IP:10.10.11.1]	[Browser:Chrome - 50.0.2661.87]	[Action:User 10/660]	[Remarks:Success]
[Date: 2016-04-27 09:36:06]	[UserID:10/660]	[IP:10.10.11.1]	[Browser:Chrome - 50.0.2661.87]	[Action:Filtering User : MasterData Username : 10/660]	[Remarks:Successful filter row count: 0]
[Date: 2016-04-27 09:36:06]	[UserID:10/660]	[IP:10.10.11.1]	[Browser:Chrome - 50.0.2661.87]	[Action:Filtering User : MasterData Username : 10/660]	[Remarks:Successful filter row count: 0]
[Date: 2016-04-27 09:36:06]	[UserID:10/660]	[IP:10.10.11.1]	[Browser:Chrome - 50.0.2661.87]	[Action:Filtering User : MasterData Username : 10/660]	[Remarks:Success]
[Date: 2016-04-27 09:36:06]	[UserID:10/660]	[IP:10.10.11.1]	[Browser:Chrome - 50.0.2661.87]	[Action:Closing mssql connection]	[Remarks:Success]
[Date: 2016-04-27 09:36:06]	[UserID:10/660]	[IP:10.10.11.1]	[Browser:Chrome - 50.0.2661.87]	[Action:Making connection to server]	[Remarks:Successful connection to server: S3]
[Date: 2016-04-27 09:36:06]	[UserID:10/660]	[IP:10.10.11.1]	[Browser:Chrome - 50.0.2661.87]	[Action:GetProgramList 10/660]	[Remarks:[{"ID":"1","ProgramIndex":"GST","ProgramName":"GST"}]]
[Date: 2016-04-27 09:36:06]	[UserID:10/660]	[IP:10.10.11.1]	[Browser:Chrome - 50.0.2661.87]	[Action:Making connection to server]	[Remarks:Successful connection to server: S3]
[Date: 2016-04-27 09:36:06]	[UserID:10/660]	[IP:10.10.11.1]	[Browser:Chrome - 50.0.2661.87]	[Action:GetProgramList 10/660]	[Remarks:[{"ID":"1","ProgramIndex":"GST","ProgramName":"GST"}]]
[Date: 2016-04-27 09:36:06]	[UserID:10/660]	[IP:10.10.11.1]	[Browser:Chrome - 50.0.2661.87]	[Action:Making connection to server]	[Remarks:Successful connection to server: S3]
[Date: 2016-04-27 09:36:06]	[UserID:10/660]	[IP:10.10.11.1]	[Browser:Chrome - 50.0.2661.87]	[Action:Filtering User : MasterData Username : 10/660]	[Remarks:Successful filter row count: 1]
[Date: 2016-04-27 09:36:06]	[UserID:10/660]	[IP:10.10.11.1]	[Browser:Chrome - 50.0.2661.87]	[Action:Making connection to server]	[Remarks:Successful connection to server: S3]
[Date: 2016-04-27 09:36:07]	[UserID:10/660]	[IP:10.10.11.1]	[Browser:Chrome - 50.0.2661.87]	[Action:GetGSTModules 10/660,1]	[Remarks:Successful filter row count: 3]
[Date: 2016-04-27 09:36:07]	[UserID:10/660]	[IP:10.10.11.1]	[Browser:Chrome - 50.0.2661.87]	[Action:Closing mssql connection]	[Remarks:Success]
[Date: 2016-04-27 09:40:06]	[UserID:10/660]	[IP:10.10.11.1]	[Browser:Chrome - 50.0.2661.87]	[Action:Making connection to server]	[Remarks:Successful connection to server: S3]
[Date: 2016-04-27 09:40:07]	[UserID:10/660]	[IP:10.10.11.1]	[Browser:Chrome - 50.0.2661.87]	[Action:GetGSTModules 10/660,1]	[Remarks:Successful filter row count: 3]
[Date: 2016-04-27 09:40:07]	[UserID:10/660]	[IP:10.10.11.1]	[Browser:Chrome - 50.0.2661.87]	[Action:Closing mssql connection]	[Remarks:Success]
[Date: 2016-04-27 09:40:44]	[UserID:]	[IP:10.10.11.1]	[Browser:Chrome - 50.0.2661.87]	[Action:Making connection to server]	[Remarks:Successful connection to server: S3]
[Date: 2016-04-27 09:40:44]	[UserID:]	[IP:10.10.11.1]	[Browser:Chrome - 50.0.2661.87]	[Action:GetProgramList ]	[Remarks:"no data"]
[Date: 2016-04-27 13:38:02]	[UserID:08/504]	[IP:10.10.11.1]	[Browser:Chrome - 49.0.2623.112]	[Action:Making connection to server]	[Remarks:Successful connection to server: S3]
[Date: 2016-04-27 13:38:02]	[UserID:08/504]	[IP:10.10.11.1]	[Browser:Chrome - 49.0.2623.112]	[Action:GetGSTModules 08/504,1]	[Remarks:Successful filter row count: 5]
[Date: 2016-04-27 13:38:02]	[UserID:08/504]	[IP:10.10.11.1]	[Browser:Chrome - 49.0.2623.112]	[Action:Closing mssql connection]	[Remarks:Success]
[Date: 2016-04-27 13:40:02]	[UserID:08/504]	[IP:10.10.11.1]	[Browser:Chrome - 49.0.2623.112]	[Action:Making connection to server]	[Remarks:Successful connection to server: S3]
[Date: 2016-04-27 13:40:02]	[UserID:08/504]	[IP:10.10.11.1]	[Browser:Chrome - 49.0.2623.112]	[Action:GetGSTModules 08/504,1]	[Remarks:Successful filter row count: 5]
[Date: 2016-04-27 13:40:02]	[UserID:08/504]	[IP:10.10.11.1]	[Browser:Chrome - 49.0.2623.112]	[Action:Closing mssql connection]	[Remarks:Success]
[Date: 2016-04-27 13:44:24]	[UserID:08/504]	[IP:10.10.11.1]	[Browser:Chrome - 49.0.2623.112]	[Action:Making connection to server]	[Remarks:Successful connection to server: S3]
[Date: 2016-04-27 13:44:24]	[UserID:08/504]	[IP:10.10.11.1]	[Browser:Chrome - 49.0.2623.112]	[Action:GetGSTModules 08/504,1]	[Remarks:Successful filter row count: 5]
[Date: 2016-04-27 13:44:24]	[UserID:08/504]	[IP:10.10.11.1]	[Browser:Chrome - 49.0.2623.112]	[Action:Closing mssql connection]	[Remarks:Success]
[Date: 2016-04-27 13:46:49]	[UserID:08/504]	[IP:10.10.11.1]	[Browser:Chrome - 49.0.2623.112]	[Action:Making connection to server]	[Remarks:Successful connection to server: S3]
[Date: 2016-04-27 13:46:49]	[UserID:08/504]	[IP:10.10.11.1]	[Browser:Chrome - 49.0.2623.112]	[Action:GetGSTModules 08/504,1]	[Remarks:Successful filter row count: 5]
[Date: 2016-04-27 13:46:49]	[UserID:08/504]	[IP:10.10.11.1]	[Browser:Chrome - 49.0.2623.112]	[Action:Closing mssql connection]	[Remarks:Success]
[Date: 2016-04-27 13:52:04]	[UserID:08/504]	[IP:10.10.11.1]	[Browser:Chrome - 49.0.2623.112]	[Action:Making connection to server]	[Remarks:Successful connection to server: S3]
[Date: 2016-04-27 13:52:04]	[UserID:08/504]	[IP:10.10.11.1]	[Browser:Chrome - 49.0.2623.112]	[Action:GetGSTModules 08/504,1]	[Remarks:Successful filter row count: 5]
[Date: 2016-04-27 13:52:04]	[UserID:08/504]	[IP:10.10.11.1]	[Browser:Chrome - 49.0.2623.112]	[Action:Closing mssql connection]	[Remarks:Success]
[Date: 2016-04-27 13:53:28]	[UserID:08/504]	[IP:10.10.11.1]	[Browser:Chrome - 49.0.2623.112]	[Action:Making connection to server]	[Remarks:Successful connection to server: S3]
[Date: 2016-04-27 13:53:29]	[UserID:08/504]	[IP:10.10.11.1]	[Browser:Chrome - 49.0.2623.112]	[Action:GetGSTModules 08/504,1]	[Remarks:Successful filter row count: 5]
[Date: 2016-04-27 13:53:29]	[UserID:08/504]	[IP:10.10.11.1]	[Browser:Chrome - 49.0.2623.112]	[Action:Closing mssql connection]	[Remarks:Success]
[Date: 2016-04-27 13:53:50]	[UserID:]	[IP:10.10.11.1]	[Browser:Chrome - 49.0.2623.112]	[Action:Making connection to server]	[Remarks:Successful connection to server: S3]
[Date: 2016-04-27 13:53:50]	[UserID:]	[IP:10.10.11.1]	[Browser:Chrome - 49.0.2623.112]	[Action:GetProgramList ]	[Remarks:"no data"]
[Date: 2016-04-27 13:53:53]	[UserID:08/504]	[IP:10.10.11.1]	[Browser:Chrome - 49.0.2623.112]	[Action:Making connection to server]	[Remarks:Successful connection to server: S3]
[Date: 2016-04-27 13:53:53]	[UserID:08/504]	[IP:10.10.11.1]	[Browser:Chrome - 49.0.2623.112]	[Action:User 08/504]	[Remarks:Success]
[Date: 2016-04-27 13:53:53]	[UserID:08/504]	[IP:10.10.11.1]	[Browser:Chrome - 49.0.2623.112]	[Action:Filtering User : MasterData Username : 08/504]	[Remarks:Successful filter row count: 0]
[Date: 2016-04-27 13:53:53]	[UserID:08/504]	[IP:10.10.11.1]	[Browser:Chrome - 49.0.2623.112]	[Action:Filtering User : MasterData Username : 08/504]	[Remarks:Successful filter row count: 0]
[Date: 2016-04-27 13:53:53]	[UserID:08/504]	[IP:10.10.11.1]	[Browser:Chrome - 49.0.2623.112]	[Action:Filtering User : MasterData Username : 08/504]	[Remarks:Success]
[Date: 2016-04-27 13:53:53]	[UserID:08/504]	[IP:10.10.11.1]	[Browser:Chrome - 49.0.2623.112]	[Action:Closing mssql connection]	[Remarks:Success]
[Date: 2016-04-27 13:53:53]	[UserID:08/504]	[IP:10.10.11.1]	[Browser:Chrome - 49.0.2623.112]	[Action:Making connection to server]	[Remarks:Successful connection to server: S3]
[Date: 2016-04-27 13:53:53]	[UserID:08/504]	[IP:10.10.11.1]	[Browser:Chrome - 49.0.2623.112]	[Action:GetProgramList 08/504]	[Remarks:[{"ID":"1","ProgramIndex":"GST","ProgramName":"GST"}]]
[Date: 2016-04-27 13:53:53]	[UserID:08/504]	[IP:10.10.11.1]	[Browser:Chrome - 49.0.2623.112]	[Action:Making connection to server]	[Remarks:Successful connection to server: S3]
[Date: 2016-04-27 13:53:53]	[UserID:08/504]	[IP:10.10.11.1]	[Browser:Chrome - 49.0.2623.112]	[Action:GetProgramList 08/504]	[Remarks:[{"ID":"1","ProgramIndex":"GST","ProgramName":"GST"}]]
[Date: 2016-04-27 13:53:53]	[UserID:08/504]	[IP:10.10.11.1]	[Browser:Chrome - 49.0.2623.112]	[Action:Making connection to server]	[Remarks:Successful connection to server: S3]
[Date: 2016-04-27 13:53:53]	[UserID:08/504]	[IP:10.10.11.1]	[Browser:Chrome - 49.0.2623.112]	[Action:Filtering User : MasterData Username : 08/504]	[Remarks:Successful filter row count: 1]
[Date: 2016-04-27 13:53:54]	[UserID:08/504]	[IP:10.10.11.1]	[Browser:Chrome - 49.0.2623.112]	[Action:Making connection to server]	[Remarks:Successful connection to server: S3]
[Date: 2016-04-27 13:53:54]	[UserID:08/504]	[IP:10.10.11.1]	[Browser:Chrome - 49.0.2623.112]	[Action:GetGSTModules 08/504,1]	[Remarks:Successful filter row count: 5]
[Date: 2016-04-27 13:53:54]	[UserID:08/504]	[IP:10.10.11.1]	[Browser:Chrome - 49.0.2623.112]	[Action:Closing mssql connection]	[Remarks:Success]
[Date: 2016-04-27 13:55:28]	[UserID:]	[IP:10.10.11.1]	[Browser:Chrome - 49.0.2623.112]	[Action:Making connection to server]	[Remarks:Successful connection to server: S3]
[Date: 2016-04-27 13:55:28]	[UserID:]	[IP:10.10.11.1]	[Browser:Chrome - 49.0.2623.112]	[Action:GetProgramList ]	[Remarks:"no data"]
[Date: 2016-04-27 14:45:59]	[UserID:]	[IP:10.10.11.1]	[Browser:Chrome - 49.0.2623.112]	[Action:Making connection to server]	[Remarks:Successful connection to server: S3]
[Date: 2016-04-27 14:45:59]	[UserID:]	[IP:10.10.11.1]	[Browser:Chrome - 49.0.2623.112]	[Action:GetProgramList ]	[Remarks:"no data"]
[Date: 2016-04-27 14:46:17]	[UserID:08/504]	[IP:10.10.11.1]	[Browser:Chrome - 49.0.2623.112]	[Action:Making connection to server]	[Remarks:Successful connection to server: S3]
[Date: 2016-04-27 14:46:17]	[UserID:08/504]	[IP:10.10.11.1]	[Browser:Chrome - 49.0.2623.112]	[Action:User 08/504]	[Remarks:Success]
[Date: 2016-04-27 14:46:17]	[UserID:08/504]	[IP:10.10.11.1]	[Browser:Chrome - 49.0.2623.112]	[Action:Filtering User : MasterData Username : 08/504]	[Remarks:Successful filter row count: 0]
[Date: 2016-04-27 14:46:17]	[UserID:08/504]	[IP:10.10.11.1]	[Browser:Chrome - 49.0.2623.112]	[Action:Filtering User : MasterData Username : 08/504]	[Remarks:Successful filter row count: 0]
[Date: 2016-04-27 14:46:17]	[UserID:08/504]	[IP:10.10.11.1]	[Browser:Chrome - 49.0.2623.112]	[Action:Filtering User : MasterData Username : 08/504]	[Remarks:Success]
[Date: 2016-04-27 14:46:17]	[UserID:08/504]	[IP:10.10.11.1]	[Browser:Chrome - 49.0.2623.112]	[Action:Closing mssql connection]	[Remarks:Success]
[Date: 2016-04-27 14:46:17]	[UserID:08/504]	[IP:10.10.11.1]	[Browser:Chrome - 49.0.2623.112]	[Action:Making connection to server]	[Remarks:Successful connection to server: S3]
[Date: 2016-04-27 14:46:17]	[UserID:08/504]	[IP:10.10.11.1]	[Browser:Chrome - 49.0.2623.112]	[Action:GetProgramList 08/504]	[Remarks:[{"ID":"1","ProgramIndex":"GST","ProgramName":"GST"}]]
[Date: 2016-04-27 14:46:17]	[UserID:08/504]	[IP:10.10.11.1]	[Browser:Chrome - 49.0.2623.112]	[Action:Making connection to server]	[Remarks:Successful connection to server: S3]
[Date: 2016-04-27 14:46:17]	[UserID:08/504]	[IP:10.10.11.1]	[Browser:Chrome - 49.0.2623.112]	[Action:GetProgramList 08/504]	[Remarks:[{"ID":"1","ProgramIndex":"GST","ProgramName":"GST"}]]
[Date: 2016-04-27 14:46:17]	[UserID:08/504]	[IP:10.10.11.1]	[Browser:Chrome - 49.0.2623.112]	[Action:Making connection to server]	[Remarks:Successful connection to server: S3]
[Date: 2016-04-27 14:46:17]	[UserID:08/504]	[IP:10.10.11.1]	[Browser:Chrome - 49.0.2623.112]	[Action:Filtering User : MasterData Username : 08/504]	[Remarks:Successful filter row count: 1]
[Date: 2016-04-27 14:46:17]	[UserID:08/504]	[IP:10.10.11.1]	[Browser:Chrome - 49.0.2623.112]	[Action:Making connection to server]	[Remarks:Successful connection to server: S3]
[Date: 2016-04-27 14:46:19]	[UserID:08/504]	[IP:10.10.11.1]	[Browser:Chrome - 49.0.2623.112]	[Action:GetGSTModules 08/504,1]	[Remarks:Successful filter row count: 5]
[Date: 2016-04-27 14:46:19]	[UserID:08/504]	[IP:10.10.11.1]	[Browser:Chrome - 49.0.2623.112]	[Action:Closing mssql connection]	[Remarks:Success]
[Date: 2016-04-27 14:59:35]	[UserID:08/504]	[IP:10.10.11.1]	[Browser:Chrome - 49.0.2623.112]	[Action:Making connection to server]	[Remarks:Successful connection to server: S3]
[Date: 2016-04-27 14:59:35]	[UserID:08/504]	[IP:10.10.11.1]	[Browser:Chrome - 49.0.2623.112]	[Action:GetGSTModules 08/504,1]	[Remarks:Successful filter row count: 5]
[Date: 2016-04-27 14:59:35]	[UserID:08/504]	[IP:10.10.11.1]	[Browser:Chrome - 49.0.2623.112]	[Action:Closing mssql connection]	[Remarks:Success]
[Date: 2016-04-27 16:33:46]	[UserID:]	[IP:10.10.11.1]	[Browser:Chrome - 49.0.2623.112]	[Action:Making connection to server]	[Remarks:Successful connection to server: S3]
[Date: 2016-04-27 16:33:46]	[UserID:]	[IP:10.10.11.1]	[Browser:Chrome - 49.0.2623.112]	[Action:GetProgramList ]	[Remarks:"no data"]
[Date: 2016-04-27 16:33:50]	[UserID:]	[IP:10.10.11.1]	[Browser:Chrome - 49.0.2623.112]	[Action:Making connection to server]	[Remarks:Successful connection to server: S3]
[Date: 2016-04-27 16:33:50]	[UserID:]	[IP:10.10.11.1]	[Browser:Chrome - 49.0.2623.112]	[Action:GetProgramList ]	[Remarks:"no data"]
[Date: 2016-04-27 16:35:55]	[UserID:15/1125]	[IP:10.10.11.1]	[Browser:Chrome - 49.0.2623.112]	[Action:Making connection to server]	[Remarks:Successful connection to server: S3]
[Date: 2016-04-27 16:35:55]	[UserID:15/1125]	[IP:10.10.11.1]	[Browser:Chrome - 49.0.2623.112]	[Action:User 15/1125]	[Remarks:Success]
[Date: 2016-04-27 16:35:55]	[UserID:15/1125]	[IP:10.10.11.1]	[Browser:Chrome - 49.0.2623.112]	[Action:Filtering User : MasterData Username : 15/1125]	[Remarks:Successful filter row count: 0]
[Date: 2016-04-27 16:35:55]	[UserID:15/1125]	[IP:10.10.11.1]	[Browser:Chrome - 49.0.2623.112]	[Action:Filtering User : MasterData Username : 15/1125]	[Remarks:Successful filter row count: 0]
[Date: 2016-04-27 16:35:55]	[UserID:15/1125]	[IP:10.10.11.1]	[Browser:Chrome - 49.0.2623.112]	[Action:Filtering User : MasterData Username : 15/1125]	[Remarks:Success]
[Date: 2016-04-27 16:35:55]	[UserID:15/1125]	[IP:10.10.11.1]	[Browser:Chrome - 49.0.2623.112]	[Action:Closing mssql connection]	[Remarks:Success]
[Date: 2016-04-27 16:35:55]	[UserID:15/1125]	[IP:10.10.11.1]	[Browser:Chrome - 49.0.2623.112]	[Action:Making connection to server]	[Remarks:Successful connection to server: S3]
[Date: 2016-04-27 16:35:55]	[UserID:15/1125]	[IP:10.10.11.1]	[Browser:Chrome - 49.0.2623.112]	[Action:GetProgramList 15/1125]	[Remarks:[{"ID":"1","ProgramIndex":"GST","ProgramName":"GST"}]]
[Date: 2016-04-27 16:35:55]	[UserID:15/1125]	[IP:10.10.11.1]	[Browser:Chrome - 49.0.2623.112]	[Action:Making connection to server]	[Remarks:Successful connection to server: S3]
[Date: 2016-04-27 16:35:55]	[UserID:15/1125]	[IP:10.10.11.1]	[Browser:Chrome - 49.0.2623.112]	[Action:GetProgramList 15/1125]	[Remarks:[{"ID":"1","ProgramIndex":"GST","ProgramName":"GST"}]]
[Date: 2016-04-27 16:35:55]	[UserID:15/1125]	[IP:10.10.11.1]	[Browser:Chrome - 49.0.2623.112]	[Action:Making connection to server]	[Remarks:Successful connection to server: S3]
[Date: 2016-04-27 16:35:55]	[UserID:15/1125]	[IP:10.10.11.1]	[Browser:Chrome - 49.0.2623.112]	[Action:Filtering User : MasterData Username : 15/1125]	[Remarks:Successful filter row count: 1]
[Date: 2016-04-27 16:35:56]	[UserID:15/1125]	[IP:10.10.11.1]	[Browser:Chrome - 49.0.2623.112]	[Action:Making connection to server]	[Remarks:Successful connection to server: S3]
[Date: 2016-04-27 16:35:56]	[UserID:15/1125]	[IP:10.10.11.1]	[Browser:Chrome - 49.0.2623.112]	[Action:GetGSTModules 15/1125,1]	[Remarks:Successful filter row count: 6]
[Date: 2016-04-27 16:35:56]	[UserID:15/1125]	[IP:10.10.11.1]	[Browser:Chrome - 49.0.2623.112]	[Action:Closing mssql connection]	[Remarks:Success]
[Date: 2016-04-27 16:35:57]	[UserID:15/1125]	[IP:10.10.11.1]	[Browser:Chrome - 49.0.2623.112]	[Action:Making connection to server]	[Remarks:Successful connection to server: S3]
[Date: 2016-04-27 16:35:57]	[UserID:15/1125]	[IP:10.10.11.1]	[Browser:Chrome - 49.0.2623.112]	[Action:User 15/1125]	[Remarks:Success]
[Date: 2016-04-27 16:35:57]	[UserID:15/1125]	[IP:10.10.11.1]	[Browser:Chrome - 49.0.2623.112]	[Action:Filtering User : MasterData Username : 15/1125]	[Remarks:Successful filter row count: 0]
[Date: 2016-04-27 16:35:57]	[UserID:15/1125]	[IP:10.10.11.1]	[Browser:Chrome - 49.0.2623.112]	[Action:Filtering User : MasterData Username : 15/1125]	[Remarks:Successful filter row count: 0]
[Date: 2016-04-27 16:35:57]	[UserID:15/1125]	[IP:10.10.11.1]	[Browser:Chrome - 49.0.2623.112]	[Action:Filtering User : MasterData Username : 15/1125]	[Remarks:Success]
[Date: 2016-04-27 16:35:57]	[UserID:15/1125]	[IP:10.10.11.1]	[Browser:Chrome - 49.0.2623.112]	[Action:Closing mssql connection]	[Remarks:Success]
[Date: 2016-04-27 16:35:57]	[UserID:15/1125]	[IP:10.10.11.1]	[Browser:Chrome - 49.0.2623.112]	[Action:Making connection to server]	[Remarks:Successful connection to server: S3]
[Date: 2016-04-27 16:35:57]	[UserID:15/1125]	[IP:10.10.11.1]	[Browser:Chrome - 49.0.2623.112]	[Action:GetProgramList 15/1125]	[Remarks:[{"ID":"1","ProgramIndex":"GST","ProgramName":"GST"}]]
[Date: 2016-04-27 16:35:57]	[UserID:15/1125]	[IP:10.10.11.1]	[Browser:Chrome - 49.0.2623.112]	[Action:Making connection to server]	[Remarks:Successful connection to server: S3]
[Date: 2016-04-27 16:35:57]	[UserID:15/1125]	[IP:10.10.11.1]	[Browser:Chrome - 49.0.2623.112]	[Action:GetProgramList 15/1125]	[Remarks:[{"ID":"1","ProgramIndex":"GST","ProgramName":"GST"}]]
[Date: 2016-04-27 16:35:57]	[UserID:15/1125]	[IP:10.10.11.1]	[Browser:Chrome - 49.0.2623.112]	[Action:Making connection to server]	[Remarks:Successful connection to server: S3]
[Date: 2016-04-27 16:35:57]	[UserID:15/1125]	[IP:10.10.11.1]	[Browser:Chrome - 49.0.2623.112]	[Action:Filtering User : MasterData Username : 15/1125]	[Remarks:Successful filter row count: 1]
[Date: 2016-04-27 16:35:57]	[UserID:15/1125]	[IP:10.10.11.1]	[Browser:Chrome - 49.0.2623.112]	[Action:Making connection to server]	[Remarks:Successful connection to server: S3]
[Date: 2016-04-27 16:35:57]	[UserID:15/1125]	[IP:10.10.11.1]	[Browser:Chrome - 49.0.2623.112]	[Action:GetGSTModules 15/1125,1]	[Remarks:Successful filter row count: 6]
[Date: 2016-04-27 16:35:57]	[UserID:15/1125]	[IP:10.10.11.1]	[Browser:Chrome - 49.0.2623.112]	[Action:Closing mssql connection]	[Remarks:Success]
[Date: 2016-04-27 17:09:36]	[UserID:15/1125]	[IP:10.10.11.1]	[Browser:Chrome - 49.0.2623.112]	[Action:Making connection to server]	[Remarks:Successful connection to server: S3]
[Date: 2016-04-27 17:09:36]	[UserID:15/1125]	[IP:10.10.11.1]	[Browser:Chrome - 49.0.2623.112]	[Action:GetGSTModules 15/1125,1]	[Remarks:Successful filter row count: 6]
[Date: 2016-04-27 17:09:36]	[UserID:15/1125]	[IP:10.10.11.1]	[Browser:Chrome - 49.0.2623.112]	[Action:Closing mssql connection]	[Remarks:Success]
[Date: 2016-04-27 17:17:10]	[UserID:15/1125]	[IP:10.10.11.1]	[Browser:Chrome - 49.0.2623.112]	[Action:Making connection to server]	[Remarks:Successful connection to server: S3]
[Date: 2016-04-27 17:17:12]	[UserID:15/1125]	[IP:10.10.11.1]	[Browser:Chrome - 49.0.2623.112]	[Action:GetProgramList 15/1125]	[Remarks:[{"ID":"1","ProgramIndex":"GST","ProgramName":"GST"}]]
[Date: 2016-04-27 17:17:12]	[UserID:15/1125]	[IP:10.10.11.1]	[Browser:Chrome - 49.0.2623.112]	[Action:Making connection to server]	[Remarks:Successful connection to server: S3]
[Date: 2016-04-27 17:17:12]	[UserID:15/1125]	[IP:10.10.11.1]	[Browser:Chrome - 49.0.2623.112]	[Action:GetProgramList 15/1125]	[Remarks:[{"ID":"1","ProgramIndex":"GST","ProgramName":"GST"}]]
[Date: 2016-04-27 17:17:12]	[UserID:15/1125]	[IP:10.10.11.1]	[Browser:Chrome - 49.0.2623.112]	[Action:Making connection to server]	[Remarks:Successful connection to server: S3]
[Date: 2016-04-27 17:17:12]	[UserID:15/1125]	[IP:10.10.11.1]	[Browser:Chrome - 49.0.2623.112]	[Action:Filtering User : MasterData Username : 15/1125]	[Remarks:Successful filter row count: 1]
[Date: 2016-04-27 17:17:14]	[UserID:15/1125]	[IP:10.10.11.1]	[Browser:Chrome - 49.0.2623.112]	[Action:Making connection to server]	[Remarks:Successful connection to server: S3]
[Date: 2016-04-27 17:17:16]	[UserID:15/1125]	[IP:10.10.11.1]	[Browser:Chrome - 49.0.2623.112]	[Action:GetGSTModules 15/1125,1]	[Remarks:Successful filter row count: 6]
[Date: 2016-04-27 17:17:16]	[UserID:15/1125]	[IP:10.10.11.1]	[Browser:Chrome - 49.0.2623.112]	[Action:Closing mssql connection]	[Remarks:Success]
[Date: 2016-04-27 17:20:31]	[UserID:15/1125]	[IP:10.10.11.1]	[Browser:Chrome - 49.0.2623.112]	[Action:Making connection to server]	[Remarks:Successful connection to server: S3]
[Date: 2016-04-27 17:20:31]	[UserID:15/1125]	[IP:10.10.11.1]	[Browser:Chrome - 49.0.2623.112]	[Action:GetProgramList 15/1125]	[Remarks:[{"ID":"1","ProgramIndex":"GST","ProgramName":"GST"}]]
[Date: 2016-04-27 17:20:31]	[UserID:15/1125]	[IP:10.10.11.1]	[Browser:Chrome - 49.0.2623.112]	[Action:Making connection to server]	[Remarks:Successful connection to server: S3]
[Date: 2016-04-27 17:20:31]	[UserID:15/1125]	[IP:10.10.11.1]	[Browser:Chrome - 49.0.2623.112]	[Action:GetProgramList 15/1125]	[Remarks:[{"ID":"1","ProgramIndex":"GST","ProgramName":"GST"}]]
[Date: 2016-04-27 17:20:31]	[UserID:15/1125]	[IP:10.10.11.1]	[Browser:Chrome - 49.0.2623.112]	[Action:Making connection to server]	[Remarks:Successful connection to server: S3]
[Date: 2016-04-27 17:20:31]	[UserID:15/1125]	[IP:10.10.11.1]	[Browser:Chrome - 49.0.2623.112]	[Action:Filtering User : MasterData Username : 15/1125]	[Remarks:Successful filter row count: 1]
[Date: 2016-04-27 17:20:31]	[UserID:15/1125]	[IP:10.10.11.1]	[Browser:Chrome - 49.0.2623.112]	[Action:Making connection to server]	[Remarks:Successful connection to server: S3]
[Date: 2016-04-27 17:20:31]	[UserID:15/1125]	[IP:10.10.11.1]	[Browser:Chrome - 49.0.2623.112]	[Action:GetGSTModules 15/1125,1]	[Remarks:Successful filter row count: 6]
[Date: 2016-04-27 17:20:31]	[UserID:15/1125]	[IP:10.10.11.1]	[Browser:Chrome - 49.0.2623.112]	[Action:Closing mssql connection]	[Remarks:Success]
[Date: 2016-04-27 17:53:10]	[UserID:15/1125]	[IP:10.10.11.1]	[Browser:Chrome - 49.0.2623.112]	[Action:Making connection to server]	[Remarks:Successful connection to server: S3]
[Date: 2016-04-27 17:53:10]	[UserID:15/1125]	[IP:10.10.11.1]	[Browser:Chrome - 49.0.2623.112]	[Action:GetGSTModules 15/1125,1]	[Remarks:Successful filter row count: 6]
[Date: 2016-04-27 17:53:10]	[UserID:15/1125]	[IP:10.10.11.1]	[Browser:Chrome - 49.0.2623.112]	[Action:Closing mssql connection]	[Remarks:Success]
[Date: 2016-04-27 17:57:47]	[UserID:15/1125]	[IP:10.10.11.1]	[Browser:Chrome - 49.0.2623.112]	[Action:Making connection to server]	[Remarks:Successful connection to server: S3]
[Date: 2016-04-27 17:57:47]	[UserID:15/1125]	[IP:10.10.11.1]	[Browser:Chrome - 49.0.2623.112]	[Action:GetGSTModules 15/1125,1]	[Remarks:Successful filter row count: 6]
[Date: 2016-04-27 17:57:47]	[UserID:15/1125]	[IP:10.10.11.1]	[Browser:Chrome - 49.0.2623.112]	[Action:Closing mssql connection]	[Remarks:Success]
[Date: 2016-04-27 17:57:57]	[UserID:15/1125]	[IP:10.10.11.1]	[Browser:Chrome - 49.0.2623.112]	[Action:Making connection to server]	[Remarks:Successful connection to server: S3]
[Date: 2016-04-27 17:57:57]	[UserID:15/1125]	[IP:10.10.11.1]	[Browser:Chrome - 49.0.2623.112]	[Action:GetGSTModules 15/1125,1]	[Remarks:Successful filter row count: 6]
[Date: 2016-04-27 17:57:57]	[UserID:15/1125]	[IP:10.10.11.1]	[Browser:Chrome - 49.0.2623.112]	[Action:Closing mssql connection]	[Remarks:Success]
[Date: 2016-04-27 18:01:24]	[UserID:15/1125]	[IP:10.10.11.1]	[Browser:Chrome - 49.0.2623.112]	[Action:Making connection to server]	[Remarks:Successful connection to server: S3]
[Date: 2016-04-27 18:01:24]	[UserID:15/1125]	[IP:10.10.11.1]	[Browser:Chrome - 49.0.2623.112]	[Action:GetGSTModules 15/1125,1]	[Remarks:Successful filter row count: 6]
[Date: 2016-04-27 18:01:24]	[UserID:15/1125]	[IP:10.10.11.1]	[Browser:Chrome - 49.0.2623.112]	[Action:Closing mssql connection]	[Remarks:Success]
[Date: 2016-04-27 18:01:45]	[UserID:]	[IP:10.10.11.1]	[Browser:Chrome - 49.0.2623.112]	[Action:Making connection to server]	[Remarks:Successful connection to server: S3]
[Date: 2016-04-27 18:01:45]	[UserID:]	[IP:10.10.11.1]	[Browser:Chrome - 49.0.2623.112]	[Action:GetProgramList ]	[Remarks:"no data"]
[Date: 2016-04-27 18:09:25]	[UserID:]	[IP:10.10.11.1]	[Browser:Chrome - 49.0.2623.75]	[Action:Making connection to server]	[Remarks:Successful connection to server: S3]
[Date: 2016-04-27 18:09:25]	[UserID:]	[IP:10.10.11.1]	[Browser:Chrome - 49.0.2623.75]	[Action:GetProgramList ]	[Remarks:"no data"]
[Date: 2016-04-27 19:25:10]	[UserID:]	[IP:10.10.11.1]	[Browser:Chrome - 49.0.2623.112]	[Action:Making connection to server]	[Remarks:Successful connection to server: S3]
[Date: 2016-04-27 19:25:10]	[UserID:]	[IP:10.10.11.1]	[Browser:Chrome - 49.0.2623.112]	[Action:GetProgramList ]	[Remarks:"no data"]
[Date: 2016-04-27 19:25:19]	[UserID:08/504]	[IP:10.10.11.1]	[Browser:Chrome - 49.0.2623.112]	[Action:Making connection to server]	[Remarks:Successful connection to server: S3]
[Date: 2016-04-27 19:25:19]	[UserID:08/504]	[IP:10.10.11.1]	[Browser:Chrome - 49.0.2623.112]	[Action:User 08/504]	[Remarks:Success]
[Date: 2016-04-27 19:25:19]	[UserID:08/504]	[IP:10.10.11.1]	[Browser:Chrome - 49.0.2623.112]	[Action:Filtering User : MasterData Username : 08/504]	[Remarks:Successful filter row count: 0]
[Date: 2016-04-27 19:25:19]	[UserID:08/504]	[IP:10.10.11.1]	[Browser:Chrome - 49.0.2623.112]	[Action:Filtering User : MasterData Username : 08/504]	[Remarks:Successful filter row count: 0]
[Date: 2016-04-27 19:25:19]	[UserID:08/504]	[IP:10.10.11.1]	[Browser:Chrome - 49.0.2623.112]	[Action:Filtering User : MasterData Username : 08/504]	[Remarks:Success]
[Date: 2016-04-27 19:25:19]	[UserID:08/504]	[IP:10.10.11.1]	[Browser:Chrome - 49.0.2623.112]	[Action:Closing mssql connection]	[Remarks:Success]
[Date: 2016-04-27 19:25:19]	[UserID:08/504]	[IP:10.10.11.1]	[Browser:Chrome - 49.0.2623.112]	[Action:Making connection to server]	[Remarks:Successful connection to server: S3]
[Date: 2016-04-27 19:25:19]	[UserID:08/504]	[IP:10.10.11.1]	[Browser:Chrome - 49.0.2623.112]	[Action:GetProgramList 08/504]	[Remarks:[{"ID":"1","ProgramIndex":"GST","ProgramName":"GST"}]]
[Date: 2016-04-27 19:25:19]	[UserID:08/504]	[IP:10.10.11.1]	[Browser:Chrome - 49.0.2623.112]	[Action:Making connection to server]	[Remarks:Successful connection to server: S3]
[Date: 2016-04-27 19:25:19]	[UserID:08/504]	[IP:10.10.11.1]	[Browser:Chrome - 49.0.2623.112]	[Action:GetProgramList 08/504]	[Remarks:[{"ID":"1","ProgramIndex":"GST","ProgramName":"GST"}]]
[Date: 2016-04-27 19:25:19]	[UserID:08/504]	[IP:10.10.11.1]	[Browser:Chrome - 49.0.2623.112]	[Action:Making connection to server]	[Remarks:Successful connection to server: S3]
[Date: 2016-04-27 19:25:19]	[UserID:08/504]	[IP:10.10.11.1]	[Browser:Chrome - 49.0.2623.112]	[Action:Filtering User : MasterData Username : 08/504]	[Remarks:Successful filter row count: 1]
[Date: 2016-04-27 19:25:20]	[UserID:08/504]	[IP:10.10.11.1]	[Browser:Chrome - 49.0.2623.112]	[Action:Making connection to server]	[Remarks:Successful connection to server: S3]
[Date: 2016-04-27 19:25:20]	[UserID:08/504]	[IP:10.10.11.1]	[Browser:Chrome - 49.0.2623.112]	[Action:GetGSTModules 08/504,1]	[Remarks:Successful filter row count: 5]
[Date: 2016-04-27 19:25:20]	[UserID:08/504]	[IP:10.10.11.1]	[Browser:Chrome - 49.0.2623.112]	[Action:Closing mssql connection]	[Remarks:Success]
[Date: 2016-04-27 19:33:55]	[UserID:08/504]	[IP:10.10.11.1]	[Browser:Chrome - 49.0.2623.112]	[Action:Making connection to server]	[Remarks:Successful connection to server: S3]
[Date: 2016-04-27 19:33:55]	[UserID:08/504]	[IP:10.10.11.1]	[Browser:Chrome - 49.0.2623.112]	[Action:GetGSTModules 08/504,1]	[Remarks:Successful filter row count: 5]
[Date: 2016-04-27 19:33:55]	[UserID:08/504]	[IP:10.10.11.1]	[Browser:Chrome - 49.0.2623.112]	[Action:Closing mssql connection]	[Remarks:Success]
[Date: 2016-04-27 19:39:57]	[UserID:08/504]	[IP:10.10.11.1]	[Browser:Chrome - 49.0.2623.112]	[Action:Making connection to server]	[Remarks:Successful connection to server: S3]
[Date: 2016-04-27 19:39:58]	[UserID:08/504]	[IP:10.10.11.1]	[Browser:Chrome - 49.0.2623.112]	[Action:GetGSTModules 08/504,1]	[Remarks:Successful filter row count: 5]
[Date: 2016-04-27 19:39:58]	[UserID:08/504]	[IP:10.10.11.1]	[Browser:Chrome - 49.0.2623.112]	[Action:Closing mssql connection]	[Remarks:Success]
[Date: 2016-04-27 19:41:44]	[UserID:08/504]	[IP:10.10.11.1]	[Browser:Chrome - 49.0.2623.112]	[Action:Making connection to server]	[Remarks:Successful connection to server: S3]
[Date: 2016-04-27 19:41:44]	[UserID:08/504]	[IP:10.10.11.1]	[Browser:Chrome - 49.0.2623.112]	[Action:GetGSTModules 08/504,1]	[Remarks:Successful filter row count: 5]
[Date: 2016-04-27 19:41:44]	[UserID:08/504]	[IP:10.10.11.1]	[Browser:Chrome - 49.0.2623.112]	[Action:Closing mssql connection]	[Remarks:Success]
[Date: 2016-04-27 19:44:24]	[UserID:08/504]	[IP:10.10.11.1]	[Browser:Chrome - 49.0.2623.112]	[Action:Making connection to server]	[Remarks:Successful connection to server: S3]
[Date: 2016-04-27 19:44:24]	[UserID:08/504]	[IP:10.10.11.1]	[Browser:Chrome - 49.0.2623.112]	[Action:GetGSTModules 08/504,1]	[Remarks:Successful filter row count: 5]
[Date: 2016-04-27 19:44:24]	[UserID:08/504]	[IP:10.10.11.1]	[Browser:Chrome - 49.0.2623.112]	[Action:Closing mssql connection]	[Remarks:Success]
