[Date: 2015-09-25 08:55:06]	[UserID:]	[IP:10.10.11.1]	[Browser:Google favicon]	[Action:Making connection to server]	[Remarks:Successful connection to server: S3]
[Date: 2015-09-25 08:55:06]	[UserID:]	[IP:10.10.11.1]	[Browser:Google favicon]	[Action:GetProgramList ]	[Remarks:"no data"]
[Date: 2015-09-25 08:59:37]	[UserID:]	[IP:10.10.11.1]	[Browser:Chrome - 45.0.2454.99]	[Action:Making connection to server]	[Remarks:Successful connection to server: S3]
[Date: 2015-09-25 08:59:37]	[UserID:]	[IP:10.10.11.1]	[Browser:Chrome - 45.0.2454.99]	[Action:GetProgramList ]	[Remarks:"no data"]
[Date: 2015-09-25 08:59:39]	[UserID:10/660]	[IP:10.10.11.1]	[Browser:Chrome - 45.0.2454.99]	[Action:Making connection to server]	[Remarks:Successful connection to server: S3]
[Date: 2015-09-25 08:59:39]	[UserID:10/660]	[IP:10.10.11.1]	[Browser:Chrome - 45.0.2454.99]	[Action:User 10/660]	[Remarks:Success]
[Date: 2015-09-25 08:59:39]	[UserID:10/660]	[IP:10.10.11.1]	[Browser:Chrome - 45.0.2454.99]	[Action:Filtering User : MasterData Username : 10/660]	[Remarks:Successful filter row count: 0]
[Date: 2015-09-25 08:59:39]	[UserID:10/660]	[IP:10.10.11.1]	[Browser:Chrome - 45.0.2454.99]	[Action:Filtering User : MasterData Username : 10/660]	[Remarks:Successful filter row count: 0]
[Date: 2015-09-25 08:59:39]	[UserID:10/660]	[IP:10.10.11.1]	[Browser:Chrome - 45.0.2454.99]	[Action:Filtering User : MasterData Username : 10/660]	[Remarks:Success]
[Date: 2015-09-25 08:59:39]	[UserID:10/660]	[IP:10.10.11.1]	[Browser:Chrome - 45.0.2454.99]	[Action:Closing mssql connection]	[Remarks:Success]
[Date: 2015-09-25 08:59:39]	[UserID:10/660]	[IP:10.10.11.1]	[Browser:Chrome - 45.0.2454.99]	[Action:Making connection to server]	[Remarks:Successful connection to server: S3]
[Date: 2015-09-25 08:59:39]	[UserID:10/660]	[IP:10.10.11.1]	[Browser:Chrome - 45.0.2454.99]	[Action:GetProgramList 10/660]	[Remarks:[{"ID":"1","ProgramIndex":"GST","ProgramName":"GST"}]]
[Date: 2015-09-25 08:59:39]	[UserID:10/660]	[IP:10.10.11.1]	[Browser:Chrome - 45.0.2454.99]	[Action:Making connection to server]	[Remarks:Successful connection to server: S3]
[Date: 2015-09-25 08:59:39]	[UserID:10/660]	[IP:10.10.11.1]	[Browser:Chrome - 45.0.2454.99]	[Action:GetProgramList 10/660]	[Remarks:[{"ID":"1","ProgramIndex":"GST","ProgramName":"GST"}]]
[Date: 2015-09-25 08:59:39]	[UserID:10/660]	[IP:10.10.11.1]	[Browser:Chrome - 45.0.2454.99]	[Action:Making connection to server]	[Remarks:Successful connection to server: S3]
[Date: 2015-09-25 08:59:39]	[UserID:10/660]	[IP:10.10.11.1]	[Browser:Chrome - 45.0.2454.99]	[Action:Filtering User : MasterData Username : 10/660]	[Remarks:Successful filter row count: 1]
[Date: 2015-09-25 08:59:40]	[UserID:10/660]	[IP:10.10.11.1]	[Browser:Chrome - 45.0.2454.99]	[Action:Making connection to server]	[Remarks:Successful connection to server: S3]
[Date: 2015-09-25 08:59:40]	[UserID:10/660]	[IP:10.10.11.1]	[Browser:Chrome - 45.0.2454.99]	[Action:GetGSTModules 10/660,1]	[Remarks:Successful filter row count: 3]
[Date: 2015-09-25 08:59:40]	[UserID:10/660]	[IP:10.10.11.1]	[Browser:Chrome - 45.0.2454.99]	[Action:Closing mssql connection]	[Remarks:Success]
[Date: 2015-09-25 09:02:37]	[UserID:10/660]	[IP:10.10.11.1]	[Browser:Chrome - 45.0.2454.99]	[Action:Making connection to server]	[Remarks:Successful connection to server: S3]
[Date: 2015-09-25 09:02:37]	[UserID:10/660]	[IP:10.10.11.1]	[Browser:Chrome - 45.0.2454.99]	[Action:GetGSTModules 10/660,1]	[Remarks:Successful filter row count: 3]
[Date: 2015-09-25 09:02:37]	[UserID:10/660]	[IP:10.10.11.1]	[Browser:Chrome - 45.0.2454.99]	[Action:Closing mssql connection]	[Remarks:Success]
[Date: 2015-09-25 09:09:52]	[UserID:10/660]	[IP:10.10.11.1]	[Browser:Chrome - 45.0.2454.99]	[Action:Making connection to server]	[Remarks:Successful connection to server: S3]
[Date: 2015-09-25 09:09:53]	[UserID:10/660]	[IP:10.10.11.1]	[Browser:Chrome - 45.0.2454.99]	[Action:GetGSTModules 10/660,1]	[Remarks:Successful filter row count: 3]
[Date: 2015-09-25 09:09:53]	[UserID:10/660]	[IP:10.10.11.1]	[Browser:Chrome - 45.0.2454.99]	[Action:Closing mssql connection]	[Remarks:Success]
[Date: 2015-09-25 09:10:17]	[UserID:]	[IP:10.10.11.1]	[Browser:Chrome - 45.0.2454.99]	[Action:Making connection to server]	[Remarks:Successful connection to server: S3]
[Date: 2015-09-25 09:10:17]	[UserID:]	[IP:10.10.11.1]	[Browser:Chrome - 45.0.2454.99]	[Action:GetProgramList ]	[Remarks:"no data"]
