[Date: 2017-06-27 10:59:20]	[UserID:]	[IP:10.128.12.113]	[Browser:Chrome - 58.0.3029.110]	[Action:Making connection to server]	[Remarks:Successful connection to server: S3]
[Date: 2017-06-27 10:59:21]	[UserID:]	[IP:10.128.12.113]	[Browser:Chrome - 58.0.3029.110]	[Action:GetProgramList ]	[Remarks:"no data"]
[Date: 2017-06-27 10:59:23]	[UserID:06/343]	[IP:10.128.12.113]	[Browser:Chrome - 58.0.3029.110]	[Action:Making connection to server]	[Remarks:Successful connection to server: S3]
[Date: 2017-06-27 10:59:23]	[UserID:06/343]	[IP:10.128.12.113]	[Browser:Chrome - 58.0.3029.110]	[Action:User 06/343]	[Remarks:Success]
[Date: 2017-06-27 10:59:23]	[UserID:06/343]	[IP:10.128.12.113]	[Browser:Chrome - 58.0.3029.110]	[Action:Filtering User : MasterData Username : 06/343]	[Remarks:Successful filter row count: 0]
[Date: 2017-06-27 10:59:23]	[UserID:06/343]	[IP:10.128.12.113]	[Browser:Chrome - 58.0.3029.110]	[Action:Filtering User : MasterData Username : 06/343]	[Remarks:Successful filter row count: 0]
[Date: 2017-06-27 10:59:23]	[UserID:06/343]	[IP:10.128.12.113]	[Browser:Chrome - 58.0.3029.110]	[Action:Filtering User : MasterData Username : 06/343]	[Remarks:Success]
[Date: 2017-06-27 10:59:23]	[UserID:06/343]	[IP:10.128.12.113]	[Browser:Chrome - 58.0.3029.110]	[Action:Closing mssql connection]	[Remarks:Success]
[Date: 2017-06-27 10:59:23]	[UserID:06/343]	[IP:10.128.12.113]	[Browser:Chrome - 58.0.3029.110]	[Action:Making connection to server]	[Remarks:Successful connection to server: S3]
[Date: 2017-06-27 10:59:24]	[UserID:06/343]	[IP:10.128.12.113]	[Browser:Chrome - 58.0.3029.110]	[Action:GetProgramList 06/343]	[Remarks:[{"ID":"1","ProgramIndex":"GST","ProgramName":"GST"}]]
[Date: 2017-06-27 10:59:24]	[UserID:06/343]	[IP:10.128.12.113]	[Browser:Chrome - 58.0.3029.110]	[Action:Making connection to server]	[Remarks:Successful connection to server: S3]
[Date: 2017-06-27 10:59:24]	[UserID:06/343]	[IP:10.128.12.113]	[Browser:Chrome - 58.0.3029.110]	[Action:GetProgramList 06/343]	[Remarks:[{"ID":"1","ProgramIndex":"GST","ProgramName":"GST"}]]
[Date: 2017-06-27 10:59:24]	[UserID:06/343]	[IP:10.128.12.113]	[Browser:Chrome - 58.0.3029.110]	[Action:Making connection to server]	[Remarks:Successful connection to server: S3]
[Date: 2017-06-27 10:59:24]	[UserID:06/343]	[IP:10.128.12.113]	[Browser:Chrome - 58.0.3029.110]	[Action:Filtering User : MasterData Username : 06/343]	[Remarks:Successful filter row count: 1]
[Date: 2017-06-27 10:59:24]	[UserID:06/343]	[IP:10.128.12.113]	[Browser:Chrome - 58.0.3029.110]	[Action:Making connection to server]	[Remarks:Successful connection to server: S3]
[Date: 2017-06-27 10:59:24]	[UserID:06/343]	[IP:10.128.12.113]	[Browser:Chrome - 58.0.3029.110]	[Action:GetGSTModules 06/343,1]	[Remarks:Successful filter row count: 5]
[Date: 2017-06-27 10:59:24]	[UserID:06/343]	[IP:10.128.12.113]	[Browser:Chrome - 58.0.3029.110]	[Action:Closing mssql connection]	[Remarks:Success]
