[Date: 2018-03-23 08:50:36]	[UserID:]	[IP:10.128.12.113]	[Browser:Chrome - 65.0.3325.181]	[Action:Making connection to server]	[Remarks:Successful connection to server: S3]
[Date: 2018-03-23 08:50:36]	[UserID:]	[IP:10.128.12.113]	[Browser:Chrome - 65.0.3325.181]	[Action:GetProgramList ]	[Remarks:"no data"]
[Date: 2018-03-23 08:50:39]	[UserID:06/343]	[IP:10.128.12.113]	[Browser:Chrome - 65.0.3325.181]	[Action:Making connection to server]	[Remarks:Successful connection to server: S3]
[Date: 2018-03-23 08:50:39]	[UserID:06/343]	[IP:10.128.12.113]	[Browser:Chrome - 65.0.3325.181]	[Action:User 06/343]	[Remarks:Success]
[Date: 2018-03-23 08:50:39]	[UserID:06/343]	[IP:10.128.12.113]	[Browser:Chrome - 65.0.3325.181]	[Action:Filtering User : MasterData Username : 06/343]	[Remarks:Successful filter row count: 0]
[Date: 2018-03-23 08:50:39]	[UserID:06/343]	[IP:10.128.12.113]	[Browser:Chrome - 65.0.3325.181]	[Action:Filtering User : MasterData Username : 06/343]	[Remarks:Successful filter row count: 0]
[Date: 2018-03-23 08:50:39]	[UserID:06/343]	[IP:10.128.12.113]	[Browser:Chrome - 65.0.3325.181]	[Action:Filtering User : MasterData Username : 06/343]	[Remarks:Success]
[Date: 2018-03-23 08:50:39]	[UserID:06/343]	[IP:10.128.12.113]	[Browser:Chrome - 65.0.3325.181]	[Action:Closing mssql connection]	[Remarks:Success]
[Date: 2018-03-23 08:50:39]	[UserID:06/343]	[IP:10.128.12.113]	[Browser:Chrome - 65.0.3325.181]	[Action:Making connection to server]	[Remarks:Successful connection to server: S3]
[Date: 2018-03-23 08:50:39]	[UserID:06/343]	[IP:10.128.12.113]	[Browser:Chrome - 65.0.3325.181]	[Action:GetProgramList 06/343]	[Remarks:[{"ID":"1","ProgramIndex":"GST","ProgramName":"GST"}]]
[Date: 2018-03-23 08:50:39]	[UserID:06/343]	[IP:10.128.12.113]	[Browser:Chrome - 65.0.3325.181]	[Action:Making connection to server]	[Remarks:Successful connection to server: S3]
[Date: 2018-03-23 08:50:39]	[UserID:06/343]	[IP:10.128.12.113]	[Browser:Chrome - 65.0.3325.181]	[Action:GetProgramList 06/343]	[Remarks:[{"ID":"1","ProgramIndex":"GST","ProgramName":"GST"}]]
[Date: 2018-03-23 08:50:39]	[UserID:06/343]	[IP:10.128.12.113]	[Browser:Chrome - 65.0.3325.181]	[Action:Making connection to server]	[Remarks:Successful connection to server: S3]
[Date: 2018-03-23 08:50:39]	[UserID:06/343]	[IP:10.128.12.113]	[Browser:Chrome - 65.0.3325.181]	[Action:Filtering User : MasterData Username : 06/343]	[Remarks:Successful filter row count: 1]
[Date: 2018-03-23 08:50:39]	[UserID:06/343]	[IP:10.128.12.113]	[Browser:Chrome - 65.0.3325.181]	[Action:Making connection to server]	[Remarks:Successful connection to server: S3]
[Date: 2018-03-23 08:50:39]	[UserID:06/343]	[IP:10.128.12.113]	[Browser:Chrome - 65.0.3325.181]	[Action:GetGSTModules 06/343,1]	[Remarks:Successful filter row count: 5]
[Date: 2018-03-23 08:50:39]	[UserID:06/343]	[IP:10.128.12.113]	[Browser:Chrome - 65.0.3325.181]	[Action:Closing mssql connection]	[Remarks:Success]
[Date: 2018-03-23 09:22:20]	[UserID:06/343]	[IP:10.128.12.113]	[Browser:Chrome - 65.0.3325.181]	[Action:Making connection to server]	[Remarks:Successful connection to server: S3]
[Date: 2018-03-23 09:22:20]	[UserID:06/343]	[IP:10.128.12.113]	[Browser:Chrome - 65.0.3325.181]	[Action:GetGSTModules 06/343,1]	[Remarks:Successful filter row count: 5]
[Date: 2018-03-23 09:22:20]	[UserID:06/343]	[IP:10.128.12.113]	[Browser:Chrome - 65.0.3325.181]	[Action:Closing mssql connection]	[Remarks:Success]
[Date: 2018-03-23 09:22:23]	[UserID:06/343]	[IP:10.128.12.113]	[Browser:Chrome - 65.0.3325.181]	[Action:Making connection to server]	[Remarks:Successful connection to server: S3]
[Date: 2018-03-23 09:22:23]	[UserID:06/343]	[IP:10.128.12.113]	[Browser:Chrome - 65.0.3325.181]	[Action:GetGSTModules 06/343,1]	[Remarks:Successful filter row count: 5]
[Date: 2018-03-23 09:22:23]	[UserID:06/343]	[IP:10.128.12.113]	[Browser:Chrome - 65.0.3325.181]	[Action:Closing mssql connection]	[Remarks:Success]
[Date: 2018-03-23 10:43:09]	[UserID:]	[IP:10.128.12.210]	[Browser:Chrome - 65.0.3325.181]	[Action:Making connection to server]	[Remarks:Successful connection to server: S3]
[Date: 2018-03-23 10:43:09]	[UserID:]	[IP:10.128.12.210]	[Browser:Chrome - 65.0.3325.181]	[Action:GetProgramList ]	[Remarks:"no data"]
[Date: 2018-03-23 10:43:18]	[UserID:10/660]	[IP:10.128.12.210]	[Browser:Chrome - 65.0.3325.181]	[Action:Making connection to server]	[Remarks:Successful connection to server: S3]
[Date: 2018-03-23 10:43:18]	[UserID:10/660]	[IP:10.128.12.210]	[Browser:Chrome - 65.0.3325.181]	[Action:User 10/660]	[Remarks:Success]
[Date: 2018-03-23 10:43:18]	[UserID:10/660]	[IP:10.128.12.210]	[Browser:Chrome - 65.0.3325.181]	[Action:Filtering User : MasterData Username : 10/660]	[Remarks:Successful filter row count: 0]
[Date: 2018-03-23 10:43:18]	[UserID:10/660]	[IP:10.128.12.210]	[Browser:Chrome - 65.0.3325.181]	[Action:Filtering User : MasterData Username : 10/660]	[Remarks:Successful filter row count: 0]
[Date: 2018-03-23 10:43:18]	[UserID:10/660]	[IP:10.128.12.210]	[Browser:Chrome - 65.0.3325.181]	[Action:Filtering User : MasterData Username : 10/660]	[Remarks:Success]
[Date: 2018-03-23 10:43:18]	[UserID:10/660]	[IP:10.128.12.210]	[Browser:Chrome - 65.0.3325.181]	[Action:Closing mssql connection]	[Remarks:Success]
[Date: 2018-03-23 10:43:18]	[UserID:10/660]	[IP:10.128.12.210]	[Browser:Chrome - 65.0.3325.181]	[Action:Making connection to server]	[Remarks:Successful connection to server: S3]
[Date: 2018-03-23 10:43:18]	[UserID:10/660]	[IP:10.128.12.210]	[Browser:Chrome - 65.0.3325.181]	[Action:GetProgramList 10/660]	[Remarks:[{"ID":"1","ProgramIndex":"GST","ProgramName":"GST"}]]
[Date: 2018-03-23 10:43:18]	[UserID:10/660]	[IP:10.128.12.210]	[Browser:Chrome - 65.0.3325.181]	[Action:Making connection to server]	[Remarks:Successful connection to server: S3]
[Date: 2018-03-23 10:43:18]	[UserID:10/660]	[IP:10.128.12.210]	[Browser:Chrome - 65.0.3325.181]	[Action:GetProgramList 10/660]	[Remarks:[{"ID":"1","ProgramIndex":"GST","ProgramName":"GST"}]]
[Date: 2018-03-23 10:43:18]	[UserID:10/660]	[IP:10.128.12.210]	[Browser:Chrome - 65.0.3325.181]	[Action:Making connection to server]	[Remarks:Successful connection to server: S3]
[Date: 2018-03-23 10:43:18]	[UserID:10/660]	[IP:10.128.12.210]	[Browser:Chrome - 65.0.3325.181]	[Action:Filtering User : MasterData Username : 10/660]	[Remarks:Successful filter row count: 1]
[Date: 2018-03-23 10:43:18]	[UserID:10/660]	[IP:10.128.12.210]	[Browser:Chrome - 65.0.3325.181]	[Action:Making connection to server]	[Remarks:Successful connection to server: S3]
[Date: 2018-03-23 10:43:18]	[UserID:10/660]	[IP:10.128.12.210]	[Browser:Chrome - 65.0.3325.181]	[Action:GetGSTModules 10/660,1]	[Remarks:Successful filter row count: 5]
[Date: 2018-03-23 10:43:18]	[UserID:10/660]	[IP:10.128.12.210]	[Browser:Chrome - 65.0.3325.181]	[Action:Closing mssql connection]	[Remarks:Success]
[Date: 2018-03-23 10:44:01]	[UserID:10/660]	[IP:10.128.12.210]	[Browser:Chrome - 65.0.3325.181]	[Action:Making connection to server]	[Remarks:Successful connection to server: S3]
[Date: 2018-03-23 10:44:01]	[UserID:10/660]	[IP:10.128.12.210]	[Browser:Chrome - 65.0.3325.181]	[Action:GetGSTModules 10/660,1]	[Remarks:Successful filter row count: 5]
[Date: 2018-03-23 10:44:01]	[UserID:10/660]	[IP:10.128.12.210]	[Browser:Chrome - 65.0.3325.181]	[Action:Closing mssql connection]	[Remarks:Success]
[Date: 2018-03-23 10:44:28]	[UserID:]	[IP:10.128.12.210]	[Browser:Chrome - 65.0.3325.181]	[Action:Making connection to server]	[Remarks:Successful connection to server: S3]
[Date: 2018-03-23 10:44:28]	[UserID:]	[IP:10.128.12.210]	[Browser:Chrome - 65.0.3325.181]	[Action:GetProgramList ]	[Remarks:"no data"]
