[Date: 2020-01-07 07:59:40]	[UserID:]	[IP:10.130.25.204]	[Browser:Chrome - 79.0.3945.88]	[Action:Making connection to server]	[Remarks:Successful connection to server: S3]
[Date: 2020-01-07 07:59:40]	[UserID:]	[IP:10.130.25.204]	[Browser:Chrome - 79.0.3945.88]	[Action:GetProgramList ]	[Remarks:"no data"]
[Date: 2020-01-07 08:15:54]	[UserID:]	[IP:10.128.12.113]	[Browser:Chrome - 79.0.3945.88]	[Action:Making connection to server]	[Remarks:Successful connection to server: S3]
[Date: 2020-01-07 08:15:54]	[UserID:]	[IP:10.128.12.113]	[Browser:Chrome - 79.0.3945.88]	[Action:GetProgramList ]	[Remarks:"no data"]
[Date: 2020-01-07 08:16:17]	[UserID:06/343]	[IP:10.128.12.113]	[Browser:Chrome - 79.0.3945.88]	[Action:Making connection to server]	[Remarks:Successful connection to server: S3]
[Date: 2020-01-07 08:16:17]	[UserID:06/343]	[IP:10.128.12.113]	[Browser:Chrome - 79.0.3945.88]	[Action:User 06/343]	[Remarks:Success]
[Date: 2020-01-07 08:16:17]	[UserID:06/343]	[IP:10.128.12.113]	[Browser:Chrome - 79.0.3945.88]	[Action:Filtering User : MasterData Username : 06/343]	[Remarks:Successful filter row count: 0]
[Date: 2020-01-07 08:16:17]	[UserID:06/343]	[IP:10.128.12.113]	[Browser:Chrome - 79.0.3945.88]	[Action:Filtering User : MasterData Username : 06/343]	[Remarks:Successful filter row count: 0]
[Date: 2020-01-07 08:16:17]	[UserID:06/343]	[IP:10.128.12.113]	[Browser:Chrome - 79.0.3945.88]	[Action:Filtering User : MasterData Username : 06/343]	[Remarks:Success]
[Date: 2020-01-07 08:16:17]	[UserID:06/343]	[IP:10.128.12.113]	[Browser:Chrome - 79.0.3945.88]	[Action:Closing mssql connection]	[Remarks:Success]
[Date: 2020-01-07 08:16:18]	[UserID:06/343]	[IP:10.128.12.113]	[Browser:Chrome - 79.0.3945.88]	[Action:Making connection to server]	[Remarks:Successful connection to server: S3]
[Date: 2020-01-07 08:16:18]	[UserID:06/343]	[IP:10.128.12.113]	[Browser:Chrome - 79.0.3945.88]	[Action:GetProgramList 06/343]	[Remarks:[{"ID":"1","ProgramIndex":"GST","ProgramName":"GST"}]]
[Date: 2020-01-07 08:16:18]	[UserID:06/343]	[IP:10.128.12.113]	[Browser:Chrome - 79.0.3945.88]	[Action:Making connection to server]	[Remarks:Successful connection to server: S3]
[Date: 2020-01-07 08:16:18]	[UserID:06/343]	[IP:10.128.12.113]	[Browser:Chrome - 79.0.3945.88]	[Action:GetProgramList 06/343]	[Remarks:[{"ID":"1","ProgramIndex":"GST","ProgramName":"GST"}]]
[Date: 2020-01-07 08:16:18]	[UserID:06/343]	[IP:10.128.12.113]	[Browser:Chrome - 79.0.3945.88]	[Action:Making connection to server]	[Remarks:Successful connection to server: S3]
[Date: 2020-01-07 08:16:18]	[UserID:06/343]	[IP:10.128.12.113]	[Browser:Chrome - 79.0.3945.88]	[Action:Filtering User : MasterData Username : 06/343]	[Remarks:Successful filter row count: 1]
[Date: 2020-01-07 08:16:18]	[UserID:06/343]	[IP:10.128.12.113]	[Browser:Chrome - 79.0.3945.88]	[Action:Making connection to server]	[Remarks:Successful connection to server: S3]
[Date: 2020-01-07 08:16:18]	[UserID:06/343]	[IP:10.128.12.113]	[Browser:Chrome - 79.0.3945.88]	[Action:GetGSTModules 06/343,1]	[Remarks:Successful filter row count: 7]
[Date: 2020-01-07 08:16:18]	[UserID:06/343]	[IP:10.128.12.113]	[Browser:Chrome - 79.0.3945.88]	[Action:Closing mssql connection]	[Remarks:Success]
[Date: 2020-01-07 08:20:14]	[UserID:06/343]	[IP:10.128.12.113]	[Browser:Chrome - 79.0.3945.88]	[Action:Making connection to server]	[Remarks:Successful connection to server: S3]
[Date: 2020-01-07 08:20:14]	[UserID:06/343]	[IP:10.128.12.113]	[Browser:Chrome - 79.0.3945.88]	[Action:GetGSTModules 06/343,1]	[Remarks:Successful filter row count: 7]
[Date: 2020-01-07 08:20:14]	[UserID:06/343]	[IP:10.128.12.113]	[Browser:Chrome - 79.0.3945.88]	[Action:Closing mssql connection]	[Remarks:Success]
[Date: 2020-01-07 08:35:25]	[UserID:]	[IP:10.128.12.120]	[Browser:Chrome - 79.0.3945.88]	[Action:Making connection to server]	[Remarks:Successful connection to server: S3]
[Date: 2020-01-07 08:35:25]	[UserID:]	[IP:10.128.12.120]	[Browser:Chrome - 79.0.3945.88]	[Action:GetProgramList ]	[Remarks:"no data"]
[Date: 2020-01-07 08:35:40]	[UserID:14/1082]	[IP:10.128.12.120]	[Browser:Chrome - 79.0.3945.88]	[Action:Making connection to server]	[Remarks:Successful connection to server: S3]
[Date: 2020-01-07 08:35:40]	[UserID:14/1082]	[IP:10.128.12.120]	[Browser:Chrome - 79.0.3945.88]	[Action:User 14/1082]	[Remarks:Success]
[Date: 2020-01-07 08:35:40]	[UserID:14/1082]	[IP:10.128.12.120]	[Browser:Chrome - 79.0.3945.88]	[Action:Filtering User : MasterData Username : 14/1082]	[Remarks:Successful filter row count: 0]
[Date: 2020-01-07 08:35:40]	[UserID:14/1082]	[IP:10.128.12.120]	[Browser:Chrome - 79.0.3945.88]	[Action:Filtering User : MasterData Username : 14/1082]	[Remarks:Successful filter row count: 0]
[Date: 2020-01-07 08:35:40]	[UserID:14/1082]	[IP:10.128.12.120]	[Browser:Chrome - 79.0.3945.88]	[Action:Filtering User : MasterData Username : 14/1082]	[Remarks:Success]
[Date: 2020-01-07 08:35:40]	[UserID:14/1082]	[IP:10.128.12.120]	[Browser:Chrome - 79.0.3945.88]	[Action:Closing mssql connection]	[Remarks:Success]
[Date: 2020-01-07 08:35:40]	[UserID:14/1082]	[IP:10.128.12.120]	[Browser:Chrome - 79.0.3945.88]	[Action:Making connection to server]	[Remarks:Successful connection to server: S3]
[Date: 2020-01-07 08:35:40]	[UserID:14/1082]	[IP:10.128.12.120]	[Browser:Chrome - 79.0.3945.88]	[Action:GetProgramList 14/1082]	[Remarks:[{"ID":"1","ProgramIndex":"GST","ProgramName":"GST"}]]
[Date: 2020-01-07 08:35:40]	[UserID:14/1082]	[IP:10.128.12.120]	[Browser:Chrome - 79.0.3945.88]	[Action:Making connection to server]	[Remarks:Successful connection to server: S3]
[Date: 2020-01-07 08:35:41]	[UserID:14/1082]	[IP:10.128.12.120]	[Browser:Chrome - 79.0.3945.88]	[Action:GetProgramList 14/1082]	[Remarks:[{"ID":"1","ProgramIndex":"GST","ProgramName":"GST"}]]
[Date: 2020-01-07 08:35:41]	[UserID:14/1082]	[IP:10.128.12.120]	[Browser:Chrome - 79.0.3945.88]	[Action:Making connection to server]	[Remarks:Successful connection to server: S3]
[Date: 2020-01-07 08:35:41]	[UserID:14/1082]	[IP:10.128.12.120]	[Browser:Chrome - 79.0.3945.88]	[Action:Filtering User : MasterData Username : 14/1082]	[Remarks:Successful filter row count: 1]
[Date: 2020-01-07 08:35:41]	[UserID:14/1082]	[IP:10.128.12.120]	[Browser:Chrome - 79.0.3945.88]	[Action:Making connection to server]	[Remarks:Successful connection to server: S3]
[Date: 2020-01-07 08:35:41]	[UserID:14/1082]	[IP:10.128.12.120]	[Browser:Chrome - 79.0.3945.88]	[Action:GetGSTModules 14/1082,1]	[Remarks:Successful filter row count: 8]
[Date: 2020-01-07 08:35:41]	[UserID:14/1082]	[IP:10.128.12.120]	[Browser:Chrome - 79.0.3945.88]	[Action:Closing mssql connection]	[Remarks:Success]
[Date: 2020-01-07 08:35:42]	[UserID:06/343]	[IP:10.128.12.113]	[Browser:Chrome - 79.0.3945.88]	[Action:Making connection to server]	[Remarks:Successful connection to server: S3]
[Date: 2020-01-07 08:35:42]	[UserID:06/343]	[IP:10.128.12.113]	[Browser:Chrome - 79.0.3945.88]	[Action:GetGSTModules 06/343,1]	[Remarks:Successful filter row count: 7]
[Date: 2020-01-07 08:35:42]	[UserID:06/343]	[IP:10.128.12.113]	[Browser:Chrome - 79.0.3945.88]	[Action:Closing mssql connection]	[Remarks:Success]
[Date: 2020-01-07 08:35:54]	[UserID:06/343]	[IP:10.128.12.113]	[Browser:Chrome - 79.0.3945.88]	[Action:Making connection to server]	[Remarks:Successful connection to server: S3]
[Date: 2020-01-07 08:35:54]	[UserID:06/343]	[IP:10.128.12.113]	[Browser:Chrome - 79.0.3945.88]	[Action:GetGSTModules 06/343,1]	[Remarks:Successful filter row count: 7]
[Date: 2020-01-07 08:35:54]	[UserID:06/343]	[IP:10.128.12.113]	[Browser:Chrome - 79.0.3945.88]	[Action:Closing mssql connection]	[Remarks:Success]
[Date: 2020-01-07 08:38:33]	[UserID:06/343]	[IP:10.128.12.113]	[Browser:Chrome - 79.0.3945.88]	[Action:Making connection to server]	[Remarks:Successful connection to server: S3]
[Date: 2020-01-07 08:38:33]	[UserID:06/343]	[IP:10.128.12.113]	[Browser:Chrome - 79.0.3945.88]	[Action:GetGSTModules 06/343,1]	[Remarks:Successful filter row count: 7]
[Date: 2020-01-07 08:38:33]	[UserID:06/343]	[IP:10.128.12.113]	[Browser:Chrome - 79.0.3945.88]	[Action:Closing mssql connection]	[Remarks:Success]
[Date: 2020-01-07 08:39:49]	[UserID:06/343]	[IP:10.128.12.113]	[Browser:Chrome - 79.0.3945.88]	[Action:Making connection to server]	[Remarks:Successful connection to server: S3]
[Date: 2020-01-07 08:39:49]	[UserID:06/343]	[IP:10.128.12.113]	[Browser:Chrome - 79.0.3945.88]	[Action:GetGSTModules 06/343,1]	[Remarks:Successful filter row count: 7]
[Date: 2020-01-07 08:39:49]	[UserID:06/343]	[IP:10.128.12.113]	[Browser:Chrome - 79.0.3945.88]	[Action:Closing mssql connection]	[Remarks:Success]
[Date: 2020-01-07 09:42:17]	[UserID:06/343]	[IP:10.128.12.113]	[Browser:Chrome - 79.0.3945.88]	[Action:Making connection to server]	[Remarks:Successful connection to server: S3]
[Date: 2020-01-07 09:42:17]	[UserID:06/343]	[IP:10.128.12.113]	[Browser:Chrome - 79.0.3945.88]	[Action:GetGSTModules 06/343,1]	[Remarks:Successful filter row count: 7]
[Date: 2020-01-07 09:42:17]	[UserID:06/343]	[IP:10.128.12.113]	[Browser:Chrome - 79.0.3945.88]	[Action:Closing mssql connection]	[Remarks:Success]
[Date: 2020-01-07 09:43:19]	[UserID:06/343]	[IP:10.128.12.113]	[Browser:Chrome - 79.0.3945.88]	[Action:Making connection to server]	[Remarks:Successful connection to server: S3]
[Date: 2020-01-07 09:43:19]	[UserID:06/343]	[IP:10.128.12.113]	[Browser:Chrome - 79.0.3945.88]	[Action:GetGSTModules 06/343,1]	[Remarks:Successful filter row count: 7]
[Date: 2020-01-07 09:43:19]	[UserID:06/343]	[IP:10.128.12.113]	[Browser:Chrome - 79.0.3945.88]	[Action:Closing mssql connection]	[Remarks:Success]
[Date: 2020-01-07 11:35:32]	[UserID:]	[IP:10.128.12.114]	[Browser:Chrome - 79.0.3945.88]	[Action:Making connection to server]	[Remarks:Successful connection to server: S3]
[Date: 2020-01-07 11:35:32]	[UserID:]	[IP:10.128.12.114]	[Browser:Chrome - 79.0.3945.88]	[Action:GetProgramList ]	[Remarks:"no data"]
[Date: 2020-01-07 14:40:16]	[UserID:14/1082]	[IP:10.128.12.114]	[Browser:Chrome - 79.0.3945.88]	[Action:Making connection to server]	[Remarks:Successful connection to server: S3]
[Date: 2020-01-07 14:40:16]	[UserID:14/1082]	[IP:10.128.12.114]	[Browser:Chrome - 79.0.3945.88]	[Action:User 14/1082]	[Remarks:Success]
[Date: 2020-01-07 14:40:16]	[UserID:14/1082]	[IP:10.128.12.114]	[Browser:Chrome - 79.0.3945.88]	[Action:Filtering User : MasterData Username : 14/1082]	[Remarks:Successful filter row count: 0]
[Date: 2020-01-07 14:40:16]	[UserID:14/1082]	[IP:10.128.12.114]	[Browser:Chrome - 79.0.3945.88]	[Action:Filtering User : MasterData Username : 14/1082]	[Remarks:Successful filter row count: 0]
[Date: 2020-01-07 14:40:16]	[UserID:14/1082]	[IP:10.128.12.114]	[Browser:Chrome - 79.0.3945.88]	[Action:Filtering User : MasterData Username : 14/1082]	[Remarks:Success]
[Date: 2020-01-07 14:40:16]	[UserID:14/1082]	[IP:10.128.12.114]	[Browser:Chrome - 79.0.3945.88]	[Action:Closing mssql connection]	[Remarks:Success]
[Date: 2020-01-07 14:40:16]	[UserID:14/1082]	[IP:10.128.12.114]	[Browser:Chrome - 79.0.3945.88]	[Action:Making connection to server]	[Remarks:Successful connection to server: S3]
[Date: 2020-01-07 14:40:16]	[UserID:14/1082]	[IP:10.128.12.114]	[Browser:Chrome - 79.0.3945.88]	[Action:GetProgramList 14/1082]	[Remarks:[{"ID":"1","ProgramIndex":"GST","ProgramName":"GST"}]]
[Date: 2020-01-07 14:40:16]	[UserID:14/1082]	[IP:10.128.12.114]	[Browser:Chrome - 79.0.3945.88]	[Action:Making connection to server]	[Remarks:Successful connection to server: S3]
[Date: 2020-01-07 14:40:16]	[UserID:14/1082]	[IP:10.128.12.114]	[Browser:Chrome - 79.0.3945.88]	[Action:GetProgramList 14/1082]	[Remarks:[{"ID":"1","ProgramIndex":"GST","ProgramName":"GST"}]]
[Date: 2020-01-07 14:40:16]	[UserID:14/1082]	[IP:10.128.12.114]	[Browser:Chrome - 79.0.3945.88]	[Action:Making connection to server]	[Remarks:Successful connection to server: S3]
[Date: 2020-01-07 14:40:16]	[UserID:14/1082]	[IP:10.128.12.114]	[Browser:Chrome - 79.0.3945.88]	[Action:Filtering User : MasterData Username : 14/1082]	[Remarks:Successful filter row count: 1]
[Date: 2020-01-07 14:40:17]	[UserID:14/1082]	[IP:10.128.12.114]	[Browser:Chrome - 79.0.3945.88]	[Action:Making connection to server]	[Remarks:Successful connection to server: S3]
[Date: 2020-01-07 14:40:17]	[UserID:14/1082]	[IP:10.128.12.114]	[Browser:Chrome - 79.0.3945.88]	[Action:GetGSTModules 14/1082,1]	[Remarks:Successful filter row count: 8]
[Date: 2020-01-07 14:40:17]	[UserID:14/1082]	[IP:10.128.12.114]	[Browser:Chrome - 79.0.3945.88]	[Action:Closing mssql connection]	[Remarks:Success]
[Date: 2020-01-07 14:40:49]	[UserID:]	[IP:10.128.12.113]	[Browser:Chrome - 79.0.3945.88]	[Action:Making connection to server]	[Remarks:Successful connection to server: S3]
[Date: 2020-01-07 14:40:49]	[UserID:]	[IP:10.128.12.113]	[Browser:Chrome - 79.0.3945.88]	[Action:GetProgramList ]	[Remarks:"no data"]
[Date: 2020-01-07 14:40:56]	[UserID:06/343]	[IP:10.128.12.113]	[Browser:Chrome - 79.0.3945.88]	[Action:Making connection to server]	[Remarks:Successful connection to server: S3]
[Date: 2020-01-07 14:40:56]	[UserID:06/343]	[IP:10.128.12.113]	[Browser:Chrome - 79.0.3945.88]	[Action:User 06/343]	[Remarks:Success]
[Date: 2020-01-07 14:40:56]	[UserID:06/343]	[IP:10.128.12.113]	[Browser:Chrome - 79.0.3945.88]	[Action:Filtering User : MasterData Username : 06/343]	[Remarks:Successful filter row count: 0]
[Date: 2020-01-07 14:40:56]	[UserID:06/343]	[IP:10.128.12.113]	[Browser:Chrome - 79.0.3945.88]	[Action:Filtering User : MasterData Username : 06/343]	[Remarks:Successful filter row count: 0]
[Date: 2020-01-07 14:40:56]	[UserID:06/343]	[IP:10.128.12.113]	[Browser:Chrome - 79.0.3945.88]	[Action:Filtering User : MasterData Username : 06/343]	[Remarks:Success]
[Date: 2020-01-07 14:40:56]	[UserID:06/343]	[IP:10.128.12.113]	[Browser:Chrome - 79.0.3945.88]	[Action:Closing mssql connection]	[Remarks:Success]
[Date: 2020-01-07 14:40:56]	[UserID:06/343]	[IP:10.128.12.113]	[Browser:Chrome - 79.0.3945.88]	[Action:Making connection to server]	[Remarks:Successful connection to server: S3]
[Date: 2020-01-07 14:40:56]	[UserID:06/343]	[IP:10.128.12.113]	[Browser:Chrome - 79.0.3945.88]	[Action:GetProgramList 06/343]	[Remarks:[{"ID":"1","ProgramIndex":"GST","ProgramName":"GST"}]]
[Date: 2020-01-07 14:40:56]	[UserID:06/343]	[IP:10.128.12.113]	[Browser:Chrome - 79.0.3945.88]	[Action:Making connection to server]	[Remarks:Successful connection to server: S3]
[Date: 2020-01-07 14:40:56]	[UserID:06/343]	[IP:10.128.12.113]	[Browser:Chrome - 79.0.3945.88]	[Action:GetProgramList 06/343]	[Remarks:[{"ID":"1","ProgramIndex":"GST","ProgramName":"GST"}]]
[Date: 2020-01-07 14:40:56]	[UserID:06/343]	[IP:10.128.12.113]	[Browser:Chrome - 79.0.3945.88]	[Action:Making connection to server]	[Remarks:Successful connection to server: S3]
[Date: 2020-01-07 14:40:56]	[UserID:06/343]	[IP:10.128.12.113]	[Browser:Chrome - 79.0.3945.88]	[Action:Filtering User : MasterData Username : 06/343]	[Remarks:Successful filter row count: 1]
[Date: 2020-01-07 14:40:56]	[UserID:06/343]	[IP:10.128.12.113]	[Browser:Chrome - 79.0.3945.88]	[Action:Making connection to server]	[Remarks:Successful connection to server: S3]
[Date: 2020-01-07 14:40:56]	[UserID:06/343]	[IP:10.128.12.113]	[Browser:Chrome - 79.0.3945.88]	[Action:GetGSTModules 06/343,1]	[Remarks:Successful filter row count: 7]
[Date: 2020-01-07 14:40:56]	[UserID:06/343]	[IP:10.128.12.113]	[Browser:Chrome - 79.0.3945.88]	[Action:Closing mssql connection]	[Remarks:Success]
[Date: 2020-01-07 14:46:23]	[UserID:06/343]	[IP:10.128.12.113]	[Browser:Chrome - 79.0.3945.88]	[Action:Making connection to server]	[Remarks:Successful connection to server: S3]
[Date: 2020-01-07 14:46:23]	[UserID:06/343]	[IP:10.128.12.113]	[Browser:Chrome - 79.0.3945.88]	[Action:GetGSTModules 06/343,1]	[Remarks:Successful filter row count: 7]
[Date: 2020-01-07 14:46:23]	[UserID:06/343]	[IP:10.128.12.113]	[Browser:Chrome - 79.0.3945.88]	[Action:Closing mssql connection]	[Remarks:Success]
[Date: 2020-01-07 18:24:20]	[UserID:]	[IP:10.128.12.114]	[Browser:Chrome - 79.0.3945.88]	[Action:Making connection to server]	[Remarks:Successful connection to server: S3]
[Date: 2020-01-07 18:24:20]	[UserID:]	[IP:10.128.12.114]	[Browser:Chrome - 79.0.3945.88]	[Action:GetProgramList ]	[Remarks:"no data"]
[Date: 2020-01-07 18:31:39]	[UserID:]	[IP:10.128.12.114]	[Browser:Chrome - 79.0.3945.88]	[Action:Making connection to server]	[Remarks:Successful connection to server: S3]
[Date: 2020-01-07 18:31:39]	[UserID:]	[IP:10.128.12.114]	[Browser:Chrome - 79.0.3945.88]	[Action:GetProgramList ]	[Remarks:"no data"]
[Date: 2020-01-07 18:31:49]	[UserID:14/1082]	[IP:10.128.12.114]	[Browser:Chrome - 79.0.3945.88]	[Action:Making connection to server]	[Remarks:Successful connection to server: S3]
[Date: 2020-01-07 18:31:49]	[UserID:14/1082]	[IP:10.128.12.114]	[Browser:Chrome - 79.0.3945.88]	[Action:User 14/1082]	[Remarks:Success]
[Date: 2020-01-07 18:31:49]	[UserID:14/1082]	[IP:10.128.12.114]	[Browser:Chrome - 79.0.3945.88]	[Action:Filtering User : MasterData Username : 14/1082]	[Remarks:Successful filter row count: 0]
[Date: 2020-01-07 18:31:49]	[UserID:14/1082]	[IP:10.128.12.114]	[Browser:Chrome - 79.0.3945.88]	[Action:Filtering User : MasterData Username : 14/1082]	[Remarks:Successful filter row count: 0]
[Date: 2020-01-07 18:31:49]	[UserID:14/1082]	[IP:10.128.12.114]	[Browser:Chrome - 79.0.3945.88]	[Action:Filtering User : MasterData Username : 14/1082]	[Remarks:Success]
[Date: 2020-01-07 18:31:49]	[UserID:14/1082]	[IP:10.128.12.114]	[Browser:Chrome - 79.0.3945.88]	[Action:Closing mssql connection]	[Remarks:Success]
[Date: 2020-01-07 18:31:49]	[UserID:14/1082]	[IP:10.128.12.114]	[Browser:Chrome - 79.0.3945.88]	[Action:Making connection to server]	[Remarks:Successful connection to server: S3]
[Date: 2020-01-07 18:31:49]	[UserID:14/1082]	[IP:10.128.12.114]	[Browser:Chrome - 79.0.3945.88]	[Action:GetProgramList 14/1082]	[Remarks:[{"ID":"1","ProgramIndex":"GST","ProgramName":"GST"}]]
[Date: 2020-01-07 18:31:49]	[UserID:14/1082]	[IP:10.128.12.114]	[Browser:Chrome - 79.0.3945.88]	[Action:Making connection to server]	[Remarks:Successful connection to server: S3]
[Date: 2020-01-07 18:31:49]	[UserID:14/1082]	[IP:10.128.12.114]	[Browser:Chrome - 79.0.3945.88]	[Action:GetProgramList 14/1082]	[Remarks:[{"ID":"1","ProgramIndex":"GST","ProgramName":"GST"}]]
[Date: 2020-01-07 18:31:49]	[UserID:14/1082]	[IP:10.128.12.114]	[Browser:Chrome - 79.0.3945.88]	[Action:Making connection to server]	[Remarks:Successful connection to server: S3]
[Date: 2020-01-07 18:31:49]	[UserID:14/1082]	[IP:10.128.12.114]	[Browser:Chrome - 79.0.3945.88]	[Action:Filtering User : MasterData Username : 14/1082]	[Remarks:Successful filter row count: 1]
[Date: 2020-01-07 18:31:49]	[UserID:14/1082]	[IP:10.128.12.114]	[Browser:Chrome - 79.0.3945.88]	[Action:Making connection to server]	[Remarks:Successful connection to server: S3]
[Date: 2020-01-07 18:31:49]	[UserID:14/1082]	[IP:10.128.12.114]	[Browser:Chrome - 79.0.3945.88]	[Action:GetGSTModules 14/1082,1]	[Remarks:Successful filter row count: 8]
[Date: 2020-01-07 18:31:49]	[UserID:14/1082]	[IP:10.128.12.114]	[Browser:Chrome - 79.0.3945.88]	[Action:Closing mssql connection]	[Remarks:Success]
[Date: 2020-01-07 19:48:29]	[UserID:]	[IP:10.128.12.114]	[Browser:Chrome - 79.0.3945.88]	[Action:Making connection to server]	[Remarks:Successful connection to server: S3]
[Date: 2020-01-07 19:48:29]	[UserID:]	[IP:10.128.12.114]	[Browser:Chrome - 79.0.3945.88]	[Action:GetProgramList ]	[Remarks:"no data"]
[Date: 2020-01-07 22:46:34]	[UserID:]	[IP:10.130.25.203]	[Browser:Chrome - 79.0.3945.88]	[Action:Making connection to server]	[Remarks:Successful connection to server: S3]
[Date: 2020-01-07 22:46:34]	[UserID:]	[IP:10.130.25.203]	[Browser:Chrome - 79.0.3945.88]	[Action:GetProgramList ]	[Remarks:"no data"]
