[Date: 2019-01-30 12:53:03]	[UserID:]	[IP:10.128.12.113]	[Browser:Chrome - 71.0.3578.98]	[Action:Making connection to server]	[Remarks:Successful connection to server: S3]
[Date: 2019-01-30 12:53:03]	[UserID:]	[IP:10.128.12.113]	[Browser:Chrome - 71.0.3578.98]	[Action:GetProgramList ]	[Remarks:"no data"]
[Date: 2019-01-30 12:53:13]	[UserID:06/343]	[IP:10.128.12.113]	[Browser:Chrome - 71.0.3578.98]	[Action:Making connection to server]	[Remarks:Successful connection to server: S3]
[Date: 2019-01-30 12:53:13]	[UserID:06/343]	[IP:10.128.12.113]	[Browser:Chrome - 71.0.3578.98]	[Action:User 06/343]	[Remarks:Success]
[Date: 2019-01-30 12:53:13]	[UserID:06/343]	[IP:10.128.12.113]	[Browser:Chrome - 71.0.3578.98]	[Action:Filtering User : MasterData Username : 06/343]	[Remarks:Successful filter row count: 0]
[Date: 2019-01-30 12:53:13]	[UserID:06/343]	[IP:10.128.12.113]	[Browser:Chrome - 71.0.3578.98]	[Action:Filtering User : MasterData Username : 06/343]	[Remarks:Successful filter row count: 0]
[Date: 2019-01-30 12:53:13]	[UserID:06/343]	[IP:10.128.12.113]	[Browser:Chrome - 71.0.3578.98]	[Action:Filtering User : MasterData Username : 06/343]	[Remarks:Success]
[Date: 2019-01-30 12:53:13]	[UserID:06/343]	[IP:10.128.12.113]	[Browser:Chrome - 71.0.3578.98]	[Action:Closing mssql connection]	[Remarks:Success]
[Date: 2019-01-30 12:53:13]	[UserID:06/343]	[IP:10.128.12.113]	[Browser:Chrome - 71.0.3578.98]	[Action:Making connection to server]	[Remarks:Successful connection to server: S3]
[Date: 2019-01-30 12:53:13]	[UserID:06/343]	[IP:10.128.12.113]	[Browser:Chrome - 71.0.3578.98]	[Action:GetProgramList 06/343]	[Remarks:[{"ID":"1","ProgramIndex":"GST","ProgramName":"GST"}]]
[Date: 2019-01-30 12:53:13]	[UserID:06/343]	[IP:10.128.12.113]	[Browser:Chrome - 71.0.3578.98]	[Action:Making connection to server]	[Remarks:Successful connection to server: S3]
[Date: 2019-01-30 12:53:13]	[UserID:06/343]	[IP:10.128.12.113]	[Browser:Chrome - 71.0.3578.98]	[Action:GetProgramList 06/343]	[Remarks:[{"ID":"1","ProgramIndex":"GST","ProgramName":"GST"}]]
[Date: 2019-01-30 12:53:13]	[UserID:06/343]	[IP:10.128.12.113]	[Browser:Chrome - 71.0.3578.98]	[Action:Making connection to server]	[Remarks:Successful connection to server: S3]
[Date: 2019-01-30 12:53:13]	[UserID:06/343]	[IP:10.128.12.113]	[Browser:Chrome - 71.0.3578.98]	[Action:Filtering User : MasterData Username : 06/343]	[Remarks:Successful filter row count: 1]
[Date: 2019-01-30 12:53:13]	[UserID:06/343]	[IP:10.128.12.113]	[Browser:Chrome - 71.0.3578.98]	[Action:Making connection to server]	[Remarks:Successful connection to server: S3]
[Date: 2019-01-30 12:53:13]	[UserID:06/343]	[IP:10.128.12.113]	[Browser:Chrome - 71.0.3578.98]	[Action:GetGSTModules 06/343,1]	[Remarks:Successful filter row count: 6]
[Date: 2019-01-30 12:53:13]	[UserID:06/343]	[IP:10.128.12.113]	[Browser:Chrome - 71.0.3578.98]	[Action:Closing mssql connection]	[Remarks:Success]
[Date: 2019-01-30 12:59:26]	[UserID:06/343]	[IP:10.128.12.113]	[Browser:Chrome - 71.0.3578.98]	[Action:Making connection to server]	[Remarks:Successful connection to server: S3]
[Date: 2019-01-30 12:59:26]	[UserID:06/343]	[IP:10.128.12.113]	[Browser:Chrome - 71.0.3578.98]	[Action:GetGSTModules 06/343,1]	[Remarks:Successful filter row count: 6]
[Date: 2019-01-30 12:59:26]	[UserID:06/343]	[IP:10.128.12.113]	[Browser:Chrome - 71.0.3578.98]	[Action:Closing mssql connection]	[Remarks:Success]
[Date: 2019-01-30 13:03:38]	[UserID:06/343]	[IP:10.128.12.113]	[Browser:Chrome - 71.0.3578.98]	[Action:Making connection to server]	[Remarks:Successful connection to server: S3]
[Date: 2019-01-30 13:03:38]	[UserID:06/343]	[IP:10.128.12.113]	[Browser:Chrome - 71.0.3578.98]	[Action:GetGSTModules 06/343,1]	[Remarks:Successful filter row count: 6]
[Date: 2019-01-30 13:03:38]	[UserID:06/343]	[IP:10.128.12.113]	[Browser:Chrome - 71.0.3578.98]	[Action:Closing mssql connection]	[Remarks:Success]
[Date: 2019-01-30 13:04:21]	[UserID:06/343]	[IP:10.128.12.113]	[Browser:Chrome - 71.0.3578.98]	[Action:Making connection to server]	[Remarks:Successful connection to server: S3]
[Date: 2019-01-30 13:04:21]	[UserID:06/343]	[IP:10.128.12.113]	[Browser:Chrome - 71.0.3578.98]	[Action:GetGSTModules 06/343,1]	[Remarks:Successful filter row count: 6]
[Date: 2019-01-30 13:04:21]	[UserID:06/343]	[IP:10.128.12.113]	[Browser:Chrome - 71.0.3578.98]	[Action:Closing mssql connection]	[Remarks:Success]
[Date: 2019-01-30 13:08:24]	[UserID:06/343]	[IP:10.128.12.113]	[Browser:Chrome - 71.0.3578.98]	[Action:Making connection to server]	[Remarks:Successful connection to server: S3]
[Date: 2019-01-30 13:08:24]	[UserID:06/343]	[IP:10.128.12.113]	[Browser:Chrome - 71.0.3578.98]	[Action:GetGSTModules 06/343,1]	[Remarks:Successful filter row count: 6]
[Date: 2019-01-30 13:08:24]	[UserID:06/343]	[IP:10.128.12.113]	[Browser:Chrome - 71.0.3578.98]	[Action:Closing mssql connection]	[Remarks:Success]
[Date: 2019-01-30 13:15:55]	[UserID:06/343]	[IP:10.128.12.113]	[Browser:Chrome - 71.0.3578.98]	[Action:Making connection to server]	[Remarks:Successful connection to server: S3]
[Date: 2019-01-30 13:15:55]	[UserID:06/343]	[IP:10.128.12.113]	[Browser:Chrome - 71.0.3578.98]	[Action:GetGSTModules 06/343,1]	[Remarks:Successful filter row count: 6]
[Date: 2019-01-30 13:15:55]	[UserID:06/343]	[IP:10.128.12.113]	[Browser:Chrome - 71.0.3578.98]	[Action:Closing mssql connection]	[Remarks:Success]
[Date: 2019-01-30 13:21:00]	[UserID:06/343]	[IP:10.128.12.113]	[Browser:Chrome - 71.0.3578.98]	[Action:Making connection to server]	[Remarks:Successful connection to server: S3]
[Date: 2019-01-30 13:21:00]	[UserID:06/343]	[IP:10.128.12.113]	[Browser:Chrome - 71.0.3578.98]	[Action:GetGSTModules 06/343,1]	[Remarks:Successful filter row count: 6]
[Date: 2019-01-30 13:21:00]	[UserID:06/343]	[IP:10.128.12.113]	[Browser:Chrome - 71.0.3578.98]	[Action:Closing mssql connection]	[Remarks:Success]
[Date: 2019-01-30 13:39:24]	[UserID:06/343]	[IP:10.128.12.113]	[Browser:Chrome - 71.0.3578.98]	[Action:Making connection to server]	[Remarks:Successful connection to server: S3]
[Date: 2019-01-30 13:39:24]	[UserID:06/343]	[IP:10.128.12.113]	[Browser:Chrome - 71.0.3578.98]	[Action:GetGSTModules 06/343,1]	[Remarks:Successful filter row count: 6]
[Date: 2019-01-30 13:39:24]	[UserID:06/343]	[IP:10.128.12.113]	[Browser:Chrome - 71.0.3578.98]	[Action:Closing mssql connection]	[Remarks:Success]
[Date: 2019-01-30 13:39:47]	[UserID:06/343]	[IP:10.128.12.113]	[Browser:Chrome - 71.0.3578.98]	[Action:Making connection to server]	[Remarks:Successful connection to server: S3]
[Date: 2019-01-30 13:39:47]	[UserID:06/343]	[IP:10.128.12.113]	[Browser:Chrome - 71.0.3578.98]	[Action:GetGSTModules 06/343,1]	[Remarks:Successful filter row count: 6]
[Date: 2019-01-30 13:39:47]	[UserID:06/343]	[IP:10.128.12.113]	[Browser:Chrome - 71.0.3578.98]	[Action:Closing mssql connection]	[Remarks:Success]
[Date: 2019-01-30 13:48:56]	[UserID:06/343]	[IP:10.128.12.113]	[Browser:Chrome - 71.0.3578.98]	[Action:Making connection to server]	[Remarks:Successful connection to server: S3]
[Date: 2019-01-30 13:48:56]	[UserID:06/343]	[IP:10.128.12.113]	[Browser:Chrome - 71.0.3578.98]	[Action:GetGSTModules 06/343,1]	[Remarks:Successful filter row count: 6]
[Date: 2019-01-30 13:48:56]	[UserID:06/343]	[IP:10.128.12.113]	[Browser:Chrome - 71.0.3578.98]	[Action:Closing mssql connection]	[Remarks:Success]
[Date: 2019-01-30 14:09:09]	[UserID:06/343]	[IP:10.128.12.113]	[Browser:Chrome - 71.0.3578.98]	[Action:Making connection to server]	[Remarks:Successful connection to server: S3]
[Date: 2019-01-30 14:09:09]	[UserID:06/343]	[IP:10.128.12.113]	[Browser:Chrome - 71.0.3578.98]	[Action:GetProgramList 06/343]	[Remarks:[{"ID":"1","ProgramIndex":"GST","ProgramName":"GST"}]]
[Date: 2019-01-30 14:09:09]	[UserID:06/343]	[IP:10.128.12.113]	[Browser:Chrome - 71.0.3578.98]	[Action:Making connection to server]	[Remarks:Successful connection to server: S3]
[Date: 2019-01-30 14:09:09]	[UserID:06/343]	[IP:10.128.12.113]	[Browser:Chrome - 71.0.3578.98]	[Action:GetProgramList 06/343]	[Remarks:[{"ID":"1","ProgramIndex":"GST","ProgramName":"GST"}]]
[Date: 2019-01-30 14:09:09]	[UserID:06/343]	[IP:10.128.12.113]	[Browser:Chrome - 71.0.3578.98]	[Action:Making connection to server]	[Remarks:Successful connection to server: S3]
[Date: 2019-01-30 14:09:09]	[UserID:06/343]	[IP:10.128.12.113]	[Browser:Chrome - 71.0.3578.98]	[Action:Filtering User : MasterData Username : 06/343]	[Remarks:Successful filter row count: 1]
[Date: 2019-01-30 14:09:10]	[UserID:06/343]	[IP:10.128.12.113]	[Browser:Chrome - 71.0.3578.98]	[Action:Making connection to server]	[Remarks:Successful connection to server: S3]
[Date: 2019-01-30 14:09:10]	[UserID:06/343]	[IP:10.128.12.113]	[Browser:Chrome - 71.0.3578.98]	[Action:GetGSTModules 06/343,1]	[Remarks:Successful filter row count: 6]
[Date: 2019-01-30 14:09:10]	[UserID:06/343]	[IP:10.128.12.113]	[Browser:Chrome - 71.0.3578.98]	[Action:Closing mssql connection]	[Remarks:Success]
[Date: 2019-01-30 14:12:21]	[UserID:06/343]	[IP:10.128.12.113]	[Browser:Chrome - 71.0.3578.98]	[Action:Making connection to server]	[Remarks:Successful connection to server: S3]
[Date: 2019-01-30 14:12:21]	[UserID:06/343]	[IP:10.128.12.113]	[Browser:Chrome - 71.0.3578.98]	[Action:GetGSTModules 06/343,1]	[Remarks:Successful filter row count: 6]
[Date: 2019-01-30 14:12:21]	[UserID:06/343]	[IP:10.128.12.113]	[Browser:Chrome - 71.0.3578.98]	[Action:Closing mssql connection]	[Remarks:Success]
[Date: 2019-01-30 16:47:14]	[UserID:]	[IP:10.128.80.150]	[Browser:Safari - 11.0.1]	[Action:Making connection to server]	[Remarks:Successful connection to server: S3]
[Date: 2019-01-30 16:47:14]	[UserID:]	[IP:10.128.80.150]	[Browser:Safari - 11.0.1]	[Action:GetProgramList ]	[Remarks:"no data"]
[Date: 2019-01-30 16:47:18]	[UserID:reggie]	[IP:10.128.80.150]	[Browser:Safari - 11.0.1]	[Action:Making connection to server]	[Remarks:Successful connection to server: S3]
[Date: 2019-01-30 16:47:18]	[UserID:reggie]	[IP:10.128.80.150]	[Browser:Safari - 11.0.1]	[Action:User reggie]	[Remarks:Success]
[Date: 2019-01-30 16:47:18]	[UserID:reggie]	[IP:10.128.80.150]	[Browser:Safari - 11.0.1]	[Action:Filtering User : MasterData Username : reggie]	[Remarks:Successful filter row count: 0]
[Date: 2019-01-30 16:47:18]	[UserID:reggie]	[IP:10.128.80.150]	[Browser:Safari - 11.0.1]	[Action:Filtering User : MasterData Username : reggie]	[Remarks:Successful filter row count: 0]
[Date: 2019-01-30 16:47:18]	[UserID:reggie]	[IP:10.128.80.150]	[Browser:Safari - 11.0.1]	[Action:Filtering User : MasterData Username : reggie]	[Remarks:Success]
[Date: 2019-01-30 16:47:18]	[UserID:reggie]	[IP:10.128.80.150]	[Browser:Safari - 11.0.1]	[Action:Closing mssql connection]	[Remarks:Success]
[Date: 2019-01-30 16:47:18]	[UserID:reggie]	[IP:10.128.80.150]	[Browser:Safari - 11.0.1]	[Action:Making connection to server]	[Remarks:Successful connection to server: S3]
[Date: 2019-01-30 16:47:18]	[UserID:reggie]	[IP:10.128.80.150]	[Browser:Safari - 11.0.1]	[Action:GetProgramList reggie]	[Remarks:[{"ID":"1","ProgramIndex":"GST","ProgramName":"GST"},{"ID":"3","ProgramIndex":"PRD","ProgramName":"PRD"}]]
[Date: 2019-01-30 16:47:18]	[UserID:reggie]	[IP:10.128.80.150]	[Browser:Safari - 11.0.1]	[Action:Making connection to server]	[Remarks:Successful connection to server: S3]
[Date: 2019-01-30 16:47:18]	[UserID:reggie]	[IP:10.128.80.150]	[Browser:Safari - 11.0.1]	[Action:GetProgramList reggie]	[Remarks:[{"ID":"1","ProgramIndex":"GST","ProgramName":"GST"},{"ID":"3","ProgramIndex":"PRD","ProgramName":"PRD"}]]
[Date: 2019-01-30 16:47:18]	[UserID:reggie]	[IP:10.128.80.150]	[Browser:Safari - 11.0.1]	[Action:Making connection to server]	[Remarks:Successful connection to server: S3]
[Date: 2019-01-30 16:47:18]	[UserID:reggie]	[IP:10.128.80.150]	[Browser:Safari - 11.0.1]	[Action:Filtering User : MasterData Username : reggie]	[Remarks:Successful filter row count: 1]
[Date: 2019-01-30 16:47:20]	[UserID:reggie]	[IP:10.128.80.150]	[Browser:Safari - 11.0.1]	[Action:Making connection to server]	[Remarks:Successful connection to server: S3]
[Date: 2019-01-30 16:47:20]	[UserID:reggie]	[IP:10.128.80.150]	[Browser:Safari - 11.0.1]	[Action:GetGSTModules reggie,1]	[Remarks:Successful filter row count: 3]
[Date: 2019-01-30 16:47:20]	[UserID:reggie]	[IP:10.128.80.150]	[Browser:Safari - 11.0.1]	[Action:Closing mssql connection]	[Remarks:Success]
[Date: 2019-01-30 16:47:26]	[UserID:reggie]	[IP:10.128.80.150]	[Browser:Safari - 11.0.1]	[Action:Making connection to server]	[Remarks:Successful connection to server: S3]
[Date: 2019-01-30 16:47:26]	[UserID:reggie]	[IP:10.128.80.150]	[Browser:Safari - 11.0.1]	[Action:GetGSTModules reggie,1]	[Remarks:Successful filter row count: 3]
[Date: 2019-01-30 16:47:26]	[UserID:reggie]	[IP:10.128.80.150]	[Browser:Safari - 11.0.1]	[Action:Closing mssql connection]	[Remarks:Success]
[Date: 2019-01-30 16:52:19]	[UserID:reggie]	[IP:10.128.80.150]	[Browser:Safari - 11.0.1]	[Action:Making connection to server]	[Remarks:Successful connection to server: S3]
[Date: 2019-01-30 16:52:19]	[UserID:reggie]	[IP:10.128.80.150]	[Browser:Safari - 11.0.1]	[Action:GetProgramList reggie]	[Remarks:[{"ID":"1","ProgramIndex":"GST","ProgramName":"GST"},{"ID":"3","ProgramIndex":"PRD","ProgramName":"PRD"}]]
[Date: 2019-01-30 16:52:19]	[UserID:reggie]	[IP:10.128.80.150]	[Browser:Safari - 11.0.1]	[Action:Making connection to server]	[Remarks:Successful connection to server: S3]
[Date: 2019-01-30 16:52:19]	[UserID:reggie]	[IP:10.128.80.150]	[Browser:Safari - 11.0.1]	[Action:GetProgramList reggie]	[Remarks:[{"ID":"1","ProgramIndex":"GST","ProgramName":"GST"},{"ID":"3","ProgramIndex":"PRD","ProgramName":"PRD"}]]
[Date: 2019-01-30 16:52:19]	[UserID:reggie]	[IP:10.128.80.150]	[Browser:Safari - 11.0.1]	[Action:Making connection to server]	[Remarks:Successful connection to server: S3]
[Date: 2019-01-30 16:52:19]	[UserID:reggie]	[IP:10.128.80.150]	[Browser:Safari - 11.0.1]	[Action:Filtering User : MasterData Username : reggie]	[Remarks:Successful filter row count: 1]
[Date: 2019-01-30 16:52:23]	[UserID:reggie]	[IP:10.128.80.150]	[Browser:Safari - 11.0.1]	[Action:Making connection to server]	[Remarks:Successful connection to server: S3]
[Date: 2019-01-30 16:52:23]	[UserID:reggie]	[IP:10.128.80.150]	[Browser:Safari - 11.0.1]	[Action:GetGSTModules reggie,1]	[Remarks:Successful filter row count: 3]
[Date: 2019-01-30 16:52:23]	[UserID:reggie]	[IP:10.128.80.150]	[Browser:Safari - 11.0.1]	[Action:Closing mssql connection]	[Remarks:Success]
[Date: 2019-01-30 16:54:53]	[UserID:reggie]	[IP:10.128.80.150]	[Browser:Safari - 11.0.1]	[Action:Making connection to server]	[Remarks:Successful connection to server: S3]
[Date: 2019-01-30 16:54:53]	[UserID:reggie]	[IP:10.128.80.150]	[Browser:Safari - 11.0.1]	[Action:GetGSTModules reggie,1]	[Remarks:Successful filter row count: 3]
[Date: 2019-01-30 16:54:53]	[UserID:reggie]	[IP:10.128.80.150]	[Browser:Safari - 11.0.1]	[Action:Closing mssql connection]	[Remarks:Success]
[Date: 2019-01-30 16:56:47]	[UserID:reggie]	[IP:10.128.80.150]	[Browser:Safari - 11.0.1]	[Action:Making connection to server]	[Remarks:Successful connection to server: S3]
[Date: 2019-01-30 16:56:47]	[UserID:reggie]	[IP:10.128.80.150]	[Browser:Safari - 11.0.1]	[Action:GetProgramList reggie]	[Remarks:[{"ID":"1","ProgramIndex":"GST","ProgramName":"GST"},{"ID":"3","ProgramIndex":"PRD","ProgramName":"PRD"}]]
[Date: 2019-01-30 16:56:47]	[UserID:reggie]	[IP:10.128.80.150]	[Browser:Safari - 11.0.1]	[Action:Making connection to server]	[Remarks:Successful connection to server: S3]
[Date: 2019-01-30 16:56:48]	[UserID:reggie]	[IP:10.128.80.150]	[Browser:Safari - 11.0.1]	[Action:GetProgramList reggie]	[Remarks:[{"ID":"1","ProgramIndex":"GST","ProgramName":"GST"},{"ID":"3","ProgramIndex":"PRD","ProgramName":"PRD"}]]
[Date: 2019-01-30 16:56:48]	[UserID:reggie]	[IP:10.128.80.150]	[Browser:Safari - 11.0.1]	[Action:Making connection to server]	[Remarks:Successful connection to server: S3]
[Date: 2019-01-30 16:56:48]	[UserID:reggie]	[IP:10.128.80.150]	[Browser:Safari - 11.0.1]	[Action:Filtering User : MasterData Username : reggie]	[Remarks:Successful filter row count: 1]
[Date: 2019-01-30 16:56:49]	[UserID:reggie]	[IP:10.128.80.150]	[Browser:Safari - 11.0.1]	[Action:Making connection to server]	[Remarks:Successful connection to server: S3]
[Date: 2019-01-30 16:56:49]	[UserID:reggie]	[IP:10.128.80.150]	[Browser:Safari - 11.0.1]	[Action:GetGSTModules reggie,1]	[Remarks:Successful filter row count: 3]
[Date: 2019-01-30 16:56:49]	[UserID:reggie]	[IP:10.128.80.150]	[Browser:Safari - 11.0.1]	[Action:Closing mssql connection]	[Remarks:Success]
[Date: 2019-01-30 17:01:40]	[UserID:reggie]	[IP:10.128.80.150]	[Browser:Safari - 11.0.1]	[Action:Making connection to server]	[Remarks:Successful connection to server: S3]
[Date: 2019-01-30 17:01:40]	[UserID:reggie]	[IP:10.128.80.150]	[Browser:Safari - 11.0.1]	[Action:GetGSTModules reggie,1]	[Remarks:Successful filter row count: 3]
[Date: 2019-01-30 17:01:40]	[UserID:reggie]	[IP:10.128.80.150]	[Browser:Safari - 11.0.1]	[Action:Closing mssql connection]	[Remarks:Success]
[Date: 2019-01-30 23:34:10]	[UserID:]	[IP:10.139.5.108]	[Browser:Chrome - 71.0.3578.98]	[Action:Making connection to server]	[Remarks:Successful connection to server: S3]
[Date: 2019-01-30 23:34:10]	[UserID:]	[IP:10.139.5.108]	[Browser:Chrome - 71.0.3578.98]	[Action:GetProgramList ]	[Remarks:"no data"]
